{
  "type": "pull",
  "pull": {
    "url": "https://api.github.com/repos/bitcoin/bitcoin/pulls/22844",
    "id": 723334435,
    "node_id": "MDExOlB1bGxSZXF1ZXN0NzIzMzM0NDM1",
    "html_url": "https://github.com/bitcoin/bitcoin/pull/22844",
    "diff_url": "https://github.com/bitcoin/bitcoin/pull/22844.diff",
    "patch_url": "https://github.com/bitcoin/bitcoin/pull/22844.patch",
    "issue_url": "https://api.github.com/repos/bitcoin/bitcoin/issues/22844",
    "commits_url": "https://api.github.com/repos/bitcoin/bitcoin/pulls/22844/commits",
    "review_comments_url": "https://api.github.com/repos/bitcoin/bitcoin/pulls/22844/comments",
    "review_comment_url": "https://api.github.com/repos/bitcoin/bitcoin/pulls/comments%7B/number%7D",
    "comments_url": "https://api.github.com/repos/bitcoin/bitcoin/issues/22844/comments",
    "statuses_url": "https://api.github.com/repos/bitcoin/bitcoin/statuses/47995dddeb524aff615a05c286d2892c44b014b9",
    "number": 22844,
    "state": "closed",
    "locked": true,
    "maintainer_can_modify": false,
    "title": "feature: enable mypy to run without --ignore-imports",
    "user": {
      "login": "josibake",
      "id": 7444140,
      "node_id": "MDQ6VXNlcjc0NDQxNDA=",
      "avatar_url": "https://avatars.githubusercontent.com/u/7444140?v=4",
      "gravatar_id": "",
      "url": "https://api.github.com/users/josibake",
      "html_url": "https://github.com/josibake",
      "followers_url": "https://api.github.com/users/josibake/followers",
      "following_url": "https://api.github.com/users/josibake/following%7B/other_user%7D",
      "gists_url": "https://api.github.com/users/josibake/gists%7B/gist_id%7D",
      "starred_url": "https://api.github.com/users/josibake/starred%7B/owner%7D%7B/repo%7D",
      "subscriptions_url": "https://api.github.com/users/josibake/subscriptions",
      "organizations_url": "https://api.github.com/users/josibake/orgs",
      "repos_url": "https://api.github.com/users/josibake/repos",
      "events_url": "https://api.github.com/users/josibake/events%7B/privacy%7D",
      "received_events_url": "https://api.github.com/users/josibake/received_events",
      "type": "User",
      "site_admin": false
    },
    "body": "This relates to #19389 by enabling mypy to run without `--ignore-imports`. This is the minimum amount of work needed to get mypy running in the linter, after which annotations can be added to scripts in `contrib/` and `test_framework/` to get the full benefit of running mypy in the linter.\r\n\r\n## special notes\r\n\r\nThis also involved updating PyZMQ per https://github.com/bitcoin/bitcoin/issues/19389#issuecomment-850092152 .\r\n\r\n## how to test\r\n\r\nafter making these changes, I ran `./test/lint/lint-python.sh` and verified no errors. \r\n\r\nTo be sure mypy would actually catch type errors when they existed, I added the following lines to `contrib/devtools/symbol-checker.py`:\r\n\r\n```\r\ndef check_imported_symbols(filename: str) -> bool:\r\n    test = filename + 1\r\n    ...\r\n```\r\n\r\nFirst, `filename` needed to be annotated as str, or else mypy treats it as `Any` and `Any +1` is allowed. After annotating `filename: str` and adding an illegal operation, running ./test/lint/lint-python.sh` returned the following error:\r\n\r\n```bash\r\ncontrib/devtools/symbol-check.py:170:5: F841 local variable 'test' is assigned to but never used\r\ncontrib/devtools/symbol-check.py:170: error: Unsupported operand types for + (\"str\" and \"int\")  [operator]\r\n```\r\n\r\n## next steps\r\n\r\nWhere we do have mypy annotations, they are often incomplete. This causes mypy to evaluate arguments as `Any` (see example above with `symbol-checker.py`). I propose a follow-up PR adding annotations. At a minimum, annotations should be added for everything in `test_framework/`, which can be done fairly easily with `monkeytype`. The benefit of this is, now that we are running without `--ignore-imports`, mypy can detect errors in the functional tests even if they don't have annotations, so long as all of the files in `test_framework/` are fully annotated.",
    "labels": [
      {
        "id": 231994551,
        "node_id": "MDU6TGFiZWwyMzE5OTQ1NTE=",
        "url": "https://api.github.com/repos/bitcoin/bitcoin/labels/Scripts%20and%20tools",
        "name": "Scripts and tools",
        "color": "ffffee",
        "default": false
      }
    ],
    "created_at": "2021-08-31T12:40:01Z",
    "updated_at": "2022-10-30T19:09:25Z",
    "closed_at": "2021-10-07T06:22:41Z",
    "mergeable_state": "unknown",
    "merge_commit_sha": "1e1e72232603f304c49a37939b2d669bcb98751c",
    "assignees": [],
    "requested_reviewers": [],
    "requested_teams": [],
    "head": {
      "label": "josibake:josibake-fix-mypy-import-errors",
      "ref": "josibake-fix-mypy-import-errors",
      "sha": "47995dddeb524aff615a05c286d2892c44b014b9",
      "user": {
        "login": "josibake",
        "id": 7444140,
        "node_id": "MDQ6VXNlcjc0NDQxNDA=",
        "avatar_url": "https://avatars.githubusercontent.com/u/7444140?v=4",
        "gravatar_id": "",
        "url": "https://api.github.com/users/josibake",
        "html_url": "https://github.com/josibake",
        "followers_url": "https://api.github.com/users/josibake/followers",
        "following_url": "https://api.github.com/users/josibake/following%7B/other_user%7D",
        "gists_url": "https://api.github.com/users/josibake/gists%7B/gist_id%7D",
        "starred_url": "https://api.github.com/users/josibake/starred%7B/owner%7D%7B/repo%7D",
        "subscriptions_url": "https://api.github.com/users/josibake/subscriptions",
        "organizations_url": "https://api.github.com/users/josibake/orgs",
        "repos_url": "https://api.github.com/users/josibake/repos",
        "events_url": "https://api.github.com/users/josibake/events%7B/privacy%7D",
        "received_events_url": "https://api.github.com/users/josibake/received_events",
        "type": "User",
        "site_admin": false
      },
      "repo": {
        "id": 344501009,
        "node_id": "MDEwOlJlcG9zaXRvcnkzNDQ1MDEwMDk=",
        "name": "bitcoin",
        "full_name": "josibake/bitcoin",
        "owner": {
          "login": "josibake",
          "id": 7444140,
          "node_id": "MDQ6VXNlcjc0NDQxNDA=",
          "avatar_url": "https://avatars.githubusercontent.com/u/7444140?v=4",
          "gravatar_id": "",
          "url": "https://api.github.com/users/josibake",
          "html_url": "https://github.com/josibake",
          "followers_url": "https://api.github.com/users/josibake/followers",
          "following_url": "https://api.github.com/users/josibake/following%7B/other_user%7D",
          "gists_url": "https://api.github.com/users/josibake/gists%7B/gist_id%7D",
          "starred_url": "https://api.github.com/users/josibake/starred%7B/owner%7D%7B/repo%7D",
          "subscriptions_url": "https://api.github.com/users/josibake/subscriptions",
          "organizations_url": "https://api.github.com/users/josibake/orgs",
          "repos_url": "https://api.github.com/users/josibake/repos",
          "events_url": "https://api.github.com/users/josibake/events%7B/privacy%7D",
          "received_events_url": "https://api.github.com/users/josibake/received_events",
          "type": "User",
          "site_admin": false
        },
        "private": false,
        "html_url": "https://github.com/josibake/bitcoin",
        "description": "Bitcoin Core integration/staging tree",
        "fork": true,
        "url": "https://api.github.com/repos/josibake/bitcoin",
        "archive_url": "https://api.github.com/repos/josibake/bitcoin/%7Barchive_format%7D%7B/ref%7D",
        "assignees_url": "https://api.github.com/repos/josibake/bitcoin/assignees%7B/user%7D",
        "blobs_url": "https://api.github.com/repos/josibake/bitcoin/git/blobs%7B/sha%7D",
        "branches_url": "https://api.github.com/repos/josibake/bitcoin/branches%7B/branch%7D",
        "collaborators_url": "https://api.github.com/repos/josibake/bitcoin/collaborators%7B/collaborator%7D",
        "comments_url": "https://api.github.com/repos/josibake/bitcoin/comments%7B/number%7D",
        "commits_url": "https://api.github.com/repos/josibake/bitcoin/commits%7B/sha%7D",
        "compare_url": "https://api.github.com/repos/josibake/bitcoin/compare/%7Bbase%7D...%7Bhead%7D",
        "contents_url": "https://api.github.com/repos/josibake/bitcoin/contents/%7B+path%7D",
        "contributors_url": "https://api.github.com/repos/josibake/bitcoin/contributors",
        "deployments_url": "https://api.github.com/repos/josibake/bitcoin/deployments",
        "downloads_url": "https://api.github.com/repos/josibake/bitcoin/downloads",
        "events_url": "https://api.github.com/repos/josibake/bitcoin/events",
        "forks_url": "https://api.github.com/repos/josibake/bitcoin/forks",
        "git_commits_url": "https://api.github.com/repos/josibake/bitcoin/git/commits%7B/sha%7D",
        "git_refs_url": "https://api.github.com/repos/josibake/bitcoin/git/refs%7B/sha%7D",
        "git_tags_url": "https://api.github.com/repos/josibake/bitcoin/git/tags%7B/sha%7D",
        "git_url": "git://github.com/josibake/bitcoin.git",
        "issue_comment_url": "https://api.github.com/repos/josibake/bitcoin/issues/comments%7B/number%7D",
        "issue_events_url": "https://api.github.com/repos/josibake/bitcoin/issues/events%7B/number%7D",
        "issues_url": "https://api.github.com/repos/josibake/bitcoin/issues%7B/number%7D",
        "keys_url": "https://api.github.com/repos/josibake/bitcoin/keys%7B/key_id%7D",
        "labels_url": "https://api.github.com/repos/josibake/bitcoin/labels%7B/name%7D",
        "languages_url": "https://api.github.com/repos/josibake/bitcoin/languages",
        "merges_url": "https://api.github.com/repos/josibake/bitcoin/merges",
        "milestones_url": "https://api.github.com/repos/josibake/bitcoin/milestones%7B/number%7D",
        "notifications_url": "https://api.github.com/repos/josibake/bitcoin/notifications%7B?since,all,participating}",
        "pulls_url": "https://api.github.com/repos/josibake/bitcoin/pulls%7B/number%7D",
        "releases_url": "https://api.github.com/repos/josibake/bitcoin/releases%7B/id%7D",
        "ssh_url": "git@github.com:josibake/bitcoin.git",
        "stargazers_url": "https://api.github.com/repos/josibake/bitcoin/stargazers",
        "statuses_url": "https://api.github.com/repos/josibake/bitcoin/statuses/%7Bsha%7D",
        "subscribers_url": "https://api.github.com/repos/josibake/bitcoin/subscribers",
        "subscription_url": "https://api.github.com/repos/josibake/bitcoin/subscription",
        "tags_url": "https://api.github.com/repos/josibake/bitcoin/tags",
        "teams_url": "https://api.github.com/repos/josibake/bitcoin/teams",
        "trees_url": "https://api.github.com/repos/josibake/bitcoin/git/trees%7B/sha%7D",
        "clone_url": "https://github.com/josibake/bitcoin.git",
        "hooks_url": "https://api.github.com/repos/josibake/bitcoin/hooks",
        "svn_url": "https://github.com/josibake/bitcoin",
        "homepage": "https://bitcoincore.org/en/download",
        "language": "C++",
        "forks_count": 0,
        "stargazers_count": 0,
        "watchers_count": 0,
        "size": 225840,
        "default_branch": "master",
        "open_issues_count": 0,
        "is_template": false,
        "topics": [],
        "has_issues": false,
        "has_projects": true,
        "has_wiki": false,
        "has_pages": false,
        "has_downloads": false,
        "archived": false,
        "disabled": false,
        "visibility": "public",
        "pushed_at": "2023-08-02T14:00:24Z",
        "created_at": "2021-03-04T14:24:20Z",
        "updated_at": "2022-01-04T15:38:49Z",
        "license": {
          "key": "mit",
          "name": "MIT License",
          "node_id": "MDc6TGljZW5zZTEz",
          "spdx_id": "MIT",
          "url": "https://api.github.com/licenses/mit",
          "html_url": null,
          "description": null,
          "implementation": null,
          "permissions": null,
          "conditions": null,
          "limitations": null,
          "body": null,
          "featured": null
        }
      }
    },
    "base": {
      "label": "bitcoin:master",
      "ref": "master",
      "sha": "0f0c5d4e7d6d9aa32d319f7d3b05068b9ab1f86e",
      "user": {
        "login": "bitcoin",
        "id": 528860,
        "node_id": "MDEyOk9yZ2FuaXphdGlvbjUyODg2MA==",
        "avatar_url": "https://avatars.githubusercontent.com/u/528860?v=4",
        "gravatar_id": "",
        "url": "https://api.github.com/users/bitcoin",
        "html_url": "https://github.com/bitcoin",
        "followers_url": "https://api.github.com/users/bitcoin/followers",
        "following_url": "https://api.github.com/users/bitcoin/following%7B/other_user%7D",
        "gists_url": "https://api.github.com/users/bitcoin/gists%7B/gist_id%7D",
        "starred_url": "https://api.github.com/users/bitcoin/starred%7B/owner%7D%7B/repo%7D",
        "subscriptions_url": "https://api.github.com/users/bitcoin/subscriptions",
        "organizations_url": "https://api.github.com/users/bitcoin/orgs",
        "repos_url": "https://api.github.com/users/bitcoin/repos",
        "events_url": "https://api.github.com/users/bitcoin/events%7B/privacy%7D",
        "received_events_url": "https://api.github.com/users/bitcoin/received_events",
        "type": "Organization",
        "site_admin": false
      },
      "repo": {
        "id": 1181927,
        "node_id": "MDEwOlJlcG9zaXRvcnkxMTgxOTI3",
        "name": "bitcoin",
        "full_name": "bitcoin/bitcoin",
        "owner": {
          "login": "bitcoin",
          "id": 528860,
          "node_id": "MDEyOk9yZ2FuaXphdGlvbjUyODg2MA==",
          "avatar_url": "https://avatars.githubusercontent.com/u/528860?v=4",
          "gravatar_id": "",
          "url": "https://api.github.com/users/bitcoin",
          "html_url": "https://github.com/bitcoin",
          "followers_url": "https://api.github.com/users/bitcoin/followers",
          "following_url": "https://api.github.com/users/bitcoin/following%7B/other_user%7D",
          "gists_url": "https://api.github.com/users/bitcoin/gists%7B/gist_id%7D",
          "starred_url": "https://api.github.com/users/bitcoin/starred%7B/owner%7D%7B/repo%7D",
          "subscriptions_url": "https://api.github.com/users/bitcoin/subscriptions",
          "organizations_url": "https://api.github.com/users/bitcoin/orgs",
          "repos_url": "https://api.github.com/users/bitcoin/repos",
          "events_url": "https://api.github.com/users/bitcoin/events%7B/privacy%7D",
          "received_events_url": "https://api.github.com/users/bitcoin/received_events",
          "type": "Organization",
          "site_admin": false
        },
        "private": false,
        "html_url": "https://github.com/bitcoin/bitcoin",
        "description": "Bitcoin Core integration/staging tree",
        "fork": false,
        "url": "https://api.github.com/repos/bitcoin/bitcoin",
        "archive_url": "https://api.github.com/repos/bitcoin/bitcoin/%7Barchive_format%7D%7B/ref%7D",
        "assignees_url": "https://api.github.com/repos/bitcoin/bitcoin/assignees%7B/user%7D",
        "blobs_url": "https://api.github.com/repos/bitcoin/bitcoin/git/blobs%7B/sha%7D",
        "branches_url": "https://api.github.com/repos/bitcoin/bitcoin/branches%7B/branch%7D",
        "collaborators_url": "https://api.github.com/repos/bitcoin/bitcoin/collaborators%7B/collaborator%7D",
        "comments_url": "https://api.github.com/repos/bitcoin/bitcoin/comments%7B/number%7D",
        "commits_url": "https://api.github.com/repos/bitcoin/bitcoin/commits%7B/sha%7D",
        "compare_url": "https://api.github.com/repos/bitcoin/bitcoin/compare/%7Bbase%7D...%7Bhead%7D",
        "contents_url": "https://api.github.com/repos/bitcoin/bitcoin/contents/%7B+path%7D",
        "contributors_url": "https://api.github.com/repos/bitcoin/bitcoin/contributors",
        "deployments_url": "https://api.github.com/repos/bitcoin/bitcoin/deployments",
        "downloads_url": "https://api.github.com/repos/bitcoin/bitcoin/downloads",
        "events_url": "https://api.github.com/repos/bitcoin/bitcoin/events",
        "forks_url": "https://api.github.com/repos/bitcoin/bitcoin/forks",
        "git_commits_url": "https://api.github.com/repos/bitcoin/bitcoin/git/commits%7B/sha%7D",
        "git_refs_url": "https://api.github.com/repos/bitcoin/bitcoin/git/refs%7B/sha%7D",
        "git_tags_url": "https://api.github.com/repos/bitcoin/bitcoin/git/tags%7B/sha%7D",
        "git_url": "git://github.com/bitcoin/bitcoin.git",
        "issue_comment_url": "https://api.github.com/repos/bitcoin/bitcoin/issues/comments%7B/number%7D",
        "issue_events_url": "https://api.github.com/repos/bitcoin/bitcoin/issues/events%7B/number%7D",
        "issues_url": "https://api.github.com/repos/bitcoin/bitcoin/issues%7B/number%7D",
        "keys_url": "https://api.github.com/repos/bitcoin/bitcoin/keys%7B/key_id%7D",
        "labels_url": "https://api.github.com/repos/bitcoin/bitcoin/labels%7B/name%7D",
        "languages_url": "https://api.github.com/repos/bitcoin/bitcoin/languages",
        "merges_url": "https://api.github.com/repos/bitcoin/bitcoin/merges",
        "milestones_url": "https://api.github.com/repos/bitcoin/bitcoin/milestones%7B/number%7D",
        "notifications_url": "https://api.github.com/repos/bitcoin/bitcoin/notifications%7B?since,all,participating}",
        "pulls_url": "https://api.github.com/repos/bitcoin/bitcoin/pulls%7B/number%7D",
        "releases_url": "https://api.github.com/repos/bitcoin/bitcoin/releases%7B/id%7D",
        "ssh_url": "git@github.com:bitcoin/bitcoin.git",
        "stargazers_url": "https://api.github.com/repos/bitcoin/bitcoin/stargazers",
        "statuses_url": "https://api.github.com/repos/bitcoin/bitcoin/statuses/%7Bsha%7D",
        "subscribers_url": "https://api.github.com/repos/bitcoin/bitcoin/subscribers",
        "subscription_url": "https://api.github.com/repos/bitcoin/bitcoin/subscription",
        "tags_url": "https://api.github.com/repos/bitcoin/bitcoin/tags",
        "teams_url": "https://api.github.com/repos/bitcoin/bitcoin/teams",
        "trees_url": "https://api.github.com/repos/bitcoin/bitcoin/git/trees%7B/sha%7D",
        "clone_url": "https://github.com/bitcoin/bitcoin.git",
        "hooks_url": "https://api.github.com/repos/bitcoin/bitcoin/hooks",
        "svn_url": "https://github.com/bitcoin/bitcoin",
        "homepage": "https://bitcoincore.org/en/download",
        "language": "C++",
        "forks_count": 35476,
        "stargazers_count": 70608,
        "watchers_count": 70608,
        "size": 236222,
        "default_branch": "master",
        "open_issues_count": 672,
        "is_template": false,
        "topics": [
          "bitcoin",
          "c-plus-plus",
          "cryptocurrency",
          "cryptography",
          "p2p"
        ],
        "has_issues": true,
        "has_projects": true,
        "has_wiki": false,
        "has_pages": false,
        "has_downloads": false,
        "archived": false,
        "disabled": false,
        "visibility": "public",
        "pushed_at": "2023-08-02T20:20:41Z",
        "created_at": "2010-12-19T15:16:43Z",
        "updated_at": "2023-08-02T18:21:18Z",
        "license": {
          "key": "mit",
          "name": "MIT License",
          "node_id": "MDc6TGljZW5zZTEz",
          "spdx_id": "MIT",
          "url": "https://api.github.com/licenses/mit",
          "html_url": null,
          "description": null,
          "implementation": null,
          "permissions": null,
          "conditions": null,
          "limitations": null,
          "body": null,
          "featured": null
        }
      }
    },
    "_links": {
      "self": {
        "href": "https://api.github.com/repos/bitcoin/bitcoin/pulls/22844"
      }
    },
    "author_association": "CONTRIBUTOR",
    "draft": false,
    "additions": 4,
    "deletions": 3,
    "changed_files": 5,
    "commits": 2,
    "review_comments": 1,
    "comments": 7
  },
  "events": [
    {
      "event": "commented",
      "id": 909207565,
      "node_id": "IC_kwDOABII5842MWgN",
      "url": "https://api.github.com/repos/bitcoin/bitcoin/issues/comments/909207565",
      "actor": {
        "login": "fanquake",
        "id": 863730,
        "node_id": "MDQ6VXNlcjg2MzczMA==",
        "avatar_url": "https://avatars.githubusercontent.com/u/863730?v=4",
        "gravatar_id": "",
        "url": "https://api.github.com/users/fanquake",
        "html_url": "https://github.com/fanquake",
        "followers_url": "https://api.github.com/users/fanquake/followers",
        "following_url": "https://api.github.com/users/fanquake/following%7B/other_user%7D",
        "gists_url": "https://api.github.com/users/fanquake/gists%7B/gist_id%7D",
        "starred_url": "https://api.github.com/users/fanquake/starred%7B/owner%7D%7B/repo%7D",
        "subscriptions_url": "https://api.github.com/users/fanquake/subscriptions",
        "organizations_url": "https://api.github.com/users/fanquake/orgs",
        "repos_url": "https://api.github.com/users/fanquake/repos",
        "events_url": "https://api.github.com/users/fanquake/events%7B/privacy%7D",
        "received_events_url": "https://api.github.com/users/fanquake/received_events",
        "type": "User",
        "site_admin": false
      },
      "commit_id": null,
      "commit_url": null,
      "created_at": "2021-08-31T12:51:38Z",
      "updated_at": "2021-08-31T12:51:38Z",
      "author_association": "MEMBER",
      "body": "Pretty sure need to install `pyzmq` into the container where the linter is running:\r\n```bash\r\ntest/functional/test_framework/test_framework.py:805: error: Cannot find implementation or library stub for module named 'zmq'  [import]\r\ntest/functional/interface_zmq.py:32: error: Cannot find implementation or library stub for module named 'zmq'  [import]\r\ntest/functional/interface_zmq.py:32: note: See https://mypy.readthedocs.io/en/latest/running_mypy.html#missing-imports\r\nFound 2 errors in 2 files (checked 214 source files)\r\n^---- failure generated from test/lint/lint-python.sh\r\n```",
      "user": {
        "login": "fanquake",
        "id": 863730,
        "node_id": "MDQ6VXNlcjg2MzczMA==",
        "avatar_url": "https://avatars.githubusercontent.com/u/863730?v=4",
        "gravatar_id": "",
        "url": "https://api.github.com/users/fanquake",
        "html_url": "https://github.com/fanquake",
        "followers_url": "https://api.github.com/users/fanquake/followers",
        "following_url": "https://api.github.com/users/fanquake/following%7B/other_user%7D",
        "gists_url": "https://api.github.com/users/fanquake/gists%7B/gist_id%7D",
        "starred_url": "https://api.github.com/users/fanquake/starred%7B/owner%7D%7B/repo%7D",
        "subscriptions_url": "https://api.github.com/users/fanquake/subscriptions",
        "organizations_url": "https://api.github.com/users/fanquake/orgs",
        "repos_url": "https://api.github.com/users/fanquake/repos",
        "events_url": "https://api.github.com/users/fanquake/events%7B/privacy%7D",
        "received_events_url": "https://api.github.com/users/fanquake/received_events",
        "type": "User",
        "site_admin": false
      },
      "html_url": "https://github.com/bitcoin/bitcoin/pull/22844#issuecomment-909207565",
      "issue_url": "https://api.github.com/repos/bitcoin/bitcoin/issues/22844"
    },
    {
      "event": "commented",
      "id": 909213403,
      "node_id": "IC_kwDOABII5842MX7b",
      "url": "https://api.github.com/repos/bitcoin/bitcoin/issues/comments/909213403",
      "actor": {
        "login": "josibake",
        "id": 7444140,
        "node_id": "MDQ6VXNlcjc0NDQxNDA=",
        "avatar_url": "https://avatars.githubusercontent.com/u/7444140?v=4",
        "gravatar_id": "",
        "url": "https://api.github.com/users/josibake",
        "html_url": "https://github.com/josibake",
        "followers_url": "https://api.github.com/users/josibake/followers",
        "following_url": "https://api.github.com/users/josibake/following%7B/other_user%7D",
        "gists_url": "https://api.github.com/users/josibake/gists%7B/gist_id%7D",
        "starred_url": "https://api.github.com/users/josibake/starred%7B/owner%7D%7B/repo%7D",
        "subscriptions_url": "https://api.github.com/users/josibake/subscriptions",
        "organizations_url": "https://api.github.com/users/josibake/orgs",
        "repos_url": "https://api.github.com/users/josibake/repos",
        "events_url": "https://api.github.com/users/josibake/events%7B/privacy%7D",
        "received_events_url": "https://api.github.com/users/josibake/received_events",
        "type": "User",
        "site_admin": false
      },
      "commit_id": null,
      "commit_url": null,
      "created_at": "2021-08-31T12:59:38Z",
      "updated_at": "2021-08-31T12:59:38Z",
      "author_association": "CONTRIBUTOR",
      "body": "> Pretty sure need to install `pyzmq` into the container where the linter is running:\r\n\r\nah yes, good catch!\r\n\r\n",
      "user": {
        "login": "josibake",
        "id": 7444140,
        "node_id": "MDQ6VXNlcjc0NDQxNDA=",
        "avatar_url": "https://avatars.githubusercontent.com/u/7444140?v=4",
        "gravatar_id": "",
        "url": "https://api.github.com/users/josibake",
        "html_url": "https://github.com/josibake",
        "followers_url": "https://api.github.com/users/josibake/followers",
        "following_url": "https://api.github.com/users/josibake/following%7B/other_user%7D",
        "gists_url": "https://api.github.com/users/josibake/gists%7B/gist_id%7D",
        "starred_url": "https://api.github.com/users/josibake/starred%7B/owner%7D%7B/repo%7D",
        "subscriptions_url": "https://api.github.com/users/josibake/subscriptions",
        "organizations_url": "https://api.github.com/users/josibake/orgs",
        "repos_url": "https://api.github.com/users/josibake/repos",
        "events_url": "https://api.github.com/users/josibake/events%7B/privacy%7D",
        "received_events_url": "https://api.github.com/users/josibake/received_events",
        "type": "User",
        "site_admin": false
      },
      "html_url": "https://github.com/bitcoin/bitcoin/pull/22844#issuecomment-909213403",
      "issue_url": "https://api.github.com/repos/bitcoin/bitcoin/issues/22844"
    },
    {
      "event": "committed",
      "id": null,
      "node_id": "MDY6Q29tbWl0MTE4MTkyNzowNjVjNjRhNGEwNmJlZTMzOTIwMDBlNTUzZjUwOGZjNzY0NDU2MGMw",
      "url": "https://api.github.com/repos/bitcoin/bitcoin/git/commits/065c64a4a06bee3392000e553f508fc7644560c0",
      "actor": null,
      "commit_id": null,
      "commit_url": null,
      "created_at": null,
      "html_url": "https://github.com/bitcoin/bitcoin/commit/065c64a4a06bee3392000e553f508fc7644560c0",
      "tree": {
        "sha": "26393312c94df898e535df85c91d7973c0d58c06",
        "url": "https://api.github.com/repos/bitcoin/bitcoin/git/trees/26393312c94df898e535df85c91d7973c0d58c06"
      },
      "verification": {
        "verified": true,
        "reason": "valid",
        "payload": "tree 26393312c94df898e535df85c91d7973c0d58c06\nparent 7be143a960e2bb9ac81144f55c45731c1bb209c5\nauthor josibake <josibake@protonmail.com> 1630415437 +0200\ncommitter josibake <josibake@protonmail.com> 1630415489 +0200\n\nbump pyzmq version to 22.2.1\n\nmypy stubs were introduced in 21.0.1\ninstall 22.2.1 (latest as of this commit)\n",
        "signature": "-----BEGIN PGP SIGNATURE-----\n\niQIzBAABCgAdFiEEYWUWuOtu0CiC/Ep6ity1WMTzPWUFAmEuKpcACgkQity1WMTz\nPWV/vBAAsfQCmkF8uIIuflcQIrWnvb+5fkwaX0tQMgADXoqWIPV6Xwg+kKSePhl/\naDHTGSzLrBptvraUKxzXwZH66CAZW6fU2tsgCc+2BOIEkRyoRArTACJqGJd/BcP5\nEOp7ZLw+DLwMN6HrJUMzmKcGzUPEZ7bx4bgVclY1z4j1Ak6Wv7uJKNNmrVG8ZEW1\nCTYjdtURb1QljrsE5bn6Zdp0GWNDgickubRMMgxMrnPCQ+JCgg5QxaHBhMtSm2ah\nRfaBh3IyEnI5KeleXud9zfO8B7BT+cmbsuWDtRGBsIMUjwaqMC9YYnLsM0iwYbkN\nslaJH+9Rf7Vq2CQnvgNS7acnIzldzY3mtuHtptX7AvS6AVUgvodb6JY6gmWsOI/P\na3TmDYtQyBm6xGEGne5mOr7R+lfSjdLM+3OWWy0Np3LTTq8Xm0TZmQ6Uk/u3LuL+\nRHJ0EdAOpENk1T9QAugdvkU3tVEWHa37MKI5xXVkfuJ7O4K3vAaSjn8LlOST0yPX\ntAnd42IjF1UA//BW/Dz3LUCDFiAWgVV2t5sB5lV9fj6GVIUt702J9Pm5QAx30IwK\n7e/dNBTnkKj8F98/iesNjtLA5lEO42/INW5JuJWS5GLM4Y5X8+YCS18pvj5AAnci\nOKWvVFzfvPYnrG/ku1/bxcVE0WWrfMzlFlYrGSjyDED55TI2aig=\n=NABt\n-----END PGP SIGNATURE-----"
      },
      "parents": [
        {
          "url": "https://api.github.com/repos/bitcoin/bitcoin/git/commits/7be143a960e2bb9ac81144f55c45731c1bb209c5",
          "sha": "7be143a960e2bb9ac81144f55c45731c1bb209c5",
          "html_url": "https://github.com/bitcoin/bitcoin/commit/7be143a960e2bb9ac81144f55c45731c1bb209c5"
        }
      ],
      "message": "bump pyzmq version to 22.2.1\n\nmypy stubs were introduced in 21.0.1\ninstall 22.2.1 (latest as of this commit)",
      "committer": {
        "name": "josibake",
        "email": "josibake@protonmail.com",
        "date": "2021-08-31T13:11:29Z"
      },
      "author": {
        "name": "josibake",
        "email": "josibake@protonmail.com",
        "date": "2021-08-31T13:10:37Z"
      },
      "sha": "065c64a4a06bee3392000e553f508fc7644560c0"
    },
    {
      "event": "committed",
      "id": null,
      "node_id": "MDY6Q29tbWl0MTE4MTkyNzo0Nzk5NWRkZGViNTI0YWZmNjE1YTA1YzI4NmQyODkyYzQ0YjAxNGI5",
      "url": "https://api.github.com/repos/bitcoin/bitcoin/git/commits/47995dddeb524aff615a05c286d2892c44b014b9",
      "actor": null,
      "commit_id": null,
      "commit_url": null,
      "created_at": null,
      "html_url": "https://github.com/bitcoin/bitcoin/commit/47995dddeb524aff615a05c286d2892c44b014b9",
      "tree": {
        "sha": "e91fa902277b11744ae2e6a52447e5c0775e8428",
        "url": "https://api.github.com/repos/bitcoin/bitcoin/git/trees/e91fa902277b11744ae2e6a52447e5c0775e8428"
      },
      "verification": {
        "verified": true,
        "reason": "valid",
        "payload": "tree e91fa902277b11744ae2e6a52447e5c0775e8428\nparent 065c64a4a06bee3392000e553f508fc7644560c0\nauthor josibake <josibake@protonmail.com> 1629821143 +0200\ncommitter josibake <josibake@protonmail.com> 1630415511 +0200\n\nfeature: fix mypy import errors\n\nignore lief package\nremove --ignore-imports flag from mympy run\nmake data/ importable\n",
        "signature": "-----BEGIN PGP SIGNATURE-----\n\niQIzBAABCgAdFiEEYWUWuOtu0CiC/Ep6ity1WMTzPWUFAmEuKpcACgkQity1WMTz\nPWXQIhAAkrcRPb6Ek7yDamvy7aHG3YEx6nhA6u5ckjsoL67ggIEyx0HNdZM8CLFF\n1rZFQZ19YwZkl4xDMjlWbJTF1zgwww1QhIm5cc15PsOZnWLlOn8Y6I/KZ5gTV6ED\n1kSzR2678feFdpQdL72x4fFG8Py8OOOxMpIDqKI6CrOARNWlMpT8qBRWmtW3GKtN\nyVFPzVJRWbfJjWHZriY6LodP3Eedp4I3b1c6DrmlDF1Edhj16woa42oz/ep7RYOM\n1U0LQLIyz9PfBdwGsIEq9r82WSVN1OYvZKD5Kner3WAmdQbx5CRKLk7dOzasgmdB\nU9M+IpXCucthlcnLAjYXrBWdHoKUSJy31zQlFB28ficy1gLgeEATug6qGSet+k3r\nyP3rBmVeykwTBiJZjxB1V9+U9FkivGpIGc7sTVf87ExAanS4aeqTl609nGek48nF\nR2nHriflIf6JS6e/uRSFC/i7jsc1N4Zf4C59q0RH30i0SZe+waDpCHw+AzrNLnmq\nUpIMZBFvDPWMeMvohSAj+2d9XOnYgki5HpuGB2qa5i82zdpUOA/jKLuMzOMcP2mR\nXXKFMfxf7jCRzjf0oijM5PRzvbsIcVIYhur2zxJBJgMJWcrZRVBHurASHkultiop\nfHpuoo65tjvCm2l5KOZ9aDA7lO/NWBAjUfX68Hnwg7+cA1mFtR8=\n=Vkj5\n-----END PGP SIGNATURE-----"
      },
      "parents": [
        {
          "url": "https://api.github.com/repos/bitcoin/bitcoin/git/commits/065c64a4a06bee3392000e553f508fc7644560c0",
          "sha": "065c64a4a06bee3392000e553f508fc7644560c0",
          "html_url": "https://github.com/bitcoin/bitcoin/commit/065c64a4a06bee3392000e553f508fc7644560c0"
        }
      ],
      "message": "feature: fix mypy import errors\n\nignore lief package\nremove --ignore-imports flag from mympy run\nmake data/ importable",
      "committer": {
        "name": "josibake",
        "email": "josibake@protonmail.com",
        "date": "2021-08-31T13:11:51Z"
      },
      "author": {
        "name": "josibake",
        "email": "josibake@protonmail.com",
        "date": "2021-08-24T16:05:43Z"
      },
      "sha": "47995dddeb524aff615a05c286d2892c44b014b9"
    },
    {
      "event": "head_ref_force_pushed",
      "id": 5232479016,
      "node_id": "MDIzOkhlYWRSZWZGb3JjZVB1c2hlZEV2ZW50NTIzMjQ3OTAxNg==",
      "url": "https://api.github.com/repos/bitcoin/bitcoin/issues/events/5232479016",
      "actor": {
        "login": "josibake",
        "id": 7444140,
        "node_id": "MDQ6VXNlcjc0NDQxNDA=",
        "avatar_url": "https://avatars.githubusercontent.com/u/7444140?v=4",
        "gravatar_id": "",
        "url": "https://api.github.com/users/josibake",
        "html_url": "https://github.com/josibake",
        "followers_url": "https://api.github.com/users/josibake/followers",
        "following_url": "https://api.github.com/users/josibake/following%7B/other_user%7D",
        "gists_url": "https://api.github.com/users/josibake/gists%7B/gist_id%7D",
        "starred_url": "https://api.github.com/users/josibake/starred%7B/owner%7D%7B/repo%7D",
        "subscriptions_url": "https://api.github.com/users/josibake/subscriptions",
        "organizations_url": "https://api.github.com/users/josibake/orgs",
        "repos_url": "https://api.github.com/users/josibake/repos",
        "events_url": "https://api.github.com/users/josibake/events%7B/privacy%7D",
        "received_events_url": "https://api.github.com/users/josibake/received_events",
        "type": "User",
        "site_admin": false
      },
      "commit_id": null,
      "commit_url": null,
      "created_at": "2021-08-31T13:12:33Z"
    },
    {
      "event": "labeled",
      "id": 5233010854,
      "node_id": "MDEyOkxhYmVsZWRFdmVudDUyMzMwMTA4NTQ=",
      "url": "https://api.github.com/repos/bitcoin/bitcoin/issues/events/5233010854",
      "actor": {
        "login": "DrahtBot",
        "id": 39886733,
        "node_id": "MDQ6VXNlcjM5ODg2NzMz",
        "avatar_url": "https://avatars.githubusercontent.com/u/39886733?v=4",
        "gravatar_id": "",
        "url": "https://api.github.com/users/DrahtBot",
        "html_url": "https://github.com/DrahtBot",
        "followers_url": "https://api.github.com/users/DrahtBot/followers",
        "following_url": "https://api.github.com/users/DrahtBot/following%7B/other_user%7D",
        "gists_url": "https://api.github.com/users/DrahtBot/gists%7B/gist_id%7D",
        "starred_url": "https://api.github.com/users/DrahtBot/starred%7B/owner%7D%7B/repo%7D",
        "subscriptions_url": "https://api.github.com/users/DrahtBot/subscriptions",
        "organizations_url": "https://api.github.com/users/DrahtBot/orgs",
        "repos_url": "https://api.github.com/users/DrahtBot/repos",
        "events_url": "https://api.github.com/users/DrahtBot/events%7B/privacy%7D",
        "received_events_url": "https://api.github.com/users/DrahtBot/received_events",
        "type": "User",
        "site_admin": false
      },
      "commit_id": null,
      "commit_url": null,
      "created_at": "2021-08-31T14:31:49Z",
      "label": {
        "name": "Scripts and tools",
        "color": "ffffee"
      }
    },
    {
      "event": "commented",
      "id": 910020252,
      "node_id": "IC_kwDOABII5842Pc6c",
      "url": "https://api.github.com/repos/bitcoin/bitcoin/issues/comments/910020252",
      "actor": {
        "login": "DrahtBot",
        "id": 39886733,
        "node_id": "MDQ6VXNlcjM5ODg2NzMz",
        "avatar_url": "https://avatars.githubusercontent.com/u/39886733?v=4",
        "gravatar_id": "",
        "url": "https://api.github.com/users/DrahtBot",
        "html_url": "https://github.com/DrahtBot",
        "followers_url": "https://api.github.com/users/DrahtBot/followers",
        "following_url": "https://api.github.com/users/DrahtBot/following%7B/other_user%7D",
        "gists_url": "https://api.github.com/users/DrahtBot/gists%7B/gist_id%7D",
        "starred_url": "https://api.github.com/users/DrahtBot/starred%7B/owner%7D%7B/repo%7D",
        "subscriptions_url": "https://api.github.com/users/DrahtBot/subscriptions",
        "organizations_url": "https://api.github.com/users/DrahtBot/orgs",
        "repos_url": "https://api.github.com/users/DrahtBot/repos",
        "events_url": "https://api.github.com/users/DrahtBot/events%7B/privacy%7D",
        "received_events_url": "https://api.github.com/users/DrahtBot/received_events",
        "type": "User",
        "site_admin": false
      },
      "commit_id": null,
      "commit_url": null,
      "created_at": "2021-09-01T07:35:01Z",
      "updated_at": "2021-10-02T22:11:04Z",
      "author_association": "CONTRIBUTOR",
      "body": "<!--e57a25ab6845829454e8d69fc972939a-->\n\nThe following sections might be updated with supplementary metadata relevant to reviewers and maintainers.\n\n<!--174a7506f384e20aa4161008e828411d-->\n### Conflicts\nReviewers, this pull request conflicts with the following ones:\n\n* [#23148](https://github.com/bitcoin/bitcoin/pull/23148) (build: Fix guix linker-loader path and add check_ELF_interpreter by dongcarl)\n\nIf you consider this pull request important, please also help to review the conflicting pull requests. Ideally, start with the one that should be merged first.",
      "user": {
        "login": "DrahtBot",
        "id": 39886733,
        "node_id": "MDQ6VXNlcjM5ODg2NzMz",
        "avatar_url": "https://avatars.githubusercontent.com/u/39886733?v=4",
        "gravatar_id": "",
        "url": "https://api.github.com/users/DrahtBot",
        "html_url": "https://github.com/DrahtBot",
        "followers_url": "https://api.github.com/users/DrahtBot/followers",
        "following_url": "https://api.github.com/users/DrahtBot/following%7B/other_user%7D",
        "gists_url": "https://api.github.com/users/DrahtBot/gists%7B/gist_id%7D",
        "starred_url": "https://api.github.com/users/DrahtBot/starred%7B/owner%7D%7B/repo%7D",
        "subscriptions_url": "https://api.github.com/users/DrahtBot/subscriptions",
        "organizations_url": "https://api.github.com/users/DrahtBot/orgs",
        "repos_url": "https://api.github.com/users/DrahtBot/repos",
        "events_url": "https://api.github.com/users/DrahtBot/events%7B/privacy%7D",
        "received_events_url": "https://api.github.com/users/DrahtBot/received_events",
        "type": "User",
        "site_admin": false
      },
      "html_url": "https://github.com/bitcoin/bitcoin/pull/22844#issuecomment-910020252",
      "issue_url": "https://api.github.com/repos/bitcoin/bitcoin/issues/22844"
    },
    {
      "event": "cross-referenced",
      "id": null,
      "node_id": null,
      "url": null,
      "actor": {
        "login": "DrahtBot",
        "id": 39886733,
        "node_id": "MDQ6VXNlcjM5ODg2NzMz",
        "avatar_url": "https://avatars.githubusercontent.com/u/39886733?v=4",
        "gravatar_id": "",
        "url": "https://api.github.com/users/DrahtBot",
        "html_url": "https://github.com/DrahtBot",
        "followers_url": "https://api.github.com/users/DrahtBot/followers",
        "following_url": "https://api.github.com/users/DrahtBot/following%7B/other_user%7D",
        "gists_url": "https://api.github.com/users/DrahtBot/gists%7B/gist_id%7D",
        "starred_url": "https://api.github.com/users/DrahtBot/starred%7B/owner%7D%7B/repo%7D",
        "subscriptions_url": "https://api.github.com/users/DrahtBot/subscriptions",
        "organizations_url": "https://api.github.com/users/DrahtBot/orgs",
        "repos_url": "https://api.github.com/users/DrahtBot/repos",
        "events_url": "https://api.github.com/users/DrahtBot/events%7B/privacy%7D",
        "received_events_url": "https://api.github.com/users/DrahtBot/received_events",
        "type": "User",
        "site_admin": false
      },
      "commit_id": null,
      "commit_url": null,
      "created_at": "2021-09-01T13:53:58Z",
      "updated_at": "2021-09-01T13:53:58Z",
      "source": {
        "issue": {
          "id": 935778442,
          "node_id": "MDExOlB1bGxSZXF1ZXN0NjgyNjM1NjYw",
          "url": "https://api.github.com/repos/bitcoin/bitcoin/issues/22392",
          "repository_url": "https://api.github.com/repos/bitcoin/bitcoin",
          "labels_url": "https://api.github.com/repos/bitcoin/bitcoin/issues/22392/labels%7B/name%7D",
          "comments_url": "https://api.github.com/repos/bitcoin/bitcoin/issues/22392/comments",
          "events_url": "https://api.github.com/repos/bitcoin/bitcoin/issues/22392/events",
          "html_url": "https://github.com/bitcoin/bitcoin/pull/22392",
          "number": 22392,
          "state": "closed",
          "state_reason": null,
          "title": "scripts: use LIEF for ELF security & symbol checks",
          "body": "This finishes the transition to using LIEF for the ELF symbol and  security checks.\r\n\r\nNote that there's currently a work around used for identifying RISCV binaries (just checking the interpreter). I've sent a PR upstream, https://github.com/lief-project/LIEF/pull/562, and we should be able to drop that when using LIEF 0.12.0 and onwards.",
          "user": {
            "login": "fanquake",
            "id": 863730,
            "node_id": "MDQ6VXNlcjg2MzczMA==",
            "avatar_url": "https://avatars.githubusercontent.com/u/863730?v=4",
            "gravatar_id": "",
            "url": "https://api.github.com/users/fanquake",
            "html_url": "https://github.com/fanquake",
            "followers_url": "https://api.github.com/users/fanquake/followers",
            "following_url": "https://api.github.com/users/fanquake/following%7B/other_user%7D",
            "gists_url": "https://api.github.com/users/fanquake/gists%7B/gist_id%7D",
            "starred_url": "https://api.github.com/users/fanquake/starred%7B/owner%7D%7B/repo%7D",
            "subscriptions_url": "https://api.github.com/users/fanquake/subscriptions",
            "organizations_url": "https://api.github.com/users/fanquake/orgs",
            "repos_url": "https://api.github.com/users/fanquake/repos",
            "events_url": "https://api.github.com/users/fanquake/events%7B/privacy%7D",
            "received_events_url": "https://api.github.com/users/fanquake/received_events",
            "type": "User",
            "site_admin": false
          },
          "labels": [
            {
              "id": 231994551,
              "node_id": "MDU6TGFiZWwyMzE5OTQ1NTE=",
              "url": "https://api.github.com/repos/bitcoin/bitcoin/labels/Scripts%20and%20tools",
              "name": "Scripts and tools",
              "color": "ffffee",
              "default": false
            }
          ],
          "assignees": [],
          "author_association": "MEMBER",
          "milestone": {
            "url": "https://api.github.com/repos/bitcoin/bitcoin/milestones/52",
            "html_url": "https://github.com/bitcoin/bitcoin/milestone/52",
            "labels_url": "https://api.github.com/repos/bitcoin/bitcoin/milestones/52/labels",
            "id": 6179837,
            "node_id": "MDk6TWlsZXN0b25lNjE3OTgzNw==",
            "number": 52,
            "state": "closed",
            "title": "23.0",
            "description": "",
            "creator": {
              "login": "MarcoFalke",
              "id": 6399679,
              "node_id": "MDQ6VXNlcjYzOTk2Nzk=",
              "avatar_url": "https://avatars.githubusercontent.com/u/6399679?v=4",
              "gravatar_id": "",
              "url": "https://api.github.com/users/MarcoFalke",
              "html_url": "https://github.com/MarcoFalke",
              "followers_url": "https://api.github.com/users/MarcoFalke/followers",
              "following_url": "https://api.github.com/users/MarcoFalke/following%7B/other_user%7D",
              "gists_url": "https://api.github.com/users/MarcoFalke/gists%7B/gist_id%7D",
              "starred_url": "https://api.github.com/users/MarcoFalke/starred%7B/owner%7D%7B/repo%7D",
              "subscriptions_url": "https://api.github.com/users/MarcoFalke/subscriptions",
              "organizations_url": "https://api.github.com/users/MarcoFalke/orgs",
              "repos_url": "https://api.github.com/users/MarcoFalke/repos",
              "events_url": "https://api.github.com/users/MarcoFalke/events%7B/privacy%7D",
              "received_events_url": "https://api.github.com/users/MarcoFalke/received_events",
              "type": "User",
              "site_admin": false
            },
            "open_issues": 0,
            "closed_issues": 123,
            "created_at": "2020-12-04T08:54:20Z",
            "updated_at": "2022-04-25T20:51:00Z",
            "closed_at": "2022-04-22T18:08:30Z"
          },
          "locked": true,
          "comments": 14,
          "pull_request": {
            "url": "https://api.github.com/repos/bitcoin/bitcoin/pulls/22392",
            "html_url": "https://github.com/bitcoin/bitcoin/pull/22392",
            "diff_url": "https://github.com/bitcoin/bitcoin/pull/22392.diff",
            "patch_url": "https://github.com/bitcoin/bitcoin/pull/22392.patch"
          },
          "closed_at": "2021-10-13T11:53:33Z",
          "created_at": "2021-07-02T13:35:24Z",
          "updated_at": "2022-10-30T19:09:52Z"
        },
        "type": "issue"
      }
    },
    {
      "event": "commented",
      "id": 912977158,
      "node_id": "IC_kwDOABII5842au0G",
      "url": "https://api.github.com/repos/bitcoin/bitcoin/issues/comments/912977158",
      "actor": {
        "login": "practicalswift",
        "id": 7826565,
        "node_id": "MDQ6VXNlcjc4MjY1NjU=",
        "avatar_url": "https://avatars.githubusercontent.com/u/7826565?v=4",
        "gravatar_id": "",
        "url": "https://api.github.com/users/practicalswift",
        "html_url": "https://github.com/practicalswift",
        "followers_url": "https://api.github.com/users/practicalswift/followers",
        "following_url": "https://api.github.com/users/practicalswift/following%7B/other_user%7D",
        "gists_url": "https://api.github.com/users/practicalswift/gists%7B/gist_id%7D",
        "starred_url": "https://api.github.com/users/practicalswift/starred%7B/owner%7D%7B/repo%7D",
        "subscriptions_url": "https://api.github.com/users/practicalswift/subscriptions",
        "organizations_url": "https://api.github.com/users/practicalswift/orgs",
        "repos_url": "https://api.github.com/users/practicalswift/repos",
        "events_url": "https://api.github.com/users/practicalswift/events%7B/privacy%7D",
        "received_events_url": "https://api.github.com/users/practicalswift/received_events",
        "type": "User",
        "site_admin": false
      },
      "commit_id": null,
      "commit_url": null,
      "created_at": "2021-09-04T13:47:03Z",
      "updated_at": "2021-09-04T13:47:03Z",
      "author_association": "CONTRIBUTOR",
      "body": "Concept ACK",
      "user": {
        "login": "practicalswift",
        "id": 7826565,
        "node_id": "MDQ6VXNlcjc4MjY1NjU=",
        "avatar_url": "https://avatars.githubusercontent.com/u/7826565?v=4",
        "gravatar_id": "",
        "url": "https://api.github.com/users/practicalswift",
        "html_url": "https://github.com/practicalswift",
        "followers_url": "https://api.github.com/users/practicalswift/followers",
        "following_url": "https://api.github.com/users/practicalswift/following%7B/other_user%7D",
        "gists_url": "https://api.github.com/users/practicalswift/gists%7B/gist_id%7D",
        "starred_url": "https://api.github.com/users/practicalswift/starred%7B/owner%7D%7B/repo%7D",
        "subscriptions_url": "https://api.github.com/users/practicalswift/subscriptions",
        "organizations_url": "https://api.github.com/users/practicalswift/orgs",
        "repos_url": "https://api.github.com/users/practicalswift/repos",
        "events_url": "https://api.github.com/users/practicalswift/events%7B/privacy%7D",
        "received_events_url": "https://api.github.com/users/practicalswift/received_events",
        "type": "User",
        "site_admin": false
      },
      "html_url": "https://github.com/bitcoin/bitcoin/pull/22844#issuecomment-912977158",
      "issue_url": "https://api.github.com/repos/bitcoin/bitcoin/issues/22844"
    },
    {
      "event": "commented",
      "id": 916643507,
      "node_id": "IC_kwDOABII5842ot6z",
      "url": "https://api.github.com/repos/bitcoin/bitcoin/issues/comments/916643507",
      "actor": {
        "login": "fanquake",
        "id": 863730,
        "node_id": "MDQ6VXNlcjg2MzczMA==",
        "avatar_url": "https://avatars.githubusercontent.com/u/863730?v=4",
        "gravatar_id": "",
        "url": "https://api.github.com/users/fanquake",
        "html_url": "https://github.com/fanquake",
        "followers_url": "https://api.github.com/users/fanquake/followers",
        "following_url": "https://api.github.com/users/fanquake/following%7B/other_user%7D",
        "gists_url": "https://api.github.com/users/fanquake/gists%7B/gist_id%7D",
        "starred_url": "https://api.github.com/users/fanquake/starred%7B/owner%7D%7B/repo%7D",
        "subscriptions_url": "https://api.github.com/users/fanquake/subscriptions",
        "organizations_url": "https://api.github.com/users/fanquake/orgs",
        "repos_url": "https://api.github.com/users/fanquake/repos",
        "events_url": "https://api.github.com/users/fanquake/events%7B/privacy%7D",
        "received_events_url": "https://api.github.com/users/fanquake/received_events",
        "type": "User",
        "site_admin": false
      },
      "commit_id": null,
      "commit_url": null,
      "created_at": "2021-09-10T05:33:17Z",
      "updated_at": "2021-09-10T05:33:17Z",
      "author_association": "MEMBER",
      "body": "Can you change the commit message for 065c64a4a06bee3392000e553f508fc7644560c0 to be something like: `ci: install pyzmq into lint container`. As you're not actually bumping the version, you're adding it to the container for the first time.\r\n\r\nCan you also add a commit bumping mypy to the latest version. Looks like it's [`0.910`](http://mypy-lang.org/).\r\n\r\nIn either commit can you add / update the dependency here as well: https://github.com/bitcoin/bitcoin/tree/master/test#lint-tests.",
      "user": {
        "login": "fanquake",
        "id": 863730,
        "node_id": "MDQ6VXNlcjg2MzczMA==",
        "avatar_url": "https://avatars.githubusercontent.com/u/863730?v=4",
        "gravatar_id": "",
        "url": "https://api.github.com/users/fanquake",
        "html_url": "https://github.com/fanquake",
        "followers_url": "https://api.github.com/users/fanquake/followers",
        "following_url": "https://api.github.com/users/fanquake/following%7B/other_user%7D",
        "gists_url": "https://api.github.com/users/fanquake/gists%7B/gist_id%7D",
        "starred_url": "https://api.github.com/users/fanquake/starred%7B/owner%7D%7B/repo%7D",
        "subscriptions_url": "https://api.github.com/users/fanquake/subscriptions",
        "organizations_url": "https://api.github.com/users/fanquake/orgs",
        "repos_url": "https://api.github.com/users/fanquake/repos",
        "events_url": "https://api.github.com/users/fanquake/events%7B/privacy%7D",
        "received_events_url": "https://api.github.com/users/fanquake/received_events",
        "type": "User",
        "site_admin": false
      },
      "html_url": "https://github.com/bitcoin/bitcoin/pull/22844#issuecomment-916643507",
      "issue_url": "https://api.github.com/repos/bitcoin/bitcoin/issues/22844"
    },
    {
      "event": "commented",
      "id": 932283053,
      "node_id": "IC_kwDOABII5843kYKt",
      "url": "https://api.github.com/repos/bitcoin/bitcoin/issues/comments/932283053",
      "actor": {
        "login": "laanwj",
        "id": 126646,
        "node_id": "MDQ6VXNlcjEyNjY0Ng==",
        "avatar_url": "https://avatars.githubusercontent.com/u/126646?v=4",
        "gravatar_id": "",
        "url": "https://api.github.com/users/laanwj",
        "html_url": "https://github.com/laanwj",
        "followers_url": "https://api.github.com/users/laanwj/followers",
        "following_url": "https://api.github.com/users/laanwj/following%7B/other_user%7D",
        "gists_url": "https://api.github.com/users/laanwj/gists%7B/gist_id%7D",
        "starred_url": "https://api.github.com/users/laanwj/starred%7B/owner%7D%7B/repo%7D",
        "subscriptions_url": "https://api.github.com/users/laanwj/subscriptions",
        "organizations_url": "https://api.github.com/users/laanwj/orgs",
        "repos_url": "https://api.github.com/users/laanwj/repos",
        "events_url": "https://api.github.com/users/laanwj/events%7B/privacy%7D",
        "received_events_url": "https://api.github.com/users/laanwj/received_events",
        "type": "User",
        "site_admin": false
      },
      "commit_id": null,
      "commit_url": null,
      "created_at": "2021-10-01T14:32:05Z",
      "updated_at": "2021-10-01T14:32:05Z",
      "author_association": "MEMBER",
      "body": "Concept ACK, less exceptions in mypy allows for more thorough checking.",
      "user": {
        "login": "laanwj",
        "id": 126646,
        "node_id": "MDQ6VXNlcjEyNjY0Ng==",
        "avatar_url": "https://avatars.githubusercontent.com/u/126646?v=4",
        "gravatar_id": "",
        "url": "https://api.github.com/users/laanwj",
        "html_url": "https://github.com/laanwj",
        "followers_url": "https://api.github.com/users/laanwj/followers",
        "following_url": "https://api.github.com/users/laanwj/following%7B/other_user%7D",
        "gists_url": "https://api.github.com/users/laanwj/gists%7B/gist_id%7D",
        "starred_url": "https://api.github.com/users/laanwj/starred%7B/owner%7D%7B/repo%7D",
        "subscriptions_url": "https://api.github.com/users/laanwj/subscriptions",
        "organizations_url": "https://api.github.com/users/laanwj/orgs",
        "repos_url": "https://api.github.com/users/laanwj/repos",
        "events_url": "https://api.github.com/users/laanwj/events%7B/privacy%7D",
        "received_events_url": "https://api.github.com/users/laanwj/received_events",
        "type": "User",
        "site_admin": false
      },
      "html_url": "https://github.com/bitcoin/bitcoin/pull/22844#issuecomment-932283053",
      "issue_url": "https://api.github.com/repos/bitcoin/bitcoin/issues/22844"
    },
    {
      "event": "reviewed",
      "id": 769052065,
      "node_id": "PRR_kwDOABII584t1s2h",
      "url": null,
      "actor": null,
      "commit_id": "47995dddeb524aff615a05c286d2892c44b014b9",
      "commit_url": null,
      "created_at": null,
      "author_association": "MEMBER",
      "user": {
        "login": "laanwj",
        "id": 126646,
        "node_id": "MDQ6VXNlcjEyNjY0Ng==",
        "avatar_url": "https://avatars.githubusercontent.com/u/126646?v=4",
        "gravatar_id": "",
        "url": "https://api.github.com/users/laanwj",
        "html_url": "https://github.com/laanwj",
        "followers_url": "https://api.github.com/users/laanwj/followers",
        "following_url": "https://api.github.com/users/laanwj/following%7B/other_user%7D",
        "gists_url": "https://api.github.com/users/laanwj/gists%7B/gist_id%7D",
        "starred_url": "https://api.github.com/users/laanwj/starred%7B/owner%7D%7B/repo%7D",
        "subscriptions_url": "https://api.github.com/users/laanwj/subscriptions",
        "organizations_url": "https://api.github.com/users/laanwj/orgs",
        "repos_url": "https://api.github.com/users/laanwj/repos",
        "events_url": "https://api.github.com/users/laanwj/events%7B/privacy%7D",
        "received_events_url": "https://api.github.com/users/laanwj/received_events",
        "type": "User",
        "site_admin": false
      },
      "html_url": "https://github.com/bitcoin/bitcoin/pull/22844#pullrequestreview-769052065",
      "submitted_at": "2021-10-01T14:37:21Z",
      "state": "COMMENTED",
      "pull_request_url": "https://api.github.com/repos/bitcoin/bitcoin/pulls/22844"
    },
    {
      "event": "cross-referenced",
      "id": null,
      "node_id": null,
      "url": null,
      "actor": {
        "login": "DrahtBot",
        "id": 39886733,
        "node_id": "MDQ6VXNlcjM5ODg2NzMz",
        "avatar_url": "https://avatars.githubusercontent.com/u/39886733?v=4",
        "gravatar_id": "",
        "url": "https://api.github.com/users/DrahtBot",
        "html_url": "https://github.com/DrahtBot",
        "followers_url": "https://api.github.com/users/DrahtBot/followers",
        "following_url": "https://api.github.com/users/DrahtBot/following%7B/other_user%7D",
        "gists_url": "https://api.github.com/users/DrahtBot/gists%7B/gist_id%7D",
        "starred_url": "https://api.github.com/users/DrahtBot/starred%7B/owner%7D%7B/repo%7D",
        "subscriptions_url": "https://api.github.com/users/DrahtBot/subscriptions",
        "organizations_url": "https://api.github.com/users/DrahtBot/orgs",
        "repos_url": "https://api.github.com/users/DrahtBot/repos",
        "events_url": "https://api.github.com/users/DrahtBot/events%7B/privacy%7D",
        "received_events_url": "https://api.github.com/users/DrahtBot/received_events",
        "type": "User",
        "site_admin": false
      },
      "commit_id": null,
      "commit_url": null,
      "created_at": "2021-10-02T17:05:56Z",
      "updated_at": "2021-10-02T17:05:56Z",
      "source": {
        "issue": {
          "id": 1012763210,
          "node_id": "PR_kwDOABII584siMAK",
          "url": "https://api.github.com/repos/bitcoin/bitcoin/issues/23148",
          "repository_url": "https://api.github.com/repos/bitcoin/bitcoin",
          "labels_url": "https://api.github.com/repos/bitcoin/bitcoin/issues/23148/labels%7B/name%7D",
          "comments_url": "https://api.github.com/repos/bitcoin/bitcoin/issues/23148/comments",
          "events_url": "https://api.github.com/repos/bitcoin/bitcoin/issues/23148/events",
          "html_url": "https://github.com/bitcoin/bitcoin/pull/23148",
          "number": 23148,
          "state": "closed",
          "state_reason": null,
          "title": "build: Fix guix linker-loader path and add check_ELF_interpreter",
          "body": "Fixes https://github.com/bitcoin/bitcoin/issues/23111\r\n\r\nIt would seem that I got the wrong default glibc-dynamic-linker path for PowerPC platforms. This means that for our currently released v22.0 binaries to be run on powerpc platforms, users would have to either:\r\n1. Move `/lib64/ld64.so.?` to `/lib`, or\r\n2. Invoke their linker-loader directly to start our binaries, e.g. `/lib64/ld64.so.? bitcoind`\r\n\r\nThis is my bad.\r\n\r\nI've fixed the paths in this patchset, and also added a test to `symbol-check.py` so that this does not ever slip past our checks again.",
          "user": {
            "login": "dongcarl",
            "id": 3445290,
            "node_id": "MDQ6VXNlcjM0NDUyOTA=",
            "avatar_url": "https://avatars.githubusercontent.com/u/3445290?v=4",
            "gravatar_id": "",
            "url": "https://api.github.com/users/dongcarl",
            "html_url": "https://github.com/dongcarl",
            "followers_url": "https://api.github.com/users/dongcarl/followers",
            "following_url": "https://api.github.com/users/dongcarl/following%7B/other_user%7D",
            "gists_url": "https://api.github.com/users/dongcarl/gists%7B/gist_id%7D",
            "starred_url": "https://api.github.com/users/dongcarl/starred%7B/owner%7D%7B/repo%7D",
            "subscriptions_url": "https://api.github.com/users/dongcarl/subscriptions",
            "organizations_url": "https://api.github.com/users/dongcarl/orgs",
            "repos_url": "https://api.github.com/users/dongcarl/repos",
            "events_url": "https://api.github.com/users/dongcarl/events%7B/privacy%7D",
            "received_events_url": "https://api.github.com/users/dongcarl/received_events",
            "type": "User",
            "site_admin": false
          },
          "labels": [
            {
              "id": 61889416,
              "node_id": "MDU6TGFiZWw2MTg4OTQxNg==",
              "url": "https://api.github.com/repos/bitcoin/bitcoin/labels/Build%20system",
              "name": "Build system",
              "color": "5319e7",
              "default": false
            }
          ],
          "assignees": [],
          "author_association": "CONTRIBUTOR",
          "locked": true,
          "comments": 13,
          "pull_request": {
            "url": "https://api.github.com/repos/bitcoin/bitcoin/pulls/23148",
            "html_url": "https://github.com/bitcoin/bitcoin/pull/23148",
            "diff_url": "https://github.com/bitcoin/bitcoin/pull/23148.diff",
            "patch_url": "https://github.com/bitcoin/bitcoin/pull/23148.patch"
          },
          "closed_at": "2021-10-13T13:01:51Z",
          "created_at": "2021-10-01T00:58:06Z",
          "updated_at": "2022-10-30T19:07:56Z"
        },
        "type": "issue"
      }
    },
    {
      "event": "cross-referenced",
      "id": null,
      "node_id": null,
      "url": null,
      "actor": {
        "login": "fanquake",
        "id": 863730,
        "node_id": "MDQ6VXNlcjg2MzczMA==",
        "avatar_url": "https://avatars.githubusercontent.com/u/863730?v=4",
        "gravatar_id": "",
        "url": "https://api.github.com/users/fanquake",
        "html_url": "https://github.com/fanquake",
        "followers_url": "https://api.github.com/users/fanquake/followers",
        "following_url": "https://api.github.com/users/fanquake/following%7B/other_user%7D",
        "gists_url": "https://api.github.com/users/fanquake/gists%7B/gist_id%7D",
        "starred_url": "https://api.github.com/users/fanquake/starred%7B/owner%7D%7B/repo%7D",
        "subscriptions_url": "https://api.github.com/users/fanquake/subscriptions",
        "organizations_url": "https://api.github.com/users/fanquake/orgs",
        "repos_url": "https://api.github.com/users/fanquake/repos",
        "events_url": "https://api.github.com/users/fanquake/events%7B/privacy%7D",
        "received_events_url": "https://api.github.com/users/fanquake/received_events",
        "type": "User",
        "site_admin": false
      },
      "commit_id": null,
      "commit_url": null,
      "created_at": "2021-10-07T06:22:22Z",
      "updated_at": "2021-10-07T06:22:22Z",
      "source": {
        "issue": {
          "id": 1019661665,
          "node_id": "PR_kwDOABII584s39I8",
          "url": "https://api.github.com/repos/bitcoin/bitcoin/issues/23212",
          "repository_url": "https://api.github.com/repos/bitcoin/bitcoin",
          "labels_url": "https://api.github.com/repos/bitcoin/bitcoin/issues/23212/labels%7B/name%7D",
          "comments_url": "https://api.github.com/repos/bitcoin/bitcoin/issues/23212/comments",
          "events_url": "https://api.github.com/repos/bitcoin/bitcoin/issues/23212/events",
          "html_url": "https://github.com/bitcoin/bitcoin/pull/23212",
          "number": 23212,
          "state": "closed",
          "state_reason": null,
          "title": "lint: enable mypy import checking",
          "body": "This is #22844 with issues addressed, and two additional commits. One to move to the latest mypy version in the CI, and another to remove what is just pointless duplication from the test README. There's no need to relist package versions and install instructions (meaning 2x the work when changing anything), when you can just link to `04_install.sh` which has the versions used and pip invocations to install them.",
          "user": {
            "login": "fanquake",
            "id": 863730,
            "node_id": "MDQ6VXNlcjg2MzczMA==",
            "avatar_url": "https://avatars.githubusercontent.com/u/863730?v=4",
            "gravatar_id": "",
            "url": "https://api.github.com/users/fanquake",
            "html_url": "https://github.com/fanquake",
            "followers_url": "https://api.github.com/users/fanquake/followers",
            "following_url": "https://api.github.com/users/fanquake/following%7B/other_user%7D",
            "gists_url": "https://api.github.com/users/fanquake/gists%7B/gist_id%7D",
            "starred_url": "https://api.github.com/users/fanquake/starred%7B/owner%7D%7B/repo%7D",
            "subscriptions_url": "https://api.github.com/users/fanquake/subscriptions",
            "organizations_url": "https://api.github.com/users/fanquake/orgs",
            "repos_url": "https://api.github.com/users/fanquake/repos",
            "events_url": "https://api.github.com/users/fanquake/events%7B/privacy%7D",
            "received_events_url": "https://api.github.com/users/fanquake/received_events",
            "type": "User",
            "site_admin": false
          },
          "labels": [
            {
              "id": 231994551,
              "node_id": "MDU6TGFiZWwyMzE5OTQ1NTE=",
              "url": "https://api.github.com/repos/bitcoin/bitcoin/labels/Scripts%20and%20tools",
              "name": "Scripts and tools",
              "color": "ffffee",
              "default": false
            }
          ],
          "assignees": [],
          "author_association": "MEMBER",
          "locked": true,
          "comments": 6,
          "pull_request": {
            "url": "https://api.github.com/repos/bitcoin/bitcoin/pulls/23212",
            "html_url": "https://github.com/bitcoin/bitcoin/pull/23212",
            "diff_url": "https://github.com/bitcoin/bitcoin/pull/23212.diff",
            "patch_url": "https://github.com/bitcoin/bitcoin/pull/23212.patch"
          },
          "closed_at": "2021-10-17T08:57:19Z",
          "created_at": "2021-10-07T06:22:21Z",
          "updated_at": "2022-10-30T19:07:38Z"
        },
        "type": "issue"
      }
    },
    {
      "event": "commented",
      "id": 937486538,
      "node_id": "IC_kwDOABII58434OjK",
      "url": "https://api.github.com/repos/bitcoin/bitcoin/issues/comments/937486538",
      "actor": {
        "login": "fanquake",
        "id": 863730,
        "node_id": "MDQ6VXNlcjg2MzczMA==",
        "avatar_url": "https://avatars.githubusercontent.com/u/863730?v=4",
        "gravatar_id": "",
        "url": "https://api.github.com/users/fanquake",
        "html_url": "https://github.com/fanquake",
        "followers_url": "https://api.github.com/users/fanquake/followers",
        "following_url": "https://api.github.com/users/fanquake/following%7B/other_user%7D",
        "gists_url": "https://api.github.com/users/fanquake/gists%7B/gist_id%7D",
        "starred_url": "https://api.github.com/users/fanquake/starred%7B/owner%7D%7B/repo%7D",
        "subscriptions_url": "https://api.github.com/users/fanquake/subscriptions",
        "organizations_url": "https://api.github.com/users/fanquake/orgs",
        "repos_url": "https://api.github.com/users/fanquake/repos",
        "events_url": "https://api.github.com/users/fanquake/events%7B/privacy%7D",
        "received_events_url": "https://api.github.com/users/fanquake/received_events",
        "type": "User",
        "site_admin": false
      },
      "commit_id": null,
      "commit_url": null,
      "created_at": "2021-10-07T06:22:41Z",
      "updated_at": "2021-10-07T06:22:41Z",
      "author_association": "MEMBER",
      "body": "I've fixed this up /  taken it over in #23212.",
      "user": {
        "login": "fanquake",
        "id": 863730,
        "node_id": "MDQ6VXNlcjg2MzczMA==",
        "avatar_url": "https://avatars.githubusercontent.com/u/863730?v=4",
        "gravatar_id": "",
        "url": "https://api.github.com/users/fanquake",
        "html_url": "https://github.com/fanquake",
        "followers_url": "https://api.github.com/users/fanquake/followers",
        "following_url": "https://api.github.com/users/fanquake/following%7B/other_user%7D",
        "gists_url": "https://api.github.com/users/fanquake/gists%7B/gist_id%7D",
        "starred_url": "https://api.github.com/users/fanquake/starred%7B/owner%7D%7B/repo%7D",
        "subscriptions_url": "https://api.github.com/users/fanquake/subscriptions",
        "organizations_url": "https://api.github.com/users/fanquake/orgs",
        "repos_url": "https://api.github.com/users/fanquake/repos",
        "events_url": "https://api.github.com/users/fanquake/events%7B/privacy%7D",
        "received_events_url": "https://api.github.com/users/fanquake/received_events",
        "type": "User",
        "site_admin": false
      },
      "html_url": "https://github.com/bitcoin/bitcoin/pull/22844#issuecomment-937486538",
      "issue_url": "https://api.github.com/repos/bitcoin/bitcoin/issues/22844"
    },
    {
      "event": "closed",
      "id": 5426211766,
      "node_id": "CE_lADOABII5846o9ZXzwAAAAFDbWu2",
      "url": "https://api.github.com/repos/bitcoin/bitcoin/issues/events/5426211766",
      "actor": {
        "login": "fanquake",
        "id": 863730,
        "node_id": "MDQ6VXNlcjg2MzczMA==",
        "avatar_url": "https://avatars.githubusercontent.com/u/863730?v=4",
        "gravatar_id": "",
        "url": "https://api.github.com/users/fanquake",
        "html_url": "https://github.com/fanquake",
        "followers_url": "https://api.github.com/users/fanquake/followers",
        "following_url": "https://api.github.com/users/fanquake/following%7B/other_user%7D",
        "gists_url": "https://api.github.com/users/fanquake/gists%7B/gist_id%7D",
        "starred_url": "https://api.github.com/users/fanquake/starred%7B/owner%7D%7B/repo%7D",
        "subscriptions_url": "https://api.github.com/users/fanquake/subscriptions",
        "organizations_url": "https://api.github.com/users/fanquake/orgs",
        "repos_url": "https://api.github.com/users/fanquake/repos",
        "events_url": "https://api.github.com/users/fanquake/events%7B/privacy%7D",
        "received_events_url": "https://api.github.com/users/fanquake/received_events",
        "type": "User",
        "site_admin": false
      },
      "commit_id": null,
      "commit_url": null,
      "created_at": "2021-10-07T06:22:41Z"
    },
    {
      "event": "referenced",
      "id": 5473974674,
      "node_id": "REFE_lADOABII5846o9ZXzwAAAAFGRjmS",
      "url": "https://api.github.com/repos/bitcoin/bitcoin/issues/events/5473974674",
      "actor": {
        "login": "MarcoFalke",
        "id": 6399679,
        "node_id": "MDQ6VXNlcjYzOTk2Nzk=",
        "avatar_url": "https://avatars.githubusercontent.com/u/6399679?v=4",
        "gravatar_id": "",
        "url": "https://api.github.com/users/MarcoFalke",
        "html_url": "https://github.com/MarcoFalke",
        "followers_url": "https://api.github.com/users/MarcoFalke/followers",
        "following_url": "https://api.github.com/users/MarcoFalke/following%7B/other_user%7D",
        "gists_url": "https://api.github.com/users/MarcoFalke/gists%7B/gist_id%7D",
        "starred_url": "https://api.github.com/users/MarcoFalke/starred%7B/owner%7D%7B/repo%7D",
        "subscriptions_url": "https://api.github.com/users/MarcoFalke/subscriptions",
        "organizations_url": "https://api.github.com/users/MarcoFalke/orgs",
        "repos_url": "https://api.github.com/users/MarcoFalke/repos",
        "events_url": "https://api.github.com/users/MarcoFalke/events%7B/privacy%7D",
        "received_events_url": "https://api.github.com/users/MarcoFalke/received_events",
        "type": "User",
        "site_admin": false
      },
      "commit_id": "3bf40d06a22ee1c547d2924d109b8e185ddbf5ef",
      "commit_url": "https://api.github.com/repos/MarcoFalke/b-c/commits/3bf40d06a22ee1c547d2924d109b8e185ddbf5ef",
      "created_at": "2021-10-17T08:57:12Z"
    },
    {
      "event": "referenced",
      "id": 5474304678,
      "node_id": "REFE_lADOABII5846o9ZXzwAAAAFGS0Km",
      "url": "https://api.github.com/repos/bitcoin/bitcoin/issues/events/5474304678",
      "actor": {
        "login": "sidhujag",
        "id": 6238042,
        "node_id": "MDQ6VXNlcjYyMzgwNDI=",
        "avatar_url": "https://avatars.githubusercontent.com/u/6238042?v=4",
        "gravatar_id": "",
        "url": "https://api.github.com/users/sidhujag",
        "html_url": "https://github.com/sidhujag",
        "followers_url": "https://api.github.com/users/sidhujag/followers",
        "following_url": "https://api.github.com/users/sidhujag/following%7B/other_user%7D",
        "gists_url": "https://api.github.com/users/sidhujag/gists%7B/gist_id%7D",
        "starred_url": "https://api.github.com/users/sidhujag/starred%7B/owner%7D%7B/repo%7D",
        "subscriptions_url": "https://api.github.com/users/sidhujag/subscriptions",
        "organizations_url": "https://api.github.com/users/sidhujag/orgs",
        "repos_url": "https://api.github.com/users/sidhujag/repos",
        "events_url": "https://api.github.com/users/sidhujag/events%7B/privacy%7D",
        "received_events_url": "https://api.github.com/users/sidhujag/received_events",
        "type": "User",
        "site_admin": false
      },
      "commit_id": "dde8b9a002cbd9d68ad21e861cd5a89aef976119",
      "commit_url": "https://api.github.com/repos/syscoin/syscoin/commits/dde8b9a002cbd9d68ad21e861cd5a89aef976119",
      "created_at": "2021-10-17T14:20:12Z"
    },
    {
      "event": "locked",
      "id": 7699631233,
      "node_id": "LOE_lADOABII5846o9ZXzwAAAAHK7wyB",
      "url": "https://api.github.com/repos/bitcoin/bitcoin/issues/events/7699631233",
      "actor": {
        "login": "bitcoin",
        "id": 528860,
        "node_id": "MDEyOk9yZ2FuaXphdGlvbjUyODg2MA==",
        "avatar_url": "https://avatars.githubusercontent.com/u/528860?v=4",
        "gravatar_id": "",
        "url": "https://api.github.com/users/bitcoin",
        "html_url": "https://github.com/bitcoin",
        "followers_url": "https://api.github.com/users/bitcoin/followers",
        "following_url": "https://api.github.com/users/bitcoin/following%7B/other_user%7D",
        "gists_url": "https://api.github.com/users/bitcoin/gists%7B/gist_id%7D",
        "starred_url": "https://api.github.com/users/bitcoin/starred%7B/owner%7D%7B/repo%7D",
        "subscriptions_url": "https://api.github.com/users/bitcoin/subscriptions",
        "organizations_url": "https://api.github.com/users/bitcoin/orgs",
        "repos_url": "https://api.github.com/users/bitcoin/repos",
        "events_url": "https://api.github.com/users/bitcoin/events%7B/privacy%7D",
        "received_events_url": "https://api.github.com/users/bitcoin/received_events",
        "type": "Organization",
        "site_admin": false
      },
      "commit_id": null,
      "commit_url": null,
      "created_at": "2022-10-30T19:09:25Z"
    }
  ],
  "comments": [
    {
      "url": "https://api.github.com/repos/bitcoin/bitcoin/pulls/comments/720303800",
      "pull_request_review_id": 769052065,
      "id": 720303800,
      "node_id": "PRRC_kwDOABII584q7va4",
      "diff_hunk": "@@ -102,7 +102,7 @@ if ! PYTHONWARNINGS=\"ignore\" flake8 --ignore=B,C,E,F,I,N,W --select=$(IFS=\",\"; e\n     EXIT_CODE=1\n fi\n \n-if ! mypy --ignore-missing-imports --show-error-codes $(git ls-files \"test/functional/*.py\" \"contrib/devtools/*.py\"); then\n+if ! mypy --show-error-codes $(git ls-files \"test/functional/*.py\" \"contrib/devtools/*.py\"); then",
      "path": "test/lint/lint-python.sh",
      "position": 5,
      "original_position": 5,
      "commit_id": "47995dddeb524aff615a05c286d2892c44b014b9",
      "original_commit_id": "47995dddeb524aff615a05c286d2892c44b014b9",
      "in_reply_to_id": null,
      "user": {
        "login": "laanwj",
        "id": 126646,
        "node_id": "MDQ6VXNlcjEyNjY0Ng==",
        "avatar_url": "https://avatars.githubusercontent.com/u/126646?v=4",
        "gravatar_id": "",
        "url": "https://api.github.com/users/laanwj",
        "html_url": "https://github.com/laanwj",
        "followers_url": "https://api.github.com/users/laanwj/followers",
        "following_url": "https://api.github.com/users/laanwj/following%7B/other_user%7D",
        "gists_url": "https://api.github.com/users/laanwj/gists%7B/gist_id%7D",
        "starred_url": "https://api.github.com/users/laanwj/starred%7B/owner%7D%7B/repo%7D",
        "subscriptions_url": "https://api.github.com/users/laanwj/subscriptions",
        "organizations_url": "https://api.github.com/users/laanwj/orgs",
        "repos_url": "https://api.github.com/users/laanwj/repos",
        "events_url": "https://api.github.com/users/laanwj/events%7B/privacy%7D",
        "received_events_url": "https://api.github.com/users/laanwj/received_events",
        "type": "User",
        "site_admin": false
      },
      "body": "Something I've wondered about in the past is whether checking these in the same `mypy` invocation is a good idea. I think it will consider all the files part of the same top-level module, which might cause inconsistencies of different directories have same-named modules, for example.\r\nThat said, it works.",
      "created_at": "2021-10-01T14:37:21Z",
      "updated_at": "2021-10-01T14:37:21Z",
      "html_url": "https://github.com/bitcoin/bitcoin/pull/22844#discussion_r720303800",
      "author_association": "MEMBER",
      "_links": {
        "self": {
          "href": "https://api.github.com/repos/bitcoin/bitcoin/pulls/comments/720303800"
        },
        "pull_request": {
          "href": "https://api.github.com/repos/bitcoin/bitcoin/pulls/22844"
        }
      },
      "start_line": null,
      "original_start_line": null,
      "start_side": null,
      "line": 105,
      "original_line": 105,
      "side": "RIGHT"
    }
  ]
}