{
  "type": "pull",
  "pull": {
    "url": "https://api.github.com/repos/bitcoin/bitcoin/pulls/23416",
    "id": 771542985,
    "node_id": "PR_kwDOABII584t_M_J",
    "html_url": "https://github.com/bitcoin/bitcoin/pull/23416",
    "diff_url": "https://github.com/bitcoin/bitcoin/pull/23416.diff",
    "patch_url": "https://github.com/bitcoin/bitcoin/pull/23416.patch",
    "issue_url": "https://api.github.com/repos/bitcoin/bitcoin/issues/23416",
    "commits_url": "https://api.github.com/repos/bitcoin/bitcoin/pulls/23416/commits",
    "review_comments_url": "https://api.github.com/repos/bitcoin/bitcoin/pulls/23416/comments",
    "review_comment_url": "https://api.github.com/repos/bitcoin/bitcoin/pulls/comments%7B/number%7D",
    "comments_url": "https://api.github.com/repos/bitcoin/bitcoin/issues/23416/comments",
    "statuses_url": "https://api.github.com/repos/bitcoin/bitcoin/statuses/fa32cc0682a0aa3420e6a11031721fcb6c50fa44",
    "number": 23416,
    "state": "closed",
    "locked": false,
    "maintainer_can_modify": false,
    "title": "doc: Remove fee delta TODO from txmempool.cpp",
    "user": {
      "login": "MarcoFalke",
      "id": 6399679,
      "node_id": "MDQ6VXNlcjYzOTk2Nzk=",
      "avatar_url": "https://avatars.githubusercontent.com/u/6399679?v=4",
      "gravatar_id": "",
      "url": "https://api.github.com/users/MarcoFalke",
      "html_url": "https://github.com/MarcoFalke",
      "followers_url": "https://api.github.com/users/MarcoFalke/followers",
      "following_url": "https://api.github.com/users/MarcoFalke/following%7B/other_user%7D",
      "gists_url": "https://api.github.com/users/MarcoFalke/gists%7B/gist_id%7D",
      "starred_url": "https://api.github.com/users/MarcoFalke/starred%7B/owner%7D%7B/repo%7D",
      "subscriptions_url": "https://api.github.com/users/MarcoFalke/subscriptions",
      "organizations_url": "https://api.github.com/users/MarcoFalke/orgs",
      "repos_url": "https://api.github.com/users/MarcoFalke/repos",
      "events_url": "https://api.github.com/users/MarcoFalke/events%7B/privacy%7D",
      "received_events_url": "https://api.github.com/users/MarcoFalke/received_events",
      "type": "User",
      "site_admin": false
    },
    "body": "This refactor request was added in commit eb306664e786ae43d539fde66f0fbe2a3e89d910, though it didn't explain why the refactor is needed and what the goal is. Given that this wasn't touched for more than 5 years, it doesn't seem critical. Generally, non-trivial `TODO`s make more sense as GitHub issues, so that they can be discussed and triaged more easily.",
    "labels": [
      {
        "id": 164208572,
        "node_id": "MDU6TGFiZWwxNjQyMDg1NzI=",
        "url": "https://api.github.com/repos/bitcoin/bitcoin/labels/Mempool",
        "name": "Mempool",
        "color": "fef2c0",
        "default": false
      }
    ],
    "created_at": "2021-11-02T14:52:07Z",
    "updated_at": "2023-02-28T15:41:36Z",
    "closed_at": "2022-04-14T07:42:45Z",
    "mergeable_state": "unknown",
    "merged_at": "2022-04-14T07:42:45Z",
    "merge_commit_sha": "1e3ed01faa77215a7c36308237280aaa58895532",
    "assignees": [],
    "requested_reviewers": [],
    "requested_teams": [],
    "head": {
      "label": "MarcoFalke:2111-docFeeDelta",
      "ref": "2111-docFeeDelta",
      "sha": "fa32cc0682a0aa3420e6a11031721fcb6c50fa44",
      "user": {
        "login": "MarcoFalke",
        "id": 6399679,
        "node_id": "MDQ6VXNlcjYzOTk2Nzk=",
        "avatar_url": "https://avatars.githubusercontent.com/u/6399679?v=4",
        "gravatar_id": "",
        "url": "https://api.github.com/users/MarcoFalke",
        "html_url": "https://github.com/MarcoFalke",
        "followers_url": "https://api.github.com/users/MarcoFalke/followers",
        "following_url": "https://api.github.com/users/MarcoFalke/following%7B/other_user%7D",
        "gists_url": "https://api.github.com/users/MarcoFalke/gists%7B/gist_id%7D",
        "starred_url": "https://api.github.com/users/MarcoFalke/starred%7B/owner%7D%7B/repo%7D",
        "subscriptions_url": "https://api.github.com/users/MarcoFalke/subscriptions",
        "organizations_url": "https://api.github.com/users/MarcoFalke/orgs",
        "repos_url": "https://api.github.com/users/MarcoFalke/repos",
        "events_url": "https://api.github.com/users/MarcoFalke/events%7B/privacy%7D",
        "received_events_url": "https://api.github.com/users/MarcoFalke/received_events",
        "type": "User",
        "site_admin": false
      },
      "repo": {
        "id": 40046254,
        "node_id": "MDEwOlJlcG9zaXRvcnk0MDA0NjI1NA==",
        "name": "b-c",
        "full_name": "MarcoFalke/b-c",
        "owner": {
          "login": "MarcoFalke",
          "id": 6399679,
          "node_id": "MDQ6VXNlcjYzOTk2Nzk=",
          "avatar_url": "https://avatars.githubusercontent.com/u/6399679?v=4",
          "gravatar_id": "",
          "url": "https://api.github.com/users/MarcoFalke",
          "html_url": "https://github.com/MarcoFalke",
          "followers_url": "https://api.github.com/users/MarcoFalke/followers",
          "following_url": "https://api.github.com/users/MarcoFalke/following%7B/other_user%7D",
          "gists_url": "https://api.github.com/users/MarcoFalke/gists%7B/gist_id%7D",
          "starred_url": "https://api.github.com/users/MarcoFalke/starred%7B/owner%7D%7B/repo%7D",
          "subscriptions_url": "https://api.github.com/users/MarcoFalke/subscriptions",
          "organizations_url": "https://api.github.com/users/MarcoFalke/orgs",
          "repos_url": "https://api.github.com/users/MarcoFalke/repos",
          "events_url": "https://api.github.com/users/MarcoFalke/events%7B/privacy%7D",
          "received_events_url": "https://api.github.com/users/MarcoFalke/received_events",
          "type": "User",
          "site_admin": false
        },
        "private": false,
        "html_url": "https://github.com/MarcoFalke/b-c",
        "fork": true,
        "url": "https://api.github.com/repos/MarcoFalke/b-c",
        "archive_url": "https://api.github.com/repos/MarcoFalke/b-c/%7Barchive_format%7D%7B/ref%7D",
        "assignees_url": "https://api.github.com/repos/MarcoFalke/b-c/assignees%7B/user%7D",
        "blobs_url": "https://api.github.com/repos/MarcoFalke/b-c/git/blobs%7B/sha%7D",
        "branches_url": "https://api.github.com/repos/MarcoFalke/b-c/branches%7B/branch%7D",
        "collaborators_url": "https://api.github.com/repos/MarcoFalke/b-c/collaborators%7B/collaborator%7D",
        "comments_url": "https://api.github.com/repos/MarcoFalke/b-c/comments%7B/number%7D",
        "commits_url": "https://api.github.com/repos/MarcoFalke/b-c/commits%7B/sha%7D",
        "compare_url": "https://api.github.com/repos/MarcoFalke/b-c/compare/%7Bbase%7D...%7Bhead%7D",
        "contents_url": "https://api.github.com/repos/MarcoFalke/b-c/contents/%7B+path%7D",
        "contributors_url": "https://api.github.com/repos/MarcoFalke/b-c/contributors",
        "deployments_url": "https://api.github.com/repos/MarcoFalke/b-c/deployments",
        "downloads_url": "https://api.github.com/repos/MarcoFalke/b-c/downloads",
        "events_url": "https://api.github.com/repos/MarcoFalke/b-c/events",
        "forks_url": "https://api.github.com/repos/MarcoFalke/b-c/forks",
        "git_commits_url": "https://api.github.com/repos/MarcoFalke/b-c/git/commits%7B/sha%7D",
        "git_refs_url": "https://api.github.com/repos/MarcoFalke/b-c/git/refs%7B/sha%7D",
        "git_tags_url": "https://api.github.com/repos/MarcoFalke/b-c/git/tags%7B/sha%7D",
        "git_url": "git://github.com/MarcoFalke/b-c.git",
        "issue_comment_url": "https://api.github.com/repos/MarcoFalke/b-c/issues/comments%7B/number%7D",
        "issue_events_url": "https://api.github.com/repos/MarcoFalke/b-c/issues/events%7B/number%7D",
        "issues_url": "https://api.github.com/repos/MarcoFalke/b-c/issues%7B/number%7D",
        "keys_url": "https://api.github.com/repos/MarcoFalke/b-c/keys%7B/key_id%7D",
        "labels_url": "https://api.github.com/repos/MarcoFalke/b-c/labels%7B/name%7D",
        "languages_url": "https://api.github.com/repos/MarcoFalke/b-c/languages",
        "merges_url": "https://api.github.com/repos/MarcoFalke/b-c/merges",
        "milestones_url": "https://api.github.com/repos/MarcoFalke/b-c/milestones%7B/number%7D",
        "notifications_url": "https://api.github.com/repos/MarcoFalke/b-c/notifications%7B?since,all,participating}",
        "pulls_url": "https://api.github.com/repos/MarcoFalke/b-c/pulls%7B/number%7D",
        "releases_url": "https://api.github.com/repos/MarcoFalke/b-c/releases%7B/id%7D",
        "ssh_url": "git@github.com:MarcoFalke/b-c.git",
        "stargazers_url": "https://api.github.com/repos/MarcoFalke/b-c/stargazers",
        "statuses_url": "https://api.github.com/repos/MarcoFalke/b-c/statuses/%7Bsha%7D",
        "subscribers_url": "https://api.github.com/repos/MarcoFalke/b-c/subscribers",
        "subscription_url": "https://api.github.com/repos/MarcoFalke/b-c/subscription",
        "tags_url": "https://api.github.com/repos/MarcoFalke/b-c/tags",
        "teams_url": "https://api.github.com/repos/MarcoFalke/b-c/teams",
        "trees_url": "https://api.github.com/repos/MarcoFalke/b-c/git/trees%7B/sha%7D",
        "clone_url": "https://github.com/MarcoFalke/b-c.git",
        "hooks_url": "https://api.github.com/repos/MarcoFalke/b-c/hooks",
        "svn_url": "https://github.com/MarcoFalke/b-c",
        "homepage": "",
        "language": "C++",
        "forks_count": 12,
        "stargazers_count": 25,
        "watchers_count": 25,
        "size": 207848,
        "default_branch": "master",
        "open_issues_count": 25,
        "is_template": false,
        "topics": [],
        "has_issues": true,
        "has_projects": true,
        "has_wiki": false,
        "has_pages": false,
        "has_downloads": false,
        "archived": false,
        "disabled": false,
        "visibility": "public",
        "pushed_at": "2023-08-02T15:31:58Z",
        "created_at": "2015-08-01T12:42:47Z",
        "updated_at": "2023-05-28T20:12:34Z",
        "license": {
          "key": "mit",
          "name": "MIT License",
          "node_id": "MDc6TGljZW5zZTEz",
          "spdx_id": "MIT",
          "url": "https://api.github.com/licenses/mit",
          "html_url": null,
          "description": null,
          "implementation": null,
          "permissions": null,
          "conditions": null,
          "limitations": null,
          "body": null,
          "featured": null
        }
      }
    },
    "base": {
      "label": "bitcoin:master",
      "ref": "master",
      "sha": "9e3f7dcaa2f89efff48d299132f4998bf701c264",
      "user": {
        "login": "bitcoin",
        "id": 528860,
        "node_id": "MDEyOk9yZ2FuaXphdGlvbjUyODg2MA==",
        "avatar_url": "https://avatars.githubusercontent.com/u/528860?v=4",
        "gravatar_id": "",
        "url": "https://api.github.com/users/bitcoin",
        "html_url": "https://github.com/bitcoin",
        "followers_url": "https://api.github.com/users/bitcoin/followers",
        "following_url": "https://api.github.com/users/bitcoin/following%7B/other_user%7D",
        "gists_url": "https://api.github.com/users/bitcoin/gists%7B/gist_id%7D",
        "starred_url": "https://api.github.com/users/bitcoin/starred%7B/owner%7D%7B/repo%7D",
        "subscriptions_url": "https://api.github.com/users/bitcoin/subscriptions",
        "organizations_url": "https://api.github.com/users/bitcoin/orgs",
        "repos_url": "https://api.github.com/users/bitcoin/repos",
        "events_url": "https://api.github.com/users/bitcoin/events%7B/privacy%7D",
        "received_events_url": "https://api.github.com/users/bitcoin/received_events",
        "type": "Organization",
        "site_admin": false
      },
      "repo": {
        "id": 1181927,
        "node_id": "MDEwOlJlcG9zaXRvcnkxMTgxOTI3",
        "name": "bitcoin",
        "full_name": "bitcoin/bitcoin",
        "owner": {
          "login": "bitcoin",
          "id": 528860,
          "node_id": "MDEyOk9yZ2FuaXphdGlvbjUyODg2MA==",
          "avatar_url": "https://avatars.githubusercontent.com/u/528860?v=4",
          "gravatar_id": "",
          "url": "https://api.github.com/users/bitcoin",
          "html_url": "https://github.com/bitcoin",
          "followers_url": "https://api.github.com/users/bitcoin/followers",
          "following_url": "https://api.github.com/users/bitcoin/following%7B/other_user%7D",
          "gists_url": "https://api.github.com/users/bitcoin/gists%7B/gist_id%7D",
          "starred_url": "https://api.github.com/users/bitcoin/starred%7B/owner%7D%7B/repo%7D",
          "subscriptions_url": "https://api.github.com/users/bitcoin/subscriptions",
          "organizations_url": "https://api.github.com/users/bitcoin/orgs",
          "repos_url": "https://api.github.com/users/bitcoin/repos",
          "events_url": "https://api.github.com/users/bitcoin/events%7B/privacy%7D",
          "received_events_url": "https://api.github.com/users/bitcoin/received_events",
          "type": "Organization",
          "site_admin": false
        },
        "private": false,
        "html_url": "https://github.com/bitcoin/bitcoin",
        "description": "Bitcoin Core integration/staging tree",
        "fork": false,
        "url": "https://api.github.com/repos/bitcoin/bitcoin",
        "archive_url": "https://api.github.com/repos/bitcoin/bitcoin/%7Barchive_format%7D%7B/ref%7D",
        "assignees_url": "https://api.github.com/repos/bitcoin/bitcoin/assignees%7B/user%7D",
        "blobs_url": "https://api.github.com/repos/bitcoin/bitcoin/git/blobs%7B/sha%7D",
        "branches_url": "https://api.github.com/repos/bitcoin/bitcoin/branches%7B/branch%7D",
        "collaborators_url": "https://api.github.com/repos/bitcoin/bitcoin/collaborators%7B/collaborator%7D",
        "comments_url": "https://api.github.com/repos/bitcoin/bitcoin/comments%7B/number%7D",
        "commits_url": "https://api.github.com/repos/bitcoin/bitcoin/commits%7B/sha%7D",
        "compare_url": "https://api.github.com/repos/bitcoin/bitcoin/compare/%7Bbase%7D...%7Bhead%7D",
        "contents_url": "https://api.github.com/repos/bitcoin/bitcoin/contents/%7B+path%7D",
        "contributors_url": "https://api.github.com/repos/bitcoin/bitcoin/contributors",
        "deployments_url": "https://api.github.com/repos/bitcoin/bitcoin/deployments",
        "downloads_url": "https://api.github.com/repos/bitcoin/bitcoin/downloads",
        "events_url": "https://api.github.com/repos/bitcoin/bitcoin/events",
        "forks_url": "https://api.github.com/repos/bitcoin/bitcoin/forks",
        "git_commits_url": "https://api.github.com/repos/bitcoin/bitcoin/git/commits%7B/sha%7D",
        "git_refs_url": "https://api.github.com/repos/bitcoin/bitcoin/git/refs%7B/sha%7D",
        "git_tags_url": "https://api.github.com/repos/bitcoin/bitcoin/git/tags%7B/sha%7D",
        "git_url": "git://github.com/bitcoin/bitcoin.git",
        "issue_comment_url": "https://api.github.com/repos/bitcoin/bitcoin/issues/comments%7B/number%7D",
        "issue_events_url": "https://api.github.com/repos/bitcoin/bitcoin/issues/events%7B/number%7D",
        "issues_url": "https://api.github.com/repos/bitcoin/bitcoin/issues%7B/number%7D",
        "keys_url": "https://api.github.com/repos/bitcoin/bitcoin/keys%7B/key_id%7D",
        "labels_url": "https://api.github.com/repos/bitcoin/bitcoin/labels%7B/name%7D",
        "languages_url": "https://api.github.com/repos/bitcoin/bitcoin/languages",
        "merges_url": "https://api.github.com/repos/bitcoin/bitcoin/merges",
        "milestones_url": "https://api.github.com/repos/bitcoin/bitcoin/milestones%7B/number%7D",
        "notifications_url": "https://api.github.com/repos/bitcoin/bitcoin/notifications%7B?since,all,participating}",
        "pulls_url": "https://api.github.com/repos/bitcoin/bitcoin/pulls%7B/number%7D",
        "releases_url": "https://api.github.com/repos/bitcoin/bitcoin/releases%7B/id%7D",
        "ssh_url": "git@github.com:bitcoin/bitcoin.git",
        "stargazers_url": "https://api.github.com/repos/bitcoin/bitcoin/stargazers",
        "statuses_url": "https://api.github.com/repos/bitcoin/bitcoin/statuses/%7Bsha%7D",
        "subscribers_url": "https://api.github.com/repos/bitcoin/bitcoin/subscribers",
        "subscription_url": "https://api.github.com/repos/bitcoin/bitcoin/subscription",
        "tags_url": "https://api.github.com/repos/bitcoin/bitcoin/tags",
        "teams_url": "https://api.github.com/repos/bitcoin/bitcoin/teams",
        "trees_url": "https://api.github.com/repos/bitcoin/bitcoin/git/trees%7B/sha%7D",
        "clone_url": "https://github.com/bitcoin/bitcoin.git",
        "hooks_url": "https://api.github.com/repos/bitcoin/bitcoin/hooks",
        "svn_url": "https://github.com/bitcoin/bitcoin",
        "homepage": "https://bitcoincore.org/en/download",
        "language": "C++",
        "forks_count": 35476,
        "stargazers_count": 70608,
        "watchers_count": 70608,
        "size": 236222,
        "default_branch": "master",
        "open_issues_count": 672,
        "is_template": false,
        "topics": [
          "bitcoin",
          "c-plus-plus",
          "cryptocurrency",
          "cryptography",
          "p2p"
        ],
        "has_issues": true,
        "has_projects": true,
        "has_wiki": false,
        "has_pages": false,
        "has_downloads": false,
        "archived": false,
        "disabled": false,
        "visibility": "public",
        "pushed_at": "2023-08-02T20:20:41Z",
        "created_at": "2010-12-19T15:16:43Z",
        "updated_at": "2023-08-02T18:21:18Z",
        "license": {
          "key": "mit",
          "name": "MIT License",
          "node_id": "MDc6TGljZW5zZTEz",
          "spdx_id": "MIT",
          "url": "https://api.github.com/licenses/mit",
          "html_url": null,
          "description": null,
          "implementation": null,
          "permissions": null,
          "conditions": null,
          "limitations": null,
          "body": null,
          "featured": null
        }
      }
    },
    "_links": {
      "self": {
        "href": "https://api.github.com/repos/bitcoin/bitcoin/pulls/23416"
      }
    },
    "author_association": "MEMBER",
    "draft": false,
    "additions": 0,
    "deletions": 2,
    "changed_files": 1,
    "commits": 1,
    "review_comments": 4,
    "comments": 2
  },
  "events": [
    {
      "event": "committed",
      "id": null,
      "node_id": "C_kwDOABII59oAKGZhMzJjYzA2ODJhMGFhMzQyMGU2YTExMDMxNzIxZmNiNmM1MGZhNDQ",
      "url": "https://api.github.com/repos/bitcoin/bitcoin/git/commits/fa32cc0682a0aa3420e6a11031721fcb6c50fa44",
      "actor": null,
      "commit_id": null,
      "commit_url": null,
      "created_at": null,
      "html_url": "https://github.com/bitcoin/bitcoin/commit/fa32cc0682a0aa3420e6a11031721fcb6c50fa44",
      "tree": {
        "sha": "58d4ca21a5f7361f86d60e261b6aa766740773fd",
        "url": "https://api.github.com/repos/bitcoin/bitcoin/git/trees/58d4ca21a5f7361f86d60e261b6aa766740773fd"
      },
      "verification": {
        "verified": false,
        "reason": "no_user",
        "payload": "tree 58d4ca21a5f7361f86d60e261b6aa766740773fd\nparent 9e3f7dcaa2f89efff48d299132f4998bf701c264\nauthor MarcoFalke <falke.marco@gmail.com> 1635864488 +0100\ncommitter MarcoFalke <falke.marco@gmail.com> 1635864223 +0100\n\ndoc: Remove fee delta TODO from txmempool.cpp\n",
        "signature": "-----BEGIN PGP SIGNATURE-----\n\niQGzBAABCgAdFiEE+rVPoUahrI9sLGYTzit1aX5ppUgFAlwqrYAACgkQzit1aX5p\npUi7zwv+Lbh+U4W8Xtwoh4IY2gSB9OQMBt0Cdjk8g7ywFNAuW/UXW8guxpW53o3n\n8U7HBCRm9MLxUR5F4dFVZZDacWly2Atrt5Ee+XoMjlw6Fms5GqQMeXtl7zLzkSKT\nnfl1zTX5YcHlG0sMRK0g4WBO5+05fe67NyNE43WyB3hP/o5fADA7qULBFn4mPhSg\nBa0kYFOORs5fZsEjyRWtjn9jXucvZvMws0ak/okGjYOByxyvRhlKGiEQSEsZWpll\n2t7F479y6ZjGQXpZICBstW03yFZSGPSOa6BnNyRoGd8sp1dPaPA7WkRcCYtTsymm\nbhVNDVDKDCwbwh3itmcJXMZ057hSMTBStdjqf9l17kBb3Gg28z95uirE3CEyTddR\nwQrcxNM485Gq7Qw80QPgRtdJnh5v/WwSbrbWQv1ZZ801nMdLgOqrIvFZpqqb2qWh\n+VrZTBphEQcXI+p9ySnFvRQZOX4JL2okJczFTK8xGJJBND42Lu3jZcrsCsnHADWK\nFvXN7gEL\n=93KC\n-----END PGP SIGNATURE-----"
      },
      "parents": [
        {
          "url": "https://api.github.com/repos/bitcoin/bitcoin/git/commits/9e3f7dcaa2f89efff48d299132f4998bf701c264",
          "sha": "9e3f7dcaa2f89efff48d299132f4998bf701c264",
          "html_url": "https://github.com/bitcoin/bitcoin/commit/9e3f7dcaa2f89efff48d299132f4998bf701c264"
        }
      ],
      "message": "doc: Remove fee delta TODO from txmempool.cpp",
      "committer": {
        "name": "MarcoFalke",
        "email": "falke.marco@gmail.com",
        "date": "2021-11-02T14:43:43Z"
      },
      "author": {
        "name": "MarcoFalke",
        "email": "falke.marco@gmail.com",
        "date": "2021-11-02T14:48:08Z"
      },
      "sha": "fa32cc0682a0aa3420e6a11031721fcb6c50fa44"
    },
    {
      "event": "labeled",
      "id": 5556422928,
      "node_id": "LE_lADOABII584-IsYJzwAAAAFLMEkQ",
      "url": "https://api.github.com/repos/bitcoin/bitcoin/issues/events/5556422928",
      "actor": {
        "login": "DrahtBot",
        "id": 39886733,
        "node_id": "MDQ6VXNlcjM5ODg2NzMz",
        "avatar_url": "https://avatars.githubusercontent.com/u/39886733?v=4",
        "gravatar_id": "",
        "url": "https://api.github.com/users/DrahtBot",
        "html_url": "https://github.com/DrahtBot",
        "followers_url": "https://api.github.com/users/DrahtBot/followers",
        "following_url": "https://api.github.com/users/DrahtBot/following%7B/other_user%7D",
        "gists_url": "https://api.github.com/users/DrahtBot/gists%7B/gist_id%7D",
        "starred_url": "https://api.github.com/users/DrahtBot/starred%7B/owner%7D%7B/repo%7D",
        "subscriptions_url": "https://api.github.com/users/DrahtBot/subscriptions",
        "organizations_url": "https://api.github.com/users/DrahtBot/orgs",
        "repos_url": "https://api.github.com/users/DrahtBot/repos",
        "events_url": "https://api.github.com/users/DrahtBot/events%7B/privacy%7D",
        "received_events_url": "https://api.github.com/users/DrahtBot/received_events",
        "type": "User",
        "site_admin": false
      },
      "commit_id": null,
      "commit_url": null,
      "created_at": "2021-11-02T16:04:43Z",
      "label": {
        "name": "Mempool",
        "color": "fef2c0"
      }
    },
    {
      "event": "commented",
      "id": 958000721,
      "node_id": "IC_kwDOABII5845Ge5R",
      "url": "https://api.github.com/repos/bitcoin/bitcoin/issues/comments/958000721",
      "actor": {
        "login": "MarcoFalke",
        "id": 6399679,
        "node_id": "MDQ6VXNlcjYzOTk2Nzk=",
        "avatar_url": "https://avatars.githubusercontent.com/u/6399679?v=4",
        "gravatar_id": "",
        "url": "https://api.github.com/users/MarcoFalke",
        "html_url": "https://github.com/MarcoFalke",
        "followers_url": "https://api.github.com/users/MarcoFalke/followers",
        "following_url": "https://api.github.com/users/MarcoFalke/following%7B/other_user%7D",
        "gists_url": "https://api.github.com/users/MarcoFalke/gists%7B/gist_id%7D",
        "starred_url": "https://api.github.com/users/MarcoFalke/starred%7B/owner%7D%7B/repo%7D",
        "subscriptions_url": "https://api.github.com/users/MarcoFalke/subscriptions",
        "organizations_url": "https://api.github.com/users/MarcoFalke/orgs",
        "repos_url": "https://api.github.com/users/MarcoFalke/repos",
        "events_url": "https://api.github.com/users/MarcoFalke/events%7B/privacy%7D",
        "received_events_url": "https://api.github.com/users/MarcoFalke/received_events",
        "type": "User",
        "site_admin": false
      },
      "commit_id": null,
      "commit_url": null,
      "created_at": "2021-11-02T18:07:27Z",
      "updated_at": "2021-11-02T18:07:27Z",
      "author_association": "MEMBER",
      "body": "I am suspecting that this refactor request might have been a feature request on how prioritization should be handled for packages? Though, in that case it also makes more sense to discuss in an issue.\r\n\r\nping @sdaftuar in case I am missing something obvious.",
      "user": {
        "login": "MarcoFalke",
        "id": 6399679,
        "node_id": "MDQ6VXNlcjYzOTk2Nzk=",
        "avatar_url": "https://avatars.githubusercontent.com/u/6399679?v=4",
        "gravatar_id": "",
        "url": "https://api.github.com/users/MarcoFalke",
        "html_url": "https://github.com/MarcoFalke",
        "followers_url": "https://api.github.com/users/MarcoFalke/followers",
        "following_url": "https://api.github.com/users/MarcoFalke/following%7B/other_user%7D",
        "gists_url": "https://api.github.com/users/MarcoFalke/gists%7B/gist_id%7D",
        "starred_url": "https://api.github.com/users/MarcoFalke/starred%7B/owner%7D%7B/repo%7D",
        "subscriptions_url": "https://api.github.com/users/MarcoFalke/subscriptions",
        "organizations_url": "https://api.github.com/users/MarcoFalke/orgs",
        "repos_url": "https://api.github.com/users/MarcoFalke/repos",
        "events_url": "https://api.github.com/users/MarcoFalke/events%7B/privacy%7D",
        "received_events_url": "https://api.github.com/users/MarcoFalke/received_events",
        "type": "User",
        "site_admin": false
      },
      "html_url": "https://github.com/bitcoin/bitcoin/pull/23416#issuecomment-958000721",
      "issue_url": "https://api.github.com/repos/bitcoin/bitcoin/issues/23416"
    },
    {
      "event": "mentioned",
      "id": 5557343734,
      "node_id": "MEE_lADOABII584-IsYJzwAAAAFLPlX2",
      "url": "https://api.github.com/repos/bitcoin/bitcoin/issues/events/5557343734",
      "actor": {
        "login": "sdaftuar",
        "id": 7463573,
        "node_id": "MDQ6VXNlcjc0NjM1NzM=",
        "avatar_url": "https://avatars.githubusercontent.com/u/7463573?v=4",
        "gravatar_id": "",
        "url": "https://api.github.com/users/sdaftuar",
        "html_url": "https://github.com/sdaftuar",
        "followers_url": "https://api.github.com/users/sdaftuar/followers",
        "following_url": "https://api.github.com/users/sdaftuar/following%7B/other_user%7D",
        "gists_url": "https://api.github.com/users/sdaftuar/gists%7B/gist_id%7D",
        "starred_url": "https://api.github.com/users/sdaftuar/starred%7B/owner%7D%7B/repo%7D",
        "subscriptions_url": "https://api.github.com/users/sdaftuar/subscriptions",
        "organizations_url": "https://api.github.com/users/sdaftuar/orgs",
        "repos_url": "https://api.github.com/users/sdaftuar/repos",
        "events_url": "https://api.github.com/users/sdaftuar/events%7B/privacy%7D",
        "received_events_url": "https://api.github.com/users/sdaftuar/received_events",
        "type": "User",
        "site_admin": false
      },
      "commit_id": null,
      "commit_url": null,
      "created_at": "2021-11-02T18:07:27Z"
    },
    {
      "event": "subscribed",
      "id": 5557343742,
      "node_id": "SE_lADOABII584-IsYJzwAAAAFLPlX-",
      "url": "https://api.github.com/repos/bitcoin/bitcoin/issues/events/5557343742",
      "actor": {
        "login": "sdaftuar",
        "id": 7463573,
        "node_id": "MDQ6VXNlcjc0NjM1NzM=",
        "avatar_url": "https://avatars.githubusercontent.com/u/7463573?v=4",
        "gravatar_id": "",
        "url": "https://api.github.com/users/sdaftuar",
        "html_url": "https://github.com/sdaftuar",
        "followers_url": "https://api.github.com/users/sdaftuar/followers",
        "following_url": "https://api.github.com/users/sdaftuar/following%7B/other_user%7D",
        "gists_url": "https://api.github.com/users/sdaftuar/gists%7B/gist_id%7D",
        "starred_url": "https://api.github.com/users/sdaftuar/starred%7B/owner%7D%7B/repo%7D",
        "subscriptions_url": "https://api.github.com/users/sdaftuar/subscriptions",
        "organizations_url": "https://api.github.com/users/sdaftuar/orgs",
        "repos_url": "https://api.github.com/users/sdaftuar/repos",
        "events_url": "https://api.github.com/users/sdaftuar/events%7B/privacy%7D",
        "received_events_url": "https://api.github.com/users/sdaftuar/received_events",
        "type": "User",
        "site_admin": false
      },
      "commit_id": null,
      "commit_url": null,
      "created_at": "2021-11-02T18:07:27Z"
    },
    {
      "event": "reviewed",
      "id": 797885069,
      "node_id": "PRR_kwDOABII584vjsKN",
      "url": null,
      "actor": null,
      "commit_id": "fa32cc0682a0aa3420e6a11031721fcb6c50fa44",
      "commit_url": null,
      "created_at": null,
      "author_association": "MEMBER",
      "user": {
        "login": "glozow",
        "id": 25183001,
        "node_id": "MDQ6VXNlcjI1MTgzMDAx",
        "avatar_url": "https://avatars.githubusercontent.com/u/25183001?v=4",
        "gravatar_id": "",
        "url": "https://api.github.com/users/glozow",
        "html_url": "https://github.com/glozow",
        "followers_url": "https://api.github.com/users/glozow/followers",
        "following_url": "https://api.github.com/users/glozow/following%7B/other_user%7D",
        "gists_url": "https://api.github.com/users/glozow/gists%7B/gist_id%7D",
        "starred_url": "https://api.github.com/users/glozow/starred%7B/owner%7D%7B/repo%7D",
        "subscriptions_url": "https://api.github.com/users/glozow/subscriptions",
        "organizations_url": "https://api.github.com/users/glozow/orgs",
        "repos_url": "https://api.github.com/users/glozow/repos",
        "events_url": "https://api.github.com/users/glozow/events%7B/privacy%7D",
        "received_events_url": "https://api.github.com/users/glozow/received_events",
        "type": "User",
        "site_admin": false
      },
      "html_url": "https://github.com/bitcoin/bitcoin/pull/23416#pullrequestreview-797885069",
      "submitted_at": "2021-11-04T15:17:29Z",
      "state": "COMMENTED",
      "pull_request_url": "https://api.github.com/repos/bitcoin/bitcoin/pulls/23416"
    },
    {
      "event": "commented",
      "id": 1098805441,
      "node_id": "IC_kwDOABII585BfnDB",
      "url": "https://api.github.com/repos/bitcoin/bitcoin/issues/comments/1098805441",
      "actor": {
        "login": "laanwj",
        "id": 126646,
        "node_id": "MDQ6VXNlcjEyNjY0Ng==",
        "avatar_url": "https://avatars.githubusercontent.com/u/126646?v=4",
        "gravatar_id": "",
        "url": "https://api.github.com/users/laanwj",
        "html_url": "https://github.com/laanwj",
        "followers_url": "https://api.github.com/users/laanwj/followers",
        "following_url": "https://api.github.com/users/laanwj/following%7B/other_user%7D",
        "gists_url": "https://api.github.com/users/laanwj/gists%7B/gist_id%7D",
        "starred_url": "https://api.github.com/users/laanwj/starred%7B/owner%7D%7B/repo%7D",
        "subscriptions_url": "https://api.github.com/users/laanwj/subscriptions",
        "organizations_url": "https://api.github.com/users/laanwj/orgs",
        "repos_url": "https://api.github.com/users/laanwj/repos",
        "events_url": "https://api.github.com/users/laanwj/events%7B/privacy%7D",
        "received_events_url": "https://api.github.com/users/laanwj/received_events",
        "type": "User",
        "site_admin": false
      },
      "commit_id": null,
      "commit_url": null,
      "created_at": "2022-04-14T07:41:52Z",
      "updated_at": "2022-04-14T07:45:20Z",
      "author_association": "MEMBER",
      "body": "Code review ACK fa32cc0682a0aa3420e6a11031721fcb6c50fa44\r\n\r\n> Generally, non-trivial TODOs make more sense as GitHub issues, so that they can be discussed and triaged more easily.\r\n\r\nJust going to go ahead and merge this. I fully agree with the OP. Any next steps can be done whether there's a TODO comment in the source code or not.",
      "user": {
        "login": "laanwj",
        "id": 126646,
        "node_id": "MDQ6VXNlcjEyNjY0Ng==",
        "avatar_url": "https://avatars.githubusercontent.com/u/126646?v=4",
        "gravatar_id": "",
        "url": "https://api.github.com/users/laanwj",
        "html_url": "https://github.com/laanwj",
        "followers_url": "https://api.github.com/users/laanwj/followers",
        "following_url": "https://api.github.com/users/laanwj/following%7B/other_user%7D",
        "gists_url": "https://api.github.com/users/laanwj/gists%7B/gist_id%7D",
        "starred_url": "https://api.github.com/users/laanwj/starred%7B/owner%7D%7B/repo%7D",
        "subscriptions_url": "https://api.github.com/users/laanwj/subscriptions",
        "organizations_url": "https://api.github.com/users/laanwj/orgs",
        "repos_url": "https://api.github.com/users/laanwj/repos",
        "events_url": "https://api.github.com/users/laanwj/events%7B/privacy%7D",
        "received_events_url": "https://api.github.com/users/laanwj/received_events",
        "type": "User",
        "site_admin": false
      },
      "html_url": "https://github.com/bitcoin/bitcoin/pull/23416#issuecomment-1098805441",
      "issue_url": "https://api.github.com/repos/bitcoin/bitcoin/issues/23416"
    },
    {
      "event": "merged",
      "id": 6432498636,
      "node_id": "ME_lADOABII584-IsYJzwAAAAF_aCPM",
      "url": "https://api.github.com/repos/bitcoin/bitcoin/issues/events/6432498636",
      "actor": {
        "login": "laanwj",
        "id": 126646,
        "node_id": "MDQ6VXNlcjEyNjY0Ng==",
        "avatar_url": "https://avatars.githubusercontent.com/u/126646?v=4",
        "gravatar_id": "",
        "url": "https://api.github.com/users/laanwj",
        "html_url": "https://github.com/laanwj",
        "followers_url": "https://api.github.com/users/laanwj/followers",
        "following_url": "https://api.github.com/users/laanwj/following%7B/other_user%7D",
        "gists_url": "https://api.github.com/users/laanwj/gists%7B/gist_id%7D",
        "starred_url": "https://api.github.com/users/laanwj/starred%7B/owner%7D%7B/repo%7D",
        "subscriptions_url": "https://api.github.com/users/laanwj/subscriptions",
        "organizations_url": "https://api.github.com/users/laanwj/orgs",
        "repos_url": "https://api.github.com/users/laanwj/repos",
        "events_url": "https://api.github.com/users/laanwj/events%7B/privacy%7D",
        "received_events_url": "https://api.github.com/users/laanwj/received_events",
        "type": "User",
        "site_admin": false
      },
      "commit_id": "1e3ed01faa77215a7c36308237280aaa58895532",
      "commit_url": "https://api.github.com/repos/bitcoin/bitcoin/commits/1e3ed01faa77215a7c36308237280aaa58895532",
      "created_at": "2022-04-14T07:42:45Z"
    },
    {
      "event": "closed",
      "id": 6432498661,
      "node_id": "CE_lADOABII584-IsYJzwAAAAF_aCPl",
      "url": "https://api.github.com/repos/bitcoin/bitcoin/issues/events/6432498661",
      "actor": {
        "login": "laanwj",
        "id": 126646,
        "node_id": "MDQ6VXNlcjEyNjY0Ng==",
        "avatar_url": "https://avatars.githubusercontent.com/u/126646?v=4",
        "gravatar_id": "",
        "url": "https://api.github.com/users/laanwj",
        "html_url": "https://github.com/laanwj",
        "followers_url": "https://api.github.com/users/laanwj/followers",
        "following_url": "https://api.github.com/users/laanwj/following%7B/other_user%7D",
        "gists_url": "https://api.github.com/users/laanwj/gists%7B/gist_id%7D",
        "starred_url": "https://api.github.com/users/laanwj/starred%7B/owner%7D%7B/repo%7D",
        "subscriptions_url": "https://api.github.com/users/laanwj/subscriptions",
        "organizations_url": "https://api.github.com/users/laanwj/orgs",
        "repos_url": "https://api.github.com/users/laanwj/repos",
        "events_url": "https://api.github.com/users/laanwj/events%7B/privacy%7D",
        "received_events_url": "https://api.github.com/users/laanwj/received_events",
        "type": "User",
        "site_admin": false
      },
      "commit_id": null,
      "commit_url": null,
      "created_at": "2022-04-14T07:42:45Z"
    },
    {
      "event": "referenced",
      "id": 6435932080,
      "node_id": "REFE_lADOABII584-IsYJzwAAAAF_nIew",
      "url": "https://api.github.com/repos/bitcoin/bitcoin/issues/events/6435932080",
      "actor": {
        "login": "sidhujag",
        "id": 6238042,
        "node_id": "MDQ6VXNlcjYyMzgwNDI=",
        "avatar_url": "https://avatars.githubusercontent.com/u/6238042?v=4",
        "gravatar_id": "",
        "url": "https://api.github.com/users/sidhujag",
        "html_url": "https://github.com/sidhujag",
        "followers_url": "https://api.github.com/users/sidhujag/followers",
        "following_url": "https://api.github.com/users/sidhujag/following%7B/other_user%7D",
        "gists_url": "https://api.github.com/users/sidhujag/gists%7B/gist_id%7D",
        "starred_url": "https://api.github.com/users/sidhujag/starred%7B/owner%7D%7B/repo%7D",
        "subscriptions_url": "https://api.github.com/users/sidhujag/subscriptions",
        "organizations_url": "https://api.github.com/users/sidhujag/orgs",
        "repos_url": "https://api.github.com/users/sidhujag/repos",
        "events_url": "https://api.github.com/users/sidhujag/events%7B/privacy%7D",
        "received_events_url": "https://api.github.com/users/sidhujag/received_events",
        "type": "User",
        "site_admin": false
      },
      "commit_id": "6b9411d880288b759ef0cd4d1f5bb6faa51c2af0",
      "commit_url": "https://api.github.com/repos/syscoin/syscoin/commits/6b9411d880288b759ef0cd4d1f5bb6faa51c2af0",
      "created_at": "2022-04-14T16:44:52Z"
    },
    {
      "event": "referenced",
      "id": 7879066165,
      "node_id": "REFE_lADOABII584-IsYJzwAAAAHVoQI1",
      "url": "https://api.github.com/repos/bitcoin/bitcoin/issues/events/7879066165",
      "actor": {
        "login": "Fabcien",
        "id": 44533924,
        "node_id": "MDQ6VXNlcjQ0NTMzOTI0",
        "avatar_url": "https://avatars.githubusercontent.com/u/44533924?v=4",
        "gravatar_id": "",
        "url": "https://api.github.com/users/Fabcien",
        "html_url": "https://github.com/Fabcien",
        "followers_url": "https://api.github.com/users/Fabcien/followers",
        "following_url": "https://api.github.com/users/Fabcien/following%7B/other_user%7D",
        "gists_url": "https://api.github.com/users/Fabcien/gists%7B/gist_id%7D",
        "starred_url": "https://api.github.com/users/Fabcien/starred%7B/owner%7D%7B/repo%7D",
        "subscriptions_url": "https://api.github.com/users/Fabcien/subscriptions",
        "organizations_url": "https://api.github.com/users/Fabcien/orgs",
        "repos_url": "https://api.github.com/users/Fabcien/repos",
        "events_url": "https://api.github.com/users/Fabcien/events%7B/privacy%7D",
        "received_events_url": "https://api.github.com/users/Fabcien/received_events",
        "type": "User",
        "site_admin": false
      },
      "commit_id": "89aa566f3ae6ac77703729c1d0ef2e9fbbee1f0e",
      "commit_url": "https://api.github.com/repos/Bitcoin-ABC/bitcoin-abc/commits/89aa566f3ae6ac77703729c1d0ef2e9fbbee1f0e",
      "created_at": "2022-11-23T16:49:58Z"
    },
    {
      "event": "head_ref_deleted",
      "id": 8628444049,
      "node_id": "HRDE_lADOABII584-IsYJzwAAAAICS5uR",
      "url": "https://api.github.com/repos/bitcoin/bitcoin/issues/events/8628444049",
      "actor": {
        "login": "MarcoFalke",
        "id": 6399679,
        "node_id": "MDQ6VXNlcjYzOTk2Nzk=",
        "avatar_url": "https://avatars.githubusercontent.com/u/6399679?v=4",
        "gravatar_id": "",
        "url": "https://api.github.com/users/MarcoFalke",
        "html_url": "https://github.com/MarcoFalke",
        "followers_url": "https://api.github.com/users/MarcoFalke/followers",
        "following_url": "https://api.github.com/users/MarcoFalke/following%7B/other_user%7D",
        "gists_url": "https://api.github.com/users/MarcoFalke/gists%7B/gist_id%7D",
        "starred_url": "https://api.github.com/users/MarcoFalke/starred%7B/owner%7D%7B/repo%7D",
        "subscriptions_url": "https://api.github.com/users/MarcoFalke/subscriptions",
        "organizations_url": "https://api.github.com/users/MarcoFalke/orgs",
        "repos_url": "https://api.github.com/users/MarcoFalke/repos",
        "events_url": "https://api.github.com/users/MarcoFalke/events%7B/privacy%7D",
        "received_events_url": "https://api.github.com/users/MarcoFalke/received_events",
        "type": "User",
        "site_admin": false
      },
      "commit_id": null,
      "commit_url": null,
      "created_at": "2023-02-28T15:41:36Z"
    }
  ],
  "comments": [
    {
      "url": "https://api.github.com/repos/bitcoin/bitcoin/pulls/comments/742939577",
      "pull_request_review_id": 797885069,
      "id": 742939577,
      "node_id": "PRRC_kwDOABII584sSFu5",
      "diff_hunk": "@@ -422,8 +422,6 @@ void CTxMemPool::addUnchecked(const CTxMemPoolEntry &entry, setEntries &setAnces\n     indexed_transaction_set::iterator newit = mapTx.insert(entry).first;\n \n     // Update transaction for any feeDelta created by PrioritiseTransaction\n-    // TODO: refactor so that the fee delta is calculated before inserting\n-    // into mapTx.\n     CAmount delta{0};\n     ApplyDelta(entry.GetTx().GetHash(), delta);",
      "path": "src/txmempool.cpp",
      "position": 7,
      "original_position": 7,
      "commit_id": "fa32cc0682a0aa3420e6a11031721fcb6c50fa44",
      "original_commit_id": "fa32cc0682a0aa3420e6a11031721fcb6c50fa44",
      "in_reply_to_id": null,
      "user": {
        "login": "glozow",
        "id": 25183001,
        "node_id": "MDQ6VXNlcjI1MTgzMDAx",
        "avatar_url": "https://avatars.githubusercontent.com/u/25183001?v=4",
        "gravatar_id": "",
        "url": "https://api.github.com/users/glozow",
        "html_url": "https://github.com/glozow",
        "followers_url": "https://api.github.com/users/glozow/followers",
        "following_url": "https://api.github.com/users/glozow/following%7B/other_user%7D",
        "gists_url": "https://api.github.com/users/glozow/gists%7B/gist_id%7D",
        "starred_url": "https://api.github.com/users/glozow/starred%7B/owner%7D%7B/repo%7D",
        "subscriptions_url": "https://api.github.com/users/glozow/subscriptions",
        "organizations_url": "https://api.github.com/users/glozow/orgs",
        "repos_url": "https://api.github.com/users/glozow/repos",
        "events_url": "https://api.github.com/users/glozow/events%7B/privacy%7D",
        "received_events_url": "https://api.github.com/users/glozow/received_events",
        "type": "User",
        "site_admin": false
      },
      "body": "Don't have much background on what was intended, but I interpret this TODO to be \"move these 2 lines up before the `insert` call, and delete the `mapTx.modify()` call below?",
      "created_at": "2021-11-04T15:17:29Z",
      "updated_at": "2021-11-04T15:17:29Z",
      "html_url": "https://github.com/bitcoin/bitcoin/pull/23416#discussion_r742939577",
      "author_association": "MEMBER",
      "_links": {
        "self": {
          "href": "https://api.github.com/repos/bitcoin/bitcoin/pulls/comments/742939577"
        },
        "pull_request": {
          "href": "https://api.github.com/repos/bitcoin/bitcoin/pulls/23416"
        }
      },
      "start_line": 425,
      "original_start_line": 425,
      "start_side": "RIGHT",
      "line": 426,
      "original_line": 426,
      "side": "RIGHT"
    },
    {
      "url": "https://api.github.com/repos/bitcoin/bitcoin/pulls/comments/743140280",
      "pull_request_review_id": 798175677,
      "id": 743140280,
      "node_id": "PRRC_kwDOABII584sS2u4",
      "diff_hunk": "@@ -422,8 +422,6 @@ void CTxMemPool::addUnchecked(const CTxMemPoolEntry &entry, setEntries &setAnces\n     indexed_transaction_set::iterator newit = mapTx.insert(entry).first;\n \n     // Update transaction for any feeDelta created by PrioritiseTransaction\n-    // TODO: refactor so that the fee delta is calculated before inserting\n-    // into mapTx.\n     CAmount delta{0};\n     ApplyDelta(entry.GetTx().GetHash(), delta);",
      "path": "src/txmempool.cpp",
      "position": 7,
      "original_position": 7,
      "commit_id": "fa32cc0682a0aa3420e6a11031721fcb6c50fa44",
      "original_commit_id": "fa32cc0682a0aa3420e6a11031721fcb6c50fa44",
      "in_reply_to_id": 742939577,
      "user": {
        "login": "MarcoFalke",
        "id": 6399679,
        "node_id": "MDQ6VXNlcjYzOTk2Nzk=",
        "avatar_url": "https://avatars.githubusercontent.com/u/6399679?v=4",
        "gravatar_id": "",
        "url": "https://api.github.com/users/MarcoFalke",
        "html_url": "https://github.com/MarcoFalke",
        "followers_url": "https://api.github.com/users/MarcoFalke/followers",
        "following_url": "https://api.github.com/users/MarcoFalke/following%7B/other_user%7D",
        "gists_url": "https://api.github.com/users/MarcoFalke/gists%7B/gist_id%7D",
        "starred_url": "https://api.github.com/users/MarcoFalke/starred%7B/owner%7D%7B/repo%7D",
        "subscriptions_url": "https://api.github.com/users/MarcoFalke/subscriptions",
        "organizations_url": "https://api.github.com/users/MarcoFalke/orgs",
        "repos_url": "https://api.github.com/users/MarcoFalke/repos",
        "events_url": "https://api.github.com/users/MarcoFalke/events%7B/privacy%7D",
        "received_events_url": "https://api.github.com/users/MarcoFalke/received_events",
        "type": "User",
        "site_admin": false
      },
      "body": "Yes, it is possible to fix it in that way, see commit fa300f581fe6cd4b37c7cefb191722ff970e0116. Are you suggesting I open a pull with that?",
      "created_at": "2021-11-04T19:26:40Z",
      "updated_at": "2021-11-04T19:26:40Z",
      "html_url": "https://github.com/bitcoin/bitcoin/pull/23416#discussion_r743140280",
      "author_association": "MEMBER",
      "_links": {
        "self": {
          "href": "https://api.github.com/repos/bitcoin/bitcoin/pulls/comments/743140280"
        },
        "pull_request": {
          "href": "https://api.github.com/repos/bitcoin/bitcoin/pulls/23416"
        }
      },
      "start_line": 425,
      "original_start_line": 425,
      "start_side": "RIGHT",
      "line": 426,
      "original_line": 426,
      "side": "RIGHT"
    },
    {
      "url": "https://api.github.com/repos/bitcoin/bitcoin/pulls/comments/748873678",
      "pull_request_review_id": 805488289,
      "id": 748873678,
      "node_id": "PRRC_kwDOABII584soufO",
      "diff_hunk": "@@ -422,8 +422,6 @@ void CTxMemPool::addUnchecked(const CTxMemPoolEntry &entry, setEntries &setAnces\n     indexed_transaction_set::iterator newit = mapTx.insert(entry).first;\n \n     // Update transaction for any feeDelta created by PrioritiseTransaction\n-    // TODO: refactor so that the fee delta is calculated before inserting\n-    // into mapTx.\n     CAmount delta{0};\n     ApplyDelta(entry.GetTx().GetHash(), delta);",
      "path": "src/txmempool.cpp",
      "position": 7,
      "original_position": 7,
      "commit_id": "fa32cc0682a0aa3420e6a11031721fcb6c50fa44",
      "original_commit_id": "fa32cc0682a0aa3420e6a11031721fcb6c50fa44",
      "in_reply_to_id": 742939577,
      "user": {
        "login": "glozow",
        "id": 25183001,
        "node_id": "MDQ6VXNlcjI1MTgzMDAx",
        "avatar_url": "https://avatars.githubusercontent.com/u/25183001?v=4",
        "gravatar_id": "",
        "url": "https://api.github.com/users/glozow",
        "html_url": "https://github.com/glozow",
        "followers_url": "https://api.github.com/users/glozow/followers",
        "following_url": "https://api.github.com/users/glozow/following%7B/other_user%7D",
        "gists_url": "https://api.github.com/users/glozow/gists%7B/gist_id%7D",
        "starred_url": "https://api.github.com/users/glozow/starred%7B/owner%7D%7B/repo%7D",
        "subscriptions_url": "https://api.github.com/users/glozow/subscriptions",
        "organizations_url": "https://api.github.com/users/glozow/orgs",
        "repos_url": "https://api.github.com/users/glozow/repos",
        "events_url": "https://api.github.com/users/glozow/events%7B/privacy%7D",
        "received_events_url": "https://api.github.com/users/glozow/received_events",
        "type": "User",
        "site_admin": false
      },
      "body": "Yeah I think it's better, regardless of whether that's what the todo is referring to",
      "created_at": "2021-11-14T15:58:00Z",
      "updated_at": "2021-11-14T15:58:00Z",
      "html_url": "https://github.com/bitcoin/bitcoin/pull/23416#discussion_r748873678",
      "author_association": "MEMBER",
      "_links": {
        "self": {
          "href": "https://api.github.com/repos/bitcoin/bitcoin/pulls/comments/748873678"
        },
        "pull_request": {
          "href": "https://api.github.com/repos/bitcoin/bitcoin/pulls/23416"
        }
      },
      "start_line": 425,
      "original_start_line": 425,
      "start_side": "RIGHT",
      "line": 426,
      "original_line": 426,
      "side": "RIGHT"
    },
    {
      "url": "https://api.github.com/repos/bitcoin/bitcoin/pulls/comments/834236397",
      "pull_request_review_id": 920165064,
      "id": 834236397,
      "node_id": "PRRC_kwDOABII584xuW_t",
      "diff_hunk": "@@ -422,8 +422,6 @@ void CTxMemPool::addUnchecked(const CTxMemPoolEntry &entry, setEntries &setAnces\n     indexed_transaction_set::iterator newit = mapTx.insert(entry).first;\n \n     // Update transaction for any feeDelta created by PrioritiseTransaction\n-    // TODO: refactor so that the fee delta is calculated before inserting\n-    // into mapTx.\n     CAmount delta{0};\n     ApplyDelta(entry.GetTx().GetHash(), delta);",
      "path": "src/txmempool.cpp",
      "position": 7,
      "original_position": 7,
      "commit_id": "fa32cc0682a0aa3420e6a11031721fcb6c50fa44",
      "original_commit_id": "fa32cc0682a0aa3420e6a11031721fcb6c50fa44",
      "in_reply_to_id": 742939577,
      "user": {
        "login": "fanquake",
        "id": 863730,
        "node_id": "MDQ6VXNlcjg2MzczMA==",
        "avatar_url": "https://avatars.githubusercontent.com/u/863730?v=4",
        "gravatar_id": "",
        "url": "https://api.github.com/users/fanquake",
        "html_url": "https://github.com/fanquake",
        "followers_url": "https://api.github.com/users/fanquake/followers",
        "following_url": "https://api.github.com/users/fanquake/following%7B/other_user%7D",
        "gists_url": "https://api.github.com/users/fanquake/gists%7B/gist_id%7D",
        "starred_url": "https://api.github.com/users/fanquake/starred%7B/owner%7D%7B/repo%7D",
        "subscriptions_url": "https://api.github.com/users/fanquake/subscriptions",
        "organizations_url": "https://api.github.com/users/fanquake/orgs",
        "repos_url": "https://api.github.com/users/fanquake/repos",
        "events_url": "https://api.github.com/users/fanquake/events%7B/privacy%7D",
        "received_events_url": "https://api.github.com/users/fanquake/received_events",
        "type": "User",
        "site_admin": false
      },
      "body": "Should we just convert this PR into the suggested fix?",
      "created_at": "2022-03-24T12:07:24Z",
      "updated_at": "2022-03-24T12:07:25Z",
      "html_url": "https://github.com/bitcoin/bitcoin/pull/23416#discussion_r834236397",
      "author_association": "MEMBER",
      "_links": {
        "self": {
          "href": "https://api.github.com/repos/bitcoin/bitcoin/pulls/comments/834236397"
        },
        "pull_request": {
          "href": "https://api.github.com/repos/bitcoin/bitcoin/pulls/23416"
        }
      },
      "start_line": 425,
      "original_start_line": 425,
      "start_side": "RIGHT",
      "line": 426,
      "original_line": 426,
      "side": "RIGHT"
    }
  ]
}