{
  "type": "pull",
  "pull": {
    "url": "https://api.github.com/repos/bitcoin/bitcoin/pulls/24435",
    "id": 861973864,
    "node_id": "PR_kwDOABII584zYK1o",
    "html_url": "https://github.com/bitcoin/bitcoin/pull/24435",
    "diff_url": "https://github.com/bitcoin/bitcoin/pull/24435.diff",
    "patch_url": "https://github.com/bitcoin/bitcoin/pull/24435.patch",
    "issue_url": "https://api.github.com/repos/bitcoin/bitcoin/issues/24435",
    "commits_url": "https://api.github.com/repos/bitcoin/bitcoin/pulls/24435/commits",
    "review_comments_url": "https://api.github.com/repos/bitcoin/bitcoin/pulls/24435/comments",
    "review_comment_url": "https://api.github.com/repos/bitcoin/bitcoin/pulls/comments%7B/number%7D",
    "comments_url": "https://api.github.com/repos/bitcoin/bitcoin/issues/24435/comments",
    "statuses_url": "https://api.github.com/repos/bitcoin/bitcoin/statuses/0eacbc3c6ec27df2c362adf57bec7b8075f7d2ad",
    "number": 24435,
    "state": "closed",
    "locked": true,
    "maintainer_can_modify": false,
    "title": "test: Refactor subtree exclusion in lint tests",
    "user": {
      "login": "maxraustin",
      "id": 22504085,
      "node_id": "MDQ6VXNlcjIyNTA0MDg1",
      "avatar_url": "https://avatars.githubusercontent.com/u/22504085?v=4",
      "gravatar_id": "",
      "url": "https://api.github.com/users/maxraustin",
      "html_url": "https://github.com/maxraustin",
      "followers_url": "https://api.github.com/users/maxraustin/followers",
      "following_url": "https://api.github.com/users/maxraustin/following%7B/other_user%7D",
      "gists_url": "https://api.github.com/users/maxraustin/gists%7B/gist_id%7D",
      "starred_url": "https://api.github.com/users/maxraustin/starred%7B/owner%7D%7B/repo%7D",
      "subscriptions_url": "https://api.github.com/users/maxraustin/subscriptions",
      "organizations_url": "https://api.github.com/users/maxraustin/orgs",
      "repos_url": "https://api.github.com/users/maxraustin/repos",
      "events_url": "https://api.github.com/users/maxraustin/events%7B/privacy%7D",
      "received_events_url": "https://api.github.com/users/maxraustin/received_events",
      "type": "User",
      "site_admin": false
    },
    "body": "refs #17413. \r\n\r\nThere are several commonly excluded directories in the lint tests. Rather than having these subtrees be copied in each of these test files, they can be pulled from a shared list so that any future changes to these exclusions can be isolated to one location rather than spread out among many files. \r\n\r\nThis first commit is a proof of concept demonstrating how this can be applied. I saw that we currently have a list of ignored words in a text file used for the spelling lint test, so I followed that general idea and moved the list of ignored subtrees into a text file as well. This can be read and parsed into whatever format we want. The extended-lint-cppcheck.sh and lint-includes.sh tests use a regex with just these directories, but some of the examples in the linked issue have additional unique exclusions so the solution needs to be able to support that.\r\n\r\nI wanted to create an early WIP pull request with a proof of concept to present the idea for discussion. There are several other areas that this list of subtrees can be used, outlined in the ref'd issue.",
    "labels": [
      {
        "id": 62963516,
        "node_id": "MDU6TGFiZWw2Mjk2MzUxNg==",
        "url": "https://api.github.com/repos/bitcoin/bitcoin/labels/Tests",
        "name": "Tests",
        "color": "d4c5f9",
        "default": false
      },
      {
        "id": 749416508,
        "node_id": "MDU6TGFiZWw3NDk0MTY1MDg=",
        "url": "https://api.github.com/repos/bitcoin/bitcoin/labels/Up%20for%20grabs",
        "name": "Up for grabs",
        "color": "99a810",
        "default": false
      },
      {
        "id": 955867938,
        "node_id": "MDU6TGFiZWw5NTU4Njc5Mzg=",
        "url": "https://api.github.com/repos/bitcoin/bitcoin/labels/Needs%20rebase",
        "name": "Needs rebase",
        "description": "",
        "color": "cccccc",
        "default": false
      }
    ],
    "created_at": "2022-02-24T01:09:28Z",
    "updated_at": "2023-10-21T12:15:27Z",
    "closed_at": "2022-10-12T19:07:16Z",
    "mergeable": false,
    "mergeable_state": "dirty",
    "merge_commit_sha": "af1f7a83f04945ca8ef14ba300475d7d9a7f9c38",
    "assignees": [],
    "requested_reviewers": [],
    "requested_teams": [],
    "rebaseable": false,
    "head": {
      "label": "maxraustin:#17413-Subtree-Exclude-Dirs",
      "ref": "#17413-Subtree-Exclude-Dirs",
      "sha": "0eacbc3c6ec27df2c362adf57bec7b8075f7d2ad",
      "user": {
        "login": "maxraustin",
        "id": 22504085,
        "node_id": "MDQ6VXNlcjIyNTA0MDg1",
        "avatar_url": "https://avatars.githubusercontent.com/u/22504085?v=4",
        "gravatar_id": "",
        "url": "https://api.github.com/users/maxraustin",
        "html_url": "https://github.com/maxraustin",
        "followers_url": "https://api.github.com/users/maxraustin/followers",
        "following_url": "https://api.github.com/users/maxraustin/following%7B/other_user%7D",
        "gists_url": "https://api.github.com/users/maxraustin/gists%7B/gist_id%7D",
        "starred_url": "https://api.github.com/users/maxraustin/starred%7B/owner%7D%7B/repo%7D",
        "subscriptions_url": "https://api.github.com/users/maxraustin/subscriptions",
        "organizations_url": "https://api.github.com/users/maxraustin/orgs",
        "repos_url": "https://api.github.com/users/maxraustin/repos",
        "events_url": "https://api.github.com/users/maxraustin/events%7B/privacy%7D",
        "received_events_url": "https://api.github.com/users/maxraustin/received_events",
        "type": "User",
        "site_admin": false
      },
      "repo": {
        "id": 442929779,
        "node_id": "R_kgDOGmaScw",
        "name": "bitcoin",
        "full_name": "maxraustin/bitcoin",
        "owner": {
          "login": "maxraustin",
          "id": 22504085,
          "node_id": "MDQ6VXNlcjIyNTA0MDg1",
          "avatar_url": "https://avatars.githubusercontent.com/u/22504085?v=4",
          "gravatar_id": "",
          "url": "https://api.github.com/users/maxraustin",
          "html_url": "https://github.com/maxraustin",
          "followers_url": "https://api.github.com/users/maxraustin/followers",
          "following_url": "https://api.github.com/users/maxraustin/following%7B/other_user%7D",
          "gists_url": "https://api.github.com/users/maxraustin/gists%7B/gist_id%7D",
          "starred_url": "https://api.github.com/users/maxraustin/starred%7B/owner%7D%7B/repo%7D",
          "subscriptions_url": "https://api.github.com/users/maxraustin/subscriptions",
          "organizations_url": "https://api.github.com/users/maxraustin/orgs",
          "repos_url": "https://api.github.com/users/maxraustin/repos",
          "events_url": "https://api.github.com/users/maxraustin/events%7B/privacy%7D",
          "received_events_url": "https://api.github.com/users/maxraustin/received_events",
          "type": "User",
          "site_admin": false
        },
        "private": false,
        "html_url": "https://github.com/maxraustin/bitcoin",
        "description": "Bitcoin Core integration/staging tree",
        "fork": true,
        "url": "https://api.github.com/repos/maxraustin/bitcoin",
        "archive_url": "https://api.github.com/repos/maxraustin/bitcoin/%7Barchive_format%7D%7B/ref%7D",
        "assignees_url": "https://api.github.com/repos/maxraustin/bitcoin/assignees%7B/user%7D",
        "blobs_url": "https://api.github.com/repos/maxraustin/bitcoin/git/blobs%7B/sha%7D",
        "branches_url": "https://api.github.com/repos/maxraustin/bitcoin/branches%7B/branch%7D",
        "collaborators_url": "https://api.github.com/repos/maxraustin/bitcoin/collaborators%7B/collaborator%7D",
        "comments_url": "https://api.github.com/repos/maxraustin/bitcoin/comments%7B/number%7D",
        "commits_url": "https://api.github.com/repos/maxraustin/bitcoin/commits%7B/sha%7D",
        "compare_url": "https://api.github.com/repos/maxraustin/bitcoin/compare/%7Bbase%7D...%7Bhead%7D",
        "contents_url": "https://api.github.com/repos/maxraustin/bitcoin/contents/%7B+path%7D",
        "contributors_url": "https://api.github.com/repos/maxraustin/bitcoin/contributors",
        "deployments_url": "https://api.github.com/repos/maxraustin/bitcoin/deployments",
        "downloads_url": "https://api.github.com/repos/maxraustin/bitcoin/downloads",
        "events_url": "https://api.github.com/repos/maxraustin/bitcoin/events",
        "forks_url": "https://api.github.com/repos/maxraustin/bitcoin/forks",
        "git_commits_url": "https://api.github.com/repos/maxraustin/bitcoin/git/commits%7B/sha%7D",
        "git_refs_url": "https://api.github.com/repos/maxraustin/bitcoin/git/refs%7B/sha%7D",
        "git_tags_url": "https://api.github.com/repos/maxraustin/bitcoin/git/tags%7B/sha%7D",
        "git_url": "git://github.com/maxraustin/bitcoin.git",
        "issue_comment_url": "https://api.github.com/repos/maxraustin/bitcoin/issues/comments%7B/number%7D",
        "issue_events_url": "https://api.github.com/repos/maxraustin/bitcoin/issues/events%7B/number%7D",
        "issues_url": "https://api.github.com/repos/maxraustin/bitcoin/issues%7B/number%7D",
        "keys_url": "https://api.github.com/repos/maxraustin/bitcoin/keys%7B/key_id%7D",
        "labels_url": "https://api.github.com/repos/maxraustin/bitcoin/labels%7B/name%7D",
        "languages_url": "https://api.github.com/repos/maxraustin/bitcoin/languages",
        "merges_url": "https://api.github.com/repos/maxraustin/bitcoin/merges",
        "milestones_url": "https://api.github.com/repos/maxraustin/bitcoin/milestones%7B/number%7D",
        "notifications_url": "https://api.github.com/repos/maxraustin/bitcoin/notifications%7B?since,all,participating}",
        "pulls_url": "https://api.github.com/repos/maxraustin/bitcoin/pulls%7B/number%7D",
        "releases_url": "https://api.github.com/repos/maxraustin/bitcoin/releases%7B/id%7D",
        "ssh_url": "git@github.com:maxraustin/bitcoin.git",
        "stargazers_url": "https://api.github.com/repos/maxraustin/bitcoin/stargazers",
        "statuses_url": "https://api.github.com/repos/maxraustin/bitcoin/statuses/%7Bsha%7D",
        "subscribers_url": "https://api.github.com/repos/maxraustin/bitcoin/subscribers",
        "subscription_url": "https://api.github.com/repos/maxraustin/bitcoin/subscription",
        "tags_url": "https://api.github.com/repos/maxraustin/bitcoin/tags",
        "teams_url": "https://api.github.com/repos/maxraustin/bitcoin/teams",
        "trees_url": "https://api.github.com/repos/maxraustin/bitcoin/git/trees%7B/sha%7D",
        "clone_url": "https://github.com/maxraustin/bitcoin.git",
        "hooks_url": "https://api.github.com/repos/maxraustin/bitcoin/hooks",
        "svn_url": "https://github.com/maxraustin/bitcoin",
        "homepage": "https://bitcoincore.org/en/download",
        "language": "C++",
        "forks_count": 0,
        "stargazers_count": 0,
        "watchers_count": 0,
        "size": 199030,
        "default_branch": "master",
        "open_issues_count": 0,
        "is_template": false,
        "topics": [],
        "has_issues": false,
        "has_projects": true,
        "has_wiki": false,
        "has_pages": false,
        "has_downloads": false,
        "archived": false,
        "disabled": false,
        "visibility": "public",
        "pushed_at": "2022-03-24T21:31:39Z",
        "created_at": "2021-12-30T01:01:55Z",
        "updated_at": "2022-01-27T15:56:45Z",
        "license": {
          "key": "mit",
          "name": "MIT License",
          "node_id": "MDc6TGljZW5zZTEz",
          "spdx_id": "MIT",
          "url": "https://api.github.com/licenses/mit",
          "html_url": null,
          "description": null,
          "implementation": null,
          "permissions": null,
          "conditions": null,
          "limitations": null,
          "body": null,
          "featured": null
        }
      }
    },
    "base": {
      "label": "bitcoin:master",
      "ref": "master",
      "sha": "29d540b7ada890dd588c4825d40c27c5e6f20061",
      "user": {
        "login": "bitcoin",
        "id": 528860,
        "node_id": "MDEyOk9yZ2FuaXphdGlvbjUyODg2MA==",
        "avatar_url": "https://avatars.githubusercontent.com/u/528860?v=4",
        "gravatar_id": "",
        "url": "https://api.github.com/users/bitcoin",
        "html_url": "https://github.com/bitcoin",
        "followers_url": "https://api.github.com/users/bitcoin/followers",
        "following_url": "https://api.github.com/users/bitcoin/following%7B/other_user%7D",
        "gists_url": "https://api.github.com/users/bitcoin/gists%7B/gist_id%7D",
        "starred_url": "https://api.github.com/users/bitcoin/starred%7B/owner%7D%7B/repo%7D",
        "subscriptions_url": "https://api.github.com/users/bitcoin/subscriptions",
        "organizations_url": "https://api.github.com/users/bitcoin/orgs",
        "repos_url": "https://api.github.com/users/bitcoin/repos",
        "events_url": "https://api.github.com/users/bitcoin/events%7B/privacy%7D",
        "received_events_url": "https://api.github.com/users/bitcoin/received_events",
        "type": "Organization",
        "site_admin": false
      },
      "repo": {
        "id": 1181927,
        "node_id": "MDEwOlJlcG9zaXRvcnkxMTgxOTI3",
        "name": "bitcoin",
        "full_name": "bitcoin/bitcoin",
        "owner": {
          "login": "bitcoin",
          "id": 528860,
          "node_id": "MDEyOk9yZ2FuaXphdGlvbjUyODg2MA==",
          "avatar_url": "https://avatars.githubusercontent.com/u/528860?v=4",
          "gravatar_id": "",
          "url": "https://api.github.com/users/bitcoin",
          "html_url": "https://github.com/bitcoin",
          "followers_url": "https://api.github.com/users/bitcoin/followers",
          "following_url": "https://api.github.com/users/bitcoin/following%7B/other_user%7D",
          "gists_url": "https://api.github.com/users/bitcoin/gists%7B/gist_id%7D",
          "starred_url": "https://api.github.com/users/bitcoin/starred%7B/owner%7D%7B/repo%7D",
          "subscriptions_url": "https://api.github.com/users/bitcoin/subscriptions",
          "organizations_url": "https://api.github.com/users/bitcoin/orgs",
          "repos_url": "https://api.github.com/users/bitcoin/repos",
          "events_url": "https://api.github.com/users/bitcoin/events%7B/privacy%7D",
          "received_events_url": "https://api.github.com/users/bitcoin/received_events",
          "type": "Organization",
          "site_admin": false
        },
        "private": false,
        "html_url": "https://github.com/bitcoin/bitcoin",
        "description": "Bitcoin Core integration/staging tree",
        "fork": false,
        "url": "https://api.github.com/repos/bitcoin/bitcoin",
        "archive_url": "https://api.github.com/repos/bitcoin/bitcoin/%7Barchive_format%7D%7B/ref%7D",
        "assignees_url": "https://api.github.com/repos/bitcoin/bitcoin/assignees%7B/user%7D",
        "blobs_url": "https://api.github.com/repos/bitcoin/bitcoin/git/blobs%7B/sha%7D",
        "branches_url": "https://api.github.com/repos/bitcoin/bitcoin/branches%7B/branch%7D",
        "collaborators_url": "https://api.github.com/repos/bitcoin/bitcoin/collaborators%7B/collaborator%7D",
        "comments_url": "https://api.github.com/repos/bitcoin/bitcoin/comments%7B/number%7D",
        "commits_url": "https://api.github.com/repos/bitcoin/bitcoin/commits%7B/sha%7D",
        "compare_url": "https://api.github.com/repos/bitcoin/bitcoin/compare/%7Bbase%7D...%7Bhead%7D",
        "contents_url": "https://api.github.com/repos/bitcoin/bitcoin/contents/%7B+path%7D",
        "contributors_url": "https://api.github.com/repos/bitcoin/bitcoin/contributors",
        "deployments_url": "https://api.github.com/repos/bitcoin/bitcoin/deployments",
        "downloads_url": "https://api.github.com/repos/bitcoin/bitcoin/downloads",
        "events_url": "https://api.github.com/repos/bitcoin/bitcoin/events",
        "forks_url": "https://api.github.com/repos/bitcoin/bitcoin/forks",
        "git_commits_url": "https://api.github.com/repos/bitcoin/bitcoin/git/commits%7B/sha%7D",
        "git_refs_url": "https://api.github.com/repos/bitcoin/bitcoin/git/refs%7B/sha%7D",
        "git_tags_url": "https://api.github.com/repos/bitcoin/bitcoin/git/tags%7B/sha%7D",
        "git_url": "git://github.com/bitcoin/bitcoin.git",
        "issue_comment_url": "https://api.github.com/repos/bitcoin/bitcoin/issues/comments%7B/number%7D",
        "issue_events_url": "https://api.github.com/repos/bitcoin/bitcoin/issues/events%7B/number%7D",
        "issues_url": "https://api.github.com/repos/bitcoin/bitcoin/issues%7B/number%7D",
        "keys_url": "https://api.github.com/repos/bitcoin/bitcoin/keys%7B/key_id%7D",
        "labels_url": "https://api.github.com/repos/bitcoin/bitcoin/labels%7B/name%7D",
        "languages_url": "https://api.github.com/repos/bitcoin/bitcoin/languages",
        "merges_url": "https://api.github.com/repos/bitcoin/bitcoin/merges",
        "milestones_url": "https://api.github.com/repos/bitcoin/bitcoin/milestones%7B/number%7D",
        "notifications_url": "https://api.github.com/repos/bitcoin/bitcoin/notifications%7B?since,all,participating}",
        "pulls_url": "https://api.github.com/repos/bitcoin/bitcoin/pulls%7B/number%7D",
        "releases_url": "https://api.github.com/repos/bitcoin/bitcoin/releases%7B/id%7D",
        "ssh_url": "git@github.com:bitcoin/bitcoin.git",
        "stargazers_url": "https://api.github.com/repos/bitcoin/bitcoin/stargazers",
        "statuses_url": "https://api.github.com/repos/bitcoin/bitcoin/statuses/%7Bsha%7D",
        "subscribers_url": "https://api.github.com/repos/bitcoin/bitcoin/subscribers",
        "subscription_url": "https://api.github.com/repos/bitcoin/bitcoin/subscription",
        "tags_url": "https://api.github.com/repos/bitcoin/bitcoin/tags",
        "teams_url": "https://api.github.com/repos/bitcoin/bitcoin/teams",
        "trees_url": "https://api.github.com/repos/bitcoin/bitcoin/git/trees%7B/sha%7D",
        "clone_url": "https://github.com/bitcoin/bitcoin.git",
        "hooks_url": "https://api.github.com/repos/bitcoin/bitcoin/hooks",
        "svn_url": "https://github.com/bitcoin/bitcoin",
        "homepage": "https://bitcoincore.org/en/download",
        "language": "C++",
        "forks_count": 35853,
        "stargazers_count": 71853,
        "watchers_count": 71853,
        "size": 242132,
        "default_branch": "master",
        "open_issues_count": 633,
        "is_template": false,
        "topics": [
          "bitcoin",
          "c-plus-plus",
          "cryptocurrency",
          "cryptography",
          "p2p"
        ],
        "has_issues": true,
        "has_projects": true,
        "has_wiki": false,
        "has_pages": false,
        "has_downloads": false,
        "archived": false,
        "disabled": false,
        "visibility": "public",
        "pushed_at": "2023-10-21T12:18:37Z",
        "created_at": "2010-12-19T15:16:43Z",
        "updated_at": "2023-10-21T09:47:57Z",
        "license": {
          "key": "mit",
          "name": "MIT License",
          "node_id": "MDc6TGljZW5zZTEz",
          "spdx_id": "MIT",
          "url": "https://api.github.com/licenses/mit",
          "html_url": null,
          "description": null,
          "implementation": null,
          "permissions": null,
          "conditions": null,
          "limitations": null,
          "body": null,
          "featured": null
        }
      }
    },
    "_links": {
      "self": {
        "href": "https://api.github.com/repos/bitcoin/bitcoin/pulls/24435"
      }
    },
    "author_association": "NONE",
    "draft": false,
    "additions": 40,
    "deletions": 14,
    "changed_files": 11,
    "commits": 4,
    "review_comments": 0,
    "comments": 9
  },
  "events": [
    {
      "event": "committed",
      "id": null,
      "node_id": "C_kwDOABII59oAKDU4ZWJlZDk4MTQwY2YxY2ZlZjE2NWUwN2VkYTMyZWZlMjk3OTc3ZjU",
      "url": "https://api.github.com/repos/bitcoin/bitcoin/git/commits/58ebed98140cf1cfef165e07eda32efe297977f5",
      "actor": null,
      "commit_id": null,
      "commit_url": null,
      "created_at": null,
      "html_url": "https://github.com/bitcoin/bitcoin/commit/58ebed98140cf1cfef165e07eda32efe297977f5",
      "tree": {
        "sha": "fefbf40e7d7db3b588bf959bee20ce7da711ffb0",
        "url": "https://api.github.com/repos/bitcoin/bitcoin/git/trees/fefbf40e7d7db3b588bf959bee20ce7da711ffb0"
      },
      "verification": {
        "verified": false,
        "reason": "unsigned",
        "payload": null,
        "signature": null
      },
      "parents": [
        {
          "url": "https://api.github.com/repos/bitcoin/bitcoin/git/commits/8d6f9210d90b350a9248f853ed8c559ef5e12505",
          "sha": "8d6f9210d90b350a9248f853ed8c559ef5e12505",
          "html_url": "https://github.com/bitcoin/bitcoin/commit/8d6f9210d90b350a9248f853ed8c559ef5e12505"
        }
      ],
      "message": "Separated commonly excluded subtrees for reuseability, PoC\n\nrefs #17413 Rather than having the commonly excluded subtrees be copied in each of these tests, they can be pulled into a shared list so that any future changes to these exclusions does not require as many file changes. This first commit is a proof of concept demonstrating how this can be applied.",
      "committer": {
        "name": "Max Austin",
        "email": "maustin@orangecountyscu.org",
        "date": "2022-02-23T23:16:33Z"
      },
      "author": {
        "name": "Max Austin",
        "email": "maustin@orangecountyscu.org",
        "date": "2022-02-23T23:16:33Z"
      },
      "sha": "58ebed98140cf1cfef165e07eda32efe297977f5"
    },
    {
      "event": "labeled",
      "id": 6129188031,
      "node_id": "LE_lADOABII585EeHzbzwAAAAFtU_y_",
      "url": "https://api.github.com/repos/bitcoin/bitcoin/issues/events/6129188031",
      "actor": {
        "login": "DrahtBot",
        "id": 39886733,
        "node_id": "MDQ6VXNlcjM5ODg2NzMz",
        "avatar_url": "https://avatars.githubusercontent.com/u/39886733?v=4",
        "gravatar_id": "",
        "url": "https://api.github.com/users/DrahtBot",
        "html_url": "https://github.com/DrahtBot",
        "followers_url": "https://api.github.com/users/DrahtBot/followers",
        "following_url": "https://api.github.com/users/DrahtBot/following%7B/other_user%7D",
        "gists_url": "https://api.github.com/users/DrahtBot/gists%7B/gist_id%7D",
        "starred_url": "https://api.github.com/users/DrahtBot/starred%7B/owner%7D%7B/repo%7D",
        "subscriptions_url": "https://api.github.com/users/DrahtBot/subscriptions",
        "organizations_url": "https://api.github.com/users/DrahtBot/orgs",
        "repos_url": "https://api.github.com/users/DrahtBot/repos",
        "events_url": "https://api.github.com/users/DrahtBot/events%7B/privacy%7D",
        "received_events_url": "https://api.github.com/users/DrahtBot/received_events",
        "type": "User",
        "site_admin": false
      },
      "commit_id": null,
      "commit_url": null,
      "created_at": "2022-02-24T02:14:01Z",
      "label": {
        "name": "Tests",
        "color": "d4c5f9"
      }
    },
    {
      "event": "commented",
      "id": 1049768207,
      "node_id": "IC_kwDOABII584-kjEP",
      "url": "https://api.github.com/repos/bitcoin/bitcoin/issues/comments/1049768207",
      "actor": {
        "login": "laanwj",
        "id": 126646,
        "node_id": "MDQ6VXNlcjEyNjY0Ng==",
        "avatar_url": "https://avatars.githubusercontent.com/u/126646?v=4",
        "gravatar_id": "",
        "url": "https://api.github.com/users/laanwj",
        "html_url": "https://github.com/laanwj",
        "followers_url": "https://api.github.com/users/laanwj/followers",
        "following_url": "https://api.github.com/users/laanwj/following%7B/other_user%7D",
        "gists_url": "https://api.github.com/users/laanwj/gists%7B/gist_id%7D",
        "starred_url": "https://api.github.com/users/laanwj/starred%7B/owner%7D%7B/repo%7D",
        "subscriptions_url": "https://api.github.com/users/laanwj/subscriptions",
        "organizations_url": "https://api.github.com/users/laanwj/orgs",
        "repos_url": "https://api.github.com/users/laanwj/repos",
        "events_url": "https://api.github.com/users/laanwj/events%7B/privacy%7D",
        "received_events_url": "https://api.github.com/users/laanwj/received_events",
        "type": "User",
        "site_admin": false
      },
      "commit_id": null,
      "commit_url": null,
      "created_at": "2022-02-24T11:33:57Z",
      "updated_at": "2022-02-24T11:33:57Z",
      "author_association": "MEMBER",
      "body": "Concept ACK, thanks for working on this.",
      "user": {
        "login": "laanwj",
        "id": 126646,
        "node_id": "MDQ6VXNlcjEyNjY0Ng==",
        "avatar_url": "https://avatars.githubusercontent.com/u/126646?v=4",
        "gravatar_id": "",
        "url": "https://api.github.com/users/laanwj",
        "html_url": "https://github.com/laanwj",
        "followers_url": "https://api.github.com/users/laanwj/followers",
        "following_url": "https://api.github.com/users/laanwj/following%7B/other_user%7D",
        "gists_url": "https://api.github.com/users/laanwj/gists%7B/gist_id%7D",
        "starred_url": "https://api.github.com/users/laanwj/starred%7B/owner%7D%7B/repo%7D",
        "subscriptions_url": "https://api.github.com/users/laanwj/subscriptions",
        "organizations_url": "https://api.github.com/users/laanwj/orgs",
        "repos_url": "https://api.github.com/users/laanwj/repos",
        "events_url": "https://api.github.com/users/laanwj/events%7B/privacy%7D",
        "received_events_url": "https://api.github.com/users/laanwj/received_events",
        "type": "User",
        "site_admin": false
      },
      "html_url": "https://github.com/bitcoin/bitcoin/pull/24435#issuecomment-1049768207",
      "issue_url": "https://api.github.com/repos/bitcoin/bitcoin/issues/24435"
    },
    {
      "event": "commented",
      "id": 1049785639,
      "node_id": "IC_kwDOABII584-knUn",
      "url": "https://api.github.com/repos/bitcoin/bitcoin/issues/comments/1049785639",
      "actor": {
        "login": "shaavan",
        "id": 85434418,
        "node_id": "MDQ6VXNlcjg1NDM0NDE4",
        "avatar_url": "https://avatars.githubusercontent.com/u/85434418?v=4",
        "gravatar_id": "",
        "url": "https://api.github.com/users/shaavan",
        "html_url": "https://github.com/shaavan",
        "followers_url": "https://api.github.com/users/shaavan/followers",
        "following_url": "https://api.github.com/users/shaavan/following%7B/other_user%7D",
        "gists_url": "https://api.github.com/users/shaavan/gists%7B/gist_id%7D",
        "starred_url": "https://api.github.com/users/shaavan/starred%7B/owner%7D%7B/repo%7D",
        "subscriptions_url": "https://api.github.com/users/shaavan/subscriptions",
        "organizations_url": "https://api.github.com/users/shaavan/orgs",
        "repos_url": "https://api.github.com/users/shaavan/repos",
        "events_url": "https://api.github.com/users/shaavan/events%7B/privacy%7D",
        "received_events_url": "https://api.github.com/users/shaavan/received_events",
        "type": "User",
        "site_admin": false
      },
      "commit_id": null,
      "commit_url": null,
      "created_at": "2022-02-24T11:57:15Z",
      "updated_at": "2022-02-24T11:57:15Z",
      "author_association": "CONTRIBUTOR",
      "body": "Concept ACK\r\n\r\nI see there are quite a few places where these subtrees are individually excluded. Putting them into a singular list will make the excluded files easier to manage and the code cleaner.",
      "user": {
        "login": "shaavan",
        "id": 85434418,
        "node_id": "MDQ6VXNlcjg1NDM0NDE4",
        "avatar_url": "https://avatars.githubusercontent.com/u/85434418?v=4",
        "gravatar_id": "",
        "url": "https://api.github.com/users/shaavan",
        "html_url": "https://github.com/shaavan",
        "followers_url": "https://api.github.com/users/shaavan/followers",
        "following_url": "https://api.github.com/users/shaavan/following%7B/other_user%7D",
        "gists_url": "https://api.github.com/users/shaavan/gists%7B/gist_id%7D",
        "starred_url": "https://api.github.com/users/shaavan/starred%7B/owner%7D%7B/repo%7D",
        "subscriptions_url": "https://api.github.com/users/shaavan/subscriptions",
        "organizations_url": "https://api.github.com/users/shaavan/orgs",
        "repos_url": "https://api.github.com/users/shaavan/repos",
        "events_url": "https://api.github.com/users/shaavan/events%7B/privacy%7D",
        "received_events_url": "https://api.github.com/users/shaavan/received_events",
        "type": "User",
        "site_admin": false
      },
      "html_url": "https://github.com/bitcoin/bitcoin/pull/24435#issuecomment-1049785639",
      "issue_url": "https://api.github.com/repos/bitcoin/bitcoin/issues/24435"
    },
    {
      "event": "commented",
      "id": 1077740861,
      "node_id": "IC_kwDOABII585APQU9",
      "url": "https://api.github.com/repos/bitcoin/bitcoin/issues/comments/1077740861",
      "actor": {
        "login": "injust90",
        "id": 6042608,
        "node_id": "MDQ6VXNlcjYwNDI2MDg=",
        "avatar_url": "https://avatars.githubusercontent.com/u/6042608?v=4",
        "gravatar_id": "",
        "url": "https://api.github.com/users/injust90",
        "html_url": "https://github.com/injust90",
        "followers_url": "https://api.github.com/users/injust90/followers",
        "following_url": "https://api.github.com/users/injust90/following%7B/other_user%7D",
        "gists_url": "https://api.github.com/users/injust90/gists%7B/gist_id%7D",
        "starred_url": "https://api.github.com/users/injust90/starred%7B/owner%7D%7B/repo%7D",
        "subscriptions_url": "https://api.github.com/users/injust90/subscriptions",
        "organizations_url": "https://api.github.com/users/injust90/orgs",
        "repos_url": "https://api.github.com/users/injust90/repos",
        "events_url": "https://api.github.com/users/injust90/events%7B/privacy%7D",
        "received_events_url": "https://api.github.com/users/injust90/received_events",
        "type": "User",
        "site_admin": false
      },
      "commit_id": null,
      "commit_url": null,
      "created_at": "2022-03-24T15:14:38Z",
      "updated_at": "2022-03-24T15:14:38Z",
      "author_association": "NONE",
      "body": "**Concept ACK**",
      "user": {
        "login": "injust90",
        "id": 6042608,
        "node_id": "MDQ6VXNlcjYwNDI2MDg=",
        "avatar_url": "https://avatars.githubusercontent.com/u/6042608?v=4",
        "gravatar_id": "",
        "url": "https://api.github.com/users/injust90",
        "html_url": "https://github.com/injust90",
        "followers_url": "https://api.github.com/users/injust90/followers",
        "following_url": "https://api.github.com/users/injust90/following%7B/other_user%7D",
        "gists_url": "https://api.github.com/users/injust90/gists%7B/gist_id%7D",
        "starred_url": "https://api.github.com/users/injust90/starred%7B/owner%7D%7B/repo%7D",
        "subscriptions_url": "https://api.github.com/users/injust90/subscriptions",
        "organizations_url": "https://api.github.com/users/injust90/orgs",
        "repos_url": "https://api.github.com/users/injust90/repos",
        "events_url": "https://api.github.com/users/injust90/events%7B/privacy%7D",
        "received_events_url": "https://api.github.com/users/injust90/received_events",
        "type": "User",
        "site_admin": false
      },
      "html_url": "https://github.com/bitcoin/bitcoin/pull/24435#issuecomment-1077740861",
      "issue_url": "https://api.github.com/repos/bitcoin/bitcoin/issues/24435"
    },
    {
      "event": "committed",
      "id": null,
      "node_id": "C_kwDOABII59oAKGE0N2I4MTcwOGYwZTk5YjJlNTg3MDY0YjQ4MjAwMWU3Zjc1YmJjMjk",
      "url": "https://api.github.com/repos/bitcoin/bitcoin/git/commits/a47b81708f0e99b2e587064b482001e7f75bbc29",
      "actor": null,
      "commit_id": null,
      "commit_url": null,
      "created_at": null,
      "html_url": "https://github.com/bitcoin/bitcoin/commit/a47b81708f0e99b2e587064b482001e7f75bbc29",
      "tree": {
        "sha": "2312ed1b3cff357cc6dd380f3b96c96144536983",
        "url": "https://api.github.com/repos/bitcoin/bitcoin/git/trees/2312ed1b3cff357cc6dd380f3b96c96144536983"
      },
      "verification": {
        "verified": false,
        "reason": "unsigned",
        "payload": null,
        "signature": null
      },
      "parents": [
        {
          "url": "https://api.github.com/repos/bitcoin/bitcoin/git/commits/58ebed98140cf1cfef165e07eda32efe297977f5",
          "sha": "58ebed98140cf1cfef165e07eda32efe297977f5",
          "html_url": "https://github.com/bitcoin/bitcoin/commit/58ebed98140cf1cfef165e07eda32efe297977f5"
        }
      ],
      "message": "Consolidated excluded subtrees in lint tests for reusability, working changes\n\nrefs #17413 This commit changes the remaining lint tests to use the consolidated list of excluded subtrees. I updated the changes I made to the original tests to more closely match the regular expressions I was using in the rest of the lint scripts as well.",
      "committer": {
        "name": "Max Austin",
        "email": "maustin@orangecountyscu.org",
        "date": "2022-03-24T20:42:56Z"
      },
      "author": {
        "name": "Max Austin",
        "email": "maustin@orangecountyscu.org",
        "date": "2022-03-24T20:42:56Z"
      },
      "sha": "a47b81708f0e99b2e587064b482001e7f75bbc29"
    },
    {
      "event": "renamed",
      "id": 6302507394,
      "node_id": "RTE_lADOABII585EeHzbzwAAAAF3qKGC",
      "url": "https://api.github.com/repos/bitcoin/bitcoin/issues/events/6302507394",
      "actor": {
        "login": "maxraustin",
        "id": 22504085,
        "node_id": "MDQ6VXNlcjIyNTA0MDg1",
        "avatar_url": "https://avatars.githubusercontent.com/u/22504085?v=4",
        "gravatar_id": "",
        "url": "https://api.github.com/users/maxraustin",
        "html_url": "https://github.com/maxraustin",
        "followers_url": "https://api.github.com/users/maxraustin/followers",
        "following_url": "https://api.github.com/users/maxraustin/following%7B/other_user%7D",
        "gists_url": "https://api.github.com/users/maxraustin/gists%7B/gist_id%7D",
        "starred_url": "https://api.github.com/users/maxraustin/starred%7B/owner%7D%7B/repo%7D",
        "subscriptions_url": "https://api.github.com/users/maxraustin/subscriptions",
        "organizations_url": "https://api.github.com/users/maxraustin/orgs",
        "repos_url": "https://api.github.com/users/maxraustin/repos",
        "events_url": "https://api.github.com/users/maxraustin/events%7B/privacy%7D",
        "received_events_url": "https://api.github.com/users/maxraustin/received_events",
        "type": "User",
        "site_admin": false
      },
      "commit_id": null,
      "commit_url": null,
      "created_at": "2022-03-24T20:43:34Z",
      "rename": {
        "from": "[WIP] test: Refactor subtree exclusion in lint tests",
        "to": "test: Refactor subtree exclusion in lint tests"
      }
    },
    {
      "event": "commented",
      "id": 1078246319,
      "node_id": "IC_kwDOABII585ARLuv",
      "url": "https://api.github.com/repos/bitcoin/bitcoin/issues/comments/1078246319",
      "actor": {
        "login": "maxraustin",
        "id": 22504085,
        "node_id": "MDQ6VXNlcjIyNTA0MDg1",
        "avatar_url": "https://avatars.githubusercontent.com/u/22504085?v=4",
        "gravatar_id": "",
        "url": "https://api.github.com/users/maxraustin",
        "html_url": "https://github.com/maxraustin",
        "followers_url": "https://api.github.com/users/maxraustin/followers",
        "following_url": "https://api.github.com/users/maxraustin/following%7B/other_user%7D",
        "gists_url": "https://api.github.com/users/maxraustin/gists%7B/gist_id%7D",
        "starred_url": "https://api.github.com/users/maxraustin/starred%7B/owner%7D%7B/repo%7D",
        "subscriptions_url": "https://api.github.com/users/maxraustin/subscriptions",
        "organizations_url": "https://api.github.com/users/maxraustin/orgs",
        "repos_url": "https://api.github.com/users/maxraustin/repos",
        "events_url": "https://api.github.com/users/maxraustin/events%7B/privacy%7D",
        "received_events_url": "https://api.github.com/users/maxraustin/received_events",
        "type": "User",
        "site_admin": false
      },
      "commit_id": null,
      "commit_url": null,
      "created_at": "2022-03-24T20:43:57Z",
      "updated_at": "2022-03-24T20:58:40Z",
      "author_association": "NONE",
      "body": "The remaining lint tests have been updated, this should be ready for more review now.\r\n\r\nEdit: There seems to still be an issue with the whitespace test, looking into that one still.",
      "user": {
        "login": "maxraustin",
        "id": 22504085,
        "node_id": "MDQ6VXNlcjIyNTA0MDg1",
        "avatar_url": "https://avatars.githubusercontent.com/u/22504085?v=4",
        "gravatar_id": "",
        "url": "https://api.github.com/users/maxraustin",
        "html_url": "https://github.com/maxraustin",
        "followers_url": "https://api.github.com/users/maxraustin/followers",
        "following_url": "https://api.github.com/users/maxraustin/following%7B/other_user%7D",
        "gists_url": "https://api.github.com/users/maxraustin/gists%7B/gist_id%7D",
        "starred_url": "https://api.github.com/users/maxraustin/starred%7B/owner%7D%7B/repo%7D",
        "subscriptions_url": "https://api.github.com/users/maxraustin/subscriptions",
        "organizations_url": "https://api.github.com/users/maxraustin/orgs",
        "repos_url": "https://api.github.com/users/maxraustin/repos",
        "events_url": "https://api.github.com/users/maxraustin/events%7B/privacy%7D",
        "received_events_url": "https://api.github.com/users/maxraustin/received_events",
        "type": "User",
        "site_admin": false
      },
      "html_url": "https://github.com/bitcoin/bitcoin/pull/24435#issuecomment-1078246319",
      "issue_url": "https://api.github.com/repos/bitcoin/bitcoin/issues/24435"
    },
    {
      "event": "committed",
      "id": null,
      "node_id": "C_kwDOABII59oAKGY2NWY0YzZlMTg2ZmJjYTY3NjllYjQxMzZkOTgyYjljNzZjMDE0MmM",
      "url": "https://api.github.com/repos/bitcoin/bitcoin/git/commits/f65f4c6e186fbca6769eb4136d982b9c76c0142c",
      "actor": null,
      "commit_id": null,
      "commit_url": null,
      "created_at": null,
      "html_url": "https://github.com/bitcoin/bitcoin/commit/f65f4c6e186fbca6769eb4136d982b9c76c0142c",
      "tree": {
        "sha": "add403ec38d580215163b2f1d0b0849e97d52011",
        "url": "https://api.github.com/repos/bitcoin/bitcoin/git/trees/add403ec38d580215163b2f1d0b0849e97d52011"
      },
      "verification": {
        "verified": false,
        "reason": "unsigned",
        "payload": null,
        "signature": null
      },
      "parents": [
        {
          "url": "https://api.github.com/repos/bitcoin/bitcoin/git/commits/a47b81708f0e99b2e587064b482001e7f75bbc29",
          "sha": "a47b81708f0e99b2e587064b482001e7f75bbc29",
          "html_url": "https://github.com/bitcoin/bitcoin/commit/a47b81708f0e99b2e587064b482001e7f75bbc29"
        }
      ],
      "message": "Removed trailing space at the end of the utf8 encoding lint test",
      "committer": {
        "name": "Max Austin",
        "email": "maustin@orangecountyscu.org",
        "date": "2022-03-24T21:08:35Z"
      },
      "author": {
        "name": "Max Austin",
        "email": "maustin@orangecountyscu.org",
        "date": "2022-03-24T21:08:35Z"
      },
      "sha": "f65f4c6e186fbca6769eb4136d982b9c76c0142c"
    },
    {
      "event": "committed",
      "id": null,
      "node_id": "C_kwDOABII59oAKDBlYWNiYzNjNmVjMjdkZjJjMzYyYWRmNTdiZWM3YjgwNzVmN2QyYWQ",
      "url": "https://api.github.com/repos/bitcoin/bitcoin/git/commits/0eacbc3c6ec27df2c362adf57bec7b8075f7d2ad",
      "actor": null,
      "commit_id": null,
      "commit_url": null,
      "created_at": null,
      "html_url": "https://github.com/bitcoin/bitcoin/commit/0eacbc3c6ec27df2c362adf57bec7b8075f7d2ad",
      "tree": {
        "sha": "1c2d234be42f97255586e82b1545e380a71660f9",
        "url": "https://api.github.com/repos/bitcoin/bitcoin/git/trees/1c2d234be42f97255586e82b1545e380a71660f9"
      },
      "verification": {
        "verified": false,
        "reason": "unsigned",
        "payload": null,
        "signature": null
      },
      "parents": [
        {
          "url": "https://api.github.com/repos/bitcoin/bitcoin/git/commits/f65f4c6e186fbca6769eb4136d982b9c76c0142c",
          "sha": "f65f4c6e186fbca6769eb4136d982b9c76c0142c",
          "html_url": "https://github.com/bitcoin/bitcoin/commit/f65f4c6e186fbca6769eb4136d982b9c76c0142c"
        }
      ],
      "message": "Removed another whitespace issue in the utf8 encoding lint script",
      "committer": {
        "name": "Max Austin",
        "email": "maustin@orangecountyscu.org",
        "date": "2022-03-24T21:31:23Z"
      },
      "author": {
        "name": "Max Austin",
        "email": "maustin@orangecountyscu.org",
        "date": "2022-03-24T21:31:23Z"
      },
      "sha": "0eacbc3c6ec27df2c362adf57bec7b8075f7d2ad"
    },
    {
      "event": "cross-referenced",
      "id": null,
      "node_id": null,
      "url": null,
      "actor": {
        "login": "DrahtBot",
        "id": 39886733,
        "node_id": "MDQ6VXNlcjM5ODg2NzMz",
        "avatar_url": "https://avatars.githubusercontent.com/u/39886733?v=4",
        "gravatar_id": "",
        "url": "https://api.github.com/users/DrahtBot",
        "html_url": "https://github.com/DrahtBot",
        "followers_url": "https://api.github.com/users/DrahtBot/followers",
        "following_url": "https://api.github.com/users/DrahtBot/following%7B/other_user%7D",
        "gists_url": "https://api.github.com/users/DrahtBot/gists%7B/gist_id%7D",
        "starred_url": "https://api.github.com/users/DrahtBot/starred%7B/owner%7D%7B/repo%7D",
        "subscriptions_url": "https://api.github.com/users/DrahtBot/subscriptions",
        "organizations_url": "https://api.github.com/users/DrahtBot/orgs",
        "repos_url": "https://api.github.com/users/DrahtBot/repos",
        "events_url": "https://api.github.com/users/DrahtBot/events%7B/privacy%7D",
        "received_events_url": "https://api.github.com/users/DrahtBot/received_events",
        "type": "User",
        "site_admin": false
      },
      "commit_id": null,
      "commit_url": null,
      "created_at": "2022-04-04T23:32:23Z",
      "updated_at": "2022-04-04T23:32:23Z",
      "source": {
        "issue": {
          "id": 1192350386,
          "node_id": "PR_kwDOABII5841nZIo",
          "url": "https://api.github.com/repos/bitcoin/bitcoin/issues/24766",
          "repository_url": "https://api.github.com/repos/bitcoin/bitcoin",
          "labels_url": "https://api.github.com/repos/bitcoin/bitcoin/issues/24766/labels%7B/name%7D",
          "comments_url": "https://api.github.com/repos/bitcoin/bitcoin/issues/24766/comments",
          "events_url": "https://api.github.com/repos/bitcoin/bitcoin/issues/24766/events",
          "html_url": "https://github.com/bitcoin/bitcoin/pull/24766",
          "number": 24766,
          "state": "closed",
          "state_reason": null,
          "title": "lint: convert spellchecking lint test to python",
          "body": "The new python version should produce the exact same output as the bash version but be easier to maintain.",
          "user": {
            "login": "fjahr",
            "id": 1322187,
            "node_id": "MDQ6VXNlcjEzMjIxODc=",
            "avatar_url": "https://avatars.githubusercontent.com/u/1322187?v=4",
            "gravatar_id": "",
            "url": "https://api.github.com/users/fjahr",
            "html_url": "https://github.com/fjahr",
            "followers_url": "https://api.github.com/users/fjahr/followers",
            "following_url": "https://api.github.com/users/fjahr/following%7B/other_user%7D",
            "gists_url": "https://api.github.com/users/fjahr/gists%7B/gist_id%7D",
            "starred_url": "https://api.github.com/users/fjahr/starred%7B/owner%7D%7B/repo%7D",
            "subscriptions_url": "https://api.github.com/users/fjahr/subscriptions",
            "organizations_url": "https://api.github.com/users/fjahr/orgs",
            "repos_url": "https://api.github.com/users/fjahr/repos",
            "events_url": "https://api.github.com/users/fjahr/events%7B/privacy%7D",
            "received_events_url": "https://api.github.com/users/fjahr/received_events",
            "type": "User",
            "site_admin": false
          },
          "labels": [
            {
              "id": 62963516,
              "node_id": "MDU6TGFiZWw2Mjk2MzUxNg==",
              "url": "https://api.github.com/repos/bitcoin/bitcoin/labels/Tests",
              "name": "Tests",
              "color": "d4c5f9",
              "default": false
            }
          ],
          "assignees": [],
          "author_association": "CONTRIBUTOR",
          "locked": true,
          "comments": 6,
          "pull_request": {
            "url": "https://api.github.com/repos/bitcoin/bitcoin/pulls/24766",
            "html_url": "https://github.com/bitcoin/bitcoin/pull/24766",
            "diff_url": "https://github.com/bitcoin/bitcoin/pull/24766.diff",
            "patch_url": "https://github.com/bitcoin/bitcoin/pull/24766.patch"
          },
          "closed_at": "2022-04-06T07:15:00Z",
          "created_at": "2022-04-04T21:49:27Z",
          "updated_at": "2023-04-07T14:42:28Z"
        },
        "type": "issue"
      }
    },
    {
      "event": "cross-referenced",
      "id": null,
      "node_id": null,
      "url": null,
      "actor": {
        "login": "DrahtBot",
        "id": 39886733,
        "node_id": "MDQ6VXNlcjM5ODg2NzMz",
        "avatar_url": "https://avatars.githubusercontent.com/u/39886733?v=4",
        "gravatar_id": "",
        "url": "https://api.github.com/users/DrahtBot",
        "html_url": "https://github.com/DrahtBot",
        "followers_url": "https://api.github.com/users/DrahtBot/followers",
        "following_url": "https://api.github.com/users/DrahtBot/following%7B/other_user%7D",
        "gists_url": "https://api.github.com/users/DrahtBot/gists%7B/gist_id%7D",
        "starred_url": "https://api.github.com/users/DrahtBot/starred%7B/owner%7D%7B/repo%7D",
        "subscriptions_url": "https://api.github.com/users/DrahtBot/subscriptions",
        "organizations_url": "https://api.github.com/users/DrahtBot/orgs",
        "repos_url": "https://api.github.com/users/DrahtBot/repos",
        "events_url": "https://api.github.com/users/DrahtBot/events%7B/privacy%7D",
        "received_events_url": "https://api.github.com/users/DrahtBot/received_events",
        "type": "User",
        "site_admin": false
      },
      "commit_id": null,
      "commit_url": null,
      "created_at": "2022-04-04T23:57:04Z",
      "updated_at": "2022-04-04T23:57:04Z",
      "source": {
        "issue": {
          "id": 1191904111,
          "node_id": "PR_kwDOABII5841l5a-",
          "url": "https://api.github.com/repos/bitcoin/bitcoin/issues/24762",
          "repository_url": "https://api.github.com/repos/bitcoin/bitcoin",
          "labels_url": "https://api.github.com/repos/bitcoin/bitcoin/issues/24762/labels%7B/name%7D",
          "comments_url": "https://api.github.com/repos/bitcoin/bitcoin/issues/24762/comments",
          "events_url": "https://api.github.com/repos/bitcoin/bitcoin/issues/24762/events",
          "html_url": "https://github.com/bitcoin/bitcoin/pull/24762",
          "number": 24762,
          "state": "closed",
          "state_reason": null,
          "title": " lint: Start to use py lint scripts ",
          "body": null,
          "user": {
            "login": "maflcko",
            "id": 6399679,
            "node_id": "MDQ6VXNlcjYzOTk2Nzk=",
            "avatar_url": "https://avatars.githubusercontent.com/u/6399679?v=4",
            "gravatar_id": "",
            "url": "https://api.github.com/users/maflcko",
            "html_url": "https://github.com/maflcko",
            "followers_url": "https://api.github.com/users/maflcko/followers",
            "following_url": "https://api.github.com/users/maflcko/following%7B/other_user%7D",
            "gists_url": "https://api.github.com/users/maflcko/gists%7B/gist_id%7D",
            "starred_url": "https://api.github.com/users/maflcko/starred%7B/owner%7D%7B/repo%7D",
            "subscriptions_url": "https://api.github.com/users/maflcko/subscriptions",
            "organizations_url": "https://api.github.com/users/maflcko/orgs",
            "repos_url": "https://api.github.com/users/maflcko/repos",
            "events_url": "https://api.github.com/users/maflcko/events%7B/privacy%7D",
            "received_events_url": "https://api.github.com/users/maflcko/received_events",
            "type": "User",
            "site_admin": false
          },
          "labels": [
            {
              "id": 62963516,
              "node_id": "MDU6TGFiZWw2Mjk2MzUxNg==",
              "url": "https://api.github.com/repos/bitcoin/bitcoin/labels/Tests",
              "name": "Tests",
              "color": "d4c5f9",
              "default": false
            }
          ],
          "assignees": [],
          "author_association": "MEMBER",
          "locked": true,
          "comments": 4,
          "pull_request": {
            "url": "https://api.github.com/repos/bitcoin/bitcoin/pulls/24762",
            "html_url": "https://github.com/bitcoin/bitcoin/pull/24762",
            "diff_url": "https://github.com/bitcoin/bitcoin/pull/24762.diff",
            "patch_url": "https://github.com/bitcoin/bitcoin/pull/24762.patch"
          },
          "closed_at": "2022-04-05T06:44:06Z",
          "created_at": "2022-04-04T14:45:50Z",
          "updated_at": "2023-04-05T14:41:49Z"
        },
        "type": "issue"
      }
    },
    {
      "event": "commented",
      "id": 1088431675,
      "node_id": "IC_kwDOABII585A4CY7",
      "url": "https://api.github.com/repos/bitcoin/bitcoin/issues/comments/1088431675",
      "actor": {
        "login": "DrahtBot",
        "id": 39886733,
        "node_id": "MDQ6VXNlcjM5ODg2NzMz",
        "avatar_url": "https://avatars.githubusercontent.com/u/39886733?v=4",
        "gravatar_id": "",
        "url": "https://api.github.com/users/DrahtBot",
        "html_url": "https://github.com/DrahtBot",
        "followers_url": "https://api.github.com/users/DrahtBot/followers",
        "following_url": "https://api.github.com/users/DrahtBot/following%7B/other_user%7D",
        "gists_url": "https://api.github.com/users/DrahtBot/gists%7B/gist_id%7D",
        "starred_url": "https://api.github.com/users/DrahtBot/starred%7B/owner%7D%7B/repo%7D",
        "subscriptions_url": "https://api.github.com/users/DrahtBot/subscriptions",
        "organizations_url": "https://api.github.com/users/DrahtBot/orgs",
        "repos_url": "https://api.github.com/users/DrahtBot/repos",
        "events_url": "https://api.github.com/users/DrahtBot/events%7B/privacy%7D",
        "received_events_url": "https://api.github.com/users/DrahtBot/received_events",
        "type": "User",
        "site_admin": false
      },
      "commit_id": null,
      "commit_url": null,
      "created_at": "2022-04-05T08:42:37Z",
      "updated_at": "2022-04-05T08:42:37Z",
      "author_association": "CONTRIBUTOR",
      "body": "<!--cf906140f33d8803c4a75a2196329ecb-->\n🐙 This pull request conflicts with the target branch and [needs rebase](https://github.com/bitcoin/bitcoin/blob/master/CONTRIBUTING.md#rebasing-changes).\n\n<sub>Want to unsubscribe from rebase notifications on this pull request? Just convert this pull request to a \"draft\".</sub>",
      "user": {
        "login": "DrahtBot",
        "id": 39886733,
        "node_id": "MDQ6VXNlcjM5ODg2NzMz",
        "avatar_url": "https://avatars.githubusercontent.com/u/39886733?v=4",
        "gravatar_id": "",
        "url": "https://api.github.com/users/DrahtBot",
        "html_url": "https://github.com/DrahtBot",
        "followers_url": "https://api.github.com/users/DrahtBot/followers",
        "following_url": "https://api.github.com/users/DrahtBot/following%7B/other_user%7D",
        "gists_url": "https://api.github.com/users/DrahtBot/gists%7B/gist_id%7D",
        "starred_url": "https://api.github.com/users/DrahtBot/starred%7B/owner%7D%7B/repo%7D",
        "subscriptions_url": "https://api.github.com/users/DrahtBot/subscriptions",
        "organizations_url": "https://api.github.com/users/DrahtBot/orgs",
        "repos_url": "https://api.github.com/users/DrahtBot/repos",
        "events_url": "https://api.github.com/users/DrahtBot/events%7B/privacy%7D",
        "received_events_url": "https://api.github.com/users/DrahtBot/received_events",
        "type": "User",
        "site_admin": false
      },
      "html_url": "https://github.com/bitcoin/bitcoin/pull/24435#issuecomment-1088431675",
      "issue_url": "https://api.github.com/repos/bitcoin/bitcoin/issues/24435"
    },
    {
      "event": "labeled",
      "id": 6369237685,
      "node_id": "LE_lADOABII585EeHzbzwAAAAF7otq1",
      "url": "https://api.github.com/repos/bitcoin/bitcoin/issues/events/6369237685",
      "actor": {
        "login": "DrahtBot",
        "id": 39886733,
        "node_id": "MDQ6VXNlcjM5ODg2NzMz",
        "avatar_url": "https://avatars.githubusercontent.com/u/39886733?v=4",
        "gravatar_id": "",
        "url": "https://api.github.com/users/DrahtBot",
        "html_url": "https://github.com/DrahtBot",
        "followers_url": "https://api.github.com/users/DrahtBot/followers",
        "following_url": "https://api.github.com/users/DrahtBot/following%7B/other_user%7D",
        "gists_url": "https://api.github.com/users/DrahtBot/gists%7B/gist_id%7D",
        "starred_url": "https://api.github.com/users/DrahtBot/starred%7B/owner%7D%7B/repo%7D",
        "subscriptions_url": "https://api.github.com/users/DrahtBot/subscriptions",
        "organizations_url": "https://api.github.com/users/DrahtBot/orgs",
        "repos_url": "https://api.github.com/users/DrahtBot/repos",
        "events_url": "https://api.github.com/users/DrahtBot/events%7B/privacy%7D",
        "received_events_url": "https://api.github.com/users/DrahtBot/received_events",
        "type": "User",
        "site_admin": false
      },
      "commit_id": null,
      "commit_url": null,
      "created_at": "2022-04-05T08:42:37Z",
      "label": {
        "name": "Needs rebase",
        "color": "cccccc"
      }
    },
    {
      "event": "commented",
      "id": 1088476335,
      "node_id": "IC_kwDOABII585A4NSv",
      "url": "https://api.github.com/repos/bitcoin/bitcoin/issues/comments/1088476335",
      "actor": {
        "login": "DrahtBot",
        "id": 39886733,
        "node_id": "MDQ6VXNlcjM5ODg2NzMz",
        "avatar_url": "https://avatars.githubusercontent.com/u/39886733?v=4",
        "gravatar_id": "",
        "url": "https://api.github.com/users/DrahtBot",
        "html_url": "https://github.com/DrahtBot",
        "followers_url": "https://api.github.com/users/DrahtBot/followers",
        "following_url": "https://api.github.com/users/DrahtBot/following%7B/other_user%7D",
        "gists_url": "https://api.github.com/users/DrahtBot/gists%7B/gist_id%7D",
        "starred_url": "https://api.github.com/users/DrahtBot/starred%7B/owner%7D%7B/repo%7D",
        "subscriptions_url": "https://api.github.com/users/DrahtBot/subscriptions",
        "organizations_url": "https://api.github.com/users/DrahtBot/orgs",
        "repos_url": "https://api.github.com/users/DrahtBot/repos",
        "events_url": "https://api.github.com/users/DrahtBot/events%7B/privacy%7D",
        "received_events_url": "https://api.github.com/users/DrahtBot/received_events",
        "type": "User",
        "site_admin": false
      },
      "commit_id": null,
      "commit_url": null,
      "created_at": "2022-04-05T09:27:16Z",
      "updated_at": "2022-04-05T09:27:16Z",
      "author_association": "CONTRIBUTOR",
      "body": "<!--e57a25ab6845829454e8d69fc972939a-->\n\nThe following sections might be updated with supplementary metadata relevant to reviewers and maintainers.\n\n<!--174a7506f384e20aa4161008e828411d-->\n### Conflicts\nReviewers, this pull request conflicts with the following ones:\n\n* [#24766](https://github.com/bitcoin/bitcoin/pull/24766) (lint: convert spellchecking lint test to python by fjahr)\n* [#24762](https://github.com/bitcoin/bitcoin/pull/24762) (lint: Start to use py lint scripts by MarcoFalke)\n\nIf you consider this pull request important, please also help to review the conflicting pull requests. Ideally, start with the one that should be merged first.",
      "user": {
        "login": "DrahtBot",
        "id": 39886733,
        "node_id": "MDQ6VXNlcjM5ODg2NzMz",
        "avatar_url": "https://avatars.githubusercontent.com/u/39886733?v=4",
        "gravatar_id": "",
        "url": "https://api.github.com/users/DrahtBot",
        "html_url": "https://github.com/DrahtBot",
        "followers_url": "https://api.github.com/users/DrahtBot/followers",
        "following_url": "https://api.github.com/users/DrahtBot/following%7B/other_user%7D",
        "gists_url": "https://api.github.com/users/DrahtBot/gists%7B/gist_id%7D",
        "starred_url": "https://api.github.com/users/DrahtBot/starred%7B/owner%7D%7B/repo%7D",
        "subscriptions_url": "https://api.github.com/users/DrahtBot/subscriptions",
        "organizations_url": "https://api.github.com/users/DrahtBot/orgs",
        "repos_url": "https://api.github.com/users/DrahtBot/repos",
        "events_url": "https://api.github.com/users/DrahtBot/events%7B/privacy%7D",
        "received_events_url": "https://api.github.com/users/DrahtBot/received_events",
        "type": "User",
        "site_admin": false
      },
      "html_url": "https://github.com/bitcoin/bitcoin/pull/24435#issuecomment-1088476335",
      "issue_url": "https://api.github.com/repos/bitcoin/bitcoin/issues/24435"
    },
    {
      "event": "commented",
      "id": 1121092812,
      "node_id": "IC_kwDOABII585C0oTM",
      "url": "https://api.github.com/repos/bitcoin/bitcoin/issues/comments/1121092812",
      "actor": {
        "login": "laanwj",
        "id": 126646,
        "node_id": "MDQ6VXNlcjEyNjY0Ng==",
        "avatar_url": "https://avatars.githubusercontent.com/u/126646?v=4",
        "gravatar_id": "",
        "url": "https://api.github.com/users/laanwj",
        "html_url": "https://github.com/laanwj",
        "followers_url": "https://api.github.com/users/laanwj/followers",
        "following_url": "https://api.github.com/users/laanwj/following%7B/other_user%7D",
        "gists_url": "https://api.github.com/users/laanwj/gists%7B/gist_id%7D",
        "starred_url": "https://api.github.com/users/laanwj/starred%7B/owner%7D%7B/repo%7D",
        "subscriptions_url": "https://api.github.com/users/laanwj/subscriptions",
        "organizations_url": "https://api.github.com/users/laanwj/orgs",
        "repos_url": "https://api.github.com/users/laanwj/repos",
        "events_url": "https://api.github.com/users/laanwj/events%7B/privacy%7D",
        "received_events_url": "https://api.github.com/users/laanwj/received_events",
        "type": "User",
        "site_admin": false
      },
      "commit_id": null,
      "commit_url": null,
      "created_at": "2022-05-09T13:19:31Z",
      "updated_at": "2022-05-09T13:19:31Z",
      "author_association": "MEMBER",
      "body": "Needs update for Python ports and removal of `extended-lint-cppcheck.sh`.",
      "user": {
        "login": "laanwj",
        "id": 126646,
        "node_id": "MDQ6VXNlcjEyNjY0Ng==",
        "avatar_url": "https://avatars.githubusercontent.com/u/126646?v=4",
        "gravatar_id": "",
        "url": "https://api.github.com/users/laanwj",
        "html_url": "https://github.com/laanwj",
        "followers_url": "https://api.github.com/users/laanwj/followers",
        "following_url": "https://api.github.com/users/laanwj/following%7B/other_user%7D",
        "gists_url": "https://api.github.com/users/laanwj/gists%7B/gist_id%7D",
        "starred_url": "https://api.github.com/users/laanwj/starred%7B/owner%7D%7B/repo%7D",
        "subscriptions_url": "https://api.github.com/users/laanwj/subscriptions",
        "organizations_url": "https://api.github.com/users/laanwj/orgs",
        "repos_url": "https://api.github.com/users/laanwj/repos",
        "events_url": "https://api.github.com/users/laanwj/events%7B/privacy%7D",
        "received_events_url": "https://api.github.com/users/laanwj/received_events",
        "type": "User",
        "site_admin": false
      },
      "html_url": "https://github.com/bitcoin/bitcoin/pull/24435#issuecomment-1121092812",
      "issue_url": "https://api.github.com/repos/bitcoin/bitcoin/issues/24435"
    },
    {
      "event": "commented",
      "id": 1154876197,
      "node_id": "IC_kwDOABII585E1gMl",
      "url": "https://api.github.com/repos/bitcoin/bitcoin/issues/comments/1154876197",
      "actor": {
        "login": "fanquake",
        "id": 863730,
        "node_id": "MDQ6VXNlcjg2MzczMA==",
        "avatar_url": "https://avatars.githubusercontent.com/u/863730?v=4",
        "gravatar_id": "",
        "url": "https://api.github.com/users/fanquake",
        "html_url": "https://github.com/fanquake",
        "followers_url": "https://api.github.com/users/fanquake/followers",
        "following_url": "https://api.github.com/users/fanquake/following%7B/other_user%7D",
        "gists_url": "https://api.github.com/users/fanquake/gists%7B/gist_id%7D",
        "starred_url": "https://api.github.com/users/fanquake/starred%7B/owner%7D%7B/repo%7D",
        "subscriptions_url": "https://api.github.com/users/fanquake/subscriptions",
        "organizations_url": "https://api.github.com/users/fanquake/orgs",
        "repos_url": "https://api.github.com/users/fanquake/repos",
        "events_url": "https://api.github.com/users/fanquake/events%7B/privacy%7D",
        "received_events_url": "https://api.github.com/users/fanquake/received_events",
        "type": "User",
        "site_admin": false
      },
      "commit_id": null,
      "commit_url": null,
      "created_at": "2022-06-14T08:28:08Z",
      "updated_at": "2022-06-14T08:28:08Z",
      "author_association": "MEMBER",
      "body": "@maxraustin are you still workign on this?",
      "user": {
        "login": "fanquake",
        "id": 863730,
        "node_id": "MDQ6VXNlcjg2MzczMA==",
        "avatar_url": "https://avatars.githubusercontent.com/u/863730?v=4",
        "gravatar_id": "",
        "url": "https://api.github.com/users/fanquake",
        "html_url": "https://github.com/fanquake",
        "followers_url": "https://api.github.com/users/fanquake/followers",
        "following_url": "https://api.github.com/users/fanquake/following%7B/other_user%7D",
        "gists_url": "https://api.github.com/users/fanquake/gists%7B/gist_id%7D",
        "starred_url": "https://api.github.com/users/fanquake/starred%7B/owner%7D%7B/repo%7D",
        "subscriptions_url": "https://api.github.com/users/fanquake/subscriptions",
        "organizations_url": "https://api.github.com/users/fanquake/orgs",
        "repos_url": "https://api.github.com/users/fanquake/repos",
        "events_url": "https://api.github.com/users/fanquake/events%7B/privacy%7D",
        "received_events_url": "https://api.github.com/users/fanquake/received_events",
        "type": "User",
        "site_admin": false
      },
      "html_url": "https://github.com/bitcoin/bitcoin/pull/24435#issuecomment-1154876197",
      "issue_url": "https://api.github.com/repos/bitcoin/bitcoin/issues/24435"
    },
    {
      "event": "mentioned",
      "id": 6802171151,
      "node_id": "MEE_lADOABII585EeHzbzwAAAAGVcOUP",
      "url": "https://api.github.com/repos/bitcoin/bitcoin/issues/events/6802171151",
      "actor": {
        "login": "maxraustin",
        "id": 22504085,
        "node_id": "MDQ6VXNlcjIyNTA0MDg1",
        "avatar_url": "https://avatars.githubusercontent.com/u/22504085?v=4",
        "gravatar_id": "",
        "url": "https://api.github.com/users/maxraustin",
        "html_url": "https://github.com/maxraustin",
        "followers_url": "https://api.github.com/users/maxraustin/followers",
        "following_url": "https://api.github.com/users/maxraustin/following%7B/other_user%7D",
        "gists_url": "https://api.github.com/users/maxraustin/gists%7B/gist_id%7D",
        "starred_url": "https://api.github.com/users/maxraustin/starred%7B/owner%7D%7B/repo%7D",
        "subscriptions_url": "https://api.github.com/users/maxraustin/subscriptions",
        "organizations_url": "https://api.github.com/users/maxraustin/orgs",
        "repos_url": "https://api.github.com/users/maxraustin/repos",
        "events_url": "https://api.github.com/users/maxraustin/events%7B/privacy%7D",
        "received_events_url": "https://api.github.com/users/maxraustin/received_events",
        "type": "User",
        "site_admin": false
      },
      "commit_id": null,
      "commit_url": null,
      "created_at": "2022-06-14T08:28:08Z"
    },
    {
      "event": "subscribed",
      "id": 6802171159,
      "node_id": "SE_lADOABII585EeHzbzwAAAAGVcOUX",
      "url": "https://api.github.com/repos/bitcoin/bitcoin/issues/events/6802171159",
      "actor": {
        "login": "maxraustin",
        "id": 22504085,
        "node_id": "MDQ6VXNlcjIyNTA0MDg1",
        "avatar_url": "https://avatars.githubusercontent.com/u/22504085?v=4",
        "gravatar_id": "",
        "url": "https://api.github.com/users/maxraustin",
        "html_url": "https://github.com/maxraustin",
        "followers_url": "https://api.github.com/users/maxraustin/followers",
        "following_url": "https://api.github.com/users/maxraustin/following%7B/other_user%7D",
        "gists_url": "https://api.github.com/users/maxraustin/gists%7B/gist_id%7D",
        "starred_url": "https://api.github.com/users/maxraustin/starred%7B/owner%7D%7B/repo%7D",
        "subscriptions_url": "https://api.github.com/users/maxraustin/subscriptions",
        "organizations_url": "https://api.github.com/users/maxraustin/orgs",
        "repos_url": "https://api.github.com/users/maxraustin/repos",
        "events_url": "https://api.github.com/users/maxraustin/events%7B/privacy%7D",
        "received_events_url": "https://api.github.com/users/maxraustin/received_events",
        "type": "User",
        "site_admin": false
      },
      "commit_id": null,
      "commit_url": null,
      "created_at": "2022-06-14T08:28:08Z"
    },
    {
      "event": "commented",
      "id": 1276617130,
      "node_id": "IC_kwDOABII585MF6Gq",
      "url": "https://api.github.com/repos/bitcoin/bitcoin/issues/comments/1276617130",
      "actor": {
        "login": "achow101",
        "id": 3782274,
        "node_id": "MDQ6VXNlcjM3ODIyNzQ=",
        "avatar_url": "https://avatars.githubusercontent.com/u/3782274?v=4",
        "gravatar_id": "",
        "url": "https://api.github.com/users/achow101",
        "html_url": "https://github.com/achow101",
        "followers_url": "https://api.github.com/users/achow101/followers",
        "following_url": "https://api.github.com/users/achow101/following%7B/other_user%7D",
        "gists_url": "https://api.github.com/users/achow101/gists%7B/gist_id%7D",
        "starred_url": "https://api.github.com/users/achow101/starred%7B/owner%7D%7B/repo%7D",
        "subscriptions_url": "https://api.github.com/users/achow101/subscriptions",
        "organizations_url": "https://api.github.com/users/achow101/orgs",
        "repos_url": "https://api.github.com/users/achow101/repos",
        "events_url": "https://api.github.com/users/achow101/events%7B/privacy%7D",
        "received_events_url": "https://api.github.com/users/achow101/received_events",
        "type": "User",
        "site_admin": false
      },
      "commit_id": null,
      "commit_url": null,
      "created_at": "2022-10-12T19:07:16Z",
      "updated_at": "2022-10-12T19:07:16Z",
      "author_association": "MEMBER",
      "body": "Closing this as it has not had any activity in a while. If you are interested in continuing work on this, please leave a comment so that it can be reopened.",
      "user": {
        "login": "achow101",
        "id": 3782274,
        "node_id": "MDQ6VXNlcjM3ODIyNzQ=",
        "avatar_url": "https://avatars.githubusercontent.com/u/3782274?v=4",
        "gravatar_id": "",
        "url": "https://api.github.com/users/achow101",
        "html_url": "https://github.com/achow101",
        "followers_url": "https://api.github.com/users/achow101/followers",
        "following_url": "https://api.github.com/users/achow101/following%7B/other_user%7D",
        "gists_url": "https://api.github.com/users/achow101/gists%7B/gist_id%7D",
        "starred_url": "https://api.github.com/users/achow101/starred%7B/owner%7D%7B/repo%7D",
        "subscriptions_url": "https://api.github.com/users/achow101/subscriptions",
        "organizations_url": "https://api.github.com/users/achow101/orgs",
        "repos_url": "https://api.github.com/users/achow101/repos",
        "events_url": "https://api.github.com/users/achow101/events%7B/privacy%7D",
        "received_events_url": "https://api.github.com/users/achow101/received_events",
        "type": "User",
        "site_admin": false
      },
      "html_url": "https://github.com/bitcoin/bitcoin/pull/24435#issuecomment-1276617130",
      "issue_url": "https://api.github.com/repos/bitcoin/bitcoin/issues/24435"
    },
    {
      "event": "closed",
      "id": 7574581244,
      "node_id": "CE_lADOABII585EeHzbzwAAAAHDeu_8",
      "url": "https://api.github.com/repos/bitcoin/bitcoin/issues/events/7574581244",
      "actor": {
        "login": "achow101",
        "id": 3782274,
        "node_id": "MDQ6VXNlcjM3ODIyNzQ=",
        "avatar_url": "https://avatars.githubusercontent.com/u/3782274?v=4",
        "gravatar_id": "",
        "url": "https://api.github.com/users/achow101",
        "html_url": "https://github.com/achow101",
        "followers_url": "https://api.github.com/users/achow101/followers",
        "following_url": "https://api.github.com/users/achow101/following%7B/other_user%7D",
        "gists_url": "https://api.github.com/users/achow101/gists%7B/gist_id%7D",
        "starred_url": "https://api.github.com/users/achow101/starred%7B/owner%7D%7B/repo%7D",
        "subscriptions_url": "https://api.github.com/users/achow101/subscriptions",
        "organizations_url": "https://api.github.com/users/achow101/orgs",
        "repos_url": "https://api.github.com/users/achow101/repos",
        "events_url": "https://api.github.com/users/achow101/events%7B/privacy%7D",
        "received_events_url": "https://api.github.com/users/achow101/received_events",
        "type": "User",
        "site_admin": false
      },
      "commit_id": null,
      "commit_url": null,
      "created_at": "2022-10-12T19:07:16Z"
    },
    {
      "event": "labeled",
      "id": 7638621991,
      "node_id": "LE_lADOABII585EeHzbzwAAAAHHTB8n",
      "url": "https://api.github.com/repos/bitcoin/bitcoin/issues/events/7638621991",
      "actor": {
        "login": "fanquake",
        "id": 863730,
        "node_id": "MDQ6VXNlcjg2MzczMA==",
        "avatar_url": "https://avatars.githubusercontent.com/u/863730?v=4",
        "gravatar_id": "",
        "url": "https://api.github.com/users/fanquake",
        "html_url": "https://github.com/fanquake",
        "followers_url": "https://api.github.com/users/fanquake/followers",
        "following_url": "https://api.github.com/users/fanquake/following%7B/other_user%7D",
        "gists_url": "https://api.github.com/users/fanquake/gists%7B/gist_id%7D",
        "starred_url": "https://api.github.com/users/fanquake/starred%7B/owner%7D%7B/repo%7D",
        "subscriptions_url": "https://api.github.com/users/fanquake/subscriptions",
        "organizations_url": "https://api.github.com/users/fanquake/orgs",
        "repos_url": "https://api.github.com/users/fanquake/repos",
        "events_url": "https://api.github.com/users/fanquake/events%7B/privacy%7D",
        "received_events_url": "https://api.github.com/users/fanquake/received_events",
        "type": "User",
        "site_admin": false
      },
      "commit_id": null,
      "commit_url": null,
      "created_at": "2022-10-21T08:48:30Z",
      "label": {
        "name": "Up for grabs",
        "color": "99a810"
      }
    },
    {
      "event": "locked",
      "id": 10731207552,
      "node_id": "LOE_lADOABII585EeHzbzwAAAAJ_oTuA",
      "url": "https://api.github.com/repos/bitcoin/bitcoin/issues/events/10731207552",
      "actor": {
        "login": "bitcoin",
        "id": 528860,
        "node_id": "MDEyOk9yZ2FuaXphdGlvbjUyODg2MA==",
        "avatar_url": "https://avatars.githubusercontent.com/u/528860?v=4",
        "gravatar_id": "",
        "url": "https://api.github.com/users/bitcoin",
        "html_url": "https://github.com/bitcoin",
        "followers_url": "https://api.github.com/users/bitcoin/followers",
        "following_url": "https://api.github.com/users/bitcoin/following%7B/other_user%7D",
        "gists_url": "https://api.github.com/users/bitcoin/gists%7B/gist_id%7D",
        "starred_url": "https://api.github.com/users/bitcoin/starred%7B/owner%7D%7B/repo%7D",
        "subscriptions_url": "https://api.github.com/users/bitcoin/subscriptions",
        "organizations_url": "https://api.github.com/users/bitcoin/orgs",
        "repos_url": "https://api.github.com/users/bitcoin/repos",
        "events_url": "https://api.github.com/users/bitcoin/events%7B/privacy%7D",
        "received_events_url": "https://api.github.com/users/bitcoin/received_events",
        "type": "Organization",
        "site_admin": false
      },
      "commit_id": null,
      "commit_url": null,
      "created_at": "2023-10-21T12:15:27Z"
    }
  ],
  "comments": []
}