{
  "type": "pull",
  "pull": {
    "url": "https://api.github.com/repos/bitcoin/bitcoin/pulls/25037",
    "id": 924506644,
    "node_id": "PR_kwDOABII5843GtoU",
    "html_url": "https://github.com/bitcoin/bitcoin/pull/25037",
    "diff_url": "https://github.com/bitcoin/bitcoin/pull/25037.diff",
    "patch_url": "https://github.com/bitcoin/bitcoin/pull/25037.patch",
    "issue_url": "https://api.github.com/repos/bitcoin/bitcoin/issues/25037",
    "commits_url": "https://api.github.com/repos/bitcoin/bitcoin/pulls/25037/commits",
    "review_comments_url": "https://api.github.com/repos/bitcoin/bitcoin/pulls/25037/comments",
    "review_comment_url": "https://api.github.com/repos/bitcoin/bitcoin/pulls/comments%7B/number%7D",
    "comments_url": "https://api.github.com/repos/bitcoin/bitcoin/issues/25037/comments",
    "statuses_url": "https://api.github.com/repos/bitcoin/bitcoin/statuses/6f77d03c5a40e05c9ee81a79e380af8eacdf8fc7",
    "number": 25037,
    "state": "closed",
    "locked": false,
    "maintainer_can_modify": false,
    "title": "build: Create `noinst_LTLIBRARIES` conditionally",
    "user": {
      "login": "hebasto",
      "id": 32963518,
      "node_id": "MDQ6VXNlcjMyOTYzNTE4",
      "avatar_url": "https://avatars.githubusercontent.com/u/32963518?v=4",
      "gravatar_id": "",
      "url": "https://api.github.com/users/hebasto",
      "html_url": "https://github.com/hebasto",
      "followers_url": "https://api.github.com/users/hebasto/followers",
      "following_url": "https://api.github.com/users/hebasto/following%7B/other_user%7D",
      "gists_url": "https://api.github.com/users/hebasto/gists%7B/gist_id%7D",
      "starred_url": "https://api.github.com/users/hebasto/starred%7B/owner%7D%7B/repo%7D",
      "subscriptions_url": "https://api.github.com/users/hebasto/subscriptions",
      "organizations_url": "https://api.github.com/users/hebasto/orgs",
      "repos_url": "https://api.github.com/users/hebasto/repos",
      "events_url": "https://api.github.com/users/hebasto/events%7B/privacy%7D",
      "received_events_url": "https://api.github.com/users/hebasto/received_events",
      "type": "User",
      "site_admin": false
    },
    "body": "After #24322, libraries, which were promoted from `EXTRA_LIBRARIES` to `noinst_LTLIBRARIES`, are built regardless whether they are actually required as dependencies.\r\n\r\nThis PR makes build system to create such libraries conditionally.\r\n\r\nSome other improvements of `configure.ac` are incorporated in this PR.\r\n\r\nA use case example:\r\n- on master (9ba73758c908ce0c49f1bd9727ea496958e24d54)\r\n```\r\n./configure \\\r\n  --disable-tests \\\r\n  --disable-bench \\\r\n  --without-libs \\\r\n  --without-daemon \\\r\n  --without-gui \\\r\n  --disable-fuzz-binary \\\r\n  --without-utils \\\r\n  --enable-util-util\r\n...\r\nconfigure: error: No targets! Please specify at least one of: --with-utils --with-libs --with-daemon --with-gui --enable-fuzz(-binary) --enable-bench or --enable-tests\r\n```\r\n\r\n- with this PR the `configure` script finishes successfully, and the `bitcoin-util` binary can be built.",
    "labels": [
      {
        "id": 61889416,
        "node_id": "MDU6TGFiZWw2MTg4OTQxNg==",
        "url": "https://api.github.com/repos/bitcoin/bitcoin/labels/Build%20system",
        "name": "Build system",
        "color": "5319e7",
        "default": false
      }
    ],
    "created_at": "2022-04-29T22:54:39Z",
    "updated_at": "2023-01-13T15:10:08Z",
    "closed_at": "2023-01-13T15:10:07Z",
    "mergeable_state": "unknown",
    "merge_commit_sha": "b9b7bd205cc02f3179fcf1deb35fe0b3d0a753a3",
    "assignees": [],
    "requested_reviewers": [],
    "requested_teams": [],
    "head": {
      "label": "hebasto:220429-targets",
      "ref": "220429-targets",
      "sha": "6f77d03c5a40e05c9ee81a79e380af8eacdf8fc7",
      "user": {
        "login": "hebasto",
        "id": 32963518,
        "node_id": "MDQ6VXNlcjMyOTYzNTE4",
        "avatar_url": "https://avatars.githubusercontent.com/u/32963518?v=4",
        "gravatar_id": "",
        "url": "https://api.github.com/users/hebasto",
        "html_url": "https://github.com/hebasto",
        "followers_url": "https://api.github.com/users/hebasto/followers",
        "following_url": "https://api.github.com/users/hebasto/following%7B/other_user%7D",
        "gists_url": "https://api.github.com/users/hebasto/gists%7B/gist_id%7D",
        "starred_url": "https://api.github.com/users/hebasto/starred%7B/owner%7D%7B/repo%7D",
        "subscriptions_url": "https://api.github.com/users/hebasto/subscriptions",
        "organizations_url": "https://api.github.com/users/hebasto/orgs",
        "repos_url": "https://api.github.com/users/hebasto/repos",
        "events_url": "https://api.github.com/users/hebasto/events%7B/privacy%7D",
        "received_events_url": "https://api.github.com/users/hebasto/received_events",
        "type": "User",
        "site_admin": false
      },
      "repo": {
        "id": 143212778,
        "node_id": "MDEwOlJlcG9zaXRvcnkxNDMyMTI3Nzg=",
        "name": "bitcoin",
        "full_name": "hebasto/bitcoin",
        "owner": {
          "login": "hebasto",
          "id": 32963518,
          "node_id": "MDQ6VXNlcjMyOTYzNTE4",
          "avatar_url": "https://avatars.githubusercontent.com/u/32963518?v=4",
          "gravatar_id": "",
          "url": "https://api.github.com/users/hebasto",
          "html_url": "https://github.com/hebasto",
          "followers_url": "https://api.github.com/users/hebasto/followers",
          "following_url": "https://api.github.com/users/hebasto/following%7B/other_user%7D",
          "gists_url": "https://api.github.com/users/hebasto/gists%7B/gist_id%7D",
          "starred_url": "https://api.github.com/users/hebasto/starred%7B/owner%7D%7B/repo%7D",
          "subscriptions_url": "https://api.github.com/users/hebasto/subscriptions",
          "organizations_url": "https://api.github.com/users/hebasto/orgs",
          "repos_url": "https://api.github.com/users/hebasto/repos",
          "events_url": "https://api.github.com/users/hebasto/events%7B/privacy%7D",
          "received_events_url": "https://api.github.com/users/hebasto/received_events",
          "type": "User",
          "site_admin": false
        },
        "private": false,
        "html_url": "https://github.com/hebasto/bitcoin",
        "description": "Bitcoin Core integration/staging tree",
        "fork": true,
        "url": "https://api.github.com/repos/hebasto/bitcoin",
        "archive_url": "https://api.github.com/repos/hebasto/bitcoin/%7Barchive_format%7D%7B/ref%7D",
        "assignees_url": "https://api.github.com/repos/hebasto/bitcoin/assignees%7B/user%7D",
        "blobs_url": "https://api.github.com/repos/hebasto/bitcoin/git/blobs%7B/sha%7D",
        "branches_url": "https://api.github.com/repos/hebasto/bitcoin/branches%7B/branch%7D",
        "collaborators_url": "https://api.github.com/repos/hebasto/bitcoin/collaborators%7B/collaborator%7D",
        "comments_url": "https://api.github.com/repos/hebasto/bitcoin/comments%7B/number%7D",
        "commits_url": "https://api.github.com/repos/hebasto/bitcoin/commits%7B/sha%7D",
        "compare_url": "https://api.github.com/repos/hebasto/bitcoin/compare/%7Bbase%7D...%7Bhead%7D",
        "contents_url": "https://api.github.com/repos/hebasto/bitcoin/contents/%7B+path%7D",
        "contributors_url": "https://api.github.com/repos/hebasto/bitcoin/contributors",
        "deployments_url": "https://api.github.com/repos/hebasto/bitcoin/deployments",
        "downloads_url": "https://api.github.com/repos/hebasto/bitcoin/downloads",
        "events_url": "https://api.github.com/repos/hebasto/bitcoin/events",
        "forks_url": "https://api.github.com/repos/hebasto/bitcoin/forks",
        "git_commits_url": "https://api.github.com/repos/hebasto/bitcoin/git/commits%7B/sha%7D",
        "git_refs_url": "https://api.github.com/repos/hebasto/bitcoin/git/refs%7B/sha%7D",
        "git_tags_url": "https://api.github.com/repos/hebasto/bitcoin/git/tags%7B/sha%7D",
        "git_url": "git://github.com/hebasto/bitcoin.git",
        "issue_comment_url": "https://api.github.com/repos/hebasto/bitcoin/issues/comments%7B/number%7D",
        "issue_events_url": "https://api.github.com/repos/hebasto/bitcoin/issues/events%7B/number%7D",
        "issues_url": "https://api.github.com/repos/hebasto/bitcoin/issues%7B/number%7D",
        "keys_url": "https://api.github.com/repos/hebasto/bitcoin/keys%7B/key_id%7D",
        "labels_url": "https://api.github.com/repos/hebasto/bitcoin/labels%7B/name%7D",
        "languages_url": "https://api.github.com/repos/hebasto/bitcoin/languages",
        "merges_url": "https://api.github.com/repos/hebasto/bitcoin/merges",
        "milestones_url": "https://api.github.com/repos/hebasto/bitcoin/milestones%7B/number%7D",
        "notifications_url": "https://api.github.com/repos/hebasto/bitcoin/notifications%7B?since,all,participating}",
        "pulls_url": "https://api.github.com/repos/hebasto/bitcoin/pulls%7B/number%7D",
        "releases_url": "https://api.github.com/repos/hebasto/bitcoin/releases%7B/id%7D",
        "ssh_url": "git@github.com:hebasto/bitcoin.git",
        "stargazers_url": "https://api.github.com/repos/hebasto/bitcoin/stargazers",
        "statuses_url": "https://api.github.com/repos/hebasto/bitcoin/statuses/%7Bsha%7D",
        "subscribers_url": "https://api.github.com/repos/hebasto/bitcoin/subscribers",
        "subscription_url": "https://api.github.com/repos/hebasto/bitcoin/subscription",
        "tags_url": "https://api.github.com/repos/hebasto/bitcoin/tags",
        "teams_url": "https://api.github.com/repos/hebasto/bitcoin/teams",
        "trees_url": "https://api.github.com/repos/hebasto/bitcoin/git/trees%7B/sha%7D",
        "clone_url": "https://github.com/hebasto/bitcoin.git",
        "hooks_url": "https://api.github.com/repos/hebasto/bitcoin/hooks",
        "svn_url": "https://github.com/hebasto/bitcoin",
        "homepage": "https://bitcoincore.org/en/download",
        "language": "C++",
        "forks_count": 3,
        "stargazers_count": 13,
        "watchers_count": 13,
        "size": 251607,
        "default_branch": "master",
        "open_issues_count": 3,
        "is_template": false,
        "topics": [
          "bitcoin-core"
        ],
        "has_issues": true,
        "has_projects": false,
        "has_wiki": false,
        "has_pages": false,
        "has_downloads": false,
        "archived": false,
        "disabled": false,
        "visibility": "public",
        "pushed_at": "2023-08-02T18:38:17Z",
        "created_at": "2018-08-01T21:59:57Z",
        "updated_at": "2023-07-25T14:18:54Z",
        "license": {
          "key": "mit",
          "name": "MIT License",
          "node_id": "MDc6TGljZW5zZTEz",
          "spdx_id": "MIT",
          "url": "https://api.github.com/licenses/mit",
          "html_url": null,
          "description": null,
          "implementation": null,
          "permissions": null,
          "conditions": null,
          "limitations": null,
          "body": null,
          "featured": null
        }
      }
    },
    "base": {
      "label": "bitcoin:master",
      "ref": "master",
      "sha": "29d540b7ada890dd588c4825d40c27c5e6f20061",
      "user": {
        "login": "bitcoin",
        "id": 528860,
        "node_id": "MDEyOk9yZ2FuaXphdGlvbjUyODg2MA==",
        "avatar_url": "https://avatars.githubusercontent.com/u/528860?v=4",
        "gravatar_id": "",
        "url": "https://api.github.com/users/bitcoin",
        "html_url": "https://github.com/bitcoin",
        "followers_url": "https://api.github.com/users/bitcoin/followers",
        "following_url": "https://api.github.com/users/bitcoin/following%7B/other_user%7D",
        "gists_url": "https://api.github.com/users/bitcoin/gists%7B/gist_id%7D",
        "starred_url": "https://api.github.com/users/bitcoin/starred%7B/owner%7D%7B/repo%7D",
        "subscriptions_url": "https://api.github.com/users/bitcoin/subscriptions",
        "organizations_url": "https://api.github.com/users/bitcoin/orgs",
        "repos_url": "https://api.github.com/users/bitcoin/repos",
        "events_url": "https://api.github.com/users/bitcoin/events%7B/privacy%7D",
        "received_events_url": "https://api.github.com/users/bitcoin/received_events",
        "type": "Organization",
        "site_admin": false
      },
      "repo": {
        "id": 1181927,
        "node_id": "MDEwOlJlcG9zaXRvcnkxMTgxOTI3",
        "name": "bitcoin",
        "full_name": "bitcoin/bitcoin",
        "owner": {
          "login": "bitcoin",
          "id": 528860,
          "node_id": "MDEyOk9yZ2FuaXphdGlvbjUyODg2MA==",
          "avatar_url": "https://avatars.githubusercontent.com/u/528860?v=4",
          "gravatar_id": "",
          "url": "https://api.github.com/users/bitcoin",
          "html_url": "https://github.com/bitcoin",
          "followers_url": "https://api.github.com/users/bitcoin/followers",
          "following_url": "https://api.github.com/users/bitcoin/following%7B/other_user%7D",
          "gists_url": "https://api.github.com/users/bitcoin/gists%7B/gist_id%7D",
          "starred_url": "https://api.github.com/users/bitcoin/starred%7B/owner%7D%7B/repo%7D",
          "subscriptions_url": "https://api.github.com/users/bitcoin/subscriptions",
          "organizations_url": "https://api.github.com/users/bitcoin/orgs",
          "repos_url": "https://api.github.com/users/bitcoin/repos",
          "events_url": "https://api.github.com/users/bitcoin/events%7B/privacy%7D",
          "received_events_url": "https://api.github.com/users/bitcoin/received_events",
          "type": "Organization",
          "site_admin": false
        },
        "private": false,
        "html_url": "https://github.com/bitcoin/bitcoin",
        "description": "Bitcoin Core integration/staging tree",
        "fork": false,
        "url": "https://api.github.com/repos/bitcoin/bitcoin",
        "archive_url": "https://api.github.com/repos/bitcoin/bitcoin/%7Barchive_format%7D%7B/ref%7D",
        "assignees_url": "https://api.github.com/repos/bitcoin/bitcoin/assignees%7B/user%7D",
        "blobs_url": "https://api.github.com/repos/bitcoin/bitcoin/git/blobs%7B/sha%7D",
        "branches_url": "https://api.github.com/repos/bitcoin/bitcoin/branches%7B/branch%7D",
        "collaborators_url": "https://api.github.com/repos/bitcoin/bitcoin/collaborators%7B/collaborator%7D",
        "comments_url": "https://api.github.com/repos/bitcoin/bitcoin/comments%7B/number%7D",
        "commits_url": "https://api.github.com/repos/bitcoin/bitcoin/commits%7B/sha%7D",
        "compare_url": "https://api.github.com/repos/bitcoin/bitcoin/compare/%7Bbase%7D...%7Bhead%7D",
        "contents_url": "https://api.github.com/repos/bitcoin/bitcoin/contents/%7B+path%7D",
        "contributors_url": "https://api.github.com/repos/bitcoin/bitcoin/contributors",
        "deployments_url": "https://api.github.com/repos/bitcoin/bitcoin/deployments",
        "downloads_url": "https://api.github.com/repos/bitcoin/bitcoin/downloads",
        "events_url": "https://api.github.com/repos/bitcoin/bitcoin/events",
        "forks_url": "https://api.github.com/repos/bitcoin/bitcoin/forks",
        "git_commits_url": "https://api.github.com/repos/bitcoin/bitcoin/git/commits%7B/sha%7D",
        "git_refs_url": "https://api.github.com/repos/bitcoin/bitcoin/git/refs%7B/sha%7D",
        "git_tags_url": "https://api.github.com/repos/bitcoin/bitcoin/git/tags%7B/sha%7D",
        "git_url": "git://github.com/bitcoin/bitcoin.git",
        "issue_comment_url": "https://api.github.com/repos/bitcoin/bitcoin/issues/comments%7B/number%7D",
        "issue_events_url": "https://api.github.com/repos/bitcoin/bitcoin/issues/events%7B/number%7D",
        "issues_url": "https://api.github.com/repos/bitcoin/bitcoin/issues%7B/number%7D",
        "keys_url": "https://api.github.com/repos/bitcoin/bitcoin/keys%7B/key_id%7D",
        "labels_url": "https://api.github.com/repos/bitcoin/bitcoin/labels%7B/name%7D",
        "languages_url": "https://api.github.com/repos/bitcoin/bitcoin/languages",
        "merges_url": "https://api.github.com/repos/bitcoin/bitcoin/merges",
        "milestones_url": "https://api.github.com/repos/bitcoin/bitcoin/milestones%7B/number%7D",
        "notifications_url": "https://api.github.com/repos/bitcoin/bitcoin/notifications%7B?since,all,participating}",
        "pulls_url": "https://api.github.com/repos/bitcoin/bitcoin/pulls%7B/number%7D",
        "releases_url": "https://api.github.com/repos/bitcoin/bitcoin/releases%7B/id%7D",
        "ssh_url": "git@github.com:bitcoin/bitcoin.git",
        "stargazers_url": "https://api.github.com/repos/bitcoin/bitcoin/stargazers",
        "statuses_url": "https://api.github.com/repos/bitcoin/bitcoin/statuses/%7Bsha%7D",
        "subscribers_url": "https://api.github.com/repos/bitcoin/bitcoin/subscribers",
        "subscription_url": "https://api.github.com/repos/bitcoin/bitcoin/subscription",
        "tags_url": "https://api.github.com/repos/bitcoin/bitcoin/tags",
        "teams_url": "https://api.github.com/repos/bitcoin/bitcoin/teams",
        "trees_url": "https://api.github.com/repos/bitcoin/bitcoin/git/trees%7B/sha%7D",
        "clone_url": "https://github.com/bitcoin/bitcoin.git",
        "hooks_url": "https://api.github.com/repos/bitcoin/bitcoin/hooks",
        "svn_url": "https://github.com/bitcoin/bitcoin",
        "homepage": "https://bitcoincore.org/en/download",
        "language": "C++",
        "forks_count": 35476,
        "stargazers_count": 70608,
        "watchers_count": 70608,
        "size": 236222,
        "default_branch": "master",
        "open_issues_count": 672,
        "is_template": false,
        "topics": [
          "bitcoin",
          "c-plus-plus",
          "cryptocurrency",
          "cryptography",
          "p2p"
        ],
        "has_issues": true,
        "has_projects": true,
        "has_wiki": false,
        "has_pages": false,
        "has_downloads": false,
        "archived": false,
        "disabled": false,
        "visibility": "public",
        "pushed_at": "2023-08-02T23:26:31Z",
        "created_at": "2010-12-19T15:16:43Z",
        "updated_at": "2023-08-02T18:21:18Z",
        "license": {
          "key": "mit",
          "name": "MIT License",
          "node_id": "MDc6TGljZW5zZTEz",
          "spdx_id": "MIT",
          "url": "https://api.github.com/licenses/mit",
          "html_url": null,
          "description": null,
          "implementation": null,
          "permissions": null,
          "conditions": null,
          "limitations": null,
          "body": null,
          "featured": null
        }
      }
    },
    "_links": {
      "self": {
        "href": "https://api.github.com/repos/bitcoin/bitcoin/pulls/25037"
      }
    },
    "author_association": "MEMBER",
    "draft": false,
    "additions": 44,
    "deletions": 5,
    "changed_files": 2,
    "commits": 4,
    "review_comments": 0,
    "comments": 6
  },
  "events": [
    {
      "event": "labeled",
      "id": 6527271127,
      "node_id": "LE_lADOABII585I0MfGzwAAAAGFDkDX",
      "url": "https://api.github.com/repos/bitcoin/bitcoin/issues/events/6527271127",
      "actor": {
        "login": "DrahtBot",
        "id": 39886733,
        "node_id": "MDQ6VXNlcjM5ODg2NzMz",
        "avatar_url": "https://avatars.githubusercontent.com/u/39886733?v=4",
        "gravatar_id": "",
        "url": "https://api.github.com/users/DrahtBot",
        "html_url": "https://github.com/DrahtBot",
        "followers_url": "https://api.github.com/users/DrahtBot/followers",
        "following_url": "https://api.github.com/users/DrahtBot/following%7B/other_user%7D",
        "gists_url": "https://api.github.com/users/DrahtBot/gists%7B/gist_id%7D",
        "starred_url": "https://api.github.com/users/DrahtBot/starred%7B/owner%7D%7B/repo%7D",
        "subscriptions_url": "https://api.github.com/users/DrahtBot/subscriptions",
        "organizations_url": "https://api.github.com/users/DrahtBot/orgs",
        "repos_url": "https://api.github.com/users/DrahtBot/repos",
        "events_url": "https://api.github.com/users/DrahtBot/events%7B/privacy%7D",
        "received_events_url": "https://api.github.com/users/DrahtBot/received_events",
        "type": "User",
        "site_admin": false
      },
      "commit_id": null,
      "commit_url": null,
      "created_at": "2022-04-30T00:49:04Z",
      "label": {
        "name": "Build system",
        "color": "5319e7"
      }
    },
    {
      "event": "commented",
      "id": 1113912157,
      "node_id": "IC_kwDOABII585CZPNd",
      "url": "https://api.github.com/repos/bitcoin/bitcoin/issues/comments/1113912157",
      "actor": {
        "login": "DrahtBot",
        "id": 39886733,
        "node_id": "MDQ6VXNlcjM5ODg2NzMz",
        "avatar_url": "https://avatars.githubusercontent.com/u/39886733?v=4",
        "gravatar_id": "",
        "url": "https://api.github.com/users/DrahtBot",
        "html_url": "https://github.com/DrahtBot",
        "followers_url": "https://api.github.com/users/DrahtBot/followers",
        "following_url": "https://api.github.com/users/DrahtBot/following%7B/other_user%7D",
        "gists_url": "https://api.github.com/users/DrahtBot/gists%7B/gist_id%7D",
        "starred_url": "https://api.github.com/users/DrahtBot/starred%7B/owner%7D%7B/repo%7D",
        "subscriptions_url": "https://api.github.com/users/DrahtBot/subscriptions",
        "organizations_url": "https://api.github.com/users/DrahtBot/orgs",
        "repos_url": "https://api.github.com/users/DrahtBot/repos",
        "events_url": "https://api.github.com/users/DrahtBot/events%7B/privacy%7D",
        "received_events_url": "https://api.github.com/users/DrahtBot/received_events",
        "type": "User",
        "site_admin": false
      },
      "commit_id": null,
      "commit_url": null,
      "created_at": "2022-04-30T04:20:07Z",
      "updated_at": "2023-01-06T06:50:01Z",
      "author_association": "CONTRIBUTOR",
      "body": "<!--e57a25ab6845829454e8d69fc972939a-->\n\nThe following sections might be updated with supplementary metadata relevant to reviewers and maintainers.\n\n<!--021abf342d371248e50ceaed478a90ca-->\n### Reviews\nSee [the guideline](https://github.com/bitcoin/bitcoin/blob/master/CONTRIBUTING.md#code-review) for information on the review process.\nA summary of reviews will appear here.\n<!--174a7506f384e20aa4161008e828411d-->\n### Conflicts\nReviewers, this pull request conflicts with the following ones:\n\n* [#26824](https://github.com/bitcoin/bitcoin/pull/26824) (build: fix configuring with only bitcoin-util by fanquake)\n\nIf you consider this pull request important, please also help to review the conflicting pull requests. Ideally, start with the one that should be merged first.\n",
      "user": {
        "login": "DrahtBot",
        "id": 39886733,
        "node_id": "MDQ6VXNlcjM5ODg2NzMz",
        "avatar_url": "https://avatars.githubusercontent.com/u/39886733?v=4",
        "gravatar_id": "",
        "url": "https://api.github.com/users/DrahtBot",
        "html_url": "https://github.com/DrahtBot",
        "followers_url": "https://api.github.com/users/DrahtBot/followers",
        "following_url": "https://api.github.com/users/DrahtBot/following%7B/other_user%7D",
        "gists_url": "https://api.github.com/users/DrahtBot/gists%7B/gist_id%7D",
        "starred_url": "https://api.github.com/users/DrahtBot/starred%7B/owner%7D%7B/repo%7D",
        "subscriptions_url": "https://api.github.com/users/DrahtBot/subscriptions",
        "organizations_url": "https://api.github.com/users/DrahtBot/orgs",
        "repos_url": "https://api.github.com/users/DrahtBot/repos",
        "events_url": "https://api.github.com/users/DrahtBot/events%7B/privacy%7D",
        "received_events_url": "https://api.github.com/users/DrahtBot/received_events",
        "type": "User",
        "site_admin": false
      },
      "html_url": "https://github.com/bitcoin/bitcoin/pull/25037#issuecomment-1113912157",
      "issue_url": "https://api.github.com/repos/bitcoin/bitcoin/issues/25037"
    },
    {
      "event": "cross-referenced",
      "id": null,
      "node_id": null,
      "url": null,
      "actor": {
        "login": "DrahtBot",
        "id": 39886733,
        "node_id": "MDQ6VXNlcjM5ODg2NzMz",
        "avatar_url": "https://avatars.githubusercontent.com/u/39886733?v=4",
        "gravatar_id": "",
        "url": "https://api.github.com/users/DrahtBot",
        "html_url": "https://github.com/DrahtBot",
        "followers_url": "https://api.github.com/users/DrahtBot/followers",
        "following_url": "https://api.github.com/users/DrahtBot/following%7B/other_user%7D",
        "gists_url": "https://api.github.com/users/DrahtBot/gists%7B/gist_id%7D",
        "starred_url": "https://api.github.com/users/DrahtBot/starred%7B/owner%7D%7B/repo%7D",
        "subscriptions_url": "https://api.github.com/users/DrahtBot/subscriptions",
        "organizations_url": "https://api.github.com/users/DrahtBot/orgs",
        "repos_url": "https://api.github.com/users/DrahtBot/repos",
        "events_url": "https://api.github.com/users/DrahtBot/events%7B/privacy%7D",
        "received_events_url": "https://api.github.com/users/DrahtBot/received_events",
        "type": "User",
        "site_admin": false
      },
      "commit_id": null,
      "commit_url": null,
      "created_at": "2022-04-30T10:24:27Z",
      "updated_at": "2022-04-30T10:24:27Z",
      "source": {
        "issue": {
          "id": 1127444456,
          "node_id": "PR_kwDOABII584yPsVj",
          "url": "https://api.github.com/repos/bitcoin/bitcoin/issues/24291",
          "repository_url": "https://api.github.com/repos/bitcoin/bitcoin",
          "labels_url": "https://api.github.com/repos/bitcoin/bitcoin/issues/24291/labels%7B/name%7D",
          "comments_url": "https://api.github.com/repos/bitcoin/bitcoin/issues/24291/comments",
          "events_url": "https://api.github.com/repos/bitcoin/bitcoin/issues/24291/events",
          "html_url": "https://github.com/bitcoin/bitcoin/pull/24291",
          "number": 24291,
          "state": "closed",
          "state_reason": null,
          "title": "build: Remove negated --enable-fuzz checks from build system",
          "body": "It is confusing to enable the unit test binary with `ENABLE_TESTS && !ENABLE_FUZZ`, but every other binary is enabled with a simple flag. For example `ENABLE_BENCH`, or `ENABLE_FUZZ_BINARY`.\r\n\r\nFix that by turning `ENABLE_TESTS` back into meaning \"enable unit test binary\". ",
          "user": {
            "login": "MarcoFalke",
            "id": 6399679,
            "node_id": "MDQ6VXNlcjYzOTk2Nzk=",
            "avatar_url": "https://avatars.githubusercontent.com/u/6399679?v=4",
            "gravatar_id": "",
            "url": "https://api.github.com/users/MarcoFalke",
            "html_url": "https://github.com/MarcoFalke",
            "followers_url": "https://api.github.com/users/MarcoFalke/followers",
            "following_url": "https://api.github.com/users/MarcoFalke/following%7B/other_user%7D",
            "gists_url": "https://api.github.com/users/MarcoFalke/gists%7B/gist_id%7D",
            "starred_url": "https://api.github.com/users/MarcoFalke/starred%7B/owner%7D%7B/repo%7D",
            "subscriptions_url": "https://api.github.com/users/MarcoFalke/subscriptions",
            "organizations_url": "https://api.github.com/users/MarcoFalke/orgs",
            "repos_url": "https://api.github.com/users/MarcoFalke/repos",
            "events_url": "https://api.github.com/users/MarcoFalke/events%7B/privacy%7D",
            "received_events_url": "https://api.github.com/users/MarcoFalke/received_events",
            "type": "User",
            "site_admin": false
          },
          "labels": [
            {
              "id": 61889416,
              "node_id": "MDU6TGFiZWw2MTg4OTQxNg==",
              "url": "https://api.github.com/repos/bitcoin/bitcoin/labels/Build%20system",
              "name": "Build system",
              "color": "5319e7",
              "default": false
            }
          ],
          "assignees": [],
          "author_association": "MEMBER",
          "locked": true,
          "comments": 11,
          "pull_request": {
            "url": "https://api.github.com/repos/bitcoin/bitcoin/pulls/24291",
            "html_url": "https://github.com/bitcoin/bitcoin/pull/24291",
            "diff_url": "https://github.com/bitcoin/bitcoin/pull/24291.diff",
            "patch_url": "https://github.com/bitcoin/bitcoin/pull/24291.patch"
          },
          "closed_at": "2022-06-22T08:30:07Z",
          "created_at": "2022-02-08T15:58:10Z",
          "updated_at": "2023-07-13T10:10:29Z"
        },
        "type": "issue"
      }
    },
    {
      "event": "cross-referenced",
      "id": null,
      "node_id": null,
      "url": null,
      "actor": {
        "login": "DrahtBot",
        "id": 39886733,
        "node_id": "MDQ6VXNlcjM5ODg2NzMz",
        "avatar_url": "https://avatars.githubusercontent.com/u/39886733?v=4",
        "gravatar_id": "",
        "url": "https://api.github.com/users/DrahtBot",
        "html_url": "https://github.com/DrahtBot",
        "followers_url": "https://api.github.com/users/DrahtBot/followers",
        "following_url": "https://api.github.com/users/DrahtBot/following%7B/other_user%7D",
        "gists_url": "https://api.github.com/users/DrahtBot/gists%7B/gist_id%7D",
        "starred_url": "https://api.github.com/users/DrahtBot/starred%7B/owner%7D%7B/repo%7D",
        "subscriptions_url": "https://api.github.com/users/DrahtBot/subscriptions",
        "organizations_url": "https://api.github.com/users/DrahtBot/orgs",
        "repos_url": "https://api.github.com/users/DrahtBot/repos",
        "events_url": "https://api.github.com/users/DrahtBot/events%7B/privacy%7D",
        "received_events_url": "https://api.github.com/users/DrahtBot/received_events",
        "type": "User",
        "site_admin": false
      },
      "commit_id": null,
      "commit_url": null,
      "created_at": "2022-05-14T16:01:41Z",
      "updated_at": "2022-05-14T16:01:41Z",
      "source": {
        "issue": {
          "id": 1001182004,
          "node_id": "PR_kwDOABII584r-T2Q",
          "url": "https://api.github.com/repos/bitcoin/bitcoin/issues/23049",
          "repository_url": "https://api.github.com/repos/bitcoin/bitcoin",
          "labels_url": "https://api.github.com/repos/bitcoin/bitcoin/issues/23049/labels%7B/name%7D",
          "comments_url": "https://api.github.com/repos/bitcoin/bitcoin/issues/23049/comments",
          "events_url": "https://api.github.com/repos/bitcoin/bitcoin/issues/23049/events",
          "html_url": "https://github.com/bitcoin/bitcoin/pull/23049",
          "number": 23049,
          "state": "closed",
          "state_reason": null,
          "title": "[WIP] net: implement a StratumV2 Template Provider in core",
          "body": "This PR provides a simple example of how to import and use the `sv2-ffi` Rust crate which exports the Stratum V2 (Sv2) functions required by a Template Provider as a C library.\r\n\r\n## Stratum V2\r\n[An introduction to Sv2](https://docs.google.com/document/d/1efN1JnAGiTw96LtfP70BngtP49SLtbMahPYSROfiMqA/edit?usp=sharing)\r\n\r\n[Sv2 specifiaction](https://docs.google.com/document/d/1FadCWj-57dvhxsnFM_7X806qyvhR0u3i85607bGHxvg/edit)\r\n\r\n## Template Provider\r\nSv2 defines a service (role) called the Template Provider (TP), whose functionality is defined as follows:\r\n```\r\nGenerates the custom block templates to be passed to the Job Negotiator for eventual mining. \r\nThis is usually a Bitcoin Core full node (or possibly another node implementation).\r\n```\r\n\r\n## Phase 1: PR Goals\r\nThis phase encompasses the concepts that must be agreed upon before proceeding with Phase 2.\r\n\r\n1. Need agreement that implementing a TP in Bitcoin Core is a good idea.\r\n2. Need agreement that the implementation of a TP in Bitcoin Core should use the Rust crates in [this workspace](https://github.com/stratum-mining/stratum).\r\n\r\n## Phase 2: PR Implementation\r\nThis phase will commence once the concepts in Phase 1 are agreed upon. Phase 2 is the final goal of this project and encompasses the the implementation steps required for a functional TP in Bitcoin Core.\r\n\r\n1. Extensive review of the `sv2-ffi` API and other Rust sources.\r\n2. Review of the guix build process.\r\n3. Find a location for the Sv2 crates (possibly under the [Bitcoin GitHub Account](https://github.com/bitcoin/)) to live _*1_.\r\n4. Implement the TP.\r\n\r\n## If TP in Core gets a concept NACK\r\nA TP can be implemented as an independent service and can communicate with core via RPC.\r\n\r\n## If Rust in Core gets a concept NACK\r\nA TP can be implemented in core without using any Rust dependency.\r\n\r\n_*1_ Right now the Rust sources are in this PR and are packaged by a script before doing the guix build. Ideally these sources should live in another project repository and should be packaged by the guix script which builds a downloadable binary.",
          "user": {
            "login": "Fi3",
            "id": 6207037,
            "node_id": "MDQ6VXNlcjYyMDcwMzc=",
            "avatar_url": "https://avatars.githubusercontent.com/u/6207037?v=4",
            "gravatar_id": "",
            "url": "https://api.github.com/users/Fi3",
            "html_url": "https://github.com/Fi3",
            "followers_url": "https://api.github.com/users/Fi3/followers",
            "following_url": "https://api.github.com/users/Fi3/following%7B/other_user%7D",
            "gists_url": "https://api.github.com/users/Fi3/gists%7B/gist_id%7D",
            "starred_url": "https://api.github.com/users/Fi3/starred%7B/owner%7D%7B/repo%7D",
            "subscriptions_url": "https://api.github.com/users/Fi3/subscriptions",
            "organizations_url": "https://api.github.com/users/Fi3/orgs",
            "repos_url": "https://api.github.com/users/Fi3/repos",
            "events_url": "https://api.github.com/users/Fi3/events%7B/privacy%7D",
            "received_events_url": "https://api.github.com/users/Fi3/received_events",
            "type": "User",
            "site_admin": false
          },
          "labels": [
            {
              "id": 98298007,
              "node_id": "MDU6TGFiZWw5ODI5ODAwNw==",
              "url": "https://api.github.com/repos/bitcoin/bitcoin/labels/P2P",
              "name": "P2P",
              "color": "006b75",
              "default": false
            },
            {
              "id": 118378960,
              "node_id": "MDU6TGFiZWwxMTgzNzg5NjA=",
              "url": "https://api.github.com/repos/bitcoin/bitcoin/labels/Mining",
              "name": "Mining",
              "color": "c7def8",
              "default": false
            },
            {
              "id": 231994551,
              "node_id": "MDU6TGFiZWwyMzE5OTQ1NTE=",
              "url": "https://api.github.com/repos/bitcoin/bitcoin/labels/Scripts%20and%20tools",
              "name": "Scripts and tools",
              "color": "ffffee",
              "default": false
            },
            {
              "id": 955867938,
              "node_id": "MDU6TGFiZWw5NTU4Njc5Mzg=",
              "url": "https://api.github.com/repos/bitcoin/bitcoin/labels/Needs%20rebase",
              "name": "Needs rebase",
              "description": "",
              "color": "cccccc",
              "default": false
            }
          ],
          "assignees": [],
          "author_association": "NONE",
          "locked": false,
          "comments": 23,
          "pull_request": {
            "url": "https://api.github.com/repos/bitcoin/bitcoin/pulls/23049",
            "html_url": "https://github.com/bitcoin/bitcoin/pull/23049",
            "diff_url": "https://github.com/bitcoin/bitcoin/pull/23049.diff",
            "patch_url": "https://github.com/bitcoin/bitcoin/pull/23049.patch"
          },
          "closed_at": "2023-01-10T16:37:54Z",
          "created_at": "2021-09-20T16:46:32Z",
          "updated_at": "2023-01-10T16:37:54Z"
        },
        "type": "issue"
      }
    },
    {
      "event": "labeled",
      "id": 6854262482,
      "node_id": "LE_lADOABII585I0MfGzwAAAAGYi77S",
      "url": "https://api.github.com/repos/bitcoin/bitcoin/issues/events/6854262482",
      "actor": {
        "login": "MarcoFalke",
        "id": 6399679,
        "node_id": "MDQ6VXNlcjYzOTk2Nzk=",
        "avatar_url": "https://avatars.githubusercontent.com/u/6399679?v=4",
        "gravatar_id": "",
        "url": "https://api.github.com/users/MarcoFalke",
        "html_url": "https://github.com/MarcoFalke",
        "followers_url": "https://api.github.com/users/MarcoFalke/followers",
        "following_url": "https://api.github.com/users/MarcoFalke/following%7B/other_user%7D",
        "gists_url": "https://api.github.com/users/MarcoFalke/gists%7B/gist_id%7D",
        "starred_url": "https://api.github.com/users/MarcoFalke/starred%7B/owner%7D%7B/repo%7D",
        "subscriptions_url": "https://api.github.com/users/MarcoFalke/subscriptions",
        "organizations_url": "https://api.github.com/users/MarcoFalke/orgs",
        "repos_url": "https://api.github.com/users/MarcoFalke/repos",
        "events_url": "https://api.github.com/users/MarcoFalke/events%7B/privacy%7D",
        "received_events_url": "https://api.github.com/users/MarcoFalke/received_events",
        "type": "User",
        "site_admin": false
      },
      "commit_id": null,
      "commit_url": null,
      "created_at": "2022-06-22T08:39:15Z",
      "label": {
        "name": "DrahtBot Guix build requested",
        "color": "bfd4f2"
      }
    },
    {
      "event": "labeled",
      "id": 6854780641,
      "node_id": "LE_lADOABII585I0MfGzwAAAAGYk6bh",
      "url": "https://api.github.com/repos/bitcoin/bitcoin/issues/events/6854780641",
      "actor": {
        "login": "DrahtBot",
        "id": 39886733,
        "node_id": "MDQ6VXNlcjM5ODg2NzMz",
        "avatar_url": "https://avatars.githubusercontent.com/u/39886733?v=4",
        "gravatar_id": "",
        "url": "https://api.github.com/users/DrahtBot",
        "html_url": "https://github.com/DrahtBot",
        "followers_url": "https://api.github.com/users/DrahtBot/followers",
        "following_url": "https://api.github.com/users/DrahtBot/following%7B/other_user%7D",
        "gists_url": "https://api.github.com/users/DrahtBot/gists%7B/gist_id%7D",
        "starred_url": "https://api.github.com/users/DrahtBot/starred%7B/owner%7D%7B/repo%7D",
        "subscriptions_url": "https://api.github.com/users/DrahtBot/subscriptions",
        "organizations_url": "https://api.github.com/users/DrahtBot/orgs",
        "repos_url": "https://api.github.com/users/DrahtBot/repos",
        "events_url": "https://api.github.com/users/DrahtBot/events%7B/privacy%7D",
        "received_events_url": "https://api.github.com/users/DrahtBot/received_events",
        "type": "User",
        "site_admin": false
      },
      "commit_id": null,
      "commit_url": null,
      "created_at": "2022-06-22T09:47:40Z",
      "label": {
        "name": "Needs rebase",
        "color": "cccccc"
      }
    },
    {
      "event": "committed",
      "id": null,
      "node_id": "C_kwDOABII59oAKDAwYjcwZjAwNWI3YjRlOGYxZGM3ZDYzNzhlYTViNzkzYzJhOGQ0Yzk",
      "url": "https://api.github.com/repos/bitcoin/bitcoin/git/commits/00b70f005b7b4e8f1dc7d6378ea5b793c2a8d4c9",
      "actor": null,
      "commit_id": null,
      "commit_url": null,
      "created_at": null,
      "html_url": "https://github.com/bitcoin/bitcoin/commit/00b70f005b7b4e8f1dc7d6378ea5b793c2a8d4c9",
      "tree": {
        "sha": "936c81fae8def9ff6d6846c352e884381a983a62",
        "url": "https://api.github.com/repos/bitcoin/bitcoin/git/trees/936c81fae8def9ff6d6846c352e884381a983a62"
      },
      "verification": {
        "verified": true,
        "reason": "valid",
        "payload": "tree 936c81fae8def9ff6d6846c352e884381a983a62\nparent 9ba73758c908ce0c49f1bd9727ea496958e24d54\nauthor Hennadii Stepanov <32963518+hebasto@users.noreply.github.com> 1651250699 +0200\ncommitter Hennadii Stepanov <32963518+hebasto@users.noreply.github.com> 1658918265 +0100\n\nbuild: Add `UPDATE_TARGET_LIST` macro\n",
        "signature": "-----BEGIN PGP SIGNATURE-----\n\niQIzBAABCgAdFiEE0dvyxLlvLev0wWZUQQEIES5+qB8FAmLhFXkACgkQQQEIES5+\nqB/dLA//f8oU6sJ5bI1NelBst7O5aHqgNWzVTdT9HD3470lwJcRpS9dqykeZKIh4\nupQ4MeEUHcK7ZhLSFaoyB17OlxDmFEMhUyZKLLJzZU3O36LGpCZVvVdvxOXw/EJJ\nOLk3Cy1OhL/UlegM2npjat9iSos6j+dPqdcgkyarOENZBWROw6f8efPLhJ9v1BgL\nAixt8zTilXVJB3BKi+XkbwD91/5s60NHfGRHHjfJRRLeoy+CJsy5AbMWaw7QT0ln\n0oSl46wOHBvOYeMx5Xw83kua0T3g8MDKjc5yDAk182CzehMwu5JZA/+OqY7ZrqBJ\nePwuTAn4cjXrnxaZIKAkCvTRlEXS/nBX/3BU7u6TT9cc6RuxgWKmLEt0f1RXumk+\n3SNN8JKgZBJWvWtrw1acVL7otoJQmVLC1yqLVcosSTewcB0zSP3v39Xjbfj14ncv\nodtpWCpwxYLbnrrBPTXliUqdEAefFXautqvBho6Ko0pwu6/a9mNOX/95hV8NJ+ic\ntN46agpmAD8kMRCNU33F0Fjc6D0Xa9KCblsnlMqCSAvd0YKqPaOjAp7nxR1T0idF\nNEwBv8TQOvqk+2Qed1u/2EmDIoSveCsh141osSX0t2ZdNWVKtDbVSr6O2zGLvGeG\n3d1LDHeQR8KV2UBfylTPFCGRJXHiq8mZlwivf84fMlUPC/fpQEA=\n=KjPx\n-----END PGP SIGNATURE-----"
      },
      "parents": [
        {
          "url": "https://api.github.com/repos/bitcoin/bitcoin/git/commits/9ba73758c908ce0c49f1bd9727ea496958e24d54",
          "sha": "9ba73758c908ce0c49f1bd9727ea496958e24d54",
          "html_url": "https://github.com/bitcoin/bitcoin/commit/9ba73758c908ce0c49f1bd9727ea496958e24d54"
        }
      ],
      "message": "build: Add `UPDATE_TARGET_LIST` macro",
      "committer": {
        "name": "Hennadii Stepanov",
        "email": "32963518+hebasto@users.noreply.github.com",
        "date": "2022-07-27T10:37:45Z"
      },
      "author": {
        "name": "Hennadii Stepanov",
        "email": "32963518+hebasto@users.noreply.github.com",
        "date": "2022-04-29T16:44:59Z"
      },
      "sha": "00b70f005b7b4e8f1dc7d6378ea5b793c2a8d4c9"
    },
    {
      "event": "committed",
      "id": null,
      "node_id": "C_kwDOABII59oAKDQ4ZTc4MDNmMmQ1OTczYmMwMGRiMmI2MjI2NDYwN2JmZjUzZWViODc",
      "url": "https://api.github.com/repos/bitcoin/bitcoin/git/commits/48e7803f2d5973bc00db2b62264607bff53eeb87",
      "actor": null,
      "commit_id": null,
      "commit_url": null,
      "created_at": null,
      "html_url": "https://github.com/bitcoin/bitcoin/commit/48e7803f2d5973bc00db2b62264607bff53eeb87",
      "tree": {
        "sha": "3eeb9c4e419ad0fe796334f1d96c01d33befb907",
        "url": "https://api.github.com/repos/bitcoin/bitcoin/git/trees/3eeb9c4e419ad0fe796334f1d96c01d33befb907"
      },
      "verification": {
        "verified": true,
        "reason": "valid",
        "payload": "tree 3eeb9c4e419ad0fe796334f1d96c01d33befb907\nparent 00b70f005b7b4e8f1dc7d6378ea5b793c2a8d4c9\nauthor Hennadii Stepanov <32963518+hebasto@users.noreply.github.com> 1651269641 +0200\ncommitter Hennadii Stepanov <32963518+hebasto@users.noreply.github.com> 1658918268 +0100\n\nbuild: Improve \"No targets\" detection\n\nThis change fixes detection of situation when a user provides no targets\nto build. For example, now it is possible to build `bitcoin-util` only.\n",
        "signature": "-----BEGIN PGP SIGNATURE-----\n\niQIzBAABCgAdFiEE0dvyxLlvLev0wWZUQQEIES5+qB8FAmLhFXwACgkQQQEIES5+\nqB+1IBAAlk/1YJW/AhQVJ5yxNyN5RPeF9xu2pB+zULG8nEyE0VpalDSpWVEISh2z\ngd24qb6UMTQaM0VQXNPLQIdbUN4YE0pfV4vG7X+P7PVAADQkiZRxYmLpYAEuFlPK\nNaavavvfIhWgQYpnFqFho6Ub65dQF0CwS1GSZlO9lsGSxbksNfF4IPSxsNlzEPnY\nX080Yuy4P0lWooioDvJqDQbyBhEpq+4GVdLoOKk++eVMqefHPABeRUvXtuh09TF7\nFNMdUC7dxBSu3Yl94oD3246RzoJzq/eED9D2WoBBV9PmTtBH9Uln0y0z14y3DqP0\nYm0dUfq8KnbI6TgDTWOCR9rrAIz3HYVMovpZJQf8qLfm/kUV4PVIqAByxnlXsymp\nvYjIk+9R9GSmKvkIC3ih3UZZv4xqnOiAERtpQxvCOKILEKVpdVP81oAFer8smJ6d\nV3JmIfNur/rSoTdqTUIENdhz42N2KtGlokm+9v2Rn4zlivLJrs4COoY6X7wo7w93\nyHqmbH9TCezcZMN6eOLCpg1FpvcnBpT5/Jdnwy5O2UVxlb79+HU6hy8x4E4VFb6i\nKHUN+Hyp1+3tspHWx7IMw3iyNyKBtgDqc0yfFmMTyGykyfRH71q4WTpcqSH/O4on\nVj9maNWUJakA4kMWIxRli2/ziHVWNmLeERnhjgBwD2YTAvGZRyI=\n=jhrX\n-----END PGP SIGNATURE-----"
      },
      "parents": [
        {
          "url": "https://api.github.com/repos/bitcoin/bitcoin/git/commits/00b70f005b7b4e8f1dc7d6378ea5b793c2a8d4c9",
          "sha": "00b70f005b7b4e8f1dc7d6378ea5b793c2a8d4c9",
          "html_url": "https://github.com/bitcoin/bitcoin/commit/00b70f005b7b4e8f1dc7d6378ea5b793c2a8d4c9"
        }
      ],
      "message": "build: Improve \"No targets\" detection\n\nThis change fixes detection of situation when a user provides no targets\nto build. For example, now it is possible to build `bitcoin-util` only.",
      "committer": {
        "name": "Hennadii Stepanov",
        "email": "32963518+hebasto@users.noreply.github.com",
        "date": "2022-07-27T10:37:48Z"
      },
      "author": {
        "name": "Hennadii Stepanov",
        "email": "32963518+hebasto@users.noreply.github.com",
        "date": "2022-04-29T22:00:41Z"
      },
      "sha": "48e7803f2d5973bc00db2b62264607bff53eeb87"
    },
    {
      "event": "committed",
      "id": null,
      "node_id": "C_kwDOABII59oAKGQxNWIzNGQ0NDZmMTVmMWZkOTgyOTdkNThhMWY0ZGY3MDVjMTNmYjI",
      "url": "https://api.github.com/repos/bitcoin/bitcoin/git/commits/d15b34d446f15f1fd98297d58a1f4df705c13fb2",
      "actor": null,
      "commit_id": null,
      "commit_url": null,
      "created_at": null,
      "html_url": "https://github.com/bitcoin/bitcoin/commit/d15b34d446f15f1fd98297d58a1f4df705c13fb2",
      "tree": {
        "sha": "5a160e3bd8033b899a3fef1bb260fceb8bdcc0f4",
        "url": "https://api.github.com/repos/bitcoin/bitcoin/git/trees/5a160e3bd8033b899a3fef1bb260fceb8bdcc0f4"
      },
      "verification": {
        "verified": true,
        "reason": "valid",
        "payload": "tree 5a160e3bd8033b899a3fef1bb260fceb8bdcc0f4\nparent 48e7803f2d5973bc00db2b62264607bff53eeb87\nauthor Hennadii Stepanov <32963518+hebasto@users.noreply.github.com> 1651270335 +0200\ncommitter Hennadii Stepanov <32963518+hebasto@users.noreply.github.com> 1658918268 +0100\n\nbuild: Refactor evaluation of `use_boost` variable\n",
        "signature": "-----BEGIN PGP SIGNATURE-----\n\niQIzBAABCgAdFiEE0dvyxLlvLev0wWZUQQEIES5+qB8FAmLhFXwACgkQQQEIES5+\nqB+YdRAApaa19ct6oVGX+ZEAwLKTDeDC0R80Pb0YtBghsMqjB4CZ171dMOVjy+Ch\nsdZTTCJXpzOHylDtYYEZ4kWYgA/ueyoxkAs8df9QUbATNpAoh9kZEbyj08z+7stN\n9cCOJjYpWHXd5K2BVxO3ABcOXIqwG8m7J+H8PZJZU92uYnt9P3sEXve6Lz+eborm\ny176IaZzI3cZYi7GDQcFVOjgvR/ABFGr0e9VMHtfFwen3t6iNIes6jQyozXqQmCI\nYmtamhts1oO6fMwHUrY3Oom6tdMLB51tMZgGBn/jgWQIZZt5ZtvrSBc0X2SZk8gu\nxbGMas4h+pUKLtjf7DkZZ5Noc80yOYzzBqqFtnbY+aHRwSdv2VdbOPWygFcMgXRK\nCoD4VlVBhIwhOyPkggKnrxbd5UJDDDthS+43FNKyikhKyPlhNfoQlUIqy5m/OmDl\nK3sU/TzqQPsHnA1lM9Pud2I9xryPmvWyGDD07xl5qF6a2aR/BpXgnjMfvUUJ5ucE\nxIzGiShWgSRVFx9w9HHW1DGnylrRaSpUwfTSbx1Or8IWNctXqe620t3wBj6BK86x\nM3UJ2Julefa/vqcsPcvhxkyXFAZ6zK924nDIfgjWlrD6SAkyL5jA+4C9qP8jC808\nNsF3hHUxNzQMv1D3n04jyw0PZC9fBXHx0ws9Tg9vFs6W3RUGoh8=\n=raKl\n-----END PGP SIGNATURE-----"
      },
      "parents": [
        {
          "url": "https://api.github.com/repos/bitcoin/bitcoin/git/commits/48e7803f2d5973bc00db2b62264607bff53eeb87",
          "sha": "48e7803f2d5973bc00db2b62264607bff53eeb87",
          "html_url": "https://github.com/bitcoin/bitcoin/commit/48e7803f2d5973bc00db2b62264607bff53eeb87"
        }
      ],
      "message": "build: Refactor evaluation of `use_boost` variable",
      "committer": {
        "name": "Hennadii Stepanov",
        "email": "32963518+hebasto@users.noreply.github.com",
        "date": "2022-07-27T10:37:48Z"
      },
      "author": {
        "name": "Hennadii Stepanov",
        "email": "32963518+hebasto@users.noreply.github.com",
        "date": "2022-04-29T22:12:15Z"
      },
      "sha": "d15b34d446f15f1fd98297d58a1f4df705c13fb2"
    },
    {
      "event": "committed",
      "id": null,
      "node_id": "C_kwDOABII59oAKDZmNzdkMDNjNWE0MGUwNWM5ZWU4MWE3OWUzODBhZjhlYWNkZjhmYzc",
      "url": "https://api.github.com/repos/bitcoin/bitcoin/git/commits/6f77d03c5a40e05c9ee81a79e380af8eacdf8fc7",
      "actor": null,
      "commit_id": null,
      "commit_url": null,
      "created_at": null,
      "html_url": "https://github.com/bitcoin/bitcoin/commit/6f77d03c5a40e05c9ee81a79e380af8eacdf8fc7",
      "tree": {
        "sha": "42ae34bc6978bdc6684fb0b1b6865fdd7528a010",
        "url": "https://api.github.com/repos/bitcoin/bitcoin/git/trees/42ae34bc6978bdc6684fb0b1b6865fdd7528a010"
      },
      "verification": {
        "verified": true,
        "reason": "valid",
        "payload": "tree 42ae34bc6978bdc6684fb0b1b6865fdd7528a010\nparent d15b34d446f15f1fd98297d58a1f4df705c13fb2\nauthor Hennadii Stepanov <32963518+hebasto@users.noreply.github.com> 1651272108 +0200\ncommitter Hennadii Stepanov <32963518+hebasto@users.noreply.github.com> 1658918268 +0100\n\nbuild: Create `noinst_LTLIBRARIES` conditionally\n\nOtherwise, they are built regardless whether they are required as\ndependencies.\n",
        "signature": "-----BEGIN PGP SIGNATURE-----\n\niQIzBAABCgAdFiEE0dvyxLlvLev0wWZUQQEIES5+qB8FAmLhFXwACgkQQQEIES5+\nqB+pWRAAtOkCVGvPn2z9n1o/1wKC9Kv/tQnrjPRj9lKfgjliWcrDuoxBu5pjP1L+\n9uhzveA3S+CPo/+1TVbufu5vBgS7q0ONw0VO3zK1OhUpJrZ1AXDkC1YpXmRv5zdg\nA6O+Ct2XNEsGiM9ASciT6+QkPL5lqS/P0kKhiDdtEEwZ1UuMJZLB/lPI6hawLDqT\nPyKctjf0tZ4sryId19T2Buq7ZXeuNWDIq2BELaI1dq9hvvRigrMND02lQgHBXClm\nh8gZcSZmFB10aAssNDrZCw7V4rLpP5stmg+XPn4jr+n5xuAk7kWbfk5H/4O8k1c4\nFEgRXOv/Owo+iQ5+s27jDco76N2rrvnPp4oZyr0Dm1vKU04NcR+6dS8n0u6BPTjv\nJNOkHoWKOSXO9jPym1fkdZ5dXE8pC6Jwv0hI+4XZqpesruC4snFtynwvcSNqRvZM\njZXQrJMMtWTqbKgX6DdoATdSogtAwgJhRrObAA8CuY159E1TtFeCrU2uvwR404Hn\nw2qxRyKCbRRRoZWteUhxyLuOjLCBeXMI7o6HfvjcUhxag38KvJSneRXY7z792ULp\nf2YaFYVHALo1B8bgwp7RqbPh0T0hAc98hmryWEpKSinwLPqkTdwfWq/P2ludRuYD\nYtXV3lZSN0ttAbPzLDJSi6mjL3V68kgQBtzhNhM4t8vZqQgS3gM=\n=48+P\n-----END PGP SIGNATURE-----"
      },
      "parents": [
        {
          "url": "https://api.github.com/repos/bitcoin/bitcoin/git/commits/d15b34d446f15f1fd98297d58a1f4df705c13fb2",
          "sha": "d15b34d446f15f1fd98297d58a1f4df705c13fb2",
          "html_url": "https://github.com/bitcoin/bitcoin/commit/d15b34d446f15f1fd98297d58a1f4df705c13fb2"
        }
      ],
      "message": "build: Create `noinst_LTLIBRARIES` conditionally\n\nOtherwise, they are built regardless whether they are required as\ndependencies.",
      "committer": {
        "name": "Hennadii Stepanov",
        "email": "32963518+hebasto@users.noreply.github.com",
        "date": "2022-07-27T10:37:48Z"
      },
      "author": {
        "name": "Hennadii Stepanov",
        "email": "32963518+hebasto@users.noreply.github.com",
        "date": "2022-04-29T22:41:48Z"
      },
      "sha": "6f77d03c5a40e05c9ee81a79e380af8eacdf8fc7"
    },
    {
      "event": "head_ref_force_pushed",
      "id": 7071856539,
      "node_id": "HRFPE_lADOABII585I0MfGzwAAAAGlg_eb",
      "url": "https://api.github.com/repos/bitcoin/bitcoin/issues/events/7071856539",
      "actor": {
        "login": "hebasto",
        "id": 32963518,
        "node_id": "MDQ6VXNlcjMyOTYzNTE4",
        "avatar_url": "https://avatars.githubusercontent.com/u/32963518?v=4",
        "gravatar_id": "",
        "url": "https://api.github.com/users/hebasto",
        "html_url": "https://github.com/hebasto",
        "followers_url": "https://api.github.com/users/hebasto/followers",
        "following_url": "https://api.github.com/users/hebasto/following%7B/other_user%7D",
        "gists_url": "https://api.github.com/users/hebasto/gists%7B/gist_id%7D",
        "starred_url": "https://api.github.com/users/hebasto/starred%7B/owner%7D%7B/repo%7D",
        "subscriptions_url": "https://api.github.com/users/hebasto/subscriptions",
        "organizations_url": "https://api.github.com/users/hebasto/orgs",
        "repos_url": "https://api.github.com/users/hebasto/repos",
        "events_url": "https://api.github.com/users/hebasto/events%7B/privacy%7D",
        "received_events_url": "https://api.github.com/users/hebasto/received_events",
        "type": "User",
        "site_admin": false
      },
      "commit_id": null,
      "commit_url": null,
      "created_at": "2022-07-27T10:48:59Z"
    },
    {
      "event": "commented",
      "id": 1196576545,
      "node_id": "IC_kwDOABII585HUk8h",
      "url": "https://api.github.com/repos/bitcoin/bitcoin/issues/comments/1196576545",
      "actor": {
        "login": "hebasto",
        "id": 32963518,
        "node_id": "MDQ6VXNlcjMyOTYzNTE4",
        "avatar_url": "https://avatars.githubusercontent.com/u/32963518?v=4",
        "gravatar_id": "",
        "url": "https://api.github.com/users/hebasto",
        "html_url": "https://github.com/hebasto",
        "followers_url": "https://api.github.com/users/hebasto/followers",
        "following_url": "https://api.github.com/users/hebasto/following%7B/other_user%7D",
        "gists_url": "https://api.github.com/users/hebasto/gists%7B/gist_id%7D",
        "starred_url": "https://api.github.com/users/hebasto/starred%7B/owner%7D%7B/repo%7D",
        "subscriptions_url": "https://api.github.com/users/hebasto/subscriptions",
        "organizations_url": "https://api.github.com/users/hebasto/orgs",
        "repos_url": "https://api.github.com/users/hebasto/repos",
        "events_url": "https://api.github.com/users/hebasto/events%7B/privacy%7D",
        "received_events_url": "https://api.github.com/users/hebasto/received_events",
        "type": "User",
        "site_admin": false
      },
      "commit_id": null,
      "commit_url": null,
      "created_at": "2022-07-27T10:55:57Z",
      "updated_at": "2022-07-27T10:55:57Z",
      "author_association": "MEMBER",
      "body": "Rebased 64343397fafa3f2587f1334c411b7d65ef3edb13 -> 6f77d03c5a40e05c9ee81a79e380af8eacdf8fc7 ([pr25037.01](https://github.com/hebasto/bitcoin/commits/pr25037.01) -> [pr25037.02](https://github.com/hebasto/bitcoin/commits/pr25037.02)) due to the conflict with #24291.",
      "user": {
        "login": "hebasto",
        "id": 32963518,
        "node_id": "MDQ6VXNlcjMyOTYzNTE4",
        "avatar_url": "https://avatars.githubusercontent.com/u/32963518?v=4",
        "gravatar_id": "",
        "url": "https://api.github.com/users/hebasto",
        "html_url": "https://github.com/hebasto",
        "followers_url": "https://api.github.com/users/hebasto/followers",
        "following_url": "https://api.github.com/users/hebasto/following%7B/other_user%7D",
        "gists_url": "https://api.github.com/users/hebasto/gists%7B/gist_id%7D",
        "starred_url": "https://api.github.com/users/hebasto/starred%7B/owner%7D%7B/repo%7D",
        "subscriptions_url": "https://api.github.com/users/hebasto/subscriptions",
        "organizations_url": "https://api.github.com/users/hebasto/orgs",
        "repos_url": "https://api.github.com/users/hebasto/repos",
        "events_url": "https://api.github.com/users/hebasto/events%7B/privacy%7D",
        "received_events_url": "https://api.github.com/users/hebasto/received_events",
        "type": "User",
        "site_admin": false
      },
      "html_url": "https://github.com/bitcoin/bitcoin/pull/25037#issuecomment-1196576545",
      "issue_url": "https://api.github.com/repos/bitcoin/bitcoin/issues/25037"
    },
    {
      "event": "unlabeled",
      "id": 7072076468,
      "node_id": "UNLE_lADOABII585I0MfGzwAAAAGlh1K0",
      "url": "https://api.github.com/repos/bitcoin/bitcoin/issues/events/7072076468",
      "actor": {
        "login": "DrahtBot",
        "id": 39886733,
        "node_id": "MDQ6VXNlcjM5ODg2NzMz",
        "avatar_url": "https://avatars.githubusercontent.com/u/39886733?v=4",
        "gravatar_id": "",
        "url": "https://api.github.com/users/DrahtBot",
        "html_url": "https://github.com/DrahtBot",
        "followers_url": "https://api.github.com/users/DrahtBot/followers",
        "following_url": "https://api.github.com/users/DrahtBot/following%7B/other_user%7D",
        "gists_url": "https://api.github.com/users/DrahtBot/gists%7B/gist_id%7D",
        "starred_url": "https://api.github.com/users/DrahtBot/starred%7B/owner%7D%7B/repo%7D",
        "subscriptions_url": "https://api.github.com/users/DrahtBot/subscriptions",
        "organizations_url": "https://api.github.com/users/DrahtBot/orgs",
        "repos_url": "https://api.github.com/users/DrahtBot/repos",
        "events_url": "https://api.github.com/users/DrahtBot/events%7B/privacy%7D",
        "received_events_url": "https://api.github.com/users/DrahtBot/received_events",
        "type": "User",
        "site_admin": false
      },
      "commit_id": null,
      "commit_url": null,
      "created_at": "2022-07-27T11:23:06Z",
      "label": {
        "name": "Needs rebase",
        "color": "cccccc"
      }
    },
    {
      "event": "commented",
      "id": 1197855862,
      "node_id": "IC_kwDOABII585HZdR2",
      "url": "https://api.github.com/repos/bitcoin/bitcoin/issues/comments/1197855862",
      "actor": {
        "login": "DrahtBot",
        "id": 39886733,
        "node_id": "MDQ6VXNlcjM5ODg2NzMz",
        "avatar_url": "https://avatars.githubusercontent.com/u/39886733?v=4",
        "gravatar_id": "",
        "url": "https://api.github.com/users/DrahtBot",
        "html_url": "https://github.com/DrahtBot",
        "followers_url": "https://api.github.com/users/DrahtBot/followers",
        "following_url": "https://api.github.com/users/DrahtBot/following%7B/other_user%7D",
        "gists_url": "https://api.github.com/users/DrahtBot/gists%7B/gist_id%7D",
        "starred_url": "https://api.github.com/users/DrahtBot/starred%7B/owner%7D%7B/repo%7D",
        "subscriptions_url": "https://api.github.com/users/DrahtBot/subscriptions",
        "organizations_url": "https://api.github.com/users/DrahtBot/orgs",
        "repos_url": "https://api.github.com/users/DrahtBot/repos",
        "events_url": "https://api.github.com/users/DrahtBot/events%7B/privacy%7D",
        "received_events_url": "https://api.github.com/users/DrahtBot/received_events",
        "type": "User",
        "site_admin": false
      },
      "commit_id": null,
      "commit_url": null,
      "created_at": "2022-07-28T08:52:31Z",
      "updated_at": "2022-07-28T08:52:31Z",
      "author_association": "CONTRIBUTOR",
      "body": "<!--9cd9c72976c961c55c7acef8f6ba82cd-->\n### Guix builds\n\n| File | commit 207a22877330709e4462e6092c265ab55c8653ac<br>(master) | commit 0f8a36e961bc9b05cbdb4c158770514658cbcba3<br>(master and this pull) |\n|--|--|--|\n| SHA256SUMS.part | [`6b3102ab53e0b793...`](https://drahtbot.space/guix/bitcoin/bitcoin/207a22877330709e4462e6092c265ab55c8653ac/SHA256SUMS.part) | [`8f92726f91679db3...`](https://drahtbot.space/guix/bitcoin/bitcoin/0f8a36e961bc9b05cbdb4c158770514658cbcba3/SHA256SUMS.part) |\n| *-aarch64-linux-gnu-debug.tar.gz | [`8ec54e2536417257...`](https://drahtbot.space/guix/bitcoin/bitcoin/207a22877330709e4462e6092c265ab55c8653ac/bitcoin-207a22877330-aarch64-linux-gnu-debug.tar.gz) | [`cb0958694be0a860...`](https://drahtbot.space/guix/bitcoin/bitcoin/0f8a36e961bc9b05cbdb4c158770514658cbcba3/bitcoin-0f8a36e961bc-aarch64-linux-gnu-debug.tar.gz) |\n| *-aarch64-linux-gnu.tar.gz | [`0dda4b9ddb6e3723...`](https://drahtbot.space/guix/bitcoin/bitcoin/207a22877330709e4462e6092c265ab55c8653ac/bitcoin-207a22877330-aarch64-linux-gnu.tar.gz) | [`394965e6747a1224...`](https://drahtbot.space/guix/bitcoin/bitcoin/0f8a36e961bc9b05cbdb4c158770514658cbcba3/bitcoin-0f8a36e961bc-aarch64-linux-gnu.tar.gz) |\n| *-arm-linux-gnueabihf-debug.tar.gz | [`0ab423a33c337179...`](https://drahtbot.space/guix/bitcoin/bitcoin/207a22877330709e4462e6092c265ab55c8653ac/bitcoin-207a22877330-arm-linux-gnueabihf-debug.tar.gz) | [`9e2908b225f7c1b3...`](https://drahtbot.space/guix/bitcoin/bitcoin/0f8a36e961bc9b05cbdb4c158770514658cbcba3/bitcoin-0f8a36e961bc-arm-linux-gnueabihf-debug.tar.gz) |\n| *-arm-linux-gnueabihf.tar.gz | [`406cbba0aaa2f1da...`](https://drahtbot.space/guix/bitcoin/bitcoin/207a22877330709e4462e6092c265ab55c8653ac/bitcoin-207a22877330-arm-linux-gnueabihf.tar.gz) | [`8e1e93dc390de9ec...`](https://drahtbot.space/guix/bitcoin/bitcoin/0f8a36e961bc9b05cbdb4c158770514658cbcba3/bitcoin-0f8a36e961bc-arm-linux-gnueabihf.tar.gz) |\n| *-arm64-apple-darwin-unsigned.dmg | [`d27c92781e3ed97d...`](https://drahtbot.space/guix/bitcoin/bitcoin/207a22877330709e4462e6092c265ab55c8653ac/bitcoin-207a22877330-arm64-apple-darwin-unsigned.dmg) | [`6662b4228a1a1e36...`](https://drahtbot.space/guix/bitcoin/bitcoin/0f8a36e961bc9b05cbdb4c158770514658cbcba3/bitcoin-0f8a36e961bc-arm64-apple-darwin-unsigned.dmg) |\n| *-arm64-apple-darwin-unsigned.tar.gz | [`793c142ecbf1232e...`](https://drahtbot.space/guix/bitcoin/bitcoin/207a22877330709e4462e6092c265ab55c8653ac/bitcoin-207a22877330-arm64-apple-darwin-unsigned.tar.gz) | [`18ef21fe71a943e5...`](https://drahtbot.space/guix/bitcoin/bitcoin/0f8a36e961bc9b05cbdb4c158770514658cbcba3/bitcoin-0f8a36e961bc-arm64-apple-darwin-unsigned.tar.gz) |\n| *-arm64-apple-darwin.tar.gz | [`3d4d8ab65302a535...`](https://drahtbot.space/guix/bitcoin/bitcoin/207a22877330709e4462e6092c265ab55c8653ac/bitcoin-207a22877330-arm64-apple-darwin.tar.gz) | [`e35f98d68300ff01...`](https://drahtbot.space/guix/bitcoin/bitcoin/0f8a36e961bc9b05cbdb4c158770514658cbcba3/bitcoin-0f8a36e961bc-arm64-apple-darwin.tar.gz) |\n| *-powerpc64-linux-gnu-debug.tar.gz | [`a50ac273219e388a...`](https://drahtbot.space/guix/bitcoin/bitcoin/207a22877330709e4462e6092c265ab55c8653ac/bitcoin-207a22877330-powerpc64-linux-gnu-debug.tar.gz) | [`4bb488f0f822ac72...`](https://drahtbot.space/guix/bitcoin/bitcoin/0f8a36e961bc9b05cbdb4c158770514658cbcba3/bitcoin-0f8a36e961bc-powerpc64-linux-gnu-debug.tar.gz) |\n| *-powerpc64-linux-gnu.tar.gz | [`3422cd46c6173a46...`](https://drahtbot.space/guix/bitcoin/bitcoin/207a22877330709e4462e6092c265ab55c8653ac/bitcoin-207a22877330-powerpc64-linux-gnu.tar.gz) | [`43451d474edac71c...`](https://drahtbot.space/guix/bitcoin/bitcoin/0f8a36e961bc9b05cbdb4c158770514658cbcba3/bitcoin-0f8a36e961bc-powerpc64-linux-gnu.tar.gz) |\n| *-powerpc64le-linux-gnu-debug.tar.gz | [`0868d8e2e8fdd9a7...`](https://drahtbot.space/guix/bitcoin/bitcoin/207a22877330709e4462e6092c265ab55c8653ac/bitcoin-207a22877330-powerpc64le-linux-gnu-debug.tar.gz) | [`9ed6be06f75ada1a...`](https://drahtbot.space/guix/bitcoin/bitcoin/0f8a36e961bc9b05cbdb4c158770514658cbcba3/bitcoin-0f8a36e961bc-powerpc64le-linux-gnu-debug.tar.gz) |\n| *-powerpc64le-linux-gnu.tar.gz | [`23e33691640c7ac8...`](https://drahtbot.space/guix/bitcoin/bitcoin/207a22877330709e4462e6092c265ab55c8653ac/bitcoin-207a22877330-powerpc64le-linux-gnu.tar.gz) | [`e164b61b99b72d2e...`](https://drahtbot.space/guix/bitcoin/bitcoin/0f8a36e961bc9b05cbdb4c158770514658cbcba3/bitcoin-0f8a36e961bc-powerpc64le-linux-gnu.tar.gz) |\n| *-riscv64-linux-gnu-debug.tar.gz | [`2f5bb7e276245b55...`](https://drahtbot.space/guix/bitcoin/bitcoin/207a22877330709e4462e6092c265ab55c8653ac/bitcoin-207a22877330-riscv64-linux-gnu-debug.tar.gz) | [`c23050cd67727af8...`](https://drahtbot.space/guix/bitcoin/bitcoin/0f8a36e961bc9b05cbdb4c158770514658cbcba3/bitcoin-0f8a36e961bc-riscv64-linux-gnu-debug.tar.gz) |\n| *-riscv64-linux-gnu.tar.gz | [`4ee836f63bf92751...`](https://drahtbot.space/guix/bitcoin/bitcoin/207a22877330709e4462e6092c265ab55c8653ac/bitcoin-207a22877330-riscv64-linux-gnu.tar.gz) | [`5f0f0441198448ae...`](https://drahtbot.space/guix/bitcoin/bitcoin/0f8a36e961bc9b05cbdb4c158770514658cbcba3/bitcoin-0f8a36e961bc-riscv64-linux-gnu.tar.gz) |\n| *-win64-debug.zip | [`e147a82769c2e3ba...`](https://drahtbot.space/guix/bitcoin/bitcoin/207a22877330709e4462e6092c265ab55c8653ac/bitcoin-207a22877330-win64-debug.zip) | [`6bdf01d1c14f41e2...`](https://drahtbot.space/guix/bitcoin/bitcoin/0f8a36e961bc9b05cbdb4c158770514658cbcba3/bitcoin-0f8a36e961bc-win64-debug.zip) |\n| *-win64-setup-unsigned.exe | [`9051cb9870b5330e...`](https://drahtbot.space/guix/bitcoin/bitcoin/207a22877330709e4462e6092c265ab55c8653ac/bitcoin-207a22877330-win64-setup-unsigned.exe) | [`3583542e8871012d...`](https://drahtbot.space/guix/bitcoin/bitcoin/0f8a36e961bc9b05cbdb4c158770514658cbcba3/bitcoin-0f8a36e961bc-win64-setup-unsigned.exe) |\n| *-win64-unsigned.tar.gz | [`3561608217c7f504...`](https://drahtbot.space/guix/bitcoin/bitcoin/207a22877330709e4462e6092c265ab55c8653ac/bitcoin-207a22877330-win64-unsigned.tar.gz) | [`b00259331245f0cc...`](https://drahtbot.space/guix/bitcoin/bitcoin/0f8a36e961bc9b05cbdb4c158770514658cbcba3/bitcoin-0f8a36e961bc-win64-unsigned.tar.gz) |\n| *-win64.zip | [`37ba8b813661cec2...`](https://drahtbot.space/guix/bitcoin/bitcoin/207a22877330709e4462e6092c265ab55c8653ac/bitcoin-207a22877330-win64.zip) | [`dc8b64207e5a0ed8...`](https://drahtbot.space/guix/bitcoin/bitcoin/0f8a36e961bc9b05cbdb4c158770514658cbcba3/bitcoin-0f8a36e961bc-win64.zip) |\n| *-x86_64-apple-darwin-unsigned.dmg | [`80891b5bbbe61d46...`](https://drahtbot.space/guix/bitcoin/bitcoin/207a22877330709e4462e6092c265ab55c8653ac/bitcoin-207a22877330-x86_64-apple-darwin-unsigned.dmg) | [`34836371903353f4...`](https://drahtbot.space/guix/bitcoin/bitcoin/0f8a36e961bc9b05cbdb4c158770514658cbcba3/bitcoin-0f8a36e961bc-x86_64-apple-darwin-unsigned.dmg) |\n| *-x86_64-apple-darwin-unsigned.tar.gz | [`716c1ed695d78460...`](https://drahtbot.space/guix/bitcoin/bitcoin/207a22877330709e4462e6092c265ab55c8653ac/bitcoin-207a22877330-x86_64-apple-darwin-unsigned.tar.gz) | [`3c86da170a5b05dd...`](https://drahtbot.space/guix/bitcoin/bitcoin/0f8a36e961bc9b05cbdb4c158770514658cbcba3/bitcoin-0f8a36e961bc-x86_64-apple-darwin-unsigned.tar.gz) |\n| *-x86_64-apple-darwin.tar.gz | [`fccf2ccded08c6cf...`](https://drahtbot.space/guix/bitcoin/bitcoin/207a22877330709e4462e6092c265ab55c8653ac/bitcoin-207a22877330-x86_64-apple-darwin.tar.gz) | [`f783a4d5c14d6c25...`](https://drahtbot.space/guix/bitcoin/bitcoin/0f8a36e961bc9b05cbdb4c158770514658cbcba3/bitcoin-0f8a36e961bc-x86_64-apple-darwin.tar.gz) |\n| *-x86_64-linux-gnu-debug.tar.gz | [`ad1d6eeed71d8a6a...`](https://drahtbot.space/guix/bitcoin/bitcoin/207a22877330709e4462e6092c265ab55c8653ac/bitcoin-207a22877330-x86_64-linux-gnu-debug.tar.gz) | [`9723e0e0a1199d62...`](https://drahtbot.space/guix/bitcoin/bitcoin/0f8a36e961bc9b05cbdb4c158770514658cbcba3/bitcoin-0f8a36e961bc-x86_64-linux-gnu-debug.tar.gz) |\n| *-x86_64-linux-gnu.tar.gz | [`2154cfe4a1459ffc...`](https://drahtbot.space/guix/bitcoin/bitcoin/207a22877330709e4462e6092c265ab55c8653ac/bitcoin-207a22877330-x86_64-linux-gnu.tar.gz) | [`dfbc407817503f90...`](https://drahtbot.space/guix/bitcoin/bitcoin/0f8a36e961bc9b05cbdb4c158770514658cbcba3/bitcoin-0f8a36e961bc-x86_64-linux-gnu.tar.gz) |\n| *.tar.gz | [`df32b01715124731...`](https://drahtbot.space/guix/bitcoin/bitcoin/207a22877330709e4462e6092c265ab55c8653ac/bitcoin-207a22877330.tar.gz) | [`4af6f2809addb1a6...`](https://drahtbot.space/guix/bitcoin/bitcoin/0f8a36e961bc9b05cbdb4c158770514658cbcba3/bitcoin-0f8a36e961bc.tar.gz) |\n| guix_build.log | [`be2f97f8040e337a...`](https://drahtbot.space/guix/bitcoin/bitcoin/207a22877330709e4462e6092c265ab55c8653ac/guix_build.log) | [`1a5e81ad25b57d42...`](https://drahtbot.space/guix/bitcoin/bitcoin/0f8a36e961bc9b05cbdb4c158770514658cbcba3/guix_build.log) |\n| guix_build.log.diff |  | [`1361bd92fbebaa1b...`](https://drahtbot.space/guix/bitcoin/bitcoin/0f8a36e961bc9b05cbdb4c158770514658cbcba3/guix_build.log.diff) |\n\n",
      "user": {
        "login": "DrahtBot",
        "id": 39886733,
        "node_id": "MDQ6VXNlcjM5ODg2NzMz",
        "avatar_url": "https://avatars.githubusercontent.com/u/39886733?v=4",
        "gravatar_id": "",
        "url": "https://api.github.com/users/DrahtBot",
        "html_url": "https://github.com/DrahtBot",
        "followers_url": "https://api.github.com/users/DrahtBot/followers",
        "following_url": "https://api.github.com/users/DrahtBot/following%7B/other_user%7D",
        "gists_url": "https://api.github.com/users/DrahtBot/gists%7B/gist_id%7D",
        "starred_url": "https://api.github.com/users/DrahtBot/starred%7B/owner%7D%7B/repo%7D",
        "subscriptions_url": "https://api.github.com/users/DrahtBot/subscriptions",
        "organizations_url": "https://api.github.com/users/DrahtBot/orgs",
        "repos_url": "https://api.github.com/users/DrahtBot/repos",
        "events_url": "https://api.github.com/users/DrahtBot/events%7B/privacy%7D",
        "received_events_url": "https://api.github.com/users/DrahtBot/received_events",
        "type": "User",
        "site_admin": false
      },
      "html_url": "https://github.com/bitcoin/bitcoin/pull/25037#issuecomment-1197855862",
      "issue_url": "https://api.github.com/repos/bitcoin/bitcoin/issues/25037"
    },
    {
      "event": "unlabeled",
      "id": 7079442920,
      "node_id": "UNLE_lADOABII585I0MfGzwAAAAGl97no",
      "url": "https://api.github.com/repos/bitcoin/bitcoin/issues/events/7079442920",
      "actor": {
        "login": "DrahtBot",
        "id": 39886733,
        "node_id": "MDQ6VXNlcjM5ODg2NzMz",
        "avatar_url": "https://avatars.githubusercontent.com/u/39886733?v=4",
        "gravatar_id": "",
        "url": "https://api.github.com/users/DrahtBot",
        "html_url": "https://github.com/DrahtBot",
        "followers_url": "https://api.github.com/users/DrahtBot/followers",
        "following_url": "https://api.github.com/users/DrahtBot/following%7B/other_user%7D",
        "gists_url": "https://api.github.com/users/DrahtBot/gists%7B/gist_id%7D",
        "starred_url": "https://api.github.com/users/DrahtBot/starred%7B/owner%7D%7B/repo%7D",
        "subscriptions_url": "https://api.github.com/users/DrahtBot/subscriptions",
        "organizations_url": "https://api.github.com/users/DrahtBot/orgs",
        "repos_url": "https://api.github.com/users/DrahtBot/repos",
        "events_url": "https://api.github.com/users/DrahtBot/events%7B/privacy%7D",
        "received_events_url": "https://api.github.com/users/DrahtBot/received_events",
        "type": "User",
        "site_admin": false
      },
      "commit_id": null,
      "commit_url": null,
      "created_at": "2022-07-28T08:52:32Z",
      "label": {
        "name": "DrahtBot Guix build requested",
        "color": "bfd4f2"
      }
    },
    {
      "event": "commented",
      "id": 1321729075,
      "node_id": "IC_kwDOABII585Ox_wz",
      "url": "https://api.github.com/repos/bitcoin/bitcoin/issues/comments/1321729075",
      "actor": {
        "login": "jarolrod",
        "id": 23396902,
        "node_id": "MDQ6VXNlcjIzMzk2OTAy",
        "avatar_url": "https://avatars.githubusercontent.com/u/23396902?v=4",
        "gravatar_id": "",
        "url": "https://api.github.com/users/jarolrod",
        "html_url": "https://github.com/jarolrod",
        "followers_url": "https://api.github.com/users/jarolrod/followers",
        "following_url": "https://api.github.com/users/jarolrod/following%7B/other_user%7D",
        "gists_url": "https://api.github.com/users/jarolrod/gists%7B/gist_id%7D",
        "starred_url": "https://api.github.com/users/jarolrod/starred%7B/owner%7D%7B/repo%7D",
        "subscriptions_url": "https://api.github.com/users/jarolrod/subscriptions",
        "organizations_url": "https://api.github.com/users/jarolrod/orgs",
        "repos_url": "https://api.github.com/users/jarolrod/repos",
        "events_url": "https://api.github.com/users/jarolrod/events%7B/privacy%7D",
        "received_events_url": "https://api.github.com/users/jarolrod/received_events",
        "type": "User",
        "site_admin": false
      },
      "commit_id": null,
      "commit_url": null,
      "created_at": "2022-11-21T09:07:16Z",
      "updated_at": "2022-11-21T09:39:55Z",
      "author_association": "MEMBER",
      "body": "GUIX hashes\r\n\r\nx86:\r\n```\r\ncfa84024dae05de0c5f0330bb85c38c7bb10a6e70232fc13277b729d97924b37  guix-build-6f77d03c5a40/output/aarch64-linux-gnu/SHA256SUMS.part\r\n3b5616e879009fc55f3c9952083cb5372ad360f997ac4c0e1adb1c08c0cb18c0  guix-build-6f77d03c5a40/output/aarch64-linux-gnu/bitcoin-6f77d03c5a40-aarch64-linux-gnu-debug.tar.gz\r\n1f5732b5c46ec950472392b272c70aad3929b51537d1c9e17e5c97771726f20f  guix-build-6f77d03c5a40/output/aarch64-linux-gnu/bitcoin-6f77d03c5a40-aarch64-linux-gnu.tar.gz\r\nc7eed7f5ab292c17c35468b008593edddb5eb79878d791df5e60aa86ab45be1b  guix-build-6f77d03c5a40/output/arm-linux-gnueabihf/SHA256SUMS.part\r\ne8f44f3440833580078c03b8b2f3f1cc7e3da5b427c04260403a438b47c9f0db  guix-build-6f77d03c5a40/output/arm-linux-gnueabihf/bitcoin-6f77d03c5a40-arm-linux-gnueabihf-debug.tar.gz\r\n47892f328189b72e9fce4ea6b924629433f44bfb09be1af841604e9866ad265a  guix-build-6f77d03c5a40/output/arm-linux-gnueabihf/bitcoin-6f77d03c5a40-arm-linux-gnueabihf.tar.gz\r\n0c62238cc0bc039c9ae491b6d284424dd934ac34689490fbc19f41bf71aae3a6  guix-build-6f77d03c5a40/output/arm64-apple-darwin/SHA256SUMS.part\r\n2cafdef84531ec6ad90b7e05f138e6d72d67d3960f58555f9dba9469bf759f74  guix-build-6f77d03c5a40/output/arm64-apple-darwin/bitcoin-6f77d03c5a40-arm64-apple-darwin-unsigned.dmg\r\nf95b9969128cec7ce4e4be194f07a97b4e46bc79d454598a5fecb97ba95e0e18  guix-build-6f77d03c5a40/output/arm64-apple-darwin/bitcoin-6f77d03c5a40-arm64-apple-darwin-unsigned.tar.gz\r\nbfd351156e265dfe6afcfdd078072108a4207be002f746a13774047bf26f9a26  guix-build-6f77d03c5a40/output/arm64-apple-darwin/bitcoin-6f77d03c5a40-arm64-apple-darwin.tar.gz\r\ncdadd8db8791f31b1e6308eabeb5cb71c2ee9928e22abc543ec22f9d1af79262  guix-build-6f77d03c5a40/output/dist-archive/bitcoin-6f77d03c5a40.tar.gz\r\n13d5a1867ad8267ea3086adce221141ab9cb61a1c03ffdcceec1f48225ad7ae6  guix-build-6f77d03c5a40/output/powerpc64-linux-gnu/SHA256SUMS.part\r\nf762f2fdf2f7d7df0a24eb327c1b7670addfd1eb9565e456b8df8204bf0be875  guix-build-6f77d03c5a40/output/powerpc64-linux-gnu/bitcoin-6f77d03c5a40-powerpc64-linux-gnu-debug.tar.gz\r\ndc93dea45e57dc773980b0859caf5dbc2413fc4f11750fb3e0c2f7a26bba6480  guix-build-6f77d03c5a40/output/powerpc64-linux-gnu/bitcoin-6f77d03c5a40-powerpc64-linux-gnu.tar.gz\r\n284eb5e3ed87ffad15da865d2db63a8a6bffa737668c0c9e3ea269e5addf3e96  guix-build-6f77d03c5a40/output/powerpc64le-linux-gnu/SHA256SUMS.part\r\n33e700e00c40d2b3eb1fc154e7aa05c660d2b82b5e50eca2046f7ab2b8394723  guix-build-6f77d03c5a40/output/powerpc64le-linux-gnu/bitcoin-6f77d03c5a40-powerpc64le-linux-gnu-debug.tar.gz\r\n2d84ddea89b3992ed98411cb3393ab88f5f7e1aa1de71bc4e366cb72a9a735e3  guix-build-6f77d03c5a40/output/powerpc64le-linux-gnu/bitcoin-6f77d03c5a40-powerpc64le-linux-gnu.tar.gz\r\n24ac795340185f9692414cc60547e5a6ddd836878fba1fb7fabe5dd09a11ec73  guix-build-6f77d03c5a40/output/riscv64-linux-gnu/SHA256SUMS.part\r\nafa9bd56dca6fd4724f2e724be3b385df33d71819ff711be806b1da69bb69276  guix-build-6f77d03c5a40/output/riscv64-linux-gnu/bitcoin-6f77d03c5a40-riscv64-linux-gnu-debug.tar.gz\r\n6b147f44e7f6bc020e9c1d2e1b1bb1d0570678e7f79d7951412dc286f387b86b  guix-build-6f77d03c5a40/output/riscv64-linux-gnu/bitcoin-6f77d03c5a40-riscv64-linux-gnu.tar.gz\r\n93bfe759fd41b673fcf777fb8549334265aa1186f92ef07005a4915ec9a90d8f  guix-build-6f77d03c5a40/output/x86_64-apple-darwin/SHA256SUMS.part\r\n68e5ed0e70e57a519a144f7a402bd2dc6c4d8da33c242ec9271c93fcfd5b6c72  guix-build-6f77d03c5a40/output/x86_64-apple-darwin/bitcoin-6f77d03c5a40-x86_64-apple-darwin-unsigned.dmg\r\n4e6a886612ce09efecfa7f05bd7dcc54d700943f627fd2df0f965451688645f3  guix-build-6f77d03c5a40/output/x86_64-apple-darwin/bitcoin-6f77d03c5a40-x86_64-apple-darwin-unsigned.tar.gz\r\n57586a51eb8eafeb654a9e771c2f5bfb1a6495a5cf956bc6584c2d274ab164fa  guix-build-6f77d03c5a40/output/x86_64-apple-darwin/bitcoin-6f77d03c5a40-x86_64-apple-darwin.tar.gz\r\n9049d487adc08aa0d767fb5b9b0f55e0f980db1587c6d609fc8b60d9c40ea98b  guix-build-6f77d03c5a40/output/x86_64-linux-gnu/SHA256SUMS.part\r\nd8b3f30bf6e181f7bba63788ca7dde297c0b197877ab9b43b97e5c1b0b53b3dd  guix-build-6f77d03c5a40/output/x86_64-linux-gnu/bitcoin-6f77d03c5a40-x86_64-linux-gnu-debug.tar.gz\r\nabacdbb32354a1d5e99736d04fa756aa572bef6592e13ed8d89e623a6f6c10eb  guix-build-6f77d03c5a40/output/x86_64-linux-gnu/bitcoin-6f77d03c5a40-x86_64-linux-gnu.tar.gz\r\n5926d8d97cf8f60bad6324da44712107bced947686432ca029bdcad69a2cbe26  guix-build-6f77d03c5a40/output/x86_64-w64-mingw32/SHA256SUMS.part\r\n2ea8976e6d756fbaa1d2b16004621a271c664c804dcf3ef620830411f0a00841  guix-build-6f77d03c5a40/output/x86_64-w64-mingw32/bitcoin-6f77d03c5a40-win64-debug.zip\r\ncbf4e3affc3ee6dedaf4ec9fc8810abcbba33a1933a83a65e74669b790f792e1  guix-build-6f77d03c5a40/output/x86_64-w64-mingw32/bitcoin-6f77d03c5a40-win64-setup-unsigned.exe\r\n819f773b43ab5ae13efda7a1caed44894d1a268d08959bc0b497a9d7a24d32cd  guix-build-6f77d03c5a40/output/x86_64-w64-mingw32/bitcoin-6f77d03c5a40-win64-unsigned.tar.gz\r\n361d404499403f318970ed6b1706cecb827a986053b0607c7c5eb2617302f2fd  guix-build-6f77d03c5a40/output/x86_64-w64-mingw32/bitcoin-6f77d03c5a40-win64.zip\r\n```",
      "user": {
        "login": "jarolrod",
        "id": 23396902,
        "node_id": "MDQ6VXNlcjIzMzk2OTAy",
        "avatar_url": "https://avatars.githubusercontent.com/u/23396902?v=4",
        "gravatar_id": "",
        "url": "https://api.github.com/users/jarolrod",
        "html_url": "https://github.com/jarolrod",
        "followers_url": "https://api.github.com/users/jarolrod/followers",
        "following_url": "https://api.github.com/users/jarolrod/following%7B/other_user%7D",
        "gists_url": "https://api.github.com/users/jarolrod/gists%7B/gist_id%7D",
        "starred_url": "https://api.github.com/users/jarolrod/starred%7B/owner%7D%7B/repo%7D",
        "subscriptions_url": "https://api.github.com/users/jarolrod/subscriptions",
        "organizations_url": "https://api.github.com/users/jarolrod/orgs",
        "repos_url": "https://api.github.com/users/jarolrod/repos",
        "events_url": "https://api.github.com/users/jarolrod/events%7B/privacy%7D",
        "received_events_url": "https://api.github.com/users/jarolrod/received_events",
        "type": "User",
        "site_admin": false
      },
      "html_url": "https://github.com/bitcoin/bitcoin/pull/25037#issuecomment-1321729075",
      "issue_url": "https://api.github.com/repos/bitcoin/bitcoin/issues/25037"
    },
    {
      "event": "commented",
      "id": 1337468627,
      "node_id": "IC_kwDOABII585PuCbT",
      "url": "https://api.github.com/repos/bitcoin/bitcoin/issues/comments/1337468627",
      "actor": {
        "login": "fanquake",
        "id": 863730,
        "node_id": "MDQ6VXNlcjg2MzczMA==",
        "avatar_url": "https://avatars.githubusercontent.com/u/863730?v=4",
        "gravatar_id": "",
        "url": "https://api.github.com/users/fanquake",
        "html_url": "https://github.com/fanquake",
        "followers_url": "https://api.github.com/users/fanquake/followers",
        "following_url": "https://api.github.com/users/fanquake/following%7B/other_user%7D",
        "gists_url": "https://api.github.com/users/fanquake/gists%7B/gist_id%7D",
        "starred_url": "https://api.github.com/users/fanquake/starred%7B/owner%7D%7B/repo%7D",
        "subscriptions_url": "https://api.github.com/users/fanquake/subscriptions",
        "organizations_url": "https://api.github.com/users/fanquake/orgs",
        "repos_url": "https://api.github.com/users/fanquake/repos",
        "events_url": "https://api.github.com/users/fanquake/events%7B/privacy%7D",
        "received_events_url": "https://api.github.com/users/fanquake/received_events",
        "type": "User",
        "site_admin": false
      },
      "commit_id": null,
      "commit_url": null,
      "created_at": "2022-12-05T14:30:24Z",
      "updated_at": "2022-12-05T14:30:24Z",
      "author_association": "MEMBER",
      "body": "~0. I don't think introducing the macro, and tying it into the boost usage check is much of an improvement. It also means it becomes harder to remove targets from that list when they become Boost-free?\r\n\r\nThe `bitcoin-util` bug (i.e configure failing with the invocation from the PR description), can be fixed with this diff:\r\n```diff\r\ndiff --git a/configure.ac b/configure.ac\r\nindex 541f31e3f0..d00b2dbdba 100644\r\n--- a/configure.ac\r\n+++ b/configure.ac\r\n@@ -1870,7 +1870,7 @@ else\r\n   AC_MSG_RESULT([no])\r\n fi\r\n \r\n-if test \"$build_bitcoin_wallet$build_bitcoin_cli$build_bitcoin_tx$build_bitcoin_libs$build_bitcoind$bitcoin_enable_qt$enable_fuzz_binary$use_bench$use_tests\" = \"nonononononononono\"; then\r\n+if test \"$build_bitcoin_wallet$build_bitcoin_cli$build_bitcoin_tx$build_bitcoin_util$build_bitcoin_libs$build_bitcoind$bitcoin_enable_qt$enable_fuzz_binary$use_bench$use_tests\" = \"nononononononononono\"; then\r\n   AC_MSG_ERROR([No targets! Please specify at least one of: --with-utils --with-libs --with-daemon --with-gui --enable-fuzz(-binary) --enable-bench or --enable-tests])\r\n fi\r\n```",
      "user": {
        "login": "fanquake",
        "id": 863730,
        "node_id": "MDQ6VXNlcjg2MzczMA==",
        "avatar_url": "https://avatars.githubusercontent.com/u/863730?v=4",
        "gravatar_id": "",
        "url": "https://api.github.com/users/fanquake",
        "html_url": "https://github.com/fanquake",
        "followers_url": "https://api.github.com/users/fanquake/followers",
        "following_url": "https://api.github.com/users/fanquake/following%7B/other_user%7D",
        "gists_url": "https://api.github.com/users/fanquake/gists%7B/gist_id%7D",
        "starred_url": "https://api.github.com/users/fanquake/starred%7B/owner%7D%7B/repo%7D",
        "subscriptions_url": "https://api.github.com/users/fanquake/subscriptions",
        "organizations_url": "https://api.github.com/users/fanquake/orgs",
        "repos_url": "https://api.github.com/users/fanquake/repos",
        "events_url": "https://api.github.com/users/fanquake/events%7B/privacy%7D",
        "received_events_url": "https://api.github.com/users/fanquake/received_events",
        "type": "User",
        "site_admin": false
      },
      "html_url": "https://github.com/bitcoin/bitcoin/pull/25037#issuecomment-1337468627",
      "issue_url": "https://api.github.com/repos/bitcoin/bitcoin/issues/25037"
    },
    {
      "event": "referenced",
      "id": 8163119786,
      "node_id": "REFE_lADOABII585I0MfGzwAAAAHmj1Kq",
      "url": "https://api.github.com/repos/bitcoin/bitcoin/issues/events/8163119786",
      "actor": {
        "login": "fanquake",
        "id": 863730,
        "node_id": "MDQ6VXNlcjg2MzczMA==",
        "avatar_url": "https://avatars.githubusercontent.com/u/863730?v=4",
        "gravatar_id": "",
        "url": "https://api.github.com/users/fanquake",
        "html_url": "https://github.com/fanquake",
        "followers_url": "https://api.github.com/users/fanquake/followers",
        "following_url": "https://api.github.com/users/fanquake/following%7B/other_user%7D",
        "gists_url": "https://api.github.com/users/fanquake/gists%7B/gist_id%7D",
        "starred_url": "https://api.github.com/users/fanquake/starred%7B/owner%7D%7B/repo%7D",
        "subscriptions_url": "https://api.github.com/users/fanquake/subscriptions",
        "organizations_url": "https://api.github.com/users/fanquake/orgs",
        "repos_url": "https://api.github.com/users/fanquake/repos",
        "events_url": "https://api.github.com/users/fanquake/events%7B/privacy%7D",
        "received_events_url": "https://api.github.com/users/fanquake/received_events",
        "type": "User",
        "site_admin": false
      },
      "commit_id": "0f883df7a5430d6b229a2f190fe7daab24802ebf",
      "commit_url": "https://api.github.com/repos/fanquake/bitcoin/commits/0f883df7a5430d6b229a2f190fe7daab24802ebf",
      "created_at": "2023-01-05T19:09:50Z"
    },
    {
      "event": "cross-referenced",
      "id": null,
      "node_id": null,
      "url": null,
      "actor": {
        "login": "fanquake",
        "id": 863730,
        "node_id": "MDQ6VXNlcjg2MzczMA==",
        "avatar_url": "https://avatars.githubusercontent.com/u/863730?v=4",
        "gravatar_id": "",
        "url": "https://api.github.com/users/fanquake",
        "html_url": "https://github.com/fanquake",
        "followers_url": "https://api.github.com/users/fanquake/followers",
        "following_url": "https://api.github.com/users/fanquake/following%7B/other_user%7D",
        "gists_url": "https://api.github.com/users/fanquake/gists%7B/gist_id%7D",
        "starred_url": "https://api.github.com/users/fanquake/starred%7B/owner%7D%7B/repo%7D",
        "subscriptions_url": "https://api.github.com/users/fanquake/subscriptions",
        "organizations_url": "https://api.github.com/users/fanquake/orgs",
        "repos_url": "https://api.github.com/users/fanquake/repos",
        "events_url": "https://api.github.com/users/fanquake/events%7B/privacy%7D",
        "received_events_url": "https://api.github.com/users/fanquake/received_events",
        "type": "User",
        "site_admin": false
      },
      "commit_id": null,
      "commit_url": null,
      "created_at": "2023-01-05T19:17:55Z",
      "updated_at": "2023-01-05T19:17:55Z",
      "source": {
        "issue": {
          "id": 1521256648,
          "node_id": "PR_kwDOABII585Gv62C",
          "url": "https://api.github.com/repos/bitcoin/bitcoin/issues/26824",
          "repository_url": "https://api.github.com/repos/bitcoin/bitcoin",
          "labels_url": "https://api.github.com/repos/bitcoin/bitcoin/issues/26824/labels%7B/name%7D",
          "comments_url": "https://api.github.com/repos/bitcoin/bitcoin/issues/26824/comments",
          "events_url": "https://api.github.com/repos/bitcoin/bitcoin/issues/26824/events",
          "html_url": "https://github.com/bitcoin/bitcoin/pull/26824",
          "number": 26824,
          "state": "closed",
          "state_reason": null,
          "title": "build: fix configuring with only bitcoin-util",
          "body": "Fixes the issue presented in #25037 in a single (easily backportable) diff, with no additional refactoring/changes.\r\n\r\nCan be tested with:\r\n```bash\r\n./configure \\\r\n  --disable-tests \\\r\n  --disable-bench \\\r\n  --without-libs \\\r\n  --without-daemon \\\r\n  --without-gui \\\r\n  --disable-fuzz-binary \\\r\n  --without-utils \\\r\n  --enable-util-util\r\n```",
          "user": {
            "login": "fanquake",
            "id": 863730,
            "node_id": "MDQ6VXNlcjg2MzczMA==",
            "avatar_url": "https://avatars.githubusercontent.com/u/863730?v=4",
            "gravatar_id": "",
            "url": "https://api.github.com/users/fanquake",
            "html_url": "https://github.com/fanquake",
            "followers_url": "https://api.github.com/users/fanquake/followers",
            "following_url": "https://api.github.com/users/fanquake/following%7B/other_user%7D",
            "gists_url": "https://api.github.com/users/fanquake/gists%7B/gist_id%7D",
            "starred_url": "https://api.github.com/users/fanquake/starred%7B/owner%7D%7B/repo%7D",
            "subscriptions_url": "https://api.github.com/users/fanquake/subscriptions",
            "organizations_url": "https://api.github.com/users/fanquake/orgs",
            "repos_url": "https://api.github.com/users/fanquake/repos",
            "events_url": "https://api.github.com/users/fanquake/events%7B/privacy%7D",
            "received_events_url": "https://api.github.com/users/fanquake/received_events",
            "type": "User",
            "site_admin": false
          },
          "labels": [
            {
              "id": 61889416,
              "node_id": "MDU6TGFiZWw2MTg4OTQxNg==",
              "url": "https://api.github.com/repos/bitcoin/bitcoin/labels/Build%20system",
              "name": "Build system",
              "color": "5319e7",
              "default": false
            }
          ],
          "assignees": [],
          "author_association": "MEMBER",
          "locked": false,
          "comments": 2,
          "pull_request": {
            "url": "https://api.github.com/repos/bitcoin/bitcoin/pulls/26824",
            "html_url": "https://github.com/bitcoin/bitcoin/pull/26824",
            "diff_url": "https://github.com/bitcoin/bitcoin/pull/26824.diff",
            "patch_url": "https://github.com/bitcoin/bitcoin/pull/26824.patch"
          },
          "closed_at": "2023-01-13T15:59:12Z",
          "created_at": "2023-01-05T19:17:55Z",
          "updated_at": "2023-01-13T15:59:26Z"
        },
        "type": "issue"
      }
    },
    {
      "event": "commented",
      "id": 1381996777,
      "node_id": "IC_kwDOABII585SX5jp",
      "url": "https://api.github.com/repos/bitcoin/bitcoin/issues/comments/1381996777",
      "actor": {
        "login": "hebasto",
        "id": 32963518,
        "node_id": "MDQ6VXNlcjMyOTYzNTE4",
        "avatar_url": "https://avatars.githubusercontent.com/u/32963518?v=4",
        "gravatar_id": "",
        "url": "https://api.github.com/users/hebasto",
        "html_url": "https://github.com/hebasto",
        "followers_url": "https://api.github.com/users/hebasto/followers",
        "following_url": "https://api.github.com/users/hebasto/following%7B/other_user%7D",
        "gists_url": "https://api.github.com/users/hebasto/gists%7B/gist_id%7D",
        "starred_url": "https://api.github.com/users/hebasto/starred%7B/owner%7D%7B/repo%7D",
        "subscriptions_url": "https://api.github.com/users/hebasto/subscriptions",
        "organizations_url": "https://api.github.com/users/hebasto/orgs",
        "repos_url": "https://api.github.com/users/hebasto/repos",
        "events_url": "https://api.github.com/users/hebasto/events%7B/privacy%7D",
        "received_events_url": "https://api.github.com/users/hebasto/received_events",
        "type": "User",
        "site_admin": false
      },
      "commit_id": null,
      "commit_url": null,
      "created_at": "2023-01-13T15:10:03Z",
      "updated_at": "2023-01-13T15:10:03Z",
      "author_association": "MEMBER",
      "body": "Closing in favour of #26824.",
      "user": {
        "login": "hebasto",
        "id": 32963518,
        "node_id": "MDQ6VXNlcjMyOTYzNTE4",
        "avatar_url": "https://avatars.githubusercontent.com/u/32963518?v=4",
        "gravatar_id": "",
        "url": "https://api.github.com/users/hebasto",
        "html_url": "https://github.com/hebasto",
        "followers_url": "https://api.github.com/users/hebasto/followers",
        "following_url": "https://api.github.com/users/hebasto/following%7B/other_user%7D",
        "gists_url": "https://api.github.com/users/hebasto/gists%7B/gist_id%7D",
        "starred_url": "https://api.github.com/users/hebasto/starred%7B/owner%7D%7B/repo%7D",
        "subscriptions_url": "https://api.github.com/users/hebasto/subscriptions",
        "organizations_url": "https://api.github.com/users/hebasto/orgs",
        "repos_url": "https://api.github.com/users/hebasto/repos",
        "events_url": "https://api.github.com/users/hebasto/events%7B/privacy%7D",
        "received_events_url": "https://api.github.com/users/hebasto/received_events",
        "type": "User",
        "site_admin": false
      },
      "html_url": "https://github.com/bitcoin/bitcoin/pull/25037#issuecomment-1381996777",
      "issue_url": "https://api.github.com/repos/bitcoin/bitcoin/issues/25037"
    },
    {
      "event": "closed",
      "id": 8221704723,
      "node_id": "CE_lADOABII585I0MfGzwAAAAHqDUIT",
      "url": "https://api.github.com/repos/bitcoin/bitcoin/issues/events/8221704723",
      "actor": {
        "login": "hebasto",
        "id": 32963518,
        "node_id": "MDQ6VXNlcjMyOTYzNTE4",
        "avatar_url": "https://avatars.githubusercontent.com/u/32963518?v=4",
        "gravatar_id": "",
        "url": "https://api.github.com/users/hebasto",
        "html_url": "https://github.com/hebasto",
        "followers_url": "https://api.github.com/users/hebasto/followers",
        "following_url": "https://api.github.com/users/hebasto/following%7B/other_user%7D",
        "gists_url": "https://api.github.com/users/hebasto/gists%7B/gist_id%7D",
        "starred_url": "https://api.github.com/users/hebasto/starred%7B/owner%7D%7B/repo%7D",
        "subscriptions_url": "https://api.github.com/users/hebasto/subscriptions",
        "organizations_url": "https://api.github.com/users/hebasto/orgs",
        "repos_url": "https://api.github.com/users/hebasto/repos",
        "events_url": "https://api.github.com/users/hebasto/events%7B/privacy%7D",
        "received_events_url": "https://api.github.com/users/hebasto/received_events",
        "type": "User",
        "site_admin": false
      },
      "commit_id": null,
      "commit_url": null,
      "created_at": "2023-01-13T15:10:08Z"
    },
    {
      "event": "referenced",
      "id": 8222126414,
      "node_id": "REFE_lADOABII585I0MfGzwAAAAHqE7FO",
      "url": "https://api.github.com/repos/bitcoin/bitcoin/issues/events/8222126414",
      "actor": {
        "login": "fanquake",
        "id": 863730,
        "node_id": "MDQ6VXNlcjg2MzczMA==",
        "avatar_url": "https://avatars.githubusercontent.com/u/863730?v=4",
        "gravatar_id": "",
        "url": "https://api.github.com/users/fanquake",
        "html_url": "https://github.com/fanquake",
        "followers_url": "https://api.github.com/users/fanquake/followers",
        "following_url": "https://api.github.com/users/fanquake/following%7B/other_user%7D",
        "gists_url": "https://api.github.com/users/fanquake/gists%7B/gist_id%7D",
        "starred_url": "https://api.github.com/users/fanquake/starred%7B/owner%7D%7B/repo%7D",
        "subscriptions_url": "https://api.github.com/users/fanquake/subscriptions",
        "organizations_url": "https://api.github.com/users/fanquake/orgs",
        "repos_url": "https://api.github.com/users/fanquake/repos",
        "events_url": "https://api.github.com/users/fanquake/events%7B/privacy%7D",
        "received_events_url": "https://api.github.com/users/fanquake/received_events",
        "type": "User",
        "site_admin": false
      },
      "commit_id": "8915e4d9f5b7e360f70d2f67baa99cca451a10da",
      "commit_url": "https://api.github.com/repos/bitcoin/bitcoin/commits/8915e4d9f5b7e360f70d2f67baa99cca451a10da",
      "created_at": "2023-01-13T15:56:25Z"
    },
    {
      "event": "referenced",
      "id": 8376379011,
      "node_id": "REFE_lADOABII585I0MfGzwAAAAHzRWaD",
      "url": "https://api.github.com/repos/bitcoin/bitcoin/issues/events/8376379011",
      "actor": {
        "login": "aguycalled",
        "id": 24814046,
        "node_id": "MDQ6VXNlcjI0ODE0MDQ2",
        "avatar_url": "https://avatars.githubusercontent.com/u/24814046?v=4",
        "gravatar_id": "",
        "url": "https://api.github.com/users/aguycalled",
        "html_url": "https://github.com/aguycalled",
        "followers_url": "https://api.github.com/users/aguycalled/followers",
        "following_url": "https://api.github.com/users/aguycalled/following%7B/other_user%7D",
        "gists_url": "https://api.github.com/users/aguycalled/gists%7B/gist_id%7D",
        "starred_url": "https://api.github.com/users/aguycalled/starred%7B/owner%7D%7B/repo%7D",
        "subscriptions_url": "https://api.github.com/users/aguycalled/subscriptions",
        "organizations_url": "https://api.github.com/users/aguycalled/orgs",
        "repos_url": "https://api.github.com/users/aguycalled/repos",
        "events_url": "https://api.github.com/users/aguycalled/events%7B/privacy%7D",
        "received_events_url": "https://api.github.com/users/aguycalled/received_events",
        "type": "User",
        "site_admin": false
      },
      "commit_id": "118485613302a7dc200673544a48ffa64fb63ec5",
      "commit_url": "https://api.github.com/repos/navcoin/navcoin/commits/118485613302a7dc200673544a48ffa64fb63ec5",
      "created_at": "2023-01-27T19:20:47Z"
    }
  ],
  "comments": []
}