{
  "type": "pull",
  "pull": {
    "url": "https://api.github.com/repos/bitcoin/bitcoin/pulls/25553",
    "id": 988617696,
    "node_id": "PR_kwDOABII58467Rvg",
    "html_url": "https://github.com/bitcoin/bitcoin/pull/25553",
    "diff_url": "https://github.com/bitcoin/bitcoin/pull/25553.diff",
    "patch_url": "https://github.com/bitcoin/bitcoin/pull/25553.patch",
    "issue_url": "https://api.github.com/repos/bitcoin/bitcoin/issues/25553",
    "commits_url": "https://api.github.com/repos/bitcoin/bitcoin/pulls/25553/commits",
    "review_comments_url": "https://api.github.com/repos/bitcoin/bitcoin/pulls/25553/comments",
    "review_comment_url": "https://api.github.com/repos/bitcoin/bitcoin/pulls/comments%7B/number%7D",
    "comments_url": "https://api.github.com/repos/bitcoin/bitcoin/issues/25553/comments",
    "statuses_url": "https://api.github.com/repos/bitcoin/bitcoin/statuses/03c724f3d41a3e992b8888795346ff9058be6b72",
    "number": 25553,
    "state": "closed",
    "locked": false,
    "maintainer_can_modify": false,
    "title": "test: Rename inner key to internal key",
    "user": {
      "login": "michaelfolkson",
      "id": 16323900,
      "node_id": "MDQ6VXNlcjE2MzIzOTAw",
      "avatar_url": "https://avatars.githubusercontent.com/u/16323900?v=4",
      "gravatar_id": "",
      "url": "https://api.github.com/users/michaelfolkson",
      "html_url": "https://github.com/michaelfolkson",
      "followers_url": "https://api.github.com/users/michaelfolkson/followers",
      "following_url": "https://api.github.com/users/michaelfolkson/following%7B/other_user%7D",
      "gists_url": "https://api.github.com/users/michaelfolkson/gists%7B/gist_id%7D",
      "starred_url": "https://api.github.com/users/michaelfolkson/starred%7B/owner%7D%7B/repo%7D",
      "subscriptions_url": "https://api.github.com/users/michaelfolkson/subscriptions",
      "organizations_url": "https://api.github.com/users/michaelfolkson/orgs",
      "repos_url": "https://api.github.com/users/michaelfolkson/repos",
      "events_url": "https://api.github.com/users/michaelfolkson/events%7B/privacy%7D",
      "received_events_url": "https://api.github.com/users/michaelfolkson/received_events",
      "type": "User",
      "site_admin": false
    },
    "body": "Remove Taproot specific references in functional tests to \"inner key\" and replace with \"internal key\" as used in [BIP 341](https://github.com/bitcoin/bips/blob/master/bip-0341.mediawiki#script-validation-rules)",
    "labels": [
      {
        "id": 62963516,
        "node_id": "MDU6TGFiZWw2Mjk2MzUxNg==",
        "url": "https://api.github.com/repos/bitcoin/bitcoin/labels/Tests",
        "name": "Tests",
        "color": "d4c5f9",
        "default": false
      }
    ],
    "created_at": "2022-07-06T10:34:29Z",
    "updated_at": "2022-11-08T10:39:55Z",
    "closed_at": "2022-11-08T10:39:46Z",
    "mergeable_state": "unknown",
    "merge_commit_sha": "ca71c5fd9526b744bf294e005f4256594e847c76",
    "assignees": [],
    "requested_reviewers": [],
    "requested_teams": [],
    "head": {
      "label": "michaelfolkson:2022-07-test-internal-key",
      "ref": "2022-07-test-internal-key",
      "sha": "03c724f3d41a3e992b8888795346ff9058be6b72",
      "user": {
        "login": "michaelfolkson",
        "id": 16323900,
        "node_id": "MDQ6VXNlcjE2MzIzOTAw",
        "avatar_url": "https://avatars.githubusercontent.com/u/16323900?v=4",
        "gravatar_id": "",
        "url": "https://api.github.com/users/michaelfolkson",
        "html_url": "https://github.com/michaelfolkson",
        "followers_url": "https://api.github.com/users/michaelfolkson/followers",
        "following_url": "https://api.github.com/users/michaelfolkson/following%7B/other_user%7D",
        "gists_url": "https://api.github.com/users/michaelfolkson/gists%7B/gist_id%7D",
        "starred_url": "https://api.github.com/users/michaelfolkson/starred%7B/owner%7D%7B/repo%7D",
        "subscriptions_url": "https://api.github.com/users/michaelfolkson/subscriptions",
        "organizations_url": "https://api.github.com/users/michaelfolkson/orgs",
        "repos_url": "https://api.github.com/users/michaelfolkson/repos",
        "events_url": "https://api.github.com/users/michaelfolkson/events%7B/privacy%7D",
        "received_events_url": "https://api.github.com/users/michaelfolkson/received_events",
        "type": "User",
        "site_admin": false
      },
      "repo": {
        "id": 193345645,
        "node_id": "MDEwOlJlcG9zaXRvcnkxOTMzNDU2NDU=",
        "name": "bitcoin",
        "full_name": "michaelfolkson/bitcoin",
        "owner": {
          "login": "michaelfolkson",
          "id": 16323900,
          "node_id": "MDQ6VXNlcjE2MzIzOTAw",
          "avatar_url": "https://avatars.githubusercontent.com/u/16323900?v=4",
          "gravatar_id": "",
          "url": "https://api.github.com/users/michaelfolkson",
          "html_url": "https://github.com/michaelfolkson",
          "followers_url": "https://api.github.com/users/michaelfolkson/followers",
          "following_url": "https://api.github.com/users/michaelfolkson/following%7B/other_user%7D",
          "gists_url": "https://api.github.com/users/michaelfolkson/gists%7B/gist_id%7D",
          "starred_url": "https://api.github.com/users/michaelfolkson/starred%7B/owner%7D%7B/repo%7D",
          "subscriptions_url": "https://api.github.com/users/michaelfolkson/subscriptions",
          "organizations_url": "https://api.github.com/users/michaelfolkson/orgs",
          "repos_url": "https://api.github.com/users/michaelfolkson/repos",
          "events_url": "https://api.github.com/users/michaelfolkson/events%7B/privacy%7D",
          "received_events_url": "https://api.github.com/users/michaelfolkson/received_events",
          "type": "User",
          "site_admin": false
        },
        "private": false,
        "html_url": "https://github.com/michaelfolkson/bitcoin",
        "description": "Bitcoin Core integration/staging tree",
        "fork": true,
        "url": "https://api.github.com/repos/michaelfolkson/bitcoin",
        "archive_url": "https://api.github.com/repos/michaelfolkson/bitcoin/%7Barchive_format%7D%7B/ref%7D",
        "assignees_url": "https://api.github.com/repos/michaelfolkson/bitcoin/assignees%7B/user%7D",
        "blobs_url": "https://api.github.com/repos/michaelfolkson/bitcoin/git/blobs%7B/sha%7D",
        "branches_url": "https://api.github.com/repos/michaelfolkson/bitcoin/branches%7B/branch%7D",
        "collaborators_url": "https://api.github.com/repos/michaelfolkson/bitcoin/collaborators%7B/collaborator%7D",
        "comments_url": "https://api.github.com/repos/michaelfolkson/bitcoin/comments%7B/number%7D",
        "commits_url": "https://api.github.com/repos/michaelfolkson/bitcoin/commits%7B/sha%7D",
        "compare_url": "https://api.github.com/repos/michaelfolkson/bitcoin/compare/%7Bbase%7D...%7Bhead%7D",
        "contents_url": "https://api.github.com/repos/michaelfolkson/bitcoin/contents/%7B+path%7D",
        "contributors_url": "https://api.github.com/repos/michaelfolkson/bitcoin/contributors",
        "deployments_url": "https://api.github.com/repos/michaelfolkson/bitcoin/deployments",
        "downloads_url": "https://api.github.com/repos/michaelfolkson/bitcoin/downloads",
        "events_url": "https://api.github.com/repos/michaelfolkson/bitcoin/events",
        "forks_url": "https://api.github.com/repos/michaelfolkson/bitcoin/forks",
        "git_commits_url": "https://api.github.com/repos/michaelfolkson/bitcoin/git/commits%7B/sha%7D",
        "git_refs_url": "https://api.github.com/repos/michaelfolkson/bitcoin/git/refs%7B/sha%7D",
        "git_tags_url": "https://api.github.com/repos/michaelfolkson/bitcoin/git/tags%7B/sha%7D",
        "git_url": "git://github.com/michaelfolkson/bitcoin.git",
        "issue_comment_url": "https://api.github.com/repos/michaelfolkson/bitcoin/issues/comments%7B/number%7D",
        "issue_events_url": "https://api.github.com/repos/michaelfolkson/bitcoin/issues/events%7B/number%7D",
        "issues_url": "https://api.github.com/repos/michaelfolkson/bitcoin/issues%7B/number%7D",
        "keys_url": "https://api.github.com/repos/michaelfolkson/bitcoin/keys%7B/key_id%7D",
        "labels_url": "https://api.github.com/repos/michaelfolkson/bitcoin/labels%7B/name%7D",
        "languages_url": "https://api.github.com/repos/michaelfolkson/bitcoin/languages",
        "merges_url": "https://api.github.com/repos/michaelfolkson/bitcoin/merges",
        "milestones_url": "https://api.github.com/repos/michaelfolkson/bitcoin/milestones%7B/number%7D",
        "notifications_url": "https://api.github.com/repos/michaelfolkson/bitcoin/notifications%7B?since,all,participating}",
        "pulls_url": "https://api.github.com/repos/michaelfolkson/bitcoin/pulls%7B/number%7D",
        "releases_url": "https://api.github.com/repos/michaelfolkson/bitcoin/releases%7B/id%7D",
        "ssh_url": "git@github.com:michaelfolkson/bitcoin.git",
        "stargazers_url": "https://api.github.com/repos/michaelfolkson/bitcoin/stargazers",
        "statuses_url": "https://api.github.com/repos/michaelfolkson/bitcoin/statuses/%7Bsha%7D",
        "subscribers_url": "https://api.github.com/repos/michaelfolkson/bitcoin/subscribers",
        "subscription_url": "https://api.github.com/repos/michaelfolkson/bitcoin/subscription",
        "tags_url": "https://api.github.com/repos/michaelfolkson/bitcoin/tags",
        "teams_url": "https://api.github.com/repos/michaelfolkson/bitcoin/teams",
        "trees_url": "https://api.github.com/repos/michaelfolkson/bitcoin/git/trees%7B/sha%7D",
        "clone_url": "https://github.com/michaelfolkson/bitcoin.git",
        "hooks_url": "https://api.github.com/repos/michaelfolkson/bitcoin/hooks",
        "svn_url": "https://github.com/michaelfolkson/bitcoin",
        "homepage": "https://bitcoincore.org/en/download",
        "language": "C++",
        "forks_count": 0,
        "stargazers_count": 0,
        "watchers_count": 0,
        "size": 191956,
        "default_branch": "master",
        "open_issues_count": 0,
        "is_template": false,
        "topics": [],
        "has_issues": true,
        "has_projects": true,
        "has_wiki": false,
        "has_pages": false,
        "has_downloads": false,
        "archived": false,
        "disabled": false,
        "visibility": "public",
        "pushed_at": "2022-11-08T10:39:55Z",
        "created_at": "2019-06-23T12:31:11Z",
        "updated_at": "2019-11-05T17:16:14Z",
        "license": {
          "key": "mit",
          "name": "MIT License",
          "node_id": "MDc6TGljZW5zZTEz",
          "spdx_id": "MIT",
          "url": "https://api.github.com/licenses/mit",
          "html_url": null,
          "description": null,
          "implementation": null,
          "permissions": null,
          "conditions": null,
          "limitations": null,
          "body": null,
          "featured": null
        }
      }
    },
    "base": {
      "label": "bitcoin:master",
      "ref": "master",
      "sha": "29d540b7ada890dd588c4825d40c27c5e6f20061",
      "user": {
        "login": "bitcoin",
        "id": 528860,
        "node_id": "MDEyOk9yZ2FuaXphdGlvbjUyODg2MA==",
        "avatar_url": "https://avatars.githubusercontent.com/u/528860?v=4",
        "gravatar_id": "",
        "url": "https://api.github.com/users/bitcoin",
        "html_url": "https://github.com/bitcoin",
        "followers_url": "https://api.github.com/users/bitcoin/followers",
        "following_url": "https://api.github.com/users/bitcoin/following%7B/other_user%7D",
        "gists_url": "https://api.github.com/users/bitcoin/gists%7B/gist_id%7D",
        "starred_url": "https://api.github.com/users/bitcoin/starred%7B/owner%7D%7B/repo%7D",
        "subscriptions_url": "https://api.github.com/users/bitcoin/subscriptions",
        "organizations_url": "https://api.github.com/users/bitcoin/orgs",
        "repos_url": "https://api.github.com/users/bitcoin/repos",
        "events_url": "https://api.github.com/users/bitcoin/events%7B/privacy%7D",
        "received_events_url": "https://api.github.com/users/bitcoin/received_events",
        "type": "Organization",
        "site_admin": false
      },
      "repo": {
        "id": 1181927,
        "node_id": "MDEwOlJlcG9zaXRvcnkxMTgxOTI3",
        "name": "bitcoin",
        "full_name": "bitcoin/bitcoin",
        "owner": {
          "login": "bitcoin",
          "id": 528860,
          "node_id": "MDEyOk9yZ2FuaXphdGlvbjUyODg2MA==",
          "avatar_url": "https://avatars.githubusercontent.com/u/528860?v=4",
          "gravatar_id": "",
          "url": "https://api.github.com/users/bitcoin",
          "html_url": "https://github.com/bitcoin",
          "followers_url": "https://api.github.com/users/bitcoin/followers",
          "following_url": "https://api.github.com/users/bitcoin/following%7B/other_user%7D",
          "gists_url": "https://api.github.com/users/bitcoin/gists%7B/gist_id%7D",
          "starred_url": "https://api.github.com/users/bitcoin/starred%7B/owner%7D%7B/repo%7D",
          "subscriptions_url": "https://api.github.com/users/bitcoin/subscriptions",
          "organizations_url": "https://api.github.com/users/bitcoin/orgs",
          "repos_url": "https://api.github.com/users/bitcoin/repos",
          "events_url": "https://api.github.com/users/bitcoin/events%7B/privacy%7D",
          "received_events_url": "https://api.github.com/users/bitcoin/received_events",
          "type": "Organization",
          "site_admin": false
        },
        "private": false,
        "html_url": "https://github.com/bitcoin/bitcoin",
        "description": "Bitcoin Core integration/staging tree",
        "fork": false,
        "url": "https://api.github.com/repos/bitcoin/bitcoin",
        "archive_url": "https://api.github.com/repos/bitcoin/bitcoin/%7Barchive_format%7D%7B/ref%7D",
        "assignees_url": "https://api.github.com/repos/bitcoin/bitcoin/assignees%7B/user%7D",
        "blobs_url": "https://api.github.com/repos/bitcoin/bitcoin/git/blobs%7B/sha%7D",
        "branches_url": "https://api.github.com/repos/bitcoin/bitcoin/branches%7B/branch%7D",
        "collaborators_url": "https://api.github.com/repos/bitcoin/bitcoin/collaborators%7B/collaborator%7D",
        "comments_url": "https://api.github.com/repos/bitcoin/bitcoin/comments%7B/number%7D",
        "commits_url": "https://api.github.com/repos/bitcoin/bitcoin/commits%7B/sha%7D",
        "compare_url": "https://api.github.com/repos/bitcoin/bitcoin/compare/%7Bbase%7D...%7Bhead%7D",
        "contents_url": "https://api.github.com/repos/bitcoin/bitcoin/contents/%7B+path%7D",
        "contributors_url": "https://api.github.com/repos/bitcoin/bitcoin/contributors",
        "deployments_url": "https://api.github.com/repos/bitcoin/bitcoin/deployments",
        "downloads_url": "https://api.github.com/repos/bitcoin/bitcoin/downloads",
        "events_url": "https://api.github.com/repos/bitcoin/bitcoin/events",
        "forks_url": "https://api.github.com/repos/bitcoin/bitcoin/forks",
        "git_commits_url": "https://api.github.com/repos/bitcoin/bitcoin/git/commits%7B/sha%7D",
        "git_refs_url": "https://api.github.com/repos/bitcoin/bitcoin/git/refs%7B/sha%7D",
        "git_tags_url": "https://api.github.com/repos/bitcoin/bitcoin/git/tags%7B/sha%7D",
        "git_url": "git://github.com/bitcoin/bitcoin.git",
        "issue_comment_url": "https://api.github.com/repos/bitcoin/bitcoin/issues/comments%7B/number%7D",
        "issue_events_url": "https://api.github.com/repos/bitcoin/bitcoin/issues/events%7B/number%7D",
        "issues_url": "https://api.github.com/repos/bitcoin/bitcoin/issues%7B/number%7D",
        "keys_url": "https://api.github.com/repos/bitcoin/bitcoin/keys%7B/key_id%7D",
        "labels_url": "https://api.github.com/repos/bitcoin/bitcoin/labels%7B/name%7D",
        "languages_url": "https://api.github.com/repos/bitcoin/bitcoin/languages",
        "merges_url": "https://api.github.com/repos/bitcoin/bitcoin/merges",
        "milestones_url": "https://api.github.com/repos/bitcoin/bitcoin/milestones%7B/number%7D",
        "notifications_url": "https://api.github.com/repos/bitcoin/bitcoin/notifications%7B?since,all,participating}",
        "pulls_url": "https://api.github.com/repos/bitcoin/bitcoin/pulls%7B/number%7D",
        "releases_url": "https://api.github.com/repos/bitcoin/bitcoin/releases%7B/id%7D",
        "ssh_url": "git@github.com:bitcoin/bitcoin.git",
        "stargazers_url": "https://api.github.com/repos/bitcoin/bitcoin/stargazers",
        "statuses_url": "https://api.github.com/repos/bitcoin/bitcoin/statuses/%7Bsha%7D",
        "subscribers_url": "https://api.github.com/repos/bitcoin/bitcoin/subscribers",
        "subscription_url": "https://api.github.com/repos/bitcoin/bitcoin/subscription",
        "tags_url": "https://api.github.com/repos/bitcoin/bitcoin/tags",
        "teams_url": "https://api.github.com/repos/bitcoin/bitcoin/teams",
        "trees_url": "https://api.github.com/repos/bitcoin/bitcoin/git/trees%7B/sha%7D",
        "clone_url": "https://github.com/bitcoin/bitcoin.git",
        "hooks_url": "https://api.github.com/repos/bitcoin/bitcoin/hooks",
        "svn_url": "https://github.com/bitcoin/bitcoin",
        "homepage": "https://bitcoincore.org/en/download",
        "language": "C++",
        "forks_count": 35476,
        "stargazers_count": 70608,
        "watchers_count": 70608,
        "size": 236222,
        "default_branch": "master",
        "open_issues_count": 672,
        "is_template": false,
        "topics": [
          "bitcoin",
          "c-plus-plus",
          "cryptocurrency",
          "cryptography",
          "p2p"
        ],
        "has_issues": true,
        "has_projects": true,
        "has_wiki": false,
        "has_pages": false,
        "has_downloads": false,
        "archived": false,
        "disabled": false,
        "visibility": "public",
        "pushed_at": "2023-08-02T23:26:31Z",
        "created_at": "2010-12-19T15:16:43Z",
        "updated_at": "2023-08-02T18:21:18Z",
        "license": {
          "key": "mit",
          "name": "MIT License",
          "node_id": "MDc6TGljZW5zZTEz",
          "spdx_id": "MIT",
          "url": "https://api.github.com/licenses/mit",
          "html_url": null,
          "description": null,
          "implementation": null,
          "permissions": null,
          "conditions": null,
          "limitations": null,
          "body": null,
          "featured": null
        }
      }
    },
    "_links": {
      "self": {
        "href": "https://api.github.com/repos/bitcoin/bitcoin/pulls/25553"
      }
    },
    "author_association": "CONTRIBUTOR",
    "draft": false,
    "additions": 3,
    "deletions": 3,
    "changed_files": 2,
    "commits": 1,
    "review_comments": 0,
    "comments": 4
  },
  "events": [
    {
      "event": "committed",
      "id": null,
      "node_id": "C_kwDOABII59oAKDAzYzcyNGYzZDQxYTNlOTkyYjg4ODg3OTUzNDZmZjkwNThiZTZiNzI",
      "url": "https://api.github.com/repos/bitcoin/bitcoin/git/commits/03c724f3d41a3e992b8888795346ff9058be6b72",
      "actor": null,
      "commit_id": null,
      "commit_url": null,
      "created_at": null,
      "html_url": "https://github.com/bitcoin/bitcoin/commit/03c724f3d41a3e992b8888795346ff9058be6b72",
      "tree": {
        "sha": "50f5dc5111af1629bda4472483fae67561f700d4",
        "url": "https://api.github.com/repos/bitcoin/bitcoin/git/trees/50f5dc5111af1629bda4472483fae67561f700d4"
      },
      "verification": {
        "verified": false,
        "reason": "unsigned",
        "payload": null,
        "signature": null
      },
      "parents": [
        {
          "url": "https://api.github.com/repos/bitcoin/bitcoin/git/commits/691a08718beff31d1b821b192609ea3bfdb24d41",
          "sha": "691a08718beff31d1b821b192609ea3bfdb24d41",
          "html_url": "https://github.com/bitcoin/bitcoin/commit/691a08718beff31d1b821b192609ea3bfdb24d41"
        }
      ],
      "message": "test: Rename inner key to internal key",
      "committer": {
        "name": "Michael Folkson",
        "email": "michaelfolkson@gmail.com",
        "date": "2022-07-06T10:21:24Z"
      },
      "author": {
        "name": "Michael Folkson",
        "email": "michaelfolkson@gmail.com",
        "date": "2022-07-06T10:21:24Z"
      },
      "sha": "03c724f3d41a3e992b8888795346ff9058be6b72"
    },
    {
      "event": "labeled",
      "id": 6941603453,
      "node_id": "LE_lADOABII585NObm_zwAAAAGdwHZ9",
      "url": "https://api.github.com/repos/bitcoin/bitcoin/issues/events/6941603453",
      "actor": {
        "login": "fanquake",
        "id": 863730,
        "node_id": "MDQ6VXNlcjg2MzczMA==",
        "avatar_url": "https://avatars.githubusercontent.com/u/863730?v=4",
        "gravatar_id": "",
        "url": "https://api.github.com/users/fanquake",
        "html_url": "https://github.com/fanquake",
        "followers_url": "https://api.github.com/users/fanquake/followers",
        "following_url": "https://api.github.com/users/fanquake/following%7B/other_user%7D",
        "gists_url": "https://api.github.com/users/fanquake/gists%7B/gist_id%7D",
        "starred_url": "https://api.github.com/users/fanquake/starred%7B/owner%7D%7B/repo%7D",
        "subscriptions_url": "https://api.github.com/users/fanquake/subscriptions",
        "organizations_url": "https://api.github.com/users/fanquake/orgs",
        "repos_url": "https://api.github.com/users/fanquake/repos",
        "events_url": "https://api.github.com/users/fanquake/events%7B/privacy%7D",
        "received_events_url": "https://api.github.com/users/fanquake/received_events",
        "type": "User",
        "site_admin": false
      },
      "commit_id": null,
      "commit_url": null,
      "created_at": "2022-07-06T10:35:00Z",
      "label": {
        "name": "Tests",
        "color": "d4c5f9"
      }
    },
    {
      "event": "commented",
      "id": 1176152831,
      "node_id": "IC_kwDOABII585GGqr_",
      "url": "https://api.github.com/repos/bitcoin/bitcoin/issues/comments/1176152831",
      "actor": {
        "login": "aureleoules",
        "id": 22493292,
        "node_id": "MDQ6VXNlcjIyNDkzMjky",
        "avatar_url": "https://avatars.githubusercontent.com/u/22493292?v=4",
        "gravatar_id": "",
        "url": "https://api.github.com/users/aureleoules",
        "html_url": "https://github.com/aureleoules",
        "followers_url": "https://api.github.com/users/aureleoules/followers",
        "following_url": "https://api.github.com/users/aureleoules/following%7B/other_user%7D",
        "gists_url": "https://api.github.com/users/aureleoules/gists%7B/gist_id%7D",
        "starred_url": "https://api.github.com/users/aureleoules/starred%7B/owner%7D%7B/repo%7D",
        "subscriptions_url": "https://api.github.com/users/aureleoules/subscriptions",
        "organizations_url": "https://api.github.com/users/aureleoules/orgs",
        "repos_url": "https://api.github.com/users/aureleoules/repos",
        "events_url": "https://api.github.com/users/aureleoules/events%7B/privacy%7D",
        "received_events_url": "https://api.github.com/users/aureleoules/received_events",
        "type": "User",
        "site_admin": false
      },
      "commit_id": null,
      "commit_url": null,
      "created_at": "2022-07-06T12:19:19Z",
      "updated_at": "2022-07-06T12:19:19Z",
      "author_association": "MEMBER",
      "body": "LGTM",
      "user": {
        "login": "aureleoules",
        "id": 22493292,
        "node_id": "MDQ6VXNlcjIyNDkzMjky",
        "avatar_url": "https://avatars.githubusercontent.com/u/22493292?v=4",
        "gravatar_id": "",
        "url": "https://api.github.com/users/aureleoules",
        "html_url": "https://github.com/aureleoules",
        "followers_url": "https://api.github.com/users/aureleoules/followers",
        "following_url": "https://api.github.com/users/aureleoules/following%7B/other_user%7D",
        "gists_url": "https://api.github.com/users/aureleoules/gists%7B/gist_id%7D",
        "starred_url": "https://api.github.com/users/aureleoules/starred%7B/owner%7D%7B/repo%7D",
        "subscriptions_url": "https://api.github.com/users/aureleoules/subscriptions",
        "organizations_url": "https://api.github.com/users/aureleoules/orgs",
        "repos_url": "https://api.github.com/users/aureleoules/repos",
        "events_url": "https://api.github.com/users/aureleoules/events%7B/privacy%7D",
        "received_events_url": "https://api.github.com/users/aureleoules/received_events",
        "type": "User",
        "site_admin": false
      },
      "html_url": "https://github.com/bitcoin/bitcoin/pull/25553#issuecomment-1176152831",
      "issue_url": "https://api.github.com/repos/bitcoin/bitcoin/issues/25553"
    },
    {
      "event": "commented",
      "id": 1256075536,
      "node_id": "IC_kwDOABII585K3jEQ",
      "url": "https://api.github.com/repos/bitcoin/bitcoin/issues/comments/1256075536",
      "actor": {
        "login": "DrahtBot",
        "id": 39886733,
        "node_id": "MDQ6VXNlcjM5ODg2NzMz",
        "avatar_url": "https://avatars.githubusercontent.com/u/39886733?v=4",
        "gravatar_id": "",
        "url": "https://api.github.com/users/DrahtBot",
        "html_url": "https://github.com/DrahtBot",
        "followers_url": "https://api.github.com/users/DrahtBot/followers",
        "following_url": "https://api.github.com/users/DrahtBot/following%7B/other_user%7D",
        "gists_url": "https://api.github.com/users/DrahtBot/gists%7B/gist_id%7D",
        "starred_url": "https://api.github.com/users/DrahtBot/starred%7B/owner%7D%7B/repo%7D",
        "subscriptions_url": "https://api.github.com/users/DrahtBot/subscriptions",
        "organizations_url": "https://api.github.com/users/DrahtBot/orgs",
        "repos_url": "https://api.github.com/users/DrahtBot/repos",
        "events_url": "https://api.github.com/users/DrahtBot/events%7B/privacy%7D",
        "received_events_url": "https://api.github.com/users/DrahtBot/received_events",
        "type": "User",
        "site_admin": false
      },
      "commit_id": null,
      "commit_url": null,
      "created_at": "2022-09-23T11:05:12Z",
      "updated_at": "2022-11-07T20:31:40Z",
      "author_association": "CONTRIBUTOR",
      "body": "<!--e57a25ab6845829454e8d69fc972939a-->\n\nThe following sections might be updated with supplementary metadata relevant to reviewers and maintainers.\n\n<!--174a7506f384e20aa4161008e828411d-->\n### Conflicts\nNo conflicts as of last run.\n",
      "user": {
        "login": "DrahtBot",
        "id": 39886733,
        "node_id": "MDQ6VXNlcjM5ODg2NzMz",
        "avatar_url": "https://avatars.githubusercontent.com/u/39886733?v=4",
        "gravatar_id": "",
        "url": "https://api.github.com/users/DrahtBot",
        "html_url": "https://github.com/DrahtBot",
        "followers_url": "https://api.github.com/users/DrahtBot/followers",
        "following_url": "https://api.github.com/users/DrahtBot/following%7B/other_user%7D",
        "gists_url": "https://api.github.com/users/DrahtBot/gists%7B/gist_id%7D",
        "starred_url": "https://api.github.com/users/DrahtBot/starred%7B/owner%7D%7B/repo%7D",
        "subscriptions_url": "https://api.github.com/users/DrahtBot/subscriptions",
        "organizations_url": "https://api.github.com/users/DrahtBot/orgs",
        "repos_url": "https://api.github.com/users/DrahtBot/repos",
        "events_url": "https://api.github.com/users/DrahtBot/events%7B/privacy%7D",
        "received_events_url": "https://api.github.com/users/DrahtBot/received_events",
        "type": "User",
        "site_admin": false
      },
      "html_url": "https://github.com/bitcoin/bitcoin/pull/25553#issuecomment-1256075536",
      "issue_url": "https://api.github.com/repos/bitcoin/bitcoin/issues/25553"
    },
    {
      "event": "commented",
      "id": 1277782881,
      "node_id": "IC_kwDOABII585MKWth",
      "url": "https://api.github.com/repos/bitcoin/bitcoin/issues/comments/1277782881",
      "actor": {
        "login": "achow101",
        "id": 3782274,
        "node_id": "MDQ6VXNlcjM3ODIyNzQ=",
        "avatar_url": "https://avatars.githubusercontent.com/u/3782274?v=4",
        "gravatar_id": "",
        "url": "https://api.github.com/users/achow101",
        "html_url": "https://github.com/achow101",
        "followers_url": "https://api.github.com/users/achow101/followers",
        "following_url": "https://api.github.com/users/achow101/following%7B/other_user%7D",
        "gists_url": "https://api.github.com/users/achow101/gists%7B/gist_id%7D",
        "starred_url": "https://api.github.com/users/achow101/starred%7B/owner%7D%7B/repo%7D",
        "subscriptions_url": "https://api.github.com/users/achow101/subscriptions",
        "organizations_url": "https://api.github.com/users/achow101/orgs",
        "repos_url": "https://api.github.com/users/achow101/repos",
        "events_url": "https://api.github.com/users/achow101/events%7B/privacy%7D",
        "received_events_url": "https://api.github.com/users/achow101/received_events",
        "type": "User",
        "site_admin": false
      },
      "commit_id": null,
      "commit_url": null,
      "created_at": "2022-10-13T15:17:20Z",
      "updated_at": "2022-10-13T15:17:20Z",
      "author_association": "MEMBER",
      "body": "-0 on this.\r\n\r\nWhile \"inner key\" is technically incorrect, it is close enough to the real name that it is not confusing or misleading. I think we generally avoid renaming things as that makes bisecting/blaming more difficult. It's why we don't also just go through and fix every typo in the repo.",
      "user": {
        "login": "achow101",
        "id": 3782274,
        "node_id": "MDQ6VXNlcjM3ODIyNzQ=",
        "avatar_url": "https://avatars.githubusercontent.com/u/3782274?v=4",
        "gravatar_id": "",
        "url": "https://api.github.com/users/achow101",
        "html_url": "https://github.com/achow101",
        "followers_url": "https://api.github.com/users/achow101/followers",
        "following_url": "https://api.github.com/users/achow101/following%7B/other_user%7D",
        "gists_url": "https://api.github.com/users/achow101/gists%7B/gist_id%7D",
        "starred_url": "https://api.github.com/users/achow101/starred%7B/owner%7D%7B/repo%7D",
        "subscriptions_url": "https://api.github.com/users/achow101/subscriptions",
        "organizations_url": "https://api.github.com/users/achow101/orgs",
        "repos_url": "https://api.github.com/users/achow101/repos",
        "events_url": "https://api.github.com/users/achow101/events%7B/privacy%7D",
        "received_events_url": "https://api.github.com/users/achow101/received_events",
        "type": "User",
        "site_admin": false
      },
      "html_url": "https://github.com/bitcoin/bitcoin/pull/25553#issuecomment-1277782881",
      "issue_url": "https://api.github.com/repos/bitcoin/bitcoin/issues/25553"
    },
    {
      "event": "commented",
      "id": 1306997491,
      "node_id": "IC_kwDOABII585N5zLz",
      "url": "https://api.github.com/repos/bitcoin/bitcoin/issues/comments/1306997491",
      "actor": {
        "login": "michaelfolkson",
        "id": 16323900,
        "node_id": "MDQ6VXNlcjE2MzIzOTAw",
        "avatar_url": "https://avatars.githubusercontent.com/u/16323900?v=4",
        "gravatar_id": "",
        "url": "https://api.github.com/users/michaelfolkson",
        "html_url": "https://github.com/michaelfolkson",
        "followers_url": "https://api.github.com/users/michaelfolkson/followers",
        "following_url": "https://api.github.com/users/michaelfolkson/following%7B/other_user%7D",
        "gists_url": "https://api.github.com/users/michaelfolkson/gists%7B/gist_id%7D",
        "starred_url": "https://api.github.com/users/michaelfolkson/starred%7B/owner%7D%7B/repo%7D",
        "subscriptions_url": "https://api.github.com/users/michaelfolkson/subscriptions",
        "organizations_url": "https://api.github.com/users/michaelfolkson/orgs",
        "repos_url": "https://api.github.com/users/michaelfolkson/repos",
        "events_url": "https://api.github.com/users/michaelfolkson/events%7B/privacy%7D",
        "received_events_url": "https://api.github.com/users/michaelfolkson/received_events",
        "type": "User",
        "site_admin": false
      },
      "commit_id": null,
      "commit_url": null,
      "created_at": "2022-11-08T10:39:46Z",
      "updated_at": "2022-11-08T10:39:46Z",
      "author_association": "CONTRIBUTOR",
      "body": "@achow101: Gotcha, thanks for the response. Will close.",
      "user": {
        "login": "michaelfolkson",
        "id": 16323900,
        "node_id": "MDQ6VXNlcjE2MzIzOTAw",
        "avatar_url": "https://avatars.githubusercontent.com/u/16323900?v=4",
        "gravatar_id": "",
        "url": "https://api.github.com/users/michaelfolkson",
        "html_url": "https://github.com/michaelfolkson",
        "followers_url": "https://api.github.com/users/michaelfolkson/followers",
        "following_url": "https://api.github.com/users/michaelfolkson/following%7B/other_user%7D",
        "gists_url": "https://api.github.com/users/michaelfolkson/gists%7B/gist_id%7D",
        "starred_url": "https://api.github.com/users/michaelfolkson/starred%7B/owner%7D%7B/repo%7D",
        "subscriptions_url": "https://api.github.com/users/michaelfolkson/subscriptions",
        "organizations_url": "https://api.github.com/users/michaelfolkson/orgs",
        "repos_url": "https://api.github.com/users/michaelfolkson/repos",
        "events_url": "https://api.github.com/users/michaelfolkson/events%7B/privacy%7D",
        "received_events_url": "https://api.github.com/users/michaelfolkson/received_events",
        "type": "User",
        "site_admin": false
      },
      "html_url": "https://github.com/bitcoin/bitcoin/pull/25553#issuecomment-1306997491",
      "issue_url": "https://api.github.com/repos/bitcoin/bitcoin/issues/25553"
    },
    {
      "event": "closed",
      "id": 7761325223,
      "node_id": "CE_lADOABII585NObm_zwAAAAHOnGyn",
      "url": "https://api.github.com/repos/bitcoin/bitcoin/issues/events/7761325223",
      "actor": {
        "login": "michaelfolkson",
        "id": 16323900,
        "node_id": "MDQ6VXNlcjE2MzIzOTAw",
        "avatar_url": "https://avatars.githubusercontent.com/u/16323900?v=4",
        "gravatar_id": "",
        "url": "https://api.github.com/users/michaelfolkson",
        "html_url": "https://github.com/michaelfolkson",
        "followers_url": "https://api.github.com/users/michaelfolkson/followers",
        "following_url": "https://api.github.com/users/michaelfolkson/following%7B/other_user%7D",
        "gists_url": "https://api.github.com/users/michaelfolkson/gists%7B/gist_id%7D",
        "starred_url": "https://api.github.com/users/michaelfolkson/starred%7B/owner%7D%7B/repo%7D",
        "subscriptions_url": "https://api.github.com/users/michaelfolkson/subscriptions",
        "organizations_url": "https://api.github.com/users/michaelfolkson/orgs",
        "repos_url": "https://api.github.com/users/michaelfolkson/repos",
        "events_url": "https://api.github.com/users/michaelfolkson/events%7B/privacy%7D",
        "received_events_url": "https://api.github.com/users/michaelfolkson/received_events",
        "type": "User",
        "site_admin": false
      },
      "commit_id": null,
      "commit_url": null,
      "created_at": "2022-11-08T10:39:46Z"
    },
    {
      "event": "mentioned",
      "id": 7761325285,
      "node_id": "MEE_lADOABII585NObm_zwAAAAHOnGzl",
      "url": "https://api.github.com/repos/bitcoin/bitcoin/issues/events/7761325285",
      "actor": {
        "login": "achow101",
        "id": 3782274,
        "node_id": "MDQ6VXNlcjM3ODIyNzQ=",
        "avatar_url": "https://avatars.githubusercontent.com/u/3782274?v=4",
        "gravatar_id": "",
        "url": "https://api.github.com/users/achow101",
        "html_url": "https://github.com/achow101",
        "followers_url": "https://api.github.com/users/achow101/followers",
        "following_url": "https://api.github.com/users/achow101/following%7B/other_user%7D",
        "gists_url": "https://api.github.com/users/achow101/gists%7B/gist_id%7D",
        "starred_url": "https://api.github.com/users/achow101/starred%7B/owner%7D%7B/repo%7D",
        "subscriptions_url": "https://api.github.com/users/achow101/subscriptions",
        "organizations_url": "https://api.github.com/users/achow101/orgs",
        "repos_url": "https://api.github.com/users/achow101/repos",
        "events_url": "https://api.github.com/users/achow101/events%7B/privacy%7D",
        "received_events_url": "https://api.github.com/users/achow101/received_events",
        "type": "User",
        "site_admin": false
      },
      "commit_id": null,
      "commit_url": null,
      "created_at": "2022-11-08T10:39:47Z"
    },
    {
      "event": "subscribed",
      "id": 7761325296,
      "node_id": "SE_lADOABII585NObm_zwAAAAHOnGzw",
      "url": "https://api.github.com/repos/bitcoin/bitcoin/issues/events/7761325296",
      "actor": {
        "login": "achow101",
        "id": 3782274,
        "node_id": "MDQ6VXNlcjM3ODIyNzQ=",
        "avatar_url": "https://avatars.githubusercontent.com/u/3782274?v=4",
        "gravatar_id": "",
        "url": "https://api.github.com/users/achow101",
        "html_url": "https://github.com/achow101",
        "followers_url": "https://api.github.com/users/achow101/followers",
        "following_url": "https://api.github.com/users/achow101/following%7B/other_user%7D",
        "gists_url": "https://api.github.com/users/achow101/gists%7B/gist_id%7D",
        "starred_url": "https://api.github.com/users/achow101/starred%7B/owner%7D%7B/repo%7D",
        "subscriptions_url": "https://api.github.com/users/achow101/subscriptions",
        "organizations_url": "https://api.github.com/users/achow101/orgs",
        "repos_url": "https://api.github.com/users/achow101/repos",
        "events_url": "https://api.github.com/users/achow101/events%7B/privacy%7D",
        "received_events_url": "https://api.github.com/users/achow101/received_events",
        "type": "User",
        "site_admin": false
      },
      "commit_id": null,
      "commit_url": null,
      "created_at": "2022-11-08T10:39:47Z"
    },
    {
      "event": "head_ref_deleted",
      "id": 7761326392,
      "node_id": "HRDE_lADOABII585NObm_zwAAAAHOnHE4",
      "url": "https://api.github.com/repos/bitcoin/bitcoin/issues/events/7761326392",
      "actor": {
        "login": "michaelfolkson",
        "id": 16323900,
        "node_id": "MDQ6VXNlcjE2MzIzOTAw",
        "avatar_url": "https://avatars.githubusercontent.com/u/16323900?v=4",
        "gravatar_id": "",
        "url": "https://api.github.com/users/michaelfolkson",
        "html_url": "https://github.com/michaelfolkson",
        "followers_url": "https://api.github.com/users/michaelfolkson/followers",
        "following_url": "https://api.github.com/users/michaelfolkson/following%7B/other_user%7D",
        "gists_url": "https://api.github.com/users/michaelfolkson/gists%7B/gist_id%7D",
        "starred_url": "https://api.github.com/users/michaelfolkson/starred%7B/owner%7D%7B/repo%7D",
        "subscriptions_url": "https://api.github.com/users/michaelfolkson/subscriptions",
        "organizations_url": "https://api.github.com/users/michaelfolkson/orgs",
        "repos_url": "https://api.github.com/users/michaelfolkson/repos",
        "events_url": "https://api.github.com/users/michaelfolkson/events%7B/privacy%7D",
        "received_events_url": "https://api.github.com/users/michaelfolkson/received_events",
        "type": "User",
        "site_admin": false
      },
      "commit_id": null,
      "commit_url": null,
      "created_at": "2022-11-08T10:39:55Z"
    }
  ],
  "comments": []
}