{
  "type": "pull",
  "pull": {
    "url": "https://api.github.com/repos/bitcoin/bitcoin/pulls/26100",
    "id": 1057115501,
    "node_id": "PR_kwDOABII584_Ak1t",
    "html_url": "https://github.com/bitcoin/bitcoin/pull/26100",
    "diff_url": "https://github.com/bitcoin/bitcoin/pull/26100.diff",
    "patch_url": "https://github.com/bitcoin/bitcoin/pull/26100.patch",
    "issue_url": "https://api.github.com/repos/bitcoin/bitcoin/issues/26100",
    "commits_url": "https://api.github.com/repos/bitcoin/bitcoin/pulls/26100/commits",
    "review_comments_url": "https://api.github.com/repos/bitcoin/bitcoin/pulls/26100/comments",
    "review_comment_url": "https://api.github.com/repos/bitcoin/bitcoin/pulls/comments%7B/number%7D",
    "comments_url": "https://api.github.com/repos/bitcoin/bitcoin/issues/26100/comments",
    "statuses_url": "https://api.github.com/repos/bitcoin/bitcoin/statuses/f362920c2ca85853b24c1cbc1d596dd1ff2fd556",
    "number": 26100,
    "state": "closed",
    "locked": false,
    "maintainer_can_modify": false,
    "title": "doc: clarify that NetPermissionFlags::Implicit is only about whitelists",
    "user": {
      "login": "vasild",
      "id": 266751,
      "node_id": "MDQ6VXNlcjI2Njc1MQ==",
      "avatar_url": "https://avatars.githubusercontent.com/u/266751?v=4",
      "gravatar_id": "",
      "url": "https://api.github.com/users/vasild",
      "html_url": "https://github.com/vasild",
      "followers_url": "https://api.github.com/users/vasild/followers",
      "following_url": "https://api.github.com/users/vasild/following%7B/other_user%7D",
      "gists_url": "https://api.github.com/users/vasild/gists%7B/gist_id%7D",
      "starred_url": "https://api.github.com/users/vasild/starred%7B/owner%7D%7B/repo%7D",
      "subscriptions_url": "https://api.github.com/users/vasild/subscriptions",
      "organizations_url": "https://api.github.com/users/vasild/orgs",
      "repos_url": "https://api.github.com/users/vasild/repos",
      "events_url": "https://api.github.com/users/vasild/events%7B/privacy%7D",
      "received_events_url": "https://api.github.com/users/vasild/received_events",
      "type": "User",
      "site_admin": false
    },
    "body": "`NetPermissionFlags::Implicit` applies just to connections from `-whitebind` or `-whitelist`, clarify that in its comment.",
    "labels": [
      {
        "id": 148216,
        "node_id": "MDU6TGFiZWwxNDgyMTY=",
        "url": "https://api.github.com/repos/bitcoin/bitcoin/labels/Docs",
        "name": "Docs",
        "color": "02d7e1",
        "default": false
      },
      {
        "id": 98298007,
        "node_id": "MDU6TGFiZWw5ODI5ODAwNw==",
        "url": "https://api.github.com/repos/bitcoin/bitcoin/labels/P2P",
        "name": "P2P",
        "color": "006b75",
        "default": false
      }
    ],
    "created_at": "2022-09-15T09:22:33Z",
    "updated_at": "2022-11-22T10:55:31Z",
    "closed_at": "2022-11-22T10:46:27Z",
    "mergeable_state": "unknown",
    "merged_at": "2022-11-22T10:46:27Z",
    "merge_commit_sha": "164027f824312c13c964c66bad8da95ab733b862",
    "assignees": [],
    "requested_reviewers": [],
    "requested_teams": [],
    "head": {
      "label": "vasild:netperm_implicit_comment",
      "ref": "netperm_implicit_comment",
      "sha": "f362920c2ca85853b24c1cbc1d596dd1ff2fd556",
      "user": {
        "login": "vasild",
        "id": 266751,
        "node_id": "MDQ6VXNlcjI2Njc1MQ==",
        "avatar_url": "https://avatars.githubusercontent.com/u/266751?v=4",
        "gravatar_id": "",
        "url": "https://api.github.com/users/vasild",
        "html_url": "https://github.com/vasild",
        "followers_url": "https://api.github.com/users/vasild/followers",
        "following_url": "https://api.github.com/users/vasild/following%7B/other_user%7D",
        "gists_url": "https://api.github.com/users/vasild/gists%7B/gist_id%7D",
        "starred_url": "https://api.github.com/users/vasild/starred%7B/owner%7D%7B/repo%7D",
        "subscriptions_url": "https://api.github.com/users/vasild/subscriptions",
        "organizations_url": "https://api.github.com/users/vasild/orgs",
        "repos_url": "https://api.github.com/users/vasild/repos",
        "events_url": "https://api.github.com/users/vasild/events%7B/privacy%7D",
        "received_events_url": "https://api.github.com/users/vasild/received_events",
        "type": "User",
        "site_admin": false
      },
      "repo": {
        "id": 120608826,
        "node_id": "MDEwOlJlcG9zaXRvcnkxMjA2MDg4MjY=",
        "name": "bitcoin",
        "full_name": "vasild/bitcoin",
        "owner": {
          "login": "vasild",
          "id": 266751,
          "node_id": "MDQ6VXNlcjI2Njc1MQ==",
          "avatar_url": "https://avatars.githubusercontent.com/u/266751?v=4",
          "gravatar_id": "",
          "url": "https://api.github.com/users/vasild",
          "html_url": "https://github.com/vasild",
          "followers_url": "https://api.github.com/users/vasild/followers",
          "following_url": "https://api.github.com/users/vasild/following%7B/other_user%7D",
          "gists_url": "https://api.github.com/users/vasild/gists%7B/gist_id%7D",
          "starred_url": "https://api.github.com/users/vasild/starred%7B/owner%7D%7B/repo%7D",
          "subscriptions_url": "https://api.github.com/users/vasild/subscriptions",
          "organizations_url": "https://api.github.com/users/vasild/orgs",
          "repos_url": "https://api.github.com/users/vasild/repos",
          "events_url": "https://api.github.com/users/vasild/events%7B/privacy%7D",
          "received_events_url": "https://api.github.com/users/vasild/received_events",
          "type": "User",
          "site_admin": false
        },
        "private": false,
        "html_url": "https://github.com/vasild/bitcoin",
        "description": "Bitcoin Core integration/staging tree",
        "fork": true,
        "url": "https://api.github.com/repos/vasild/bitcoin",
        "archive_url": "https://api.github.com/repos/vasild/bitcoin/%7Barchive_format%7D%7B/ref%7D",
        "assignees_url": "https://api.github.com/repos/vasild/bitcoin/assignees%7B/user%7D",
        "blobs_url": "https://api.github.com/repos/vasild/bitcoin/git/blobs%7B/sha%7D",
        "branches_url": "https://api.github.com/repos/vasild/bitcoin/branches%7B/branch%7D",
        "collaborators_url": "https://api.github.com/repos/vasild/bitcoin/collaborators%7B/collaborator%7D",
        "comments_url": "https://api.github.com/repos/vasild/bitcoin/comments%7B/number%7D",
        "commits_url": "https://api.github.com/repos/vasild/bitcoin/commits%7B/sha%7D",
        "compare_url": "https://api.github.com/repos/vasild/bitcoin/compare/%7Bbase%7D...%7Bhead%7D",
        "contents_url": "https://api.github.com/repos/vasild/bitcoin/contents/%7B+path%7D",
        "contributors_url": "https://api.github.com/repos/vasild/bitcoin/contributors",
        "deployments_url": "https://api.github.com/repos/vasild/bitcoin/deployments",
        "downloads_url": "https://api.github.com/repos/vasild/bitcoin/downloads",
        "events_url": "https://api.github.com/repos/vasild/bitcoin/events",
        "forks_url": "https://api.github.com/repos/vasild/bitcoin/forks",
        "git_commits_url": "https://api.github.com/repos/vasild/bitcoin/git/commits%7B/sha%7D",
        "git_refs_url": "https://api.github.com/repos/vasild/bitcoin/git/refs%7B/sha%7D",
        "git_tags_url": "https://api.github.com/repos/vasild/bitcoin/git/tags%7B/sha%7D",
        "git_url": "git://github.com/vasild/bitcoin.git",
        "issue_comment_url": "https://api.github.com/repos/vasild/bitcoin/issues/comments%7B/number%7D",
        "issue_events_url": "https://api.github.com/repos/vasild/bitcoin/issues/events%7B/number%7D",
        "issues_url": "https://api.github.com/repos/vasild/bitcoin/issues%7B/number%7D",
        "keys_url": "https://api.github.com/repos/vasild/bitcoin/keys%7B/key_id%7D",
        "labels_url": "https://api.github.com/repos/vasild/bitcoin/labels%7B/name%7D",
        "languages_url": "https://api.github.com/repos/vasild/bitcoin/languages",
        "merges_url": "https://api.github.com/repos/vasild/bitcoin/merges",
        "milestones_url": "https://api.github.com/repos/vasild/bitcoin/milestones%7B/number%7D",
        "notifications_url": "https://api.github.com/repos/vasild/bitcoin/notifications%7B?since,all,participating}",
        "pulls_url": "https://api.github.com/repos/vasild/bitcoin/pulls%7B/number%7D",
        "releases_url": "https://api.github.com/repos/vasild/bitcoin/releases%7B/id%7D",
        "ssh_url": "git@github.com:vasild/bitcoin.git",
        "stargazers_url": "https://api.github.com/repos/vasild/bitcoin/stargazers",
        "statuses_url": "https://api.github.com/repos/vasild/bitcoin/statuses/%7Bsha%7D",
        "subscribers_url": "https://api.github.com/repos/vasild/bitcoin/subscribers",
        "subscription_url": "https://api.github.com/repos/vasild/bitcoin/subscription",
        "tags_url": "https://api.github.com/repos/vasild/bitcoin/tags",
        "teams_url": "https://api.github.com/repos/vasild/bitcoin/teams",
        "trees_url": "https://api.github.com/repos/vasild/bitcoin/git/trees%7B/sha%7D",
        "clone_url": "https://github.com/vasild/bitcoin.git",
        "hooks_url": "https://api.github.com/repos/vasild/bitcoin/hooks",
        "svn_url": "https://github.com/vasild/bitcoin",
        "homepage": "https://bitcoin.org/en/download",
        "language": "C++",
        "forks_count": 1,
        "stargazers_count": 3,
        "watchers_count": 3,
        "size": 214063,
        "default_branch": "master",
        "open_issues_count": 2,
        "is_template": false,
        "topics": [],
        "has_issues": false,
        "has_projects": true,
        "has_wiki": true,
        "has_pages": false,
        "has_downloads": false,
        "archived": false,
        "disabled": false,
        "visibility": "public",
        "pushed_at": "2023-08-02T12:37:14Z",
        "created_at": "2018-02-07T11:52:47Z",
        "updated_at": "2023-01-31T16:56:52Z",
        "license": {
          "key": "mit",
          "name": "MIT License",
          "node_id": "MDc6TGljZW5zZTEz",
          "spdx_id": "MIT",
          "url": "https://api.github.com/licenses/mit",
          "html_url": null,
          "description": null,
          "implementation": null,
          "permissions": null,
          "conditions": null,
          "limitations": null,
          "body": null,
          "featured": null
        }
      }
    },
    "base": {
      "label": "bitcoin:master",
      "ref": "master",
      "sha": "50422b770a40f5fa964201d1e99fd6b5dc1653ca",
      "user": {
        "login": "bitcoin",
        "id": 528860,
        "node_id": "MDEyOk9yZ2FuaXphdGlvbjUyODg2MA==",
        "avatar_url": "https://avatars.githubusercontent.com/u/528860?v=4",
        "gravatar_id": "",
        "url": "https://api.github.com/users/bitcoin",
        "html_url": "https://github.com/bitcoin",
        "followers_url": "https://api.github.com/users/bitcoin/followers",
        "following_url": "https://api.github.com/users/bitcoin/following%7B/other_user%7D",
        "gists_url": "https://api.github.com/users/bitcoin/gists%7B/gist_id%7D",
        "starred_url": "https://api.github.com/users/bitcoin/starred%7B/owner%7D%7B/repo%7D",
        "subscriptions_url": "https://api.github.com/users/bitcoin/subscriptions",
        "organizations_url": "https://api.github.com/users/bitcoin/orgs",
        "repos_url": "https://api.github.com/users/bitcoin/repos",
        "events_url": "https://api.github.com/users/bitcoin/events%7B/privacy%7D",
        "received_events_url": "https://api.github.com/users/bitcoin/received_events",
        "type": "Organization",
        "site_admin": false
      },
      "repo": {
        "id": 1181927,
        "node_id": "MDEwOlJlcG9zaXRvcnkxMTgxOTI3",
        "name": "bitcoin",
        "full_name": "bitcoin/bitcoin",
        "owner": {
          "login": "bitcoin",
          "id": 528860,
          "node_id": "MDEyOk9yZ2FuaXphdGlvbjUyODg2MA==",
          "avatar_url": "https://avatars.githubusercontent.com/u/528860?v=4",
          "gravatar_id": "",
          "url": "https://api.github.com/users/bitcoin",
          "html_url": "https://github.com/bitcoin",
          "followers_url": "https://api.github.com/users/bitcoin/followers",
          "following_url": "https://api.github.com/users/bitcoin/following%7B/other_user%7D",
          "gists_url": "https://api.github.com/users/bitcoin/gists%7B/gist_id%7D",
          "starred_url": "https://api.github.com/users/bitcoin/starred%7B/owner%7D%7B/repo%7D",
          "subscriptions_url": "https://api.github.com/users/bitcoin/subscriptions",
          "organizations_url": "https://api.github.com/users/bitcoin/orgs",
          "repos_url": "https://api.github.com/users/bitcoin/repos",
          "events_url": "https://api.github.com/users/bitcoin/events%7B/privacy%7D",
          "received_events_url": "https://api.github.com/users/bitcoin/received_events",
          "type": "Organization",
          "site_admin": false
        },
        "private": false,
        "html_url": "https://github.com/bitcoin/bitcoin",
        "description": "Bitcoin Core integration/staging tree",
        "fork": false,
        "url": "https://api.github.com/repos/bitcoin/bitcoin",
        "archive_url": "https://api.github.com/repos/bitcoin/bitcoin/%7Barchive_format%7D%7B/ref%7D",
        "assignees_url": "https://api.github.com/repos/bitcoin/bitcoin/assignees%7B/user%7D",
        "blobs_url": "https://api.github.com/repos/bitcoin/bitcoin/git/blobs%7B/sha%7D",
        "branches_url": "https://api.github.com/repos/bitcoin/bitcoin/branches%7B/branch%7D",
        "collaborators_url": "https://api.github.com/repos/bitcoin/bitcoin/collaborators%7B/collaborator%7D",
        "comments_url": "https://api.github.com/repos/bitcoin/bitcoin/comments%7B/number%7D",
        "commits_url": "https://api.github.com/repos/bitcoin/bitcoin/commits%7B/sha%7D",
        "compare_url": "https://api.github.com/repos/bitcoin/bitcoin/compare/%7Bbase%7D...%7Bhead%7D",
        "contents_url": "https://api.github.com/repos/bitcoin/bitcoin/contents/%7B+path%7D",
        "contributors_url": "https://api.github.com/repos/bitcoin/bitcoin/contributors",
        "deployments_url": "https://api.github.com/repos/bitcoin/bitcoin/deployments",
        "downloads_url": "https://api.github.com/repos/bitcoin/bitcoin/downloads",
        "events_url": "https://api.github.com/repos/bitcoin/bitcoin/events",
        "forks_url": "https://api.github.com/repos/bitcoin/bitcoin/forks",
        "git_commits_url": "https://api.github.com/repos/bitcoin/bitcoin/git/commits%7B/sha%7D",
        "git_refs_url": "https://api.github.com/repos/bitcoin/bitcoin/git/refs%7B/sha%7D",
        "git_tags_url": "https://api.github.com/repos/bitcoin/bitcoin/git/tags%7B/sha%7D",
        "git_url": "git://github.com/bitcoin/bitcoin.git",
        "issue_comment_url": "https://api.github.com/repos/bitcoin/bitcoin/issues/comments%7B/number%7D",
        "issue_events_url": "https://api.github.com/repos/bitcoin/bitcoin/issues/events%7B/number%7D",
        "issues_url": "https://api.github.com/repos/bitcoin/bitcoin/issues%7B/number%7D",
        "keys_url": "https://api.github.com/repos/bitcoin/bitcoin/keys%7B/key_id%7D",
        "labels_url": "https://api.github.com/repos/bitcoin/bitcoin/labels%7B/name%7D",
        "languages_url": "https://api.github.com/repos/bitcoin/bitcoin/languages",
        "merges_url": "https://api.github.com/repos/bitcoin/bitcoin/merges",
        "milestones_url": "https://api.github.com/repos/bitcoin/bitcoin/milestones%7B/number%7D",
        "notifications_url": "https://api.github.com/repos/bitcoin/bitcoin/notifications%7B?since,all,participating}",
        "pulls_url": "https://api.github.com/repos/bitcoin/bitcoin/pulls%7B/number%7D",
        "releases_url": "https://api.github.com/repos/bitcoin/bitcoin/releases%7B/id%7D",
        "ssh_url": "git@github.com:bitcoin/bitcoin.git",
        "stargazers_url": "https://api.github.com/repos/bitcoin/bitcoin/stargazers",
        "statuses_url": "https://api.github.com/repos/bitcoin/bitcoin/statuses/%7Bsha%7D",
        "subscribers_url": "https://api.github.com/repos/bitcoin/bitcoin/subscribers",
        "subscription_url": "https://api.github.com/repos/bitcoin/bitcoin/subscription",
        "tags_url": "https://api.github.com/repos/bitcoin/bitcoin/tags",
        "teams_url": "https://api.github.com/repos/bitcoin/bitcoin/teams",
        "trees_url": "https://api.github.com/repos/bitcoin/bitcoin/git/trees%7B/sha%7D",
        "clone_url": "https://github.com/bitcoin/bitcoin.git",
        "hooks_url": "https://api.github.com/repos/bitcoin/bitcoin/hooks",
        "svn_url": "https://github.com/bitcoin/bitcoin",
        "homepage": "https://bitcoincore.org/en/download",
        "language": "C++",
        "forks_count": 35476,
        "stargazers_count": 70608,
        "watchers_count": 70608,
        "size": 236222,
        "default_branch": "master",
        "open_issues_count": 673,
        "is_template": false,
        "topics": [
          "bitcoin",
          "c-plus-plus",
          "cryptocurrency",
          "cryptography",
          "p2p"
        ],
        "has_issues": true,
        "has_projects": true,
        "has_wiki": false,
        "has_pages": false,
        "has_downloads": false,
        "archived": false,
        "disabled": false,
        "visibility": "public",
        "pushed_at": "2023-08-03T00:03:27Z",
        "created_at": "2010-12-19T15:16:43Z",
        "updated_at": "2023-08-02T18:21:18Z",
        "license": {
          "key": "mit",
          "name": "MIT License",
          "node_id": "MDc6TGljZW5zZTEz",
          "spdx_id": "MIT",
          "url": "https://api.github.com/licenses/mit",
          "html_url": null,
          "description": null,
          "implementation": null,
          "permissions": null,
          "conditions": null,
          "limitations": null,
          "body": null,
          "featured": null
        }
      }
    },
    "_links": {
      "self": {
        "href": "https://api.github.com/repos/bitcoin/bitcoin/pulls/26100"
      }
    },
    "author_association": "CONTRIBUTOR",
    "draft": false,
    "additions": 2,
    "deletions": 1,
    "changed_files": 1,
    "commits": 1,
    "review_comments": 3,
    "comments": 2
  },
  "events": [
    {
      "event": "labeled",
      "id": 7393131151,
      "node_id": "LE_lADOABII585R6M5JzwAAAAG4qjqP",
      "url": "https://api.github.com/repos/bitcoin/bitcoin/issues/events/7393131151",
      "actor": {
        "login": "fanquake",
        "id": 863730,
        "node_id": "MDQ6VXNlcjg2MzczMA==",
        "avatar_url": "https://avatars.githubusercontent.com/u/863730?v=4",
        "gravatar_id": "",
        "url": "https://api.github.com/users/fanquake",
        "html_url": "https://github.com/fanquake",
        "followers_url": "https://api.github.com/users/fanquake/followers",
        "following_url": "https://api.github.com/users/fanquake/following%7B/other_user%7D",
        "gists_url": "https://api.github.com/users/fanquake/gists%7B/gist_id%7D",
        "starred_url": "https://api.github.com/users/fanquake/starred%7B/owner%7D%7B/repo%7D",
        "subscriptions_url": "https://api.github.com/users/fanquake/subscriptions",
        "organizations_url": "https://api.github.com/users/fanquake/orgs",
        "repos_url": "https://api.github.com/users/fanquake/repos",
        "events_url": "https://api.github.com/users/fanquake/events%7B/privacy%7D",
        "received_events_url": "https://api.github.com/users/fanquake/received_events",
        "type": "User",
        "site_admin": false
      },
      "commit_id": null,
      "commit_url": null,
      "created_at": "2022-09-15T09:23:07Z",
      "label": {
        "name": "Docs",
        "color": "02d7e1"
      }
    },
    {
      "event": "labeled",
      "id": 7393131155,
      "node_id": "LE_lADOABII585R6M5JzwAAAAG4qjqT",
      "url": "https://api.github.com/repos/bitcoin/bitcoin/issues/events/7393131155",
      "actor": {
        "login": "fanquake",
        "id": 863730,
        "node_id": "MDQ6VXNlcjg2MzczMA==",
        "avatar_url": "https://avatars.githubusercontent.com/u/863730?v=4",
        "gravatar_id": "",
        "url": "https://api.github.com/users/fanquake",
        "html_url": "https://github.com/fanquake",
        "followers_url": "https://api.github.com/users/fanquake/followers",
        "following_url": "https://api.github.com/users/fanquake/following%7B/other_user%7D",
        "gists_url": "https://api.github.com/users/fanquake/gists%7B/gist_id%7D",
        "starred_url": "https://api.github.com/users/fanquake/starred%7B/owner%7D%7B/repo%7D",
        "subscriptions_url": "https://api.github.com/users/fanquake/subscriptions",
        "organizations_url": "https://api.github.com/users/fanquake/orgs",
        "repos_url": "https://api.github.com/users/fanquake/repos",
        "events_url": "https://api.github.com/users/fanquake/events%7B/privacy%7D",
        "received_events_url": "https://api.github.com/users/fanquake/received_events",
        "type": "User",
        "site_admin": false
      },
      "commit_id": null,
      "commit_url": null,
      "created_at": "2022-09-15T09:23:07Z",
      "label": {
        "name": "P2P",
        "color": "006b75"
      }
    },
    {
      "event": "commented",
      "id": 1255768276,
      "node_id": "IC_kwDOABII585K2YDU",
      "url": "https://api.github.com/repos/bitcoin/bitcoin/issues/comments/1255768276",
      "actor": {
        "login": "DrahtBot",
        "id": 39886733,
        "node_id": "MDQ6VXNlcjM5ODg2NzMz",
        "avatar_url": "https://avatars.githubusercontent.com/u/39886733?v=4",
        "gravatar_id": "",
        "url": "https://api.github.com/users/DrahtBot",
        "html_url": "https://github.com/DrahtBot",
        "followers_url": "https://api.github.com/users/DrahtBot/followers",
        "following_url": "https://api.github.com/users/DrahtBot/following%7B/other_user%7D",
        "gists_url": "https://api.github.com/users/DrahtBot/gists%7B/gist_id%7D",
        "starred_url": "https://api.github.com/users/DrahtBot/starred%7B/owner%7D%7B/repo%7D",
        "subscriptions_url": "https://api.github.com/users/DrahtBot/subscriptions",
        "organizations_url": "https://api.github.com/users/DrahtBot/orgs",
        "repos_url": "https://api.github.com/users/DrahtBot/repos",
        "events_url": "https://api.github.com/users/DrahtBot/events%7B/privacy%7D",
        "received_events_url": "https://api.github.com/users/DrahtBot/received_events",
        "type": "User",
        "site_admin": false
      },
      "commit_id": null,
      "commit_url": null,
      "created_at": "2022-09-23T03:40:05Z",
      "updated_at": "2022-11-21T18:40:58Z",
      "author_association": "CONTRIBUTOR",
      "body": "<!--e57a25ab6845829454e8d69fc972939a-->\n\nThe following sections might be updated with supplementary metadata relevant to reviewers and maintainers.\n\n<!--021abf342d371248e50ceaed478a90ca-->\n### Reviews\nSee [the guideline](https://github.com/bitcoin/bitcoin/blob/master/CONTRIBUTING.md#code-review) for information on the review process.\n| Type | Reviewers |\n| ---- | --------- |\n| ACK | [Zero-1729](https://github.com/bitcoin/bitcoin/pull/26100#pullrequestreview-1173129358), [aureleoules](https://github.com/bitcoin/bitcoin/pull/26100#pullrequestreview-1188659764), [hernanmarino](https://github.com/bitcoin/bitcoin/pull/26100#pullrequestreview-1188779111) |\n| Concept ACK | [vasild](https://github.com/bitcoin/bitcoin/pull/26100#issuecomment-1305691186) |\n\n<!--174a7506f384e20aa4161008e828411d-->\n### Conflicts\nNo conflicts as of last run.\n",
      "user": {
        "login": "DrahtBot",
        "id": 39886733,
        "node_id": "MDQ6VXNlcjM5ODg2NzMz",
        "avatar_url": "https://avatars.githubusercontent.com/u/39886733?v=4",
        "gravatar_id": "",
        "url": "https://api.github.com/users/DrahtBot",
        "html_url": "https://github.com/DrahtBot",
        "followers_url": "https://api.github.com/users/DrahtBot/followers",
        "following_url": "https://api.github.com/users/DrahtBot/following%7B/other_user%7D",
        "gists_url": "https://api.github.com/users/DrahtBot/gists%7B/gist_id%7D",
        "starred_url": "https://api.github.com/users/DrahtBot/starred%7B/owner%7D%7B/repo%7D",
        "subscriptions_url": "https://api.github.com/users/DrahtBot/subscriptions",
        "organizations_url": "https://api.github.com/users/DrahtBot/orgs",
        "repos_url": "https://api.github.com/users/DrahtBot/repos",
        "events_url": "https://api.github.com/users/DrahtBot/events%7B/privacy%7D",
        "received_events_url": "https://api.github.com/users/DrahtBot/received_events",
        "type": "User",
        "site_admin": false
      },
      "html_url": "https://github.com/bitcoin/bitcoin/pull/26100#issuecomment-1255768276",
      "issue_url": "https://api.github.com/repos/bitcoin/bitcoin/issues/26100"
    },
    {
      "event": "reviewed",
      "id": 1131452477,
      "node_id": "PRR_kwDOABII585DcJg9",
      "url": null,
      "actor": null,
      "commit_id": "d121024c3dce125b45f21d3b4d362b61a9d27d27",
      "commit_url": null,
      "created_at": null,
      "author_association": "CONTRIBUTOR",
      "user": {
        "login": "jonatack",
        "id": 2415484,
        "node_id": "MDQ6VXNlcjI0MTU0ODQ=",
        "avatar_url": "https://avatars.githubusercontent.com/u/2415484?v=4",
        "gravatar_id": "",
        "url": "https://api.github.com/users/jonatack",
        "html_url": "https://github.com/jonatack",
        "followers_url": "https://api.github.com/users/jonatack/followers",
        "following_url": "https://api.github.com/users/jonatack/following%7B/other_user%7D",
        "gists_url": "https://api.github.com/users/jonatack/gists%7B/gist_id%7D",
        "starred_url": "https://api.github.com/users/jonatack/starred%7B/owner%7D%7B/repo%7D",
        "subscriptions_url": "https://api.github.com/users/jonatack/subscriptions",
        "organizations_url": "https://api.github.com/users/jonatack/orgs",
        "repos_url": "https://api.github.com/users/jonatack/repos",
        "events_url": "https://api.github.com/users/jonatack/events%7B/privacy%7D",
        "received_events_url": "https://api.github.com/users/jonatack/received_events",
        "type": "User",
        "site_admin": false
      },
      "html_url": "https://github.com/bitcoin/bitcoin/pull/26100#pullrequestreview-1131452477",
      "submitted_at": "2022-10-05T13:41:16Z",
      "state": "COMMENTED",
      "pull_request_url": "https://api.github.com/repos/bitcoin/bitcoin/pulls/26100"
    },
    {
      "event": "reviewed",
      "id": 1160082240,
      "node_id": "PRR_kwDOABII585FJXNA",
      "url": null,
      "actor": null,
      "commit_id": "d121024c3dce125b45f21d3b4d362b61a9d27d27",
      "commit_url": null,
      "created_at": null,
      "author_association": "CONTRIBUTOR",
      "body": "ACK d121024c3dce125b45f21d3b4d362b61a9d27d27",
      "user": {
        "login": "hernanmarino",
        "id": 87907936,
        "node_id": "MDQ6VXNlcjg3OTA3OTM2",
        "avatar_url": "https://avatars.githubusercontent.com/u/87907936?v=4",
        "gravatar_id": "",
        "url": "https://api.github.com/users/hernanmarino",
        "html_url": "https://github.com/hernanmarino",
        "followers_url": "https://api.github.com/users/hernanmarino/followers",
        "following_url": "https://api.github.com/users/hernanmarino/following%7B/other_user%7D",
        "gists_url": "https://api.github.com/users/hernanmarino/gists%7B/gist_id%7D",
        "starred_url": "https://api.github.com/users/hernanmarino/starred%7B/owner%7D%7B/repo%7D",
        "subscriptions_url": "https://api.github.com/users/hernanmarino/subscriptions",
        "organizations_url": "https://api.github.com/users/hernanmarino/orgs",
        "repos_url": "https://api.github.com/users/hernanmarino/repos",
        "events_url": "https://api.github.com/users/hernanmarino/events%7B/privacy%7D",
        "received_events_url": "https://api.github.com/users/hernanmarino/received_events",
        "type": "User",
        "site_admin": false
      },
      "html_url": "https://github.com/bitcoin/bitcoin/pull/26100#pullrequestreview-1160082240",
      "submitted_at": "2022-10-28T13:38:29Z",
      "state": "COMMENTED",
      "pull_request_url": "https://api.github.com/repos/bitcoin/bitcoin/pulls/26100"
    },
    {
      "event": "reviewed",
      "id": 1166241824,
      "node_id": "PRR_kwDOABII585Fg3Ag",
      "url": null,
      "actor": null,
      "commit_id": "d121024c3dce125b45f21d3b4d362b61a9d27d27",
      "commit_url": null,
      "created_at": null,
      "author_association": "CONTRIBUTOR",
      "body": "Concept ACK\n\nAgree with jonatack's [rewording suggestion](https://github.com/bitcoin/bitcoin/pull/26100#discussion_r987937720).",
      "user": {
        "login": "Zero-1729",
        "id": 23586626,
        "node_id": "MDQ6VXNlcjIzNTg2NjI2",
        "avatar_url": "https://avatars.githubusercontent.com/u/23586626?v=4",
        "gravatar_id": "",
        "url": "https://api.github.com/users/Zero-1729",
        "html_url": "https://github.com/Zero-1729",
        "followers_url": "https://api.github.com/users/Zero-1729/followers",
        "following_url": "https://api.github.com/users/Zero-1729/following%7B/other_user%7D",
        "gists_url": "https://api.github.com/users/Zero-1729/gists%7B/gist_id%7D",
        "starred_url": "https://api.github.com/users/Zero-1729/starred%7B/owner%7D%7B/repo%7D",
        "subscriptions_url": "https://api.github.com/users/Zero-1729/subscriptions",
        "organizations_url": "https://api.github.com/users/Zero-1729/orgs",
        "repos_url": "https://api.github.com/users/Zero-1729/repos",
        "events_url": "https://api.github.com/users/Zero-1729/events%7B/privacy%7D",
        "received_events_url": "https://api.github.com/users/Zero-1729/received_events",
        "type": "User",
        "site_admin": false
      },
      "html_url": "https://github.com/bitcoin/bitcoin/pull/26100#pullrequestreview-1166241824",
      "submitted_at": "2022-11-03T03:35:40Z",
      "state": "COMMENTED",
      "pull_request_url": "https://api.github.com/repos/bitcoin/bitcoin/pulls/26100"
    },
    {
      "event": "committed",
      "id": null,
      "node_id": "C_kwDOABII59oAKGYzNjI5MjBjMmNhODU4NTNiMjRjMWNiYzFkNTk2ZGQxZmYyZmQ1NTY",
      "url": "https://api.github.com/repos/bitcoin/bitcoin/git/commits/f362920c2ca85853b24c1cbc1d596dd1ff2fd556",
      "actor": null,
      "commit_id": null,
      "commit_url": null,
      "created_at": null,
      "html_url": "https://github.com/bitcoin/bitcoin/commit/f362920c2ca85853b24c1cbc1d596dd1ff2fd556",
      "tree": {
        "sha": "04c5883175767b2b1b978efcd094743815faff80",
        "url": "https://api.github.com/repos/bitcoin/bitcoin/git/trees/04c5883175767b2b1b978efcd094743815faff80"
      },
      "verification": {
        "verified": true,
        "reason": "valid",
        "payload": "tree 04c5883175767b2b1b978efcd094743815faff80\nparent 718304d222671f98d2335cd9b90a3022f62d7b21\nauthor Vasil Dimov <vd@FreeBSD.org> 1663233567 +0200\ncommitter Vasil Dimov <vd@FreeBSD.org> 1667830820 +0100\n\ndoc: clarify that NetPermissionFlags::Implicit is only about whitelists\n\nCo-authored-by: Jon Atack <jon@atack.com>\n",
        "signature": "-----BEGIN PGP SIGNATURE-----\n\niQQzBAABCAAdFiEE5k2NRWFNsHVF2czBVN8G9ktVy78FAmNpFGUACgkQVN8G9ktV\ny7+LviAAiq1wM1gdJ5t1xG5+rcLx7eUwqyCf9QkqbFbFDfZQ6cf58Ay1T1s48wc4\nGcBN/Gy8EPJefZmIikMmoCZy8+eKd0zeuc+glg6Y2sXjXrIQ3us+GeK4SxgLuQDt\naZutUjlS1krgBs79gg7DIzNa1hbiIitRnL61ap5arjrLK9jBcuyyVfzvDgTrGlFO\n/iUuEmVlx1ziUWRAiDup6wONk0oD1ejmhzpN38hdtLYiwDd39XUOjLNuX7Wjt45i\nGQ1nKfyFaoDQ/x/rAkPXAcnsu0iLI+cop/sqq1bM+580Jxn8A3niX7uWa25anDjP\nqrEUnk1iMrWNudConwYYzCAB8JT1Ov3LrQjP9Jsd+x1dgt6QS4fiDE/CfKfBDVlp\n0EZV0DbwyyaWPMj9ckanowtegatnHlTIlic0LX+vw/tbGtZh+aJ1wkjF88/ZCUqD\nk9vGbfJ4cNkiDBbL7xVWDYDqBQSMGCc9fKVYWnBZOoQGxLCJI84MD0oTjv78ruEc\nt8FfqfyW/jvJQpGGoTT81/4Llsi18v5HzjO1THGmSKmqg/3lctfvv/9tKK0vu60b\nHeOTqhS3VlDl8V0o/uDGcwvBC2qGDZ9NFZzIn6zrPFQ6KaYlSUNzCZ5BwZ+/rUSq\ncVpeFVShXUsXbNic4Z+1+MizMrKHdlwLH4DAopBFlbpsrRZZ4jyZXIpB0PjBoH6K\n1R8uRxPM4DlHVE1GSIpwq2M7QBY0IUFBxR31ksBrMRnbQKfzRLI9/sQT78JzdKlX\nnksYkYKTmDjVBusdCE/TYBgocNbXuXFFK/drfL7gsgS/bXT1heScUZlk14teqmTH\n4dEfI0gR6784kJM8taBY5J0Ijri8ZzTaCCxG78q8LuNeCYxKvJJeBzXESXBiEoXi\nSIUlDZGIg7TG3poiHhjQVSIXmb9b0zareRJQwvU9jWUbSPzMMx/ajEBZXnIUGEv+\n7g4TL3G/2NHJ5ntobchs3SDWL0JFhtyQanws40LRVHXyQrViSNRSm/pLk61pad/L\ny7fGaYJ3ba/Mua8atb9blXjNQAiCn3QLMYuxFWCAFCEkmaLUuShXVU7bR/dgFgMY\ndq9q1Ws2f/5wC7+nfsbctOBje4pxkVfzpCDU1ER3Ywrc3WuNZtM7lfwGtbhEGp/0\nLwpOdeJmttPTRKHDpdw6O2t01GojgM7HgYPdEKaIOQRmuVQPJnyr1iTV7jJuuLIQ\nJO5TO1HYRtOpvMyR+V/APKpt/LHWDh8Qr01myaC92mmoqeKJiknX7i46tCbkCFGs\nVI97cVJ2S3bdZjC64YlJNVW6+aYfQl880rl2rDDFPyg/8XkQa0IiSV0ryMpqmGV2\nmFZODBAQ8+bynHKjhHf2Yn8bpgfXcQ==\n=3z/J\n-----END PGP SIGNATURE-----"
      },
      "parents": [
        {
          "url": "https://api.github.com/repos/bitcoin/bitcoin/git/commits/718304d222671f98d2335cd9b90a3022f62d7b21",
          "sha": "718304d222671f98d2335cd9b90a3022f62d7b21",
          "html_url": "https://github.com/bitcoin/bitcoin/commit/718304d222671f98d2335cd9b90a3022f62d7b21"
        }
      ],
      "message": "doc: clarify that NetPermissionFlags::Implicit is only about whitelists\n\nCo-authored-by: Jon Atack <jon@atack.com>",
      "committer": {
        "name": "Vasil Dimov",
        "email": "vd@FreeBSD.org",
        "date": "2022-11-07T14:20:20Z"
      },
      "author": {
        "name": "Vasil Dimov",
        "email": "vd@FreeBSD.org",
        "date": "2022-09-15T09:19:27Z"
      },
      "sha": "f362920c2ca85853b24c1cbc1d596dd1ff2fd556"
    },
    {
      "event": "head_ref_force_pushed",
      "id": 7753120182,
      "node_id": "HRFPE_lADOABII585R6M5JzwAAAAHOHzm2",
      "url": "https://api.github.com/repos/bitcoin/bitcoin/issues/events/7753120182",
      "actor": {
        "login": "vasild",
        "id": 266751,
        "node_id": "MDQ6VXNlcjI2Njc1MQ==",
        "avatar_url": "https://avatars.githubusercontent.com/u/266751?v=4",
        "gravatar_id": "",
        "url": "https://api.github.com/users/vasild",
        "html_url": "https://github.com/vasild",
        "followers_url": "https://api.github.com/users/vasild/followers",
        "following_url": "https://api.github.com/users/vasild/following%7B/other_user%7D",
        "gists_url": "https://api.github.com/users/vasild/gists%7B/gist_id%7D",
        "starred_url": "https://api.github.com/users/vasild/starred%7B/owner%7D%7B/repo%7D",
        "subscriptions_url": "https://api.github.com/users/vasild/subscriptions",
        "organizations_url": "https://api.github.com/users/vasild/orgs",
        "repos_url": "https://api.github.com/users/vasild/repos",
        "events_url": "https://api.github.com/users/vasild/events%7B/privacy%7D",
        "received_events_url": "https://api.github.com/users/vasild/received_events",
        "type": "User",
        "site_admin": false
      },
      "commit_id": null,
      "commit_url": null,
      "created_at": "2022-11-07T14:22:17Z"
    },
    {
      "event": "commented",
      "id": 1305691186,
      "node_id": "IC_kwDOABII585N00Qy",
      "url": "https://api.github.com/repos/bitcoin/bitcoin/issues/comments/1305691186",
      "actor": {
        "login": "vasild",
        "id": 266751,
        "node_id": "MDQ6VXNlcjI2Njc1MQ==",
        "avatar_url": "https://avatars.githubusercontent.com/u/266751?v=4",
        "gravatar_id": "",
        "url": "https://api.github.com/users/vasild",
        "html_url": "https://github.com/vasild",
        "followers_url": "https://api.github.com/users/vasild/followers",
        "following_url": "https://api.github.com/users/vasild/following%7B/other_user%7D",
        "gists_url": "https://api.github.com/users/vasild/gists%7B/gist_id%7D",
        "starred_url": "https://api.github.com/users/vasild/starred%7B/owner%7D%7B/repo%7D",
        "subscriptions_url": "https://api.github.com/users/vasild/subscriptions",
        "organizations_url": "https://api.github.com/users/vasild/orgs",
        "repos_url": "https://api.github.com/users/vasild/repos",
        "events_url": "https://api.github.com/users/vasild/events%7B/privacy%7D",
        "received_events_url": "https://api.github.com/users/vasild/received_events",
        "type": "User",
        "site_admin": false
      },
      "commit_id": null,
      "commit_url": null,
      "created_at": "2022-11-07T14:23:16Z",
      "updated_at": "2022-11-07T14:23:16Z",
      "author_association": "CONTRIBUTOR",
      "body": "`d121024c3d...f362920c2c`: address suggestion\r\n\r\nInvalidates ACK from @hernanmarino\r\n",
      "user": {
        "login": "vasild",
        "id": 266751,
        "node_id": "MDQ6VXNlcjI2Njc1MQ==",
        "avatar_url": "https://avatars.githubusercontent.com/u/266751?v=4",
        "gravatar_id": "",
        "url": "https://api.github.com/users/vasild",
        "html_url": "https://github.com/vasild",
        "followers_url": "https://api.github.com/users/vasild/followers",
        "following_url": "https://api.github.com/users/vasild/following%7B/other_user%7D",
        "gists_url": "https://api.github.com/users/vasild/gists%7B/gist_id%7D",
        "starred_url": "https://api.github.com/users/vasild/starred%7B/owner%7D%7B/repo%7D",
        "subscriptions_url": "https://api.github.com/users/vasild/subscriptions",
        "organizations_url": "https://api.github.com/users/vasild/orgs",
        "repos_url": "https://api.github.com/users/vasild/repos",
        "events_url": "https://api.github.com/users/vasild/events%7B/privacy%7D",
        "received_events_url": "https://api.github.com/users/vasild/received_events",
        "type": "User",
        "site_admin": false
      },
      "html_url": "https://github.com/bitcoin/bitcoin/pull/26100#issuecomment-1305691186",
      "issue_url": "https://api.github.com/repos/bitcoin/bitcoin/issues/26100"
    },
    {
      "event": "mentioned",
      "id": 7753129492,
      "node_id": "MEE_lADOABII585R6M5JzwAAAAHOH14U",
      "url": "https://api.github.com/repos/bitcoin/bitcoin/issues/events/7753129492",
      "actor": {
        "login": "hernanmarino",
        "id": 87907936,
        "node_id": "MDQ6VXNlcjg3OTA3OTM2",
        "avatar_url": "https://avatars.githubusercontent.com/u/87907936?v=4",
        "gravatar_id": "",
        "url": "https://api.github.com/users/hernanmarino",
        "html_url": "https://github.com/hernanmarino",
        "followers_url": "https://api.github.com/users/hernanmarino/followers",
        "following_url": "https://api.github.com/users/hernanmarino/following%7B/other_user%7D",
        "gists_url": "https://api.github.com/users/hernanmarino/gists%7B/gist_id%7D",
        "starred_url": "https://api.github.com/users/hernanmarino/starred%7B/owner%7D%7B/repo%7D",
        "subscriptions_url": "https://api.github.com/users/hernanmarino/subscriptions",
        "organizations_url": "https://api.github.com/users/hernanmarino/orgs",
        "repos_url": "https://api.github.com/users/hernanmarino/repos",
        "events_url": "https://api.github.com/users/hernanmarino/events%7B/privacy%7D",
        "received_events_url": "https://api.github.com/users/hernanmarino/received_events",
        "type": "User",
        "site_admin": false
      },
      "commit_id": null,
      "commit_url": null,
      "created_at": "2022-11-07T14:23:16Z"
    },
    {
      "event": "subscribed",
      "id": 7753129498,
      "node_id": "SE_lADOABII585R6M5JzwAAAAHOH14a",
      "url": "https://api.github.com/repos/bitcoin/bitcoin/issues/events/7753129498",
      "actor": {
        "login": "hernanmarino",
        "id": 87907936,
        "node_id": "MDQ6VXNlcjg3OTA3OTM2",
        "avatar_url": "https://avatars.githubusercontent.com/u/87907936?v=4",
        "gravatar_id": "",
        "url": "https://api.github.com/users/hernanmarino",
        "html_url": "https://github.com/hernanmarino",
        "followers_url": "https://api.github.com/users/hernanmarino/followers",
        "following_url": "https://api.github.com/users/hernanmarino/following%7B/other_user%7D",
        "gists_url": "https://api.github.com/users/hernanmarino/gists%7B/gist_id%7D",
        "starred_url": "https://api.github.com/users/hernanmarino/starred%7B/owner%7D%7B/repo%7D",
        "subscriptions_url": "https://api.github.com/users/hernanmarino/subscriptions",
        "organizations_url": "https://api.github.com/users/hernanmarino/orgs",
        "repos_url": "https://api.github.com/users/hernanmarino/repos",
        "events_url": "https://api.github.com/users/hernanmarino/events%7B/privacy%7D",
        "received_events_url": "https://api.github.com/users/hernanmarino/received_events",
        "type": "User",
        "site_admin": false
      },
      "commit_id": null,
      "commit_url": null,
      "created_at": "2022-11-07T14:23:16Z"
    },
    {
      "event": "reviewed",
      "id": 1173129358,
      "node_id": "PRR_kwDOABII585F7IiO",
      "url": null,
      "actor": null,
      "commit_id": "f362920c2ca85853b24c1cbc1d596dd1ff2fd556",
      "commit_url": null,
      "created_at": null,
      "author_association": "CONTRIBUTOR",
      "body": "crACK f362920c2ca85853b24c1cbc1d596dd1ff2fd556",
      "user": {
        "login": "Zero-1729",
        "id": 23586626,
        "node_id": "MDQ6VXNlcjIzNTg2NjI2",
        "avatar_url": "https://avatars.githubusercontent.com/u/23586626?v=4",
        "gravatar_id": "",
        "url": "https://api.github.com/users/Zero-1729",
        "html_url": "https://github.com/Zero-1729",
        "followers_url": "https://api.github.com/users/Zero-1729/followers",
        "following_url": "https://api.github.com/users/Zero-1729/following%7B/other_user%7D",
        "gists_url": "https://api.github.com/users/Zero-1729/gists%7B/gist_id%7D",
        "starred_url": "https://api.github.com/users/Zero-1729/starred%7B/owner%7D%7B/repo%7D",
        "subscriptions_url": "https://api.github.com/users/Zero-1729/subscriptions",
        "organizations_url": "https://api.github.com/users/Zero-1729/orgs",
        "repos_url": "https://api.github.com/users/Zero-1729/repos",
        "events_url": "https://api.github.com/users/Zero-1729/events%7B/privacy%7D",
        "received_events_url": "https://api.github.com/users/Zero-1729/received_events",
        "type": "User",
        "site_admin": false
      },
      "html_url": "https://github.com/bitcoin/bitcoin/pull/26100#pullrequestreview-1173129358",
      "submitted_at": "2022-11-09T01:45:07Z",
      "state": "COMMENTED",
      "pull_request_url": "https://api.github.com/repos/bitcoin/bitcoin/pulls/26100"
    },
    {
      "event": "reviewed",
      "id": 1188659764,
      "node_id": "PRR_kwDOABII585G2YI0",
      "url": null,
      "actor": null,
      "commit_id": "f362920c2ca85853b24c1cbc1d596dd1ff2fd556",
      "commit_url": null,
      "created_at": null,
      "author_association": "MEMBER",
      "body": "ACK f362920c2ca85853b24c1cbc1d596dd1ff2fd556",
      "user": {
        "login": "aureleoules",
        "id": 22493292,
        "node_id": "MDQ6VXNlcjIyNDkzMjky",
        "avatar_url": "https://avatars.githubusercontent.com/u/22493292?v=4",
        "gravatar_id": "",
        "url": "https://api.github.com/users/aureleoules",
        "html_url": "https://github.com/aureleoules",
        "followers_url": "https://api.github.com/users/aureleoules/followers",
        "following_url": "https://api.github.com/users/aureleoules/following%7B/other_user%7D",
        "gists_url": "https://api.github.com/users/aureleoules/gists%7B/gist_id%7D",
        "starred_url": "https://api.github.com/users/aureleoules/starred%7B/owner%7D%7B/repo%7D",
        "subscriptions_url": "https://api.github.com/users/aureleoules/subscriptions",
        "organizations_url": "https://api.github.com/users/aureleoules/orgs",
        "repos_url": "https://api.github.com/users/aureleoules/repos",
        "events_url": "https://api.github.com/users/aureleoules/events%7B/privacy%7D",
        "received_events_url": "https://api.github.com/users/aureleoules/received_events",
        "type": "User",
        "site_admin": false
      },
      "html_url": "https://github.com/bitcoin/bitcoin/pull/26100#pullrequestreview-1188659764",
      "submitted_at": "2022-11-21T17:13:01Z",
      "state": "APPROVED",
      "pull_request_url": "https://api.github.com/repos/bitcoin/bitcoin/pulls/26100"
    },
    {
      "event": "reviewed",
      "id": 1188779111,
      "node_id": "PRR_kwDOABII585G21Rn",
      "url": null,
      "actor": null,
      "commit_id": "f362920c2ca85853b24c1cbc1d596dd1ff2fd556",
      "commit_url": null,
      "created_at": null,
      "author_association": "CONTRIBUTOR",
      "body": "re ACK f362920c2ca85853b24c1cbc1d596dd1ff2fd556",
      "user": {
        "login": "hernanmarino",
        "id": 87907936,
        "node_id": "MDQ6VXNlcjg3OTA3OTM2",
        "avatar_url": "https://avatars.githubusercontent.com/u/87907936?v=4",
        "gravatar_id": "",
        "url": "https://api.github.com/users/hernanmarino",
        "html_url": "https://github.com/hernanmarino",
        "followers_url": "https://api.github.com/users/hernanmarino/followers",
        "following_url": "https://api.github.com/users/hernanmarino/following%7B/other_user%7D",
        "gists_url": "https://api.github.com/users/hernanmarino/gists%7B/gist_id%7D",
        "starred_url": "https://api.github.com/users/hernanmarino/starred%7B/owner%7D%7B/repo%7D",
        "subscriptions_url": "https://api.github.com/users/hernanmarino/subscriptions",
        "organizations_url": "https://api.github.com/users/hernanmarino/orgs",
        "repos_url": "https://api.github.com/users/hernanmarino/repos",
        "events_url": "https://api.github.com/users/hernanmarino/events%7B/privacy%7D",
        "received_events_url": "https://api.github.com/users/hernanmarino/received_events",
        "type": "User",
        "site_admin": false
      },
      "html_url": "https://github.com/bitcoin/bitcoin/pull/26100#pullrequestreview-1188779111",
      "submitted_at": "2022-11-21T18:40:55Z",
      "state": "APPROVED",
      "pull_request_url": "https://api.github.com/repos/bitcoin/bitcoin/pulls/26100"
    },
    {
      "event": "merged",
      "id": 7866533829,
      "node_id": "ME_lADOABII585R6M5JzwAAAAHU4cfF",
      "url": "https://api.github.com/repos/bitcoin/bitcoin/issues/events/7866533829",
      "actor": {
        "login": "MarcoFalke",
        "id": 6399679,
        "node_id": "MDQ6VXNlcjYzOTk2Nzk=",
        "avatar_url": "https://avatars.githubusercontent.com/u/6399679?v=4",
        "gravatar_id": "",
        "url": "https://api.github.com/users/MarcoFalke",
        "html_url": "https://github.com/MarcoFalke",
        "followers_url": "https://api.github.com/users/MarcoFalke/followers",
        "following_url": "https://api.github.com/users/MarcoFalke/following%7B/other_user%7D",
        "gists_url": "https://api.github.com/users/MarcoFalke/gists%7B/gist_id%7D",
        "starred_url": "https://api.github.com/users/MarcoFalke/starred%7B/owner%7D%7B/repo%7D",
        "subscriptions_url": "https://api.github.com/users/MarcoFalke/subscriptions",
        "organizations_url": "https://api.github.com/users/MarcoFalke/orgs",
        "repos_url": "https://api.github.com/users/MarcoFalke/repos",
        "events_url": "https://api.github.com/users/MarcoFalke/events%7B/privacy%7D",
        "received_events_url": "https://api.github.com/users/MarcoFalke/received_events",
        "type": "User",
        "site_admin": false
      },
      "commit_id": "164027f824312c13c964c66bad8da95ab733b862",
      "commit_url": "https://api.github.com/repos/bitcoin/bitcoin/commits/164027f824312c13c964c66bad8da95ab733b862",
      "created_at": "2022-11-22T10:46:27Z"
    },
    {
      "event": "closed",
      "id": 7866533875,
      "node_id": "CE_lADOABII585R6M5JzwAAAAHU4cfz",
      "url": "https://api.github.com/repos/bitcoin/bitcoin/issues/events/7866533875",
      "actor": {
        "login": "MarcoFalke",
        "id": 6399679,
        "node_id": "MDQ6VXNlcjYzOTk2Nzk=",
        "avatar_url": "https://avatars.githubusercontent.com/u/6399679?v=4",
        "gravatar_id": "",
        "url": "https://api.github.com/users/MarcoFalke",
        "html_url": "https://github.com/MarcoFalke",
        "followers_url": "https://api.github.com/users/MarcoFalke/followers",
        "following_url": "https://api.github.com/users/MarcoFalke/following%7B/other_user%7D",
        "gists_url": "https://api.github.com/users/MarcoFalke/gists%7B/gist_id%7D",
        "starred_url": "https://api.github.com/users/MarcoFalke/starred%7B/owner%7D%7B/repo%7D",
        "subscriptions_url": "https://api.github.com/users/MarcoFalke/subscriptions",
        "organizations_url": "https://api.github.com/users/MarcoFalke/orgs",
        "repos_url": "https://api.github.com/users/MarcoFalke/repos",
        "events_url": "https://api.github.com/users/MarcoFalke/events%7B/privacy%7D",
        "received_events_url": "https://api.github.com/users/MarcoFalke/received_events",
        "type": "User",
        "site_admin": false
      },
      "commit_id": null,
      "commit_url": null,
      "created_at": "2022-11-22T10:46:27Z"
    },
    {
      "event": "head_ref_deleted",
      "id": 7866615380,
      "node_id": "HRDE_lADOABII585R6M5JzwAAAAHU4wZU",
      "url": "https://api.github.com/repos/bitcoin/bitcoin/issues/events/7866615380",
      "actor": {
        "login": "vasild",
        "id": 266751,
        "node_id": "MDQ6VXNlcjI2Njc1MQ==",
        "avatar_url": "https://avatars.githubusercontent.com/u/266751?v=4",
        "gravatar_id": "",
        "url": "https://api.github.com/users/vasild",
        "html_url": "https://github.com/vasild",
        "followers_url": "https://api.github.com/users/vasild/followers",
        "following_url": "https://api.github.com/users/vasild/following%7B/other_user%7D",
        "gists_url": "https://api.github.com/users/vasild/gists%7B/gist_id%7D",
        "starred_url": "https://api.github.com/users/vasild/starred%7B/owner%7D%7B/repo%7D",
        "subscriptions_url": "https://api.github.com/users/vasild/subscriptions",
        "organizations_url": "https://api.github.com/users/vasild/orgs",
        "repos_url": "https://api.github.com/users/vasild/repos",
        "events_url": "https://api.github.com/users/vasild/events%7B/privacy%7D",
        "received_events_url": "https://api.github.com/users/vasild/received_events",
        "type": "User",
        "site_admin": false
      },
      "commit_id": null,
      "commit_url": null,
      "created_at": "2022-11-22T10:55:31Z"
    },
    {
      "event": "referenced",
      "id": 7868712077,
      "node_id": "REFE_lADOABII585R6M5JzwAAAAHVAwSN",
      "url": "https://api.github.com/repos/bitcoin/bitcoin/issues/events/7868712077",
      "actor": {
        "login": "sidhujag",
        "id": 6238042,
        "node_id": "MDQ6VXNlcjYyMzgwNDI=",
        "avatar_url": "https://avatars.githubusercontent.com/u/6238042?v=4",
        "gravatar_id": "",
        "url": "https://api.github.com/users/sidhujag",
        "html_url": "https://github.com/sidhujag",
        "followers_url": "https://api.github.com/users/sidhujag/followers",
        "following_url": "https://api.github.com/users/sidhujag/following%7B/other_user%7D",
        "gists_url": "https://api.github.com/users/sidhujag/gists%7B/gist_id%7D",
        "starred_url": "https://api.github.com/users/sidhujag/starred%7B/owner%7D%7B/repo%7D",
        "subscriptions_url": "https://api.github.com/users/sidhujag/subscriptions",
        "organizations_url": "https://api.github.com/users/sidhujag/orgs",
        "repos_url": "https://api.github.com/users/sidhujag/repos",
        "events_url": "https://api.github.com/users/sidhujag/events%7B/privacy%7D",
        "received_events_url": "https://api.github.com/users/sidhujag/received_events",
        "type": "User",
        "site_admin": false
      },
      "commit_id": "40ba118dc0a2110ff37d2988ee1e0dd5f194559b",
      "commit_url": "https://api.github.com/repos/syscoin/syscoin/commits/40ba118dc0a2110ff37d2988ee1e0dd5f194559b",
      "created_at": "2022-11-22T14:52:12Z"
    }
  ],
  "comments": [
    {
      "url": "https://api.github.com/repos/bitcoin/bitcoin/pulls/comments/987937720",
      "pull_request_review_id": 1131452477,
      "id": 987937720,
      "node_id": "PRRC_kwDOABII58464ru4",
      "diff_hunk": "@@ -35,7 +35,8 @@ enum class NetPermissionFlags : uint32_t {\n     // unlimited amounts of addrs.\n     Addr = (1U << 7),\n \n-    // True if the user did not specifically set fine grained permissions\n+    // True if the user did not specifically set fine grained permissions in the\n+    // -whitebind or -whitelist commands.",
      "path": "src/net_permissions.h",
      "position": null,
      "original_position": 6,
      "commit_id": "f362920c2ca85853b24c1cbc1d596dd1ff2fd556",
      "original_commit_id": "d121024c3dce125b45f21d3b4d362b61a9d27d27",
      "in_reply_to_id": null,
      "user": {
        "login": "jonatack",
        "id": 2415484,
        "node_id": "MDQ6VXNlcjI0MTU0ODQ=",
        "avatar_url": "https://avatars.githubusercontent.com/u/2415484?v=4",
        "gravatar_id": "",
        "url": "https://api.github.com/users/jonatack",
        "html_url": "https://github.com/jonatack",
        "followers_url": "https://api.github.com/users/jonatack/followers",
        "following_url": "https://api.github.com/users/jonatack/following%7B/other_user%7D",
        "gists_url": "https://api.github.com/users/jonatack/gists%7B/gist_id%7D",
        "starred_url": "https://api.github.com/users/jonatack/starred%7B/owner%7D%7B/repo%7D",
        "subscriptions_url": "https://api.github.com/users/jonatack/subscriptions",
        "organizations_url": "https://api.github.com/users/jonatack/orgs",
        "repos_url": "https://api.github.com/users/jonatack/repos",
        "events_url": "https://api.github.com/users/jonatack/events%7B/privacy%7D",
        "received_events_url": "https://api.github.com/users/jonatack/received_events",
        "type": "User",
        "site_admin": false
      },
      "body": "Concept ACK, the clarification seems worth adding for future readers of the code. Suggest the following improvements to the proposal.\r\n\r\n```diff\r\n \r\n-    // True if the user did not specifically set fine grained permissions in the\r\n-    // -whitebind or -whitelist commands.\r\n+    // True if the user did not specifically set fine-grained permissions with\r\n+    // the -whitebind or -whitelist configuration options.\r\n```\r\n",
      "created_at": "2022-10-05T13:41:16Z",
      "updated_at": "2022-10-05T13:41:16Z",
      "html_url": "https://github.com/bitcoin/bitcoin/pull/26100#discussion_r987937720",
      "author_association": "CONTRIBUTOR",
      "_links": {
        "self": {
          "href": "https://api.github.com/repos/bitcoin/bitcoin/pulls/comments/987937720"
        },
        "pull_request": {
          "href": "https://api.github.com/repos/bitcoin/bitcoin/pulls/26100"
        }
      },
      "start_line": null,
      "original_start_line": null,
      "start_side": null,
      "line": null,
      "original_line": 39,
      "side": "RIGHT"
    },
    {
      "url": "https://api.github.com/repos/bitcoin/bitcoin/pulls/comments/1008076482",
      "pull_request_review_id": 1160082240,
      "id": 1008076482,
      "node_id": "PRRC_kwDOABII5848FgbC",
      "diff_hunk": "@@ -35,7 +35,8 @@ enum class NetPermissionFlags : uint32_t {\n     // unlimited amounts of addrs.\n     Addr = (1U << 7),\n \n-    // True if the user did not specifically set fine grained permissions\n+    // True if the user did not specifically set fine grained permissions in the\n+    // -whitebind or -whitelist commands.",
      "path": "src/net_permissions.h",
      "position": null,
      "original_position": 6,
      "commit_id": "f362920c2ca85853b24c1cbc1d596dd1ff2fd556",
      "original_commit_id": "d121024c3dce125b45f21d3b4d362b61a9d27d27",
      "in_reply_to_id": 987937720,
      "user": {
        "login": "hernanmarino",
        "id": 87907936,
        "node_id": "MDQ6VXNlcjg3OTA3OTM2",
        "avatar_url": "https://avatars.githubusercontent.com/u/87907936?v=4",
        "gravatar_id": "",
        "url": "https://api.github.com/users/hernanmarino",
        "html_url": "https://github.com/hernanmarino",
        "followers_url": "https://api.github.com/users/hernanmarino/followers",
        "following_url": "https://api.github.com/users/hernanmarino/following%7B/other_user%7D",
        "gists_url": "https://api.github.com/users/hernanmarino/gists%7B/gist_id%7D",
        "starred_url": "https://api.github.com/users/hernanmarino/starred%7B/owner%7D%7B/repo%7D",
        "subscriptions_url": "https://api.github.com/users/hernanmarino/subscriptions",
        "organizations_url": "https://api.github.com/users/hernanmarino/orgs",
        "repos_url": "https://api.github.com/users/hernanmarino/repos",
        "events_url": "https://api.github.com/users/hernanmarino/events%7B/privacy%7D",
        "received_events_url": "https://api.github.com/users/hernanmarino/received_events",
        "type": "User",
        "site_admin": false
      },
      "body": "+1",
      "created_at": "2022-10-28T13:38:14Z",
      "updated_at": "2022-10-28T13:38:29Z",
      "html_url": "https://github.com/bitcoin/bitcoin/pull/26100#discussion_r1008076482",
      "author_association": "CONTRIBUTOR",
      "_links": {
        "self": {
          "href": "https://api.github.com/repos/bitcoin/bitcoin/pulls/comments/1008076482"
        },
        "pull_request": {
          "href": "https://api.github.com/repos/bitcoin/bitcoin/pulls/26100"
        }
      },
      "start_line": null,
      "original_start_line": null,
      "start_side": null,
      "line": null,
      "original_line": 39,
      "side": "RIGHT"
    },
    {
      "url": "https://api.github.com/repos/bitcoin/bitcoin/pulls/comments/1015482305",
      "pull_request_review_id": 1170489248,
      "id": 1015482305,
      "node_id": "PRRC_kwDOABII5848hwfB",
      "diff_hunk": "@@ -35,7 +35,8 @@ enum class NetPermissionFlags : uint32_t {\n     // unlimited amounts of addrs.\n     Addr = (1U << 7),\n \n-    // True if the user did not specifically set fine grained permissions\n+    // True if the user did not specifically set fine grained permissions in the\n+    // -whitebind or -whitelist commands.",
      "path": "src/net_permissions.h",
      "position": null,
      "original_position": 6,
      "commit_id": "f362920c2ca85853b24c1cbc1d596dd1ff2fd556",
      "original_commit_id": "d121024c3dce125b45f21d3b4d362b61a9d27d27",
      "in_reply_to_id": 987937720,
      "user": {
        "login": "vasild",
        "id": 266751,
        "node_id": "MDQ6VXNlcjI2Njc1MQ==",
        "avatar_url": "https://avatars.githubusercontent.com/u/266751?v=4",
        "gravatar_id": "",
        "url": "https://api.github.com/users/vasild",
        "html_url": "https://github.com/vasild",
        "followers_url": "https://api.github.com/users/vasild/followers",
        "following_url": "https://api.github.com/users/vasild/following%7B/other_user%7D",
        "gists_url": "https://api.github.com/users/vasild/gists%7B/gist_id%7D",
        "starred_url": "https://api.github.com/users/vasild/starred%7B/owner%7D%7B/repo%7D",
        "subscriptions_url": "https://api.github.com/users/vasild/subscriptions",
        "organizations_url": "https://api.github.com/users/vasild/orgs",
        "repos_url": "https://api.github.com/users/vasild/repos",
        "events_url": "https://api.github.com/users/vasild/events%7B/privacy%7D",
        "received_events_url": "https://api.github.com/users/vasild/received_events",
        "type": "User",
        "site_admin": false
      },
      "body": "Done, thanks!",
      "created_at": "2022-11-07T14:22:16Z",
      "updated_at": "2022-11-07T14:22:16Z",
      "html_url": "https://github.com/bitcoin/bitcoin/pull/26100#discussion_r1015482305",
      "author_association": "CONTRIBUTOR",
      "_links": {
        "self": {
          "href": "https://api.github.com/repos/bitcoin/bitcoin/pulls/comments/1015482305"
        },
        "pull_request": {
          "href": "https://api.github.com/repos/bitcoin/bitcoin/pulls/26100"
        }
      },
      "start_line": null,
      "original_start_line": null,
      "start_side": null,
      "line": null,
      "original_line": 39,
      "side": "RIGHT"
    }
  ]
}