{
  "type": "pull",
  "pull": {
    "url": "https://api.github.com/repos/bitcoin/bitcoin/pulls/26300",
    "id": 1085073888,
    "node_id": "PR_kwDOABII585ArOng",
    "html_url": "https://github.com/bitcoin/bitcoin/pull/26300",
    "diff_url": "https://github.com/bitcoin/bitcoin/pull/26300.diff",
    "patch_url": "https://github.com/bitcoin/bitcoin/pull/26300.patch",
    "issue_url": "https://api.github.com/repos/bitcoin/bitcoin/issues/26300",
    "commits_url": "https://api.github.com/repos/bitcoin/bitcoin/pulls/26300/commits",
    "review_comments_url": "https://api.github.com/repos/bitcoin/bitcoin/pulls/26300/comments",
    "review_comment_url": "https://api.github.com/repos/bitcoin/bitcoin/pulls/comments%7B/number%7D",
    "comments_url": "https://api.github.com/repos/bitcoin/bitcoin/issues/26300/comments",
    "statuses_url": "https://api.github.com/repos/bitcoin/bitcoin/statuses/2a400aafda498bbaf50d1eb19a1f2bdd0d5d52bd",
    "number": 26300,
    "state": "closed",
    "locked": false,
    "maintainer_can_modify": false,
    "title": "Add Stale Bot configuration",
    "user": {
      "login": "aureleoules",
      "id": 22493292,
      "node_id": "MDQ6VXNlcjIyNDkzMjky",
      "avatar_url": "https://avatars.githubusercontent.com/u/22493292?v=4",
      "gravatar_id": "",
      "url": "https://api.github.com/users/aureleoules",
      "html_url": "https://github.com/aureleoules",
      "followers_url": "https://api.github.com/users/aureleoules/followers",
      "following_url": "https://api.github.com/users/aureleoules/following%7B/other_user%7D",
      "gists_url": "https://api.github.com/users/aureleoules/gists%7B/gist_id%7D",
      "starred_url": "https://api.github.com/users/aureleoules/starred%7B/owner%7D%7B/repo%7D",
      "subscriptions_url": "https://api.github.com/users/aureleoules/subscriptions",
      "organizations_url": "https://api.github.com/users/aureleoules/orgs",
      "repos_url": "https://api.github.com/users/aureleoules/repos",
      "events_url": "https://api.github.com/users/aureleoules/events%7B/privacy%7D",
      "received_events_url": "https://api.github.com/users/aureleoules/received_events",
      "type": "User",
      "site_admin": false
    },
    "body": "It might be a good idea to add the [Stale Bot](https://github.com/marketplace/stale) to close issues and pulls that do not receive any activity for a certain period instead of doing it manually once in a while. The timeout in this PR is configured to be 6 months.\r\n\r\n> How it works\r\n> After a period of inactivity, a label will be applied to mark an issue as stale, and optionally post a comment to notify contributors that the Issue or Pull Request will be closed.\r\n> \r\n> If the Issue or Pull Request is updated, or anyone comments, then the stale label is removed.\r\n> \r\n> If no more activity occurs, the Issue or Pull Request will be automatically closed with an optional comment.\r\n\r\nThis could also help revive old pulls/issues that were forgotten by receiving the notification from the bot.\r\n\r\nNote: Merging the PR is not sufficient to activate the bot, it needs to be activated by maintainers [here](https://github.com/marketplace/stale). See also https://github.com/probot/stale#usage.",
    "labels": [],
    "created_at": "2022-10-12T18:40:25Z",
    "updated_at": "2022-11-09T10:54:45Z",
    "closed_at": "2022-10-31T09:17:15Z",
    "mergeable_state": "unknown",
    "merge_commit_sha": "f53d69f959e0345e090254c48457b155265b8fd3",
    "assignees": [],
    "requested_reviewers": [],
    "requested_teams": [],
    "head": {
      "label": "aureleoules:2022-10-stale-bot-config",
      "ref": "2022-10-stale-bot-config",
      "sha": "2a400aafda498bbaf50d1eb19a1f2bdd0d5d52bd",
      "user": {
        "login": "aureleoules",
        "id": 22493292,
        "node_id": "MDQ6VXNlcjIyNDkzMjky",
        "avatar_url": "https://avatars.githubusercontent.com/u/22493292?v=4",
        "gravatar_id": "",
        "url": "https://api.github.com/users/aureleoules",
        "html_url": "https://github.com/aureleoules",
        "followers_url": "https://api.github.com/users/aureleoules/followers",
        "following_url": "https://api.github.com/users/aureleoules/following%7B/other_user%7D",
        "gists_url": "https://api.github.com/users/aureleoules/gists%7B/gist_id%7D",
        "starred_url": "https://api.github.com/users/aureleoules/starred%7B/owner%7D%7B/repo%7D",
        "subscriptions_url": "https://api.github.com/users/aureleoules/subscriptions",
        "organizations_url": "https://api.github.com/users/aureleoules/orgs",
        "repos_url": "https://api.github.com/users/aureleoules/repos",
        "events_url": "https://api.github.com/users/aureleoules/events%7B/privacy%7D",
        "received_events_url": "https://api.github.com/users/aureleoules/received_events",
        "type": "User",
        "site_admin": false
      },
      "repo": {
        "id": 468927670,
        "node_id": "R_kgDOG_NEtg",
        "name": "bitcoin",
        "full_name": "aureleoules/bitcoin",
        "owner": {
          "login": "aureleoules",
          "id": 22493292,
          "node_id": "MDQ6VXNlcjIyNDkzMjky",
          "avatar_url": "https://avatars.githubusercontent.com/u/22493292?v=4",
          "gravatar_id": "",
          "url": "https://api.github.com/users/aureleoules",
          "html_url": "https://github.com/aureleoules",
          "followers_url": "https://api.github.com/users/aureleoules/followers",
          "following_url": "https://api.github.com/users/aureleoules/following%7B/other_user%7D",
          "gists_url": "https://api.github.com/users/aureleoules/gists%7B/gist_id%7D",
          "starred_url": "https://api.github.com/users/aureleoules/starred%7B/owner%7D%7B/repo%7D",
          "subscriptions_url": "https://api.github.com/users/aureleoules/subscriptions",
          "organizations_url": "https://api.github.com/users/aureleoules/orgs",
          "repos_url": "https://api.github.com/users/aureleoules/repos",
          "events_url": "https://api.github.com/users/aureleoules/events%7B/privacy%7D",
          "received_events_url": "https://api.github.com/users/aureleoules/received_events",
          "type": "User",
          "site_admin": false
        },
        "private": false,
        "html_url": "https://github.com/aureleoules/bitcoin",
        "description": "Bitcoin Core integration/staging tree",
        "fork": true,
        "url": "https://api.github.com/repos/aureleoules/bitcoin",
        "archive_url": "https://api.github.com/repos/aureleoules/bitcoin/%7Barchive_format%7D%7B/ref%7D",
        "assignees_url": "https://api.github.com/repos/aureleoules/bitcoin/assignees%7B/user%7D",
        "blobs_url": "https://api.github.com/repos/aureleoules/bitcoin/git/blobs%7B/sha%7D",
        "branches_url": "https://api.github.com/repos/aureleoules/bitcoin/branches%7B/branch%7D",
        "collaborators_url": "https://api.github.com/repos/aureleoules/bitcoin/collaborators%7B/collaborator%7D",
        "comments_url": "https://api.github.com/repos/aureleoules/bitcoin/comments%7B/number%7D",
        "commits_url": "https://api.github.com/repos/aureleoules/bitcoin/commits%7B/sha%7D",
        "compare_url": "https://api.github.com/repos/aureleoules/bitcoin/compare/%7Bbase%7D...%7Bhead%7D",
        "contents_url": "https://api.github.com/repos/aureleoules/bitcoin/contents/%7B+path%7D",
        "contributors_url": "https://api.github.com/repos/aureleoules/bitcoin/contributors",
        "deployments_url": "https://api.github.com/repos/aureleoules/bitcoin/deployments",
        "downloads_url": "https://api.github.com/repos/aureleoules/bitcoin/downloads",
        "events_url": "https://api.github.com/repos/aureleoules/bitcoin/events",
        "forks_url": "https://api.github.com/repos/aureleoules/bitcoin/forks",
        "git_commits_url": "https://api.github.com/repos/aureleoules/bitcoin/git/commits%7B/sha%7D",
        "git_refs_url": "https://api.github.com/repos/aureleoules/bitcoin/git/refs%7B/sha%7D",
        "git_tags_url": "https://api.github.com/repos/aureleoules/bitcoin/git/tags%7B/sha%7D",
        "git_url": "git://github.com/aureleoules/bitcoin.git",
        "issue_comment_url": "https://api.github.com/repos/aureleoules/bitcoin/issues/comments%7B/number%7D",
        "issue_events_url": "https://api.github.com/repos/aureleoules/bitcoin/issues/events%7B/number%7D",
        "issues_url": "https://api.github.com/repos/aureleoules/bitcoin/issues%7B/number%7D",
        "keys_url": "https://api.github.com/repos/aureleoules/bitcoin/keys%7B/key_id%7D",
        "labels_url": "https://api.github.com/repos/aureleoules/bitcoin/labels%7B/name%7D",
        "languages_url": "https://api.github.com/repos/aureleoules/bitcoin/languages",
        "merges_url": "https://api.github.com/repos/aureleoules/bitcoin/merges",
        "milestones_url": "https://api.github.com/repos/aureleoules/bitcoin/milestones%7B/number%7D",
        "notifications_url": "https://api.github.com/repos/aureleoules/bitcoin/notifications%7B?since,all,participating}",
        "pulls_url": "https://api.github.com/repos/aureleoules/bitcoin/pulls%7B/number%7D",
        "releases_url": "https://api.github.com/repos/aureleoules/bitcoin/releases%7B/id%7D",
        "ssh_url": "git@github.com:aureleoules/bitcoin.git",
        "stargazers_url": "https://api.github.com/repos/aureleoules/bitcoin/stargazers",
        "statuses_url": "https://api.github.com/repos/aureleoules/bitcoin/statuses/%7Bsha%7D",
        "subscribers_url": "https://api.github.com/repos/aureleoules/bitcoin/subscribers",
        "subscription_url": "https://api.github.com/repos/aureleoules/bitcoin/subscription",
        "tags_url": "https://api.github.com/repos/aureleoules/bitcoin/tags",
        "teams_url": "https://api.github.com/repos/aureleoules/bitcoin/teams",
        "trees_url": "https://api.github.com/repos/aureleoules/bitcoin/git/trees%7B/sha%7D",
        "clone_url": "https://github.com/aureleoules/bitcoin.git",
        "hooks_url": "https://api.github.com/repos/aureleoules/bitcoin/hooks",
        "svn_url": "https://github.com/aureleoules/bitcoin",
        "homepage": "https://bitcoincore.org/en/download",
        "language": "C++",
        "forks_count": 0,
        "stargazers_count": 0,
        "watchers_count": 0,
        "size": 229477,
        "default_branch": "master",
        "open_issues_count": 3,
        "is_template": false,
        "topics": [],
        "has_issues": false,
        "has_projects": true,
        "has_wiki": false,
        "has_pages": false,
        "has_downloads": false,
        "archived": false,
        "disabled": false,
        "visibility": "public",
        "pushed_at": "2023-07-27T22:16:01Z",
        "created_at": "2022-03-11T23:21:06Z",
        "updated_at": "2022-12-07T18:06:10Z",
        "license": {
          "key": "mit",
          "name": "MIT License",
          "node_id": "MDc6TGljZW5zZTEz",
          "spdx_id": "MIT",
          "url": "https://api.github.com/licenses/mit",
          "html_url": null,
          "description": null,
          "implementation": null,
          "permissions": null,
          "conditions": null,
          "limitations": null,
          "body": null,
          "featured": null
        }
      }
    },
    "base": {
      "label": "bitcoin:master",
      "ref": "master",
      "sha": "cc12b8947b6d3f6c4b9cd4d147543dce693c6758",
      "user": {
        "login": "bitcoin",
        "id": 528860,
        "node_id": "MDEyOk9yZ2FuaXphdGlvbjUyODg2MA==",
        "avatar_url": "https://avatars.githubusercontent.com/u/528860?v=4",
        "gravatar_id": "",
        "url": "https://api.github.com/users/bitcoin",
        "html_url": "https://github.com/bitcoin",
        "followers_url": "https://api.github.com/users/bitcoin/followers",
        "following_url": "https://api.github.com/users/bitcoin/following%7B/other_user%7D",
        "gists_url": "https://api.github.com/users/bitcoin/gists%7B/gist_id%7D",
        "starred_url": "https://api.github.com/users/bitcoin/starred%7B/owner%7D%7B/repo%7D",
        "subscriptions_url": "https://api.github.com/users/bitcoin/subscriptions",
        "organizations_url": "https://api.github.com/users/bitcoin/orgs",
        "repos_url": "https://api.github.com/users/bitcoin/repos",
        "events_url": "https://api.github.com/users/bitcoin/events%7B/privacy%7D",
        "received_events_url": "https://api.github.com/users/bitcoin/received_events",
        "type": "Organization",
        "site_admin": false
      },
      "repo": {
        "id": 1181927,
        "node_id": "MDEwOlJlcG9zaXRvcnkxMTgxOTI3",
        "name": "bitcoin",
        "full_name": "bitcoin/bitcoin",
        "owner": {
          "login": "bitcoin",
          "id": 528860,
          "node_id": "MDEyOk9yZ2FuaXphdGlvbjUyODg2MA==",
          "avatar_url": "https://avatars.githubusercontent.com/u/528860?v=4",
          "gravatar_id": "",
          "url": "https://api.github.com/users/bitcoin",
          "html_url": "https://github.com/bitcoin",
          "followers_url": "https://api.github.com/users/bitcoin/followers",
          "following_url": "https://api.github.com/users/bitcoin/following%7B/other_user%7D",
          "gists_url": "https://api.github.com/users/bitcoin/gists%7B/gist_id%7D",
          "starred_url": "https://api.github.com/users/bitcoin/starred%7B/owner%7D%7B/repo%7D",
          "subscriptions_url": "https://api.github.com/users/bitcoin/subscriptions",
          "organizations_url": "https://api.github.com/users/bitcoin/orgs",
          "repos_url": "https://api.github.com/users/bitcoin/repos",
          "events_url": "https://api.github.com/users/bitcoin/events%7B/privacy%7D",
          "received_events_url": "https://api.github.com/users/bitcoin/received_events",
          "type": "Organization",
          "site_admin": false
        },
        "private": false,
        "html_url": "https://github.com/bitcoin/bitcoin",
        "description": "Bitcoin Core integration/staging tree",
        "fork": false,
        "url": "https://api.github.com/repos/bitcoin/bitcoin",
        "archive_url": "https://api.github.com/repos/bitcoin/bitcoin/%7Barchive_format%7D%7B/ref%7D",
        "assignees_url": "https://api.github.com/repos/bitcoin/bitcoin/assignees%7B/user%7D",
        "blobs_url": "https://api.github.com/repos/bitcoin/bitcoin/git/blobs%7B/sha%7D",
        "branches_url": "https://api.github.com/repos/bitcoin/bitcoin/branches%7B/branch%7D",
        "collaborators_url": "https://api.github.com/repos/bitcoin/bitcoin/collaborators%7B/collaborator%7D",
        "comments_url": "https://api.github.com/repos/bitcoin/bitcoin/comments%7B/number%7D",
        "commits_url": "https://api.github.com/repos/bitcoin/bitcoin/commits%7B/sha%7D",
        "compare_url": "https://api.github.com/repos/bitcoin/bitcoin/compare/%7Bbase%7D...%7Bhead%7D",
        "contents_url": "https://api.github.com/repos/bitcoin/bitcoin/contents/%7B+path%7D",
        "contributors_url": "https://api.github.com/repos/bitcoin/bitcoin/contributors",
        "deployments_url": "https://api.github.com/repos/bitcoin/bitcoin/deployments",
        "downloads_url": "https://api.github.com/repos/bitcoin/bitcoin/downloads",
        "events_url": "https://api.github.com/repos/bitcoin/bitcoin/events",
        "forks_url": "https://api.github.com/repos/bitcoin/bitcoin/forks",
        "git_commits_url": "https://api.github.com/repos/bitcoin/bitcoin/git/commits%7B/sha%7D",
        "git_refs_url": "https://api.github.com/repos/bitcoin/bitcoin/git/refs%7B/sha%7D",
        "git_tags_url": "https://api.github.com/repos/bitcoin/bitcoin/git/tags%7B/sha%7D",
        "git_url": "git://github.com/bitcoin/bitcoin.git",
        "issue_comment_url": "https://api.github.com/repos/bitcoin/bitcoin/issues/comments%7B/number%7D",
        "issue_events_url": "https://api.github.com/repos/bitcoin/bitcoin/issues/events%7B/number%7D",
        "issues_url": "https://api.github.com/repos/bitcoin/bitcoin/issues%7B/number%7D",
        "keys_url": "https://api.github.com/repos/bitcoin/bitcoin/keys%7B/key_id%7D",
        "labels_url": "https://api.github.com/repos/bitcoin/bitcoin/labels%7B/name%7D",
        "languages_url": "https://api.github.com/repos/bitcoin/bitcoin/languages",
        "merges_url": "https://api.github.com/repos/bitcoin/bitcoin/merges",
        "milestones_url": "https://api.github.com/repos/bitcoin/bitcoin/milestones%7B/number%7D",
        "notifications_url": "https://api.github.com/repos/bitcoin/bitcoin/notifications%7B?since,all,participating}",
        "pulls_url": "https://api.github.com/repos/bitcoin/bitcoin/pulls%7B/number%7D",
        "releases_url": "https://api.github.com/repos/bitcoin/bitcoin/releases%7B/id%7D",
        "ssh_url": "git@github.com:bitcoin/bitcoin.git",
        "stargazers_url": "https://api.github.com/repos/bitcoin/bitcoin/stargazers",
        "statuses_url": "https://api.github.com/repos/bitcoin/bitcoin/statuses/%7Bsha%7D",
        "subscribers_url": "https://api.github.com/repos/bitcoin/bitcoin/subscribers",
        "subscription_url": "https://api.github.com/repos/bitcoin/bitcoin/subscription",
        "tags_url": "https://api.github.com/repos/bitcoin/bitcoin/tags",
        "teams_url": "https://api.github.com/repos/bitcoin/bitcoin/teams",
        "trees_url": "https://api.github.com/repos/bitcoin/bitcoin/git/trees%7B/sha%7D",
        "clone_url": "https://github.com/bitcoin/bitcoin.git",
        "hooks_url": "https://api.github.com/repos/bitcoin/bitcoin/hooks",
        "svn_url": "https://github.com/bitcoin/bitcoin",
        "homepage": "https://bitcoincore.org/en/download",
        "language": "C++",
        "forks_count": 35476,
        "stargazers_count": 70608,
        "watchers_count": 70608,
        "size": 236222,
        "default_branch": "master",
        "open_issues_count": 673,
        "is_template": false,
        "topics": [
          "bitcoin",
          "c-plus-plus",
          "cryptocurrency",
          "cryptography",
          "p2p"
        ],
        "has_issues": true,
        "has_projects": true,
        "has_wiki": false,
        "has_pages": false,
        "has_downloads": false,
        "archived": false,
        "disabled": false,
        "visibility": "public",
        "pushed_at": "2023-08-03T00:03:27Z",
        "created_at": "2010-12-19T15:16:43Z",
        "updated_at": "2023-08-02T18:21:18Z",
        "license": {
          "key": "mit",
          "name": "MIT License",
          "node_id": "MDc6TGljZW5zZTEz",
          "spdx_id": "MIT",
          "url": "https://api.github.com/licenses/mit",
          "html_url": null,
          "description": null,
          "implementation": null,
          "permissions": null,
          "conditions": null,
          "limitations": null,
          "body": null,
          "featured": null
        }
      }
    },
    "_links": {
      "self": {
        "href": "https://api.github.com/repos/bitcoin/bitcoin/pulls/26300"
      }
    },
    "author_association": "MEMBER",
    "draft": false,
    "additions": 57,
    "deletions": 0,
    "changed_files": 1,
    "commits": 1,
    "review_comments": 8,
    "comments": 10
  },
  "events": [
    {
      "event": "committed",
      "id": null,
      "node_id": "C_kwDOABII59oAKDJhNDAwYWFmZGE0OThiYmFmNTBkMWViMTlhMWYyYmRkMGQ1ZDUyYmQ",
      "url": "https://api.github.com/repos/bitcoin/bitcoin/git/commits/2a400aafda498bbaf50d1eb19a1f2bdd0d5d52bd",
      "actor": null,
      "commit_id": null,
      "commit_url": null,
      "created_at": null,
      "html_url": "https://github.com/bitcoin/bitcoin/commit/2a400aafda498bbaf50d1eb19a1f2bdd0d5d52bd",
      "tree": {
        "sha": "6a42f6ed8ea4af00f6e5c7ed3575dc5e45222ed8",
        "url": "https://api.github.com/repos/bitcoin/bitcoin/git/trees/6a42f6ed8ea4af00f6e5c7ed3575dc5e45222ed8"
      },
      "verification": {
        "verified": true,
        "reason": "valid",
        "payload": "tree 6a42f6ed8ea4af00f6e5c7ed3575dc5e45222ed8\nparent 1d277f42236d6074ea84c407ae0863ae943f27e4\nauthor Aurèle Oulès <aurele@oules.com> 1665599116 +0200\ncommitter Aurèle Oulès <aurele@oules.com> 1665599529 +0200\n\nAdd Stale Bot configuration\n",
        "signature": "-----BEGIN PGP SIGNATURE-----\n\niHUEABYKAB0WIQRWpTAYMQugla4ROcBV85dvcAHZmAUCY0cIKgAKCRBV85dvcAHZ\nmJQVAP9RHoHm2de5xBziVD94AfKkAPSkCdJf9U+wLNnsZmjoKgEAtbcU7xkp8voe\nFB3SYAzA1yFE+zw+Oz8/WImvEyHKtw4=\n=wy29\n-----END PGP SIGNATURE-----"
      },
      "parents": [
        {
          "url": "https://api.github.com/repos/bitcoin/bitcoin/git/commits/1d277f42236d6074ea84c407ae0863ae943f27e4",
          "sha": "1d277f42236d6074ea84c407ae0863ae943f27e4",
          "html_url": "https://github.com/bitcoin/bitcoin/commit/1d277f42236d6074ea84c407ae0863ae943f27e4"
        }
      ],
      "message": "Add Stale Bot configuration",
      "committer": {
        "name": "Aurèle Oulès",
        "email": "aurele@oules.com",
        "date": "2022-10-12T18:32:09Z"
      },
      "author": {
        "name": "Aurèle Oulès",
        "email": "aurele@oules.com",
        "date": "2022-10-12T18:25:16Z"
      },
      "sha": "2a400aafda498bbaf50d1eb19a1f2bdd0d5d52bd"
    },
    {
      "event": "commented",
      "id": 1276588217,
      "node_id": "IC_kwDOABII585MFzC5",
      "url": "https://api.github.com/repos/bitcoin/bitcoin/issues/comments/1276588217",
      "actor": {
        "login": "aureleoules",
        "id": 22493292,
        "node_id": "MDQ6VXNlcjIyNDkzMjky",
        "avatar_url": "https://avatars.githubusercontent.com/u/22493292?v=4",
        "gravatar_id": "",
        "url": "https://api.github.com/users/aureleoules",
        "html_url": "https://github.com/aureleoules",
        "followers_url": "https://api.github.com/users/aureleoules/followers",
        "following_url": "https://api.github.com/users/aureleoules/following%7B/other_user%7D",
        "gists_url": "https://api.github.com/users/aureleoules/gists%7B/gist_id%7D",
        "starred_url": "https://api.github.com/users/aureleoules/starred%7B/owner%7D%7B/repo%7D",
        "subscriptions_url": "https://api.github.com/users/aureleoules/subscriptions",
        "organizations_url": "https://api.github.com/users/aureleoules/orgs",
        "repos_url": "https://api.github.com/users/aureleoules/repos",
        "events_url": "https://api.github.com/users/aureleoules/events%7B/privacy%7D",
        "received_events_url": "https://api.github.com/users/aureleoules/received_events",
        "type": "User",
        "site_admin": false
      },
      "commit_id": null,
      "commit_url": null,
      "created_at": "2022-10-12T18:42:05Z",
      "updated_at": "2022-10-12T18:42:05Z",
      "author_association": "MEMBER",
      "body": "Friendly ping as you might be interested @achow101 @glozow considering you're closing stale pulls.",
      "user": {
        "login": "aureleoules",
        "id": 22493292,
        "node_id": "MDQ6VXNlcjIyNDkzMjky",
        "avatar_url": "https://avatars.githubusercontent.com/u/22493292?v=4",
        "gravatar_id": "",
        "url": "https://api.github.com/users/aureleoules",
        "html_url": "https://github.com/aureleoules",
        "followers_url": "https://api.github.com/users/aureleoules/followers",
        "following_url": "https://api.github.com/users/aureleoules/following%7B/other_user%7D",
        "gists_url": "https://api.github.com/users/aureleoules/gists%7B/gist_id%7D",
        "starred_url": "https://api.github.com/users/aureleoules/starred%7B/owner%7D%7B/repo%7D",
        "subscriptions_url": "https://api.github.com/users/aureleoules/subscriptions",
        "organizations_url": "https://api.github.com/users/aureleoules/orgs",
        "repos_url": "https://api.github.com/users/aureleoules/repos",
        "events_url": "https://api.github.com/users/aureleoules/events%7B/privacy%7D",
        "received_events_url": "https://api.github.com/users/aureleoules/received_events",
        "type": "User",
        "site_admin": false
      },
      "html_url": "https://github.com/bitcoin/bitcoin/pull/26300#issuecomment-1276588217",
      "issue_url": "https://api.github.com/repos/bitcoin/bitcoin/issues/26300"
    },
    {
      "event": "mentioned",
      "id": 7574410512,
      "node_id": "MEE_lADOABII585T163TzwAAAAHDeFUQ",
      "url": "https://api.github.com/repos/bitcoin/bitcoin/issues/events/7574410512",
      "actor": {
        "login": "achow101",
        "id": 3782274,
        "node_id": "MDQ6VXNlcjM3ODIyNzQ=",
        "avatar_url": "https://avatars.githubusercontent.com/u/3782274?v=4",
        "gravatar_id": "",
        "url": "https://api.github.com/users/achow101",
        "html_url": "https://github.com/achow101",
        "followers_url": "https://api.github.com/users/achow101/followers",
        "following_url": "https://api.github.com/users/achow101/following%7B/other_user%7D",
        "gists_url": "https://api.github.com/users/achow101/gists%7B/gist_id%7D",
        "starred_url": "https://api.github.com/users/achow101/starred%7B/owner%7D%7B/repo%7D",
        "subscriptions_url": "https://api.github.com/users/achow101/subscriptions",
        "organizations_url": "https://api.github.com/users/achow101/orgs",
        "repos_url": "https://api.github.com/users/achow101/repos",
        "events_url": "https://api.github.com/users/achow101/events%7B/privacy%7D",
        "received_events_url": "https://api.github.com/users/achow101/received_events",
        "type": "User",
        "site_admin": false
      },
      "commit_id": null,
      "commit_url": null,
      "created_at": "2022-10-12T18:42:05Z"
    },
    {
      "event": "subscribed",
      "id": 7574410530,
      "node_id": "SE_lADOABII585T163TzwAAAAHDeFUi",
      "url": "https://api.github.com/repos/bitcoin/bitcoin/issues/events/7574410530",
      "actor": {
        "login": "achow101",
        "id": 3782274,
        "node_id": "MDQ6VXNlcjM3ODIyNzQ=",
        "avatar_url": "https://avatars.githubusercontent.com/u/3782274?v=4",
        "gravatar_id": "",
        "url": "https://api.github.com/users/achow101",
        "html_url": "https://github.com/achow101",
        "followers_url": "https://api.github.com/users/achow101/followers",
        "following_url": "https://api.github.com/users/achow101/following%7B/other_user%7D",
        "gists_url": "https://api.github.com/users/achow101/gists%7B/gist_id%7D",
        "starred_url": "https://api.github.com/users/achow101/starred%7B/owner%7D%7B/repo%7D",
        "subscriptions_url": "https://api.github.com/users/achow101/subscriptions",
        "organizations_url": "https://api.github.com/users/achow101/orgs",
        "repos_url": "https://api.github.com/users/achow101/repos",
        "events_url": "https://api.github.com/users/achow101/events%7B/privacy%7D",
        "received_events_url": "https://api.github.com/users/achow101/received_events",
        "type": "User",
        "site_admin": false
      },
      "commit_id": null,
      "commit_url": null,
      "created_at": "2022-10-12T18:42:05Z"
    },
    {
      "event": "mentioned",
      "id": 7574410557,
      "node_id": "MEE_lADOABII585T163TzwAAAAHDeFU9",
      "url": "https://api.github.com/repos/bitcoin/bitcoin/issues/events/7574410557",
      "actor": {
        "login": "glozow",
        "id": 25183001,
        "node_id": "MDQ6VXNlcjI1MTgzMDAx",
        "avatar_url": "https://avatars.githubusercontent.com/u/25183001?v=4",
        "gravatar_id": "",
        "url": "https://api.github.com/users/glozow",
        "html_url": "https://github.com/glozow",
        "followers_url": "https://api.github.com/users/glozow/followers",
        "following_url": "https://api.github.com/users/glozow/following%7B/other_user%7D",
        "gists_url": "https://api.github.com/users/glozow/gists%7B/gist_id%7D",
        "starred_url": "https://api.github.com/users/glozow/starred%7B/owner%7D%7B/repo%7D",
        "subscriptions_url": "https://api.github.com/users/glozow/subscriptions",
        "organizations_url": "https://api.github.com/users/glozow/orgs",
        "repos_url": "https://api.github.com/users/glozow/repos",
        "events_url": "https://api.github.com/users/glozow/events%7B/privacy%7D",
        "received_events_url": "https://api.github.com/users/glozow/received_events",
        "type": "User",
        "site_admin": false
      },
      "commit_id": null,
      "commit_url": null,
      "created_at": "2022-10-12T18:42:06Z"
    },
    {
      "event": "subscribed",
      "id": 7574410569,
      "node_id": "SE_lADOABII585T163TzwAAAAHDeFVJ",
      "url": "https://api.github.com/repos/bitcoin/bitcoin/issues/events/7574410569",
      "actor": {
        "login": "glozow",
        "id": 25183001,
        "node_id": "MDQ6VXNlcjI1MTgzMDAx",
        "avatar_url": "https://avatars.githubusercontent.com/u/25183001?v=4",
        "gravatar_id": "",
        "url": "https://api.github.com/users/glozow",
        "html_url": "https://github.com/glozow",
        "followers_url": "https://api.github.com/users/glozow/followers",
        "following_url": "https://api.github.com/users/glozow/following%7B/other_user%7D",
        "gists_url": "https://api.github.com/users/glozow/gists%7B/gist_id%7D",
        "starred_url": "https://api.github.com/users/glozow/starred%7B/owner%7D%7B/repo%7D",
        "subscriptions_url": "https://api.github.com/users/glozow/subscriptions",
        "organizations_url": "https://api.github.com/users/glozow/orgs",
        "repos_url": "https://api.github.com/users/glozow/repos",
        "events_url": "https://api.github.com/users/glozow/events%7B/privacy%7D",
        "received_events_url": "https://api.github.com/users/glozow/received_events",
        "type": "User",
        "site_admin": false
      },
      "commit_id": null,
      "commit_url": null,
      "created_at": "2022-10-12T18:42:06Z"
    },
    {
      "event": "commented",
      "id": 1276764405,
      "node_id": "IC_kwDOABII585MGeD1",
      "url": "https://api.github.com/repos/bitcoin/bitcoin/issues/comments/1276764405",
      "actor": {
        "login": "brunoerg",
        "id": 19480819,
        "node_id": "MDQ6VXNlcjE5NDgwODE5",
        "avatar_url": "https://avatars.githubusercontent.com/u/19480819?v=4",
        "gravatar_id": "",
        "url": "https://api.github.com/users/brunoerg",
        "html_url": "https://github.com/brunoerg",
        "followers_url": "https://api.github.com/users/brunoerg/followers",
        "following_url": "https://api.github.com/users/brunoerg/following%7B/other_user%7D",
        "gists_url": "https://api.github.com/users/brunoerg/gists%7B/gist_id%7D",
        "starred_url": "https://api.github.com/users/brunoerg/starred%7B/owner%7D%7B/repo%7D",
        "subscriptions_url": "https://api.github.com/users/brunoerg/subscriptions",
        "organizations_url": "https://api.github.com/users/brunoerg/orgs",
        "repos_url": "https://api.github.com/users/brunoerg/repos",
        "events_url": "https://api.github.com/users/brunoerg/events%7B/privacy%7D",
        "received_events_url": "https://api.github.com/users/brunoerg/received_events",
        "type": "User",
        "site_admin": false
      },
      "commit_id": null,
      "commit_url": null,
      "created_at": "2022-10-12T21:39:56Z",
      "updated_at": "2022-10-12T21:39:56Z",
      "author_association": "CONTRIBUTOR",
      "body": "Seems interesting. I believe it is difficult to manage which PRs look \"abandoned\" and which PRs are lacking reviewing.",
      "user": {
        "login": "brunoerg",
        "id": 19480819,
        "node_id": "MDQ6VXNlcjE5NDgwODE5",
        "avatar_url": "https://avatars.githubusercontent.com/u/19480819?v=4",
        "gravatar_id": "",
        "url": "https://api.github.com/users/brunoerg",
        "html_url": "https://github.com/brunoerg",
        "followers_url": "https://api.github.com/users/brunoerg/followers",
        "following_url": "https://api.github.com/users/brunoerg/following%7B/other_user%7D",
        "gists_url": "https://api.github.com/users/brunoerg/gists%7B/gist_id%7D",
        "starred_url": "https://api.github.com/users/brunoerg/starred%7B/owner%7D%7B/repo%7D",
        "subscriptions_url": "https://api.github.com/users/brunoerg/subscriptions",
        "organizations_url": "https://api.github.com/users/brunoerg/orgs",
        "repos_url": "https://api.github.com/users/brunoerg/repos",
        "events_url": "https://api.github.com/users/brunoerg/events%7B/privacy%7D",
        "received_events_url": "https://api.github.com/users/brunoerg/received_events",
        "type": "User",
        "site_admin": false
      },
      "html_url": "https://github.com/bitcoin/bitcoin/pull/26300#issuecomment-1276764405",
      "issue_url": "https://api.github.com/repos/bitcoin/bitcoin/issues/26300"
    },
    {
      "event": "commented",
      "id": 1276789912,
      "node_id": "IC_kwDOABII585MGkSY",
      "url": "https://api.github.com/repos/bitcoin/bitcoin/issues/comments/1276789912",
      "actor": {
        "login": "fanquake",
        "id": 863730,
        "node_id": "MDQ6VXNlcjg2MzczMA==",
        "avatar_url": "https://avatars.githubusercontent.com/u/863730?v=4",
        "gravatar_id": "",
        "url": "https://api.github.com/users/fanquake",
        "html_url": "https://github.com/fanquake",
        "followers_url": "https://api.github.com/users/fanquake/followers",
        "following_url": "https://api.github.com/users/fanquake/following%7B/other_user%7D",
        "gists_url": "https://api.github.com/users/fanquake/gists%7B/gist_id%7D",
        "starred_url": "https://api.github.com/users/fanquake/starred%7B/owner%7D%7B/repo%7D",
        "subscriptions_url": "https://api.github.com/users/fanquake/subscriptions",
        "organizations_url": "https://api.github.com/users/fanquake/orgs",
        "repos_url": "https://api.github.com/users/fanquake/repos",
        "events_url": "https://api.github.com/users/fanquake/events%7B/privacy%7D",
        "received_events_url": "https://api.github.com/users/fanquake/received_events",
        "type": "User",
        "site_admin": false
      },
      "commit_id": null,
      "commit_url": null,
      "created_at": "2022-10-12T22:16:57Z",
      "updated_at": "2022-10-12T22:16:57Z",
      "author_association": "MEMBER",
      "body": "We already have a drahtbot that does something very similar.",
      "user": {
        "login": "fanquake",
        "id": 863730,
        "node_id": "MDQ6VXNlcjg2MzczMA==",
        "avatar_url": "https://avatars.githubusercontent.com/u/863730?v=4",
        "gravatar_id": "",
        "url": "https://api.github.com/users/fanquake",
        "html_url": "https://github.com/fanquake",
        "followers_url": "https://api.github.com/users/fanquake/followers",
        "following_url": "https://api.github.com/users/fanquake/following%7B/other_user%7D",
        "gists_url": "https://api.github.com/users/fanquake/gists%7B/gist_id%7D",
        "starred_url": "https://api.github.com/users/fanquake/starred%7B/owner%7D%7B/repo%7D",
        "subscriptions_url": "https://api.github.com/users/fanquake/subscriptions",
        "organizations_url": "https://api.github.com/users/fanquake/orgs",
        "repos_url": "https://api.github.com/users/fanquake/repos",
        "events_url": "https://api.github.com/users/fanquake/events%7B/privacy%7D",
        "received_events_url": "https://api.github.com/users/fanquake/received_events",
        "type": "User",
        "site_admin": false
      },
      "html_url": "https://github.com/bitcoin/bitcoin/pull/26300#issuecomment-1276789912",
      "issue_url": "https://api.github.com/repos/bitcoin/bitcoin/issues/26300"
    },
    {
      "event": "commented",
      "id": 1276826958,
      "node_id": "IC_kwDOABII585MGtVO",
      "url": "https://api.github.com/repos/bitcoin/bitcoin/issues/comments/1276826958",
      "actor": {
        "login": "achow101",
        "id": 3782274,
        "node_id": "MDQ6VXNlcjM3ODIyNzQ=",
        "avatar_url": "https://avatars.githubusercontent.com/u/3782274?v=4",
        "gravatar_id": "",
        "url": "https://api.github.com/users/achow101",
        "html_url": "https://github.com/achow101",
        "followers_url": "https://api.github.com/users/achow101/followers",
        "following_url": "https://api.github.com/users/achow101/following%7B/other_user%7D",
        "gists_url": "https://api.github.com/users/achow101/gists%7B/gist_id%7D",
        "starred_url": "https://api.github.com/users/achow101/starred%7B/owner%7D%7B/repo%7D",
        "subscriptions_url": "https://api.github.com/users/achow101/subscriptions",
        "organizations_url": "https://api.github.com/users/achow101/orgs",
        "repos_url": "https://api.github.com/users/achow101/repos",
        "events_url": "https://api.github.com/users/achow101/events%7B/privacy%7D",
        "received_events_url": "https://api.github.com/users/achow101/received_events",
        "type": "User",
        "site_admin": false
      },
      "commit_id": null,
      "commit_url": null,
      "created_at": "2022-10-12T23:15:59Z",
      "updated_at": "2022-10-12T23:15:59Z",
      "author_association": "MEMBER",
      "body": "Drahtbot does do part of this, but not the closing part. The issue with closing of \"stale\" PRs is the determination of staleness. It is context dependent, for example PRs that are the parents of a project may become \"stale\" but shouldn't be closed. The author of a PR also has an effect on staleness, e.g. a frequent contributor having a \"stale\" PR is probably more likely to come back and update the PR when prompted vs. a one time drive-by contribution may not get any follow-up.",
      "user": {
        "login": "achow101",
        "id": 3782274,
        "node_id": "MDQ6VXNlcjM3ODIyNzQ=",
        "avatar_url": "https://avatars.githubusercontent.com/u/3782274?v=4",
        "gravatar_id": "",
        "url": "https://api.github.com/users/achow101",
        "html_url": "https://github.com/achow101",
        "followers_url": "https://api.github.com/users/achow101/followers",
        "following_url": "https://api.github.com/users/achow101/following%7B/other_user%7D",
        "gists_url": "https://api.github.com/users/achow101/gists%7B/gist_id%7D",
        "starred_url": "https://api.github.com/users/achow101/starred%7B/owner%7D%7B/repo%7D",
        "subscriptions_url": "https://api.github.com/users/achow101/subscriptions",
        "organizations_url": "https://api.github.com/users/achow101/orgs",
        "repos_url": "https://api.github.com/users/achow101/repos",
        "events_url": "https://api.github.com/users/achow101/events%7B/privacy%7D",
        "received_events_url": "https://api.github.com/users/achow101/received_events",
        "type": "User",
        "site_admin": false
      },
      "html_url": "https://github.com/bitcoin/bitcoin/pull/26300#issuecomment-1276826958",
      "issue_url": "https://api.github.com/repos/bitcoin/bitcoin/issues/26300"
    },
    {
      "event": "commented",
      "id": 1276830002,
      "node_id": "IC_kwDOABII585MGuEy",
      "url": "https://api.github.com/repos/bitcoin/bitcoin/issues/comments/1276830002",
      "actor": {
        "login": "fanquake",
        "id": 863730,
        "node_id": "MDQ6VXNlcjg2MzczMA==",
        "avatar_url": "https://avatars.githubusercontent.com/u/863730?v=4",
        "gravatar_id": "",
        "url": "https://api.github.com/users/fanquake",
        "html_url": "https://github.com/fanquake",
        "followers_url": "https://api.github.com/users/fanquake/followers",
        "following_url": "https://api.github.com/users/fanquake/following%7B/other_user%7D",
        "gists_url": "https://api.github.com/users/fanquake/gists%7B/gist_id%7D",
        "starred_url": "https://api.github.com/users/fanquake/starred%7B/owner%7D%7B/repo%7D",
        "subscriptions_url": "https://api.github.com/users/fanquake/subscriptions",
        "organizations_url": "https://api.github.com/users/fanquake/orgs",
        "repos_url": "https://api.github.com/users/fanquake/repos",
        "events_url": "https://api.github.com/users/fanquake/events%7B/privacy%7D",
        "received_events_url": "https://api.github.com/users/fanquake/received_events",
        "type": "User",
        "site_admin": false
      },
      "commit_id": null,
      "commit_url": null,
      "created_at": "2022-10-12T23:20:11Z",
      "updated_at": "2022-10-12T23:20:11Z",
      "author_association": "MEMBER",
      "body": "Does this also have the issue of contributors not being able to reopen their own PRs that have been closed by this bot?",
      "user": {
        "login": "fanquake",
        "id": 863730,
        "node_id": "MDQ6VXNlcjg2MzczMA==",
        "avatar_url": "https://avatars.githubusercontent.com/u/863730?v=4",
        "gravatar_id": "",
        "url": "https://api.github.com/users/fanquake",
        "html_url": "https://github.com/fanquake",
        "followers_url": "https://api.github.com/users/fanquake/followers",
        "following_url": "https://api.github.com/users/fanquake/following%7B/other_user%7D",
        "gists_url": "https://api.github.com/users/fanquake/gists%7B/gist_id%7D",
        "starred_url": "https://api.github.com/users/fanquake/starred%7B/owner%7D%7B/repo%7D",
        "subscriptions_url": "https://api.github.com/users/fanquake/subscriptions",
        "organizations_url": "https://api.github.com/users/fanquake/orgs",
        "repos_url": "https://api.github.com/users/fanquake/repos",
        "events_url": "https://api.github.com/users/fanquake/events%7B/privacy%7D",
        "received_events_url": "https://api.github.com/users/fanquake/received_events",
        "type": "User",
        "site_admin": false
      },
      "html_url": "https://github.com/bitcoin/bitcoin/pull/26300#issuecomment-1276830002",
      "issue_url": "https://api.github.com/repos/bitcoin/bitcoin/issues/26300"
    },
    {
      "event": "commented",
      "id": 1277593360,
      "node_id": "IC_kwDOABII585MJocQ",
      "url": "https://api.github.com/repos/bitcoin/bitcoin/issues/comments/1277593360",
      "actor": {
        "login": "aureleoules",
        "id": 22493292,
        "node_id": "MDQ6VXNlcjIyNDkzMjky",
        "avatar_url": "https://avatars.githubusercontent.com/u/22493292?v=4",
        "gravatar_id": "",
        "url": "https://api.github.com/users/aureleoules",
        "html_url": "https://github.com/aureleoules",
        "followers_url": "https://api.github.com/users/aureleoules/followers",
        "following_url": "https://api.github.com/users/aureleoules/following%7B/other_user%7D",
        "gists_url": "https://api.github.com/users/aureleoules/gists%7B/gist_id%7D",
        "starred_url": "https://api.github.com/users/aureleoules/starred%7B/owner%7D%7B/repo%7D",
        "subscriptions_url": "https://api.github.com/users/aureleoules/subscriptions",
        "organizations_url": "https://api.github.com/users/aureleoules/orgs",
        "repos_url": "https://api.github.com/users/aureleoules/repos",
        "events_url": "https://api.github.com/users/aureleoules/events%7B/privacy%7D",
        "received_events_url": "https://api.github.com/users/aureleoules/received_events",
        "type": "User",
        "site_admin": false
      },
      "commit_id": null,
      "commit_url": null,
      "created_at": "2022-10-13T13:16:24Z",
      "updated_at": "2022-10-13T13:18:19Z",
      "author_association": "MEMBER",
      "body": "> for example PRs that are the parents of a project may become \"stale\" but shouldn't be closed\r\n\r\nI believe these are edge-cases. Since there is a delay before the PR/issue is closed (7 days here), a maintainer could remove the `Stale` tag every 6 months or anyone could write a comment. Also, I believe that usually these parent PRs get activity by being referenced in sub-PRs so the delay before being stale is usually extended.\r\n\r\nThis may be preferable to having to manually check the activity of all PRs every once in a while?\r\n\r\n> Does this also have the issue of contributors not being able to reopen their own PRs that have been closed by this bot?\r\n\r\nI'm not familiar with GitHub permissions sorry.",
      "user": {
        "login": "aureleoules",
        "id": 22493292,
        "node_id": "MDQ6VXNlcjIyNDkzMjky",
        "avatar_url": "https://avatars.githubusercontent.com/u/22493292?v=4",
        "gravatar_id": "",
        "url": "https://api.github.com/users/aureleoules",
        "html_url": "https://github.com/aureleoules",
        "followers_url": "https://api.github.com/users/aureleoules/followers",
        "following_url": "https://api.github.com/users/aureleoules/following%7B/other_user%7D",
        "gists_url": "https://api.github.com/users/aureleoules/gists%7B/gist_id%7D",
        "starred_url": "https://api.github.com/users/aureleoules/starred%7B/owner%7D%7B/repo%7D",
        "subscriptions_url": "https://api.github.com/users/aureleoules/subscriptions",
        "organizations_url": "https://api.github.com/users/aureleoules/orgs",
        "repos_url": "https://api.github.com/users/aureleoules/repos",
        "events_url": "https://api.github.com/users/aureleoules/events%7B/privacy%7D",
        "received_events_url": "https://api.github.com/users/aureleoules/received_events",
        "type": "User",
        "site_admin": false
      },
      "html_url": "https://github.com/bitcoin/bitcoin/pull/26300#issuecomment-1277593360",
      "issue_url": "https://api.github.com/repos/bitcoin/bitcoin/issues/26300"
    },
    {
      "event": "commented",
      "id": 1277669571,
      "node_id": "IC_kwDOABII585MJ7DD",
      "url": "https://api.github.com/repos/bitcoin/bitcoin/issues/comments/1277669571",
      "actor": {
        "login": "MarcoFalke",
        "id": 6399679,
        "node_id": "MDQ6VXNlcjYzOTk2Nzk=",
        "avatar_url": "https://avatars.githubusercontent.com/u/6399679?v=4",
        "gravatar_id": "",
        "url": "https://api.github.com/users/MarcoFalke",
        "html_url": "https://github.com/MarcoFalke",
        "followers_url": "https://api.github.com/users/MarcoFalke/followers",
        "following_url": "https://api.github.com/users/MarcoFalke/following%7B/other_user%7D",
        "gists_url": "https://api.github.com/users/MarcoFalke/gists%7B/gist_id%7D",
        "starred_url": "https://api.github.com/users/MarcoFalke/starred%7B/owner%7D%7B/repo%7D",
        "subscriptions_url": "https://api.github.com/users/MarcoFalke/subscriptions",
        "organizations_url": "https://api.github.com/users/MarcoFalke/orgs",
        "repos_url": "https://api.github.com/users/MarcoFalke/repos",
        "events_url": "https://api.github.com/users/MarcoFalke/events%7B/privacy%7D",
        "received_events_url": "https://api.github.com/users/MarcoFalke/received_events",
        "type": "User",
        "site_admin": false
      },
      "commit_id": null,
      "commit_url": null,
      "created_at": "2022-10-13T14:05:54Z",
      "updated_at": "2022-10-13T14:05:54Z",
      "author_association": "MEMBER",
      "body": "Personally I don't see the problem of open pull requests that are uncontroversial and maintained by their author. Surely if someone walks away or if something is controversial, it may be better to close. Also, I prefer if people raised their concern instead of silently hoping that a pull they don't like goes stale.\r\n\r\nSo if the goal is for the bot to achieve that, it might be better for it to provide actionable instructions. Similar to https://github.com/bitcoin/bitcoin/pull/19876#issuecomment-1073871847\r\n\r\nSome ideas:\r\n\r\n* If there is outstanding feedback, it should be replied to or otherwise addressed\r\n* If the CI fails or the last run is older than 6 months, it might be good to rebase to get a fresh CI run and also update the code context to the latest state to simplify review (obviously only if there hasn't been any ACKs to avoid invalidating them)\r\n\r\n",
      "user": {
        "login": "MarcoFalke",
        "id": 6399679,
        "node_id": "MDQ6VXNlcjYzOTk2Nzk=",
        "avatar_url": "https://avatars.githubusercontent.com/u/6399679?v=4",
        "gravatar_id": "",
        "url": "https://api.github.com/users/MarcoFalke",
        "html_url": "https://github.com/MarcoFalke",
        "followers_url": "https://api.github.com/users/MarcoFalke/followers",
        "following_url": "https://api.github.com/users/MarcoFalke/following%7B/other_user%7D",
        "gists_url": "https://api.github.com/users/MarcoFalke/gists%7B/gist_id%7D",
        "starred_url": "https://api.github.com/users/MarcoFalke/starred%7B/owner%7D%7B/repo%7D",
        "subscriptions_url": "https://api.github.com/users/MarcoFalke/subscriptions",
        "organizations_url": "https://api.github.com/users/MarcoFalke/orgs",
        "repos_url": "https://api.github.com/users/MarcoFalke/repos",
        "events_url": "https://api.github.com/users/MarcoFalke/events%7B/privacy%7D",
        "received_events_url": "https://api.github.com/users/MarcoFalke/received_events",
        "type": "User",
        "site_admin": false
      },
      "html_url": "https://github.com/bitcoin/bitcoin/pull/26300#issuecomment-1277669571",
      "issue_url": "https://api.github.com/repos/bitcoin/bitcoin/issues/26300"
    },
    {
      "event": "reviewed",
      "id": 1140868787,
      "node_id": "PRR_kwDOABII585EAEaz",
      "url": null,
      "actor": null,
      "commit_id": "2a400aafda498bbaf50d1eb19a1f2bdd0d5d52bd",
      "commit_url": null,
      "created_at": null,
      "author_association": "MEMBER",
      "user": {
        "login": "MarcoFalke",
        "id": 6399679,
        "node_id": "MDQ6VXNlcjYzOTk2Nzk=",
        "avatar_url": "https://avatars.githubusercontent.com/u/6399679?v=4",
        "gravatar_id": "",
        "url": "https://api.github.com/users/MarcoFalke",
        "html_url": "https://github.com/MarcoFalke",
        "followers_url": "https://api.github.com/users/MarcoFalke/followers",
        "following_url": "https://api.github.com/users/MarcoFalke/following%7B/other_user%7D",
        "gists_url": "https://api.github.com/users/MarcoFalke/gists%7B/gist_id%7D",
        "starred_url": "https://api.github.com/users/MarcoFalke/starred%7B/owner%7D%7B/repo%7D",
        "subscriptions_url": "https://api.github.com/users/MarcoFalke/subscriptions",
        "organizations_url": "https://api.github.com/users/MarcoFalke/orgs",
        "repos_url": "https://api.github.com/users/MarcoFalke/repos",
        "events_url": "https://api.github.com/users/MarcoFalke/events%7B/privacy%7D",
        "received_events_url": "https://api.github.com/users/MarcoFalke/received_events",
        "type": "User",
        "site_admin": false
      },
      "html_url": "https://github.com/bitcoin/bitcoin/pull/26300#pullrequestreview-1140868787",
      "submitted_at": "2022-10-13T14:07:53Z",
      "state": "COMMENTED",
      "pull_request_url": "https://api.github.com/repos/bitcoin/bitcoin/pulls/26300"
    },
    {
      "event": "cross-referenced",
      "id": null,
      "node_id": null,
      "url": null,
      "actor": {
        "login": "aureleoules",
        "id": 22493292,
        "node_id": "MDQ6VXNlcjIyNDkzMjky",
        "avatar_url": "https://avatars.githubusercontent.com/u/22493292?v=4",
        "gravatar_id": "",
        "url": "https://api.github.com/users/aureleoules",
        "html_url": "https://github.com/aureleoules",
        "followers_url": "https://api.github.com/users/aureleoules/followers",
        "following_url": "https://api.github.com/users/aureleoules/following%7B/other_user%7D",
        "gists_url": "https://api.github.com/users/aureleoules/gists%7B/gist_id%7D",
        "starred_url": "https://api.github.com/users/aureleoules/starred%7B/owner%7D%7B/repo%7D",
        "subscriptions_url": "https://api.github.com/users/aureleoules/subscriptions",
        "organizations_url": "https://api.github.com/users/aureleoules/orgs",
        "repos_url": "https://api.github.com/users/aureleoules/repos",
        "events_url": "https://api.github.com/users/aureleoules/events%7B/privacy%7D",
        "received_events_url": "https://api.github.com/users/aureleoules/received_events",
        "type": "User",
        "site_admin": false
      },
      "commit_id": null,
      "commit_url": null,
      "created_at": "2022-10-21T07:48:36Z",
      "updated_at": "2022-10-21T07:48:36Z",
      "source": {
        "issue": {
          "id": 1417911220,
          "node_id": "PR_kwDOIQ-abM5BQ6l2",
          "url": "https://api.github.com/repos/MarcoFalke/DrahtBot/issues/1",
          "repository_url": "https://api.github.com/repos/MarcoFalke/DrahtBot",
          "labels_url": "https://api.github.com/repos/MarcoFalke/DrahtBot/issues/1/labels%7B/name%7D",
          "comments_url": "https://api.github.com/repos/MarcoFalke/DrahtBot/issues/1/comments",
          "events_url": "https://api.github.com/repos/MarcoFalke/DrahtBot/issues/1/events",
          "html_url": "https://github.com/MarcoFalke/DrahtBot/pull/1",
          "number": 1,
          "state": "closed",
          "state_reason": null,
          "title": "Webhook server and framework for bot features with ACK tracker",
          "body": "This PR adds a new summary comment that appears at the top of every (new) pull request.\r\nIt contains an ACK tracker that works as follows:\r\n\r\nWhen a user comments or adds a review (edits and deletions are detected) or the PR author pushes to the PR, the bot will rescan every comment and review for ACKs.\r\nAn `ACK` can be a `(N)ACK`, `Concept (N)ACK`, `Approach (N)ACK`, `Code Review (N)ACK`, and `Stale ACK`.\r\n\r\nFor a raw `ACK` to be valid, a commit hash that matches the PR's head is expected (`ACK <commit sha>`).\r\nIf the commit hash no longer matches the PR's head, it goes stale. \r\nConcept ACKs, Code Review ACKs, Approach ACKs, and NACKs don't require a commit hash but one can be specified so that if the commit referenced no longer matches the head, the 'ACK' will be removed from the tracker automatically.\r\nThe case of the comment does not matter and takes into account ACK aliases such as re-ACK, reACK, utACK, crACK, etc.\r\n\r\nSpecifically, this PR:\r\n- Adds a webhook server for receiving GitHub events of a repository\r\n- Adds a framework for adding features to the Bot, with different event types\r\n- Adds the summary comment feature\r\n\r\nThere is currently no secret-based webhook authentication but it can be done if this PR is Concept ACKed.\r\n\r\n<details>\r\n<summary>Summary comment</summary>\r\n\r\n![image](https://user-images.githubusercontent.com/22493292/199021732-8b5c1c6e-6636-4d3a-9659-00b6ba3ea8cc.png)\r\n\r\n</details>\r\n\r\n<details>\r\n<summary>ACK example</summary>\r\n\r\n![image](https://user-images.githubusercontent.com/22493292/199023038-bc4c58ee-9f82-4e1c-b858-289f6def4791.png)\r\n\r\n</details>\r\n\r\n<details>\r\n<summary>Stale ACK</summary>\r\n\r\n![image](https://user-images.githubusercontent.com/22493292/199024155-a54de3ac-94df-4c64-a75f-96afd1364954.png)\r\n\r\n\r\n</details>\r\n\r\nLinks in the `Reviewers` cell will automatically scroll down to the specific review.",
          "user": {
            "login": "aureleoules",
            "id": 22493292,
            "node_id": "MDQ6VXNlcjIyNDkzMjky",
            "avatar_url": "https://avatars.githubusercontent.com/u/22493292?v=4",
            "gravatar_id": "",
            "url": "https://api.github.com/users/aureleoules",
            "html_url": "https://github.com/aureleoules",
            "followers_url": "https://api.github.com/users/aureleoules/followers",
            "following_url": "https://api.github.com/users/aureleoules/following%7B/other_user%7D",
            "gists_url": "https://api.github.com/users/aureleoules/gists%7B/gist_id%7D",
            "starred_url": "https://api.github.com/users/aureleoules/starred%7B/owner%7D%7B/repo%7D",
            "subscriptions_url": "https://api.github.com/users/aureleoules/subscriptions",
            "organizations_url": "https://api.github.com/users/aureleoules/orgs",
            "repos_url": "https://api.github.com/users/aureleoules/repos",
            "events_url": "https://api.github.com/users/aureleoules/events%7B/privacy%7D",
            "received_events_url": "https://api.github.com/users/aureleoules/received_events",
            "type": "User",
            "site_admin": false
          },
          "labels": [],
          "assignees": [],
          "author_association": "CONTRIBUTOR",
          "locked": false,
          "comments": 28,
          "pull_request": {
            "url": "https://api.github.com/repos/MarcoFalke/DrahtBot/pulls/1",
            "html_url": "https://github.com/MarcoFalke/DrahtBot/pull/1",
            "diff_url": "https://github.com/MarcoFalke/DrahtBot/pull/1.diff",
            "patch_url": "https://github.com/MarcoFalke/DrahtBot/pull/1.patch"
          },
          "closed_at": "2022-11-11T15:11:21Z",
          "created_at": "2022-10-21T07:48:36Z",
          "updated_at": "2022-11-16T16:19:18Z"
        },
        "type": "issue"
      }
    },
    {
      "event": "commented",
      "id": 1296756777,
      "node_id": "IC_kwDOABII585NSvAp",
      "url": "https://api.github.com/repos/bitcoin/bitcoin/issues/comments/1296756777",
      "actor": {
        "login": "fanquake",
        "id": 863730,
        "node_id": "MDQ6VXNlcjg2MzczMA==",
        "avatar_url": "https://avatars.githubusercontent.com/u/863730?v=4",
        "gravatar_id": "",
        "url": "https://api.github.com/users/fanquake",
        "html_url": "https://github.com/fanquake",
        "followers_url": "https://api.github.com/users/fanquake/followers",
        "following_url": "https://api.github.com/users/fanquake/following%7B/other_user%7D",
        "gists_url": "https://api.github.com/users/fanquake/gists%7B/gist_id%7D",
        "starred_url": "https://api.github.com/users/fanquake/starred%7B/owner%7D%7B/repo%7D",
        "subscriptions_url": "https://api.github.com/users/fanquake/subscriptions",
        "organizations_url": "https://api.github.com/users/fanquake/orgs",
        "repos_url": "https://api.github.com/users/fanquake/repos",
        "events_url": "https://api.github.com/users/fanquake/events%7B/privacy%7D",
        "received_events_url": "https://api.github.com/users/fanquake/received_events",
        "type": "User",
        "site_admin": false
      },
      "commit_id": null,
      "commit_url": null,
      "created_at": "2022-10-31T08:28:16Z",
      "updated_at": "2022-10-31T08:28:16Z",
      "author_association": "MEMBER",
      "body": "Concept NACK - I don't see how this (contextless) bot is going to be beneficial, or better than drahtbot + maintainers. Now that drahtbot is open for contrbutions, I'd rather see any enhancements made there.",
      "user": {
        "login": "fanquake",
        "id": 863730,
        "node_id": "MDQ6VXNlcjg2MzczMA==",
        "avatar_url": "https://avatars.githubusercontent.com/u/863730?v=4",
        "gravatar_id": "",
        "url": "https://api.github.com/users/fanquake",
        "html_url": "https://github.com/fanquake",
        "followers_url": "https://api.github.com/users/fanquake/followers",
        "following_url": "https://api.github.com/users/fanquake/following%7B/other_user%7D",
        "gists_url": "https://api.github.com/users/fanquake/gists%7B/gist_id%7D",
        "starred_url": "https://api.github.com/users/fanquake/starred%7B/owner%7D%7B/repo%7D",
        "subscriptions_url": "https://api.github.com/users/fanquake/subscriptions",
        "organizations_url": "https://api.github.com/users/fanquake/orgs",
        "repos_url": "https://api.github.com/users/fanquake/repos",
        "events_url": "https://api.github.com/users/fanquake/events%7B/privacy%7D",
        "received_events_url": "https://api.github.com/users/fanquake/received_events",
        "type": "User",
        "site_admin": false
      },
      "html_url": "https://github.com/bitcoin/bitcoin/pull/26300#issuecomment-1296756777",
      "issue_url": "https://api.github.com/repos/bitcoin/bitcoin/issues/26300"
    },
    {
      "event": "commented",
      "id": 1296809062,
      "node_id": "IC_kwDOABII585NS7xm",
      "url": "https://api.github.com/repos/bitcoin/bitcoin/issues/comments/1296809062",
      "actor": {
        "login": "aureleoules",
        "id": 22493292,
        "node_id": "MDQ6VXNlcjIyNDkzMjky",
        "avatar_url": "https://avatars.githubusercontent.com/u/22493292?v=4",
        "gravatar_id": "",
        "url": "https://api.github.com/users/aureleoules",
        "html_url": "https://github.com/aureleoules",
        "followers_url": "https://api.github.com/users/aureleoules/followers",
        "following_url": "https://api.github.com/users/aureleoules/following%7B/other_user%7D",
        "gists_url": "https://api.github.com/users/aureleoules/gists%7B/gist_id%7D",
        "starred_url": "https://api.github.com/users/aureleoules/starred%7B/owner%7D%7B/repo%7D",
        "subscriptions_url": "https://api.github.com/users/aureleoules/subscriptions",
        "organizations_url": "https://api.github.com/users/aureleoules/orgs",
        "repos_url": "https://api.github.com/users/aureleoules/repos",
        "events_url": "https://api.github.com/users/aureleoules/events%7B/privacy%7D",
        "received_events_url": "https://api.github.com/users/aureleoules/received_events",
        "type": "User",
        "site_admin": false
      },
      "commit_id": null,
      "commit_url": null,
      "created_at": "2022-10-31T09:17:15Z",
      "updated_at": "2022-10-31T09:17:15Z",
      "author_association": "MEMBER",
      "body": "Yes, I am currently working on DrahtBot. Closing.",
      "user": {
        "login": "aureleoules",
        "id": 22493292,
        "node_id": "MDQ6VXNlcjIyNDkzMjky",
        "avatar_url": "https://avatars.githubusercontent.com/u/22493292?v=4",
        "gravatar_id": "",
        "url": "https://api.github.com/users/aureleoules",
        "html_url": "https://github.com/aureleoules",
        "followers_url": "https://api.github.com/users/aureleoules/followers",
        "following_url": "https://api.github.com/users/aureleoules/following%7B/other_user%7D",
        "gists_url": "https://api.github.com/users/aureleoules/gists%7B/gist_id%7D",
        "starred_url": "https://api.github.com/users/aureleoules/starred%7B/owner%7D%7B/repo%7D",
        "subscriptions_url": "https://api.github.com/users/aureleoules/subscriptions",
        "organizations_url": "https://api.github.com/users/aureleoules/orgs",
        "repos_url": "https://api.github.com/users/aureleoules/repos",
        "events_url": "https://api.github.com/users/aureleoules/events%7B/privacy%7D",
        "received_events_url": "https://api.github.com/users/aureleoules/received_events",
        "type": "User",
        "site_admin": false
      },
      "html_url": "https://github.com/bitcoin/bitcoin/pull/26300#issuecomment-1296809062",
      "issue_url": "https://api.github.com/repos/bitcoin/bitcoin/issues/26300"
    },
    {
      "event": "closed",
      "id": 7702384931,
      "node_id": "CE_lADOABII585T163TzwAAAAHLGREj",
      "url": "https://api.github.com/repos/bitcoin/bitcoin/issues/events/7702384931",
      "actor": {
        "login": "aureleoules",
        "id": 22493292,
        "node_id": "MDQ6VXNlcjIyNDkzMjky",
        "avatar_url": "https://avatars.githubusercontent.com/u/22493292?v=4",
        "gravatar_id": "",
        "url": "https://api.github.com/users/aureleoules",
        "html_url": "https://github.com/aureleoules",
        "followers_url": "https://api.github.com/users/aureleoules/followers",
        "following_url": "https://api.github.com/users/aureleoules/following%7B/other_user%7D",
        "gists_url": "https://api.github.com/users/aureleoules/gists%7B/gist_id%7D",
        "starred_url": "https://api.github.com/users/aureleoules/starred%7B/owner%7D%7B/repo%7D",
        "subscriptions_url": "https://api.github.com/users/aureleoules/subscriptions",
        "organizations_url": "https://api.github.com/users/aureleoules/orgs",
        "repos_url": "https://api.github.com/users/aureleoules/repos",
        "events_url": "https://api.github.com/users/aureleoules/events%7B/privacy%7D",
        "received_events_url": "https://api.github.com/users/aureleoules/received_events",
        "type": "User",
        "site_admin": false
      },
      "commit_id": null,
      "commit_url": null,
      "created_at": "2022-10-31T09:17:15Z"
    },
    {
      "event": "head_ref_deleted",
      "id": 7722110211,
      "node_id": "HRDE_lADOABII585T163TzwAAAAHMRg0D",
      "url": "https://api.github.com/repos/bitcoin/bitcoin/issues/events/7722110211",
      "actor": {
        "login": "aureleoules",
        "id": 22493292,
        "node_id": "MDQ6VXNlcjIyNDkzMjky",
        "avatar_url": "https://avatars.githubusercontent.com/u/22493292?v=4",
        "gravatar_id": "",
        "url": "https://api.github.com/users/aureleoules",
        "html_url": "https://github.com/aureleoules",
        "followers_url": "https://api.github.com/users/aureleoules/followers",
        "following_url": "https://api.github.com/users/aureleoules/following%7B/other_user%7D",
        "gists_url": "https://api.github.com/users/aureleoules/gists%7B/gist_id%7D",
        "starred_url": "https://api.github.com/users/aureleoules/starred%7B/owner%7D%7B/repo%7D",
        "subscriptions_url": "https://api.github.com/users/aureleoules/subscriptions",
        "organizations_url": "https://api.github.com/users/aureleoules/orgs",
        "repos_url": "https://api.github.com/users/aureleoules/repos",
        "events_url": "https://api.github.com/users/aureleoules/events%7B/privacy%7D",
        "received_events_url": "https://api.github.com/users/aureleoules/received_events",
        "type": "User",
        "site_admin": false
      },
      "commit_id": null,
      "commit_url": null,
      "created_at": "2022-11-02T10:51:42Z"
    },
    {
      "event": "commented",
      "id": 1308570077,
      "node_id": "IC_kwDOABII585N_zHd",
      "url": "https://api.github.com/repos/bitcoin/bitcoin/issues/comments/1308570077",
      "actor": {
        "login": "MarcoFalke",
        "id": 6399679,
        "node_id": "MDQ6VXNlcjYzOTk2Nzk=",
        "avatar_url": "https://avatars.githubusercontent.com/u/6399679?v=4",
        "gravatar_id": "",
        "url": "https://api.github.com/users/MarcoFalke",
        "html_url": "https://github.com/MarcoFalke",
        "followers_url": "https://api.github.com/users/MarcoFalke/followers",
        "following_url": "https://api.github.com/users/MarcoFalke/following%7B/other_user%7D",
        "gists_url": "https://api.github.com/users/MarcoFalke/gists%7B/gist_id%7D",
        "starred_url": "https://api.github.com/users/MarcoFalke/starred%7B/owner%7D%7B/repo%7D",
        "subscriptions_url": "https://api.github.com/users/MarcoFalke/subscriptions",
        "organizations_url": "https://api.github.com/users/MarcoFalke/orgs",
        "repos_url": "https://api.github.com/users/MarcoFalke/repos",
        "events_url": "https://api.github.com/users/MarcoFalke/events%7B/privacy%7D",
        "received_events_url": "https://api.github.com/users/MarcoFalke/received_events",
        "type": "User",
        "site_admin": false
      },
      "commit_id": null,
      "commit_url": null,
      "created_at": "2022-11-09T10:54:45Z",
      "updated_at": "2022-11-09T10:54:45Z",
      "author_association": "MEMBER",
      "body": "This is now live.\r\n\r\nCode: https://github.com/MarcoFalke/DrahtBot/commit/e5f9ff1cbeda1ba603afc0d042dba79610836e8c\r\nExample: https://github.com/bitcoin-core/gui/pull/37#issuecomment-1308567630",
      "user": {
        "login": "MarcoFalke",
        "id": 6399679,
        "node_id": "MDQ6VXNlcjYzOTk2Nzk=",
        "avatar_url": "https://avatars.githubusercontent.com/u/6399679?v=4",
        "gravatar_id": "",
        "url": "https://api.github.com/users/MarcoFalke",
        "html_url": "https://github.com/MarcoFalke",
        "followers_url": "https://api.github.com/users/MarcoFalke/followers",
        "following_url": "https://api.github.com/users/MarcoFalke/following%7B/other_user%7D",
        "gists_url": "https://api.github.com/users/MarcoFalke/gists%7B/gist_id%7D",
        "starred_url": "https://api.github.com/users/MarcoFalke/starred%7B/owner%7D%7B/repo%7D",
        "subscriptions_url": "https://api.github.com/users/MarcoFalke/subscriptions",
        "organizations_url": "https://api.github.com/users/MarcoFalke/orgs",
        "repos_url": "https://api.github.com/users/MarcoFalke/repos",
        "events_url": "https://api.github.com/users/MarcoFalke/events%7B/privacy%7D",
        "received_events_url": "https://api.github.com/users/MarcoFalke/received_events",
        "type": "User",
        "site_admin": false
      },
      "html_url": "https://github.com/bitcoin/bitcoin/pull/26300#issuecomment-1308570077",
      "issue_url": "https://api.github.com/repos/bitcoin/bitcoin/issues/26300"
    }
  ],
  "comments": [
    {
      "url": "https://api.github.com/repos/bitcoin/bitcoin/pulls/comments/994694546",
      "pull_request_review_id": 1140868787,
      "id": 994694546,
      "node_id": "PRRC_kwDOABII5847SdWS",
      "diff_hunk": "@@ -0,0 +1,57 @@\n+# Configuration for probot-stale - https://github.com/probot/stale\n+\n+# Number of days of inactivity before an Issue or Pull Request becomes stale\n+daysUntilStale: 180 # 6 months\n+\n+# Number of days of inactivity before an Issue or Pull Request with the stale label is closed.\n+# Set to false to disable. If disabled, issues still need to be closed manually, but will remain marked as stale.\n+daysUntilClose: 7",
      "path": ".github/stale.yml",
      "position": 8,
      "original_position": 8,
      "commit_id": "2a400aafda498bbaf50d1eb19a1f2bdd0d5d52bd",
      "original_commit_id": "2a400aafda498bbaf50d1eb19a1f2bdd0d5d52bd",
      "in_reply_to_id": null,
      "user": {
        "login": "MarcoFalke",
        "id": 6399679,
        "node_id": "MDQ6VXNlcjYzOTk2Nzk=",
        "avatar_url": "https://avatars.githubusercontent.com/u/6399679?v=4",
        "gravatar_id": "",
        "url": "https://api.github.com/users/MarcoFalke",
        "html_url": "https://github.com/MarcoFalke",
        "followers_url": "https://api.github.com/users/MarcoFalke/followers",
        "following_url": "https://api.github.com/users/MarcoFalke/following%7B/other_user%7D",
        "gists_url": "https://api.github.com/users/MarcoFalke/gists%7B/gist_id%7D",
        "starred_url": "https://api.github.com/users/MarcoFalke/starred%7B/owner%7D%7B/repo%7D",
        "subscriptions_url": "https://api.github.com/users/MarcoFalke/subscriptions",
        "organizations_url": "https://api.github.com/users/MarcoFalke/orgs",
        "repos_url": "https://api.github.com/users/MarcoFalke/repos",
        "events_url": "https://api.github.com/users/MarcoFalke/events%7B/privacy%7D",
        "received_events_url": "https://api.github.com/users/MarcoFalke/received_events",
        "type": "User",
        "site_admin": false
      },
      "body": "Not sure if this can be done by the bot. Sometimes additional stuff needs to be done, like marking \"up for grabs\" or closing a related issue as well, etc ...",
      "created_at": "2022-10-13T14:07:53Z",
      "updated_at": "2022-10-13T14:07:53Z",
      "html_url": "https://github.com/bitcoin/bitcoin/pull/26300#discussion_r994694546",
      "author_association": "MEMBER",
      "_links": {
        "self": {
          "href": "https://api.github.com/repos/bitcoin/bitcoin/pulls/comments/994694546"
        },
        "pull_request": {
          "href": "https://api.github.com/repos/bitcoin/bitcoin/pulls/26300"
        }
      },
      "start_line": null,
      "original_start_line": null,
      "start_side": null,
      "line": 8,
      "original_line": 8,
      "side": "RIGHT"
    },
    {
      "url": "https://api.github.com/repos/bitcoin/bitcoin/pulls/comments/998059998",
      "pull_request_review_id": 1145581143,
      "id": 998059998,
      "node_id": "PRRC_kwDOABII5847fS_e",
      "diff_hunk": "@@ -0,0 +1,57 @@\n+# Configuration for probot-stale - https://github.com/probot/stale\n+\n+# Number of days of inactivity before an Issue or Pull Request becomes stale\n+daysUntilStale: 180 # 6 months\n+\n+# Number of days of inactivity before an Issue or Pull Request with the stale label is closed.\n+# Set to false to disable. If disabled, issues still need to be closed manually, but will remain marked as stale.\n+daysUntilClose: 7",
      "path": ".github/stale.yml",
      "position": 8,
      "original_position": 8,
      "commit_id": "2a400aafda498bbaf50d1eb19a1f2bdd0d5d52bd",
      "original_commit_id": "2a400aafda498bbaf50d1eb19a1f2bdd0d5d52bd",
      "in_reply_to_id": 994694546,
      "user": {
        "login": "aureleoules",
        "id": 22493292,
        "node_id": "MDQ6VXNlcjIyNDkzMjky",
        "avatar_url": "https://avatars.githubusercontent.com/u/22493292?v=4",
        "gravatar_id": "",
        "url": "https://api.github.com/users/aureleoules",
        "html_url": "https://github.com/aureleoules",
        "followers_url": "https://api.github.com/users/aureleoules/followers",
        "following_url": "https://api.github.com/users/aureleoules/following%7B/other_user%7D",
        "gists_url": "https://api.github.com/users/aureleoules/gists%7B/gist_id%7D",
        "starred_url": "https://api.github.com/users/aureleoules/starred%7B/owner%7D%7B/repo%7D",
        "subscriptions_url": "https://api.github.com/users/aureleoules/subscriptions",
        "organizations_url": "https://api.github.com/users/aureleoules/orgs",
        "repos_url": "https://api.github.com/users/aureleoules/repos",
        "events_url": "https://api.github.com/users/aureleoules/events%7B/privacy%7D",
        "received_events_url": "https://api.github.com/users/aureleoules/received_events",
        "type": "User",
        "site_admin": false
      },
      "body": "It might be easier to implement these features in Drahtbot, do you plan to open-source it?",
      "created_at": "2022-10-18T11:08:50Z",
      "updated_at": "2022-10-18T11:08:50Z",
      "html_url": "https://github.com/bitcoin/bitcoin/pull/26300#discussion_r998059998",
      "author_association": "MEMBER",
      "_links": {
        "self": {
          "href": "https://api.github.com/repos/bitcoin/bitcoin/pulls/comments/998059998"
        },
        "pull_request": {
          "href": "https://api.github.com/repos/bitcoin/bitcoin/pulls/26300"
        }
      },
      "start_line": null,
      "original_start_line": null,
      "start_side": null,
      "line": 8,
      "original_line": 8,
      "side": "RIGHT"
    },
    {
      "url": "https://api.github.com/repos/bitcoin/bitcoin/pulls/comments/998367175",
      "pull_request_review_id": 1146025294,
      "id": 998367175,
      "node_id": "PRRC_kwDOABII5847gd_H",
      "diff_hunk": "@@ -0,0 +1,57 @@\n+# Configuration for probot-stale - https://github.com/probot/stale\n+\n+# Number of days of inactivity before an Issue or Pull Request becomes stale\n+daysUntilStale: 180 # 6 months\n+\n+# Number of days of inactivity before an Issue or Pull Request with the stale label is closed.\n+# Set to false to disable. If disabled, issues still need to be closed manually, but will remain marked as stale.\n+daysUntilClose: 7",
      "path": ".github/stale.yml",
      "position": 8,
      "original_position": 8,
      "commit_id": "2a400aafda498bbaf50d1eb19a1f2bdd0d5d52bd",
      "original_commit_id": "2a400aafda498bbaf50d1eb19a1f2bdd0d5d52bd",
      "in_reply_to_id": 994694546,
      "user": {
        "login": "aureleoules",
        "id": 22493292,
        "node_id": "MDQ6VXNlcjIyNDkzMjky",
        "avatar_url": "https://avatars.githubusercontent.com/u/22493292?v=4",
        "gravatar_id": "",
        "url": "https://api.github.com/users/aureleoules",
        "html_url": "https://github.com/aureleoules",
        "followers_url": "https://api.github.com/users/aureleoules/followers",
        "following_url": "https://api.github.com/users/aureleoules/following%7B/other_user%7D",
        "gists_url": "https://api.github.com/users/aureleoules/gists%7B/gist_id%7D",
        "starred_url": "https://api.github.com/users/aureleoules/starred%7B/owner%7D%7B/repo%7D",
        "subscriptions_url": "https://api.github.com/users/aureleoules/subscriptions",
        "organizations_url": "https://api.github.com/users/aureleoules/orgs",
        "repos_url": "https://api.github.com/users/aureleoules/repos",
        "events_url": "https://api.github.com/users/aureleoules/events%7B/privacy%7D",
        "received_events_url": "https://api.github.com/users/aureleoules/received_events",
        "type": "User",
        "site_admin": false
      },
      "body": "It would also be nice if Drahtbot could automatically add to a PR the labels \"Concept ACK\", \"Approach ACK\" and even count current ACKs, that way it's easy to quickly glance at the state of a PR, or even filter PRs for reviewers. I believe @JeremyRubin had a similar idea.",
      "created_at": "2022-10-18T15:08:09Z",
      "updated_at": "2022-10-18T15:08:09Z",
      "html_url": "https://github.com/bitcoin/bitcoin/pull/26300#discussion_r998367175",
      "author_association": "MEMBER",
      "_links": {
        "self": {
          "href": "https://api.github.com/repos/bitcoin/bitcoin/pulls/comments/998367175"
        },
        "pull_request": {
          "href": "https://api.github.com/repos/bitcoin/bitcoin/pulls/26300"
        }
      },
      "start_line": null,
      "original_start_line": null,
      "start_side": null,
      "line": 8,
      "original_line": 8,
      "side": "RIGHT"
    },
    {
      "url": "https://api.github.com/repos/bitcoin/bitcoin/pulls/comments/998372229",
      "pull_request_review_id": 1146030887,
      "id": 998372229,
      "node_id": "PRRC_kwDOABII5847gfOF",
      "diff_hunk": "@@ -0,0 +1,57 @@\n+# Configuration for probot-stale - https://github.com/probot/stale\n+\n+# Number of days of inactivity before an Issue or Pull Request becomes stale\n+daysUntilStale: 180 # 6 months\n+\n+# Number of days of inactivity before an Issue or Pull Request with the stale label is closed.\n+# Set to false to disable. If disabled, issues still need to be closed manually, but will remain marked as stale.\n+daysUntilClose: 7",
      "path": ".github/stale.yml",
      "position": 8,
      "original_position": 8,
      "commit_id": "2a400aafda498bbaf50d1eb19a1f2bdd0d5d52bd",
      "original_commit_id": "2a400aafda498bbaf50d1eb19a1f2bdd0d5d52bd",
      "in_reply_to_id": 994694546,
      "user": {
        "login": "MarcoFalke",
        "id": 6399679,
        "node_id": "MDQ6VXNlcjYzOTk2Nzk=",
        "avatar_url": "https://avatars.githubusercontent.com/u/6399679?v=4",
        "gravatar_id": "",
        "url": "https://api.github.com/users/MarcoFalke",
        "html_url": "https://github.com/MarcoFalke",
        "followers_url": "https://api.github.com/users/MarcoFalke/followers",
        "following_url": "https://api.github.com/users/MarcoFalke/following%7B/other_user%7D",
        "gists_url": "https://api.github.com/users/MarcoFalke/gists%7B/gist_id%7D",
        "starred_url": "https://api.github.com/users/MarcoFalke/starred%7B/owner%7D%7B/repo%7D",
        "subscriptions_url": "https://api.github.com/users/MarcoFalke/subscriptions",
        "organizations_url": "https://api.github.com/users/MarcoFalke/orgs",
        "repos_url": "https://api.github.com/users/MarcoFalke/repos",
        "events_url": "https://api.github.com/users/MarcoFalke/events%7B/privacy%7D",
        "received_events_url": "https://api.github.com/users/MarcoFalke/received_events",
        "type": "User",
        "site_admin": false
      },
      "body": "Yeah, I wanted to do that for a long time as well. Though, @DrahtBot is currently written such that it needs to scan every comment, so it will run into the rate limit quite fast.",
      "created_at": "2022-10-18T15:11:11Z",
      "updated_at": "2022-10-18T15:11:11Z",
      "html_url": "https://github.com/bitcoin/bitcoin/pull/26300#discussion_r998372229",
      "author_association": "MEMBER",
      "_links": {
        "self": {
          "href": "https://api.github.com/repos/bitcoin/bitcoin/pulls/comments/998372229"
        },
        "pull_request": {
          "href": "https://api.github.com/repos/bitcoin/bitcoin/pulls/26300"
        }
      },
      "start_line": null,
      "original_start_line": null,
      "start_side": null,
      "line": 8,
      "original_line": 8,
      "side": "RIGHT"
    },
    {
      "url": "https://api.github.com/repos/bitcoin/bitcoin/pulls/comments/998405289",
      "pull_request_review_id": 1146075542,
      "id": 998405289,
      "node_id": "PRRC_kwDOABII5847gnSp",
      "diff_hunk": "@@ -0,0 +1,57 @@\n+# Configuration for probot-stale - https://github.com/probot/stale\n+\n+# Number of days of inactivity before an Issue or Pull Request becomes stale\n+daysUntilStale: 180 # 6 months\n+\n+# Number of days of inactivity before an Issue or Pull Request with the stale label is closed.\n+# Set to false to disable. If disabled, issues still need to be closed manually, but will remain marked as stale.\n+daysUntilClose: 7",
      "path": ".github/stale.yml",
      "position": 8,
      "original_position": 8,
      "commit_id": "2a400aafda498bbaf50d1eb19a1f2bdd0d5d52bd",
      "original_commit_id": "2a400aafda498bbaf50d1eb19a1f2bdd0d5d52bd",
      "in_reply_to_id": 994694546,
      "user": {
        "login": "aureleoules",
        "id": 22493292,
        "node_id": "MDQ6VXNlcjIyNDkzMjky",
        "avatar_url": "https://avatars.githubusercontent.com/u/22493292?v=4",
        "gravatar_id": "",
        "url": "https://api.github.com/users/aureleoules",
        "html_url": "https://github.com/aureleoules",
        "followers_url": "https://api.github.com/users/aureleoules/followers",
        "following_url": "https://api.github.com/users/aureleoules/following%7B/other_user%7D",
        "gists_url": "https://api.github.com/users/aureleoules/gists%7B/gist_id%7D",
        "starred_url": "https://api.github.com/users/aureleoules/starred%7B/owner%7D%7B/repo%7D",
        "subscriptions_url": "https://api.github.com/users/aureleoules/subscriptions",
        "organizations_url": "https://api.github.com/users/aureleoules/orgs",
        "repos_url": "https://api.github.com/users/aureleoules/repos",
        "events_url": "https://api.github.com/users/aureleoules/events%7B/privacy%7D",
        "received_events_url": "https://api.github.com/users/aureleoules/received_events",
        "type": "User",
        "site_admin": false
      },
      "body": "> it will run into the rate limit quite fast\r\n\r\nThis could be fixed by using webhooks no? When a comment/review is added to a PR Drahbot could fetch the PR's comments and apply labels. Fetching comments is limited to 100 per req, which is probably fine for most PRs and could also be cached.\r\nAnd another webhook for when a user pushes to a PR, Drahbot would invalidate ACKs by removing the label.\r\n\r\nThe rate-limit doesn't seem too restrictive either? Unless I'm missing something\r\n> User-to-server requests are limited to 5,000 requests per hour and per authenticated user\r\n\r\nI'd love to work on this but the code is nowhere to be found :frog:.",
      "created_at": "2022-10-18T15:36:09Z",
      "updated_at": "2022-10-18T15:36:09Z",
      "html_url": "https://github.com/bitcoin/bitcoin/pull/26300#discussion_r998405289",
      "author_association": "MEMBER",
      "_links": {
        "self": {
          "href": "https://api.github.com/repos/bitcoin/bitcoin/pulls/comments/998405289"
        },
        "pull_request": {
          "href": "https://api.github.com/repos/bitcoin/bitcoin/pulls/26300"
        }
      },
      "start_line": null,
      "original_start_line": null,
      "start_side": null,
      "line": 8,
      "original_line": 8,
      "side": "RIGHT"
    },
    {
      "url": "https://api.github.com/repos/bitcoin/bitcoin/pulls/comments/998439108",
      "pull_request_review_id": 1146124493,
      "id": 998439108,
      "node_id": "PRRC_kwDOABII5847gvjE",
      "diff_hunk": "@@ -0,0 +1,57 @@\n+# Configuration for probot-stale - https://github.com/probot/stale\n+\n+# Number of days of inactivity before an Issue or Pull Request becomes stale\n+daysUntilStale: 180 # 6 months\n+\n+# Number of days of inactivity before an Issue or Pull Request with the stale label is closed.\n+# Set to false to disable. If disabled, issues still need to be closed manually, but will remain marked as stale.\n+daysUntilClose: 7",
      "path": ".github/stale.yml",
      "position": 8,
      "original_position": 8,
      "commit_id": "2a400aafda498bbaf50d1eb19a1f2bdd0d5d52bd",
      "original_commit_id": "2a400aafda498bbaf50d1eb19a1f2bdd0d5d52bd",
      "in_reply_to_id": 994694546,
      "user": {
        "login": "MarcoFalke",
        "id": 6399679,
        "node_id": "MDQ6VXNlcjYzOTk2Nzk=",
        "avatar_url": "https://avatars.githubusercontent.com/u/6399679?v=4",
        "gravatar_id": "",
        "url": "https://api.github.com/users/MarcoFalke",
        "html_url": "https://github.com/MarcoFalke",
        "followers_url": "https://api.github.com/users/MarcoFalke/followers",
        "following_url": "https://api.github.com/users/MarcoFalke/following%7B/other_user%7D",
        "gists_url": "https://api.github.com/users/MarcoFalke/gists%7B/gist_id%7D",
        "starred_url": "https://api.github.com/users/MarcoFalke/starred%7B/owner%7D%7B/repo%7D",
        "subscriptions_url": "https://api.github.com/users/MarcoFalke/subscriptions",
        "organizations_url": "https://api.github.com/users/MarcoFalke/orgs",
        "repos_url": "https://api.github.com/users/MarcoFalke/repos",
        "events_url": "https://api.github.com/users/MarcoFalke/events%7B/privacy%7D",
        "received_events_url": "https://api.github.com/users/MarcoFalke/received_events",
        "type": "User",
        "site_admin": false
      },
      "body": "I am not sure how reliably webhooks are. If they are down or otherwise missed, it wouldn't be possible to catch up, unless you have  script to catch up, in which case you can just use that script all the time.",
      "created_at": "2022-10-18T16:05:43Z",
      "updated_at": "2022-10-18T16:05:44Z",
      "html_url": "https://github.com/bitcoin/bitcoin/pull/26300#discussion_r998439108",
      "author_association": "MEMBER",
      "_links": {
        "self": {
          "href": "https://api.github.com/repos/bitcoin/bitcoin/pulls/comments/998439108"
        },
        "pull_request": {
          "href": "https://api.github.com/repos/bitcoin/bitcoin/pulls/26300"
        }
      },
      "start_line": null,
      "original_start_line": null,
      "start_side": null,
      "line": 8,
      "original_line": 8,
      "side": "RIGHT"
    },
    {
      "url": "https://api.github.com/repos/bitcoin/bitcoin/pulls/comments/998453138",
      "pull_request_review_id": 1146144855,
      "id": 998453138,
      "node_id": "PRRC_kwDOABII5847gy-S",
      "diff_hunk": "@@ -0,0 +1,57 @@\n+# Configuration for probot-stale - https://github.com/probot/stale\n+\n+# Number of days of inactivity before an Issue or Pull Request becomes stale\n+daysUntilStale: 180 # 6 months\n+\n+# Number of days of inactivity before an Issue or Pull Request with the stale label is closed.\n+# Set to false to disable. If disabled, issues still need to be closed manually, but will remain marked as stale.\n+daysUntilClose: 7",
      "path": ".github/stale.yml",
      "position": 8,
      "original_position": 8,
      "commit_id": "2a400aafda498bbaf50d1eb19a1f2bdd0d5d52bd",
      "original_commit_id": "2a400aafda498bbaf50d1eb19a1f2bdd0d5d52bd",
      "in_reply_to_id": 994694546,
      "user": {
        "login": "aureleoules",
        "id": 22493292,
        "node_id": "MDQ6VXNlcjIyNDkzMjky",
        "avatar_url": "https://avatars.githubusercontent.com/u/22493292?v=4",
        "gravatar_id": "",
        "url": "https://api.github.com/users/aureleoules",
        "html_url": "https://github.com/aureleoules",
        "followers_url": "https://api.github.com/users/aureleoules/followers",
        "following_url": "https://api.github.com/users/aureleoules/following%7B/other_user%7D",
        "gists_url": "https://api.github.com/users/aureleoules/gists%7B/gist_id%7D",
        "starred_url": "https://api.github.com/users/aureleoules/starred%7B/owner%7D%7B/repo%7D",
        "subscriptions_url": "https://api.github.com/users/aureleoules/subscriptions",
        "organizations_url": "https://api.github.com/users/aureleoules/orgs",
        "repos_url": "https://api.github.com/users/aureleoules/repos",
        "events_url": "https://api.github.com/users/aureleoules/events%7B/privacy%7D",
        "received_events_url": "https://api.github.com/users/aureleoules/received_events",
        "type": "User",
        "site_admin": false
      },
      "body": "If a webhook is missed, which I believe is relatively rare, the bot will catch up on the next webhook received (the next comment/review/push), because it will rescan the PR comments. I don't think it's that big of a deal to miss an event, this feature is to provide heuristics anyway.",
      "created_at": "2022-10-18T16:19:09Z",
      "updated_at": "2022-10-19T12:34:01Z",
      "html_url": "https://github.com/bitcoin/bitcoin/pull/26300#discussion_r998453138",
      "author_association": "MEMBER",
      "_links": {
        "self": {
          "href": "https://api.github.com/repos/bitcoin/bitcoin/pulls/comments/998453138"
        },
        "pull_request": {
          "href": "https://api.github.com/repos/bitcoin/bitcoin/pulls/26300"
        }
      },
      "start_line": null,
      "original_start_line": null,
      "start_side": null,
      "line": 8,
      "original_line": 8,
      "side": "RIGHT"
    },
    {
      "url": "https://api.github.com/repos/bitcoin/bitcoin/pulls/comments/1000343643",
      "pull_request_review_id": 1148835535,
      "id": 1000343643,
      "node_id": "PRRC_kwDOABII5847oAhb",
      "diff_hunk": "@@ -0,0 +1,57 @@\n+# Configuration for probot-stale - https://github.com/probot/stale\n+\n+# Number of days of inactivity before an Issue or Pull Request becomes stale\n+daysUntilStale: 180 # 6 months\n+\n+# Number of days of inactivity before an Issue or Pull Request with the stale label is closed.\n+# Set to false to disable. If disabled, issues still need to be closed manually, but will remain marked as stale.\n+daysUntilClose: 7",
      "path": ".github/stale.yml",
      "position": 8,
      "original_position": 8,
      "commit_id": "2a400aafda498bbaf50d1eb19a1f2bdd0d5d52bd",
      "original_commit_id": "2a400aafda498bbaf50d1eb19a1f2bdd0d5d52bd",
      "in_reply_to_id": 994694546,
      "user": {
        "login": "MarcoFalke",
        "id": 6399679,
        "node_id": "MDQ6VXNlcjYzOTk2Nzk=",
        "avatar_url": "https://avatars.githubusercontent.com/u/6399679?v=4",
        "gravatar_id": "",
        "url": "https://api.github.com/users/MarcoFalke",
        "html_url": "https://github.com/MarcoFalke",
        "followers_url": "https://api.github.com/users/MarcoFalke/followers",
        "following_url": "https://api.github.com/users/MarcoFalke/following%7B/other_user%7D",
        "gists_url": "https://api.github.com/users/MarcoFalke/gists%7B/gist_id%7D",
        "starred_url": "https://api.github.com/users/MarcoFalke/starred%7B/owner%7D%7B/repo%7D",
        "subscriptions_url": "https://api.github.com/users/MarcoFalke/subscriptions",
        "organizations_url": "https://api.github.com/users/MarcoFalke/orgs",
        "repos_url": "https://api.github.com/users/MarcoFalke/repos",
        "events_url": "https://api.github.com/users/MarcoFalke/events%7B/privacy%7D",
        "received_events_url": "https://api.github.com/users/MarcoFalke/received_events",
        "type": "User",
        "site_admin": false
      },
      "body": "The source code is of low quality, but I just made it public. See for example https://github.com/MarcoFalke/DrahtBot/blob/main/scripts/stale.py",
      "created_at": "2022-10-20T08:55:50Z",
      "updated_at": "2022-10-20T08:55:50Z",
      "html_url": "https://github.com/bitcoin/bitcoin/pull/26300#discussion_r1000343643",
      "author_association": "MEMBER",
      "_links": {
        "self": {
          "href": "https://api.github.com/repos/bitcoin/bitcoin/pulls/comments/1000343643"
        },
        "pull_request": {
          "href": "https://api.github.com/repos/bitcoin/bitcoin/pulls/26300"
        }
      },
      "start_line": null,
      "original_start_line": null,
      "start_side": null,
      "line": 8,
      "original_line": 8,
      "side": "RIGHT"
    }
  ]
}