{
  "type": "pull",
  "pull": {
    "url": "https://api.github.com/repos/bitcoin/bitcoin/pulls/26383",
    "id": 1097838858,
    "node_id": "PR_kwDOABII585Bb7EK",
    "html_url": "https://github.com/bitcoin/bitcoin/pull/26383",
    "diff_url": "https://github.com/bitcoin/bitcoin/pull/26383.diff",
    "patch_url": "https://github.com/bitcoin/bitcoin/pull/26383.patch",
    "issue_url": "https://api.github.com/repos/bitcoin/bitcoin/issues/26383",
    "commits_url": "https://api.github.com/repos/bitcoin/bitcoin/pulls/26383/commits",
    "review_comments_url": "https://api.github.com/repos/bitcoin/bitcoin/pulls/26383/comments",
    "review_comment_url": "https://api.github.com/repos/bitcoin/bitcoin/pulls/comments%7B/number%7D",
    "comments_url": "https://api.github.com/repos/bitcoin/bitcoin/issues/26383/comments",
    "statuses_url": "https://api.github.com/repos/bitcoin/bitcoin/statuses/5d413c8e793a439540d064d24fddfc868e1817d0",
    "number": 26383,
    "state": "closed",
    "locked": false,
    "maintainer_can_modify": false,
    "title": "test: Add feature_taproot case involving invalid internal pubkey",
    "user": {
      "login": "sipa",
      "id": 548488,
      "node_id": "MDQ6VXNlcjU0ODQ4OA==",
      "avatar_url": "https://avatars.githubusercontent.com/u/548488?v=4",
      "gravatar_id": "",
      "url": "https://api.github.com/users/sipa",
      "html_url": "https://github.com/sipa",
      "followers_url": "https://api.github.com/users/sipa/followers",
      "following_url": "https://api.github.com/users/sipa/following%7B/other_user%7D",
      "gists_url": "https://api.github.com/users/sipa/gists%7B/gist_id%7D",
      "starred_url": "https://api.github.com/users/sipa/starred%7B/owner%7D%7B/repo%7D",
      "subscriptions_url": "https://api.github.com/users/sipa/subscriptions",
      "organizations_url": "https://api.github.com/users/sipa/orgs",
      "repos_url": "https://api.github.com/users/sipa/repos",
      "events_url": "https://api.github.com/users/sipa/events%7B/privacy%7D",
      "received_events_url": "https://api.github.com/users/sipa/received_events",
      "type": "User",
      "site_admin": false
    },
    "body": "Add a test case to feature_taproot which involves an output that is (incorrectly) constructed, using an invalid internal public key and valid script tree. It is designed to detect cases where the script path spending validation logic does not detect this case, and instead treats the internal public key as the point at infinity.\r\n\r\nEquivalent unit test case added in https://github.com/bitcoin-core/qa-assets/pull/98.",
    "labels": [
      {
        "id": 62963516,
        "node_id": "MDU6TGFiZWw2Mjk2MzUxNg==",
        "url": "https://api.github.com/repos/bitcoin/bitcoin/labels/Tests",
        "name": "Tests",
        "color": "d4c5f9",
        "default": false
      }
    ],
    "created_at": "2022-10-24T18:28:59Z",
    "updated_at": "2022-11-22T16:31:24Z",
    "closed_at": "2022-11-22T16:31:23Z",
    "mergeable_state": "unknown",
    "merged_at": "2022-11-22T16:31:23Z",
    "merge_commit_sha": "38d06e1561013f4ca845fd5ba6ffcc64de67f9c0",
    "assignees": [],
    "requested_reviewers": [
      {
        "login": "instagibbs",
        "id": 5767891,
        "node_id": "MDQ6VXNlcjU3Njc4OTE=",
        "avatar_url": "https://avatars.githubusercontent.com/u/5767891?v=4",
        "gravatar_id": "",
        "url": "https://api.github.com/users/instagibbs",
        "html_url": "https://github.com/instagibbs",
        "followers_url": "https://api.github.com/users/instagibbs/followers",
        "following_url": "https://api.github.com/users/instagibbs/following%7B/other_user%7D",
        "gists_url": "https://api.github.com/users/instagibbs/gists%7B/gist_id%7D",
        "starred_url": "https://api.github.com/users/instagibbs/starred%7B/owner%7D%7B/repo%7D",
        "subscriptions_url": "https://api.github.com/users/instagibbs/subscriptions",
        "organizations_url": "https://api.github.com/users/instagibbs/orgs",
        "repos_url": "https://api.github.com/users/instagibbs/repos",
        "events_url": "https://api.github.com/users/instagibbs/events%7B/privacy%7D",
        "received_events_url": "https://api.github.com/users/instagibbs/received_events",
        "type": "User",
        "site_admin": false
      },
      {
        "login": "darosior",
        "id": 22457751,
        "node_id": "MDQ6VXNlcjIyNDU3NzUx",
        "avatar_url": "https://avatars.githubusercontent.com/u/22457751?v=4",
        "gravatar_id": "",
        "url": "https://api.github.com/users/darosior",
        "html_url": "https://github.com/darosior",
        "followers_url": "https://api.github.com/users/darosior/followers",
        "following_url": "https://api.github.com/users/darosior/following%7B/other_user%7D",
        "gists_url": "https://api.github.com/users/darosior/gists%7B/gist_id%7D",
        "starred_url": "https://api.github.com/users/darosior/starred%7B/owner%7D%7B/repo%7D",
        "subscriptions_url": "https://api.github.com/users/darosior/subscriptions",
        "organizations_url": "https://api.github.com/users/darosior/orgs",
        "repos_url": "https://api.github.com/users/darosior/repos",
        "events_url": "https://api.github.com/users/darosior/events%7B/privacy%7D",
        "received_events_url": "https://api.github.com/users/darosior/received_events",
        "type": "User",
        "site_admin": false
      }
    ],
    "requested_teams": [],
    "head": {
      "label": "sipa:202210_invalid_internal",
      "ref": "202210_invalid_internal",
      "sha": "5d413c8e793a439540d064d24fddfc868e1817d0",
      "user": {
        "login": "sipa",
        "id": 548488,
        "node_id": "MDQ6VXNlcjU0ODQ4OA==",
        "avatar_url": "https://avatars.githubusercontent.com/u/548488?v=4",
        "gravatar_id": "",
        "url": "https://api.github.com/users/sipa",
        "html_url": "https://github.com/sipa",
        "followers_url": "https://api.github.com/users/sipa/followers",
        "following_url": "https://api.github.com/users/sipa/following%7B/other_user%7D",
        "gists_url": "https://api.github.com/users/sipa/gists%7B/gist_id%7D",
        "starred_url": "https://api.github.com/users/sipa/starred%7B/owner%7D%7B/repo%7D",
        "subscriptions_url": "https://api.github.com/users/sipa/subscriptions",
        "organizations_url": "https://api.github.com/users/sipa/orgs",
        "repos_url": "https://api.github.com/users/sipa/repos",
        "events_url": "https://api.github.com/users/sipa/events%7B/privacy%7D",
        "received_events_url": "https://api.github.com/users/sipa/received_events",
        "type": "User",
        "site_admin": false
      },
      "repo": {
        "id": 1458655,
        "node_id": "MDEwOlJlcG9zaXRvcnkxNDU4NjU1",
        "name": "bitcoin",
        "full_name": "sipa/bitcoin",
        "owner": {
          "login": "sipa",
          "id": 548488,
          "node_id": "MDQ6VXNlcjU0ODQ4OA==",
          "avatar_url": "https://avatars.githubusercontent.com/u/548488?v=4",
          "gravatar_id": "",
          "url": "https://api.github.com/users/sipa",
          "html_url": "https://github.com/sipa",
          "followers_url": "https://api.github.com/users/sipa/followers",
          "following_url": "https://api.github.com/users/sipa/following%7B/other_user%7D",
          "gists_url": "https://api.github.com/users/sipa/gists%7B/gist_id%7D",
          "starred_url": "https://api.github.com/users/sipa/starred%7B/owner%7D%7B/repo%7D",
          "subscriptions_url": "https://api.github.com/users/sipa/subscriptions",
          "organizations_url": "https://api.github.com/users/sipa/orgs",
          "repos_url": "https://api.github.com/users/sipa/repos",
          "events_url": "https://api.github.com/users/sipa/events%7B/privacy%7D",
          "received_events_url": "https://api.github.com/users/sipa/received_events",
          "type": "User",
          "site_admin": false
        },
        "private": false,
        "html_url": "https://github.com/sipa/bitcoin",
        "description": "Bitcoin integration/staging tree",
        "fork": true,
        "url": "https://api.github.com/repos/sipa/bitcoin",
        "archive_url": "https://api.github.com/repos/sipa/bitcoin/%7Barchive_format%7D%7B/ref%7D",
        "assignees_url": "https://api.github.com/repos/sipa/bitcoin/assignees%7B/user%7D",
        "blobs_url": "https://api.github.com/repos/sipa/bitcoin/git/blobs%7B/sha%7D",
        "branches_url": "https://api.github.com/repos/sipa/bitcoin/branches%7B/branch%7D",
        "collaborators_url": "https://api.github.com/repos/sipa/bitcoin/collaborators%7B/collaborator%7D",
        "comments_url": "https://api.github.com/repos/sipa/bitcoin/comments%7B/number%7D",
        "commits_url": "https://api.github.com/repos/sipa/bitcoin/commits%7B/sha%7D",
        "compare_url": "https://api.github.com/repos/sipa/bitcoin/compare/%7Bbase%7D...%7Bhead%7D",
        "contents_url": "https://api.github.com/repos/sipa/bitcoin/contents/%7B+path%7D",
        "contributors_url": "https://api.github.com/repos/sipa/bitcoin/contributors",
        "deployments_url": "https://api.github.com/repos/sipa/bitcoin/deployments",
        "downloads_url": "https://api.github.com/repos/sipa/bitcoin/downloads",
        "events_url": "https://api.github.com/repos/sipa/bitcoin/events",
        "forks_url": "https://api.github.com/repos/sipa/bitcoin/forks",
        "git_commits_url": "https://api.github.com/repos/sipa/bitcoin/git/commits%7B/sha%7D",
        "git_refs_url": "https://api.github.com/repos/sipa/bitcoin/git/refs%7B/sha%7D",
        "git_tags_url": "https://api.github.com/repos/sipa/bitcoin/git/tags%7B/sha%7D",
        "git_url": "git://github.com/sipa/bitcoin.git",
        "issue_comment_url": "https://api.github.com/repos/sipa/bitcoin/issues/comments%7B/number%7D",
        "issue_events_url": "https://api.github.com/repos/sipa/bitcoin/issues/events%7B/number%7D",
        "issues_url": "https://api.github.com/repos/sipa/bitcoin/issues%7B/number%7D",
        "keys_url": "https://api.github.com/repos/sipa/bitcoin/keys%7B/key_id%7D",
        "labels_url": "https://api.github.com/repos/sipa/bitcoin/labels%7B/name%7D",
        "languages_url": "https://api.github.com/repos/sipa/bitcoin/languages",
        "merges_url": "https://api.github.com/repos/sipa/bitcoin/merges",
        "milestones_url": "https://api.github.com/repos/sipa/bitcoin/milestones%7B/number%7D",
        "notifications_url": "https://api.github.com/repos/sipa/bitcoin/notifications%7B?since,all,participating}",
        "pulls_url": "https://api.github.com/repos/sipa/bitcoin/pulls%7B/number%7D",
        "releases_url": "https://api.github.com/repos/sipa/bitcoin/releases%7B/id%7D",
        "ssh_url": "git@github.com:sipa/bitcoin.git",
        "stargazers_url": "https://api.github.com/repos/sipa/bitcoin/stargazers",
        "statuses_url": "https://api.github.com/repos/sipa/bitcoin/statuses/%7Bsha%7D",
        "subscribers_url": "https://api.github.com/repos/sipa/bitcoin/subscribers",
        "subscription_url": "https://api.github.com/repos/sipa/bitcoin/subscription",
        "tags_url": "https://api.github.com/repos/sipa/bitcoin/tags",
        "teams_url": "https://api.github.com/repos/sipa/bitcoin/teams",
        "trees_url": "https://api.github.com/repos/sipa/bitcoin/git/trees%7B/sha%7D",
        "clone_url": "https://github.com/sipa/bitcoin.git",
        "hooks_url": "https://api.github.com/repos/sipa/bitcoin/hooks",
        "svn_url": "https://github.com/sipa/bitcoin",
        "homepage": "http://www.bitcoin.org",
        "language": "TypeScript",
        "forks_count": 22,
        "stargazers_count": 84,
        "watchers_count": 84,
        "size": 218170,
        "default_branch": "lows",
        "open_issues_count": 16,
        "is_template": false,
        "topics": [],
        "has_issues": true,
        "has_projects": true,
        "has_wiki": true,
        "has_pages": false,
        "has_downloads": false,
        "archived": false,
        "disabled": false,
        "visibility": "public",
        "pushed_at": "2023-08-01T19:30:18Z",
        "created_at": "2011-03-09T10:46:59Z",
        "updated_at": "2023-07-17T18:31:45Z",
        "license": {
          "key": "mit",
          "name": "MIT License",
          "node_id": "MDc6TGljZW5zZTEz",
          "spdx_id": "MIT",
          "url": "https://api.github.com/licenses/mit",
          "html_url": null,
          "description": null,
          "implementation": null,
          "permissions": null,
          "conditions": null,
          "limitations": null,
          "body": null,
          "featured": null
        }
      }
    },
    "base": {
      "label": "bitcoin:master",
      "ref": "master",
      "sha": "60a00889b02cdb67ac20328af7477ff55ecd8e46",
      "user": {
        "login": "bitcoin",
        "id": 528860,
        "node_id": "MDEyOk9yZ2FuaXphdGlvbjUyODg2MA==",
        "avatar_url": "https://avatars.githubusercontent.com/u/528860?v=4",
        "gravatar_id": "",
        "url": "https://api.github.com/users/bitcoin",
        "html_url": "https://github.com/bitcoin",
        "followers_url": "https://api.github.com/users/bitcoin/followers",
        "following_url": "https://api.github.com/users/bitcoin/following%7B/other_user%7D",
        "gists_url": "https://api.github.com/users/bitcoin/gists%7B/gist_id%7D",
        "starred_url": "https://api.github.com/users/bitcoin/starred%7B/owner%7D%7B/repo%7D",
        "subscriptions_url": "https://api.github.com/users/bitcoin/subscriptions",
        "organizations_url": "https://api.github.com/users/bitcoin/orgs",
        "repos_url": "https://api.github.com/users/bitcoin/repos",
        "events_url": "https://api.github.com/users/bitcoin/events%7B/privacy%7D",
        "received_events_url": "https://api.github.com/users/bitcoin/received_events",
        "type": "Organization",
        "site_admin": false
      },
      "repo": {
        "id": 1181927,
        "node_id": "MDEwOlJlcG9zaXRvcnkxMTgxOTI3",
        "name": "bitcoin",
        "full_name": "bitcoin/bitcoin",
        "owner": {
          "login": "bitcoin",
          "id": 528860,
          "node_id": "MDEyOk9yZ2FuaXphdGlvbjUyODg2MA==",
          "avatar_url": "https://avatars.githubusercontent.com/u/528860?v=4",
          "gravatar_id": "",
          "url": "https://api.github.com/users/bitcoin",
          "html_url": "https://github.com/bitcoin",
          "followers_url": "https://api.github.com/users/bitcoin/followers",
          "following_url": "https://api.github.com/users/bitcoin/following%7B/other_user%7D",
          "gists_url": "https://api.github.com/users/bitcoin/gists%7B/gist_id%7D",
          "starred_url": "https://api.github.com/users/bitcoin/starred%7B/owner%7D%7B/repo%7D",
          "subscriptions_url": "https://api.github.com/users/bitcoin/subscriptions",
          "organizations_url": "https://api.github.com/users/bitcoin/orgs",
          "repos_url": "https://api.github.com/users/bitcoin/repos",
          "events_url": "https://api.github.com/users/bitcoin/events%7B/privacy%7D",
          "received_events_url": "https://api.github.com/users/bitcoin/received_events",
          "type": "Organization",
          "site_admin": false
        },
        "private": false,
        "html_url": "https://github.com/bitcoin/bitcoin",
        "description": "Bitcoin Core integration/staging tree",
        "fork": false,
        "url": "https://api.github.com/repos/bitcoin/bitcoin",
        "archive_url": "https://api.github.com/repos/bitcoin/bitcoin/%7Barchive_format%7D%7B/ref%7D",
        "assignees_url": "https://api.github.com/repos/bitcoin/bitcoin/assignees%7B/user%7D",
        "blobs_url": "https://api.github.com/repos/bitcoin/bitcoin/git/blobs%7B/sha%7D",
        "branches_url": "https://api.github.com/repos/bitcoin/bitcoin/branches%7B/branch%7D",
        "collaborators_url": "https://api.github.com/repos/bitcoin/bitcoin/collaborators%7B/collaborator%7D",
        "comments_url": "https://api.github.com/repos/bitcoin/bitcoin/comments%7B/number%7D",
        "commits_url": "https://api.github.com/repos/bitcoin/bitcoin/commits%7B/sha%7D",
        "compare_url": "https://api.github.com/repos/bitcoin/bitcoin/compare/%7Bbase%7D...%7Bhead%7D",
        "contents_url": "https://api.github.com/repos/bitcoin/bitcoin/contents/%7B+path%7D",
        "contributors_url": "https://api.github.com/repos/bitcoin/bitcoin/contributors",
        "deployments_url": "https://api.github.com/repos/bitcoin/bitcoin/deployments",
        "downloads_url": "https://api.github.com/repos/bitcoin/bitcoin/downloads",
        "events_url": "https://api.github.com/repos/bitcoin/bitcoin/events",
        "forks_url": "https://api.github.com/repos/bitcoin/bitcoin/forks",
        "git_commits_url": "https://api.github.com/repos/bitcoin/bitcoin/git/commits%7B/sha%7D",
        "git_refs_url": "https://api.github.com/repos/bitcoin/bitcoin/git/refs%7B/sha%7D",
        "git_tags_url": "https://api.github.com/repos/bitcoin/bitcoin/git/tags%7B/sha%7D",
        "git_url": "git://github.com/bitcoin/bitcoin.git",
        "issue_comment_url": "https://api.github.com/repos/bitcoin/bitcoin/issues/comments%7B/number%7D",
        "issue_events_url": "https://api.github.com/repos/bitcoin/bitcoin/issues/events%7B/number%7D",
        "issues_url": "https://api.github.com/repos/bitcoin/bitcoin/issues%7B/number%7D",
        "keys_url": "https://api.github.com/repos/bitcoin/bitcoin/keys%7B/key_id%7D",
        "labels_url": "https://api.github.com/repos/bitcoin/bitcoin/labels%7B/name%7D",
        "languages_url": "https://api.github.com/repos/bitcoin/bitcoin/languages",
        "merges_url": "https://api.github.com/repos/bitcoin/bitcoin/merges",
        "milestones_url": "https://api.github.com/repos/bitcoin/bitcoin/milestones%7B/number%7D",
        "notifications_url": "https://api.github.com/repos/bitcoin/bitcoin/notifications%7B?since,all,participating}",
        "pulls_url": "https://api.github.com/repos/bitcoin/bitcoin/pulls%7B/number%7D",
        "releases_url": "https://api.github.com/repos/bitcoin/bitcoin/releases%7B/id%7D",
        "ssh_url": "git@github.com:bitcoin/bitcoin.git",
        "stargazers_url": "https://api.github.com/repos/bitcoin/bitcoin/stargazers",
        "statuses_url": "https://api.github.com/repos/bitcoin/bitcoin/statuses/%7Bsha%7D",
        "subscribers_url": "https://api.github.com/repos/bitcoin/bitcoin/subscribers",
        "subscription_url": "https://api.github.com/repos/bitcoin/bitcoin/subscription",
        "tags_url": "https://api.github.com/repos/bitcoin/bitcoin/tags",
        "teams_url": "https://api.github.com/repos/bitcoin/bitcoin/teams",
        "trees_url": "https://api.github.com/repos/bitcoin/bitcoin/git/trees%7B/sha%7D",
        "clone_url": "https://github.com/bitcoin/bitcoin.git",
        "hooks_url": "https://api.github.com/repos/bitcoin/bitcoin/hooks",
        "svn_url": "https://github.com/bitcoin/bitcoin",
        "homepage": "https://bitcoincore.org/en/download",
        "language": "C++",
        "forks_count": 35476,
        "stargazers_count": 70608,
        "watchers_count": 70608,
        "size": 236222,
        "default_branch": "master",
        "open_issues_count": 673,
        "is_template": false,
        "topics": [
          "bitcoin",
          "c-plus-plus",
          "cryptocurrency",
          "cryptography",
          "p2p"
        ],
        "has_issues": true,
        "has_projects": true,
        "has_wiki": false,
        "has_pages": false,
        "has_downloads": false,
        "archived": false,
        "disabled": false,
        "visibility": "public",
        "pushed_at": "2023-08-03T00:03:27Z",
        "created_at": "2010-12-19T15:16:43Z",
        "updated_at": "2023-08-02T18:21:18Z",
        "license": {
          "key": "mit",
          "name": "MIT License",
          "node_id": "MDc6TGljZW5zZTEz",
          "spdx_id": "MIT",
          "url": "https://api.github.com/licenses/mit",
          "html_url": null,
          "description": null,
          "implementation": null,
          "permissions": null,
          "conditions": null,
          "limitations": null,
          "body": null,
          "featured": null
        }
      }
    },
    "_links": {
      "self": {
        "href": "https://api.github.com/repos/bitcoin/bitcoin/pulls/26383"
      }
    },
    "author_association": "MEMBER",
    "draft": false,
    "additions": 52,
    "deletions": 4,
    "changed_files": 2,
    "commits": 1,
    "review_comments": 6,
    "comments": 3
  },
  "events": [
    {
      "event": "cross-referenced",
      "id": null,
      "node_id": null,
      "url": null,
      "actor": {
        "login": "sipa",
        "id": 548488,
        "node_id": "MDQ6VXNlcjU0ODQ4OA==",
        "avatar_url": "https://avatars.githubusercontent.com/u/548488?v=4",
        "gravatar_id": "",
        "url": "https://api.github.com/users/sipa",
        "html_url": "https://github.com/sipa",
        "followers_url": "https://api.github.com/users/sipa/followers",
        "following_url": "https://api.github.com/users/sipa/following%7B/other_user%7D",
        "gists_url": "https://api.github.com/users/sipa/gists%7B/gist_id%7D",
        "starred_url": "https://api.github.com/users/sipa/starred%7B/owner%7D%7B/repo%7D",
        "subscriptions_url": "https://api.github.com/users/sipa/subscriptions",
        "organizations_url": "https://api.github.com/users/sipa/orgs",
        "repos_url": "https://api.github.com/users/sipa/repos",
        "events_url": "https://api.github.com/users/sipa/events%7B/privacy%7D",
        "received_events_url": "https://api.github.com/users/sipa/received_events",
        "type": "User",
        "site_admin": false
      },
      "commit_id": null,
      "commit_url": null,
      "created_at": "2022-10-24T18:29:23Z",
      "updated_at": "2022-10-24T18:29:23Z",
      "source": {
        "issue": {
          "id": 1421240412,
          "node_id": "PR_kwDOCgmu_85Bb6Nw",
          "url": "https://api.github.com/repos/bitcoin-core/qa-assets/issues/98",
          "repository_url": "https://api.github.com/repos/bitcoin-core/qa-assets",
          "labels_url": "https://api.github.com/repos/bitcoin-core/qa-assets/issues/98/labels%7B/name%7D",
          "comments_url": "https://api.github.com/repos/bitcoin-core/qa-assets/issues/98/comments",
          "events_url": "https://api.github.com/repos/bitcoin-core/qa-assets/issues/98/events",
          "html_url": "https://github.com/bitcoin-core/qa-assets/pull/98",
          "number": 98,
          "state": "closed",
          "state_reason": null,
          "title": "Add case with invalid internal pubkey",
          "body": "This adds a script unit test case that involves an invalid internal public key.\r\n\r\nThe code to generate this case is added in https://github.com/bitcoin/bitcoin/pull/26383.",
          "user": {
            "login": "sipa",
            "id": 548488,
            "node_id": "MDQ6VXNlcjU0ODQ4OA==",
            "avatar_url": "https://avatars.githubusercontent.com/u/548488?v=4",
            "gravatar_id": "",
            "url": "https://api.github.com/users/sipa",
            "html_url": "https://github.com/sipa",
            "followers_url": "https://api.github.com/users/sipa/followers",
            "following_url": "https://api.github.com/users/sipa/following%7B/other_user%7D",
            "gists_url": "https://api.github.com/users/sipa/gists%7B/gist_id%7D",
            "starred_url": "https://api.github.com/users/sipa/starred%7B/owner%7D%7B/repo%7D",
            "subscriptions_url": "https://api.github.com/users/sipa/subscriptions",
            "organizations_url": "https://api.github.com/users/sipa/orgs",
            "repos_url": "https://api.github.com/users/sipa/repos",
            "events_url": "https://api.github.com/users/sipa/events%7B/privacy%7D",
            "received_events_url": "https://api.github.com/users/sipa/received_events",
            "type": "User",
            "site_admin": false
          },
          "labels": [],
          "assignees": [],
          "author_association": "CONTRIBUTOR",
          "locked": false,
          "comments": 0,
          "pull_request": {
            "url": "https://api.github.com/repos/bitcoin-core/qa-assets/pulls/98",
            "html_url": "https://github.com/bitcoin-core/qa-assets/pull/98",
            "diff_url": "https://github.com/bitcoin-core/qa-assets/pull/98.diff",
            "patch_url": "https://github.com/bitcoin-core/qa-assets/pull/98.patch"
          },
          "closed_at": "2022-10-25T07:02:39Z",
          "created_at": "2022-10-24T18:25:48Z",
          "updated_at": "2022-10-25T07:02:39Z"
        },
        "type": "issue"
      }
    },
    {
      "event": "renamed",
      "id": 7656515005,
      "node_id": "RTE_lADOABII585UtngDzwAAAAHIXSW9",
      "url": "https://api.github.com/repos/bitcoin/bitcoin/issues/events/7656515005",
      "actor": {
        "login": "sipa",
        "id": 548488,
        "node_id": "MDQ6VXNlcjU0ODQ4OA==",
        "avatar_url": "https://avatars.githubusercontent.com/u/548488?v=4",
        "gravatar_id": "",
        "url": "https://api.github.com/users/sipa",
        "html_url": "https://github.com/sipa",
        "followers_url": "https://api.github.com/users/sipa/followers",
        "following_url": "https://api.github.com/users/sipa/following%7B/other_user%7D",
        "gists_url": "https://api.github.com/users/sipa/gists%7B/gist_id%7D",
        "starred_url": "https://api.github.com/users/sipa/starred%7B/owner%7D%7B/repo%7D",
        "subscriptions_url": "https://api.github.com/users/sipa/subscriptions",
        "organizations_url": "https://api.github.com/users/sipa/orgs",
        "repos_url": "https://api.github.com/users/sipa/repos",
        "events_url": "https://api.github.com/users/sipa/events%7B/privacy%7D",
        "received_events_url": "https://api.github.com/users/sipa/received_events",
        "type": "User",
        "site_admin": false
      },
      "commit_id": null,
      "commit_url": null,
      "created_at": "2022-10-24T18:30:11Z",
      "rename": {
        "from": "Add feature_taproot case involved invalid internal pubkey",
        "to": "Add feature_taproot case involving invalid internal pubkey"
      }
    },
    {
      "event": "review_requested",
      "id": 7740236679,
      "node_id": "RRE_lADOABII585UtngDzwAAAAHNWqOH",
      "url": "https://api.github.com/repos/bitcoin/bitcoin/issues/events/7740236679",
      "actor": {
        "login": "fanquake",
        "id": 863730,
        "node_id": "MDQ6VXNlcjg2MzczMA==",
        "avatar_url": "https://avatars.githubusercontent.com/u/863730?v=4",
        "gravatar_id": "",
        "url": "https://api.github.com/users/fanquake",
        "html_url": "https://github.com/fanquake",
        "followers_url": "https://api.github.com/users/fanquake/followers",
        "following_url": "https://api.github.com/users/fanquake/following%7B/other_user%7D",
        "gists_url": "https://api.github.com/users/fanquake/gists%7B/gist_id%7D",
        "starred_url": "https://api.github.com/users/fanquake/starred%7B/owner%7D%7B/repo%7D",
        "subscriptions_url": "https://api.github.com/users/fanquake/subscriptions",
        "organizations_url": "https://api.github.com/users/fanquake/orgs",
        "repos_url": "https://api.github.com/users/fanquake/repos",
        "events_url": "https://api.github.com/users/fanquake/events%7B/privacy%7D",
        "received_events_url": "https://api.github.com/users/fanquake/received_events",
        "type": "User",
        "site_admin": false
      },
      "commit_id": null,
      "commit_url": null,
      "created_at": "2022-11-04T12:19:27Z",
      "requested_reviewer": {
        "login": "darosior",
        "id": 22457751,
        "node_id": "MDQ6VXNlcjIyNDU3NzUx",
        "avatar_url": "https://avatars.githubusercontent.com/u/22457751?v=4",
        "gravatar_id": "",
        "url": "https://api.github.com/users/darosior",
        "html_url": "https://github.com/darosior",
        "followers_url": "https://api.github.com/users/darosior/followers",
        "following_url": "https://api.github.com/users/darosior/following%7B/other_user%7D",
        "gists_url": "https://api.github.com/users/darosior/gists%7B/gist_id%7D",
        "starred_url": "https://api.github.com/users/darosior/starred%7B/owner%7D%7B/repo%7D",
        "subscriptions_url": "https://api.github.com/users/darosior/subscriptions",
        "organizations_url": "https://api.github.com/users/darosior/orgs",
        "repos_url": "https://api.github.com/users/darosior/repos",
        "events_url": "https://api.github.com/users/darosior/events%7B/privacy%7D",
        "received_events_url": "https://api.github.com/users/darosior/received_events",
        "type": "User",
        "site_admin": false
      },
      "review_requester": {
        "login": "fanquake",
        "id": 863730,
        "node_id": "MDQ6VXNlcjg2MzczMA==",
        "avatar_url": "https://avatars.githubusercontent.com/u/863730?v=4",
        "gravatar_id": "",
        "url": "https://api.github.com/users/fanquake",
        "html_url": "https://github.com/fanquake",
        "followers_url": "https://api.github.com/users/fanquake/followers",
        "following_url": "https://api.github.com/users/fanquake/following%7B/other_user%7D",
        "gists_url": "https://api.github.com/users/fanquake/gists%7B/gist_id%7D",
        "starred_url": "https://api.github.com/users/fanquake/starred%7B/owner%7D%7B/repo%7D",
        "subscriptions_url": "https://api.github.com/users/fanquake/subscriptions",
        "organizations_url": "https://api.github.com/users/fanquake/orgs",
        "repos_url": "https://api.github.com/users/fanquake/repos",
        "events_url": "https://api.github.com/users/fanquake/events%7B/privacy%7D",
        "received_events_url": "https://api.github.com/users/fanquake/received_events",
        "type": "User",
        "site_admin": false
      }
    },
    {
      "event": "review_requested",
      "id": 7740236701,
      "node_id": "RRE_lADOABII585UtngDzwAAAAHNWqOd",
      "url": "https://api.github.com/repos/bitcoin/bitcoin/issues/events/7740236701",
      "actor": {
        "login": "fanquake",
        "id": 863730,
        "node_id": "MDQ6VXNlcjg2MzczMA==",
        "avatar_url": "https://avatars.githubusercontent.com/u/863730?v=4",
        "gravatar_id": "",
        "url": "https://api.github.com/users/fanquake",
        "html_url": "https://github.com/fanquake",
        "followers_url": "https://api.github.com/users/fanquake/followers",
        "following_url": "https://api.github.com/users/fanquake/following%7B/other_user%7D",
        "gists_url": "https://api.github.com/users/fanquake/gists%7B/gist_id%7D",
        "starred_url": "https://api.github.com/users/fanquake/starred%7B/owner%7D%7B/repo%7D",
        "subscriptions_url": "https://api.github.com/users/fanquake/subscriptions",
        "organizations_url": "https://api.github.com/users/fanquake/orgs",
        "repos_url": "https://api.github.com/users/fanquake/repos",
        "events_url": "https://api.github.com/users/fanquake/events%7B/privacy%7D",
        "received_events_url": "https://api.github.com/users/fanquake/received_events",
        "type": "User",
        "site_admin": false
      },
      "commit_id": null,
      "commit_url": null,
      "created_at": "2022-11-04T12:19:27Z",
      "requested_reviewer": {
        "login": "instagibbs",
        "id": 5767891,
        "node_id": "MDQ6VXNlcjU3Njc4OTE=",
        "avatar_url": "https://avatars.githubusercontent.com/u/5767891?v=4",
        "gravatar_id": "",
        "url": "https://api.github.com/users/instagibbs",
        "html_url": "https://github.com/instagibbs",
        "followers_url": "https://api.github.com/users/instagibbs/followers",
        "following_url": "https://api.github.com/users/instagibbs/following%7B/other_user%7D",
        "gists_url": "https://api.github.com/users/instagibbs/gists%7B/gist_id%7D",
        "starred_url": "https://api.github.com/users/instagibbs/starred%7B/owner%7D%7B/repo%7D",
        "subscriptions_url": "https://api.github.com/users/instagibbs/subscriptions",
        "organizations_url": "https://api.github.com/users/instagibbs/orgs",
        "repos_url": "https://api.github.com/users/instagibbs/repos",
        "events_url": "https://api.github.com/users/instagibbs/events%7B/privacy%7D",
        "received_events_url": "https://api.github.com/users/instagibbs/received_events",
        "type": "User",
        "site_admin": false
      },
      "review_requester": {
        "login": "fanquake",
        "id": 863730,
        "node_id": "MDQ6VXNlcjg2MzczMA==",
        "avatar_url": "https://avatars.githubusercontent.com/u/863730?v=4",
        "gravatar_id": "",
        "url": "https://api.github.com/users/fanquake",
        "html_url": "https://github.com/fanquake",
        "followers_url": "https://api.github.com/users/fanquake/followers",
        "following_url": "https://api.github.com/users/fanquake/following%7B/other_user%7D",
        "gists_url": "https://api.github.com/users/fanquake/gists%7B/gist_id%7D",
        "starred_url": "https://api.github.com/users/fanquake/starred%7B/owner%7D%7B/repo%7D",
        "subscriptions_url": "https://api.github.com/users/fanquake/subscriptions",
        "organizations_url": "https://api.github.com/users/fanquake/orgs",
        "repos_url": "https://api.github.com/users/fanquake/repos",
        "events_url": "https://api.github.com/users/fanquake/events%7B/privacy%7D",
        "received_events_url": "https://api.github.com/users/fanquake/received_events",
        "type": "User",
        "site_admin": false
      }
    },
    {
      "event": "reviewed",
      "id": 1168596675,
      "node_id": "PRR_kwDOABII585Fp17D",
      "url": null,
      "actor": null,
      "commit_id": "6ca24638d0b70f3d40166ca1894f2481260a1b5f",
      "commit_url": null,
      "created_at": null,
      "author_association": "MEMBER",
      "body": "",
      "user": {
        "login": "instagibbs",
        "id": 5767891,
        "node_id": "MDQ6VXNlcjU3Njc4OTE=",
        "avatar_url": "https://avatars.githubusercontent.com/u/5767891?v=4",
        "gravatar_id": "",
        "url": "https://api.github.com/users/instagibbs",
        "html_url": "https://github.com/instagibbs",
        "followers_url": "https://api.github.com/users/instagibbs/followers",
        "following_url": "https://api.github.com/users/instagibbs/following%7B/other_user%7D",
        "gists_url": "https://api.github.com/users/instagibbs/gists%7B/gist_id%7D",
        "starred_url": "https://api.github.com/users/instagibbs/starred%7B/owner%7D%7B/repo%7D",
        "subscriptions_url": "https://api.github.com/users/instagibbs/subscriptions",
        "organizations_url": "https://api.github.com/users/instagibbs/orgs",
        "repos_url": "https://api.github.com/users/instagibbs/repos",
        "events_url": "https://api.github.com/users/instagibbs/events%7B/privacy%7D",
        "received_events_url": "https://api.github.com/users/instagibbs/received_events",
        "type": "User",
        "site_admin": false
      },
      "html_url": "https://github.com/bitcoin/bitcoin/pull/26383#pullrequestreview-1168596675",
      "submitted_at": "2022-11-04T14:18:14Z",
      "state": "COMMENTED",
      "pull_request_url": "https://api.github.com/repos/bitcoin/bitcoin/pulls/26383"
    },
    {
      "event": "reviewed",
      "id": 1183992912,
      "node_id": "PRR_kwDOABII585GkkxQ",
      "url": null,
      "actor": null,
      "commit_id": "6ca24638d0b70f3d40166ca1894f2481260a1b5f",
      "commit_url": null,
      "created_at": null,
      "author_association": "MEMBER",
      "body": "ACK 6ca24638d0b70f3d40166ca1894f2481260a1b5f\r\nI understand that an invalid x-only pubkey can be treated as a point to infinity as both lead to invalid results.\r\nThis is only testing the test framework though correct? Which is still useful.",
      "user": {
        "login": "aureleoules",
        "id": 22493292,
        "node_id": "MDQ6VXNlcjIyNDkzMjky",
        "avatar_url": "https://avatars.githubusercontent.com/u/22493292?v=4",
        "gravatar_id": "",
        "url": "https://api.github.com/users/aureleoules",
        "html_url": "https://github.com/aureleoules",
        "followers_url": "https://api.github.com/users/aureleoules/followers",
        "following_url": "https://api.github.com/users/aureleoules/following%7B/other_user%7D",
        "gists_url": "https://api.github.com/users/aureleoules/gists%7B/gist_id%7D",
        "starred_url": "https://api.github.com/users/aureleoules/starred%7B/owner%7D%7B/repo%7D",
        "subscriptions_url": "https://api.github.com/users/aureleoules/subscriptions",
        "organizations_url": "https://api.github.com/users/aureleoules/orgs",
        "repos_url": "https://api.github.com/users/aureleoules/repos",
        "events_url": "https://api.github.com/users/aureleoules/events%7B/privacy%7D",
        "received_events_url": "https://api.github.com/users/aureleoules/received_events",
        "type": "User",
        "site_admin": false
      },
      "html_url": "https://github.com/bitcoin/bitcoin/pull/26383#pullrequestreview-1183992912",
      "submitted_at": "2022-11-17T09:56:09Z",
      "state": "COMMENTED",
      "pull_request_url": "https://api.github.com/repos/bitcoin/bitcoin/pulls/26383"
    },
    {
      "event": "commented",
      "id": 1318375690,
      "node_id": "IC_kwDOABII585OlNEK",
      "url": "https://api.github.com/repos/bitcoin/bitcoin/issues/comments/1318375690",
      "actor": {
        "login": "DrahtBot",
        "id": 39886733,
        "node_id": "MDQ6VXNlcjM5ODg2NzMz",
        "avatar_url": "https://avatars.githubusercontent.com/u/39886733?v=4",
        "gravatar_id": "",
        "url": "https://api.github.com/users/DrahtBot",
        "html_url": "https://github.com/DrahtBot",
        "followers_url": "https://api.github.com/users/DrahtBot/followers",
        "following_url": "https://api.github.com/users/DrahtBot/following%7B/other_user%7D",
        "gists_url": "https://api.github.com/users/DrahtBot/gists%7B/gist_id%7D",
        "starred_url": "https://api.github.com/users/DrahtBot/starred%7B/owner%7D%7B/repo%7D",
        "subscriptions_url": "https://api.github.com/users/DrahtBot/subscriptions",
        "organizations_url": "https://api.github.com/users/DrahtBot/orgs",
        "repos_url": "https://api.github.com/users/DrahtBot/repos",
        "events_url": "https://api.github.com/users/DrahtBot/events%7B/privacy%7D",
        "received_events_url": "https://api.github.com/users/DrahtBot/received_events",
        "type": "User",
        "site_admin": false
      },
      "commit_id": null,
      "commit_url": null,
      "created_at": "2022-11-17T09:56:12Z",
      "updated_at": "2022-11-22T15:21:39Z",
      "author_association": "CONTRIBUTOR",
      "body": "<!--e57a25ab6845829454e8d69fc972939a-->\n\nThe following sections might be updated with supplementary metadata relevant to reviewers and maintainers.\n\n<!--021abf342d371248e50ceaed478a90ca-->\n### Reviews\nSee [the guideline](https://github.com/bitcoin/bitcoin/blob/master/CONTRIBUTING.md#code-review) for information on the review process.\n| Type | Reviewers |\n| ---- | --------- |\n| ACK | [instagibbs](https://github.com/bitcoin/bitcoin/pull/26383#issuecomment-1323818819), [aureleoules](https://github.com/bitcoin/bitcoin/pull/26383#pullrequestreview-1190264418) |\n\n",
      "user": {
        "login": "DrahtBot",
        "id": 39886733,
        "node_id": "MDQ6VXNlcjM5ODg2NzMz",
        "avatar_url": "https://avatars.githubusercontent.com/u/39886733?v=4",
        "gravatar_id": "",
        "url": "https://api.github.com/users/DrahtBot",
        "html_url": "https://github.com/DrahtBot",
        "followers_url": "https://api.github.com/users/DrahtBot/followers",
        "following_url": "https://api.github.com/users/DrahtBot/following%7B/other_user%7D",
        "gists_url": "https://api.github.com/users/DrahtBot/gists%7B/gist_id%7D",
        "starred_url": "https://api.github.com/users/DrahtBot/starred%7B/owner%7D%7B/repo%7D",
        "subscriptions_url": "https://api.github.com/users/DrahtBot/subscriptions",
        "organizations_url": "https://api.github.com/users/DrahtBot/orgs",
        "repos_url": "https://api.github.com/users/DrahtBot/repos",
        "events_url": "https://api.github.com/users/DrahtBot/events%7B/privacy%7D",
        "received_events_url": "https://api.github.com/users/DrahtBot/received_events",
        "type": "User",
        "site_admin": false
      },
      "html_url": "https://github.com/bitcoin/bitcoin/pull/26383#issuecomment-1318375690",
      "issue_url": "https://api.github.com/repos/bitcoin/bitcoin/issues/26383"
    },
    {
      "event": "committed",
      "id": null,
      "node_id": "C_kwDOABII59oAKDVkNDEzYzhlNzkzYTQzOTU0MGQwNjRkMjRmZGRmYzg2OGUxODE3ZDA",
      "url": "https://api.github.com/repos/bitcoin/bitcoin/git/commits/5d413c8e793a439540d064d24fddfc868e1817d0",
      "actor": null,
      "commit_id": null,
      "commit_url": null,
      "created_at": null,
      "html_url": "https://github.com/bitcoin/bitcoin/commit/5d413c8e793a439540d064d24fddfc868e1817d0",
      "tree": {
        "sha": "0be2e576c9c292b2d547bc26a8d2e2e1a2dbe39a",
        "url": "https://api.github.com/repos/bitcoin/bitcoin/git/trees/0be2e576c9c292b2d547bc26a8d2e2e1a2dbe39a"
      },
      "verification": {
        "verified": false,
        "reason": "unsigned",
        "payload": null,
        "signature": null
      },
      "parents": [
        {
          "url": "https://api.github.com/repos/bitcoin/bitcoin/git/commits/1c5c951713a97511274299856f1d7c09f86bf2f0",
          "sha": "1c5c951713a97511274299856f1d7c09f86bf2f0",
          "html_url": "https://github.com/bitcoin/bitcoin/commit/1c5c951713a97511274299856f1d7c09f86bf2f0"
        }
      ],
      "message": "Add feature_taproot case involved invalid internal pubkey",
      "committer": {
        "name": "Pieter Wuille",
        "email": "pieter@wuille.net",
        "date": "2022-11-21T19:00:43Z"
      },
      "author": {
        "name": "Pieter Wuille",
        "email": "pieter@wuille.net",
        "date": "2022-10-24T18:26:29Z"
      },
      "sha": "5d413c8e793a439540d064d24fddfc868e1817d0"
    },
    {
      "event": "head_ref_force_pushed",
      "id": 7860364415,
      "node_id": "HRFPE_lADOABII585UtngDzwAAAAHUg6R_",
      "url": "https://api.github.com/repos/bitcoin/bitcoin/issues/events/7860364415",
      "actor": {
        "login": "sipa",
        "id": 548488,
        "node_id": "MDQ6VXNlcjU0ODQ4OA==",
        "avatar_url": "https://avatars.githubusercontent.com/u/548488?v=4",
        "gravatar_id": "",
        "url": "https://api.github.com/users/sipa",
        "html_url": "https://github.com/sipa",
        "followers_url": "https://api.github.com/users/sipa/followers",
        "following_url": "https://api.github.com/users/sipa/following%7B/other_user%7D",
        "gists_url": "https://api.github.com/users/sipa/gists%7B/gist_id%7D",
        "starred_url": "https://api.github.com/users/sipa/starred%7B/owner%7D%7B/repo%7D",
        "subscriptions_url": "https://api.github.com/users/sipa/subscriptions",
        "organizations_url": "https://api.github.com/users/sipa/orgs",
        "repos_url": "https://api.github.com/users/sipa/repos",
        "events_url": "https://api.github.com/users/sipa/events%7B/privacy%7D",
        "received_events_url": "https://api.github.com/users/sipa/received_events",
        "type": "User",
        "site_admin": false
      },
      "commit_id": null,
      "commit_url": null,
      "created_at": "2022-11-21T19:00:59Z"
    },
    {
      "event": "commented",
      "id": 1322515043,
      "node_id": "IC_kwDOABII585O0_pj",
      "url": "https://api.github.com/repos/bitcoin/bitcoin/issues/comments/1322515043",
      "actor": {
        "login": "sipa",
        "id": 548488,
        "node_id": "MDQ6VXNlcjU0ODQ4OA==",
        "avatar_url": "https://avatars.githubusercontent.com/u/548488?v=4",
        "gravatar_id": "",
        "url": "https://api.github.com/users/sipa",
        "html_url": "https://github.com/sipa",
        "followers_url": "https://api.github.com/users/sipa/followers",
        "following_url": "https://api.github.com/users/sipa/following%7B/other_user%7D",
        "gists_url": "https://api.github.com/users/sipa/gists%7B/gist_id%7D",
        "starred_url": "https://api.github.com/users/sipa/starred%7B/owner%7D%7B/repo%7D",
        "subscriptions_url": "https://api.github.com/users/sipa/subscriptions",
        "organizations_url": "https://api.github.com/users/sipa/orgs",
        "repos_url": "https://api.github.com/users/sipa/repos",
        "events_url": "https://api.github.com/users/sipa/events%7B/privacy%7D",
        "received_events_url": "https://api.github.com/users/sipa/received_events",
        "type": "User",
        "site_admin": false
      },
      "commit_id": null,
      "commit_url": null,
      "created_at": "2022-11-21T19:01:36Z",
      "updated_at": "2022-11-21T19:01:36Z",
      "author_association": "MEMBER",
      "body": "Rebased, and added a big comment.",
      "user": {
        "login": "sipa",
        "id": 548488,
        "node_id": "MDQ6VXNlcjU0ODQ4OA==",
        "avatar_url": "https://avatars.githubusercontent.com/u/548488?v=4",
        "gravatar_id": "",
        "url": "https://api.github.com/users/sipa",
        "html_url": "https://github.com/sipa",
        "followers_url": "https://api.github.com/users/sipa/followers",
        "following_url": "https://api.github.com/users/sipa/following%7B/other_user%7D",
        "gists_url": "https://api.github.com/users/sipa/gists%7B/gist_id%7D",
        "starred_url": "https://api.github.com/users/sipa/starred%7B/owner%7D%7B/repo%7D",
        "subscriptions_url": "https://api.github.com/users/sipa/subscriptions",
        "organizations_url": "https://api.github.com/users/sipa/orgs",
        "repos_url": "https://api.github.com/users/sipa/repos",
        "events_url": "https://api.github.com/users/sipa/events%7B/privacy%7D",
        "received_events_url": "https://api.github.com/users/sipa/received_events",
        "type": "User",
        "site_admin": false
      },
      "html_url": "https://github.com/bitcoin/bitcoin/pull/26383#issuecomment-1322515043",
      "issue_url": "https://api.github.com/repos/bitcoin/bitcoin/issues/26383"
    },
    {
      "event": "review_requested",
      "id": 7861581506,
      "node_id": "RRE_lADOABII585UtngDzwAAAAHUljbC",
      "url": "https://api.github.com/repos/bitcoin/bitcoin/issues/events/7861581506",
      "actor": {
        "login": "fanquake",
        "id": 863730,
        "node_id": "MDQ6VXNlcjg2MzczMA==",
        "avatar_url": "https://avatars.githubusercontent.com/u/863730?v=4",
        "gravatar_id": "",
        "url": "https://api.github.com/users/fanquake",
        "html_url": "https://github.com/fanquake",
        "followers_url": "https://api.github.com/users/fanquake/followers",
        "following_url": "https://api.github.com/users/fanquake/following%7B/other_user%7D",
        "gists_url": "https://api.github.com/users/fanquake/gists%7B/gist_id%7D",
        "starred_url": "https://api.github.com/users/fanquake/starred%7B/owner%7D%7B/repo%7D",
        "subscriptions_url": "https://api.github.com/users/fanquake/subscriptions",
        "organizations_url": "https://api.github.com/users/fanquake/orgs",
        "repos_url": "https://api.github.com/users/fanquake/repos",
        "events_url": "https://api.github.com/users/fanquake/events%7B/privacy%7D",
        "received_events_url": "https://api.github.com/users/fanquake/received_events",
        "type": "User",
        "site_admin": false
      },
      "commit_id": null,
      "commit_url": null,
      "created_at": "2022-11-21T22:08:26Z",
      "requested_reviewer": {
        "login": "instagibbs",
        "id": 5767891,
        "node_id": "MDQ6VXNlcjU3Njc4OTE=",
        "avatar_url": "https://avatars.githubusercontent.com/u/5767891?v=4",
        "gravatar_id": "",
        "url": "https://api.github.com/users/instagibbs",
        "html_url": "https://github.com/instagibbs",
        "followers_url": "https://api.github.com/users/instagibbs/followers",
        "following_url": "https://api.github.com/users/instagibbs/following%7B/other_user%7D",
        "gists_url": "https://api.github.com/users/instagibbs/gists%7B/gist_id%7D",
        "starred_url": "https://api.github.com/users/instagibbs/starred%7B/owner%7D%7B/repo%7D",
        "subscriptions_url": "https://api.github.com/users/instagibbs/subscriptions",
        "organizations_url": "https://api.github.com/users/instagibbs/orgs",
        "repos_url": "https://api.github.com/users/instagibbs/repos",
        "events_url": "https://api.github.com/users/instagibbs/events%7B/privacy%7D",
        "received_events_url": "https://api.github.com/users/instagibbs/received_events",
        "type": "User",
        "site_admin": false
      },
      "review_requester": {
        "login": "fanquake",
        "id": 863730,
        "node_id": "MDQ6VXNlcjg2MzczMA==",
        "avatar_url": "https://avatars.githubusercontent.com/u/863730?v=4",
        "gravatar_id": "",
        "url": "https://api.github.com/users/fanquake",
        "html_url": "https://github.com/fanquake",
        "followers_url": "https://api.github.com/users/fanquake/followers",
        "following_url": "https://api.github.com/users/fanquake/following%7B/other_user%7D",
        "gists_url": "https://api.github.com/users/fanquake/gists%7B/gist_id%7D",
        "starred_url": "https://api.github.com/users/fanquake/starred%7B/owner%7D%7B/repo%7D",
        "subscriptions_url": "https://api.github.com/users/fanquake/subscriptions",
        "organizations_url": "https://api.github.com/users/fanquake/orgs",
        "repos_url": "https://api.github.com/users/fanquake/repos",
        "events_url": "https://api.github.com/users/fanquake/events%7B/privacy%7D",
        "received_events_url": "https://api.github.com/users/fanquake/received_events",
        "type": "User",
        "site_admin": false
      }
    },
    {
      "event": "commented",
      "id": 1323818819,
      "node_id": "IC_kwDOABII585O599D",
      "url": "https://api.github.com/repos/bitcoin/bitcoin/issues/comments/1323818819",
      "actor": {
        "login": "instagibbs",
        "id": 5767891,
        "node_id": "MDQ6VXNlcjU3Njc4OTE=",
        "avatar_url": "https://avatars.githubusercontent.com/u/5767891?v=4",
        "gravatar_id": "",
        "url": "https://api.github.com/users/instagibbs",
        "html_url": "https://github.com/instagibbs",
        "followers_url": "https://api.github.com/users/instagibbs/followers",
        "following_url": "https://api.github.com/users/instagibbs/following%7B/other_user%7D",
        "gists_url": "https://api.github.com/users/instagibbs/gists%7B/gist_id%7D",
        "starred_url": "https://api.github.com/users/instagibbs/starred%7B/owner%7D%7B/repo%7D",
        "subscriptions_url": "https://api.github.com/users/instagibbs/subscriptions",
        "organizations_url": "https://api.github.com/users/instagibbs/orgs",
        "repos_url": "https://api.github.com/users/instagibbs/repos",
        "events_url": "https://api.github.com/users/instagibbs/events%7B/privacy%7D",
        "received_events_url": "https://api.github.com/users/instagibbs/received_events",
        "type": "User",
        "site_admin": false
      },
      "commit_id": null,
      "commit_url": null,
      "created_at": "2022-11-22T15:03:57Z",
      "updated_at": "2022-11-22T15:03:57Z",
      "author_association": "MEMBER",
      "body": "ACK 5d413c8e793a439540d064d24fddfc868e1817d0",
      "user": {
        "login": "instagibbs",
        "id": 5767891,
        "node_id": "MDQ6VXNlcjU3Njc4OTE=",
        "avatar_url": "https://avatars.githubusercontent.com/u/5767891?v=4",
        "gravatar_id": "",
        "url": "https://api.github.com/users/instagibbs",
        "html_url": "https://github.com/instagibbs",
        "followers_url": "https://api.github.com/users/instagibbs/followers",
        "following_url": "https://api.github.com/users/instagibbs/following%7B/other_user%7D",
        "gists_url": "https://api.github.com/users/instagibbs/gists%7B/gist_id%7D",
        "starred_url": "https://api.github.com/users/instagibbs/starred%7B/owner%7D%7B/repo%7D",
        "subscriptions_url": "https://api.github.com/users/instagibbs/subscriptions",
        "organizations_url": "https://api.github.com/users/instagibbs/orgs",
        "repos_url": "https://api.github.com/users/instagibbs/repos",
        "events_url": "https://api.github.com/users/instagibbs/events%7B/privacy%7D",
        "received_events_url": "https://api.github.com/users/instagibbs/received_events",
        "type": "User",
        "site_admin": false
      },
      "html_url": "https://github.com/bitcoin/bitcoin/pull/26383#issuecomment-1323818819",
      "issue_url": "https://api.github.com/repos/bitcoin/bitcoin/issues/26383"
    },
    {
      "event": "reviewed",
      "id": 1190264418,
      "node_id": "PRR_kwDOABII585G8f5i",
      "url": null,
      "actor": null,
      "commit_id": "5d413c8e793a439540d064d24fddfc868e1817d0",
      "commit_url": null,
      "created_at": null,
      "author_association": "MEMBER",
      "body": "reACK 5d413c8e793a439540d064d24fddfc868e1817d0",
      "user": {
        "login": "aureleoules",
        "id": 22493292,
        "node_id": "MDQ6VXNlcjIyNDkzMjky",
        "avatar_url": "https://avatars.githubusercontent.com/u/22493292?v=4",
        "gravatar_id": "",
        "url": "https://api.github.com/users/aureleoules",
        "html_url": "https://github.com/aureleoules",
        "followers_url": "https://api.github.com/users/aureleoules/followers",
        "following_url": "https://api.github.com/users/aureleoules/following%7B/other_user%7D",
        "gists_url": "https://api.github.com/users/aureleoules/gists%7B/gist_id%7D",
        "starred_url": "https://api.github.com/users/aureleoules/starred%7B/owner%7D%7B/repo%7D",
        "subscriptions_url": "https://api.github.com/users/aureleoules/subscriptions",
        "organizations_url": "https://api.github.com/users/aureleoules/orgs",
        "repos_url": "https://api.github.com/users/aureleoules/repos",
        "events_url": "https://api.github.com/users/aureleoules/events%7B/privacy%7D",
        "received_events_url": "https://api.github.com/users/aureleoules/received_events",
        "type": "User",
        "site_admin": false
      },
      "html_url": "https://github.com/bitcoin/bitcoin/pull/26383#pullrequestreview-1190264418",
      "submitted_at": "2022-11-22T15:21:36Z",
      "state": "APPROVED",
      "pull_request_url": "https://api.github.com/repos/bitcoin/bitcoin/pulls/26383"
    },
    {
      "event": "renamed",
      "id": 7869171050,
      "node_id": "RTE_lADOABII585UtngDzwAAAAHVCgVq",
      "url": "https://api.github.com/repos/bitcoin/bitcoin/issues/events/7869171050",
      "actor": {
        "login": "MarcoFalke",
        "id": 6399679,
        "node_id": "MDQ6VXNlcjYzOTk2Nzk=",
        "avatar_url": "https://avatars.githubusercontent.com/u/6399679?v=4",
        "gravatar_id": "",
        "url": "https://api.github.com/users/MarcoFalke",
        "html_url": "https://github.com/MarcoFalke",
        "followers_url": "https://api.github.com/users/MarcoFalke/followers",
        "following_url": "https://api.github.com/users/MarcoFalke/following%7B/other_user%7D",
        "gists_url": "https://api.github.com/users/MarcoFalke/gists%7B/gist_id%7D",
        "starred_url": "https://api.github.com/users/MarcoFalke/starred%7B/owner%7D%7B/repo%7D",
        "subscriptions_url": "https://api.github.com/users/MarcoFalke/subscriptions",
        "organizations_url": "https://api.github.com/users/MarcoFalke/orgs",
        "repos_url": "https://api.github.com/users/MarcoFalke/repos",
        "events_url": "https://api.github.com/users/MarcoFalke/events%7B/privacy%7D",
        "received_events_url": "https://api.github.com/users/MarcoFalke/received_events",
        "type": "User",
        "site_admin": false
      },
      "commit_id": null,
      "commit_url": null,
      "created_at": "2022-11-22T15:37:33Z",
      "rename": {
        "from": "Add feature_taproot case involving invalid internal pubkey",
        "to": "test: Add feature_taproot case involving invalid internal pubkey"
      }
    },
    {
      "event": "labeled",
      "id": 7869171423,
      "node_id": "LE_lADOABII585UtngDzwAAAAHVCgbf",
      "url": "https://api.github.com/repos/bitcoin/bitcoin/issues/events/7869171423",
      "actor": {
        "login": "DrahtBot",
        "id": 39886733,
        "node_id": "MDQ6VXNlcjM5ODg2NzMz",
        "avatar_url": "https://avatars.githubusercontent.com/u/39886733?v=4",
        "gravatar_id": "",
        "url": "https://api.github.com/users/DrahtBot",
        "html_url": "https://github.com/DrahtBot",
        "followers_url": "https://api.github.com/users/DrahtBot/followers",
        "following_url": "https://api.github.com/users/DrahtBot/following%7B/other_user%7D",
        "gists_url": "https://api.github.com/users/DrahtBot/gists%7B/gist_id%7D",
        "starred_url": "https://api.github.com/users/DrahtBot/starred%7B/owner%7D%7B/repo%7D",
        "subscriptions_url": "https://api.github.com/users/DrahtBot/subscriptions",
        "organizations_url": "https://api.github.com/users/DrahtBot/orgs",
        "repos_url": "https://api.github.com/users/DrahtBot/repos",
        "events_url": "https://api.github.com/users/DrahtBot/events%7B/privacy%7D",
        "received_events_url": "https://api.github.com/users/DrahtBot/received_events",
        "type": "User",
        "site_admin": false
      },
      "commit_id": null,
      "commit_url": null,
      "created_at": "2022-11-22T15:37:36Z",
      "label": {
        "name": "Tests",
        "color": "d4c5f9"
      }
    },
    {
      "event": "merged",
      "id": 7869700663,
      "node_id": "ME_lADOABII585UtngDzwAAAAHVEho3",
      "url": "https://api.github.com/repos/bitcoin/bitcoin/issues/events/7869700663",
      "actor": {
        "login": "fanquake",
        "id": 863730,
        "node_id": "MDQ6VXNlcjg2MzczMA==",
        "avatar_url": "https://avatars.githubusercontent.com/u/863730?v=4",
        "gravatar_id": "",
        "url": "https://api.github.com/users/fanquake",
        "html_url": "https://github.com/fanquake",
        "followers_url": "https://api.github.com/users/fanquake/followers",
        "following_url": "https://api.github.com/users/fanquake/following%7B/other_user%7D",
        "gists_url": "https://api.github.com/users/fanquake/gists%7B/gist_id%7D",
        "starred_url": "https://api.github.com/users/fanquake/starred%7B/owner%7D%7B/repo%7D",
        "subscriptions_url": "https://api.github.com/users/fanquake/subscriptions",
        "organizations_url": "https://api.github.com/users/fanquake/orgs",
        "repos_url": "https://api.github.com/users/fanquake/repos",
        "events_url": "https://api.github.com/users/fanquake/events%7B/privacy%7D",
        "received_events_url": "https://api.github.com/users/fanquake/received_events",
        "type": "User",
        "site_admin": false
      },
      "commit_id": "38d06e1561013f4ca845fd5ba6ffcc64de67f9c0",
      "commit_url": "https://api.github.com/repos/bitcoin/bitcoin/commits/38d06e1561013f4ca845fd5ba6ffcc64de67f9c0",
      "created_at": "2022-11-22T16:31:23Z"
    },
    {
      "event": "closed",
      "id": 7869700707,
      "node_id": "CE_lADOABII585UtngDzwAAAAHVEhpj",
      "url": "https://api.github.com/repos/bitcoin/bitcoin/issues/events/7869700707",
      "actor": {
        "login": "fanquake",
        "id": 863730,
        "node_id": "MDQ6VXNlcjg2MzczMA==",
        "avatar_url": "https://avatars.githubusercontent.com/u/863730?v=4",
        "gravatar_id": "",
        "url": "https://api.github.com/users/fanquake",
        "html_url": "https://github.com/fanquake",
        "followers_url": "https://api.github.com/users/fanquake/followers",
        "following_url": "https://api.github.com/users/fanquake/following%7B/other_user%7D",
        "gists_url": "https://api.github.com/users/fanquake/gists%7B/gist_id%7D",
        "starred_url": "https://api.github.com/users/fanquake/starred%7B/owner%7D%7B/repo%7D",
        "subscriptions_url": "https://api.github.com/users/fanquake/subscriptions",
        "organizations_url": "https://api.github.com/users/fanquake/orgs",
        "repos_url": "https://api.github.com/users/fanquake/repos",
        "events_url": "https://api.github.com/users/fanquake/events%7B/privacy%7D",
        "received_events_url": "https://api.github.com/users/fanquake/received_events",
        "type": "User",
        "site_admin": false
      },
      "commit_id": null,
      "commit_url": null,
      "created_at": "2022-11-22T16:31:23Z"
    },
    {
      "event": "referenced",
      "id": 7878485958,
      "node_id": "REFE_lADOABII585UtngDzwAAAAHVmCfG",
      "url": "https://api.github.com/repos/bitcoin/bitcoin/issues/events/7878485958",
      "actor": {
        "login": "sidhujag",
        "id": 6238042,
        "node_id": "MDQ6VXNlcjYyMzgwNDI=",
        "avatar_url": "https://avatars.githubusercontent.com/u/6238042?v=4",
        "gravatar_id": "",
        "url": "https://api.github.com/users/sidhujag",
        "html_url": "https://github.com/sidhujag",
        "followers_url": "https://api.github.com/users/sidhujag/followers",
        "following_url": "https://api.github.com/users/sidhujag/following%7B/other_user%7D",
        "gists_url": "https://api.github.com/users/sidhujag/gists%7B/gist_id%7D",
        "starred_url": "https://api.github.com/users/sidhujag/starred%7B/owner%7D%7B/repo%7D",
        "subscriptions_url": "https://api.github.com/users/sidhujag/subscriptions",
        "organizations_url": "https://api.github.com/users/sidhujag/orgs",
        "repos_url": "https://api.github.com/users/sidhujag/repos",
        "events_url": "https://api.github.com/users/sidhujag/events%7B/privacy%7D",
        "received_events_url": "https://api.github.com/users/sidhujag/received_events",
        "type": "User",
        "site_admin": false
      },
      "commit_id": "6ea851ccf0e74d513450ed750d2e7dd3ccf28fe5",
      "commit_url": "https://api.github.com/repos/syscoin/syscoin/commits/6ea851ccf0e74d513450ed750d2e7dd3ccf28fe5",
      "created_at": "2022-11-23T15:42:40Z"
    }
  ],
  "comments": [
    {
      "url": "https://api.github.com/repos/bitcoin/bitcoin/pulls/comments/1014067920",
      "pull_request_review_id": 1168596675,
      "id": 1014067920,
      "node_id": "PRRC_kwDOABII5848cXLQ",
      "diff_hunk": "@@ -872,7 +872,7 @@ def taproot_tree_helper(scripts):\n # - merklebranch: the merkle branch to use for this leaf (32*N bytes)\n TaprootLeafInfo = namedtuple(\"TaprootLeafInfo\", \"script,version,merklebranch,leaf_hash\")\n \n-def taproot_construct(pubkey, scripts=None):\n+def taproot_construct(pubkey, scripts=None, treat_internal_as_infinity=False):",
      "path": "test/functional/test_framework/script.py",
      "position": 14,
      "original_position": 14,
      "commit_id": "5d413c8e793a439540d064d24fddfc868e1817d0",
      "original_commit_id": "6ca24638d0b70f3d40166ca1894f2481260a1b5f",
      "in_reply_to_id": null,
      "user": {
        "login": "instagibbs",
        "id": 5767891,
        "node_id": "MDQ6VXNlcjU3Njc4OTE=",
        "avatar_url": "https://avatars.githubusercontent.com/u/5767891?v=4",
        "gravatar_id": "",
        "url": "https://api.github.com/users/instagibbs",
        "html_url": "https://github.com/instagibbs",
        "followers_url": "https://api.github.com/users/instagibbs/followers",
        "following_url": "https://api.github.com/users/instagibbs/following%7B/other_user%7D",
        "gists_url": "https://api.github.com/users/instagibbs/gists%7B/gist_id%7D",
        "starred_url": "https://api.github.com/users/instagibbs/starred%7B/owner%7D%7B/repo%7D",
        "subscriptions_url": "https://api.github.com/users/instagibbs/subscriptions",
        "organizations_url": "https://api.github.com/users/instagibbs/orgs",
        "repos_url": "https://api.github.com/users/instagibbs/repos",
        "events_url": "https://api.github.com/users/instagibbs/events%7B/privacy%7D",
        "received_events_url": "https://api.github.com/users/instagibbs/received_events",
        "type": "User",
        "site_admin": false
      },
      "body": "needs to be described in below comments ",
      "created_at": "2022-11-04T14:10:49Z",
      "updated_at": "2022-11-04T14:18:14Z",
      "html_url": "https://github.com/bitcoin/bitcoin/pull/26383#discussion_r1014067920",
      "author_association": "MEMBER",
      "_links": {
        "self": {
          "href": "https://api.github.com/repos/bitcoin/bitcoin/pulls/comments/1014067920"
        },
        "pull_request": {
          "href": "https://api.github.com/repos/bitcoin/bitcoin/pulls/26383"
        }
      },
      "start_line": null,
      "original_start_line": null,
      "start_side": null,
      "line": 875,
      "original_line": 875,
      "side": "RIGHT"
    },
    {
      "url": "https://api.github.com/repos/bitcoin/bitcoin/pulls/comments/1014076549",
      "pull_request_review_id": 1168596675,
      "id": 1014076549,
      "node_id": "PRRC_kwDOABII5848cZSF",
      "diff_hunk": "@@ -661,6 +668,23 @@ def spenders_taproot_active():\n     # Test with signature with bit flipped.\n     add_spender(spenders, \"sig/bitflip\", tap=tap, key=secs[0], failure={\"signature\": bitflipper(default_signature)}, **ERR_SIG_SCHNORR)\n \n+    # == Test involving an internal public key not on the curve ==\n+\n+    # Generate an invalid public key\n+    while True:\n+        invalid_pub = random_bytes(32)\n+        if not SECP256K1.is_x_coord(int.from_bytes(invalid_pub, 'big')):\n+            break\n+\n+    # Implement a test case that detects validation logic which maps invalid public keys to the\n+    # point at infinity in the tweaking logic.",
      "path": "test/functional/feature_taproot.py",
      "position": 50,
      "original_position": 29,
      "commit_id": "5d413c8e793a439540d064d24fddfc868e1817d0",
      "original_commit_id": "6ca24638d0b70f3d40166ca1894f2481260a1b5f",
      "in_reply_to_id": null,
      "user": {
        "login": "instagibbs",
        "id": 5767891,
        "node_id": "MDQ6VXNlcjU3Njc4OTE=",
        "avatar_url": "https://avatars.githubusercontent.com/u/5767891?v=4",
        "gravatar_id": "",
        "url": "https://api.github.com/users/instagibbs",
        "html_url": "https://github.com/instagibbs",
        "followers_url": "https://api.github.com/users/instagibbs/followers",
        "following_url": "https://api.github.com/users/instagibbs/following%7B/other_user%7D",
        "gists_url": "https://api.github.com/users/instagibbs/gists%7B/gist_id%7D",
        "starred_url": "https://api.github.com/users/instagibbs/starred%7B/owner%7D%7B/repo%7D",
        "subscriptions_url": "https://api.github.com/users/instagibbs/subscriptions",
        "organizations_url": "https://api.github.com/users/instagibbs/orgs",
        "repos_url": "https://api.github.com/users/instagibbs/repos",
        "events_url": "https://api.github.com/users/instagibbs/events%7B/privacy%7D",
        "received_events_url": "https://api.github.com/users/instagibbs/received_events",
        "type": "User",
        "site_admin": false
      },
      "body": "can this be dumbed down for those of us who treat EC things in a black box manner? It's not on the curve, what does treating it as a point at infinity mean in layman?",
      "created_at": "2022-11-04T14:18:11Z",
      "updated_at": "2022-11-04T14:18:14Z",
      "html_url": "https://github.com/bitcoin/bitcoin/pull/26383#discussion_r1014076549",
      "author_association": "MEMBER",
      "_links": {
        "self": {
          "href": "https://api.github.com/repos/bitcoin/bitcoin/pulls/comments/1014076549"
        },
        "pull_request": {
          "href": "https://api.github.com/repos/bitcoin/bitcoin/pulls/26383"
        }
      },
      "start_line": null,
      "original_start_line": null,
      "start_side": null,
      "line": 701,
      "original_line": 701,
      "side": "RIGHT"
    },
    {
      "url": "https://api.github.com/repos/bitcoin/bitcoin/pulls/comments/1014398897",
      "pull_request_review_id": 1169099897,
      "id": 1014398897,
      "node_id": "PRRC_kwDOABII5848dn-x",
      "diff_hunk": "@@ -872,7 +872,7 @@ def taproot_tree_helper(scripts):\n # - merklebranch: the merkle branch to use for this leaf (32*N bytes)\n TaprootLeafInfo = namedtuple(\"TaprootLeafInfo\", \"script,version,merklebranch,leaf_hash\")\n \n-def taproot_construct(pubkey, scripts=None):\n+def taproot_construct(pubkey, scripts=None, treat_internal_as_infinity=False):",
      "path": "test/functional/test_framework/script.py",
      "position": 14,
      "original_position": 14,
      "commit_id": "5d413c8e793a439540d064d24fddfc868e1817d0",
      "original_commit_id": "6ca24638d0b70f3d40166ca1894f2481260a1b5f",
      "in_reply_to_id": 1014067920,
      "user": {
        "login": "sipa",
        "id": 548488,
        "node_id": "MDQ6VXNlcjU0ODQ4OA==",
        "avatar_url": "https://avatars.githubusercontent.com/u/548488?v=4",
        "gravatar_id": "",
        "url": "https://api.github.com/users/sipa",
        "html_url": "https://github.com/sipa",
        "followers_url": "https://api.github.com/users/sipa/followers",
        "following_url": "https://api.github.com/users/sipa/following%7B/other_user%7D",
        "gists_url": "https://api.github.com/users/sipa/gists%7B/gist_id%7D",
        "starred_url": "https://api.github.com/users/sipa/starred%7B/owner%7D%7B/repo%7D",
        "subscriptions_url": "https://api.github.com/users/sipa/subscriptions",
        "organizations_url": "https://api.github.com/users/sipa/orgs",
        "repos_url": "https://api.github.com/users/sipa/repos",
        "events_url": "https://api.github.com/users/sipa/events%7B/privacy%7D",
        "received_events_url": "https://api.github.com/users/sipa/received_events",
        "type": "User",
        "site_admin": false
      },
      "body": "Let me try explaining in comments here before updating the PR.\n\nX-only public keys are 32 bytes, but not every 32-byte array is a valid public key; only around 50% of them are. This does not affect users using correct software; these \"keys\" have no corresponding private key, and thus will never appear as output of key generation/derivation/tweaking.\n\nUsing an invalid public key as P2TR output key makes the UTXO unspendable. Revealing an invalid public key as internal key in a P2TR script path spend also makes the spend invalid. These conditions are explicitly spelled out in BIP341.\n\nNometheless, there are no validation test vectors for these. It's hard to create such vectors, because it involves \"guesses\" how a potential incorrect implementation deals with an obviously-invalid condition, and making sure that guessed behavior (accepting it in certain condition) doesn't occur.\n\nThe test case added here tries to detect a very specific bug a verifier could have: if they don't verify whether or not a revealed internal public key in a script path spend is valid, and instead implement `output_key == tweak(internal_key, tweakval)` but such that `tweak(invalid_key, tweakval)` equals the public key corresponding to private key `tweakval`. This may seem like a far-fetched edge condition to test for, but in fact, the BIP341 *wallet* pseudocode does exactly that (but obviously only triggerable by someone invoking the tweaking function with an invalid public key, which shouldn't happen).",
      "created_at": "2022-11-04T19:26:35Z",
      "updated_at": "2022-11-04T19:32:26Z",
      "html_url": "https://github.com/bitcoin/bitcoin/pull/26383#discussion_r1014398897",
      "author_association": "MEMBER",
      "_links": {
        "self": {
          "href": "https://api.github.com/repos/bitcoin/bitcoin/pulls/comments/1014398897"
        },
        "pull_request": {
          "href": "https://api.github.com/repos/bitcoin/bitcoin/pulls/26383"
        }
      },
      "start_line": null,
      "original_start_line": null,
      "start_side": null,
      "line": 875,
      "original_line": 875,
      "side": "RIGHT"
    },
    {
      "url": "https://api.github.com/repos/bitcoin/bitcoin/pulls/comments/1014444012",
      "pull_request_review_id": 1169162378,
      "id": 1014444012,
      "node_id": "PRRC_kwDOABII5848dy_s",
      "diff_hunk": "@@ -872,7 +872,7 @@ def taproot_tree_helper(scripts):\n # - merklebranch: the merkle branch to use for this leaf (32*N bytes)\n TaprootLeafInfo = namedtuple(\"TaprootLeafInfo\", \"script,version,merklebranch,leaf_hash\")\n \n-def taproot_construct(pubkey, scripts=None):\n+def taproot_construct(pubkey, scripts=None, treat_internal_as_infinity=False):",
      "path": "test/functional/test_framework/script.py",
      "position": 14,
      "original_position": 14,
      "commit_id": "5d413c8e793a439540d064d24fddfc868e1817d0",
      "original_commit_id": "6ca24638d0b70f3d40166ca1894f2481260a1b5f",
      "in_reply_to_id": 1014067920,
      "user": {
        "login": "instagibbs",
        "id": 5767891,
        "node_id": "MDQ6VXNlcjU3Njc4OTE=",
        "avatar_url": "https://avatars.githubusercontent.com/u/5767891?v=4",
        "gravatar_id": "",
        "url": "https://api.github.com/users/instagibbs",
        "html_url": "https://github.com/instagibbs",
        "followers_url": "https://api.github.com/users/instagibbs/followers",
        "following_url": "https://api.github.com/users/instagibbs/following%7B/other_user%7D",
        "gists_url": "https://api.github.com/users/instagibbs/gists%7B/gist_id%7D",
        "starred_url": "https://api.github.com/users/instagibbs/starred%7B/owner%7D%7B/repo%7D",
        "subscriptions_url": "https://api.github.com/users/instagibbs/subscriptions",
        "organizations_url": "https://api.github.com/users/instagibbs/orgs",
        "repos_url": "https://api.github.com/users/instagibbs/repos",
        "events_url": "https://api.github.com/users/instagibbs/events%7B/privacy%7D",
        "received_events_url": "https://api.github.com/users/instagibbs/received_events",
        "type": "User",
        "site_admin": false
      },
      "body": "> if they don't verify whether or not a revealed internal public key in a script path spend is valid, and instead implement output_key == tweak(internal_key, tweakval) but such that tweak(invalid_key, tweakval) equals the public key corresponding to private key tweakval\r\n\r\nOk so you're saying an implementation *could*, instead of fail detecting it's not on the curve, could instead just consider the pubkey as the point at infinity, which would result in the tweak alone being the key, and in fact this may be a common mistake.",
      "created_at": "2022-11-04T20:32:57Z",
      "updated_at": "2022-11-04T20:32:58Z",
      "html_url": "https://github.com/bitcoin/bitcoin/pull/26383#discussion_r1014444012",
      "author_association": "MEMBER",
      "_links": {
        "self": {
          "href": "https://api.github.com/repos/bitcoin/bitcoin/pulls/comments/1014444012"
        },
        "pull_request": {
          "href": "https://api.github.com/repos/bitcoin/bitcoin/pulls/26383"
        }
      },
      "start_line": null,
      "original_start_line": null,
      "start_side": null,
      "line": 875,
      "original_line": 875,
      "side": "RIGHT"
    },
    {
      "url": "https://api.github.com/repos/bitcoin/bitcoin/pulls/comments/1014445212",
      "pull_request_review_id": 1169164144,
      "id": 1014445212,
      "node_id": "PRRC_kwDOABII5848dzSc",
      "diff_hunk": "@@ -872,7 +872,7 @@ def taproot_tree_helper(scripts):\n # - merklebranch: the merkle branch to use for this leaf (32*N bytes)\n TaprootLeafInfo = namedtuple(\"TaprootLeafInfo\", \"script,version,merklebranch,leaf_hash\")\n \n-def taproot_construct(pubkey, scripts=None):\n+def taproot_construct(pubkey, scripts=None, treat_internal_as_infinity=False):",
      "path": "test/functional/test_framework/script.py",
      "position": 14,
      "original_position": 14,
      "commit_id": "5d413c8e793a439540d064d24fddfc868e1817d0",
      "original_commit_id": "6ca24638d0b70f3d40166ca1894f2481260a1b5f",
      "in_reply_to_id": 1014067920,
      "user": {
        "login": "sipa",
        "id": 548488,
        "node_id": "MDQ6VXNlcjU0ODQ4OA==",
        "avatar_url": "https://avatars.githubusercontent.com/u/548488?v=4",
        "gravatar_id": "",
        "url": "https://api.github.com/users/sipa",
        "html_url": "https://github.com/sipa",
        "followers_url": "https://api.github.com/users/sipa/followers",
        "following_url": "https://api.github.com/users/sipa/following%7B/other_user%7D",
        "gists_url": "https://api.github.com/users/sipa/gists%7B/gist_id%7D",
        "starred_url": "https://api.github.com/users/sipa/starred%7B/owner%7D%7B/repo%7D",
        "subscriptions_url": "https://api.github.com/users/sipa/subscriptions",
        "organizations_url": "https://api.github.com/users/sipa/orgs",
        "repos_url": "https://api.github.com/users/sipa/repos",
        "events_url": "https://api.github.com/users/sipa/events%7B/privacy%7D",
        "received_events_url": "https://api.github.com/users/sipa/received_events",
        "type": "User",
        "site_admin": false
      },
      "body": "Right, exactly.\r\n\r\nI'm not sure it's common (no *verification* implementation (which is where this matters) I know of has this issue). But it is testable.",
      "created_at": "2022-11-04T20:34:55Z",
      "updated_at": "2022-11-04T20:34:55Z",
      "html_url": "https://github.com/bitcoin/bitcoin/pull/26383#discussion_r1014445212",
      "author_association": "MEMBER",
      "_links": {
        "self": {
          "href": "https://api.github.com/repos/bitcoin/bitcoin/pulls/comments/1014445212"
        },
        "pull_request": {
          "href": "https://api.github.com/repos/bitcoin/bitcoin/pulls/26383"
        }
      },
      "start_line": null,
      "original_start_line": null,
      "start_side": null,
      "line": 875,
      "original_line": 875,
      "side": "RIGHT"
    },
    {
      "url": "https://api.github.com/repos/bitcoin/bitcoin/pulls/comments/1028421443",
      "pull_request_review_id": 1188802282,
      "id": 1028421443,
      "node_id": "PRRC_kwDOABII5849THdD",
      "diff_hunk": "@@ -872,7 +872,7 @@ def taproot_tree_helper(scripts):\n # - merklebranch: the merkle branch to use for this leaf (32*N bytes)\n TaprootLeafInfo = namedtuple(\"TaprootLeafInfo\", \"script,version,merklebranch,leaf_hash\")\n \n-def taproot_construct(pubkey, scripts=None):\n+def taproot_construct(pubkey, scripts=None, treat_internal_as_infinity=False):",
      "path": "test/functional/test_framework/script.py",
      "position": 14,
      "original_position": 14,
      "commit_id": "5d413c8e793a439540d064d24fddfc868e1817d0",
      "original_commit_id": "6ca24638d0b70f3d40166ca1894f2481260a1b5f",
      "in_reply_to_id": 1014067920,
      "user": {
        "login": "sipa",
        "id": 548488,
        "node_id": "MDQ6VXNlcjU0ODQ4OA==",
        "avatar_url": "https://avatars.githubusercontent.com/u/548488?v=4",
        "gravatar_id": "",
        "url": "https://api.github.com/users/sipa",
        "html_url": "https://github.com/sipa",
        "followers_url": "https://api.github.com/users/sipa/followers",
        "following_url": "https://api.github.com/users/sipa/following%7B/other_user%7D",
        "gists_url": "https://api.github.com/users/sipa/gists%7B/gist_id%7D",
        "starred_url": "https://api.github.com/users/sipa/starred%7B/owner%7D%7B/repo%7D",
        "subscriptions_url": "https://api.github.com/users/sipa/subscriptions",
        "organizations_url": "https://api.github.com/users/sipa/orgs",
        "repos_url": "https://api.github.com/users/sipa/repos",
        "events_url": "https://api.github.com/users/sipa/events%7B/privacy%7D",
        "received_events_url": "https://api.github.com/users/sipa/received_events",
        "type": "User",
        "site_admin": false
      },
      "body": "Included a big comment in the code with slightly-reworked version of my explanation above.",
      "created_at": "2022-11-21T19:01:17Z",
      "updated_at": "2022-11-21T19:01:17Z",
      "html_url": "https://github.com/bitcoin/bitcoin/pull/26383#discussion_r1028421443",
      "author_association": "MEMBER",
      "_links": {
        "self": {
          "href": "https://api.github.com/repos/bitcoin/bitcoin/pulls/comments/1028421443"
        },
        "pull_request": {
          "href": "https://api.github.com/repos/bitcoin/bitcoin/pulls/26383"
        }
      },
      "start_line": null,
      "original_start_line": null,
      "start_side": null,
      "line": 875,
      "original_line": 875,
      "side": "RIGHT"
    }
  ]
}