{
  "type": "pull",
  "pull": {
    "url": "https://api.github.com/repos/bitcoin/bitcoin/pulls/26426",
    "id": 1104666556,
    "node_id": "PR_kwDOABII585B19-8",
    "html_url": "https://github.com/bitcoin/bitcoin/pull/26426",
    "diff_url": "https://github.com/bitcoin/bitcoin/pull/26426.diff",
    "patch_url": "https://github.com/bitcoin/bitcoin/pull/26426.patch",
    "issue_url": "https://api.github.com/repos/bitcoin/bitcoin/issues/26426",
    "commits_url": "https://api.github.com/repos/bitcoin/bitcoin/pulls/26426/commits",
    "review_comments_url": "https://api.github.com/repos/bitcoin/bitcoin/pulls/26426/comments",
    "review_comment_url": "https://api.github.com/repos/bitcoin/bitcoin/pulls/comments%7B/number%7D",
    "comments_url": "https://api.github.com/repos/bitcoin/bitcoin/issues/26426/comments",
    "statuses_url": "https://api.github.com/repos/bitcoin/bitcoin/statuses/3346437a41552e592578b9f2d6a3e068a62d05bf",
    "number": 26426,
    "state": "open",
    "locked": false,
    "maintainer_can_modify": true,
    "title": "WIP: Fix coinstatsindex overflow issue",
    "user": {
      "login": "fjahr",
      "id": 1322187,
      "node_id": "MDQ6VXNlcjEzMjIxODc=",
      "avatar_url": "https://avatars.githubusercontent.com/u/1322187?v=4",
      "gravatar_id": "",
      "url": "https://api.github.com/users/fjahr",
      "html_url": "https://github.com/fjahr",
      "followers_url": "https://api.github.com/users/fjahr/followers",
      "following_url": "https://api.github.com/users/fjahr/following%7B/other_user%7D",
      "gists_url": "https://api.github.com/users/fjahr/gists%7B/gist_id%7D",
      "starred_url": "https://api.github.com/users/fjahr/starred%7B/owner%7D%7B/repo%7D",
      "subscriptions_url": "https://api.github.com/users/fjahr/subscriptions",
      "organizations_url": "https://api.github.com/users/fjahr/orgs",
      "repos_url": "https://api.github.com/users/fjahr/repos",
      "events_url": "https://api.github.com/users/fjahr/events%7B/privacy%7D",
      "received_events_url": "https://api.github.com/users/fjahr/received_events",
      "type": "User",
      "site_admin": false
    },
    "body": "Closes #26362\r\n\r\nThis changes cumulative values in coinstatsindex to be per-block instead. This is still work in progress and needs further testing and cleanup. Please refer to #26362 for conceptual discussion for now.",
    "labels": [
      {
        "id": 97470796,
        "node_id": "MDU6TGFiZWw5NzQ3MDc5Ng==",
        "url": "https://api.github.com/repos/bitcoin/bitcoin/labels/UTXO%20Db%20and%20Indexes",
        "name": "UTXO Db and Indexes",
        "color": "fbca04",
        "default": false
      },
      {
        "id": 955867938,
        "node_id": "MDU6TGFiZWw5NTU4Njc5Mzg=",
        "url": "https://api.github.com/repos/bitcoin/bitcoin/labels/Needs%20rebase",
        "name": "Needs rebase",
        "description": "",
        "color": "cccccc",
        "default": false
      }
    ],
    "created_at": "2022-10-31T00:01:54Z",
    "updated_at": "2023-10-23T19:22:39Z",
    "mergeable": false,
    "mergeable_state": "dirty",
    "merge_commit_sha": "284495acda8cb66ed59eccc6ed5bad22ce0407ae",
    "assignees": [],
    "requested_reviewers": [],
    "requested_teams": [],
    "rebaseable": false,
    "head": {
      "label": "fjahr:202210-coinstatsindex-overflow",
      "ref": "202210-coinstatsindex-overflow",
      "sha": "3346437a41552e592578b9f2d6a3e068a62d05bf",
      "user": {
        "login": "fjahr",
        "id": 1322187,
        "node_id": "MDQ6VXNlcjEzMjIxODc=",
        "avatar_url": "https://avatars.githubusercontent.com/u/1322187?v=4",
        "gravatar_id": "",
        "url": "https://api.github.com/users/fjahr",
        "html_url": "https://github.com/fjahr",
        "followers_url": "https://api.github.com/users/fjahr/followers",
        "following_url": "https://api.github.com/users/fjahr/following%7B/other_user%7D",
        "gists_url": "https://api.github.com/users/fjahr/gists%7B/gist_id%7D",
        "starred_url": "https://api.github.com/users/fjahr/starred%7B/owner%7D%7B/repo%7D",
        "subscriptions_url": "https://api.github.com/users/fjahr/subscriptions",
        "organizations_url": "https://api.github.com/users/fjahr/orgs",
        "repos_url": "https://api.github.com/users/fjahr/repos",
        "events_url": "https://api.github.com/users/fjahr/events%7B/privacy%7D",
        "received_events_url": "https://api.github.com/users/fjahr/received_events",
        "type": "User",
        "site_admin": false
      },
      "repo": {
        "id": 196253948,
        "node_id": "MDEwOlJlcG9zaXRvcnkxOTYyNTM5NDg=",
        "name": "bitcoin",
        "full_name": "fjahr/bitcoin",
        "owner": {
          "login": "fjahr",
          "id": 1322187,
          "node_id": "MDQ6VXNlcjEzMjIxODc=",
          "avatar_url": "https://avatars.githubusercontent.com/u/1322187?v=4",
          "gravatar_id": "",
          "url": "https://api.github.com/users/fjahr",
          "html_url": "https://github.com/fjahr",
          "followers_url": "https://api.github.com/users/fjahr/followers",
          "following_url": "https://api.github.com/users/fjahr/following%7B/other_user%7D",
          "gists_url": "https://api.github.com/users/fjahr/gists%7B/gist_id%7D",
          "starred_url": "https://api.github.com/users/fjahr/starred%7B/owner%7D%7B/repo%7D",
          "subscriptions_url": "https://api.github.com/users/fjahr/subscriptions",
          "organizations_url": "https://api.github.com/users/fjahr/orgs",
          "repos_url": "https://api.github.com/users/fjahr/repos",
          "events_url": "https://api.github.com/users/fjahr/events%7B/privacy%7D",
          "received_events_url": "https://api.github.com/users/fjahr/received_events",
          "type": "User",
          "site_admin": false
        },
        "private": false,
        "html_url": "https://github.com/fjahr/bitcoin",
        "description": "Bitcoin Core integration/staging tree",
        "fork": true,
        "url": "https://api.github.com/repos/fjahr/bitcoin",
        "archive_url": "https://api.github.com/repos/fjahr/bitcoin/%7Barchive_format%7D%7B/ref%7D",
        "assignees_url": "https://api.github.com/repos/fjahr/bitcoin/assignees%7B/user%7D",
        "blobs_url": "https://api.github.com/repos/fjahr/bitcoin/git/blobs%7B/sha%7D",
        "branches_url": "https://api.github.com/repos/fjahr/bitcoin/branches%7B/branch%7D",
        "collaborators_url": "https://api.github.com/repos/fjahr/bitcoin/collaborators%7B/collaborator%7D",
        "comments_url": "https://api.github.com/repos/fjahr/bitcoin/comments%7B/number%7D",
        "commits_url": "https://api.github.com/repos/fjahr/bitcoin/commits%7B/sha%7D",
        "compare_url": "https://api.github.com/repos/fjahr/bitcoin/compare/%7Bbase%7D...%7Bhead%7D",
        "contents_url": "https://api.github.com/repos/fjahr/bitcoin/contents/%7B+path%7D",
        "contributors_url": "https://api.github.com/repos/fjahr/bitcoin/contributors",
        "deployments_url": "https://api.github.com/repos/fjahr/bitcoin/deployments",
        "downloads_url": "https://api.github.com/repos/fjahr/bitcoin/downloads",
        "events_url": "https://api.github.com/repos/fjahr/bitcoin/events",
        "forks_url": "https://api.github.com/repos/fjahr/bitcoin/forks",
        "git_commits_url": "https://api.github.com/repos/fjahr/bitcoin/git/commits%7B/sha%7D",
        "git_refs_url": "https://api.github.com/repos/fjahr/bitcoin/git/refs%7B/sha%7D",
        "git_tags_url": "https://api.github.com/repos/fjahr/bitcoin/git/tags%7B/sha%7D",
        "git_url": "git://github.com/fjahr/bitcoin.git",
        "issue_comment_url": "https://api.github.com/repos/fjahr/bitcoin/issues/comments%7B/number%7D",
        "issue_events_url": "https://api.github.com/repos/fjahr/bitcoin/issues/events%7B/number%7D",
        "issues_url": "https://api.github.com/repos/fjahr/bitcoin/issues%7B/number%7D",
        "keys_url": "https://api.github.com/repos/fjahr/bitcoin/keys%7B/key_id%7D",
        "labels_url": "https://api.github.com/repos/fjahr/bitcoin/labels%7B/name%7D",
        "languages_url": "https://api.github.com/repos/fjahr/bitcoin/languages",
        "merges_url": "https://api.github.com/repos/fjahr/bitcoin/merges",
        "milestones_url": "https://api.github.com/repos/fjahr/bitcoin/milestones%7B/number%7D",
        "notifications_url": "https://api.github.com/repos/fjahr/bitcoin/notifications%7B?since,all,participating}",
        "pulls_url": "https://api.github.com/repos/fjahr/bitcoin/pulls%7B/number%7D",
        "releases_url": "https://api.github.com/repos/fjahr/bitcoin/releases%7B/id%7D",
        "ssh_url": "git@github.com:fjahr/bitcoin.git",
        "stargazers_url": "https://api.github.com/repos/fjahr/bitcoin/stargazers",
        "statuses_url": "https://api.github.com/repos/fjahr/bitcoin/statuses/%7Bsha%7D",
        "subscribers_url": "https://api.github.com/repos/fjahr/bitcoin/subscribers",
        "subscription_url": "https://api.github.com/repos/fjahr/bitcoin/subscription",
        "tags_url": "https://api.github.com/repos/fjahr/bitcoin/tags",
        "teams_url": "https://api.github.com/repos/fjahr/bitcoin/teams",
        "trees_url": "https://api.github.com/repos/fjahr/bitcoin/git/trees%7B/sha%7D",
        "clone_url": "https://github.com/fjahr/bitcoin.git",
        "hooks_url": "https://api.github.com/repos/fjahr/bitcoin/hooks",
        "svn_url": "https://github.com/fjahr/bitcoin",
        "homepage": "https://bitcoincore.org/en/download",
        "language": "C++",
        "forks_count": 1,
        "stargazers_count": 4,
        "watchers_count": 4,
        "size": 227696,
        "default_branch": "master",
        "open_issues_count": 0,
        "is_template": false,
        "topics": [],
        "has_issues": false,
        "has_projects": true,
        "has_wiki": false,
        "has_pages": false,
        "has_downloads": false,
        "archived": false,
        "disabled": false,
        "visibility": "public",
        "pushed_at": "2023-10-20T20:53:56Z",
        "created_at": "2019-07-10T18:11:06Z",
        "updated_at": "2022-02-24T18:41:19Z",
        "license": {
          "key": "mit",
          "name": "MIT License",
          "node_id": "MDc6TGljZW5zZTEz",
          "spdx_id": "MIT",
          "url": "https://api.github.com/licenses/mit",
          "html_url": null,
          "description": null,
          "implementation": null,
          "permissions": null,
          "conditions": null,
          "limitations": null,
          "body": null,
          "featured": null
        }
      }
    },
    "base": {
      "label": "bitcoin:master",
      "ref": "master",
      "sha": "4f270d2b63913b86c4366756031c5003837075d6",
      "user": {
        "login": "bitcoin",
        "id": 528860,
        "node_id": "MDEyOk9yZ2FuaXphdGlvbjUyODg2MA==",
        "avatar_url": "https://avatars.githubusercontent.com/u/528860?v=4",
        "gravatar_id": "",
        "url": "https://api.github.com/users/bitcoin",
        "html_url": "https://github.com/bitcoin",
        "followers_url": "https://api.github.com/users/bitcoin/followers",
        "following_url": "https://api.github.com/users/bitcoin/following%7B/other_user%7D",
        "gists_url": "https://api.github.com/users/bitcoin/gists%7B/gist_id%7D",
        "starred_url": "https://api.github.com/users/bitcoin/starred%7B/owner%7D%7B/repo%7D",
        "subscriptions_url": "https://api.github.com/users/bitcoin/subscriptions",
        "organizations_url": "https://api.github.com/users/bitcoin/orgs",
        "repos_url": "https://api.github.com/users/bitcoin/repos",
        "events_url": "https://api.github.com/users/bitcoin/events%7B/privacy%7D",
        "received_events_url": "https://api.github.com/users/bitcoin/received_events",
        "type": "Organization",
        "site_admin": false
      },
      "repo": {
        "id": 1181927,
        "node_id": "MDEwOlJlcG9zaXRvcnkxMTgxOTI3",
        "name": "bitcoin",
        "full_name": "bitcoin/bitcoin",
        "owner": {
          "login": "bitcoin",
          "id": 528860,
          "node_id": "MDEyOk9yZ2FuaXphdGlvbjUyODg2MA==",
          "avatar_url": "https://avatars.githubusercontent.com/u/528860?v=4",
          "gravatar_id": "",
          "url": "https://api.github.com/users/bitcoin",
          "html_url": "https://github.com/bitcoin",
          "followers_url": "https://api.github.com/users/bitcoin/followers",
          "following_url": "https://api.github.com/users/bitcoin/following%7B/other_user%7D",
          "gists_url": "https://api.github.com/users/bitcoin/gists%7B/gist_id%7D",
          "starred_url": "https://api.github.com/users/bitcoin/starred%7B/owner%7D%7B/repo%7D",
          "subscriptions_url": "https://api.github.com/users/bitcoin/subscriptions",
          "organizations_url": "https://api.github.com/users/bitcoin/orgs",
          "repos_url": "https://api.github.com/users/bitcoin/repos",
          "events_url": "https://api.github.com/users/bitcoin/events%7B/privacy%7D",
          "received_events_url": "https://api.github.com/users/bitcoin/received_events",
          "type": "Organization",
          "site_admin": false
        },
        "private": false,
        "html_url": "https://github.com/bitcoin/bitcoin",
        "description": "Bitcoin Core integration/staging tree",
        "fork": false,
        "url": "https://api.github.com/repos/bitcoin/bitcoin",
        "archive_url": "https://api.github.com/repos/bitcoin/bitcoin/%7Barchive_format%7D%7B/ref%7D",
        "assignees_url": "https://api.github.com/repos/bitcoin/bitcoin/assignees%7B/user%7D",
        "blobs_url": "https://api.github.com/repos/bitcoin/bitcoin/git/blobs%7B/sha%7D",
        "branches_url": "https://api.github.com/repos/bitcoin/bitcoin/branches%7B/branch%7D",
        "collaborators_url": "https://api.github.com/repos/bitcoin/bitcoin/collaborators%7B/collaborator%7D",
        "comments_url": "https://api.github.com/repos/bitcoin/bitcoin/comments%7B/number%7D",
        "commits_url": "https://api.github.com/repos/bitcoin/bitcoin/commits%7B/sha%7D",
        "compare_url": "https://api.github.com/repos/bitcoin/bitcoin/compare/%7Bbase%7D...%7Bhead%7D",
        "contents_url": "https://api.github.com/repos/bitcoin/bitcoin/contents/%7B+path%7D",
        "contributors_url": "https://api.github.com/repos/bitcoin/bitcoin/contributors",
        "deployments_url": "https://api.github.com/repos/bitcoin/bitcoin/deployments",
        "downloads_url": "https://api.github.com/repos/bitcoin/bitcoin/downloads",
        "events_url": "https://api.github.com/repos/bitcoin/bitcoin/events",
        "forks_url": "https://api.github.com/repos/bitcoin/bitcoin/forks",
        "git_commits_url": "https://api.github.com/repos/bitcoin/bitcoin/git/commits%7B/sha%7D",
        "git_refs_url": "https://api.github.com/repos/bitcoin/bitcoin/git/refs%7B/sha%7D",
        "git_tags_url": "https://api.github.com/repos/bitcoin/bitcoin/git/tags%7B/sha%7D",
        "git_url": "git://github.com/bitcoin/bitcoin.git",
        "issue_comment_url": "https://api.github.com/repos/bitcoin/bitcoin/issues/comments%7B/number%7D",
        "issue_events_url": "https://api.github.com/repos/bitcoin/bitcoin/issues/events%7B/number%7D",
        "issues_url": "https://api.github.com/repos/bitcoin/bitcoin/issues%7B/number%7D",
        "keys_url": "https://api.github.com/repos/bitcoin/bitcoin/keys%7B/key_id%7D",
        "labels_url": "https://api.github.com/repos/bitcoin/bitcoin/labels%7B/name%7D",
        "languages_url": "https://api.github.com/repos/bitcoin/bitcoin/languages",
        "merges_url": "https://api.github.com/repos/bitcoin/bitcoin/merges",
        "milestones_url": "https://api.github.com/repos/bitcoin/bitcoin/milestones%7B/number%7D",
        "notifications_url": "https://api.github.com/repos/bitcoin/bitcoin/notifications%7B?since,all,participating}",
        "pulls_url": "https://api.github.com/repos/bitcoin/bitcoin/pulls%7B/number%7D",
        "releases_url": "https://api.github.com/repos/bitcoin/bitcoin/releases%7B/id%7D",
        "ssh_url": "git@github.com:bitcoin/bitcoin.git",
        "stargazers_url": "https://api.github.com/repos/bitcoin/bitcoin/stargazers",
        "statuses_url": "https://api.github.com/repos/bitcoin/bitcoin/statuses/%7Bsha%7D",
        "subscribers_url": "https://api.github.com/repos/bitcoin/bitcoin/subscribers",
        "subscription_url": "https://api.github.com/repos/bitcoin/bitcoin/subscription",
        "tags_url": "https://api.github.com/repos/bitcoin/bitcoin/tags",
        "teams_url": "https://api.github.com/repos/bitcoin/bitcoin/teams",
        "trees_url": "https://api.github.com/repos/bitcoin/bitcoin/git/trees%7B/sha%7D",
        "clone_url": "https://github.com/bitcoin/bitcoin.git",
        "hooks_url": "https://api.github.com/repos/bitcoin/bitcoin/hooks",
        "svn_url": "https://github.com/bitcoin/bitcoin",
        "homepage": "https://bitcoincore.org/en/download",
        "language": "C++",
        "forks_count": 35862,
        "stargazers_count": 71875,
        "watchers_count": 71875,
        "size": 242177,
        "default_branch": "master",
        "open_issues_count": 628,
        "is_template": false,
        "topics": [
          "bitcoin",
          "c-plus-plus",
          "cryptocurrency",
          "cryptography",
          "p2p"
        ],
        "has_issues": true,
        "has_projects": true,
        "has_wiki": false,
        "has_pages": false,
        "has_downloads": false,
        "archived": false,
        "disabled": false,
        "visibility": "public",
        "pushed_at": "2023-10-23T19:16:18Z",
        "created_at": "2010-12-19T15:16:43Z",
        "updated_at": "2023-10-23T19:45:35Z",
        "license": {
          "key": "mit",
          "name": "MIT License",
          "node_id": "MDc6TGljZW5zZTEz",
          "spdx_id": "MIT",
          "url": "https://api.github.com/licenses/mit",
          "html_url": null,
          "description": null,
          "implementation": null,
          "permissions": null,
          "conditions": null,
          "limitations": null,
          "body": null,
          "featured": null
        }
      }
    },
    "_links": {
      "self": {
        "href": "https://api.github.com/repos/bitcoin/bitcoin/pulls/26426"
      }
    },
    "author_association": "CONTRIBUTOR",
    "draft": true,
    "additions": 46,
    "deletions": 69,
    "changed_files": 4,
    "commits": 1,
    "review_comments": 2,
    "comments": 2
  },
  "events": [
    {
      "event": "committed",
      "id": null,
      "node_id": "C_kwDOABII59oAKDMzNDY0MzdhNDE1NTJlNTkyNTc4YjlmMmQ2YTNlMDY4YTYyZDA1YmY",
      "url": "https://api.github.com/repos/bitcoin/bitcoin/git/commits/3346437a41552e592578b9f2d6a3e068a62d05bf",
      "actor": null,
      "commit_id": null,
      "commit_url": null,
      "created_at": null,
      "html_url": "https://github.com/bitcoin/bitcoin/commit/3346437a41552e592578b9f2d6a3e068a62d05bf",
      "tree": {
        "sha": "8faadf478dda58bede54621a06f7e443dff4b732",
        "url": "https://api.github.com/repos/bitcoin/bitcoin/git/trees/8faadf478dda58bede54621a06f7e443dff4b732"
      },
      "verification": {
        "verified": true,
        "reason": "valid",
        "payload": "tree 8faadf478dda58bede54621a06f7e443dff4b732\nparent 4f270d2b63913b86c4366756031c5003837075d6\nauthor Fabian Jahr <fjahr@protonmail.com> 1667172805 +0100\ncommitter Fabian Jahr <fjahr@protonmail.com> 1667172805 +0100\n\nwip: fix coinstatsindex overflow issue\n",
        "signature": "-----BEGIN PGP SIGNATURE-----\nComment: GPGTools - https://gpgtools.org\n\niQJJBAABCgAzFiEEtFq20ghhrCHSdrgm8T0enYkHmM0FAmNfCcUVHGZqYWhyQHBy\nb3Rvbm1haWwuY29tAAoJEPE9Hp2JB5jNNawQAKdSgzkcowsVCkITS636Q7gr9ST1\nReOJV0jXvju442HXnNP2DJf1CXSDnOPKB806DZ2wiKewDpXKCAiz1X/WDk9cozTG\nJkS1PXU3MXfvPA1ADywoHkc90N/6MBlDkRh7VpBt+q2yR/inCeq8UDQGWEut02YE\nYwdPyHtlv4qZhpp8kOIm5Kh0z4BidDRRKikaqbgmf2Ccg9K1CL2jbVqyVJv+ZuYh\nrvoj1VtLEFdnjBFcD4zv4rxzyXrGtxIlbHuHbx9xvsfMmoGB6rrfE16gF4PWbsFM\nPhCfuulXNEKD/UjS7h38M5OYaWm3t/vU5/suyPEjBEJCsmzSE2Vxe0yX9uYR1HTd\nc4g/vLTOEO6oKhWtfBvuTFlj6mJ+zvCRUEDjiyHuCXufOIS7YtP6AzKh67yQA2us\n92hjOZaaoLcSrwmXdeoR+csvEuzNkFuAWcWWmAtHlLzVf8JTyF8v1thXjB6yMKCb\nZYyndG/XTYa2a0qAb+YH3sNX+rbcprrenOXn40ly8B+RiFe8J0PfEzi6Cwo/akBH\n6D1djcUHR9hVKG3VPBTzYrv5UUURTMvy7FrBnLbnCOq2xC131S334sacJDM1mJKb\nptYa5SQZxEiVN6tHAuXF/hGo6auIlce86daZuT2f3nMQa8SMlIOeiUu5dSR8+NhJ\n2FjDCfl6p1B1O+Vp\n=GLr7\n-----END PGP SIGNATURE-----"
      },
      "parents": [
        {
          "url": "https://api.github.com/repos/bitcoin/bitcoin/git/commits/4f270d2b63913b86c4366756031c5003837075d6",
          "sha": "4f270d2b63913b86c4366756031c5003837075d6",
          "html_url": "https://github.com/bitcoin/bitcoin/commit/4f270d2b63913b86c4366756031c5003837075d6"
        }
      ],
      "message": "wip: fix coinstatsindex overflow issue",
      "committer": {
        "name": "Fabian Jahr",
        "email": "fjahr@protonmail.com",
        "date": "2022-10-30T23:33:25Z"
      },
      "author": {
        "name": "Fabian Jahr",
        "email": "fjahr@protonmail.com",
        "date": "2022-10-30T23:33:25Z"
      },
      "sha": "3346437a41552e592578b9f2d6a3e068a62d05bf"
    },
    {
      "event": "cross-referenced",
      "id": null,
      "node_id": null,
      "url": null,
      "actor": {
        "login": "fjahr",
        "id": 1322187,
        "node_id": "MDQ6VXNlcjEzMjIxODc=",
        "avatar_url": "https://avatars.githubusercontent.com/u/1322187?v=4",
        "gravatar_id": "",
        "url": "https://api.github.com/users/fjahr",
        "html_url": "https://github.com/fjahr",
        "followers_url": "https://api.github.com/users/fjahr/followers",
        "following_url": "https://api.github.com/users/fjahr/following%7B/other_user%7D",
        "gists_url": "https://api.github.com/users/fjahr/gists%7B/gist_id%7D",
        "starred_url": "https://api.github.com/users/fjahr/starred%7B/owner%7D%7B/repo%7D",
        "subscriptions_url": "https://api.github.com/users/fjahr/subscriptions",
        "organizations_url": "https://api.github.com/users/fjahr/orgs",
        "repos_url": "https://api.github.com/users/fjahr/repos",
        "events_url": "https://api.github.com/users/fjahr/events%7B/privacy%7D",
        "received_events_url": "https://api.github.com/users/fjahr/received_events",
        "type": "User",
        "site_admin": false
      },
      "commit_id": null,
      "commit_url": null,
      "created_at": "2022-10-31T00:30:11Z",
      "updated_at": "2022-10-31T00:30:11Z",
      "source": {
        "issue": {
          "id": 1418221628,
          "node_id": "I_kwDOABII585UiFg8",
          "url": "https://api.github.com/repos/bitcoin/bitcoin/issues/26362",
          "repository_url": "https://api.github.com/repos/bitcoin/bitcoin",
          "labels_url": "https://api.github.com/repos/bitcoin/bitcoin/issues/26362/labels%7B/name%7D",
          "comments_url": "https://api.github.com/repos/bitcoin/bitcoin/issues/26362/comments",
          "events_url": "https://api.github.com/repos/bitcoin/bitcoin/issues/26362/events",
          "html_url": "https://github.com/bitcoin/bitcoin/issues/26362",
          "number": 26362,
          "state": "open",
          "state_reason": null,
          "title": "signed overflow in coinstats index",
          "body": "https://github.com/bitcoin/bitcoin/blob/6d4048468430d9d1fe5e7c5fcda13708879d1083/src/index/coinstatsindex.h#L33-L35\r\nhttps://github.com/bitcoin/bitcoin/blob/6d4048468430d9d1fe5e7c5fcda13708879d1083/src/kernel/coinstats.h#L54-L59\r\n\r\nThe values:\r\n\r\n * `m_total_prevout_spent_amount`\r\n * `m_total_new_outputs_ex_coinbase_amount`\r\n * `m_total_coinbase_amount`\r\n\r\nare all subject to overflowing an `int64_t` (ie, `CAmount`). This is visible in practice as of signet block 112516; with     `total_prevout_spent` rolling over to -92230771076.81494784 (from from 92232270378.54920553 BTC at block 112515). With debug builds, this will cause a crash due to the `-ftrapv` compiler option.\r\n\r\nMaking these just be per-block totals instead of cumulative totals should fix this in practice. I think that would require a full index rebuild, though?\r\n\r\nEven then I think it would still be technically possible to overflow `m_block_prevout_spent_amount` or `m_total_new_outputs_ex_coinbase_amount` with a single block: you can fit over 15,000 65-byte transactions spending to `padding DROP TRUE` in a block, and if you start with a utxo containing 6.15M BTC and chain it through 15,000 txs, then that will overflow a signed 64 bit counter. That's not reproducible on regtest, though, since the halving schedule there limits the total supply to ~15,000 regtest-BTC, which means you need about 6.15M transactions to trigger the same overflow.\r\n\r\nSince we don't actually expose the cumulative totals; I observed the values above by patching gettxoutsetinfo in rpc/blockchain to add:\r\n\r\n```c++\r\n/*line ~877*/    {RPCResult::Type::STR_AMOUNT, \"total_prevout_spent\", \"Total amount of all prevouts spent up to this block\"},\r\n/*line ~981*/    block_info.pushKV(\"total_prevout_spent\", ValueFromAmount(stats.total_prevout_spent_amount));\r\n```",
          "user": {
            "login": "ajtowns",
            "id": 127186,
            "node_id": "MDQ6VXNlcjEyNzE4Ng==",
            "avatar_url": "https://avatars.githubusercontent.com/u/127186?v=4",
            "gravatar_id": "",
            "url": "https://api.github.com/users/ajtowns",
            "html_url": "https://github.com/ajtowns",
            "followers_url": "https://api.github.com/users/ajtowns/followers",
            "following_url": "https://api.github.com/users/ajtowns/following%7B/other_user%7D",
            "gists_url": "https://api.github.com/users/ajtowns/gists%7B/gist_id%7D",
            "starred_url": "https://api.github.com/users/ajtowns/starred%7B/owner%7D%7B/repo%7D",
            "subscriptions_url": "https://api.github.com/users/ajtowns/subscriptions",
            "organizations_url": "https://api.github.com/users/ajtowns/orgs",
            "repos_url": "https://api.github.com/users/ajtowns/repos",
            "events_url": "https://api.github.com/users/ajtowns/events%7B/privacy%7D",
            "received_events_url": "https://api.github.com/users/ajtowns/received_events",
            "type": "User",
            "site_admin": false
          },
          "labels": [
            {
              "id": 64584,
              "node_id": "MDU6TGFiZWw2NDU4NA==",
              "url": "https://api.github.com/repos/bitcoin/bitcoin/labels/Brainstorming",
              "name": "Brainstorming",
              "color": "ebd775",
              "default": false
            },
            {
              "id": 64585,
              "node_id": "MDU6TGFiZWw2NDU4NQ==",
              "url": "https://api.github.com/repos/bitcoin/bitcoin/labels/Bug",
              "name": "Bug",
              "color": "FBBAAB",
              "default": false
            },
            {
              "id": 97470796,
              "node_id": "MDU6TGFiZWw5NzQ3MDc5Ng==",
              "url": "https://api.github.com/repos/bitcoin/bitcoin/labels/UTXO%20Db%20and%20Indexes",
              "name": "UTXO Db and Indexes",
              "color": "fbca04",
              "default": false
            },
            {
              "id": 98279177,
              "node_id": "MDU6TGFiZWw5ODI3OTE3Nw==",
              "url": "https://api.github.com/repos/bitcoin/bitcoin/labels/RPC/REST/ZMQ",
              "name": "RPC/REST/ZMQ",
              "color": "0052cc",
              "default": false
            }
          ],
          "assignees": [],
          "author_association": "CONTRIBUTOR",
          "locked": false,
          "comments": 8,
          "created_at": "2022-10-21T11:52:40Z",
          "updated_at": "2022-11-05T19:29:20Z"
        },
        "type": "issue"
      }
    },
    {
      "event": "commented",
      "id": 1296688346,
      "node_id": "IC_kwDOABII585NSeTa",
      "url": "https://api.github.com/repos/bitcoin/bitcoin/issues/comments/1296688346",
      "actor": {
        "login": "DrahtBot",
        "id": 39886733,
        "node_id": "MDQ6VXNlcjM5ODg2NzMz",
        "avatar_url": "https://avatars.githubusercontent.com/u/39886733?v=4",
        "gravatar_id": "",
        "url": "https://api.github.com/users/DrahtBot",
        "html_url": "https://github.com/DrahtBot",
        "followers_url": "https://api.github.com/users/DrahtBot/followers",
        "following_url": "https://api.github.com/users/DrahtBot/following%7B/other_user%7D",
        "gists_url": "https://api.github.com/users/DrahtBot/gists%7B/gist_id%7D",
        "starred_url": "https://api.github.com/users/DrahtBot/starred%7B/owner%7D%7B/repo%7D",
        "subscriptions_url": "https://api.github.com/users/DrahtBot/subscriptions",
        "organizations_url": "https://api.github.com/users/DrahtBot/orgs",
        "repos_url": "https://api.github.com/users/DrahtBot/repos",
        "events_url": "https://api.github.com/users/DrahtBot/events%7B/privacy%7D",
        "received_events_url": "https://api.github.com/users/DrahtBot/received_events",
        "type": "User",
        "site_admin": false
      },
      "commit_id": null,
      "commit_url": null,
      "created_at": "2022-10-31T07:19:18Z",
      "updated_at": "2023-10-20T03:03:02Z",
      "author_association": "CONTRIBUTOR",
      "body": "<!--e57a25ab6845829454e8d69fc972939a-->\n\nThe following sections might be updated with supplementary metadata relevant to reviewers and maintainers.\n\n<!--174a7506f384e20aa4161008e828411d-->\n### Conflicts\nReviewers, this pull request conflicts with the following ones:\n\n* [#28685](https://github.com/bitcoin/bitcoin/pull/28685) (coinstats, assumeutxo: fix hash_serialized2 calculation by fjahr)\n\nIf you consider this pull request important, please also help to review the conflicting pull requests. Ideally, start with the one that should be merged first.\n",
      "user": {
        "login": "DrahtBot",
        "id": 39886733,
        "node_id": "MDQ6VXNlcjM5ODg2NzMz",
        "avatar_url": "https://avatars.githubusercontent.com/u/39886733?v=4",
        "gravatar_id": "",
        "url": "https://api.github.com/users/DrahtBot",
        "html_url": "https://github.com/DrahtBot",
        "followers_url": "https://api.github.com/users/DrahtBot/followers",
        "following_url": "https://api.github.com/users/DrahtBot/following%7B/other_user%7D",
        "gists_url": "https://api.github.com/users/DrahtBot/gists%7B/gist_id%7D",
        "starred_url": "https://api.github.com/users/DrahtBot/starred%7B/owner%7D%7B/repo%7D",
        "subscriptions_url": "https://api.github.com/users/DrahtBot/subscriptions",
        "organizations_url": "https://api.github.com/users/DrahtBot/orgs",
        "repos_url": "https://api.github.com/users/DrahtBot/repos",
        "events_url": "https://api.github.com/users/DrahtBot/events%7B/privacy%7D",
        "received_events_url": "https://api.github.com/users/DrahtBot/received_events",
        "type": "User",
        "site_admin": false
      },
      "html_url": "https://github.com/bitcoin/bitcoin/pull/26426#issuecomment-1296688346",
      "issue_url": "https://api.github.com/repos/bitcoin/bitcoin/issues/26426"
    },
    {
      "event": "labeled",
      "id": 7702044213,
      "node_id": "LE_lADOABII585VLcy_zwAAAAHLE941",
      "url": "https://api.github.com/repos/bitcoin/bitcoin/issues/events/7702044213",
      "actor": {
        "login": "fanquake",
        "id": 863730,
        "node_id": "MDQ6VXNlcjg2MzczMA==",
        "avatar_url": "https://avatars.githubusercontent.com/u/863730?v=4",
        "gravatar_id": "",
        "url": "https://api.github.com/users/fanquake",
        "html_url": "https://github.com/fanquake",
        "followers_url": "https://api.github.com/users/fanquake/followers",
        "following_url": "https://api.github.com/users/fanquake/following%7B/other_user%7D",
        "gists_url": "https://api.github.com/users/fanquake/gists%7B/gist_id%7D",
        "starred_url": "https://api.github.com/users/fanquake/starred%7B/owner%7D%7B/repo%7D",
        "subscriptions_url": "https://api.github.com/users/fanquake/subscriptions",
        "organizations_url": "https://api.github.com/users/fanquake/orgs",
        "repos_url": "https://api.github.com/users/fanquake/repos",
        "events_url": "https://api.github.com/users/fanquake/events%7B/privacy%7D",
        "received_events_url": "https://api.github.com/users/fanquake/received_events",
        "type": "User",
        "site_admin": false
      },
      "commit_id": null,
      "commit_url": null,
      "created_at": "2022-10-31T08:31:54Z",
      "label": {
        "name": "UTXO Db and Indexes",
        "color": "fbca04"
      }
    },
    {
      "event": "cross-referenced",
      "id": null,
      "node_id": null,
      "url": null,
      "actor": {
        "login": "DrahtBot",
        "id": 39886733,
        "node_id": "MDQ6VXNlcjM5ODg2NzMz",
        "avatar_url": "https://avatars.githubusercontent.com/u/39886733?v=4",
        "gravatar_id": "",
        "url": "https://api.github.com/users/DrahtBot",
        "html_url": "https://github.com/DrahtBot",
        "followers_url": "https://api.github.com/users/DrahtBot/followers",
        "following_url": "https://api.github.com/users/DrahtBot/following%7B/other_user%7D",
        "gists_url": "https://api.github.com/users/DrahtBot/gists%7B/gist_id%7D",
        "starred_url": "https://api.github.com/users/DrahtBot/starred%7B/owner%7D%7B/repo%7D",
        "subscriptions_url": "https://api.github.com/users/DrahtBot/subscriptions",
        "organizations_url": "https://api.github.com/users/DrahtBot/orgs",
        "repos_url": "https://api.github.com/users/DrahtBot/repos",
        "events_url": "https://api.github.com/users/DrahtBot/events%7B/privacy%7D",
        "received_events_url": "https://api.github.com/users/DrahtBot/received_events",
        "type": "User",
        "site_admin": false
      },
      "commit_id": null,
      "commit_url": null,
      "created_at": "2022-10-31T18:32:58Z",
      "updated_at": "2022-10-31T18:32:58Z",
      "source": {
        "issue": {
          "id": 1120958552,
          "node_id": "PR_kwDOABII584x6sdb",
          "url": "https://api.github.com/repos/bitcoin/bitcoin/issues/24230",
          "repository_url": "https://api.github.com/repos/bitcoin/bitcoin",
          "labels_url": "https://api.github.com/repos/bitcoin/bitcoin/issues/24230/labels%7B/name%7D",
          "comments_url": "https://api.github.com/repos/bitcoin/bitcoin/issues/24230/comments",
          "events_url": "https://api.github.com/repos/bitcoin/bitcoin/issues/24230/events",
          "html_url": "https://github.com/bitcoin/bitcoin/pull/24230",
          "number": 24230,
          "state": "open",
          "state_reason": null,
          "title": "indexes: Stop using node internal types and locking cs_main, improve sync logic",
          "body": "This PR lets indexing code mostly run outside of the node process. It also improves indexing sync logic, which is moved out of indexing code to a new [`node::SyncChain()`](https://github.com/ryanofsky/bitcoin/blob/8d8cdcb37005030f646ba3c45f7f54f556efb8bf/src/node/chain.h#L24-L39) function.\r\n\r\nAlmost all the commits in this PR are small refactoring changes that move code from `src/index/` to `src/node/`, or replace references to node types like `CBlockIndex`, `CChain`, `CChainState` in index code. There are only two commits affecting indexing sync logic which make complicated or substantive changes:\r\n\r\n- [`8746b35301c5` indexes: Rewrite chain sync logic, remove racy init](https://github.com/bitcoin/bitcoin/pull/24230/commits/8746b35301c5f65ff3200555fb2b82417fd2c758)\r\n- [`ad88f50ddd12` indexes: Initialize indexes without holding cs_main](https://github.com/bitcoin/bitcoin/pull/24230/commits/ad88f50ddd129dddd974bbf9fd7d86ec86b65508)\r\n\r\n\r\nThe commit messages have more details about these and other changes. Followups to this PR will reuse indexing sync code for wallets (#15719, #11756) and let indexes run in separate processes (#10102)",
          "user": {
            "login": "ryanofsky",
            "id": 7133040,
            "node_id": "MDQ6VXNlcjcxMzMwNDA=",
            "avatar_url": "https://avatars.githubusercontent.com/u/7133040?v=4",
            "gravatar_id": "",
            "url": "https://api.github.com/users/ryanofsky",
            "html_url": "https://github.com/ryanofsky",
            "followers_url": "https://api.github.com/users/ryanofsky/followers",
            "following_url": "https://api.github.com/users/ryanofsky/following%7B/other_user%7D",
            "gists_url": "https://api.github.com/users/ryanofsky/gists%7B/gist_id%7D",
            "starred_url": "https://api.github.com/users/ryanofsky/starred%7B/owner%7D%7B/repo%7D",
            "subscriptions_url": "https://api.github.com/users/ryanofsky/subscriptions",
            "organizations_url": "https://api.github.com/users/ryanofsky/orgs",
            "repos_url": "https://api.github.com/users/ryanofsky/repos",
            "events_url": "https://api.github.com/users/ryanofsky/events%7B/privacy%7D",
            "received_events_url": "https://api.github.com/users/ryanofsky/received_events",
            "type": "User",
            "site_admin": false
          },
          "labels": [
            {
              "id": 97470796,
              "node_id": "MDU6TGFiZWw5NzQ3MDc5Ng==",
              "url": "https://api.github.com/repos/bitcoin/bitcoin/labels/UTXO%20Db%20and%20Indexes",
              "name": "UTXO Db and Indexes",
              "color": "fbca04",
              "default": false
            },
            {
              "id": 955867938,
              "node_id": "MDU6TGFiZWw5NTU4Njc5Mzg=",
              "url": "https://api.github.com/repos/bitcoin/bitcoin/labels/Needs%20rebase",
              "name": "Needs rebase",
              "description": "",
              "color": "cccccc",
              "default": false
            }
          ],
          "assignees": [],
          "author_association": "CONTRIBUTOR",
          "locked": false,
          "comments": 39,
          "pull_request": {
            "url": "https://api.github.com/repos/bitcoin/bitcoin/pulls/24230",
            "html_url": "https://github.com/bitcoin/bitcoin/pull/24230",
            "diff_url": "https://github.com/bitcoin/bitcoin/pull/24230.diff",
            "patch_url": "https://github.com/bitcoin/bitcoin/pull/24230.patch"
          },
          "created_at": "2022-02-01T16:56:28Z",
          "updated_at": "2023-09-26T13:52:37Z"
        },
        "type": "issue"
      }
    },
    {
      "event": "reviewed",
      "id": 1169494058,
      "node_id": "PRR_kwDOABII585FtRAq",
      "url": null,
      "actor": null,
      "commit_id": "3346437a41552e592578b9f2d6a3e068a62d05bf",
      "commit_url": null,
      "created_at": null,
      "author_association": "MEMBER",
      "body": "",
      "user": {
        "login": "luke-jr",
        "id": 1095675,
        "node_id": "MDQ6VXNlcjEwOTU2NzU=",
        "avatar_url": "https://avatars.githubusercontent.com/u/1095675?v=4",
        "gravatar_id": "",
        "url": "https://api.github.com/users/luke-jr",
        "html_url": "https://github.com/luke-jr",
        "followers_url": "https://api.github.com/users/luke-jr/followers",
        "following_url": "https://api.github.com/users/luke-jr/following%7B/other_user%7D",
        "gists_url": "https://api.github.com/users/luke-jr/gists%7B/gist_id%7D",
        "starred_url": "https://api.github.com/users/luke-jr/starred%7B/owner%7D%7B/repo%7D",
        "subscriptions_url": "https://api.github.com/users/luke-jr/subscriptions",
        "organizations_url": "https://api.github.com/users/luke-jr/orgs",
        "repos_url": "https://api.github.com/users/luke-jr/repos",
        "events_url": "https://api.github.com/users/luke-jr/events%7B/privacy%7D",
        "received_events_url": "https://api.github.com/users/luke-jr/received_events",
        "type": "User",
        "site_admin": false
      },
      "html_url": "https://github.com/bitcoin/bitcoin/pull/26426#pullrequestreview-1169494058",
      "submitted_at": "2022-11-05T19:25:32Z",
      "state": "CHANGES_REQUESTED",
      "pull_request_url": "https://api.github.com/repos/bitcoin/bitcoin/pulls/26426"
    },
    {
      "event": "cross-referenced",
      "id": null,
      "node_id": null,
      "url": null,
      "actor": {
        "login": "DrahtBot",
        "id": 39886733,
        "node_id": "MDQ6VXNlcjM5ODg2NzMz",
        "avatar_url": "https://avatars.githubusercontent.com/u/39886733?v=4",
        "gravatar_id": "",
        "url": "https://api.github.com/users/DrahtBot",
        "html_url": "https://github.com/DrahtBot",
        "followers_url": "https://api.github.com/users/DrahtBot/followers",
        "following_url": "https://api.github.com/users/DrahtBot/following%7B/other_user%7D",
        "gists_url": "https://api.github.com/users/DrahtBot/gists%7B/gist_id%7D",
        "starred_url": "https://api.github.com/users/DrahtBot/starred%7B/owner%7D%7B/repo%7D",
        "subscriptions_url": "https://api.github.com/users/DrahtBot/subscriptions",
        "organizations_url": "https://api.github.com/users/DrahtBot/orgs",
        "repos_url": "https://api.github.com/users/DrahtBot/repos",
        "events_url": "https://api.github.com/users/DrahtBot/events%7B/privacy%7D",
        "received_events_url": "https://api.github.com/users/DrahtBot/received_events",
        "type": "User",
        "site_admin": false
      },
      "commit_id": null,
      "commit_url": null,
      "created_at": "2022-12-22T05:51:02Z",
      "updated_at": "2022-12-22T05:51:02Z",
      "source": {
        "issue": {
          "id": 1277080263,
          "node_id": "PR_kwDOABII58459Rfx",
          "url": "https://api.github.com/repos/bitcoin/bitcoin/issues/25429",
          "repository_url": "https://api.github.com/repos/bitcoin/bitcoin",
          "labels_url": "https://api.github.com/repos/bitcoin/bitcoin/issues/25429/labels%7B/name%7D",
          "comments_url": "https://api.github.com/repos/bitcoin/bitcoin/issues/25429/comments",
          "events_url": "https://api.github.com/repos/bitcoin/bitcoin/issues/25429/events",
          "html_url": "https://github.com/bitcoin/bitcoin/pull/25429",
          "number": 25429,
          "state": "closed",
          "state_reason": null,
          "title": "refactor: Avoid UniValue copies",
          "body": "UniValue copies have been a source of performance related bugs and regressions, so it would be good to remove the copy constructors.\r\n\r\nThis is the first change toward the goal. This change uses a `const UniValue&` where possible.\r\n\r\nSee also:\r\n\r\n* https://github.com/bitcoin-core/univalue-subtree/pull/27\r\n* https://github.com/bitcoin/bitcoin/pull/15974",
          "user": {
            "login": "maflcko",
            "id": 6399679,
            "node_id": "MDQ6VXNlcjYzOTk2Nzk=",
            "avatar_url": "https://avatars.githubusercontent.com/u/6399679?v=4",
            "gravatar_id": "",
            "url": "https://api.github.com/users/maflcko",
            "html_url": "https://github.com/maflcko",
            "followers_url": "https://api.github.com/users/maflcko/followers",
            "following_url": "https://api.github.com/users/maflcko/following%7B/other_user%7D",
            "gists_url": "https://api.github.com/users/maflcko/gists%7B/gist_id%7D",
            "starred_url": "https://api.github.com/users/maflcko/starred%7B/owner%7D%7B/repo%7D",
            "subscriptions_url": "https://api.github.com/users/maflcko/subscriptions",
            "organizations_url": "https://api.github.com/users/maflcko/orgs",
            "repos_url": "https://api.github.com/users/maflcko/repos",
            "events_url": "https://api.github.com/users/maflcko/events%7B/privacy%7D",
            "received_events_url": "https://api.github.com/users/maflcko/received_events",
            "type": "User",
            "site_admin": false
          },
          "labels": [
            {
              "id": 135961,
              "node_id": "MDU6TGFiZWwxMzU5NjE=",
              "url": "https://api.github.com/repos/bitcoin/bitcoin/labels/Refactoring",
              "name": "Refactoring",
              "color": "E6F6D6",
              "default": false
            },
            {
              "id": 955867938,
              "node_id": "MDU6TGFiZWw5NTU4Njc5Mzg=",
              "url": "https://api.github.com/repos/bitcoin/bitcoin/labels/Needs%20rebase",
              "name": "Needs rebase",
              "description": "",
              "color": "cccccc",
              "default": false
            }
          ],
          "assignees": [],
          "author_association": "MEMBER",
          "locked": false,
          "comments": 12,
          "pull_request": {
            "url": "https://api.github.com/repos/bitcoin/bitcoin/pulls/25429",
            "html_url": "https://github.com/bitcoin/bitcoin/pull/25429",
            "diff_url": "https://github.com/bitcoin/bitcoin/pull/25429.diff",
            "patch_url": "https://github.com/bitcoin/bitcoin/pull/25429.patch"
          },
          "closed_at": "2023-02-23T17:51:57Z",
          "created_at": "2022-06-20T15:17:09Z",
          "updated_at": "2023-02-23T17:52:03Z"
        },
        "type": "issue"
      }
    },
    {
      "event": "cross-referenced",
      "id": null,
      "node_id": null,
      "url": null,
      "actor": {
        "login": "DrahtBot",
        "id": 39886733,
        "node_id": "MDQ6VXNlcjM5ODg2NzMz",
        "avatar_url": "https://avatars.githubusercontent.com/u/39886733?v=4",
        "gravatar_id": "",
        "url": "https://api.github.com/users/DrahtBot",
        "html_url": "https://github.com/DrahtBot",
        "followers_url": "https://api.github.com/users/DrahtBot/followers",
        "following_url": "https://api.github.com/users/DrahtBot/following%7B/other_user%7D",
        "gists_url": "https://api.github.com/users/DrahtBot/gists%7B/gist_id%7D",
        "starred_url": "https://api.github.com/users/DrahtBot/starred%7B/owner%7D%7B/repo%7D",
        "subscriptions_url": "https://api.github.com/users/DrahtBot/subscriptions",
        "organizations_url": "https://api.github.com/users/DrahtBot/orgs",
        "repos_url": "https://api.github.com/users/DrahtBot/repos",
        "events_url": "https://api.github.com/users/DrahtBot/events%7B/privacy%7D",
        "received_events_url": "https://api.github.com/users/DrahtBot/received_events",
        "type": "User",
        "site_admin": false
      },
      "commit_id": null,
      "commit_url": null,
      "created_at": "2023-10-20T00:25:38Z",
      "updated_at": "2023-10-20T00:25:38Z",
      "source": {
        "issue": {
          "id": 1951782076,
          "node_id": "PR_kwDOABII585dP-Le",
          "url": "https://api.github.com/repos/bitcoin/bitcoin/issues/28685",
          "repository_url": "https://api.github.com/repos/bitcoin/bitcoin",
          "labels_url": "https://api.github.com/repos/bitcoin/bitcoin/issues/28685/labels%7B/name%7D",
          "comments_url": "https://api.github.com/repos/bitcoin/bitcoin/issues/28685/comments",
          "events_url": "https://api.github.com/repos/bitcoin/bitcoin/issues/28685/events",
          "html_url": "https://github.com/bitcoin/bitcoin/pull/28685",
          "number": 28685,
          "state": "closed",
          "state_reason": null,
          "title": "coinstats, assumeutxo: fix hash_serialized2 calculation",
          "body": "Closes #28675\r\n\r\nThe last commit demonstrates that theStack's analysis [here](https://github.com/bitcoin/bitcoin/issues/28675#issuecomment-1770389468) seems to be correct. There will be more changes needed for the rest of the test suite but the `feature_assumeutxo.py` with my additional tests pass.",
          "user": {
            "login": "fjahr",
            "id": 1322187,
            "node_id": "MDQ6VXNlcjEzMjIxODc=",
            "avatar_url": "https://avatars.githubusercontent.com/u/1322187?v=4",
            "gravatar_id": "",
            "url": "https://api.github.com/users/fjahr",
            "html_url": "https://github.com/fjahr",
            "followers_url": "https://api.github.com/users/fjahr/followers",
            "following_url": "https://api.github.com/users/fjahr/following%7B/other_user%7D",
            "gists_url": "https://api.github.com/users/fjahr/gists%7B/gist_id%7D",
            "starred_url": "https://api.github.com/users/fjahr/starred%7B/owner%7D%7B/repo%7D",
            "subscriptions_url": "https://api.github.com/users/fjahr/subscriptions",
            "organizations_url": "https://api.github.com/users/fjahr/orgs",
            "repos_url": "https://api.github.com/users/fjahr/repos",
            "events_url": "https://api.github.com/users/fjahr/events%7B/privacy%7D",
            "received_events_url": "https://api.github.com/users/fjahr/received_events",
            "type": "User",
            "site_admin": false
          },
          "labels": [
            {
              "id": 5334691551,
              "node_id": "LA_kwDOABII588AAAABPfju3w",
              "url": "https://api.github.com/repos/bitcoin/bitcoin/labels/CI%20failed",
              "name": "CI failed",
              "description": "",
              "color": "cccccc",
              "default": false
            }
          ],
          "assignees": [],
          "author_association": "CONTRIBUTOR",
          "milestone": {
            "url": "https://api.github.com/repos/bitcoin/bitcoin/milestones/60",
            "html_url": "https://github.com/bitcoin/bitcoin/milestone/60",
            "labels_url": "https://api.github.com/repos/bitcoin/bitcoin/milestones/60/labels",
            "id": 9286970,
            "node_id": "MI_kwDOABII584AjbU6",
            "number": 60,
            "state": "open",
            "title": "26.0",
            "description": "",
            "creator": {
              "login": "fanquake",
              "id": 863730,
              "node_id": "MDQ6VXNlcjg2MzczMA==",
              "avatar_url": "https://avatars.githubusercontent.com/u/863730?v=4",
              "gravatar_id": "",
              "url": "https://api.github.com/users/fanquake",
              "html_url": "https://github.com/fanquake",
              "followers_url": "https://api.github.com/users/fanquake/followers",
              "following_url": "https://api.github.com/users/fanquake/following%7B/other_user%7D",
              "gists_url": "https://api.github.com/users/fanquake/gists%7B/gist_id%7D",
              "starred_url": "https://api.github.com/users/fanquake/starred%7B/owner%7D%7B/repo%7D",
              "subscriptions_url": "https://api.github.com/users/fanquake/subscriptions",
              "organizations_url": "https://api.github.com/users/fanquake/orgs",
              "repos_url": "https://api.github.com/users/fanquake/repos",
              "events_url": "https://api.github.com/users/fanquake/events%7B/privacy%7D",
              "received_events_url": "https://api.github.com/users/fanquake/received_events",
              "type": "User",
              "site_admin": false
            },
            "open_issues": 5,
            "closed_issues": 99,
            "created_at": "2023-04-15T11:36:05Z",
            "updated_at": "2023-10-23T19:16:23Z"
          },
          "locked": false,
          "comments": 22,
          "pull_request": {
            "url": "https://api.github.com/repos/bitcoin/bitcoin/pulls/28685",
            "html_url": "https://github.com/bitcoin/bitcoin/pull/28685",
            "diff_url": "https://github.com/bitcoin/bitcoin/pull/28685.diff",
            "patch_url": "https://github.com/bitcoin/bitcoin/pull/28685.patch"
          },
          "closed_at": "2023-10-23T19:16:23Z",
          "created_at": "2023-10-19T10:01:59Z",
          "updated_at": "2023-10-23T19:16:23Z"
        },
        "type": "issue"
      }
    },
    {
      "event": "labeled",
      "id": 10745342051,
      "node_id": "LE_lADOABII585VLcy_zwAAAAKAeOhj",
      "url": "https://api.github.com/repos/bitcoin/bitcoin/issues/events/10745342051",
      "actor": {
        "login": "DrahtBot",
        "id": 39886733,
        "node_id": "MDQ6VXNlcjM5ODg2NzMz",
        "avatar_url": "https://avatars.githubusercontent.com/u/39886733?v=4",
        "gravatar_id": "",
        "url": "https://api.github.com/users/DrahtBot",
        "html_url": "https://github.com/DrahtBot",
        "followers_url": "https://api.github.com/users/DrahtBot/followers",
        "following_url": "https://api.github.com/users/DrahtBot/following%7B/other_user%7D",
        "gists_url": "https://api.github.com/users/DrahtBot/gists%7B/gist_id%7D",
        "starred_url": "https://api.github.com/users/DrahtBot/starred%7B/owner%7D%7B/repo%7D",
        "subscriptions_url": "https://api.github.com/users/DrahtBot/subscriptions",
        "organizations_url": "https://api.github.com/users/DrahtBot/orgs",
        "repos_url": "https://api.github.com/users/DrahtBot/repos",
        "events_url": "https://api.github.com/users/DrahtBot/events%7B/privacy%7D",
        "received_events_url": "https://api.github.com/users/DrahtBot/received_events",
        "type": "User",
        "site_admin": false
      },
      "commit_id": null,
      "commit_url": null,
      "created_at": "2023-10-23T19:22:37Z",
      "label": {
        "name": "Needs rebase",
        "color": "cccccc"
      }
    },
    {
      "event": "commented",
      "id": 1775877299,
      "node_id": "IC_kwDOABII585p2byz",
      "url": "https://api.github.com/repos/bitcoin/bitcoin/issues/comments/1775877299",
      "actor": {
        "login": "DrahtBot",
        "id": 39886733,
        "node_id": "MDQ6VXNlcjM5ODg2NzMz",
        "avatar_url": "https://avatars.githubusercontent.com/u/39886733?v=4",
        "gravatar_id": "",
        "url": "https://api.github.com/users/DrahtBot",
        "html_url": "https://github.com/DrahtBot",
        "followers_url": "https://api.github.com/users/DrahtBot/followers",
        "following_url": "https://api.github.com/users/DrahtBot/following%7B/other_user%7D",
        "gists_url": "https://api.github.com/users/DrahtBot/gists%7B/gist_id%7D",
        "starred_url": "https://api.github.com/users/DrahtBot/starred%7B/owner%7D%7B/repo%7D",
        "subscriptions_url": "https://api.github.com/users/DrahtBot/subscriptions",
        "organizations_url": "https://api.github.com/users/DrahtBot/orgs",
        "repos_url": "https://api.github.com/users/DrahtBot/repos",
        "events_url": "https://api.github.com/users/DrahtBot/events%7B/privacy%7D",
        "received_events_url": "https://api.github.com/users/DrahtBot/received_events",
        "type": "User",
        "site_admin": false
      },
      "commit_id": null,
      "commit_url": null,
      "created_at": "2023-10-23T19:22:38Z",
      "updated_at": "2023-10-23T19:22:38Z",
      "author_association": "CONTRIBUTOR",
      "body": "<!--cf906140f33d8803c4a75a2196329ecb-->\n🐙 This pull request conflicts with the target branch and [needs rebase](https://github.com/bitcoin/bitcoin/blob/master/CONTRIBUTING.md#rebasing-changes).\n",
      "user": {
        "login": "DrahtBot",
        "id": 39886733,
        "node_id": "MDQ6VXNlcjM5ODg2NzMz",
        "avatar_url": "https://avatars.githubusercontent.com/u/39886733?v=4",
        "gravatar_id": "",
        "url": "https://api.github.com/users/DrahtBot",
        "html_url": "https://github.com/DrahtBot",
        "followers_url": "https://api.github.com/users/DrahtBot/followers",
        "following_url": "https://api.github.com/users/DrahtBot/following%7B/other_user%7D",
        "gists_url": "https://api.github.com/users/DrahtBot/gists%7B/gist_id%7D",
        "starred_url": "https://api.github.com/users/DrahtBot/starred%7B/owner%7D%7B/repo%7D",
        "subscriptions_url": "https://api.github.com/users/DrahtBot/subscriptions",
        "organizations_url": "https://api.github.com/users/DrahtBot/orgs",
        "repos_url": "https://api.github.com/users/DrahtBot/repos",
        "events_url": "https://api.github.com/users/DrahtBot/events%7B/privacy%7D",
        "received_events_url": "https://api.github.com/users/DrahtBot/received_events",
        "type": "User",
        "site_admin": false
      },
      "html_url": "https://github.com/bitcoin/bitcoin/pull/26426#issuecomment-1775877299",
      "issue_url": "https://api.github.com/repos/bitcoin/bitcoin/issues/26426"
    }
  ],
  "comments": [
    {
      "url": "https://api.github.com/repos/bitcoin/bitcoin/pulls/comments/1014696310",
      "pull_request_review_id": 1169494058,
      "id": 1014696310,
      "node_id": "PRRC_kwDOABII5848ewl2",
      "diff_hunk": "@@ -877,7 +877,7 @@ static RPCHelpMan gettxoutsetinfo()\n                         {RPCResult::Type::NUM, \"transactions\", /*optional=*/true, \"The number of transactions with unspent outputs (not available when coinstatsindex is used)\"},\n                         {RPCResult::Type::NUM, \"disk_size\", /*optional=*/true, \"The estimated size of the chainstate on disk (not available when coinstatsindex is used)\"},\n                         {RPCResult::Type::STR_AMOUNT, \"total_amount\", \"The total amount of coins in the UTXO set\"},\n-                        {RPCResult::Type::STR_AMOUNT, \"total_unspendable_amount\", /*optional=*/true, \"The total amount of coins permanently excluded from the UTXO set (only available if coinstatsindex is used)\"},\n+                        {RPCResult::Type::STR_AMOUNT, \"total_unspendable_amount\", /*optional=*/true, \"The amount of coins permanently excluded from the UTXO set from this block onwards (only available if coinstatsindex is used)\"},",
      "path": "src/rpc/blockchain.cpp",
      "position": 5,
      "original_position": 5,
      "commit_id": "3346437a41552e592578b9f2d6a3e068a62d05bf",
      "original_commit_id": "3346437a41552e592578b9f2d6a3e068a62d05bf",
      "in_reply_to_id": null,
      "user": {
        "login": "luke-jr",
        "id": 1095675,
        "node_id": "MDQ6VXNlcjEwOTU2NzU=",
        "avatar_url": "https://avatars.githubusercontent.com/u/1095675?v=4",
        "gravatar_id": "",
        "url": "https://api.github.com/users/luke-jr",
        "html_url": "https://github.com/luke-jr",
        "followers_url": "https://api.github.com/users/luke-jr/followers",
        "following_url": "https://api.github.com/users/luke-jr/following%7B/other_user%7D",
        "gists_url": "https://api.github.com/users/luke-jr/gists%7B/gist_id%7D",
        "starred_url": "https://api.github.com/users/luke-jr/starred%7B/owner%7D%7B/repo%7D",
        "subscriptions_url": "https://api.github.com/users/luke-jr/subscriptions",
        "organizations_url": "https://api.github.com/users/luke-jr/orgs",
        "repos_url": "https://api.github.com/users/luke-jr/repos",
        "events_url": "https://api.github.com/users/luke-jr/events%7B/privacy%7D",
        "received_events_url": "https://api.github.com/users/luke-jr/received_events",
        "type": "User",
        "site_admin": false
      },
      "body": "\"onwards\" seems unlikely to be correct?",
      "created_at": "2022-11-05T19:19:15Z",
      "updated_at": "2022-11-05T19:25:32Z",
      "html_url": "https://github.com/bitcoin/bitcoin/pull/26426#discussion_r1014696310",
      "author_association": "MEMBER",
      "_links": {
        "self": {
          "href": "https://api.github.com/repos/bitcoin/bitcoin/pulls/comments/1014696310"
        },
        "pull_request": {
          "href": "https://api.github.com/repos/bitcoin/bitcoin/pulls/26426"
        }
      },
      "start_line": null,
      "original_start_line": null,
      "start_side": null,
      "line": 880,
      "original_line": 880,
      "side": "RIGHT"
    },
    {
      "url": "https://api.github.com/repos/bitcoin/bitcoin/pulls/comments/1014699027",
      "pull_request_review_id": 1169494058,
      "id": 1014699027,
      "node_id": "PRRC_kwDOABII5848exQT",
      "diff_hunk": "@@ -877,7 +877,7 @@ static RPCHelpMan gettxoutsetinfo()\n                         {RPCResult::Type::NUM, \"transactions\", /*optional=*/true, \"The number of transactions with unspent outputs (not available when coinstatsindex is used)\"},\n                         {RPCResult::Type::NUM, \"disk_size\", /*optional=*/true, \"The estimated size of the chainstate on disk (not available when coinstatsindex is used)\"},\n                         {RPCResult::Type::STR_AMOUNT, \"total_amount\", \"The total amount of coins in the UTXO set\"},\n-                        {RPCResult::Type::STR_AMOUNT, \"total_unspendable_amount\", /*optional=*/true, \"The total amount of coins permanently excluded from the UTXO set (only available if coinstatsindex is used)\"},\n+                        {RPCResult::Type::STR_AMOUNT, \"total_unspendable_amount\", /*optional=*/true, \"The amount of coins permanently excluded from the UTXO set from this block onwards (only available if coinstatsindex is used)\"},",
      "path": "src/rpc/blockchain.cpp",
      "position": 5,
      "original_position": 5,
      "commit_id": "3346437a41552e592578b9f2d6a3e068a62d05bf",
      "original_commit_id": "3346437a41552e592578b9f2d6a3e068a62d05bf",
      "in_reply_to_id": null,
      "user": {
        "login": "luke-jr",
        "id": 1095675,
        "node_id": "MDQ6VXNlcjEwOTU2NzU=",
        "avatar_url": "https://avatars.githubusercontent.com/u/1095675?v=4",
        "gravatar_id": "",
        "url": "https://api.github.com/users/luke-jr",
        "html_url": "https://github.com/luke-jr",
        "followers_url": "https://api.github.com/users/luke-jr/followers",
        "following_url": "https://api.github.com/users/luke-jr/following%7B/other_user%7D",
        "gists_url": "https://api.github.com/users/luke-jr/gists%7B/gist_id%7D",
        "starred_url": "https://api.github.com/users/luke-jr/starred%7B/owner%7D%7B/repo%7D",
        "subscriptions_url": "https://api.github.com/users/luke-jr/subscriptions",
        "organizations_url": "https://api.github.com/users/luke-jr/orgs",
        "repos_url": "https://api.github.com/users/luke-jr/repos",
        "events_url": "https://api.github.com/users/luke-jr/events%7B/privacy%7D",
        "received_events_url": "https://api.github.com/users/luke-jr/received_events",
        "type": "User",
        "site_admin": false
      },
      "body": "Should rename the field if it's a different value",
      "created_at": "2022-11-05T19:25:12Z",
      "updated_at": "2022-11-05T19:25:32Z",
      "html_url": "https://github.com/bitcoin/bitcoin/pull/26426#discussion_r1014699027",
      "author_association": "MEMBER",
      "_links": {
        "self": {
          "href": "https://api.github.com/repos/bitcoin/bitcoin/pulls/comments/1014699027"
        },
        "pull_request": {
          "href": "https://api.github.com/repos/bitcoin/bitcoin/pulls/26426"
        }
      },
      "start_line": null,
      "original_start_line": null,
      "start_side": null,
      "line": 880,
      "original_line": 880,
      "side": "RIGHT"
    }
  ]
}