{
  "type": "pull",
  "pull": {
    "url": "https://api.github.com/repos/bitcoin/bitcoin/pulls/26430",
    "id": 1106444770,
    "node_id": "PR_kwDOABII585B8wHi",
    "html_url": "https://github.com/bitcoin/bitcoin/pull/26430",
    "diff_url": "https://github.com/bitcoin/bitcoin/pull/26430.diff",
    "patch_url": "https://github.com/bitcoin/bitcoin/pull/26430.patch",
    "issue_url": "https://api.github.com/repos/bitcoin/bitcoin/issues/26430",
    "commits_url": "https://api.github.com/repos/bitcoin/bitcoin/pulls/26430/commits",
    "review_comments_url": "https://api.github.com/repos/bitcoin/bitcoin/pulls/26430/comments",
    "review_comment_url": "https://api.github.com/repos/bitcoin/bitcoin/pulls/comments%7B/number%7D",
    "comments_url": "https://api.github.com/repos/bitcoin/bitcoin/issues/26430/comments",
    "statuses_url": "https://api.github.com/repos/bitcoin/bitcoin/statuses/3343ec5a4f604b4b1798d0c8265c57d89bd738ce",
    "number": 26430,
    "state": "closed",
    "locked": false,
    "maintainer_can_modify": false,
    "title": "[22.x] Bump version to 22.1rc1",
    "user": {
      "login": "fanquake",
      "id": 863730,
      "node_id": "MDQ6VXNlcjg2MzczMA==",
      "avatar_url": "https://avatars.githubusercontent.com/u/863730?v=4",
      "gravatar_id": "",
      "url": "https://api.github.com/users/fanquake",
      "html_url": "https://github.com/fanquake",
      "followers_url": "https://api.github.com/users/fanquake/followers",
      "following_url": "https://api.github.com/users/fanquake/following%7B/other_user%7D",
      "gists_url": "https://api.github.com/users/fanquake/gists%7B/gist_id%7D",
      "starred_url": "https://api.github.com/users/fanquake/starred%7B/owner%7D%7B/repo%7D",
      "subscriptions_url": "https://api.github.com/users/fanquake/subscriptions",
      "organizations_url": "https://api.github.com/users/fanquake/orgs",
      "repos_url": "https://api.github.com/users/fanquake/repos",
      "events_url": "https://api.github.com/users/fanquake/events%7B/privacy%7D",
      "received_events_url": "https://api.github.com/users/fanquake/received_events",
      "type": "User",
      "site_admin": false
    },
    "body": "Bump the version to 22.1rc1\r\nGenerate the man pages.\r\nUpdate the version number in bips.md.",
    "labels": [
      {
        "id": 390024790,
        "node_id": "MDU6TGFiZWwzOTAwMjQ3OTA=",
        "url": "https://api.github.com/repos/bitcoin/bitcoin/labels/Backport",
        "name": "Backport",
        "description": "",
        "color": "dd7200",
        "default": false
      }
    ],
    "milestone": {
      "url": "https://api.github.com/repos/bitcoin/bitcoin/milestones/55",
      "html_url": "https://github.com/bitcoin/bitcoin/milestone/55",
      "labels_url": "https://api.github.com/repos/bitcoin/bitcoin/milestones/55/labels",
      "id": 7286672,
      "node_id": "MI_kwDOABII584Aby-Q",
      "number": 55,
      "state": "closed",
      "title": "22.1",
      "creator": {
        "login": "MarcoFalke",
        "id": 6399679,
        "node_id": "MDQ6VXNlcjYzOTk2Nzk=",
        "avatar_url": "https://avatars.githubusercontent.com/u/6399679?v=4",
        "gravatar_id": "",
        "url": "https://api.github.com/users/MarcoFalke",
        "html_url": "https://github.com/MarcoFalke",
        "followers_url": "https://api.github.com/users/MarcoFalke/followers",
        "following_url": "https://api.github.com/users/MarcoFalke/following%7B/other_user%7D",
        "gists_url": "https://api.github.com/users/MarcoFalke/gists%7B/gist_id%7D",
        "starred_url": "https://api.github.com/users/MarcoFalke/starred%7B/owner%7D%7B/repo%7D",
        "subscriptions_url": "https://api.github.com/users/MarcoFalke/subscriptions",
        "organizations_url": "https://api.github.com/users/MarcoFalke/orgs",
        "repos_url": "https://api.github.com/users/MarcoFalke/repos",
        "events_url": "https://api.github.com/users/MarcoFalke/events%7B/privacy%7D",
        "received_events_url": "https://api.github.com/users/MarcoFalke/received_events",
        "type": "User",
        "site_admin": false
      },
      "open_issues": 0,
      "closed_issues": 18,
      "created_at": "2021-10-25T14:49:06Z",
      "updated_at": "2022-12-05T15:40:25Z",
      "closed_at": "2022-12-05T15:40:25Z"
    },
    "created_at": "2022-11-01T08:56:48Z",
    "updated_at": "2022-11-21T14:13:27Z",
    "closed_at": "2022-11-02T07:05:04Z",
    "mergeable_state": "unknown",
    "merged_at": "2022-11-02T07:05:04Z",
    "merge_commit_sha": "a46e17832fd2ecc44943ff7ccff8af443f6239b8",
    "assignees": [],
    "requested_reviewers": [],
    "requested_teams": [],
    "head": {
      "label": "fanquake:22_1_0rc1",
      "ref": "22_1_0rc1",
      "sha": "3343ec5a4f604b4b1798d0c8265c57d89bd738ce",
      "user": {
        "login": "fanquake",
        "id": 863730,
        "node_id": "MDQ6VXNlcjg2MzczMA==",
        "avatar_url": "https://avatars.githubusercontent.com/u/863730?v=4",
        "gravatar_id": "",
        "url": "https://api.github.com/users/fanquake",
        "html_url": "https://github.com/fanquake",
        "followers_url": "https://api.github.com/users/fanquake/followers",
        "following_url": "https://api.github.com/users/fanquake/following%7B/other_user%7D",
        "gists_url": "https://api.github.com/users/fanquake/gists%7B/gist_id%7D",
        "starred_url": "https://api.github.com/users/fanquake/starred%7B/owner%7D%7B/repo%7D",
        "subscriptions_url": "https://api.github.com/users/fanquake/subscriptions",
        "organizations_url": "https://api.github.com/users/fanquake/orgs",
        "repos_url": "https://api.github.com/users/fanquake/repos",
        "events_url": "https://api.github.com/users/fanquake/events%7B/privacy%7D",
        "received_events_url": "https://api.github.com/users/fanquake/received_events",
        "type": "User",
        "site_admin": false
      },
      "repo": {
        "id": 5910539,
        "node_id": "MDEwOlJlcG9zaXRvcnk1OTEwNTM5",
        "name": "bitcoin",
        "full_name": "fanquake/bitcoin",
        "owner": {
          "login": "fanquake",
          "id": 863730,
          "node_id": "MDQ6VXNlcjg2MzczMA==",
          "avatar_url": "https://avatars.githubusercontent.com/u/863730?v=4",
          "gravatar_id": "",
          "url": "https://api.github.com/users/fanquake",
          "html_url": "https://github.com/fanquake",
          "followers_url": "https://api.github.com/users/fanquake/followers",
          "following_url": "https://api.github.com/users/fanquake/following%7B/other_user%7D",
          "gists_url": "https://api.github.com/users/fanquake/gists%7B/gist_id%7D",
          "starred_url": "https://api.github.com/users/fanquake/starred%7B/owner%7D%7B/repo%7D",
          "subscriptions_url": "https://api.github.com/users/fanquake/subscriptions",
          "organizations_url": "https://api.github.com/users/fanquake/orgs",
          "repos_url": "https://api.github.com/users/fanquake/repos",
          "events_url": "https://api.github.com/users/fanquake/events%7B/privacy%7D",
          "received_events_url": "https://api.github.com/users/fanquake/received_events",
          "type": "User",
          "site_admin": false
        },
        "private": false,
        "html_url": "https://github.com/fanquake/bitcoin",
        "description": "Bitcoin integration/staging tree",
        "fork": true,
        "url": "https://api.github.com/repos/fanquake/bitcoin",
        "archive_url": "https://api.github.com/repos/fanquake/bitcoin/%7Barchive_format%7D%7B/ref%7D",
        "assignees_url": "https://api.github.com/repos/fanquake/bitcoin/assignees%7B/user%7D",
        "blobs_url": "https://api.github.com/repos/fanquake/bitcoin/git/blobs%7B/sha%7D",
        "branches_url": "https://api.github.com/repos/fanquake/bitcoin/branches%7B/branch%7D",
        "collaborators_url": "https://api.github.com/repos/fanquake/bitcoin/collaborators%7B/collaborator%7D",
        "comments_url": "https://api.github.com/repos/fanquake/bitcoin/comments%7B/number%7D",
        "commits_url": "https://api.github.com/repos/fanquake/bitcoin/commits%7B/sha%7D",
        "compare_url": "https://api.github.com/repos/fanquake/bitcoin/compare/%7Bbase%7D...%7Bhead%7D",
        "contents_url": "https://api.github.com/repos/fanquake/bitcoin/contents/%7B+path%7D",
        "contributors_url": "https://api.github.com/repos/fanquake/bitcoin/contributors",
        "deployments_url": "https://api.github.com/repos/fanquake/bitcoin/deployments",
        "downloads_url": "https://api.github.com/repos/fanquake/bitcoin/downloads",
        "events_url": "https://api.github.com/repos/fanquake/bitcoin/events",
        "forks_url": "https://api.github.com/repos/fanquake/bitcoin/forks",
        "git_commits_url": "https://api.github.com/repos/fanquake/bitcoin/git/commits%7B/sha%7D",
        "git_refs_url": "https://api.github.com/repos/fanquake/bitcoin/git/refs%7B/sha%7D",
        "git_tags_url": "https://api.github.com/repos/fanquake/bitcoin/git/tags%7B/sha%7D",
        "git_url": "git://github.com/fanquake/bitcoin.git",
        "issue_comment_url": "https://api.github.com/repos/fanquake/bitcoin/issues/comments%7B/number%7D",
        "issue_events_url": "https://api.github.com/repos/fanquake/bitcoin/issues/events%7B/number%7D",
        "issues_url": "https://api.github.com/repos/fanquake/bitcoin/issues%7B/number%7D",
        "keys_url": "https://api.github.com/repos/fanquake/bitcoin/keys%7B/key_id%7D",
        "labels_url": "https://api.github.com/repos/fanquake/bitcoin/labels%7B/name%7D",
        "languages_url": "https://api.github.com/repos/fanquake/bitcoin/languages",
        "merges_url": "https://api.github.com/repos/fanquake/bitcoin/merges",
        "milestones_url": "https://api.github.com/repos/fanquake/bitcoin/milestones%7B/number%7D",
        "notifications_url": "https://api.github.com/repos/fanquake/bitcoin/notifications%7B?since,all,participating}",
        "pulls_url": "https://api.github.com/repos/fanquake/bitcoin/pulls%7B/number%7D",
        "releases_url": "https://api.github.com/repos/fanquake/bitcoin/releases%7B/id%7D",
        "ssh_url": "git@github.com:fanquake/bitcoin.git",
        "stargazers_url": "https://api.github.com/repos/fanquake/bitcoin/stargazers",
        "statuses_url": "https://api.github.com/repos/fanquake/bitcoin/statuses/%7Bsha%7D",
        "subscribers_url": "https://api.github.com/repos/fanquake/bitcoin/subscribers",
        "subscription_url": "https://api.github.com/repos/fanquake/bitcoin/subscription",
        "tags_url": "https://api.github.com/repos/fanquake/bitcoin/tags",
        "teams_url": "https://api.github.com/repos/fanquake/bitcoin/teams",
        "trees_url": "https://api.github.com/repos/fanquake/bitcoin/git/trees%7B/sha%7D",
        "clone_url": "https://github.com/fanquake/bitcoin.git",
        "hooks_url": "https://api.github.com/repos/fanquake/bitcoin/hooks",
        "svn_url": "https://github.com/fanquake/bitcoin",
        "homepage": "http://www.bitcoincore.org",
        "language": "C++",
        "forks_count": 5,
        "stargazers_count": 13,
        "watchers_count": 13,
        "size": 215355,
        "default_branch": "master",
        "open_issues_count": 0,
        "is_template": false,
        "topics": [],
        "has_issues": false,
        "has_projects": false,
        "has_wiki": false,
        "has_pages": false,
        "has_downloads": false,
        "archived": false,
        "disabled": false,
        "visibility": "public",
        "pushed_at": "2023-08-02T12:28:14Z",
        "created_at": "2012-09-22T05:28:42Z",
        "updated_at": "2023-04-27T19:34:01Z",
        "license": {
          "key": "mit",
          "name": "MIT License",
          "node_id": "MDc6TGljZW5zZTEz",
          "spdx_id": "MIT",
          "url": "https://api.github.com/licenses/mit",
          "html_url": null,
          "description": null,
          "implementation": null,
          "permissions": null,
          "conditions": null,
          "limitations": null,
          "body": null,
          "featured": null
        }
      }
    },
    "base": {
      "label": "bitcoin:22.x",
      "ref": "22.x",
      "sha": "4ff9be5c33441007dd1503b0b0cb6a5ae4cf82b2",
      "user": {
        "login": "bitcoin",
        "id": 528860,
        "node_id": "MDEyOk9yZ2FuaXphdGlvbjUyODg2MA==",
        "avatar_url": "https://avatars.githubusercontent.com/u/528860?v=4",
        "gravatar_id": "",
        "url": "https://api.github.com/users/bitcoin",
        "html_url": "https://github.com/bitcoin",
        "followers_url": "https://api.github.com/users/bitcoin/followers",
        "following_url": "https://api.github.com/users/bitcoin/following%7B/other_user%7D",
        "gists_url": "https://api.github.com/users/bitcoin/gists%7B/gist_id%7D",
        "starred_url": "https://api.github.com/users/bitcoin/starred%7B/owner%7D%7B/repo%7D",
        "subscriptions_url": "https://api.github.com/users/bitcoin/subscriptions",
        "organizations_url": "https://api.github.com/users/bitcoin/orgs",
        "repos_url": "https://api.github.com/users/bitcoin/repos",
        "events_url": "https://api.github.com/users/bitcoin/events%7B/privacy%7D",
        "received_events_url": "https://api.github.com/users/bitcoin/received_events",
        "type": "Organization",
        "site_admin": false
      },
      "repo": {
        "id": 1181927,
        "node_id": "MDEwOlJlcG9zaXRvcnkxMTgxOTI3",
        "name": "bitcoin",
        "full_name": "bitcoin/bitcoin",
        "owner": {
          "login": "bitcoin",
          "id": 528860,
          "node_id": "MDEyOk9yZ2FuaXphdGlvbjUyODg2MA==",
          "avatar_url": "https://avatars.githubusercontent.com/u/528860?v=4",
          "gravatar_id": "",
          "url": "https://api.github.com/users/bitcoin",
          "html_url": "https://github.com/bitcoin",
          "followers_url": "https://api.github.com/users/bitcoin/followers",
          "following_url": "https://api.github.com/users/bitcoin/following%7B/other_user%7D",
          "gists_url": "https://api.github.com/users/bitcoin/gists%7B/gist_id%7D",
          "starred_url": "https://api.github.com/users/bitcoin/starred%7B/owner%7D%7B/repo%7D",
          "subscriptions_url": "https://api.github.com/users/bitcoin/subscriptions",
          "organizations_url": "https://api.github.com/users/bitcoin/orgs",
          "repos_url": "https://api.github.com/users/bitcoin/repos",
          "events_url": "https://api.github.com/users/bitcoin/events%7B/privacy%7D",
          "received_events_url": "https://api.github.com/users/bitcoin/received_events",
          "type": "Organization",
          "site_admin": false
        },
        "private": false,
        "html_url": "https://github.com/bitcoin/bitcoin",
        "description": "Bitcoin Core integration/staging tree",
        "fork": false,
        "url": "https://api.github.com/repos/bitcoin/bitcoin",
        "archive_url": "https://api.github.com/repos/bitcoin/bitcoin/%7Barchive_format%7D%7B/ref%7D",
        "assignees_url": "https://api.github.com/repos/bitcoin/bitcoin/assignees%7B/user%7D",
        "blobs_url": "https://api.github.com/repos/bitcoin/bitcoin/git/blobs%7B/sha%7D",
        "branches_url": "https://api.github.com/repos/bitcoin/bitcoin/branches%7B/branch%7D",
        "collaborators_url": "https://api.github.com/repos/bitcoin/bitcoin/collaborators%7B/collaborator%7D",
        "comments_url": "https://api.github.com/repos/bitcoin/bitcoin/comments%7B/number%7D",
        "commits_url": "https://api.github.com/repos/bitcoin/bitcoin/commits%7B/sha%7D",
        "compare_url": "https://api.github.com/repos/bitcoin/bitcoin/compare/%7Bbase%7D...%7Bhead%7D",
        "contents_url": "https://api.github.com/repos/bitcoin/bitcoin/contents/%7B+path%7D",
        "contributors_url": "https://api.github.com/repos/bitcoin/bitcoin/contributors",
        "deployments_url": "https://api.github.com/repos/bitcoin/bitcoin/deployments",
        "downloads_url": "https://api.github.com/repos/bitcoin/bitcoin/downloads",
        "events_url": "https://api.github.com/repos/bitcoin/bitcoin/events",
        "forks_url": "https://api.github.com/repos/bitcoin/bitcoin/forks",
        "git_commits_url": "https://api.github.com/repos/bitcoin/bitcoin/git/commits%7B/sha%7D",
        "git_refs_url": "https://api.github.com/repos/bitcoin/bitcoin/git/refs%7B/sha%7D",
        "git_tags_url": "https://api.github.com/repos/bitcoin/bitcoin/git/tags%7B/sha%7D",
        "git_url": "git://github.com/bitcoin/bitcoin.git",
        "issue_comment_url": "https://api.github.com/repos/bitcoin/bitcoin/issues/comments%7B/number%7D",
        "issue_events_url": "https://api.github.com/repos/bitcoin/bitcoin/issues/events%7B/number%7D",
        "issues_url": "https://api.github.com/repos/bitcoin/bitcoin/issues%7B/number%7D",
        "keys_url": "https://api.github.com/repos/bitcoin/bitcoin/keys%7B/key_id%7D",
        "labels_url": "https://api.github.com/repos/bitcoin/bitcoin/labels%7B/name%7D",
        "languages_url": "https://api.github.com/repos/bitcoin/bitcoin/languages",
        "merges_url": "https://api.github.com/repos/bitcoin/bitcoin/merges",
        "milestones_url": "https://api.github.com/repos/bitcoin/bitcoin/milestones%7B/number%7D",
        "notifications_url": "https://api.github.com/repos/bitcoin/bitcoin/notifications%7B?since,all,participating}",
        "pulls_url": "https://api.github.com/repos/bitcoin/bitcoin/pulls%7B/number%7D",
        "releases_url": "https://api.github.com/repos/bitcoin/bitcoin/releases%7B/id%7D",
        "ssh_url": "git@github.com:bitcoin/bitcoin.git",
        "stargazers_url": "https://api.github.com/repos/bitcoin/bitcoin/stargazers",
        "statuses_url": "https://api.github.com/repos/bitcoin/bitcoin/statuses/%7Bsha%7D",
        "subscribers_url": "https://api.github.com/repos/bitcoin/bitcoin/subscribers",
        "subscription_url": "https://api.github.com/repos/bitcoin/bitcoin/subscription",
        "tags_url": "https://api.github.com/repos/bitcoin/bitcoin/tags",
        "teams_url": "https://api.github.com/repos/bitcoin/bitcoin/teams",
        "trees_url": "https://api.github.com/repos/bitcoin/bitcoin/git/trees%7B/sha%7D",
        "clone_url": "https://github.com/bitcoin/bitcoin.git",
        "hooks_url": "https://api.github.com/repos/bitcoin/bitcoin/hooks",
        "svn_url": "https://github.com/bitcoin/bitcoin",
        "homepage": "https://bitcoincore.org/en/download",
        "language": "C++",
        "forks_count": 35476,
        "stargazers_count": 70608,
        "watchers_count": 70608,
        "size": 236222,
        "default_branch": "master",
        "open_issues_count": 673,
        "is_template": false,
        "topics": [
          "bitcoin",
          "c-plus-plus",
          "cryptocurrency",
          "cryptography",
          "p2p"
        ],
        "has_issues": true,
        "has_projects": true,
        "has_wiki": false,
        "has_pages": false,
        "has_downloads": false,
        "archived": false,
        "disabled": false,
        "visibility": "public",
        "pushed_at": "2023-08-03T00:03:27Z",
        "created_at": "2010-12-19T15:16:43Z",
        "updated_at": "2023-08-02T18:21:18Z",
        "license": {
          "key": "mit",
          "name": "MIT License",
          "node_id": "MDc6TGljZW5zZTEz",
          "spdx_id": "MIT",
          "url": "https://api.github.com/licenses/mit",
          "html_url": null,
          "description": null,
          "implementation": null,
          "permissions": null,
          "conditions": null,
          "limitations": null,
          "body": null,
          "featured": null
        }
      }
    },
    "_links": {
      "self": {
        "href": "https://api.github.com/repos/bitcoin/bitcoin/pulls/26430"
      }
    },
    "author_association": "MEMBER",
    "draft": false,
    "additions": 27,
    "deletions": 27,
    "changed_files": 8,
    "commits": 3,
    "review_comments": 0,
    "comments": 1
  },
  "events": [
    {
      "event": "committed",
      "id": null,
      "node_id": "C_kwDOABII59oAKGI2MzMwOWM1OGE3MWViN2UzNGIwYmNhYjBkNTcxOTlhYzAyNWRhZWI",
      "url": "https://api.github.com/repos/bitcoin/bitcoin/git/commits/b63309c58a71eb7e34b0bcab0d57199ac025daeb",
      "actor": null,
      "commit_id": null,
      "commit_url": null,
      "created_at": null,
      "html_url": "https://github.com/bitcoin/bitcoin/commit/b63309c58a71eb7e34b0bcab0d57199ac025daeb",
      "tree": {
        "sha": "0935bc8303154c146af80e1f89651b5d8ff3779c",
        "url": "https://api.github.com/repos/bitcoin/bitcoin/git/trees/0935bc8303154c146af80e1f89651b5d8ff3779c"
      },
      "verification": {
        "verified": true,
        "reason": "valid",
        "payload": "tree 0935bc8303154c146af80e1f89651b5d8ff3779c\nparent 4ff9be5c33441007dd1503b0b0cb6a5ae4cf82b2\nauthor fanquake <fanquake@gmail.com> 1667291805 +0000\ncommitter fanquake <fanquake@gmail.com> 1667292494 +0000\n\nbuild: Bump version to 22.1.0rc1\n",
        "signature": "-----BEGIN PGP SIGNATURE-----\n\niQIzBAABCAAdFiEEz7FuIclQ9n+pXlWPLuufXMCVJsEFAmNg3VMACgkQLuufXMCV\nJsE1xA/8DNZTiibCvLjkEQwF2JtVDvd0K0ahgDPVTr7GyQ4SHe4evxMek4VK+sGk\n62vFkGxZwbc4+6KfENGakcM9JwPSks7XEPau2zj7O890/9E1QOCvccGnn103BFR7\nREIP2kMffEbPn8pQnD78l4YiJbozFSWUejfmLRLgLt3NHoBK/qMOEfqu5Q/Afp5V\n4in6RtffAHbIvpt7PTTw1c5pSrDrrFFE/OMcfyBm9HgctPA/8dVu05ekF6eQgVt3\nBwW2Qg/7PEwIIAyMpieRYYO78IiATxBSla+7tDLHVL40d1oPot6FPTY8QoQC4l1y\nE1G+Le/lbRzGE1zksROtS2MHxNszRDu9tB14wEMeDde8zIAfAaxVxynAj8PvugT/\nCZh3DGiQWuZBELt+slON07LW7DWLUlDFzyzakEObQ0CYrU+p5Vse+fbdmqE1Om8e\n3WBkY11FWc/2mq6B4qdaMQuSOja2G2i1muShpAf8m1VhH4IJph1U3m6r250oPII1\nBJ10YqdjD3JLqkReJbvxiSBgFe1yYJQClgr6xXdYjPK6UB8aGOon1Jtjb+e9mpck\nSHHxF8bfcVPBwYkI6/dR9vdKY2YZmBzKBczm5dn4v9F0O81bXuGY47C6/hVKmuqa\nv9DpcvsSnk+fuey7ZFut/G6N+D9h+WGiM8zTYYT8/NrzsSr8p94=\n=B4lW\n-----END PGP SIGNATURE-----"
      },
      "parents": [
        {
          "url": "https://api.github.com/repos/bitcoin/bitcoin/git/commits/4ff9be5c33441007dd1503b0b0cb6a5ae4cf82b2",
          "sha": "4ff9be5c33441007dd1503b0b0cb6a5ae4cf82b2",
          "html_url": "https://github.com/bitcoin/bitcoin/commit/4ff9be5c33441007dd1503b0b0cb6a5ae4cf82b2"
        }
      ],
      "message": "build: Bump version to 22.1.0rc1",
      "committer": {
        "name": "fanquake",
        "email": "fanquake@gmail.com",
        "date": "2022-11-01T08:48:14Z"
      },
      "author": {
        "name": "fanquake",
        "email": "fanquake@gmail.com",
        "date": "2022-11-01T08:36:45Z"
      },
      "sha": "b63309c58a71eb7e34b0bcab0d57199ac025daeb"
    },
    {
      "event": "committed",
      "id": null,
      "node_id": "C_kwDOABII59oAKDU0ZTg5ZWVkOWViOWM2ODc3YzFhOGJlZDNkMmYyMjQ3MjFmYzQ5ZjM",
      "url": "https://api.github.com/repos/bitcoin/bitcoin/git/commits/54e89eed9eb9c6877c1a8bed3d2f224721fc49f3",
      "actor": null,
      "commit_id": null,
      "commit_url": null,
      "created_at": null,
      "html_url": "https://github.com/bitcoin/bitcoin/commit/54e89eed9eb9c6877c1a8bed3d2f224721fc49f3",
      "tree": {
        "sha": "b7446f797771e05dca8fd299c09fd2e18a045a0c",
        "url": "https://api.github.com/repos/bitcoin/bitcoin/git/trees/b7446f797771e05dca8fd299c09fd2e18a045a0c"
      },
      "verification": {
        "verified": true,
        "reason": "valid",
        "payload": "tree b7446f797771e05dca8fd299c09fd2e18a045a0c\nparent b63309c58a71eb7e34b0bcab0d57199ac025daeb\nauthor fanquake <fanquake@gmail.com> 1667292433 +0000\ncommitter fanquake <fanquake@gmail.com> 1667292499 +0000\n\ndoc: Update manual pages for 22.1.0rc1\n",
        "signature": "-----BEGIN PGP SIGNATURE-----\n\niQIzBAABCAAdFiEEz7FuIclQ9n+pXlWPLuufXMCVJsEFAmNg3VMACgkQLuufXMCV\nJsEoBg//aRPl+/2je2kyon0cF8Yc9bfG2vmKw/FPnWrT2GcwdG8ZTlPlH6L75r3q\nW8liLIH4q1Hjh/LeJZtC6n4rZszewsisfjOdZZbYw0x1/FLvC4aNoqAZgVzR2ybJ\nGanvG3d8fPsx3XIZowtaCdIshVicsArFt8WhMmLBXx0owVcoQCTODBQZrH+vOyW9\nf7qrjWYgYsBQwBGMu7g+IM/jBAhguy4RUX/iOEnmxqeyAgj/TRNh1QMbUeFqMpXn\nkJvppgRU7wAvlJPanIOxW80+EPQEbvt38aEZ93bNgLW0JT+YZVz0wm7wwci3p1lb\nIdNz9+JaaOpoLNnFEhaypaxw5RoOlIJKkRA+MlMMKzyMODXQy55hQn3tp1loeQ1k\no9noJ3c9Xe++K4GHxaHNDDBcb1LC/Es3KrKBtQkO7nktjmvnMe570IsST1L7p+of\naBWvIVCsYzLO+vZmlW2j6jcRn4oijisKSw5m6NDpq9f8+8izE/czyxZ67KWHVB0j\nfr/j/p//HzuAq0eDnzz5v/J+nv5fwApBTQz7J/yTnhjieKITx18lCRitq+w82ayo\nQGLTNnoqwZG2xUXzUbkVLU472BACjnlgAXcupw2QaoY8Hrg/3qzX8kYfvr0l8Cxd\nVKUXHz0A8IRa7rc05aqzqPePRFZzLHdAuO6Z1l2W+YaL4Z0Im8g=\n=9Yx9\n-----END PGP SIGNATURE-----"
      },
      "parents": [
        {
          "url": "https://api.github.com/repos/bitcoin/bitcoin/git/commits/b63309c58a71eb7e34b0bcab0d57199ac025daeb",
          "sha": "b63309c58a71eb7e34b0bcab0d57199ac025daeb",
          "html_url": "https://github.com/bitcoin/bitcoin/commit/b63309c58a71eb7e34b0bcab0d57199ac025daeb"
        }
      ],
      "message": "doc: Update manual pages for 22.1.0rc1",
      "committer": {
        "name": "fanquake",
        "email": "fanquake@gmail.com",
        "date": "2022-11-01T08:48:19Z"
      },
      "author": {
        "name": "fanquake",
        "email": "fanquake@gmail.com",
        "date": "2022-11-01T08:47:13Z"
      },
      "sha": "54e89eed9eb9c6877c1a8bed3d2f224721fc49f3"
    },
    {
      "event": "committed",
      "id": null,
      "node_id": "C_kwDOABII59oAKDMzNDNlYzVhNGY2MDRiNGIxNzk4ZDBjODI2NWM1N2Q4OWJkNzM4Y2U",
      "url": "https://api.github.com/repos/bitcoin/bitcoin/git/commits/3343ec5a4f604b4b1798d0c8265c57d89bd738ce",
      "actor": null,
      "commit_id": null,
      "commit_url": null,
      "created_at": null,
      "html_url": "https://github.com/bitcoin/bitcoin/commit/3343ec5a4f604b4b1798d0c8265c57d89bd738ce",
      "tree": {
        "sha": "bc331bccba2c0cb366ecdaf15b46719a955504a5",
        "url": "https://api.github.com/repos/bitcoin/bitcoin/git/trees/bc331bccba2c0cb366ecdaf15b46719a955504a5"
      },
      "verification": {
        "verified": true,
        "reason": "valid",
        "payload": "tree bc331bccba2c0cb366ecdaf15b46719a955504a5\nparent 54e89eed9eb9c6877c1a8bed3d2f224721fc49f3\nauthor fanquake <fanquake@gmail.com> 1667292898 +0000\ncommitter fanquake <fanquake@gmail.com> 1667292898 +0000\n\ndoc: update version number in bips.md to v22.1\n",
        "signature": "-----BEGIN PGP SIGNATURE-----\n\niQIzBAABCAAdFiEEz7FuIclQ9n+pXlWPLuufXMCVJsEFAmNg3u8ACgkQLuufXMCV\nJsG2WRAAip4mqe6h2E1XWgwiVswIpE5VZTic14gnqtY1lVKlLmLspfsGXiO81peS\nVKupVuZTspDhDNNMGEb7whbz2IeQRvAQ4IWB5U+f2L2coavdDjABfTP435IW3T6D\nkqjKVMAUBE112yEcUaQZmII5Bet1Iz7NKyiFZhWs7od8zC0Trxko9nVKemTGUilS\nolops0QPrEh387fgDHTXeSIFsEiVidPBnmJdUx6sqRjC9qZn+U5wn9gVkpBgfR47\n9uSeYTbxQfVeP+DKBqsL9lZTMsSaFo1WNiM3LynKGAgeX85AqKvk+HDUvTRBuwwg\nh5dLmrCSiHwdFLafr9elv420YslVsYteInvPliVpArqHgd/InYF1S0M7Z0aqVnIc\n1ZBIhY0n/ocxOY7HtZ3xl8r97DB4PnSKyRDIIP7yLE+FudnW23cfyO43SPL0AwlJ\nC67zdso3T3H0Li2XNNlX9zFBoky5/68Jw4bgchWXG8Yw9VIEjmitMp8uD0Pvj9LF\nE+zIv9zjQTn/8ajtthtFJeZIga/aJyqPtLGBMbaBOYgcxOa8VyNpb28MjZer5RiZ\nReaBUDEnyZ0zK24OL8vf68NASkjflRdZ7yFDL7nFypiSQpZ6rYRE7l6gHSqIFfP0\n8BawbDx3lCFJfeRug9N4liN1i9t7QXmGnc0nzpuSn+PCyKTTfN0=\n=stpz\n-----END PGP SIGNATURE-----"
      },
      "parents": [
        {
          "url": "https://api.github.com/repos/bitcoin/bitcoin/git/commits/54e89eed9eb9c6877c1a8bed3d2f224721fc49f3",
          "sha": "54e89eed9eb9c6877c1a8bed3d2f224721fc49f3",
          "html_url": "https://github.com/bitcoin/bitcoin/commit/54e89eed9eb9c6877c1a8bed3d2f224721fc49f3"
        }
      ],
      "message": "doc: update version number in bips.md to v22.1",
      "committer": {
        "name": "fanquake",
        "email": "fanquake@gmail.com",
        "date": "2022-11-01T08:54:58Z"
      },
      "author": {
        "name": "fanquake",
        "email": "fanquake@gmail.com",
        "date": "2022-11-01T08:54:58Z"
      },
      "sha": "3343ec5a4f604b4b1798d0c8265c57d89bd738ce"
    },
    {
      "event": "milestoned",
      "id": 7711421514,
      "node_id": "MIE_lADOABII585VTMJ5zwAAAAHLovRK",
      "url": "https://api.github.com/repos/bitcoin/bitcoin/issues/events/7711421514",
      "actor": {
        "login": "fanquake",
        "id": 863730,
        "node_id": "MDQ6VXNlcjg2MzczMA==",
        "avatar_url": "https://avatars.githubusercontent.com/u/863730?v=4",
        "gravatar_id": "",
        "url": "https://api.github.com/users/fanquake",
        "html_url": "https://github.com/fanquake",
        "followers_url": "https://api.github.com/users/fanquake/followers",
        "following_url": "https://api.github.com/users/fanquake/following%7B/other_user%7D",
        "gists_url": "https://api.github.com/users/fanquake/gists%7B/gist_id%7D",
        "starred_url": "https://api.github.com/users/fanquake/starred%7B/owner%7D%7B/repo%7D",
        "subscriptions_url": "https://api.github.com/users/fanquake/subscriptions",
        "organizations_url": "https://api.github.com/users/fanquake/orgs",
        "repos_url": "https://api.github.com/users/fanquake/repos",
        "events_url": "https://api.github.com/users/fanquake/events%7B/privacy%7D",
        "received_events_url": "https://api.github.com/users/fanquake/received_events",
        "type": "User",
        "site_admin": false
      },
      "commit_id": null,
      "commit_url": null,
      "created_at": "2022-11-01T08:56:48Z",
      "milestone": {
        "title": "22.1"
      }
    },
    {
      "event": "cross-referenced",
      "id": null,
      "node_id": null,
      "url": null,
      "actor": {
        "login": "fanquake",
        "id": 863730,
        "node_id": "MDQ6VXNlcjg2MzczMA==",
        "avatar_url": "https://avatars.githubusercontent.com/u/863730?v=4",
        "gravatar_id": "",
        "url": "https://api.github.com/users/fanquake",
        "html_url": "https://github.com/fanquake",
        "followers_url": "https://api.github.com/users/fanquake/followers",
        "following_url": "https://api.github.com/users/fanquake/following%7B/other_user%7D",
        "gists_url": "https://api.github.com/users/fanquake/gists%7B/gist_id%7D",
        "starred_url": "https://api.github.com/users/fanquake/starred%7B/owner%7D%7B/repo%7D",
        "subscriptions_url": "https://api.github.com/users/fanquake/subscriptions",
        "organizations_url": "https://api.github.com/users/fanquake/orgs",
        "repos_url": "https://api.github.com/users/fanquake/repos",
        "events_url": "https://api.github.com/users/fanquake/events%7B/privacy%7D",
        "received_events_url": "https://api.github.com/users/fanquake/received_events",
        "type": "User",
        "site_admin": false
      },
      "commit_id": null,
      "commit_url": null,
      "created_at": "2022-11-01T08:57:05Z",
      "updated_at": "2022-11-01T08:57:05Z",
      "source": {
        "issue": {
          "id": 1394202253,
          "node_id": "I_kwDOABII585TGdaN",
          "url": "https://api.github.com/repos/bitcoin/bitcoin/issues/26232",
          "repository_url": "https://api.github.com/repos/bitcoin/bitcoin",
          "labels_url": "https://api.github.com/repos/bitcoin/bitcoin/issues/26232/labels%7B/name%7D",
          "comments_url": "https://api.github.com/repos/bitcoin/bitcoin/issues/26232/comments",
          "events_url": "https://api.github.com/repos/bitcoin/bitcoin/issues/26232/events",
          "html_url": "https://github.com/bitcoin/bitcoin/issues/26232",
          "number": 26232,
          "state": "closed",
          "state_reason": "completed",
          "title": "wallet/spend.cpp assertion error",
          "body": "<!-- This issue tracker is only for technical issues related to Bitcoin Core.\r\n\r\nGeneral bitcoin questions and/or support requests are best directed to the Bitcoin StackExchange at https://bitcoin.stackexchange.com.\r\n\r\nFor reporting security issues, please read instructions at https://bitcoincore.org/en/contact/.\r\n\r\nIf the node is \"stuck\" during sync or giving \"block checksum mismatch\" errors, please ensure your hardware is stable by running memtest and observe CPU temperature with a load-test tool such as linpack before creating an issue! -->\r\n\r\n<!-- Describe the issue -->\r\n\r\nBitcoind fails to determine a fee rate which ends up crashing\r\n\r\n<!--- What behavior did you expect? -->\r\n\r\nRPC method `sentoaddress` should work as intended and properly calculate the fee.\r\n\r\n<!--- What was the actual behavior (provide screenshots if the issue is GUI-related)? -->\r\n\r\nIt throws and error and exits bitcoind\r\n\r\n```\r\n2022-10-03T03:19:42Z FeeEst: 48 > 85% decay 0.99520: feerate: 1000 from (0 - 1000) 99.11% 3063.7/(3067.7 0 mem 23.6 out) Fail: (-1 - -1) 0.00% 0.0/(0.0 0 mem 0.0 out)\r\n2022-10-03T03:19:42Z FeeEst: 12 > 85% decay 0.96200: feerate: 1000 from (0 - 1000) 97.41% 331.8/(340.6 0 mem 0.0 out) Fail: (-1 - -1) 0.00% 0.0/(0.0 0 mem 0.0 out)\r\n2022-10-03T03:19:42Z FeeEst: 612 > 95% decay 0.99931: feerate: 1000 from (0 - 1000) 100.00% 9445.0/(9445.0 0 mem 0.0 out) Fail: (-1 - -1) 0.00% 0.0/(0.0 0 mem 0.0 out)\r\nbitcoind: wallet/spend.cpp:783: bool CWallet::CreateTransactionInternal(const std::vector<CRecipient>&, CTransactionRef&, CAmount&, int&, bilingual_str&, const CCoinControl&, FeeCalculation&, bool): Assertion `coin_selection_params.m_subtract_fee_outputs || fee_needed <= change_and_fee - change_amount' failed.\r\nAborted (core dumped)\r\n```\r\n\r\n<!--- How reliably can you reproduce the issue, what are the steps to do so? -->\r\n\r\nCan't reproduce, the error is seemingly random.\r\n\r\n<!-- What version of Bitcoin Core are you using, where did you get it (website, self-compiled, etc)? -->\r\n\r\n22.0\r\n\r\n<!-- What type of machine are you observing the error on (OS/CPU and disk type)? -->\r\n\r\nWindows 11 WSL Linux Ubuntu 20.04\r\nRyzen 9 5950X\r\n64 GB RAM\r\n\r\n<!-- GUI-related issue? What is your operating system and its version? If Linux, what is your desktop environment and graphical shell? -->\r\n\r\n<!-- Any extra information that might be useful in the debugging process. -->\r\n<!--- This is normally the contents of a `debug.log` or `config.log` file. Raw text or a link to a pastebin type site are preferred. -->\r\n",
          "user": {
            "login": "agent-ly",
            "id": 58056533,
            "node_id": "MDQ6VXNlcjU4MDU2NTMz",
            "avatar_url": "https://avatars.githubusercontent.com/u/58056533?v=4",
            "gravatar_id": "",
            "url": "https://api.github.com/users/agent-ly",
            "html_url": "https://github.com/agent-ly",
            "followers_url": "https://api.github.com/users/agent-ly/followers",
            "following_url": "https://api.github.com/users/agent-ly/following%7B/other_user%7D",
            "gists_url": "https://api.github.com/users/agent-ly/gists%7B/gist_id%7D",
            "starred_url": "https://api.github.com/users/agent-ly/starred%7B/owner%7D%7B/repo%7D",
            "subscriptions_url": "https://api.github.com/users/agent-ly/subscriptions",
            "organizations_url": "https://api.github.com/users/agent-ly/orgs",
            "repos_url": "https://api.github.com/users/agent-ly/repos",
            "events_url": "https://api.github.com/users/agent-ly/events%7B/privacy%7D",
            "received_events_url": "https://api.github.com/users/agent-ly/received_events",
            "type": "User",
            "site_admin": false
          },
          "labels": [
            {
              "id": 64585,
              "node_id": "MDU6TGFiZWw2NDU4NQ==",
              "url": "https://api.github.com/repos/bitcoin/bitcoin/labels/Bug",
              "name": "Bug",
              "color": "FBBAAB",
              "default": false
            },
            {
              "id": 149424,
              "node_id": "MDU6TGFiZWwxNDk0MjQ=",
              "url": "https://api.github.com/repos/bitcoin/bitcoin/labels/Wallet",
              "name": "Wallet",
              "color": "08a781",
              "default": false
            }
          ],
          "assignees": [],
          "author_association": "NONE",
          "milestone": {
            "url": "https://api.github.com/repos/bitcoin/bitcoin/milestones/55",
            "html_url": "https://github.com/bitcoin/bitcoin/milestone/55",
            "labels_url": "https://api.github.com/repos/bitcoin/bitcoin/milestones/55/labels",
            "id": 7286672,
            "node_id": "MI_kwDOABII584Aby-Q",
            "number": 55,
            "state": "closed",
            "title": "22.1",
            "creator": {
              "login": "MarcoFalke",
              "id": 6399679,
              "node_id": "MDQ6VXNlcjYzOTk2Nzk=",
              "avatar_url": "https://avatars.githubusercontent.com/u/6399679?v=4",
              "gravatar_id": "",
              "url": "https://api.github.com/users/MarcoFalke",
              "html_url": "https://github.com/MarcoFalke",
              "followers_url": "https://api.github.com/users/MarcoFalke/followers",
              "following_url": "https://api.github.com/users/MarcoFalke/following%7B/other_user%7D",
              "gists_url": "https://api.github.com/users/MarcoFalke/gists%7B/gist_id%7D",
              "starred_url": "https://api.github.com/users/MarcoFalke/starred%7B/owner%7D%7B/repo%7D",
              "subscriptions_url": "https://api.github.com/users/MarcoFalke/subscriptions",
              "organizations_url": "https://api.github.com/users/MarcoFalke/orgs",
              "repos_url": "https://api.github.com/users/MarcoFalke/repos",
              "events_url": "https://api.github.com/users/MarcoFalke/events%7B/privacy%7D",
              "received_events_url": "https://api.github.com/users/MarcoFalke/received_events",
              "type": "User",
              "site_admin": false
            },
            "open_issues": 0,
            "closed_issues": 18,
            "created_at": "2021-10-25T14:49:06Z",
            "updated_at": "2022-12-05T15:40:25Z",
            "closed_at": "2022-12-05T15:40:25Z"
          },
          "locked": false,
          "comments": 8,
          "closed_at": "2022-11-17T14:10:11Z",
          "created_at": "2022-10-03T06:23:41Z",
          "updated_at": "2022-11-17T14:10:11Z"
        },
        "type": "issue"
      }
    },
    {
      "event": "commented",
      "id": 1298277643,
      "node_id": "IC_kwDOABII585NYiUL",
      "url": "https://api.github.com/repos/bitcoin/bitcoin/issues/comments/1298277643",
      "actor": {
        "login": "MarcoFalke",
        "id": 6399679,
        "node_id": "MDQ6VXNlcjYzOTk2Nzk=",
        "avatar_url": "https://avatars.githubusercontent.com/u/6399679?v=4",
        "gravatar_id": "",
        "url": "https://api.github.com/users/MarcoFalke",
        "html_url": "https://github.com/MarcoFalke",
        "followers_url": "https://api.github.com/users/MarcoFalke/followers",
        "following_url": "https://api.github.com/users/MarcoFalke/following%7B/other_user%7D",
        "gists_url": "https://api.github.com/users/MarcoFalke/gists%7B/gist_id%7D",
        "starred_url": "https://api.github.com/users/MarcoFalke/starred%7B/owner%7D%7B/repo%7D",
        "subscriptions_url": "https://api.github.com/users/MarcoFalke/subscriptions",
        "organizations_url": "https://api.github.com/users/MarcoFalke/orgs",
        "repos_url": "https://api.github.com/users/MarcoFalke/repos",
        "events_url": "https://api.github.com/users/MarcoFalke/events%7B/privacy%7D",
        "received_events_url": "https://api.github.com/users/MarcoFalke/received_events",
        "type": "User",
        "site_admin": false
      },
      "commit_id": null,
      "commit_url": null,
      "created_at": "2022-11-01T09:43:05Z",
      "updated_at": "2022-11-01T09:43:05Z",
      "author_association": "MEMBER",
      "body": "Thanks, Concept ACK 3343ec5a4f604b4b1798d0c8265c57d89bd738ce",
      "user": {
        "login": "MarcoFalke",
        "id": 6399679,
        "node_id": "MDQ6VXNlcjYzOTk2Nzk=",
        "avatar_url": "https://avatars.githubusercontent.com/u/6399679?v=4",
        "gravatar_id": "",
        "url": "https://api.github.com/users/MarcoFalke",
        "html_url": "https://github.com/MarcoFalke",
        "followers_url": "https://api.github.com/users/MarcoFalke/followers",
        "following_url": "https://api.github.com/users/MarcoFalke/following%7B/other_user%7D",
        "gists_url": "https://api.github.com/users/MarcoFalke/gists%7B/gist_id%7D",
        "starred_url": "https://api.github.com/users/MarcoFalke/starred%7B/owner%7D%7B/repo%7D",
        "subscriptions_url": "https://api.github.com/users/MarcoFalke/subscriptions",
        "organizations_url": "https://api.github.com/users/MarcoFalke/orgs",
        "repos_url": "https://api.github.com/users/MarcoFalke/repos",
        "events_url": "https://api.github.com/users/MarcoFalke/events%7B/privacy%7D",
        "received_events_url": "https://api.github.com/users/MarcoFalke/received_events",
        "type": "User",
        "site_admin": false
      },
      "html_url": "https://github.com/bitcoin/bitcoin/pull/26430#issuecomment-1298277643",
      "issue_url": "https://api.github.com/repos/bitcoin/bitcoin/issues/26430"
    },
    {
      "event": "labeled",
      "id": 7711887500,
      "node_id": "LE_lADOABII585VTMJ5zwAAAAHLqhCM",
      "url": "https://api.github.com/repos/bitcoin/bitcoin/issues/events/7711887500",
      "actor": {
        "login": "DrahtBot",
        "id": 39886733,
        "node_id": "MDQ6VXNlcjM5ODg2NzMz",
        "avatar_url": "https://avatars.githubusercontent.com/u/39886733?v=4",
        "gravatar_id": "",
        "url": "https://api.github.com/users/DrahtBot",
        "html_url": "https://github.com/DrahtBot",
        "followers_url": "https://api.github.com/users/DrahtBot/followers",
        "following_url": "https://api.github.com/users/DrahtBot/following%7B/other_user%7D",
        "gists_url": "https://api.github.com/users/DrahtBot/gists%7B/gist_id%7D",
        "starred_url": "https://api.github.com/users/DrahtBot/starred%7B/owner%7D%7B/repo%7D",
        "subscriptions_url": "https://api.github.com/users/DrahtBot/subscriptions",
        "organizations_url": "https://api.github.com/users/DrahtBot/orgs",
        "repos_url": "https://api.github.com/users/DrahtBot/repos",
        "events_url": "https://api.github.com/users/DrahtBot/events%7B/privacy%7D",
        "received_events_url": "https://api.github.com/users/DrahtBot/received_events",
        "type": "User",
        "site_admin": false
      },
      "commit_id": null,
      "commit_url": null,
      "created_at": "2022-11-01T10:03:36Z",
      "label": {
        "name": "Backport",
        "color": "dd7200"
      }
    },
    {
      "event": "merged",
      "id": 7720212160,
      "node_id": "ME_lADOABII585VTMJ5zwAAAAHMKRbA",
      "url": "https://api.github.com/repos/bitcoin/bitcoin/issues/events/7720212160",
      "actor": {
        "login": "MarcoFalke",
        "id": 6399679,
        "node_id": "MDQ6VXNlcjYzOTk2Nzk=",
        "avatar_url": "https://avatars.githubusercontent.com/u/6399679?v=4",
        "gravatar_id": "",
        "url": "https://api.github.com/users/MarcoFalke",
        "html_url": "https://github.com/MarcoFalke",
        "followers_url": "https://api.github.com/users/MarcoFalke/followers",
        "following_url": "https://api.github.com/users/MarcoFalke/following%7B/other_user%7D",
        "gists_url": "https://api.github.com/users/MarcoFalke/gists%7B/gist_id%7D",
        "starred_url": "https://api.github.com/users/MarcoFalke/starred%7B/owner%7D%7B/repo%7D",
        "subscriptions_url": "https://api.github.com/users/MarcoFalke/subscriptions",
        "organizations_url": "https://api.github.com/users/MarcoFalke/orgs",
        "repos_url": "https://api.github.com/users/MarcoFalke/repos",
        "events_url": "https://api.github.com/users/MarcoFalke/events%7B/privacy%7D",
        "received_events_url": "https://api.github.com/users/MarcoFalke/received_events",
        "type": "User",
        "site_admin": false
      },
      "commit_id": "a46e17832fd2ecc44943ff7ccff8af443f6239b8",
      "commit_url": "https://api.github.com/repos/bitcoin/bitcoin/commits/a46e17832fd2ecc44943ff7ccff8af443f6239b8",
      "created_at": "2022-11-02T07:05:04Z"
    },
    {
      "event": "closed",
      "id": 7720212182,
      "node_id": "CE_lADOABII585VTMJ5zwAAAAHMKRbW",
      "url": "https://api.github.com/repos/bitcoin/bitcoin/issues/events/7720212182",
      "actor": {
        "login": "MarcoFalke",
        "id": 6399679,
        "node_id": "MDQ6VXNlcjYzOTk2Nzk=",
        "avatar_url": "https://avatars.githubusercontent.com/u/6399679?v=4",
        "gravatar_id": "",
        "url": "https://api.github.com/users/MarcoFalke",
        "html_url": "https://github.com/MarcoFalke",
        "followers_url": "https://api.github.com/users/MarcoFalke/followers",
        "following_url": "https://api.github.com/users/MarcoFalke/following%7B/other_user%7D",
        "gists_url": "https://api.github.com/users/MarcoFalke/gists%7B/gist_id%7D",
        "starred_url": "https://api.github.com/users/MarcoFalke/starred%7B/owner%7D%7B/repo%7D",
        "subscriptions_url": "https://api.github.com/users/MarcoFalke/subscriptions",
        "organizations_url": "https://api.github.com/users/MarcoFalke/orgs",
        "repos_url": "https://api.github.com/users/MarcoFalke/repos",
        "events_url": "https://api.github.com/users/MarcoFalke/events%7B/privacy%7D",
        "received_events_url": "https://api.github.com/users/MarcoFalke/received_events",
        "type": "User",
        "site_admin": false
      },
      "commit_id": null,
      "commit_url": null,
      "created_at": "2022-11-02T07:05:04Z"
    },
    {
      "event": "head_ref_deleted",
      "id": 7721458228,
      "node_id": "HRDE_lADOABII585VTMJ5zwAAAAHMPBo0",
      "url": "https://api.github.com/repos/bitcoin/bitcoin/issues/events/7721458228",
      "actor": {
        "login": "fanquake",
        "id": 863730,
        "node_id": "MDQ6VXNlcjg2MzczMA==",
        "avatar_url": "https://avatars.githubusercontent.com/u/863730?v=4",
        "gravatar_id": "",
        "url": "https://api.github.com/users/fanquake",
        "html_url": "https://github.com/fanquake",
        "followers_url": "https://api.github.com/users/fanquake/followers",
        "following_url": "https://api.github.com/users/fanquake/following%7B/other_user%7D",
        "gists_url": "https://api.github.com/users/fanquake/gists%7B/gist_id%7D",
        "starred_url": "https://api.github.com/users/fanquake/starred%7B/owner%7D%7B/repo%7D",
        "subscriptions_url": "https://api.github.com/users/fanquake/subscriptions",
        "organizations_url": "https://api.github.com/users/fanquake/orgs",
        "repos_url": "https://api.github.com/users/fanquake/repos",
        "events_url": "https://api.github.com/users/fanquake/events%7B/privacy%7D",
        "received_events_url": "https://api.github.com/users/fanquake/received_events",
        "type": "User",
        "site_admin": false
      },
      "commit_id": null,
      "commit_url": null,
      "created_at": "2022-11-02T09:36:37Z"
    },
    {
      "event": "renamed",
      "id": 7857862894,
      "node_id": "RTE_lADOABII585VTMJ5zwAAAAHUXXju",
      "url": "https://api.github.com/repos/bitcoin/bitcoin/issues/events/7857862894",
      "actor": {
        "login": "fanquake",
        "id": 863730,
        "node_id": "MDQ6VXNlcjg2MzczMA==",
        "avatar_url": "https://avatars.githubusercontent.com/u/863730?v=4",
        "gravatar_id": "",
        "url": "https://api.github.com/users/fanquake",
        "html_url": "https://github.com/fanquake",
        "followers_url": "https://api.github.com/users/fanquake/followers",
        "following_url": "https://api.github.com/users/fanquake/following%7B/other_user%7D",
        "gists_url": "https://api.github.com/users/fanquake/gists%7B/gist_id%7D",
        "starred_url": "https://api.github.com/users/fanquake/starred%7B/owner%7D%7B/repo%7D",
        "subscriptions_url": "https://api.github.com/users/fanquake/subscriptions",
        "organizations_url": "https://api.github.com/users/fanquake/orgs",
        "repos_url": "https://api.github.com/users/fanquake/repos",
        "events_url": "https://api.github.com/users/fanquake/events%7B/privacy%7D",
        "received_events_url": "https://api.github.com/users/fanquake/received_events",
        "type": "User",
        "site_admin": false
      },
      "commit_id": null,
      "commit_url": null,
      "created_at": "2022-11-21T14:13:27Z",
      "rename": {
        "from": "[22.x] Bump version to 22.1.0rc1",
        "to": "[22.x] Bump version to 22.1rc1"
      }
    }
  ],
  "comments": []
}