{
  "type": "pull",
  "pull": {
    "url": "https://api.github.com/repos/bitcoin/bitcoin/pulls/26474",
    "id": 1114924316,
    "node_id": "PR_kwDOABII585CdGUc",
    "html_url": "https://github.com/bitcoin/bitcoin/pull/26474",
    "diff_url": "https://github.com/bitcoin/bitcoin/pull/26474.diff",
    "patch_url": "https://github.com/bitcoin/bitcoin/pull/26474.patch",
    "issue_url": "https://api.github.com/repos/bitcoin/bitcoin/issues/26474",
    "commits_url": "https://api.github.com/repos/bitcoin/bitcoin/pulls/26474/commits",
    "review_comments_url": "https://api.github.com/repos/bitcoin/bitcoin/pulls/26474/comments",
    "review_comment_url": "https://api.github.com/repos/bitcoin/bitcoin/pulls/comments%7B/number%7D",
    "comments_url": "https://api.github.com/repos/bitcoin/bitcoin/issues/26474/comments",
    "statuses_url": "https://api.github.com/repos/bitcoin/bitcoin/statuses/0f4583e5c114e13c3c937f1832ab0c39751cf38c",
    "number": 26474,
    "state": "closed",
    "locked": false,
    "maintainer_can_modify": false,
    "title": "[23.x] guix: use `--build={arch}-guix-linux-gnu` in cross toolchain",
    "user": {
      "login": "fanquake",
      "id": 863730,
      "node_id": "MDQ6VXNlcjg2MzczMA==",
      "avatar_url": "https://avatars.githubusercontent.com/u/863730?v=4",
      "gravatar_id": "",
      "url": "https://api.github.com/users/fanquake",
      "html_url": "https://github.com/fanquake",
      "followers_url": "https://api.github.com/users/fanquake/followers",
      "following_url": "https://api.github.com/users/fanquake/following%7B/other_user%7D",
      "gists_url": "https://api.github.com/users/fanquake/gists%7B/gist_id%7D",
      "starred_url": "https://api.github.com/users/fanquake/starred%7B/owner%7D%7B/repo%7D",
      "subscriptions_url": "https://api.github.com/users/fanquake/subscriptions",
      "organizations_url": "https://api.github.com/users/fanquake/orgs",
      "repos_url": "https://api.github.com/users/fanquake/repos",
      "events_url": "https://api.github.com/users/fanquake/events%7B/privacy%7D",
      "received_events_url": "https://api.github.com/users/fanquake/received_events",
      "type": "User",
      "site_admin": false
    },
    "body": "This backports https://github.com/bitcoin/bitcoin/pull/25861 to the 23.x branch, which fixes Guix building for `aarch64-linux-gnu` on aarch64 hardware. Fixing Guix building for this `HOST`, for the current release branch, seems like a worthwhile change, especially given more Guix builders are using aarch64 hardware. I thought I'd already backported this; noticed while building [sigs for 23.1rc1](https://github.com/bitcoin-core/guix.sigs/pull/380), which I started doing on aarch64.\r\n\r\nGuix Build (aarch64, no `x86_64-apple-darwin` or `arm64-apple-darwin`):\r\n```bash\r\n9fd4601412738e9135e2732cfc8af911c54af8a1349c2af568b4748dd1907c3d  guix-build-0f4583e5c114/output/aarch64-linux-gnu/SHA256SUMS.part\r\n36df2797cd7845ccb4f416b52f9dbd4cc7dd0242782c3143206d0c15239e8b02  guix-build-0f4583e5c114/output/aarch64-linux-gnu/bitcoin-0f4583e5c114-aarch64-linux-gnu-debug.tar.gz\r\n6aa022173b23827ec2690823178b9d2d06108e159a9074e1a54a7d1a74b6c5db  guix-build-0f4583e5c114/output/aarch64-linux-gnu/bitcoin-0f4583e5c114-aarch64-linux-gnu.tar.gz\r\n1e98b6b5e2b58387106eb8f46367c4a42d03d6a881307ed115e7b6bfa1b2785a  guix-build-0f4583e5c114/output/arm-linux-gnueabihf/SHA256SUMS.part\r\nb9ecbfbec1ee941acb7f19fb2ba02bfa24ef5feb0e072a9a8c39263f2cdfb172  guix-build-0f4583e5c114/output/arm-linux-gnueabihf/bitcoin-0f4583e5c114-arm-linux-gnueabihf-debug.tar.gz\r\n2834aa08f19c03e88e22009e3f860b470fe5942c42ae08041b8e79e28673154b  guix-build-0f4583e5c114/output/arm-linux-gnueabihf/bitcoin-0f4583e5c114-arm-linux-gnueabihf.tar.gz\r\n9c787047070b1fe8c2beead22093dc73481e7c921993d95fb0e4ce8739f8e515  guix-build-0f4583e5c114/output/dist-archive/bitcoin-0f4583e5c114.tar.gz\r\n1a82b19a5d07bccdead69b5d9fe9559e01a263b458ea48ff0a701ee9adf55a3c  guix-build-0f4583e5c114/output/powerpc64-linux-gnu/SHA256SUMS.part\r\n3482de0ff01839aa98ca61b3c8a18de4773dd70e2b306f094b210a6c83839289  guix-build-0f4583e5c114/output/powerpc64-linux-gnu/bitcoin-0f4583e5c114-powerpc64-linux-gnu-debug.tar.gz\r\n5bb8b7ab8740d6c4a49e8fe700f0305bcc7318eaffc0e3c967492f218774f371  guix-build-0f4583e5c114/output/powerpc64-linux-gnu/bitcoin-0f4583e5c114-powerpc64-linux-gnu.tar.gz\r\n5442e495049b386b8ec5bc50c06feb401fb263e25f0807aa58e7e8c091c42be7  guix-build-0f4583e5c114/output/powerpc64le-linux-gnu/SHA256SUMS.part\r\nd685b1449379a3a1be139f243917d9987169cbc9901c7658a12044d27ce2762d  guix-build-0f4583e5c114/output/powerpc64le-linux-gnu/bitcoin-0f4583e5c114-powerpc64le-linux-gnu-debug.tar.gz\r\n14edbaf4c93346460ecff72ca22285c433c7dea5f9ccaccb4b49730f95d2d264  guix-build-0f4583e5c114/output/powerpc64le-linux-gnu/bitcoin-0f4583e5c114-powerpc64le-linux-gnu.tar.gz\r\ndec22e0f59513c3697de3c6906deb355010af36836285ab306de1ea8e4b88ff3  guix-build-0f4583e5c114/output/riscv64-linux-gnu/SHA256SUMS.part\r\nd70b6b6d1a2950292e820898af8a79d850b415829bbb94db97b742f3ab7cc7d3  guix-build-0f4583e5c114/output/riscv64-linux-gnu/bitcoin-0f4583e5c114-riscv64-linux-gnu-debug.tar.gz\r\nb5fd33257a81efacc61946b544e5af1582c9729fa57641ff3625d34f0e785cfd  guix-build-0f4583e5c114/output/riscv64-linux-gnu/bitcoin-0f4583e5c114-riscv64-linux-gnu.tar.gz\r\n30b6668d9e84503d2e2113a87051d3c5baeae8ad6b3fa3df7509d447c8d5f341  guix-build-0f4583e5c114/output/x86_64-linux-gnu/SHA256SUMS.part\r\n33a6c5072328281872678fc0d709629f934fac05bdfb2e41cccf2ddd5724925b  guix-build-0f4583e5c114/output/x86_64-linux-gnu/bitcoin-0f4583e5c114-x86_64-linux-gnu-debug.tar.gz\r\nc1c2ec074a88c6f0202ab067bd126c217573d028b3b1eb538db100eb0e316b53  guix-build-0f4583e5c114/output/x86_64-linux-gnu/bitcoin-0f4583e5c114-x86_64-linux-gnu.tar.gz\r\n2689a7cce5d1fc6decbb5dfd1361db21adc1c485ee4c644cdebf403b1d533be6  guix-build-0f4583e5c114/output/x86_64-w64-mingw32/SHA256SUMS.part\r\n9d6259432febdc1be728db0088a0464fa844dc4ad20e7b752be6de312588a695  guix-build-0f4583e5c114/output/x86_64-w64-mingw32/bitcoin-0f4583e5c114-win64-debug.zip\r\ne3e7cd45b6ed6e8a589efe2436e151120af0c1146772ce295c06300289e0b758  guix-build-0f4583e5c114/output/x86_64-w64-mingw32/bitcoin-0f4583e5c114-win64-setup-unsigned.exe\r\n1da1569b0140ad917b938ce8b087d3d8990331df3042d62a36d1366d9e5f0f42  guix-build-0f4583e5c114/output/x86_64-w64-mingw32/bitcoin-0f4583e5c114-win64-unsigned.tar.gz\r\ncbd74726e5704f6007e2344422197a25b9872a3a5f525a1a0b5774c833fc7e78  guix-build-0f4583e5c114/output/x86_64-w64-mingw32/bitcoin-0f4583e5c114-win64.zip\r\n```",
    "labels": [
      {
        "id": 390024790,
        "node_id": "MDU6TGFiZWwzOTAwMjQ3OTA=",
        "url": "https://api.github.com/repos/bitcoin/bitcoin/labels/Backport",
        "name": "Backport",
        "description": "",
        "color": "dd7200",
        "default": false
      }
    ],
    "milestone": {
      "url": "https://api.github.com/repos/bitcoin/bitcoin/milestones/57",
      "html_url": "https://github.com/bitcoin/bitcoin/milestone/57",
      "labels_url": "https://api.github.com/repos/bitcoin/bitcoin/milestones/57/labels",
      "id": 7754034,
      "node_id": "MI_kwDOABII584AdlEy",
      "number": 57,
      "state": "closed",
      "title": "23.1",
      "description": "",
      "creator": {
        "login": "laanwj",
        "id": 126646,
        "node_id": "MDQ6VXNlcjEyNjY0Ng==",
        "avatar_url": "https://avatars.githubusercontent.com/u/126646?v=4",
        "gravatar_id": "",
        "url": "https://api.github.com/users/laanwj",
        "html_url": "https://github.com/laanwj",
        "followers_url": "https://api.github.com/users/laanwj/followers",
        "following_url": "https://api.github.com/users/laanwj/following%7B/other_user%7D",
        "gists_url": "https://api.github.com/users/laanwj/gists%7B/gist_id%7D",
        "starred_url": "https://api.github.com/users/laanwj/starred%7B/owner%7D%7B/repo%7D",
        "subscriptions_url": "https://api.github.com/users/laanwj/subscriptions",
        "organizations_url": "https://api.github.com/users/laanwj/orgs",
        "repos_url": "https://api.github.com/users/laanwj/repos",
        "events_url": "https://api.github.com/users/laanwj/events%7B/privacy%7D",
        "received_events_url": "https://api.github.com/users/laanwj/received_events",
        "type": "User",
        "site_admin": false
      },
      "open_issues": 0,
      "closed_issues": 16,
      "created_at": "2022-03-10T11:27:28Z",
      "updated_at": "2023-01-11T16:43:36Z",
      "closed_at": "2023-01-11T16:43:36Z"
    },
    "created_at": "2022-11-08T19:24:06Z",
    "updated_at": "2022-11-14T17:16:29Z",
    "closed_at": "2022-11-14T10:43:33Z",
    "mergeable_state": "unknown",
    "merged_at": "2022-11-14T10:43:33Z",
    "merge_commit_sha": "3e0cf5e82ba34f647a906fca8c7f2b849ddee41d",
    "assignees": [],
    "requested_reviewers": [],
    "requested_teams": [],
    "head": {
      "label": "fanquake:23_x_aarch64_on_aarch64",
      "ref": "23_x_aarch64_on_aarch64",
      "sha": "0f4583e5c114e13c3c937f1832ab0c39751cf38c",
      "user": {
        "login": "fanquake",
        "id": 863730,
        "node_id": "MDQ6VXNlcjg2MzczMA==",
        "avatar_url": "https://avatars.githubusercontent.com/u/863730?v=4",
        "gravatar_id": "",
        "url": "https://api.github.com/users/fanquake",
        "html_url": "https://github.com/fanquake",
        "followers_url": "https://api.github.com/users/fanquake/followers",
        "following_url": "https://api.github.com/users/fanquake/following%7B/other_user%7D",
        "gists_url": "https://api.github.com/users/fanquake/gists%7B/gist_id%7D",
        "starred_url": "https://api.github.com/users/fanquake/starred%7B/owner%7D%7B/repo%7D",
        "subscriptions_url": "https://api.github.com/users/fanquake/subscriptions",
        "organizations_url": "https://api.github.com/users/fanquake/orgs",
        "repos_url": "https://api.github.com/users/fanquake/repos",
        "events_url": "https://api.github.com/users/fanquake/events%7B/privacy%7D",
        "received_events_url": "https://api.github.com/users/fanquake/received_events",
        "type": "User",
        "site_admin": false
      },
      "repo": {
        "id": 5910539,
        "node_id": "MDEwOlJlcG9zaXRvcnk1OTEwNTM5",
        "name": "bitcoin",
        "full_name": "fanquake/bitcoin",
        "owner": {
          "login": "fanquake",
          "id": 863730,
          "node_id": "MDQ6VXNlcjg2MzczMA==",
          "avatar_url": "https://avatars.githubusercontent.com/u/863730?v=4",
          "gravatar_id": "",
          "url": "https://api.github.com/users/fanquake",
          "html_url": "https://github.com/fanquake",
          "followers_url": "https://api.github.com/users/fanquake/followers",
          "following_url": "https://api.github.com/users/fanquake/following%7B/other_user%7D",
          "gists_url": "https://api.github.com/users/fanquake/gists%7B/gist_id%7D",
          "starred_url": "https://api.github.com/users/fanquake/starred%7B/owner%7D%7B/repo%7D",
          "subscriptions_url": "https://api.github.com/users/fanquake/subscriptions",
          "organizations_url": "https://api.github.com/users/fanquake/orgs",
          "repos_url": "https://api.github.com/users/fanquake/repos",
          "events_url": "https://api.github.com/users/fanquake/events%7B/privacy%7D",
          "received_events_url": "https://api.github.com/users/fanquake/received_events",
          "type": "User",
          "site_admin": false
        },
        "private": false,
        "html_url": "https://github.com/fanquake/bitcoin",
        "description": "Bitcoin integration/staging tree",
        "fork": true,
        "url": "https://api.github.com/repos/fanquake/bitcoin",
        "archive_url": "https://api.github.com/repos/fanquake/bitcoin/%7Barchive_format%7D%7B/ref%7D",
        "assignees_url": "https://api.github.com/repos/fanquake/bitcoin/assignees%7B/user%7D",
        "blobs_url": "https://api.github.com/repos/fanquake/bitcoin/git/blobs%7B/sha%7D",
        "branches_url": "https://api.github.com/repos/fanquake/bitcoin/branches%7B/branch%7D",
        "collaborators_url": "https://api.github.com/repos/fanquake/bitcoin/collaborators%7B/collaborator%7D",
        "comments_url": "https://api.github.com/repos/fanquake/bitcoin/comments%7B/number%7D",
        "commits_url": "https://api.github.com/repos/fanquake/bitcoin/commits%7B/sha%7D",
        "compare_url": "https://api.github.com/repos/fanquake/bitcoin/compare/%7Bbase%7D...%7Bhead%7D",
        "contents_url": "https://api.github.com/repos/fanquake/bitcoin/contents/%7B+path%7D",
        "contributors_url": "https://api.github.com/repos/fanquake/bitcoin/contributors",
        "deployments_url": "https://api.github.com/repos/fanquake/bitcoin/deployments",
        "downloads_url": "https://api.github.com/repos/fanquake/bitcoin/downloads",
        "events_url": "https://api.github.com/repos/fanquake/bitcoin/events",
        "forks_url": "https://api.github.com/repos/fanquake/bitcoin/forks",
        "git_commits_url": "https://api.github.com/repos/fanquake/bitcoin/git/commits%7B/sha%7D",
        "git_refs_url": "https://api.github.com/repos/fanquake/bitcoin/git/refs%7B/sha%7D",
        "git_tags_url": "https://api.github.com/repos/fanquake/bitcoin/git/tags%7B/sha%7D",
        "git_url": "git://github.com/fanquake/bitcoin.git",
        "issue_comment_url": "https://api.github.com/repos/fanquake/bitcoin/issues/comments%7B/number%7D",
        "issue_events_url": "https://api.github.com/repos/fanquake/bitcoin/issues/events%7B/number%7D",
        "issues_url": "https://api.github.com/repos/fanquake/bitcoin/issues%7B/number%7D",
        "keys_url": "https://api.github.com/repos/fanquake/bitcoin/keys%7B/key_id%7D",
        "labels_url": "https://api.github.com/repos/fanquake/bitcoin/labels%7B/name%7D",
        "languages_url": "https://api.github.com/repos/fanquake/bitcoin/languages",
        "merges_url": "https://api.github.com/repos/fanquake/bitcoin/merges",
        "milestones_url": "https://api.github.com/repos/fanquake/bitcoin/milestones%7B/number%7D",
        "notifications_url": "https://api.github.com/repos/fanquake/bitcoin/notifications%7B?since,all,participating}",
        "pulls_url": "https://api.github.com/repos/fanquake/bitcoin/pulls%7B/number%7D",
        "releases_url": "https://api.github.com/repos/fanquake/bitcoin/releases%7B/id%7D",
        "ssh_url": "git@github.com:fanquake/bitcoin.git",
        "stargazers_url": "https://api.github.com/repos/fanquake/bitcoin/stargazers",
        "statuses_url": "https://api.github.com/repos/fanquake/bitcoin/statuses/%7Bsha%7D",
        "subscribers_url": "https://api.github.com/repos/fanquake/bitcoin/subscribers",
        "subscription_url": "https://api.github.com/repos/fanquake/bitcoin/subscription",
        "tags_url": "https://api.github.com/repos/fanquake/bitcoin/tags",
        "teams_url": "https://api.github.com/repos/fanquake/bitcoin/teams",
        "trees_url": "https://api.github.com/repos/fanquake/bitcoin/git/trees%7B/sha%7D",
        "clone_url": "https://github.com/fanquake/bitcoin.git",
        "hooks_url": "https://api.github.com/repos/fanquake/bitcoin/hooks",
        "svn_url": "https://github.com/fanquake/bitcoin",
        "homepage": "http://www.bitcoincore.org",
        "language": "C++",
        "forks_count": 5,
        "stargazers_count": 13,
        "watchers_count": 13,
        "size": 215355,
        "default_branch": "master",
        "open_issues_count": 0,
        "is_template": false,
        "topics": [],
        "has_issues": false,
        "has_projects": false,
        "has_wiki": false,
        "has_pages": false,
        "has_downloads": false,
        "archived": false,
        "disabled": false,
        "visibility": "public",
        "pushed_at": "2023-08-02T12:28:14Z",
        "created_at": "2012-09-22T05:28:42Z",
        "updated_at": "2023-04-27T19:34:01Z",
        "license": {
          "key": "mit",
          "name": "MIT License",
          "node_id": "MDc6TGljZW5zZTEz",
          "spdx_id": "MIT",
          "url": "https://api.github.com/licenses/mit",
          "html_url": null,
          "description": null,
          "implementation": null,
          "permissions": null,
          "conditions": null,
          "limitations": null,
          "body": null,
          "featured": null
        }
      }
    },
    "base": {
      "label": "bitcoin:23.x",
      "ref": "23.x",
      "sha": "32fafa4f81bee8a9a45150f41a793bce6591dc6b",
      "user": {
        "login": "bitcoin",
        "id": 528860,
        "node_id": "MDEyOk9yZ2FuaXphdGlvbjUyODg2MA==",
        "avatar_url": "https://avatars.githubusercontent.com/u/528860?v=4",
        "gravatar_id": "",
        "url": "https://api.github.com/users/bitcoin",
        "html_url": "https://github.com/bitcoin",
        "followers_url": "https://api.github.com/users/bitcoin/followers",
        "following_url": "https://api.github.com/users/bitcoin/following%7B/other_user%7D",
        "gists_url": "https://api.github.com/users/bitcoin/gists%7B/gist_id%7D",
        "starred_url": "https://api.github.com/users/bitcoin/starred%7B/owner%7D%7B/repo%7D",
        "subscriptions_url": "https://api.github.com/users/bitcoin/subscriptions",
        "organizations_url": "https://api.github.com/users/bitcoin/orgs",
        "repos_url": "https://api.github.com/users/bitcoin/repos",
        "events_url": "https://api.github.com/users/bitcoin/events%7B/privacy%7D",
        "received_events_url": "https://api.github.com/users/bitcoin/received_events",
        "type": "Organization",
        "site_admin": false
      },
      "repo": {
        "id": 1181927,
        "node_id": "MDEwOlJlcG9zaXRvcnkxMTgxOTI3",
        "name": "bitcoin",
        "full_name": "bitcoin/bitcoin",
        "owner": {
          "login": "bitcoin",
          "id": 528860,
          "node_id": "MDEyOk9yZ2FuaXphdGlvbjUyODg2MA==",
          "avatar_url": "https://avatars.githubusercontent.com/u/528860?v=4",
          "gravatar_id": "",
          "url": "https://api.github.com/users/bitcoin",
          "html_url": "https://github.com/bitcoin",
          "followers_url": "https://api.github.com/users/bitcoin/followers",
          "following_url": "https://api.github.com/users/bitcoin/following%7B/other_user%7D",
          "gists_url": "https://api.github.com/users/bitcoin/gists%7B/gist_id%7D",
          "starred_url": "https://api.github.com/users/bitcoin/starred%7B/owner%7D%7B/repo%7D",
          "subscriptions_url": "https://api.github.com/users/bitcoin/subscriptions",
          "organizations_url": "https://api.github.com/users/bitcoin/orgs",
          "repos_url": "https://api.github.com/users/bitcoin/repos",
          "events_url": "https://api.github.com/users/bitcoin/events%7B/privacy%7D",
          "received_events_url": "https://api.github.com/users/bitcoin/received_events",
          "type": "Organization",
          "site_admin": false
        },
        "private": false,
        "html_url": "https://github.com/bitcoin/bitcoin",
        "description": "Bitcoin Core integration/staging tree",
        "fork": false,
        "url": "https://api.github.com/repos/bitcoin/bitcoin",
        "archive_url": "https://api.github.com/repos/bitcoin/bitcoin/%7Barchive_format%7D%7B/ref%7D",
        "assignees_url": "https://api.github.com/repos/bitcoin/bitcoin/assignees%7B/user%7D",
        "blobs_url": "https://api.github.com/repos/bitcoin/bitcoin/git/blobs%7B/sha%7D",
        "branches_url": "https://api.github.com/repos/bitcoin/bitcoin/branches%7B/branch%7D",
        "collaborators_url": "https://api.github.com/repos/bitcoin/bitcoin/collaborators%7B/collaborator%7D",
        "comments_url": "https://api.github.com/repos/bitcoin/bitcoin/comments%7B/number%7D",
        "commits_url": "https://api.github.com/repos/bitcoin/bitcoin/commits%7B/sha%7D",
        "compare_url": "https://api.github.com/repos/bitcoin/bitcoin/compare/%7Bbase%7D...%7Bhead%7D",
        "contents_url": "https://api.github.com/repos/bitcoin/bitcoin/contents/%7B+path%7D",
        "contributors_url": "https://api.github.com/repos/bitcoin/bitcoin/contributors",
        "deployments_url": "https://api.github.com/repos/bitcoin/bitcoin/deployments",
        "downloads_url": "https://api.github.com/repos/bitcoin/bitcoin/downloads",
        "events_url": "https://api.github.com/repos/bitcoin/bitcoin/events",
        "forks_url": "https://api.github.com/repos/bitcoin/bitcoin/forks",
        "git_commits_url": "https://api.github.com/repos/bitcoin/bitcoin/git/commits%7B/sha%7D",
        "git_refs_url": "https://api.github.com/repos/bitcoin/bitcoin/git/refs%7B/sha%7D",
        "git_tags_url": "https://api.github.com/repos/bitcoin/bitcoin/git/tags%7B/sha%7D",
        "git_url": "git://github.com/bitcoin/bitcoin.git",
        "issue_comment_url": "https://api.github.com/repos/bitcoin/bitcoin/issues/comments%7B/number%7D",
        "issue_events_url": "https://api.github.com/repos/bitcoin/bitcoin/issues/events%7B/number%7D",
        "issues_url": "https://api.github.com/repos/bitcoin/bitcoin/issues%7B/number%7D",
        "keys_url": "https://api.github.com/repos/bitcoin/bitcoin/keys%7B/key_id%7D",
        "labels_url": "https://api.github.com/repos/bitcoin/bitcoin/labels%7B/name%7D",
        "languages_url": "https://api.github.com/repos/bitcoin/bitcoin/languages",
        "merges_url": "https://api.github.com/repos/bitcoin/bitcoin/merges",
        "milestones_url": "https://api.github.com/repos/bitcoin/bitcoin/milestones%7B/number%7D",
        "notifications_url": "https://api.github.com/repos/bitcoin/bitcoin/notifications%7B?since,all,participating}",
        "pulls_url": "https://api.github.com/repos/bitcoin/bitcoin/pulls%7B/number%7D",
        "releases_url": "https://api.github.com/repos/bitcoin/bitcoin/releases%7B/id%7D",
        "ssh_url": "git@github.com:bitcoin/bitcoin.git",
        "stargazers_url": "https://api.github.com/repos/bitcoin/bitcoin/stargazers",
        "statuses_url": "https://api.github.com/repos/bitcoin/bitcoin/statuses/%7Bsha%7D",
        "subscribers_url": "https://api.github.com/repos/bitcoin/bitcoin/subscribers",
        "subscription_url": "https://api.github.com/repos/bitcoin/bitcoin/subscription",
        "tags_url": "https://api.github.com/repos/bitcoin/bitcoin/tags",
        "teams_url": "https://api.github.com/repos/bitcoin/bitcoin/teams",
        "trees_url": "https://api.github.com/repos/bitcoin/bitcoin/git/trees%7B/sha%7D",
        "clone_url": "https://github.com/bitcoin/bitcoin.git",
        "hooks_url": "https://api.github.com/repos/bitcoin/bitcoin/hooks",
        "svn_url": "https://github.com/bitcoin/bitcoin",
        "homepage": "https://bitcoincore.org/en/download",
        "language": "C++",
        "forks_count": 35476,
        "stargazers_count": 70608,
        "watchers_count": 70608,
        "size": 236222,
        "default_branch": "master",
        "open_issues_count": 673,
        "is_template": false,
        "topics": [
          "bitcoin",
          "c-plus-plus",
          "cryptocurrency",
          "cryptography",
          "p2p"
        ],
        "has_issues": true,
        "has_projects": true,
        "has_wiki": false,
        "has_pages": false,
        "has_downloads": false,
        "archived": false,
        "disabled": false,
        "visibility": "public",
        "pushed_at": "2023-08-03T00:03:27Z",
        "created_at": "2010-12-19T15:16:43Z",
        "updated_at": "2023-08-02T18:21:18Z",
        "license": {
          "key": "mit",
          "name": "MIT License",
          "node_id": "MDc6TGljZW5zZTEz",
          "spdx_id": "MIT",
          "url": "https://api.github.com/licenses/mit",
          "html_url": null,
          "description": null,
          "implementation": null,
          "permissions": null,
          "conditions": null,
          "limitations": null,
          "body": null,
          "featured": null
        }
      }
    },
    "_links": {
      "self": {
        "href": "https://api.github.com/repos/bitcoin/bitcoin/pulls/26474"
      }
    },
    "author_association": "MEMBER",
    "draft": false,
    "additions": 17,
    "deletions": 12,
    "changed_files": 1,
    "commits": 1,
    "review_comments": 0,
    "comments": 1
  },
  "events": [
    {
      "event": "committed",
      "id": null,
      "node_id": "C_kwDOABII59oAKDBmNDU4M2U1YzExNGUxM2MzYzkzN2YxODMyYWIwYzM5NzUxY2YzOGM",
      "url": "https://api.github.com/repos/bitcoin/bitcoin/git/commits/0f4583e5c114e13c3c937f1832ab0c39751cf38c",
      "actor": null,
      "commit_id": null,
      "commit_url": null,
      "created_at": null,
      "html_url": "https://github.com/bitcoin/bitcoin/commit/0f4583e5c114e13c3c937f1832ab0c39751cf38c",
      "tree": {
        "sha": "8fe419db61b92b3901534f24f5c1b89b5652dfb3",
        "url": "https://api.github.com/repos/bitcoin/bitcoin/git/trees/8fe419db61b92b3901534f24f5c1b89b5652dfb3"
      },
      "verification": {
        "verified": true,
        "reason": "valid",
        "payload": "tree 8fe419db61b92b3901534f24f5c1b89b5652dfb3\nparent 32fafa4f81bee8a9a45150f41a793bce6591dc6b\nauthor fanquake <fanquake@gmail.com> 1660735137 +0100\ncommitter fanquake <fanquake@gmail.com> 1667927139 +0000\n\nguix: use --build={arch}-guix-linux-gnu in cross toolchain\n\nTechnically we are always cross-compiling, so make that explicit.\n\nFixes: #22458.\n\nGithub-Pull: #25861\nRebased-From: 56e79fe683d36c1944e52326fae3bcc4cb7deec7\n",
        "signature": "-----BEGIN PGP SIGNATURE-----\n\niQIzBAABCAAdFiEEz7FuIclQ9n+pXlWPLuufXMCVJsEFAmNqjIMACgkQLuufXMCV\nJsHtsQ/9FuOmEeojEfRQiX7eh3dCn71YKyQ/vG8vHooGBHd492pE4KpbaaeTP+U0\nxvb1s8OX68OGOAxXGg9i/T2gdp/w2rPBryAsHeINoU//avNE6UdodN9sUdXACoG2\n3hUJbOjw67pZSq9FU6ALrhtoczEk/8wF4OdmDqSya8hPIY++yXtWAEMBLyqwRhWI\n0JZKmPZaC6bkoqKQCFSN2dzZwIN9Ku0ItHvqBfJDR5pZICtxybz7cacOngBmNQQr\n/18yDSLjJArY/EYowDkyHGqpRvFn2mSP3jYruV26vwnBRTunZAEJtofAeRKzV/49\nfKrqHOf4pafyWGd//W0E/vqzzF517fM4aP1ACjUZ3F9FLG+c1y3FmI9LjA+f4HdO\nZXY8xaGsc5DVQDkL+O2mgv9zEKh/2hMs0tkZzXibxBMozX4AeZ2hlXAsaU+5VzU8\nUM7ODm4qZs09T7IGKmWwiWc3P+N+BTNLsOQ6bcOfAvQ0Yd2BY/qjJ1sYerqNeXiF\nrV3InCrxEpMJ8WWN981e22FE/yiKlk7zOYv0Br1Bgif9U73ry/h37oOcJ3D0vF9G\nyEEr1he5chHfza1r0tuqoJBfeDu+CrfoSeIyO+NER0D8l6LO+sa6SBiyQaDQwSCo\nDijwHrbfPzlsRkqF0PnrznqdwDP9s/gSXACfZMuFDNAf9KOVaRU=\n=sgT/\n-----END PGP SIGNATURE-----"
      },
      "parents": [
        {
          "url": "https://api.github.com/repos/bitcoin/bitcoin/git/commits/32fafa4f81bee8a9a45150f41a793bce6591dc6b",
          "sha": "32fafa4f81bee8a9a45150f41a793bce6591dc6b",
          "html_url": "https://github.com/bitcoin/bitcoin/commit/32fafa4f81bee8a9a45150f41a793bce6591dc6b"
        }
      ],
      "message": "guix: use --build={arch}-guix-linux-gnu in cross toolchain\n\nTechnically we are always cross-compiling, so make that explicit.\n\nFixes: #22458.\n\nGithub-Pull: #25861\nRebased-From: 56e79fe683d36c1944e52326fae3bcc4cb7deec7",
      "committer": {
        "name": "fanquake",
        "email": "fanquake@gmail.com",
        "date": "2022-11-08T17:05:39Z"
      },
      "author": {
        "name": "fanquake",
        "email": "fanquake@gmail.com",
        "date": "2022-08-17T11:18:57Z"
      },
      "sha": "0f4583e5c114e13c3c937f1832ab0c39751cf38c"
    },
    {
      "event": "labeled",
      "id": 7766073832,
      "node_id": "LE_lADOABII585V4IRQzwAAAAHO5OHo",
      "url": "https://api.github.com/repos/bitcoin/bitcoin/issues/events/7766073832",
      "actor": {
        "login": "fanquake",
        "id": 863730,
        "node_id": "MDQ6VXNlcjg2MzczMA==",
        "avatar_url": "https://avatars.githubusercontent.com/u/863730?v=4",
        "gravatar_id": "",
        "url": "https://api.github.com/users/fanquake",
        "html_url": "https://github.com/fanquake",
        "followers_url": "https://api.github.com/users/fanquake/followers",
        "following_url": "https://api.github.com/users/fanquake/following%7B/other_user%7D",
        "gists_url": "https://api.github.com/users/fanquake/gists%7B/gist_id%7D",
        "starred_url": "https://api.github.com/users/fanquake/starred%7B/owner%7D%7B/repo%7D",
        "subscriptions_url": "https://api.github.com/users/fanquake/subscriptions",
        "organizations_url": "https://api.github.com/users/fanquake/orgs",
        "repos_url": "https://api.github.com/users/fanquake/repos",
        "events_url": "https://api.github.com/users/fanquake/events%7B/privacy%7D",
        "received_events_url": "https://api.github.com/users/fanquake/received_events",
        "type": "User",
        "site_admin": false
      },
      "commit_id": null,
      "commit_url": null,
      "created_at": "2022-11-08T19:24:06Z",
      "label": {
        "name": "Build system",
        "color": "5319e7"
      }
    },
    {
      "event": "labeled",
      "id": 7766073837,
      "node_id": "LE_lADOABII585V4IRQzwAAAAHO5OHt",
      "url": "https://api.github.com/repos/bitcoin/bitcoin/issues/events/7766073837",
      "actor": {
        "login": "fanquake",
        "id": 863730,
        "node_id": "MDQ6VXNlcjg2MzczMA==",
        "avatar_url": "https://avatars.githubusercontent.com/u/863730?v=4",
        "gravatar_id": "",
        "url": "https://api.github.com/users/fanquake",
        "html_url": "https://github.com/fanquake",
        "followers_url": "https://api.github.com/users/fanquake/followers",
        "following_url": "https://api.github.com/users/fanquake/following%7B/other_user%7D",
        "gists_url": "https://api.github.com/users/fanquake/gists%7B/gist_id%7D",
        "starred_url": "https://api.github.com/users/fanquake/starred%7B/owner%7D%7B/repo%7D",
        "subscriptions_url": "https://api.github.com/users/fanquake/subscriptions",
        "organizations_url": "https://api.github.com/users/fanquake/orgs",
        "repos_url": "https://api.github.com/users/fanquake/repos",
        "events_url": "https://api.github.com/users/fanquake/events%7B/privacy%7D",
        "received_events_url": "https://api.github.com/users/fanquake/received_events",
        "type": "User",
        "site_admin": false
      },
      "commit_id": null,
      "commit_url": null,
      "created_at": "2022-11-08T19:24:06Z",
      "label": {
        "name": "Backport",
        "color": "dd7200"
      }
    },
    {
      "event": "labeled",
      "id": 7766073840,
      "node_id": "LE_lADOABII585V4IRQzwAAAAHO5OHw",
      "url": "https://api.github.com/repos/bitcoin/bitcoin/issues/events/7766073840",
      "actor": {
        "login": "fanquake",
        "id": 863730,
        "node_id": "MDQ6VXNlcjg2MzczMA==",
        "avatar_url": "https://avatars.githubusercontent.com/u/863730?v=4",
        "gravatar_id": "",
        "url": "https://api.github.com/users/fanquake",
        "html_url": "https://github.com/fanquake",
        "followers_url": "https://api.github.com/users/fanquake/followers",
        "following_url": "https://api.github.com/users/fanquake/following%7B/other_user%7D",
        "gists_url": "https://api.github.com/users/fanquake/gists%7B/gist_id%7D",
        "starred_url": "https://api.github.com/users/fanquake/starred%7B/owner%7D%7B/repo%7D",
        "subscriptions_url": "https://api.github.com/users/fanquake/subscriptions",
        "organizations_url": "https://api.github.com/users/fanquake/orgs",
        "repos_url": "https://api.github.com/users/fanquake/repos",
        "events_url": "https://api.github.com/users/fanquake/events%7B/privacy%7D",
        "received_events_url": "https://api.github.com/users/fanquake/received_events",
        "type": "User",
        "site_admin": false
      },
      "commit_id": null,
      "commit_url": null,
      "created_at": "2022-11-08T19:24:06Z",
      "label": {
        "name": "DrahtBot Guix build requested",
        "color": "bfd4f2"
      }
    },
    {
      "event": "unlabeled",
      "id": 7769999925,
      "node_id": "UNLE_lADOABII585V4IRQzwAAAAHPIMo1",
      "url": "https://api.github.com/repos/bitcoin/bitcoin/issues/events/7769999925",
      "actor": {
        "login": "MarcoFalke",
        "id": 6399679,
        "node_id": "MDQ6VXNlcjYzOTk2Nzk=",
        "avatar_url": "https://avatars.githubusercontent.com/u/6399679?v=4",
        "gravatar_id": "",
        "url": "https://api.github.com/users/MarcoFalke",
        "html_url": "https://github.com/MarcoFalke",
        "followers_url": "https://api.github.com/users/MarcoFalke/followers",
        "following_url": "https://api.github.com/users/MarcoFalke/following%7B/other_user%7D",
        "gists_url": "https://api.github.com/users/MarcoFalke/gists%7B/gist_id%7D",
        "starred_url": "https://api.github.com/users/MarcoFalke/starred%7B/owner%7D%7B/repo%7D",
        "subscriptions_url": "https://api.github.com/users/MarcoFalke/subscriptions",
        "organizations_url": "https://api.github.com/users/MarcoFalke/orgs",
        "repos_url": "https://api.github.com/users/MarcoFalke/repos",
        "events_url": "https://api.github.com/users/MarcoFalke/events%7B/privacy%7D",
        "received_events_url": "https://api.github.com/users/MarcoFalke/received_events",
        "type": "User",
        "site_admin": false
      },
      "commit_id": null,
      "commit_url": null,
      "created_at": "2022-11-09T06:52:25Z",
      "label": {
        "name": "Build system",
        "color": "5319e7"
      }
    },
    {
      "event": "unlabeled",
      "id": 7769999929,
      "node_id": "UNLE_lADOABII585V4IRQzwAAAAHPIMo5",
      "url": "https://api.github.com/repos/bitcoin/bitcoin/issues/events/7769999929",
      "actor": {
        "login": "MarcoFalke",
        "id": 6399679,
        "node_id": "MDQ6VXNlcjYzOTk2Nzk=",
        "avatar_url": "https://avatars.githubusercontent.com/u/6399679?v=4",
        "gravatar_id": "",
        "url": "https://api.github.com/users/MarcoFalke",
        "html_url": "https://github.com/MarcoFalke",
        "followers_url": "https://api.github.com/users/MarcoFalke/followers",
        "following_url": "https://api.github.com/users/MarcoFalke/following%7B/other_user%7D",
        "gists_url": "https://api.github.com/users/MarcoFalke/gists%7B/gist_id%7D",
        "starred_url": "https://api.github.com/users/MarcoFalke/starred%7B/owner%7D%7B/repo%7D",
        "subscriptions_url": "https://api.github.com/users/MarcoFalke/subscriptions",
        "organizations_url": "https://api.github.com/users/MarcoFalke/orgs",
        "repos_url": "https://api.github.com/users/MarcoFalke/repos",
        "events_url": "https://api.github.com/users/MarcoFalke/events%7B/privacy%7D",
        "received_events_url": "https://api.github.com/users/MarcoFalke/received_events",
        "type": "User",
        "site_admin": false
      },
      "commit_id": null,
      "commit_url": null,
      "created_at": "2022-11-09T06:52:25Z",
      "label": {
        "name": "DrahtBot Guix build requested",
        "color": "bfd4f2"
      }
    },
    {
      "event": "unlabeled",
      "id": 7770000698,
      "node_id": "UNLE_lADOABII585V4IRQzwAAAAHPIM06",
      "url": "https://api.github.com/repos/bitcoin/bitcoin/issues/events/7770000698",
      "actor": {
        "login": "MarcoFalke",
        "id": 6399679,
        "node_id": "MDQ6VXNlcjYzOTk2Nzk=",
        "avatar_url": "https://avatars.githubusercontent.com/u/6399679?v=4",
        "gravatar_id": "",
        "url": "https://api.github.com/users/MarcoFalke",
        "html_url": "https://github.com/MarcoFalke",
        "followers_url": "https://api.github.com/users/MarcoFalke/followers",
        "following_url": "https://api.github.com/users/MarcoFalke/following%7B/other_user%7D",
        "gists_url": "https://api.github.com/users/MarcoFalke/gists%7B/gist_id%7D",
        "starred_url": "https://api.github.com/users/MarcoFalke/starred%7B/owner%7D%7B/repo%7D",
        "subscriptions_url": "https://api.github.com/users/MarcoFalke/subscriptions",
        "organizations_url": "https://api.github.com/users/MarcoFalke/orgs",
        "repos_url": "https://api.github.com/users/MarcoFalke/repos",
        "events_url": "https://api.github.com/users/MarcoFalke/events%7B/privacy%7D",
        "received_events_url": "https://api.github.com/users/MarcoFalke/received_events",
        "type": "User",
        "site_admin": false
      },
      "commit_id": null,
      "commit_url": null,
      "created_at": "2022-11-09T06:52:29Z",
      "label": {
        "name": "Backport",
        "color": "dd7200"
      }
    },
    {
      "event": "labeled",
      "id": 7770480772,
      "node_id": "LE_lADOABII585V4IRQzwAAAAHPKCCE",
      "url": "https://api.github.com/repos/bitcoin/bitcoin/issues/events/7770480772",
      "actor": {
        "login": "DrahtBot",
        "id": 39886733,
        "node_id": "MDQ6VXNlcjM5ODg2NzMz",
        "avatar_url": "https://avatars.githubusercontent.com/u/39886733?v=4",
        "gravatar_id": "",
        "url": "https://api.github.com/users/DrahtBot",
        "html_url": "https://github.com/DrahtBot",
        "followers_url": "https://api.github.com/users/DrahtBot/followers",
        "following_url": "https://api.github.com/users/DrahtBot/following%7B/other_user%7D",
        "gists_url": "https://api.github.com/users/DrahtBot/gists%7B/gist_id%7D",
        "starred_url": "https://api.github.com/users/DrahtBot/starred%7B/owner%7D%7B/repo%7D",
        "subscriptions_url": "https://api.github.com/users/DrahtBot/subscriptions",
        "organizations_url": "https://api.github.com/users/DrahtBot/orgs",
        "repos_url": "https://api.github.com/users/DrahtBot/repos",
        "events_url": "https://api.github.com/users/DrahtBot/events%7B/privacy%7D",
        "received_events_url": "https://api.github.com/users/DrahtBot/received_events",
        "type": "User",
        "site_admin": false
      },
      "commit_id": null,
      "commit_url": null,
      "created_at": "2022-11-09T07:47:14Z",
      "label": {
        "name": "Backport",
        "color": "dd7200"
      }
    },
    {
      "event": "milestoned",
      "id": 7772109371,
      "node_id": "MIE_lADOABII585V4IRQzwAAAAHPQPo7",
      "url": "https://api.github.com/repos/bitcoin/bitcoin/issues/events/7772109371",
      "actor": {
        "login": "MarcoFalke",
        "id": 6399679,
        "node_id": "MDQ6VXNlcjYzOTk2Nzk=",
        "avatar_url": "https://avatars.githubusercontent.com/u/6399679?v=4",
        "gravatar_id": "",
        "url": "https://api.github.com/users/MarcoFalke",
        "html_url": "https://github.com/MarcoFalke",
        "followers_url": "https://api.github.com/users/MarcoFalke/followers",
        "following_url": "https://api.github.com/users/MarcoFalke/following%7B/other_user%7D",
        "gists_url": "https://api.github.com/users/MarcoFalke/gists%7B/gist_id%7D",
        "starred_url": "https://api.github.com/users/MarcoFalke/starred%7B/owner%7D%7B/repo%7D",
        "subscriptions_url": "https://api.github.com/users/MarcoFalke/subscriptions",
        "organizations_url": "https://api.github.com/users/MarcoFalke/orgs",
        "repos_url": "https://api.github.com/users/MarcoFalke/repos",
        "events_url": "https://api.github.com/users/MarcoFalke/events%7B/privacy%7D",
        "received_events_url": "https://api.github.com/users/MarcoFalke/received_events",
        "type": "User",
        "site_admin": false
      },
      "commit_id": null,
      "commit_url": null,
      "created_at": "2022-11-09T10:41:22Z",
      "milestone": {
        "title": "23.1"
      }
    },
    {
      "event": "reviewed",
      "id": 1174128070,
      "node_id": "PRR_kwDOABII585F-8XG",
      "url": null,
      "actor": null,
      "commit_id": "0f4583e5c114e13c3c937f1832ab0c39751cf38c",
      "commit_url": null,
      "created_at": null,
      "author_association": "MEMBER",
      "body": "ACK 0f4583e5c114e13c3c937f1832ab0c39751cf38c, tested on `arm64`:\r\n\r\n```\r\n9fd4601412738e9135e2732cfc8af911c54af8a1349c2af568b4748dd1907c3d  guix-build-0f4583e5c114/output/aarch64-linux-gnu/SHA256SUMS.part\r\n36df2797cd7845ccb4f416b52f9dbd4cc7dd0242782c3143206d0c15239e8b02  guix-build-0f4583e5c114/output/aarch64-linux-gnu/bitcoin-0f4583e5c114-aarch64-linux-gnu-debug.tar.gz\r\n6aa022173b23827ec2690823178b9d2d06108e159a9074e1a54a7d1a74b6c5db  guix-build-0f4583e5c114/output/aarch64-linux-gnu/bitcoin-0f4583e5c114-aarch64-linux-gnu.tar.gz\r\n9c787047070b1fe8c2beead22093dc73481e7c921993d95fb0e4ce8739f8e515  guix-build-0f4583e5c114/output/dist-archive/bitcoin-0f4583e5c114.tar.gz\r\n```",
      "user": {
        "login": "hebasto",
        "id": 32963518,
        "node_id": "MDQ6VXNlcjMyOTYzNTE4",
        "avatar_url": "https://avatars.githubusercontent.com/u/32963518?v=4",
        "gravatar_id": "",
        "url": "https://api.github.com/users/hebasto",
        "html_url": "https://github.com/hebasto",
        "followers_url": "https://api.github.com/users/hebasto/followers",
        "following_url": "https://api.github.com/users/hebasto/following%7B/other_user%7D",
        "gists_url": "https://api.github.com/users/hebasto/gists%7B/gist_id%7D",
        "starred_url": "https://api.github.com/users/hebasto/starred%7B/owner%7D%7B/repo%7D",
        "subscriptions_url": "https://api.github.com/users/hebasto/subscriptions",
        "organizations_url": "https://api.github.com/users/hebasto/orgs",
        "repos_url": "https://api.github.com/users/hebasto/repos",
        "events_url": "https://api.github.com/users/hebasto/events%7B/privacy%7D",
        "received_events_url": "https://api.github.com/users/hebasto/received_events",
        "type": "User",
        "site_admin": false
      },
      "html_url": "https://github.com/bitcoin/bitcoin/pull/26474#pullrequestreview-1174128070",
      "submitted_at": "2022-11-09T14:14:34Z",
      "state": "APPROVED",
      "pull_request_url": "https://api.github.com/repos/bitcoin/bitcoin/pulls/26474"
    },
    {
      "event": "cross-referenced",
      "id": null,
      "node_id": null,
      "url": null,
      "actor": {
        "login": "fanquake",
        "id": 863730,
        "node_id": "MDQ6VXNlcjg2MzczMA==",
        "avatar_url": "https://avatars.githubusercontent.com/u/863730?v=4",
        "gravatar_id": "",
        "url": "https://api.github.com/users/fanquake",
        "html_url": "https://github.com/fanquake",
        "followers_url": "https://api.github.com/users/fanquake/followers",
        "following_url": "https://api.github.com/users/fanquake/following%7B/other_user%7D",
        "gists_url": "https://api.github.com/users/fanquake/gists%7B/gist_id%7D",
        "starred_url": "https://api.github.com/users/fanquake/starred%7B/owner%7D%7B/repo%7D",
        "subscriptions_url": "https://api.github.com/users/fanquake/subscriptions",
        "organizations_url": "https://api.github.com/users/fanquake/orgs",
        "repos_url": "https://api.github.com/users/fanquake/repos",
        "events_url": "https://api.github.com/users/fanquake/events%7B/privacy%7D",
        "received_events_url": "https://api.github.com/users/fanquake/received_events",
        "type": "User",
        "site_admin": false
      },
      "commit_id": null,
      "commit_url": null,
      "created_at": "2022-11-09T16:29:18Z",
      "updated_at": "2022-11-09T16:29:18Z",
      "source": {
        "issue": {
          "id": 1341877198,
          "node_id": "PR_kwDOABII5849VGP3",
          "url": "https://api.github.com/repos/bitcoin/bitcoin/issues/25861",
          "repository_url": "https://api.github.com/repos/bitcoin/bitcoin",
          "labels_url": "https://api.github.com/repos/bitcoin/bitcoin/issues/25861/labels%7B/name%7D",
          "comments_url": "https://api.github.com/repos/bitcoin/bitcoin/issues/25861/comments",
          "events_url": "https://api.github.com/repos/bitcoin/bitcoin/issues/25861/events",
          "html_url": "https://github.com/bitcoin/bitcoin/pull/25861",
          "number": 25861,
          "state": "closed",
          "state_reason": null,
          "title": "guix: use --build={arch}-guix-linux-gnu in cross toolchain",
          "body": "Technically we are always cross-compiling when Guix building, so make that explicit. `{arch}-guix-linux-gnu` is not a triplet that should be used in any other capacity, but here it serves the purpose of ensuring, that by setting `--build` to something other than `--host/--target`, we are always cross-compiling (in the eyes of autoconf etc) when building our cross toolchains. It looks like `x86_64-linux-gnu` on `x86_64-linux-gnu` currently works because of the triplet canonicalisation, i.e `x86_64-linux-gnu` becomes `x86_64-pc-linux-gnu`, and GCCs configure thinking it's cross-compiling, whereas the same canonicalisation doesn't happen for `aarch64-linux-gnu` so we don't get a cross-compile when building on aarch64.\r\n\r\nFixes: #22458.\r\n\r\nGuix Build (x86_64):\r\n```bash\r\ne590e67d2b151e7d079f50393c61cacf9e65f5e3fdddc10bffd5dbb59cd9f5e3  guix-build-56e79fe683d3/output/aarch64-linux-gnu/SHA256SUMS.part\r\n9222a733209dc73168722ee0f290831d1723f7ed55abc1e243dd3892ef9733f1  guix-build-56e79fe683d3/output/aarch64-linux-gnu/bitcoin-56e79fe683d3-aarch64-linux-gnu-debug.tar.gz\r\na4ec01411195412e9a483397554d98b2db161a6be8aceee2dac78f0015f2a8e5  guix-build-56e79fe683d3/output/aarch64-linux-gnu/bitcoin-56e79fe683d3-aarch64-linux-gnu.tar.gz\r\na4ff8f2538c1b3a63a3e7c92699c18164b2c4954ebd72c4a854bf7844e6131b6  guix-build-56e79fe683d3/output/arm-linux-gnueabihf/SHA256SUMS.part\r\nac6e4dffcf6f49dac73d3677f3fe5edb08ee1127648bc7ec24b217f48a3a4d21  guix-build-56e79fe683d3/output/arm-linux-gnueabihf/bitcoin-56e79fe683d3-arm-linux-gnueabihf-debug.tar.gz\r\nab26467fce9732596b1713179618eee20c2bd44875dc1c39f9afd68f135e8ce4  guix-build-56e79fe683d3/output/arm-linux-gnueabihf/bitcoin-56e79fe683d3-arm-linux-gnueabihf.tar.gz\r\nf44108d818d53ee7e70b44361cb3cc6841b7aecbe4fade1fa289263718620824  guix-build-56e79fe683d3/output/arm64-apple-darwin/SHA256SUMS.part\r\n29adfb2d575be8b5a7092b2aff888af2084ad5783bdc74ae3de4b2dd84da7a26  guix-build-56e79fe683d3/output/arm64-apple-darwin/bitcoin-56e79fe683d3-arm64-apple-darwin-unsigned.dmg\r\n3d7640f604bd27cb1ae47853d70378a7631aa436b5c027eae31fa06d4dd20d4a  guix-build-56e79fe683d3/output/arm64-apple-darwin/bitcoin-56e79fe683d3-arm64-apple-darwin-unsigned.tar.gz\r\n3f8d8fc49cf722a7a13640872762d045c14efd610fba908f0acc99a99032b903  guix-build-56e79fe683d3/output/arm64-apple-darwin/bitcoin-56e79fe683d3-arm64-apple-darwin.tar.gz\r\nb8df097e10e7acded8556a5681da2b0132c0d509b200792f5584c186b8dcaf24  guix-build-56e79fe683d3/output/dist-archive/bitcoin-56e79fe683d3.tar.gz\r\n1a605c563038107b88e8d859fa045ca3087241340264eb7125e97b3af36874db  guix-build-56e79fe683d3/output/powerpc64-linux-gnu/SHA256SUMS.part\r\nd10be89a816ee2f47bf778ef4aaa8a7b548403c123a4b4b3aa0470ee7b9472d2  guix-build-56e79fe683d3/output/powerpc64-linux-gnu/bitcoin-56e79fe683d3-powerpc64-linux-gnu-debug.tar.gz\r\n839dd079d677c87a91ccc28f6c423657d98212350d3693ae2facb92082d10c88  guix-build-56e79fe683d3/output/powerpc64-linux-gnu/bitcoin-56e79fe683d3-powerpc64-linux-gnu.tar.gz\r\n200d7a72a7901b6788e70aa1c6fbbe16144e9dac29beb06242a9dcfe1e88acbe  guix-build-56e79fe683d3/output/powerpc64le-linux-gnu/SHA256SUMS.part\r\n3d207bb57dc45f234d804a9ee615001aa28ac4b59b530a1e7d16d0a72c2ea514  guix-build-56e79fe683d3/output/powerpc64le-linux-gnu/bitcoin-56e79fe683d3-powerpc64le-linux-gnu-debug.tar.gz\r\n16a789c98409d36bd6b69a5ca38cd8886979f50f845265dc0b005c92286a3e4f  guix-build-56e79fe683d3/output/powerpc64le-linux-gnu/bitcoin-56e79fe683d3-powerpc64le-linux-gnu.tar.gz\r\ne48f6fae9c2ffeb2bf02ffc073ac69648b2ce4ba87e0ad7a3a5059abf33b8ce2  guix-build-56e79fe683d3/output/riscv64-linux-gnu/SHA256SUMS.part\r\nfa8d66af5f202e0c8968114af4dcd6d88099eb91d197dfaaa0144f8ae6b12f4a  guix-build-56e79fe683d3/output/riscv64-linux-gnu/bitcoin-56e79fe683d3-riscv64-linux-gnu-debug.tar.gz\r\n86cffa62687f4272c899897ff6c1a86e1a7bdbbb7ab09a085b7b1122d3a1f1b2  guix-build-56e79fe683d3/output/riscv64-linux-gnu/bitcoin-56e79fe683d3-riscv64-linux-gnu.tar.gz\r\ne42a7c33da6ea4be5d0826df097bdc7e919c9fd6642e7d59fe3d45a97d9009fa  guix-build-56e79fe683d3/output/x86_64-apple-darwin/SHA256SUMS.part\r\n2f9faa88fa0025b9bfade83177b1f50833dc6c3be1ef26c4d5881aa165bcc537  guix-build-56e79fe683d3/output/x86_64-apple-darwin/bitcoin-56e79fe683d3-x86_64-apple-darwin-unsigned.dmg\r\nfdfe560968c85500dc886d4e12b851cd27a76de860b8cbf1fb6aac95ccd0582e  guix-build-56e79fe683d3/output/x86_64-apple-darwin/bitcoin-56e79fe683d3-x86_64-apple-darwin-unsigned.tar.gz\r\nc3c75560befd72a9f13f5626ddf39c63ad25fb9753a4d941e48830b7e06f143e  guix-build-56e79fe683d3/output/x86_64-apple-darwin/bitcoin-56e79fe683d3-x86_64-apple-darwin.tar.gz\r\n38100946ec1469fdd31aa8ea9e471b317dc278c298c106289c119016c2c0caa0  guix-build-56e79fe683d3/output/x86_64-linux-gnu/SHA256SUMS.part\r\n67890771aad89dc0d20b8dcdc6b29bd838ace310e8bcbbc0d16d7afc87d3a474  guix-build-56e79fe683d3/output/x86_64-linux-gnu/bitcoin-56e79fe683d3-x86_64-linux-gnu-debug.tar.gz\r\na9772b40c8b9d3c1a0bf9c9db2a60050415bf6a9bd4a19cfd8a038f4a1e712e3  guix-build-56e79fe683d3/output/x86_64-linux-gnu/bitcoin-56e79fe683d3-x86_64-linux-gnu.tar.gz\r\n01da0561f2c3a268c28615b1573dfdecb6346bf3f8eba7a052488191234ac1d6  guix-build-56e79fe683d3/output/x86_64-w64-mingw32/SHA256SUMS.part\r\n71324ac0f6fc8163e41031b2fd2d38d2e15bfd5ef4efe4cb45d7974fad474394  guix-build-56e79fe683d3/output/x86_64-w64-mingw32/bitcoin-56e79fe683d3-win64-debug.zip\r\n219b58281d3c79b2ed7e9085b1e15d7e021fd3899ef07a6ad747058b43d64443  guix-build-56e79fe683d3/output/x86_64-w64-mingw32/bitcoin-56e79fe683d3-win64-setup-unsigned.exe\r\nfe838d32587c2f942fcd9f9a0b3735611b686a867e2d2040cf3a8aa6a43d09fe  guix-build-56e79fe683d3/output/x86_64-w64-mingw32/bitcoin-56e79fe683d3-win64-unsigned.tar.gz\r\n13b537217a13293b93afd7c588b3733955c3188f79a3249b363fb4e885b74b32  guix-build-56e79fe683d3/output/x86_64-w64-mingw32/bitcoin-56e79fe683d3-win64.zip\r\n```\r\n\r\nGuix Build (arm64):\r\n```bash\r\ne590e67d2b151e7d079f50393c61cacf9e65f5e3fdddc10bffd5dbb59cd9f5e3  guix-build-56e79fe683d3/output/aarch64-linux-gnu/SHA256SUMS.part\r\n9222a733209dc73168722ee0f290831d1723f7ed55abc1e243dd3892ef9733f1  guix-build-56e79fe683d3/output/aarch64-linux-gnu/bitcoin-56e79fe683d3-aarch64-linux-gnu-debug.tar.gz\r\na4ec01411195412e9a483397554d98b2db161a6be8aceee2dac78f0015f2a8e5  guix-build-56e79fe683d3/output/aarch64-linux-gnu/bitcoin-56e79fe683d3-aarch64-linux-gnu.tar.gz\r\na4ff8f2538c1b3a63a3e7c92699c18164b2c4954ebd72c4a854bf7844e6131b6  guix-build-56e79fe683d3/output/arm-linux-gnueabihf/SHA256SUMS.part\r\nac6e4dffcf6f49dac73d3677f3fe5edb08ee1127648bc7ec24b217f48a3a4d21  guix-build-56e79fe683d3/output/arm-linux-gnueabihf/bitcoin-56e79fe683d3-arm-linux-gnueabihf-debug.tar.gz\r\nab26467fce9732596b1713179618eee20c2bd44875dc1c39f9afd68f135e8ce4  guix-build-56e79fe683d3/output/arm-linux-gnueabihf/bitcoin-56e79fe683d3-arm-linux-gnueabihf.tar.gz\r\nf44108d818d53ee7e70b44361cb3cc6841b7aecbe4fade1fa289263718620824  guix-build-56e79fe683d3/output/arm64-apple-darwin/SHA256SUMS.part\r\n29adfb2d575be8b5a7092b2aff888af2084ad5783bdc74ae3de4b2dd84da7a26  guix-build-56e79fe683d3/output/arm64-apple-darwin/bitcoin-56e79fe683d3-arm64-apple-darwin-unsigned.dmg\r\n3d7640f604bd27cb1ae47853d70378a7631aa436b5c027eae31fa06d4dd20d4a  guix-build-56e79fe683d3/output/arm64-apple-darwin/bitcoin-56e79fe683d3-arm64-apple-darwin-unsigned.tar.gz\r\n3f8d8fc49cf722a7a13640872762d045c14efd610fba908f0acc99a99032b903  guix-build-56e79fe683d3/output/arm64-apple-darwin/bitcoin-56e79fe683d3-arm64-apple-darwin.tar.gz\r\nb8df097e10e7acded8556a5681da2b0132c0d509b200792f5584c186b8dcaf24  guix-build-56e79fe683d3/output/dist-archive/bitcoin-56e79fe683d3.tar.gz\r\n1a605c563038107b88e8d859fa045ca3087241340264eb7125e97b3af36874db  guix-build-56e79fe683d3/output/powerpc64-linux-gnu/SHA256SUMS.part\r\nd10be89a816ee2f47bf778ef4aaa8a7b548403c123a4b4b3aa0470ee7b9472d2  guix-build-56e79fe683d3/output/powerpc64-linux-gnu/bitcoin-56e79fe683d3-powerpc64-linux-gnu-debug.tar.gz\r\n839dd079d677c87a91ccc28f6c423657d98212350d3693ae2facb92082d10c88  guix-build-56e79fe683d3/output/powerpc64-linux-gnu/bitcoin-56e79fe683d3-powerpc64-linux-gnu.tar.gz\r\n200d7a72a7901b6788e70aa1c6fbbe16144e9dac29beb06242a9dcfe1e88acbe  guix-build-56e79fe683d3/output/powerpc64le-linux-gnu/SHA256SUMS.part\r\n3d207bb57dc45f234d804a9ee615001aa28ac4b59b530a1e7d16d0a72c2ea514  guix-build-56e79fe683d3/output/powerpc64le-linux-gnu/bitcoin-56e79fe683d3-powerpc64le-linux-gnu-debug.tar.gz\r\n16a789c98409d36bd6b69a5ca38cd8886979f50f845265dc0b005c92286a3e4f  guix-build-56e79fe683d3/output/powerpc64le-linux-gnu/bitcoin-56e79fe683d3-powerpc64le-linux-gnu.tar.gz\r\ne48f6fae9c2ffeb2bf02ffc073ac69648b2ce4ba87e0ad7a3a5059abf33b8ce2  guix-build-56e79fe683d3/output/riscv64-linux-gnu/SHA256SUMS.part\r\nfa8d66af5f202e0c8968114af4dcd6d88099eb91d197dfaaa0144f8ae6b12f4a  guix-build-56e79fe683d3/output/riscv64-linux-gnu/bitcoin-56e79fe683d3-riscv64-linux-gnu-debug.tar.gz\r\n86cffa62687f4272c899897ff6c1a86e1a7bdbbb7ab09a085b7b1122d3a1f1b2  guix-build-56e79fe683d3/output/riscv64-linux-gnu/bitcoin-56e79fe683d3-riscv64-linux-gnu.tar.gz\r\ne42a7c33da6ea4be5d0826df097bdc7e919c9fd6642e7d59fe3d45a97d9009fa  guix-build-56e79fe683d3/output/x86_64-apple-darwin/SHA256SUMS.part\r\n2f9faa88fa0025b9bfade83177b1f50833dc6c3be1ef26c4d5881aa165bcc537  guix-build-56e79fe683d3/output/x86_64-apple-darwin/bitcoin-56e79fe683d3-x86_64-apple-darwin-unsigned.dmg\r\nfdfe560968c85500dc886d4e12b851cd27a76de860b8cbf1fb6aac95ccd0582e  guix-build-56e79fe683d3/output/x86_64-apple-darwin/bitcoin-56e79fe683d3-x86_64-apple-darwin-unsigned.tar.gz\r\nc3c75560befd72a9f13f5626ddf39c63ad25fb9753a4d941e48830b7e06f143e  guix-build-56e79fe683d3/output/x86_64-apple-darwin/bitcoin-56e79fe683d3-x86_64-apple-darwin.tar.gz\r\n38100946ec1469fdd31aa8ea9e471b317dc278c298c106289c119016c2c0caa0  guix-build-56e79fe683d3/output/x86_64-linux-gnu/SHA256SUMS.part\r\n67890771aad89dc0d20b8dcdc6b29bd838ace310e8bcbbc0d16d7afc87d3a474  guix-build-56e79fe683d3/output/x86_64-linux-gnu/bitcoin-56e79fe683d3-x86_64-linux-gnu-debug.tar.gz\r\na9772b40c8b9d3c1a0bf9c9db2a60050415bf6a9bd4a19cfd8a038f4a1e712e3  guix-build-56e79fe683d3/output/x86_64-linux-gnu/bitcoin-56e79fe683d3-x86_64-linux-gnu.tar.gz\r\n01da0561f2c3a268c28615b1573dfdecb6346bf3f8eba7a052488191234ac1d6  guix-build-56e79fe683d3/output/x86_64-w64-mingw32/SHA256SUMS.part\r\n71324ac0f6fc8163e41031b2fd2d38d2e15bfd5ef4efe4cb45d7974fad474394  guix-build-56e79fe683d3/output/x86_64-w64-mingw32/bitcoin-56e79fe683d3-win64-debug.zip\r\n219b58281d3c79b2ed7e9085b1e15d7e021fd3899ef07a6ad747058b43d64443  guix-build-56e79fe683d3/output/x86_64-w64-mingw32/bitcoin-56e79fe683d3-win64-setup-unsigned.exe\r\nfe838d32587c2f942fcd9f9a0b3735611b686a867e2d2040cf3a8aa6a43d09fe  guix-build-56e79fe683d3/output/x86_64-w64-mingw32/bitcoin-56e79fe683d3-win64-unsigned.tar.gz\r\n13b537217a13293b93afd7c588b3733955c3188f79a3249b363fb4e885b74b32  guix-build-56e79fe683d3/output/x86_64-w64-mingw32/bitcoin-56e79fe683d3-win64.zip\r\n```",
          "user": {
            "login": "fanquake",
            "id": 863730,
            "node_id": "MDQ6VXNlcjg2MzczMA==",
            "avatar_url": "https://avatars.githubusercontent.com/u/863730?v=4",
            "gravatar_id": "",
            "url": "https://api.github.com/users/fanquake",
            "html_url": "https://github.com/fanquake",
            "followers_url": "https://api.github.com/users/fanquake/followers",
            "following_url": "https://api.github.com/users/fanquake/following%7B/other_user%7D",
            "gists_url": "https://api.github.com/users/fanquake/gists%7B/gist_id%7D",
            "starred_url": "https://api.github.com/users/fanquake/starred%7B/owner%7D%7B/repo%7D",
            "subscriptions_url": "https://api.github.com/users/fanquake/subscriptions",
            "organizations_url": "https://api.github.com/users/fanquake/orgs",
            "repos_url": "https://api.github.com/users/fanquake/repos",
            "events_url": "https://api.github.com/users/fanquake/events%7B/privacy%7D",
            "received_events_url": "https://api.github.com/users/fanquake/received_events",
            "type": "User",
            "site_admin": false
          },
          "labels": [
            {
              "id": 61889416,
              "node_id": "MDU6TGFiZWw2MTg4OTQxNg==",
              "url": "https://api.github.com/repos/bitcoin/bitcoin/labels/Build%20system",
              "name": "Build system",
              "color": "5319e7",
              "default": false
            }
          ],
          "assignees": [],
          "author_association": "MEMBER",
          "milestone": {
            "url": "https://api.github.com/repos/bitcoin/bitcoin/milestones/54",
            "html_url": "https://github.com/bitcoin/bitcoin/milestone/54",
            "labels_url": "https://api.github.com/repos/bitcoin/bitcoin/milestones/54/labels",
            "id": 7150037,
            "node_id": "MI_kwDOABII584AbRnV",
            "number": 54,
            "state": "closed",
            "title": "24.0",
            "description": "",
            "creator": {
              "login": "laanwj",
              "id": 126646,
              "node_id": "MDQ6VXNlcjEyNjY0Ng==",
              "avatar_url": "https://avatars.githubusercontent.com/u/126646?v=4",
              "gravatar_id": "",
              "url": "https://api.github.com/users/laanwj",
              "html_url": "https://github.com/laanwj",
              "followers_url": "https://api.github.com/users/laanwj/followers",
              "following_url": "https://api.github.com/users/laanwj/following%7B/other_user%7D",
              "gists_url": "https://api.github.com/users/laanwj/gists%7B/gist_id%7D",
              "starred_url": "https://api.github.com/users/laanwj/starred%7B/owner%7D%7B/repo%7D",
              "subscriptions_url": "https://api.github.com/users/laanwj/subscriptions",
              "organizations_url": "https://api.github.com/users/laanwj/orgs",
              "repos_url": "https://api.github.com/users/laanwj/repos",
              "events_url": "https://api.github.com/users/laanwj/events%7B/privacy%7D",
              "received_events_url": "https://api.github.com/users/laanwj/received_events",
              "type": "User",
              "site_admin": false
            },
            "open_issues": 0,
            "closed_issues": 159,
            "created_at": "2021-09-14T08:27:02Z",
            "updated_at": "2022-11-29T15:44:44Z",
            "closed_at": "2022-11-29T15:44:44Z"
          },
          "locked": false,
          "comments": 11,
          "pull_request": {
            "url": "https://api.github.com/repos/bitcoin/bitcoin/pulls/25861",
            "html_url": "https://github.com/bitcoin/bitcoin/pull/25861",
            "diff_url": "https://github.com/bitcoin/bitcoin/pull/25861.diff",
            "patch_url": "https://github.com/bitcoin/bitcoin/pull/25861.patch"
          },
          "closed_at": "2022-09-04T17:23:09Z",
          "created_at": "2022-08-17T14:42:10Z",
          "updated_at": "2022-11-09T16:29:18Z"
        },
        "type": "issue"
      }
    },
    {
      "event": "commented",
      "id": 1310912510,
      "node_id": "IC_kwDOABII585OIu_-",
      "url": "https://api.github.com/repos/bitcoin/bitcoin/issues/comments/1310912510",
      "actor": {
        "login": "jarolrod",
        "id": 23396902,
        "node_id": "MDQ6VXNlcjIzMzk2OTAy",
        "avatar_url": "https://avatars.githubusercontent.com/u/23396902?v=4",
        "gravatar_id": "",
        "url": "https://api.github.com/users/jarolrod",
        "html_url": "https://github.com/jarolrod",
        "followers_url": "https://api.github.com/users/jarolrod/followers",
        "following_url": "https://api.github.com/users/jarolrod/following%7B/other_user%7D",
        "gists_url": "https://api.github.com/users/jarolrod/gists%7B/gist_id%7D",
        "starred_url": "https://api.github.com/users/jarolrod/starred%7B/owner%7D%7B/repo%7D",
        "subscriptions_url": "https://api.github.com/users/jarolrod/subscriptions",
        "organizations_url": "https://api.github.com/users/jarolrod/orgs",
        "repos_url": "https://api.github.com/users/jarolrod/repos",
        "events_url": "https://api.github.com/users/jarolrod/events%7B/privacy%7D",
        "received_events_url": "https://api.github.com/users/jarolrod/received_events",
        "type": "User",
        "site_admin": false
      },
      "commit_id": null,
      "commit_url": null,
      "created_at": "2022-11-10T21:27:42Z",
      "updated_at": "2022-11-11T19:25:35Z",
      "author_association": "MEMBER",
      "body": "GUIX hashes\r\n\r\nx86 (not really relevant for this pr):\r\n```\r\na09d79d83f14b91c16da52019a5be089923848cfafe236cb75ecb6f1817d1386  guix-build-0f4583e5c114/output/aarch64-linux-gnu/SHA256SUMS.part\r\nbdad547936b51c7708ef6cb452874bed3da6054f135f211f018ec8c42e47c433  guix-build-0f4583e5c114/output/aarch64-linux-gnu/bitcoin-0f4583e5c114-aarch64-linux-gnu-debug.tar.gz\r\n5ae9c7e67203a8363ed91dea91676e0f03ba5a26eefbea185c0a8b37ae8f8f67  guix-build-0f4583e5c114/output/aarch64-linux-gnu/bitcoin-0f4583e5c114-aarch64-linux-gnu.tar.gz\r\n8ad29419253e0352e5c389544042cdd59d38121388979af921d64fe0e33593c6  guix-build-0f4583e5c114/output/arm-linux-gnueabihf/SHA256SUMS.part\r\n82b059f9534eec57607354445f7ae1f1c3156f87a8a12a6d42051e25edf120d5  guix-build-0f4583e5c114/output/arm-linux-gnueabihf/bitcoin-0f4583e5c114-arm-linux-gnueabihf-debug.tar.gz\r\n7f5486e2a16f9438178afaa7b44d1d8429bf3a295a6cfd291e55352a3db3e41f  guix-build-0f4583e5c114/output/arm-linux-gnueabihf/bitcoin-0f4583e5c114-arm-linux-gnueabihf.tar.gz\r\nd693e2d9bd66c6171fabcc79aa402219c844e86e1671a6b63d2e99c4eb85d523  guix-build-0f4583e5c114/output/arm64-apple-darwin/SHA256SUMS.part\r\n1bd00c46420f246645e36972c7472ef6f2cd7728a6e440de4a9766e59d263b48  guix-build-0f4583e5c114/output/arm64-apple-darwin/bitcoin-0f4583e5c114-arm64-apple-darwin-unsigned.dmg\r\nd315a624091da96f3aef9aff869959018333578963f937695f07ab0840d538c0  guix-build-0f4583e5c114/output/arm64-apple-darwin/bitcoin-0f4583e5c114-arm64-apple-darwin-unsigned.tar.gz\r\nf2554441d2cedd6d0af6ece9ffe232c7abf885d8a7a996437dad7618a23e8258  guix-build-0f4583e5c114/output/arm64-apple-darwin/bitcoin-0f4583e5c114-arm64-apple-darwin.tar.gz\r\n9c787047070b1fe8c2beead22093dc73481e7c921993d95fb0e4ce8739f8e515  guix-build-0f4583e5c114/output/dist-archive/bitcoin-0f4583e5c114.tar.gz\r\n17b4cc48b486da56d1764d1fe6fdc45cae1fa835613c4305e3590a8cb826b17b  guix-build-0f4583e5c114/output/powerpc64-linux-gnu/SHA256SUMS.part\r\n4c037dbac2939d782e1d69db8132d31ef200daa561f08ee576ef03664838ce3c  guix-build-0f4583e5c114/output/powerpc64-linux-gnu/bitcoin-0f4583e5c114-powerpc64-linux-gnu-debug.tar.gz\r\nc684448c34f4f6310eb8ded94ba2634122a997131218caf8625ea79c4770ead9  guix-build-0f4583e5c114/output/powerpc64-linux-gnu/bitcoin-0f4583e5c114-powerpc64-linux-gnu.tar.gz\r\nd3a735beede8e372c877b24d7edf68bdd56778afce26b71ee0a63cc1c78989bd  guix-build-0f4583e5c114/output/powerpc64le-linux-gnu/SHA256SUMS.part\r\n4b39f35465f222fca40a839e0989583ab000b2e495743e2962aa62b29bfd3072  guix-build-0f4583e5c114/output/powerpc64le-linux-gnu/bitcoin-0f4583e5c114-powerpc64le-linux-gnu-debug.tar.gz\r\n7e625a24699cb391345dfe01d3ee22d8da67753d4913d988d012f403ae2398a1  guix-build-0f4583e5c114/output/powerpc64le-linux-gnu/bitcoin-0f4583e5c114-powerpc64le-linux-gnu.tar.gz\r\ndf12ad5fae818c517f4ec716e8d7b2c4afde549367bd5d290fa245622ad9ef9f  guix-build-0f4583e5c114/output/riscv64-linux-gnu/SHA256SUMS.part\r\n8e368d8296b30b0986eeb1a74b3adbfd82405614835a4f8247680197632ae8d6  guix-build-0f4583e5c114/output/riscv64-linux-gnu/bitcoin-0f4583e5c114-riscv64-linux-gnu-debug.tar.gz\r\n5564ce5d614359aef7f3983b3c059bffd73e4990ce6985d75202cce0146d3742  guix-build-0f4583e5c114/output/riscv64-linux-gnu/bitcoin-0f4583e5c114-riscv64-linux-gnu.tar.gz\r\n827afe69ad5f1bade4dbb6986a6b65fca9bed421af64032f5550fe2768afb248  guix-build-0f4583e5c114/output/x86_64-apple-darwin/SHA256SUMS.part\r\n3eeec021ae13b1467ca8d2a8ee026876ce226925148e65de801b4ae7acc72e19  guix-build-0f4583e5c114/output/x86_64-apple-darwin/bitcoin-0f4583e5c114-x86_64-apple-darwin-unsigned.dmg\r\n439eed38bedf352c97d9eb62341589e4173b0cfbc205b338b9e5a6c171239546  guix-build-0f4583e5c114/output/x86_64-apple-darwin/bitcoin-0f4583e5c114-x86_64-apple-darwin-unsigned.tar.gz\r\nf9a8bfbf60683bac6b7ad8dcb7ae0afea92b634d4d0dbf6102bb8e44aa13c832  guix-build-0f4583e5c114/output/x86_64-apple-darwin/bitcoin-0f4583e5c114-x86_64-apple-darwin.tar.gz\r\n034a2a502323bb7014ad9776d206d6d5deace4766f9aa7cf14d447f4cfd36000  guix-build-0f4583e5c114/output/x86_64-linux-gnu/SHA256SUMS.part\r\ne6ea6090fb1f83ea2e5f6d8517a2573026059f2847a629a0af159252c9553b13  guix-build-0f4583e5c114/output/x86_64-linux-gnu/bitcoin-0f4583e5c114-x86_64-linux-gnu-debug.tar.gz\r\n6103ce9acca0622ae672e5050fb147ee40d4f864accbd717522503aa2c8f6a38  guix-build-0f4583e5c114/output/x86_64-linux-gnu/bitcoin-0f4583e5c114-x86_64-linux-gnu.tar.gz\r\nd6c8c519a32697cbc08486a9d415ee43f0a32a005f44d7b731f1d4d0f779e0d9  guix-build-0f4583e5c114/output/x86_64-w64-mingw32/SHA256SUMS.part\r\n6178f2daee93e987e90627258865eb2fd712acbec0d408b54bf6edc20afd8f96  guix-build-0f4583e5c114/output/x86_64-w64-mingw32/bitcoin-0f4583e5c114-win64-debug.zip\r\ne3e7cd45b6ed6e8a589efe2436e151120af0c1146772ce295c06300289e0b758  guix-build-0f4583e5c114/output/x86_64-w64-mingw32/bitcoin-0f4583e5c114-win64-setup-unsigned.exe\r\n1da1569b0140ad917b938ce8b087d3d8990331df3042d62a36d1366d9e5f0f42  guix-build-0f4583e5c114/output/x86_64-w64-mingw32/bitcoin-0f4583e5c114-win64-unsigned.tar.gz\r\n42ca93f1ba50e5a021063c1bdfd4ccbd747615356794cfab2c73d26e81498fc3  guix-build-0f4583e5c114/output/x86_64-w64-mingw32/bitcoin-0f4583e5c114-win64.zip\r\n```\r\n\r\narm64 (building):\r\n```\r\n9fd4601412738e9135e2732cfc8af911c54af8a1349c2af568b4748dd1907c3d  guix-build-0f4583e5c114/output/aarch64-linux-gnu/SHA256SUMS.part\r\n36df2797cd7845ccb4f416b52f9dbd4cc7dd0242782c3143206d0c15239e8b02  guix-build-0f4583e5c114/output/aarch64-linux-gnu/bitcoin-0f4583e5c114-aarch64-linux-gnu-debug.tar.gz\r\n6aa022173b23827ec2690823178b9d2d06108e159a9074e1a54a7d1a74b6c5db  guix-build-0f4583e5c114/output/aarch64-linux-gnu/bitcoin-0f4583e5c114-aarch64-linux-gnu.tar.gz\r\n1e98b6b5e2b58387106eb8f46367c4a42d03d6a881307ed115e7b6bfa1b2785a  guix-build-0f4583e5c114/output/arm-linux-gnueabihf/SHA256SUMS.part\r\nb9ecbfbec1ee941acb7f19fb2ba02bfa24ef5feb0e072a9a8c39263f2cdfb172  guix-build-0f4583e5c114/output/arm-linux-gnueabihf/bitcoin-0f4583e5c114-arm-linux-gnueabihf-debug.tar.gz\r\n2834aa08f19c03e88e22009e3f860b470fe5942c42ae08041b8e79e28673154b  guix-build-0f4583e5c114/output/arm-linux-gnueabihf/bitcoin-0f4583e5c114-arm-linux-gnueabihf.tar.gz\r\n9c787047070b1fe8c2beead22093dc73481e7c921993d95fb0e4ce8739f8e515  guix-build-0f4583e5c114/output/dist-archive/bitcoin-0f4583e5c114.tar.gz\r\n1a82b19a5d07bccdead69b5d9fe9559e01a263b458ea48ff0a701ee9adf55a3c  guix-build-0f4583e5c114/output/powerpc64-linux-gnu/SHA256SUMS.part\r\n3482de0ff01839aa98ca61b3c8a18de4773dd70e2b306f094b210a6c83839289  guix-build-0f4583e5c114/output/powerpc64-linux-gnu/bitcoin-0f4583e5c114-powerpc64-linux-gnu-debug.tar.gz\r\n5bb8b7ab8740d6c4a49e8fe700f0305bcc7318eaffc0e3c967492f218774f371  guix-build-0f4583e5c114/output/powerpc64-linux-gnu/bitcoin-0f4583e5c114-powerpc64-linux-gnu.tar.gz\r\n5442e495049b386b8ec5bc50c06feb401fb263e25f0807aa58e7e8c091c42be7  guix-build-0f4583e5c114/output/powerpc64le-linux-gnu/SHA256SUMS.part\r\nd685b1449379a3a1be139f243917d9987169cbc9901c7658a12044d27ce2762d  guix-build-0f4583e5c114/output/powerpc64le-linux-gnu/bitcoin-0f4583e5c114-powerpc64le-linux-gnu-debug.tar.gz\r\n14edbaf4c93346460ecff72ca22285c433c7dea5f9ccaccb4b49730f95d2d264  guix-build-0f4583e5c114/output/powerpc64le-linux-gnu/bitcoin-0f4583e5c114-powerpc64le-linux-gnu.tar.gz\r\ndec22e0f59513c3697de3c6906deb355010af36836285ab306de1ea8e4b88ff3  guix-build-0f4583e5c114/output/riscv64-linux-gnu/SHA256SUMS.part\r\nd70b6b6d1a2950292e820898af8a79d850b415829bbb94db97b742f3ab7cc7d3  guix-build-0f4583e5c114/output/riscv64-linux-gnu/bitcoin-0f4583e5c114-riscv64-linux-gnu-debug.tar.gz\r\nb5fd33257a81efacc61946b544e5af1582c9729fa57641ff3625d34f0e785cfd  guix-build-0f4583e5c114/output/riscv64-linux-gnu/bitcoin-0f4583e5c114-riscv64-linux-gnu.tar.gz\r\n30b6668d9e84503d2e2113a87051d3c5baeae8ad6b3fa3df7509d447c8d5f341  guix-build-0f4583e5c114/output/x86_64-linux-gnu/SHA256SUMS.part\r\n33a6c5072328281872678fc0d709629f934fac05bdfb2e41cccf2ddd5724925b  guix-build-0f4583e5c114/output/x86_64-linux-gnu/bitcoin-0f4583e5c114-x86_64-linux-gnu-debug.tar.gz\r\nc1c2ec074a88c6f0202ab067bd126c217573d028b3b1eb538db100eb0e316b53  guix-build-0f4583e5c114/output/x86_64-linux-gnu/bitcoin-0f4583e5c114-x86_64-linux-gnu.tar.gz\r\n2689a7cce5d1fc6decbb5dfd1361db21adc1c485ee4c644cdebf403b1d533be6  guix-build-0f4583e5c114/output/x86_64-w64-mingw32/SHA256SUMS.part\r\n9d6259432febdc1be728db0088a0464fa844dc4ad20e7b752be6de312588a695  guix-build-0f4583e5c114/output/x86_64-w64-mingw32/bitcoin-0f4583e5c114-win64-debug.zip\r\ne3e7cd45b6ed6e8a589efe2436e151120af0c1146772ce295c06300289e0b758  guix-build-0f4583e5c114/output/x86_64-w64-mingw32/bitcoin-0f4583e5c114-win64-setup-unsigned.exe\r\n1da1569b0140ad917b938ce8b087d3d8990331df3042d62a36d1366d9e5f0f42  guix-build-0f4583e5c114/output/x86_64-w64-mingw32/bitcoin-0f4583e5c114-win64-unsigned.tar.gz\r\ncbd74726e5704f6007e2344422197a25b9872a3a5f525a1a0b5774c833fc7e78  guix-build-0f4583e5c114/output/x86_64-w64-mingw32/bitcoin-0f4583e5c114-win64.zip\r\n```",
      "user": {
        "login": "jarolrod",
        "id": 23396902,
        "node_id": "MDQ6VXNlcjIzMzk2OTAy",
        "avatar_url": "https://avatars.githubusercontent.com/u/23396902?v=4",
        "gravatar_id": "",
        "url": "https://api.github.com/users/jarolrod",
        "html_url": "https://github.com/jarolrod",
        "followers_url": "https://api.github.com/users/jarolrod/followers",
        "following_url": "https://api.github.com/users/jarolrod/following%7B/other_user%7D",
        "gists_url": "https://api.github.com/users/jarolrod/gists%7B/gist_id%7D",
        "starred_url": "https://api.github.com/users/jarolrod/starred%7B/owner%7D%7B/repo%7D",
        "subscriptions_url": "https://api.github.com/users/jarolrod/subscriptions",
        "organizations_url": "https://api.github.com/users/jarolrod/orgs",
        "repos_url": "https://api.github.com/users/jarolrod/repos",
        "events_url": "https://api.github.com/users/jarolrod/events%7B/privacy%7D",
        "received_events_url": "https://api.github.com/users/jarolrod/received_events",
        "type": "User",
        "site_admin": false
      },
      "html_url": "https://github.com/bitcoin/bitcoin/pull/26474#issuecomment-1310912510",
      "issue_url": "https://api.github.com/repos/bitcoin/bitcoin/issues/26474"
    },
    {
      "event": "reviewed",
      "id": 1177806579,
      "node_id": "PRR_kwDOABII585GM-bz",
      "url": null,
      "actor": null,
      "commit_id": "0f4583e5c114e13c3c937f1832ab0c39751cf38c",
      "commit_url": null,
      "created_at": null,
      "author_association": "MEMBER",
      "body": "ACK 0f4583e5c114e13c3c937f1832ab0c39751cf38c\r\n\r\ntested on aarch64 linux",
      "user": {
        "login": "jarolrod",
        "id": 23396902,
        "node_id": "MDQ6VXNlcjIzMzk2OTAy",
        "avatar_url": "https://avatars.githubusercontent.com/u/23396902?v=4",
        "gravatar_id": "",
        "url": "https://api.github.com/users/jarolrod",
        "html_url": "https://github.com/jarolrod",
        "followers_url": "https://api.github.com/users/jarolrod/followers",
        "following_url": "https://api.github.com/users/jarolrod/following%7B/other_user%7D",
        "gists_url": "https://api.github.com/users/jarolrod/gists%7B/gist_id%7D",
        "starred_url": "https://api.github.com/users/jarolrod/starred%7B/owner%7D%7B/repo%7D",
        "subscriptions_url": "https://api.github.com/users/jarolrod/subscriptions",
        "organizations_url": "https://api.github.com/users/jarolrod/orgs",
        "repos_url": "https://api.github.com/users/jarolrod/repos",
        "events_url": "https://api.github.com/users/jarolrod/events%7B/privacy%7D",
        "received_events_url": "https://api.github.com/users/jarolrod/received_events",
        "type": "User",
        "site_admin": false
      },
      "html_url": "https://github.com/bitcoin/bitcoin/pull/26474#pullrequestreview-1177806579",
      "submitted_at": "2022-11-11T19:53:03Z",
      "state": "APPROVED",
      "pull_request_url": "https://api.github.com/repos/bitcoin/bitcoin/pulls/26474"
    },
    {
      "event": "merged",
      "id": 7802777412,
      "node_id": "ME_lADOABII585V4IRQzwAAAAHRFO9E",
      "url": "https://api.github.com/repos/bitcoin/bitcoin/issues/events/7802777412",
      "actor": {
        "login": "fanquake",
        "id": 863730,
        "node_id": "MDQ6VXNlcjg2MzczMA==",
        "avatar_url": "https://avatars.githubusercontent.com/u/863730?v=4",
        "gravatar_id": "",
        "url": "https://api.github.com/users/fanquake",
        "html_url": "https://github.com/fanquake",
        "followers_url": "https://api.github.com/users/fanquake/followers",
        "following_url": "https://api.github.com/users/fanquake/following%7B/other_user%7D",
        "gists_url": "https://api.github.com/users/fanquake/gists%7B/gist_id%7D",
        "starred_url": "https://api.github.com/users/fanquake/starred%7B/owner%7D%7B/repo%7D",
        "subscriptions_url": "https://api.github.com/users/fanquake/subscriptions",
        "organizations_url": "https://api.github.com/users/fanquake/orgs",
        "repos_url": "https://api.github.com/users/fanquake/repos",
        "events_url": "https://api.github.com/users/fanquake/events%7B/privacy%7D",
        "received_events_url": "https://api.github.com/users/fanquake/received_events",
        "type": "User",
        "site_admin": false
      },
      "commit_id": "3e0cf5e82ba34f647a906fca8c7f2b849ddee41d",
      "commit_url": "https://api.github.com/repos/bitcoin/bitcoin/commits/3e0cf5e82ba34f647a906fca8c7f2b849ddee41d",
      "created_at": "2022-11-14T10:43:33Z"
    },
    {
      "event": "closed",
      "id": 7802777454,
      "node_id": "CE_lADOABII585V4IRQzwAAAAHRFO9u",
      "url": "https://api.github.com/repos/bitcoin/bitcoin/issues/events/7802777454",
      "actor": {
        "login": "fanquake",
        "id": 863730,
        "node_id": "MDQ6VXNlcjg2MzczMA==",
        "avatar_url": "https://avatars.githubusercontent.com/u/863730?v=4",
        "gravatar_id": "",
        "url": "https://api.github.com/users/fanquake",
        "html_url": "https://github.com/fanquake",
        "followers_url": "https://api.github.com/users/fanquake/followers",
        "following_url": "https://api.github.com/users/fanquake/following%7B/other_user%7D",
        "gists_url": "https://api.github.com/users/fanquake/gists%7B/gist_id%7D",
        "starred_url": "https://api.github.com/users/fanquake/starred%7B/owner%7D%7B/repo%7D",
        "subscriptions_url": "https://api.github.com/users/fanquake/subscriptions",
        "organizations_url": "https://api.github.com/users/fanquake/orgs",
        "repos_url": "https://api.github.com/users/fanquake/repos",
        "events_url": "https://api.github.com/users/fanquake/events%7B/privacy%7D",
        "received_events_url": "https://api.github.com/users/fanquake/received_events",
        "type": "User",
        "site_admin": false
      },
      "commit_id": null,
      "commit_url": null,
      "created_at": "2022-11-14T10:43:33Z"
    },
    {
      "event": "head_ref_deleted",
      "id": 7802783895,
      "node_id": "HRDE_lADOABII585V4IRQzwAAAAHRFQiX",
      "url": "https://api.github.com/repos/bitcoin/bitcoin/issues/events/7802783895",
      "actor": {
        "login": "fanquake",
        "id": 863730,
        "node_id": "MDQ6VXNlcjg2MzczMA==",
        "avatar_url": "https://avatars.githubusercontent.com/u/863730?v=4",
        "gravatar_id": "",
        "url": "https://api.github.com/users/fanquake",
        "html_url": "https://github.com/fanquake",
        "followers_url": "https://api.github.com/users/fanquake/followers",
        "following_url": "https://api.github.com/users/fanquake/following%7B/other_user%7D",
        "gists_url": "https://api.github.com/users/fanquake/gists%7B/gist_id%7D",
        "starred_url": "https://api.github.com/users/fanquake/starred%7B/owner%7D%7B/repo%7D",
        "subscriptions_url": "https://api.github.com/users/fanquake/subscriptions",
        "organizations_url": "https://api.github.com/users/fanquake/orgs",
        "repos_url": "https://api.github.com/users/fanquake/repos",
        "events_url": "https://api.github.com/users/fanquake/events%7B/privacy%7D",
        "received_events_url": "https://api.github.com/users/fanquake/received_events",
        "type": "User",
        "site_admin": false
      },
      "commit_id": null,
      "commit_url": null,
      "created_at": "2022-11-14T10:44:21Z"
    },
    {
      "event": "cross-referenced",
      "id": null,
      "node_id": null,
      "url": null,
      "actor": {
        "login": "fanquake",
        "id": 863730,
        "node_id": "MDQ6VXNlcjg2MzczMA==",
        "avatar_url": "https://avatars.githubusercontent.com/u/863730?v=4",
        "gravatar_id": "",
        "url": "https://api.github.com/users/fanquake",
        "html_url": "https://github.com/fanquake",
        "followers_url": "https://api.github.com/users/fanquake/followers",
        "following_url": "https://api.github.com/users/fanquake/following%7B/other_user%7D",
        "gists_url": "https://api.github.com/users/fanquake/gists%7B/gist_id%7D",
        "starred_url": "https://api.github.com/users/fanquake/starred%7B/owner%7D%7B/repo%7D",
        "subscriptions_url": "https://api.github.com/users/fanquake/subscriptions",
        "organizations_url": "https://api.github.com/users/fanquake/orgs",
        "repos_url": "https://api.github.com/users/fanquake/repos",
        "events_url": "https://api.github.com/users/fanquake/events%7B/privacy%7D",
        "received_events_url": "https://api.github.com/users/fanquake/received_events",
        "type": "User",
        "site_admin": false
      },
      "commit_id": null,
      "commit_url": null,
      "created_at": "2022-11-21T11:06:36Z",
      "updated_at": "2022-11-21T11:06:36Z",
      "source": {
        "issue": {
          "id": 1457746918,
          "node_id": "PR_kwDOABII585DWJFj",
          "url": "https://api.github.com/repos/bitcoin/bitcoin/issues/26543",
          "repository_url": "https://api.github.com/repos/bitcoin/bitcoin",
          "labels_url": "https://api.github.com/repos/bitcoin/bitcoin/issues/26543/labels%7B/name%7D",
          "comments_url": "https://api.github.com/repos/bitcoin/bitcoin/issues/26543/comments",
          "events_url": "https://api.github.com/repos/bitcoin/bitcoin/issues/26543/events",
          "html_url": "https://github.com/bitcoin/bitcoin/pull/26543",
          "number": 26543,
          "state": "closed",
          "state_reason": null,
          "title": "[23.x] Bump version to 23.1rc2 & add release notes",
          "body": "Bump the version to 23.1rc2.\r\nRegenerate the man pages.\r\nAdd historical 23.0 release notes.\r\nAdd WIP 23.1 release notes.\r\n\r\nChanges since rc1:\r\n* https://github.com/bitcoin/bitcoin/pull/26474\r\n* https://github.com/bitcoin/bitcoin/pull/26522",
          "user": {
            "login": "fanquake",
            "id": 863730,
            "node_id": "MDQ6VXNlcjg2MzczMA==",
            "avatar_url": "https://avatars.githubusercontent.com/u/863730?v=4",
            "gravatar_id": "",
            "url": "https://api.github.com/users/fanquake",
            "html_url": "https://github.com/fanquake",
            "followers_url": "https://api.github.com/users/fanquake/followers",
            "following_url": "https://api.github.com/users/fanquake/following%7B/other_user%7D",
            "gists_url": "https://api.github.com/users/fanquake/gists%7B/gist_id%7D",
            "starred_url": "https://api.github.com/users/fanquake/starred%7B/owner%7D%7B/repo%7D",
            "subscriptions_url": "https://api.github.com/users/fanquake/subscriptions",
            "organizations_url": "https://api.github.com/users/fanquake/orgs",
            "repos_url": "https://api.github.com/users/fanquake/repos",
            "events_url": "https://api.github.com/users/fanquake/events%7B/privacy%7D",
            "received_events_url": "https://api.github.com/users/fanquake/received_events",
            "type": "User",
            "site_admin": false
          },
          "labels": [
            {
              "id": 390024790,
              "node_id": "MDU6TGFiZWwzOTAwMjQ3OTA=",
              "url": "https://api.github.com/repos/bitcoin/bitcoin/labels/Backport",
              "name": "Backport",
              "description": "",
              "color": "dd7200",
              "default": false
            }
          ],
          "assignees": [],
          "author_association": "MEMBER",
          "milestone": {
            "url": "https://api.github.com/repos/bitcoin/bitcoin/milestones/57",
            "html_url": "https://github.com/bitcoin/bitcoin/milestone/57",
            "labels_url": "https://api.github.com/repos/bitcoin/bitcoin/milestones/57/labels",
            "id": 7754034,
            "node_id": "MI_kwDOABII584AdlEy",
            "number": 57,
            "state": "closed",
            "title": "23.1",
            "description": "",
            "creator": {
              "login": "laanwj",
              "id": 126646,
              "node_id": "MDQ6VXNlcjEyNjY0Ng==",
              "avatar_url": "https://avatars.githubusercontent.com/u/126646?v=4",
              "gravatar_id": "",
              "url": "https://api.github.com/users/laanwj",
              "html_url": "https://github.com/laanwj",
              "followers_url": "https://api.github.com/users/laanwj/followers",
              "following_url": "https://api.github.com/users/laanwj/following%7B/other_user%7D",
              "gists_url": "https://api.github.com/users/laanwj/gists%7B/gist_id%7D",
              "starred_url": "https://api.github.com/users/laanwj/starred%7B/owner%7D%7B/repo%7D",
              "subscriptions_url": "https://api.github.com/users/laanwj/subscriptions",
              "organizations_url": "https://api.github.com/users/laanwj/orgs",
              "repos_url": "https://api.github.com/users/laanwj/repos",
              "events_url": "https://api.github.com/users/laanwj/events%7B/privacy%7D",
              "received_events_url": "https://api.github.com/users/laanwj/received_events",
              "type": "User",
              "site_admin": false
            },
            "open_issues": 0,
            "closed_issues": 16,
            "created_at": "2022-03-10T11:27:28Z",
            "updated_at": "2023-01-11T16:43:36Z",
            "closed_at": "2023-01-11T16:43:36Z"
          },
          "locked": false,
          "comments": 1,
          "pull_request": {
            "url": "https://api.github.com/repos/bitcoin/bitcoin/pulls/26543",
            "html_url": "https://github.com/bitcoin/bitcoin/pull/26543",
            "diff_url": "https://github.com/bitcoin/bitcoin/pull/26543.diff",
            "patch_url": "https://github.com/bitcoin/bitcoin/pull/26543.patch"
          },
          "closed_at": "2022-11-22T09:37:06Z",
          "created_at": "2022-11-21T11:06:36Z",
          "updated_at": "2022-11-22T09:37:32Z"
        },
        "type": "issue"
      }
    },
    {
      "event": "referenced",
      "id": 7865888860,
      "node_id": "REFE_lADOABII585V4IRQzwAAAAHU1_Bc",
      "url": "https://api.github.com/repos/bitcoin/bitcoin/issues/events/7865888860",
      "actor": {
        "login": "fanquake",
        "id": 863730,
        "node_id": "MDQ6VXNlcjg2MzczMA==",
        "avatar_url": "https://avatars.githubusercontent.com/u/863730?v=4",
        "gravatar_id": "",
        "url": "https://api.github.com/users/fanquake",
        "html_url": "https://github.com/fanquake",
        "followers_url": "https://api.github.com/users/fanquake/followers",
        "following_url": "https://api.github.com/users/fanquake/following%7B/other_user%7D",
        "gists_url": "https://api.github.com/users/fanquake/gists%7B/gist_id%7D",
        "starred_url": "https://api.github.com/users/fanquake/starred%7B/owner%7D%7B/repo%7D",
        "subscriptions_url": "https://api.github.com/users/fanquake/subscriptions",
        "organizations_url": "https://api.github.com/users/fanquake/orgs",
        "repos_url": "https://api.github.com/users/fanquake/repos",
        "events_url": "https://api.github.com/users/fanquake/events%7B/privacy%7D",
        "received_events_url": "https://api.github.com/users/fanquake/received_events",
        "type": "User",
        "site_admin": false
      },
      "commit_id": "ea9aa3f02f7005a35a3b0e6c31d00513232948d8",
      "commit_url": "https://api.github.com/repos/bitcoin/bitcoin/commits/ea9aa3f02f7005a35a3b0e6c31d00513232948d8",
      "created_at": "2022-11-22T09:37:05Z"
    }
  ],
  "comments": []
}