{
  "type": "pull",
  "pull": {
    "url": "https://api.github.com/repos/bitcoin/bitcoin/pulls/26472",
    "id": 1114808866,
    "node_id": "PR_kwDOABII585CcqIi",
    "html_url": "https://github.com/bitcoin/bitcoin/pull/26472",
    "diff_url": "https://github.com/bitcoin/bitcoin/pull/26472.diff",
    "patch_url": "https://github.com/bitcoin/bitcoin/pull/26472.patch",
    "issue_url": "https://api.github.com/repos/bitcoin/bitcoin/issues/26472",
    "commits_url": "https://api.github.com/repos/bitcoin/bitcoin/pulls/26472/commits",
    "review_comments_url": "https://api.github.com/repos/bitcoin/bitcoin/pulls/26472/comments",
    "review_comment_url": "https://api.github.com/repos/bitcoin/bitcoin/pulls/comments%7B/number%7D",
    "comments_url": "https://api.github.com/repos/bitcoin/bitcoin/issues/26472/comments",
    "statuses_url": "https://api.github.com/repos/bitcoin/bitcoin/statuses/887d85e43d136dbfc2428f873ced3de50076bbd0",
    "number": 26472,
    "state": "closed",
    "locked": false,
    "maintainer_can_modify": false,
    "title": "test: add missing bech32m / BIP86 test-cases to wallet_descriptor.py",
    "user": {
      "login": "theStack",
      "id": 91535,
      "node_id": "MDQ6VXNlcjkxNTM1",
      "avatar_url": "https://avatars.githubusercontent.com/u/91535?v=4",
      "gravatar_id": "",
      "url": "https://api.github.com/users/theStack",
      "html_url": "https://github.com/theStack",
      "followers_url": "https://api.github.com/users/theStack/followers",
      "following_url": "https://api.github.com/users/theStack/following%7B/other_user%7D",
      "gists_url": "https://api.github.com/users/theStack/gists%7B/gist_id%7D",
      "starred_url": "https://api.github.com/users/theStack/starred%7B/owner%7D%7B/repo%7D",
      "subscriptions_url": "https://api.github.com/users/theStack/subscriptions",
      "organizations_url": "https://api.github.com/users/theStack/orgs",
      "repos_url": "https://api.github.com/users/theStack/repos",
      "events_url": "https://api.github.com/users/theStack/events%7B/privacy%7D",
      "received_events_url": "https://api.github.com/users/theStack/received_events",
      "type": "User",
      "site_admin": false
    },
    "body": "This small PR adds missing \"bech32m\" address type / BIP86 checks w.r.t. to the `getnewaddress`/`getrawchangeaddress` RPC and descriptor export functionality to the functional test `wallet_descriptor.py`.",
    "labels": [
      {
        "id": 62963516,
        "node_id": "MDU6TGFiZWw2Mjk2MzUxNg==",
        "url": "https://api.github.com/repos/bitcoin/bitcoin/labels/Tests",
        "name": "Tests",
        "color": "d4c5f9",
        "default": false
      }
    ],
    "created_at": "2022-11-08T17:51:38Z",
    "updated_at": "2022-11-09T15:53:14Z",
    "closed_at": "2022-11-09T14:35:53Z",
    "mergeable_state": "unknown",
    "merged_at": "2022-11-09T14:35:53Z",
    "merge_commit_sha": "9dce30194bc07463d634072251a8bf83e1b10ff9",
    "assignees": [],
    "requested_reviewers": [],
    "requested_teams": [],
    "head": {
      "label": "theStack:202211-test-add_missing_bech32m_bip86_tests_to_wallet_descriptor_py",
      "ref": "202211-test-add_missing_bech32m_bip86_tests_to_wallet_descriptor_py",
      "sha": "887d85e43d136dbfc2428f873ced3de50076bbd0",
      "user": {
        "login": "theStack",
        "id": 91535,
        "node_id": "MDQ6VXNlcjkxNTM1",
        "avatar_url": "https://avatars.githubusercontent.com/u/91535?v=4",
        "gravatar_id": "",
        "url": "https://api.github.com/users/theStack",
        "html_url": "https://github.com/theStack",
        "followers_url": "https://api.github.com/users/theStack/followers",
        "following_url": "https://api.github.com/users/theStack/following%7B/other_user%7D",
        "gists_url": "https://api.github.com/users/theStack/gists%7B/gist_id%7D",
        "starred_url": "https://api.github.com/users/theStack/starred%7B/owner%7D%7B/repo%7D",
        "subscriptions_url": "https://api.github.com/users/theStack/subscriptions",
        "organizations_url": "https://api.github.com/users/theStack/orgs",
        "repos_url": "https://api.github.com/users/theStack/repos",
        "events_url": "https://api.github.com/users/theStack/events%7B/privacy%7D",
        "received_events_url": "https://api.github.com/users/theStack/received_events",
        "type": "User",
        "site_admin": false
      },
      "repo": {
        "id": 204970720,
        "node_id": "MDEwOlJlcG9zaXRvcnkyMDQ5NzA3MjA=",
        "name": "bitcoin",
        "full_name": "theStack/bitcoin",
        "owner": {
          "login": "theStack",
          "id": 91535,
          "node_id": "MDQ6VXNlcjkxNTM1",
          "avatar_url": "https://avatars.githubusercontent.com/u/91535?v=4",
          "gravatar_id": "",
          "url": "https://api.github.com/users/theStack",
          "html_url": "https://github.com/theStack",
          "followers_url": "https://api.github.com/users/theStack/followers",
          "following_url": "https://api.github.com/users/theStack/following%7B/other_user%7D",
          "gists_url": "https://api.github.com/users/theStack/gists%7B/gist_id%7D",
          "starred_url": "https://api.github.com/users/theStack/starred%7B/owner%7D%7B/repo%7D",
          "subscriptions_url": "https://api.github.com/users/theStack/subscriptions",
          "organizations_url": "https://api.github.com/users/theStack/orgs",
          "repos_url": "https://api.github.com/users/theStack/repos",
          "events_url": "https://api.github.com/users/theStack/events%7B/privacy%7D",
          "received_events_url": "https://api.github.com/users/theStack/received_events",
          "type": "User",
          "site_admin": false
        },
        "private": false,
        "html_url": "https://github.com/theStack/bitcoin",
        "description": "Bitcoin Core integration/staging tree",
        "fork": true,
        "url": "https://api.github.com/repos/theStack/bitcoin",
        "archive_url": "https://api.github.com/repos/theStack/bitcoin/%7Barchive_format%7D%7B/ref%7D",
        "assignees_url": "https://api.github.com/repos/theStack/bitcoin/assignees%7B/user%7D",
        "blobs_url": "https://api.github.com/repos/theStack/bitcoin/git/blobs%7B/sha%7D",
        "branches_url": "https://api.github.com/repos/theStack/bitcoin/branches%7B/branch%7D",
        "collaborators_url": "https://api.github.com/repos/theStack/bitcoin/collaborators%7B/collaborator%7D",
        "comments_url": "https://api.github.com/repos/theStack/bitcoin/comments%7B/number%7D",
        "commits_url": "https://api.github.com/repos/theStack/bitcoin/commits%7B/sha%7D",
        "compare_url": "https://api.github.com/repos/theStack/bitcoin/compare/%7Bbase%7D...%7Bhead%7D",
        "contents_url": "https://api.github.com/repos/theStack/bitcoin/contents/%7B+path%7D",
        "contributors_url": "https://api.github.com/repos/theStack/bitcoin/contributors",
        "deployments_url": "https://api.github.com/repos/theStack/bitcoin/deployments",
        "downloads_url": "https://api.github.com/repos/theStack/bitcoin/downloads",
        "events_url": "https://api.github.com/repos/theStack/bitcoin/events",
        "forks_url": "https://api.github.com/repos/theStack/bitcoin/forks",
        "git_commits_url": "https://api.github.com/repos/theStack/bitcoin/git/commits%7B/sha%7D",
        "git_refs_url": "https://api.github.com/repos/theStack/bitcoin/git/refs%7B/sha%7D",
        "git_tags_url": "https://api.github.com/repos/theStack/bitcoin/git/tags%7B/sha%7D",
        "git_url": "git://github.com/theStack/bitcoin.git",
        "issue_comment_url": "https://api.github.com/repos/theStack/bitcoin/issues/comments%7B/number%7D",
        "issue_events_url": "https://api.github.com/repos/theStack/bitcoin/issues/events%7B/number%7D",
        "issues_url": "https://api.github.com/repos/theStack/bitcoin/issues%7B/number%7D",
        "keys_url": "https://api.github.com/repos/theStack/bitcoin/keys%7B/key_id%7D",
        "labels_url": "https://api.github.com/repos/theStack/bitcoin/labels%7B/name%7D",
        "languages_url": "https://api.github.com/repos/theStack/bitcoin/languages",
        "merges_url": "https://api.github.com/repos/theStack/bitcoin/merges",
        "milestones_url": "https://api.github.com/repos/theStack/bitcoin/milestones%7B/number%7D",
        "notifications_url": "https://api.github.com/repos/theStack/bitcoin/notifications%7B?since,all,participating}",
        "pulls_url": "https://api.github.com/repos/theStack/bitcoin/pulls%7B/number%7D",
        "releases_url": "https://api.github.com/repos/theStack/bitcoin/releases%7B/id%7D",
        "ssh_url": "git@github.com:theStack/bitcoin.git",
        "stargazers_url": "https://api.github.com/repos/theStack/bitcoin/stargazers",
        "statuses_url": "https://api.github.com/repos/theStack/bitcoin/statuses/%7Bsha%7D",
        "subscribers_url": "https://api.github.com/repos/theStack/bitcoin/subscribers",
        "subscription_url": "https://api.github.com/repos/theStack/bitcoin/subscription",
        "tags_url": "https://api.github.com/repos/theStack/bitcoin/tags",
        "teams_url": "https://api.github.com/repos/theStack/bitcoin/teams",
        "trees_url": "https://api.github.com/repos/theStack/bitcoin/git/trees%7B/sha%7D",
        "clone_url": "https://github.com/theStack/bitcoin.git",
        "hooks_url": "https://api.github.com/repos/theStack/bitcoin/hooks",
        "svn_url": "https://github.com/theStack/bitcoin",
        "homepage": "https://bitcoincore.org/en/download",
        "language": "C++",
        "forks_count": 0,
        "stargazers_count": 0,
        "watchers_count": 0,
        "size": 219313,
        "default_branch": "master",
        "open_issues_count": 0,
        "is_template": false,
        "topics": [],
        "has_issues": false,
        "has_projects": true,
        "has_wiki": false,
        "has_pages": false,
        "has_downloads": false,
        "archived": false,
        "disabled": false,
        "visibility": "public",
        "pushed_at": "2023-08-02T23:26:22Z",
        "created_at": "2019-08-28T15:59:29Z",
        "updated_at": "2022-12-07T18:05:55Z",
        "license": {
          "key": "mit",
          "name": "MIT License",
          "node_id": "MDc6TGljZW5zZTEz",
          "spdx_id": "MIT",
          "url": "https://api.github.com/licenses/mit",
          "html_url": null,
          "description": null,
          "implementation": null,
          "permissions": null,
          "conditions": null,
          "limitations": null,
          "body": null,
          "featured": null
        }
      }
    },
    "base": {
      "label": "bitcoin:master",
      "ref": "master",
      "sha": "50422b770a40f5fa964201d1e99fd6b5dc1653ca",
      "user": {
        "login": "bitcoin",
        "id": 528860,
        "node_id": "MDEyOk9yZ2FuaXphdGlvbjUyODg2MA==",
        "avatar_url": "https://avatars.githubusercontent.com/u/528860?v=4",
        "gravatar_id": "",
        "url": "https://api.github.com/users/bitcoin",
        "html_url": "https://github.com/bitcoin",
        "followers_url": "https://api.github.com/users/bitcoin/followers",
        "following_url": "https://api.github.com/users/bitcoin/following%7B/other_user%7D",
        "gists_url": "https://api.github.com/users/bitcoin/gists%7B/gist_id%7D",
        "starred_url": "https://api.github.com/users/bitcoin/starred%7B/owner%7D%7B/repo%7D",
        "subscriptions_url": "https://api.github.com/users/bitcoin/subscriptions",
        "organizations_url": "https://api.github.com/users/bitcoin/orgs",
        "repos_url": "https://api.github.com/users/bitcoin/repos",
        "events_url": "https://api.github.com/users/bitcoin/events%7B/privacy%7D",
        "received_events_url": "https://api.github.com/users/bitcoin/received_events",
        "type": "Organization",
        "site_admin": false
      },
      "repo": {
        "id": 1181927,
        "node_id": "MDEwOlJlcG9zaXRvcnkxMTgxOTI3",
        "name": "bitcoin",
        "full_name": "bitcoin/bitcoin",
        "owner": {
          "login": "bitcoin",
          "id": 528860,
          "node_id": "MDEyOk9yZ2FuaXphdGlvbjUyODg2MA==",
          "avatar_url": "https://avatars.githubusercontent.com/u/528860?v=4",
          "gravatar_id": "",
          "url": "https://api.github.com/users/bitcoin",
          "html_url": "https://github.com/bitcoin",
          "followers_url": "https://api.github.com/users/bitcoin/followers",
          "following_url": "https://api.github.com/users/bitcoin/following%7B/other_user%7D",
          "gists_url": "https://api.github.com/users/bitcoin/gists%7B/gist_id%7D",
          "starred_url": "https://api.github.com/users/bitcoin/starred%7B/owner%7D%7B/repo%7D",
          "subscriptions_url": "https://api.github.com/users/bitcoin/subscriptions",
          "organizations_url": "https://api.github.com/users/bitcoin/orgs",
          "repos_url": "https://api.github.com/users/bitcoin/repos",
          "events_url": "https://api.github.com/users/bitcoin/events%7B/privacy%7D",
          "received_events_url": "https://api.github.com/users/bitcoin/received_events",
          "type": "Organization",
          "site_admin": false
        },
        "private": false,
        "html_url": "https://github.com/bitcoin/bitcoin",
        "description": "Bitcoin Core integration/staging tree",
        "fork": false,
        "url": "https://api.github.com/repos/bitcoin/bitcoin",
        "archive_url": "https://api.github.com/repos/bitcoin/bitcoin/%7Barchive_format%7D%7B/ref%7D",
        "assignees_url": "https://api.github.com/repos/bitcoin/bitcoin/assignees%7B/user%7D",
        "blobs_url": "https://api.github.com/repos/bitcoin/bitcoin/git/blobs%7B/sha%7D",
        "branches_url": "https://api.github.com/repos/bitcoin/bitcoin/branches%7B/branch%7D",
        "collaborators_url": "https://api.github.com/repos/bitcoin/bitcoin/collaborators%7B/collaborator%7D",
        "comments_url": "https://api.github.com/repos/bitcoin/bitcoin/comments%7B/number%7D",
        "commits_url": "https://api.github.com/repos/bitcoin/bitcoin/commits%7B/sha%7D",
        "compare_url": "https://api.github.com/repos/bitcoin/bitcoin/compare/%7Bbase%7D...%7Bhead%7D",
        "contents_url": "https://api.github.com/repos/bitcoin/bitcoin/contents/%7B+path%7D",
        "contributors_url": "https://api.github.com/repos/bitcoin/bitcoin/contributors",
        "deployments_url": "https://api.github.com/repos/bitcoin/bitcoin/deployments",
        "downloads_url": "https://api.github.com/repos/bitcoin/bitcoin/downloads",
        "events_url": "https://api.github.com/repos/bitcoin/bitcoin/events",
        "forks_url": "https://api.github.com/repos/bitcoin/bitcoin/forks",
        "git_commits_url": "https://api.github.com/repos/bitcoin/bitcoin/git/commits%7B/sha%7D",
        "git_refs_url": "https://api.github.com/repos/bitcoin/bitcoin/git/refs%7B/sha%7D",
        "git_tags_url": "https://api.github.com/repos/bitcoin/bitcoin/git/tags%7B/sha%7D",
        "git_url": "git://github.com/bitcoin/bitcoin.git",
        "issue_comment_url": "https://api.github.com/repos/bitcoin/bitcoin/issues/comments%7B/number%7D",
        "issue_events_url": "https://api.github.com/repos/bitcoin/bitcoin/issues/events%7B/number%7D",
        "issues_url": "https://api.github.com/repos/bitcoin/bitcoin/issues%7B/number%7D",
        "keys_url": "https://api.github.com/repos/bitcoin/bitcoin/keys%7B/key_id%7D",
        "labels_url": "https://api.github.com/repos/bitcoin/bitcoin/labels%7B/name%7D",
        "languages_url": "https://api.github.com/repos/bitcoin/bitcoin/languages",
        "merges_url": "https://api.github.com/repos/bitcoin/bitcoin/merges",
        "milestones_url": "https://api.github.com/repos/bitcoin/bitcoin/milestones%7B/number%7D",
        "notifications_url": "https://api.github.com/repos/bitcoin/bitcoin/notifications%7B?since,all,participating}",
        "pulls_url": "https://api.github.com/repos/bitcoin/bitcoin/pulls%7B/number%7D",
        "releases_url": "https://api.github.com/repos/bitcoin/bitcoin/releases%7B/id%7D",
        "ssh_url": "git@github.com:bitcoin/bitcoin.git",
        "stargazers_url": "https://api.github.com/repos/bitcoin/bitcoin/stargazers",
        "statuses_url": "https://api.github.com/repos/bitcoin/bitcoin/statuses/%7Bsha%7D",
        "subscribers_url": "https://api.github.com/repos/bitcoin/bitcoin/subscribers",
        "subscription_url": "https://api.github.com/repos/bitcoin/bitcoin/subscription",
        "tags_url": "https://api.github.com/repos/bitcoin/bitcoin/tags",
        "teams_url": "https://api.github.com/repos/bitcoin/bitcoin/teams",
        "trees_url": "https://api.github.com/repos/bitcoin/bitcoin/git/trees%7B/sha%7D",
        "clone_url": "https://github.com/bitcoin/bitcoin.git",
        "hooks_url": "https://api.github.com/repos/bitcoin/bitcoin/hooks",
        "svn_url": "https://github.com/bitcoin/bitcoin",
        "homepage": "https://bitcoincore.org/en/download",
        "language": "C++",
        "forks_count": 35476,
        "stargazers_count": 70608,
        "watchers_count": 70608,
        "size": 236222,
        "default_branch": "master",
        "open_issues_count": 673,
        "is_template": false,
        "topics": [
          "bitcoin",
          "c-plus-plus",
          "cryptocurrency",
          "cryptography",
          "p2p"
        ],
        "has_issues": true,
        "has_projects": true,
        "has_wiki": false,
        "has_pages": false,
        "has_downloads": false,
        "archived": false,
        "disabled": false,
        "visibility": "public",
        "pushed_at": "2023-08-03T00:03:27Z",
        "created_at": "2010-12-19T15:16:43Z",
        "updated_at": "2023-08-02T18:21:18Z",
        "license": {
          "key": "mit",
          "name": "MIT License",
          "node_id": "MDc6TGljZW5zZTEz",
          "spdx_id": "MIT",
          "url": "https://api.github.com/licenses/mit",
          "html_url": null,
          "description": null,
          "implementation": null,
          "permissions": null,
          "conditions": null,
          "limitations": null,
          "body": null,
          "featured": null
        }
      }
    },
    "_links": {
      "self": {
        "href": "https://api.github.com/repos/bitcoin/bitcoin/pulls/26472"
      }
    },
    "author_association": "CONTRIBUTOR",
    "draft": false,
    "additions": 13,
    "deletions": 1,
    "changed_files": 1,
    "commits": 1,
    "review_comments": 0,
    "comments": 1
  },
  "events": [
    {
      "event": "committed",
      "id": null,
      "node_id": "C_kwDOABII59oAKDg4N2Q4NWU0M2QxMzZkYmZjMjQyOGY4NzNjZWQzZGU1MDA3NmJiZDA",
      "url": "https://api.github.com/repos/bitcoin/bitcoin/git/commits/887d85e43d136dbfc2428f873ced3de50076bbd0",
      "actor": null,
      "commit_id": null,
      "commit_url": null,
      "created_at": null,
      "html_url": "https://github.com/bitcoin/bitcoin/commit/887d85e43d136dbfc2428f873ced3de50076bbd0",
      "tree": {
        "sha": "5dd156a5a40932c1219d96f5562531a5fc128430",
        "url": "https://api.github.com/repos/bitcoin/bitcoin/git/trees/5dd156a5a40932c1219d96f5562531a5fc128430"
      },
      "verification": {
        "verified": false,
        "reason": "unsigned",
        "payload": null,
        "signature": null
      },
      "parents": [
        {
          "url": "https://api.github.com/repos/bitcoin/bitcoin/git/commits/50422b770a40f5fa964201d1e99fd6b5dc1653ca",
          "sha": "50422b770a40f5fa964201d1e99fd6b5dc1653ca",
          "html_url": "https://github.com/bitcoin/bitcoin/commit/50422b770a40f5fa964201d1e99fd6b5dc1653ca"
        }
      ],
      "message": "test: add missing bech32m / BIP86 test-cases to wallet_descriptor.py",
      "committer": {
        "name": "Sebastian Falbesoner",
        "email": "sebastian.falbesoner@gmail.com",
        "date": "2022-11-08T17:43:39Z"
      },
      "author": {
        "name": "Sebastian Falbesoner",
        "email": "sebastian.falbesoner@gmail.com",
        "date": "2022-11-08T17:43:39Z"
      },
      "sha": "887d85e43d136dbfc2428f873ced3de50076bbd0"
    },
    {
      "event": "labeled",
      "id": 7765365183,
      "node_id": "LE_lADOABII585V3ox7zwAAAAHO2hG_",
      "url": "https://api.github.com/repos/bitcoin/bitcoin/issues/events/7765365183",
      "actor": {
        "login": "fanquake",
        "id": 863730,
        "node_id": "MDQ6VXNlcjg2MzczMA==",
        "avatar_url": "https://avatars.githubusercontent.com/u/863730?v=4",
        "gravatar_id": "",
        "url": "https://api.github.com/users/fanquake",
        "html_url": "https://github.com/fanquake",
        "followers_url": "https://api.github.com/users/fanquake/followers",
        "following_url": "https://api.github.com/users/fanquake/following%7B/other_user%7D",
        "gists_url": "https://api.github.com/users/fanquake/gists%7B/gist_id%7D",
        "starred_url": "https://api.github.com/users/fanquake/starred%7B/owner%7D%7B/repo%7D",
        "subscriptions_url": "https://api.github.com/users/fanquake/subscriptions",
        "organizations_url": "https://api.github.com/users/fanquake/orgs",
        "repos_url": "https://api.github.com/users/fanquake/repos",
        "events_url": "https://api.github.com/users/fanquake/events%7B/privacy%7D",
        "received_events_url": "https://api.github.com/users/fanquake/received_events",
        "type": "User",
        "site_admin": false
      },
      "commit_id": null,
      "commit_url": null,
      "created_at": "2022-11-08T17:52:30Z",
      "label": {
        "name": "Tests",
        "color": "d4c5f9"
      }
    },
    {
      "event": "reviewed",
      "id": 1174110747,
      "node_id": "PRR_kwDOABII585F-4Ib",
      "url": null,
      "actor": null,
      "commit_id": "887d85e43d136dbfc2428f873ced3de50076bbd0",
      "commit_url": null,
      "created_at": null,
      "author_association": "CONTRIBUTOR",
      "body": "ACK 887d85e43d136dbfc2428f873ced3de50076bbd0\r\n\r\n- The added code covers the `bech32m` code completely.\r\n- The test ran flawlessly, without any issues.",
      "user": {
        "login": "shaavan",
        "id": 85434418,
        "node_id": "MDQ6VXNlcjg1NDM0NDE4",
        "avatar_url": "https://avatars.githubusercontent.com/u/85434418?v=4",
        "gravatar_id": "",
        "url": "https://api.github.com/users/shaavan",
        "html_url": "https://github.com/shaavan",
        "followers_url": "https://api.github.com/users/shaavan/followers",
        "following_url": "https://api.github.com/users/shaavan/following%7B/other_user%7D",
        "gists_url": "https://api.github.com/users/shaavan/gists%7B/gist_id%7D",
        "starred_url": "https://api.github.com/users/shaavan/starred%7B/owner%7D%7B/repo%7D",
        "subscriptions_url": "https://api.github.com/users/shaavan/subscriptions",
        "organizations_url": "https://api.github.com/users/shaavan/orgs",
        "repos_url": "https://api.github.com/users/shaavan/repos",
        "events_url": "https://api.github.com/users/shaavan/events%7B/privacy%7D",
        "received_events_url": "https://api.github.com/users/shaavan/received_events",
        "type": "User",
        "site_admin": false
      },
      "html_url": "https://github.com/bitcoin/bitcoin/pull/26472#pullrequestreview-1174110747",
      "submitted_at": "2022-11-09T14:04:52Z",
      "state": "APPROVED",
      "pull_request_url": "https://api.github.com/repos/bitcoin/bitcoin/pulls/26472"
    },
    {
      "event": "reviewed",
      "id": 1174132364,
      "node_id": "PRR_kwDOABII585F-9aM",
      "url": null,
      "actor": null,
      "commit_id": "887d85e43d136dbfc2428f873ced3de50076bbd0",
      "commit_url": null,
      "created_at": null,
      "author_association": "CONTRIBUTOR",
      "body": "ACK 887d85e43d136dbfc2428f873ced3de50076bbd0",
      "user": {
        "login": "kristapsk",
        "id": 4500994,
        "node_id": "MDQ6VXNlcjQ1MDA5OTQ=",
        "avatar_url": "https://avatars.githubusercontent.com/u/4500994?v=4",
        "gravatar_id": "",
        "url": "https://api.github.com/users/kristapsk",
        "html_url": "https://github.com/kristapsk",
        "followers_url": "https://api.github.com/users/kristapsk/followers",
        "following_url": "https://api.github.com/users/kristapsk/following%7B/other_user%7D",
        "gists_url": "https://api.github.com/users/kristapsk/gists%7B/gist_id%7D",
        "starred_url": "https://api.github.com/users/kristapsk/starred%7B/owner%7D%7B/repo%7D",
        "subscriptions_url": "https://api.github.com/users/kristapsk/subscriptions",
        "organizations_url": "https://api.github.com/users/kristapsk/orgs",
        "repos_url": "https://api.github.com/users/kristapsk/repos",
        "events_url": "https://api.github.com/users/kristapsk/events%7B/privacy%7D",
        "received_events_url": "https://api.github.com/users/kristapsk/received_events",
        "type": "User",
        "site_admin": false
      },
      "html_url": "https://github.com/bitcoin/bitcoin/pull/26472#pullrequestreview-1174132364",
      "submitted_at": "2022-11-09T14:16:57Z",
      "state": "APPROVED",
      "pull_request_url": "https://api.github.com/repos/bitcoin/bitcoin/pulls/26472"
    },
    {
      "event": "merged",
      "id": 7774174038,
      "node_id": "ME_lADOABII585V3ox7zwAAAAHPYHtW",
      "url": "https://api.github.com/repos/bitcoin/bitcoin/issues/events/7774174038",
      "actor": {
        "login": "MarcoFalke",
        "id": 6399679,
        "node_id": "MDQ6VXNlcjYzOTk2Nzk=",
        "avatar_url": "https://avatars.githubusercontent.com/u/6399679?v=4",
        "gravatar_id": "",
        "url": "https://api.github.com/users/MarcoFalke",
        "html_url": "https://github.com/MarcoFalke",
        "followers_url": "https://api.github.com/users/MarcoFalke/followers",
        "following_url": "https://api.github.com/users/MarcoFalke/following%7B/other_user%7D",
        "gists_url": "https://api.github.com/users/MarcoFalke/gists%7B/gist_id%7D",
        "starred_url": "https://api.github.com/users/MarcoFalke/starred%7B/owner%7D%7B/repo%7D",
        "subscriptions_url": "https://api.github.com/users/MarcoFalke/subscriptions",
        "organizations_url": "https://api.github.com/users/MarcoFalke/orgs",
        "repos_url": "https://api.github.com/users/MarcoFalke/repos",
        "events_url": "https://api.github.com/users/MarcoFalke/events%7B/privacy%7D",
        "received_events_url": "https://api.github.com/users/MarcoFalke/received_events",
        "type": "User",
        "site_admin": false
      },
      "commit_id": "9dce30194bc07463d634072251a8bf83e1b10ff9",
      "commit_url": "https://api.github.com/repos/bitcoin/bitcoin/commits/9dce30194bc07463d634072251a8bf83e1b10ff9",
      "created_at": "2022-11-09T14:35:53Z"
    },
    {
      "event": "closed",
      "id": 7774174067,
      "node_id": "CE_lADOABII585V3ox7zwAAAAHPYHtz",
      "url": "https://api.github.com/repos/bitcoin/bitcoin/issues/events/7774174067",
      "actor": {
        "login": "MarcoFalke",
        "id": 6399679,
        "node_id": "MDQ6VXNlcjYzOTk2Nzk=",
        "avatar_url": "https://avatars.githubusercontent.com/u/6399679?v=4",
        "gravatar_id": "",
        "url": "https://api.github.com/users/MarcoFalke",
        "html_url": "https://github.com/MarcoFalke",
        "followers_url": "https://api.github.com/users/MarcoFalke/followers",
        "following_url": "https://api.github.com/users/MarcoFalke/following%7B/other_user%7D",
        "gists_url": "https://api.github.com/users/MarcoFalke/gists%7B/gist_id%7D",
        "starred_url": "https://api.github.com/users/MarcoFalke/starred%7B/owner%7D%7B/repo%7D",
        "subscriptions_url": "https://api.github.com/users/MarcoFalke/subscriptions",
        "organizations_url": "https://api.github.com/users/MarcoFalke/orgs",
        "repos_url": "https://api.github.com/users/MarcoFalke/repos",
        "events_url": "https://api.github.com/users/MarcoFalke/events%7B/privacy%7D",
        "received_events_url": "https://api.github.com/users/MarcoFalke/received_events",
        "type": "User",
        "site_admin": false
      },
      "commit_id": null,
      "commit_url": null,
      "created_at": "2022-11-09T14:35:53Z"
    },
    {
      "event": "head_ref_deleted",
      "id": 7774250488,
      "node_id": "HRDE_lADOABII585V3ox7zwAAAAHPYaX4",
      "url": "https://api.github.com/repos/bitcoin/bitcoin/issues/events/7774250488",
      "actor": {
        "login": "theStack",
        "id": 91535,
        "node_id": "MDQ6VXNlcjkxNTM1",
        "avatar_url": "https://avatars.githubusercontent.com/u/91535?v=4",
        "gravatar_id": "",
        "url": "https://api.github.com/users/theStack",
        "html_url": "https://github.com/theStack",
        "followers_url": "https://api.github.com/users/theStack/followers",
        "following_url": "https://api.github.com/users/theStack/following%7B/other_user%7D",
        "gists_url": "https://api.github.com/users/theStack/gists%7B/gist_id%7D",
        "starred_url": "https://api.github.com/users/theStack/starred%7B/owner%7D%7B/repo%7D",
        "subscriptions_url": "https://api.github.com/users/theStack/subscriptions",
        "organizations_url": "https://api.github.com/users/theStack/orgs",
        "repos_url": "https://api.github.com/users/theStack/repos",
        "events_url": "https://api.github.com/users/theStack/events%7B/privacy%7D",
        "received_events_url": "https://api.github.com/users/theStack/received_events",
        "type": "User",
        "site_admin": false
      },
      "commit_id": null,
      "commit_url": null,
      "created_at": "2022-11-09T14:43:46Z"
    },
    {
      "event": "referenced",
      "id": 7774363089,
      "node_id": "REFE_lADOABII585V3ox7zwAAAAHPY13R",
      "url": "https://api.github.com/repos/bitcoin/bitcoin/issues/events/7774363089",
      "actor": {
        "login": "sidhujag",
        "id": 6238042,
        "node_id": "MDQ6VXNlcjYyMzgwNDI=",
        "avatar_url": "https://avatars.githubusercontent.com/u/6238042?v=4",
        "gravatar_id": "",
        "url": "https://api.github.com/users/sidhujag",
        "html_url": "https://github.com/sidhujag",
        "followers_url": "https://api.github.com/users/sidhujag/followers",
        "following_url": "https://api.github.com/users/sidhujag/following%7B/other_user%7D",
        "gists_url": "https://api.github.com/users/sidhujag/gists%7B/gist_id%7D",
        "starred_url": "https://api.github.com/users/sidhujag/starred%7B/owner%7D%7B/repo%7D",
        "subscriptions_url": "https://api.github.com/users/sidhujag/subscriptions",
        "organizations_url": "https://api.github.com/users/sidhujag/orgs",
        "repos_url": "https://api.github.com/users/sidhujag/repos",
        "events_url": "https://api.github.com/users/sidhujag/events%7B/privacy%7D",
        "received_events_url": "https://api.github.com/users/sidhujag/received_events",
        "type": "User",
        "site_admin": false
      },
      "commit_id": "a50f83455752cdc927c2531af10a5987a415f0fd",
      "commit_url": "https://api.github.com/repos/syscoin/syscoin/commits/a50f83455752cdc927c2531af10a5987a415f0fd",
      "created_at": "2022-11-09T14:55:23Z"
    },
    {
      "event": "commented",
      "id": 1308970282,
      "node_id": "IC_kwDOABII585OBU0q",
      "url": "https://api.github.com/repos/bitcoin/bitcoin/issues/comments/1308970282",
      "actor": {
        "login": "DrahtBot",
        "id": 39886733,
        "node_id": "MDQ6VXNlcjM5ODg2NzMz",
        "avatar_url": "https://avatars.githubusercontent.com/u/39886733?v=4",
        "gravatar_id": "",
        "url": "https://api.github.com/users/DrahtBot",
        "html_url": "https://github.com/DrahtBot",
        "followers_url": "https://api.github.com/users/DrahtBot/followers",
        "following_url": "https://api.github.com/users/DrahtBot/following%7B/other_user%7D",
        "gists_url": "https://api.github.com/users/DrahtBot/gists%7B/gist_id%7D",
        "starred_url": "https://api.github.com/users/DrahtBot/starred%7B/owner%7D%7B/repo%7D",
        "subscriptions_url": "https://api.github.com/users/DrahtBot/subscriptions",
        "organizations_url": "https://api.github.com/users/DrahtBot/orgs",
        "repos_url": "https://api.github.com/users/DrahtBot/repos",
        "events_url": "https://api.github.com/users/DrahtBot/events%7B/privacy%7D",
        "received_events_url": "https://api.github.com/users/DrahtBot/received_events",
        "type": "User",
        "site_admin": false
      },
      "commit_id": null,
      "commit_url": null,
      "created_at": "2022-11-09T15:53:13Z",
      "updated_at": "2022-11-09T15:53:13Z",
      "author_association": "CONTRIBUTOR",
      "body": "<!--e57a25ab6845829454e8d69fc972939a-->\n\nThe following sections might be updated with supplementary metadata relevant to reviewers and maintainers.\n\n<!--174a7506f384e20aa4161008e828411d-->\n### Conflicts\nReviewers, this pull request conflicts with the following ones:\n\n* [#26076](https://github.com/bitcoin/bitcoin/pull/26076) (Switch hardened derivation marker to h (in normalized descriptors and new wallets) by Sjors)\n\nIf you consider this pull request important, please also help to review the conflicting pull requests. Ideally, start with the one that should be merged first.\n",
      "user": {
        "login": "DrahtBot",
        "id": 39886733,
        "node_id": "MDQ6VXNlcjM5ODg2NzMz",
        "avatar_url": "https://avatars.githubusercontent.com/u/39886733?v=4",
        "gravatar_id": "",
        "url": "https://api.github.com/users/DrahtBot",
        "html_url": "https://github.com/DrahtBot",
        "followers_url": "https://api.github.com/users/DrahtBot/followers",
        "following_url": "https://api.github.com/users/DrahtBot/following%7B/other_user%7D",
        "gists_url": "https://api.github.com/users/DrahtBot/gists%7B/gist_id%7D",
        "starred_url": "https://api.github.com/users/DrahtBot/starred%7B/owner%7D%7B/repo%7D",
        "subscriptions_url": "https://api.github.com/users/DrahtBot/subscriptions",
        "organizations_url": "https://api.github.com/users/DrahtBot/orgs",
        "repos_url": "https://api.github.com/users/DrahtBot/repos",
        "events_url": "https://api.github.com/users/DrahtBot/events%7B/privacy%7D",
        "received_events_url": "https://api.github.com/users/DrahtBot/received_events",
        "type": "User",
        "site_admin": false
      },
      "html_url": "https://github.com/bitcoin/bitcoin/pull/26472#issuecomment-1308970282",
      "issue_url": "https://api.github.com/repos/bitcoin/bitcoin/issues/26472"
    },
    {
      "event": "cross-referenced",
      "id": null,
      "node_id": null,
      "url": null,
      "actor": {
        "login": "DrahtBot",
        "id": 39886733,
        "node_id": "MDQ6VXNlcjM5ODg2NzMz",
        "avatar_url": "https://avatars.githubusercontent.com/u/39886733?v=4",
        "gravatar_id": "",
        "url": "https://api.github.com/users/DrahtBot",
        "html_url": "https://github.com/DrahtBot",
        "followers_url": "https://api.github.com/users/DrahtBot/followers",
        "following_url": "https://api.github.com/users/DrahtBot/following%7B/other_user%7D",
        "gists_url": "https://api.github.com/users/DrahtBot/gists%7B/gist_id%7D",
        "starred_url": "https://api.github.com/users/DrahtBot/starred%7B/owner%7D%7B/repo%7D",
        "subscriptions_url": "https://api.github.com/users/DrahtBot/subscriptions",
        "organizations_url": "https://api.github.com/users/DrahtBot/orgs",
        "repos_url": "https://api.github.com/users/DrahtBot/repos",
        "events_url": "https://api.github.com/users/DrahtBot/events%7B/privacy%7D",
        "received_events_url": "https://api.github.com/users/DrahtBot/received_events",
        "type": "User",
        "site_admin": false
      },
      "commit_id": null,
      "commit_url": null,
      "created_at": "2022-11-10T02:56:54Z",
      "updated_at": "2022-11-10T02:56:54Z",
      "source": {
        "issue": {
          "id": 1371447307,
          "node_id": "PR_kwDOABII584-3WMd",
          "url": "https://api.github.com/repos/bitcoin/bitcoin/issues/26076",
          "repository_url": "https://api.github.com/repos/bitcoin/bitcoin",
          "labels_url": "https://api.github.com/repos/bitcoin/bitcoin/issues/26076/labels%7B/name%7D",
          "comments_url": "https://api.github.com/repos/bitcoin/bitcoin/issues/26076/comments",
          "events_url": "https://api.github.com/repos/bitcoin/bitcoin/issues/26076/events",
          "html_url": "https://github.com/bitcoin/bitcoin/pull/26076",
          "number": 26076,
          "state": "closed",
          "state_reason": null,
          "title": "Switch hardened derivation marker to h",
          "body": "This makes it easier to handle descriptor strings manually, especially when importing from another Bitcoin Core wallet.\r\n\r\nFor example the `importdescriptors` RPC call is easiest to use `h` as the marker: `'[\"desc\": \".../0h/...\"]'`, avoiding the need for escape characters. With this change `listdescriptors` will use `h`, so you can copy-paste the result, without having to add escape characters or switch `'` to 'h' manually.\r\n\r\nBoth markers can still be parsed.\r\n\r\nThe `hdkeypath` field in `getaddressinfo` is also impacted by this change, except for legacy wallets. The latter is to prevent accidentally breaking ancient software that uses our legacy wallet. \r\n\r\nSee discussion in #15740",
          "user": {
            "login": "Sjors",
            "id": 10217,
            "node_id": "MDQ6VXNlcjEwMjE3",
            "avatar_url": "https://avatars.githubusercontent.com/u/10217?v=4",
            "gravatar_id": "",
            "url": "https://api.github.com/users/Sjors",
            "html_url": "https://github.com/Sjors",
            "followers_url": "https://api.github.com/users/Sjors/followers",
            "following_url": "https://api.github.com/users/Sjors/following%7B/other_user%7D",
            "gists_url": "https://api.github.com/users/Sjors/gists%7B/gist_id%7D",
            "starred_url": "https://api.github.com/users/Sjors/starred%7B/owner%7D%7B/repo%7D",
            "subscriptions_url": "https://api.github.com/users/Sjors/subscriptions",
            "organizations_url": "https://api.github.com/users/Sjors/orgs",
            "repos_url": "https://api.github.com/users/Sjors/repos",
            "events_url": "https://api.github.com/users/Sjors/events%7B/privacy%7D",
            "received_events_url": "https://api.github.com/users/Sjors/received_events",
            "type": "User",
            "site_admin": false
          },
          "labels": [
            {
              "id": 149424,
              "node_id": "MDU6TGFiZWwxNDk0MjQ=",
              "url": "https://api.github.com/repos/bitcoin/bitcoin/labels/Wallet",
              "name": "Wallet",
              "color": "08a781",
              "default": false
            },
            {
              "id": 98279177,
              "node_id": "MDU6TGFiZWw5ODI3OTE3Nw==",
              "url": "https://api.github.com/repos/bitcoin/bitcoin/labels/RPC/REST/ZMQ",
              "name": "RPC/REST/ZMQ",
              "color": "0052cc",
              "default": false
            },
            {
              "id": 5334691551,
              "node_id": "LA_kwDOABII588AAAABPfju3w",
              "url": "https://api.github.com/repos/bitcoin/bitcoin/labels/CI%20failed",
              "name": "CI failed",
              "description": "",
              "color": "cccccc",
              "default": false
            }
          ],
          "assignees": [],
          "author_association": "MEMBER",
          "locked": false,
          "comments": 23,
          "pull_request": {
            "url": "https://api.github.com/repos/bitcoin/bitcoin/pulls/26076",
            "html_url": "https://github.com/bitcoin/bitcoin/pull/26076",
            "diff_url": "https://github.com/bitcoin/bitcoin/pull/26076.diff",
            "patch_url": "https://github.com/bitcoin/bitcoin/pull/26076.patch"
          },
          "closed_at": "2023-05-08T17:32:07Z",
          "created_at": "2022-09-13T13:19:21Z",
          "updated_at": "2023-05-15T16:01:12Z"
        },
        "type": "issue"
      }
    }
  ],
  "comments": []
}