{
  "type": "pull",
  "pull": {
    "url": "https://api.github.com/repos/bitcoin/bitcoin/pulls/26495",
    "id": 1121070996,
    "node_id": "PR_kwDOABII585C0i-U",
    "html_url": "https://github.com/bitcoin/bitcoin/pull/26495",
    "diff_url": "https://github.com/bitcoin/bitcoin/pull/26495.diff",
    "patch_url": "https://github.com/bitcoin/bitcoin/pull/26495.patch",
    "issue_url": "https://api.github.com/repos/bitcoin/bitcoin/issues/26495",
    "commits_url": "https://api.github.com/repos/bitcoin/bitcoin/pulls/26495/commits",
    "review_comments_url": "https://api.github.com/repos/bitcoin/bitcoin/pulls/26495/comments",
    "review_comment_url": "https://api.github.com/repos/bitcoin/bitcoin/pulls/comments%7B/number%7D",
    "comments_url": "https://api.github.com/repos/bitcoin/bitcoin/issues/26495/comments",
    "statuses_url": "https://api.github.com/repos/bitcoin/bitcoin/statuses/0e34096b93f287038c03a45a6e69cc22d969e4f5",
    "number": 26495,
    "state": "closed",
    "locked": false,
    "maintainer_can_modify": false,
    "title": "contrib: Speed up systemd boot",
    "user": {
      "login": "bubelov",
      "id": 1189245,
      "node_id": "MDQ6VXNlcjExODkyNDU=",
      "avatar_url": "https://avatars.githubusercontent.com/u/1189245?v=4",
      "gravatar_id": "",
      "url": "https://api.github.com/users/bubelov",
      "html_url": "https://github.com/bubelov",
      "followers_url": "https://api.github.com/users/bubelov/followers",
      "following_url": "https://api.github.com/users/bubelov/following%7B/other_user%7D",
      "gists_url": "https://api.github.com/users/bubelov/gists%7B/gist_id%7D",
      "starred_url": "https://api.github.com/users/bubelov/starred%7B/owner%7D%7B/repo%7D",
      "subscriptions_url": "https://api.github.com/users/bubelov/subscriptions",
      "organizations_url": "https://api.github.com/users/bubelov/orgs",
      "repos_url": "https://api.github.com/users/bubelov/repos",
      "events_url": "https://api.github.com/users/bubelov/events%7B/privacy%7D",
      "received_events_url": "https://api.github.com/users/bubelov/received_events",
      "type": "User",
      "site_admin": false
    },
    "body": "Relevant issue: https://github.com/bitcoin/bitcoin/issues/26493\r\n\r\nThe currently used pattern is supposed to help some super fragile programs which can crash or get stuck if they fail to execute some network requests. Bitcoin Core is far from being fragile so no one benefits from the current setup.\r\n\r\nIt's also possible to avoid adding any network hints to the unit file, but would prevent Bitcoin Core from closing the network connections gracefully on shutdown.\r\n\r\n> Services using the network should hence simply place an After=network.target stanza in their unit files, without Wants=network.target or Requires=network.target.\r\n\r\nhttps://systemd.io/NETWORK_ONLINE/\r\n\r\nAdding `After=network.target` is beneficial for shutdown and it has no effect on the boot process, so I think it makes sense to replace the current network hooks with the less invasive and officially endorsed one.",
    "labels": [
      {
        "id": 231994551,
        "node_id": "MDU6TGFiZWwyMzE5OTQ1NTE=",
        "url": "https://api.github.com/repos/bitcoin/bitcoin/labels/Scripts%20and%20tools",
        "name": "Scripts and tools",
        "color": "ffffee",
        "default": false
      }
    ],
    "created_at": "2022-11-14T09:51:15Z",
    "updated_at": "2023-02-08T10:10:13Z",
    "closed_at": "2023-02-08T10:10:12Z",
    "mergeable_state": "unknown",
    "merge_commit_sha": "ff279cbac0797be9f852053b9dda7640c9c0e705",
    "assignees": [],
    "requested_reviewers": [],
    "requested_teams": [],
    "head": {
      "label": "bubelov:systemd-after-network",
      "ref": "systemd-after-network",
      "sha": "0e34096b93f287038c03a45a6e69cc22d969e4f5",
      "user": {
        "login": "bubelov",
        "id": 1189245,
        "node_id": "MDQ6VXNlcjExODkyNDU=",
        "avatar_url": "https://avatars.githubusercontent.com/u/1189245?v=4",
        "gravatar_id": "",
        "url": "https://api.github.com/users/bubelov",
        "html_url": "https://github.com/bubelov",
        "followers_url": "https://api.github.com/users/bubelov/followers",
        "following_url": "https://api.github.com/users/bubelov/following%7B/other_user%7D",
        "gists_url": "https://api.github.com/users/bubelov/gists%7B/gist_id%7D",
        "starred_url": "https://api.github.com/users/bubelov/starred%7B/owner%7D%7B/repo%7D",
        "subscriptions_url": "https://api.github.com/users/bubelov/subscriptions",
        "organizations_url": "https://api.github.com/users/bubelov/orgs",
        "repos_url": "https://api.github.com/users/bubelov/repos",
        "events_url": "https://api.github.com/users/bubelov/events%7B/privacy%7D",
        "received_events_url": "https://api.github.com/users/bubelov/received_events",
        "type": "User",
        "site_admin": false
      },
      "repo": {
        "id": 504882047,
        "node_id": "R_kgDOHhfjfw",
        "name": "bitcoin",
        "full_name": "bubelov/bitcoin",
        "owner": {
          "login": "bubelov",
          "id": 1189245,
          "node_id": "MDQ6VXNlcjExODkyNDU=",
          "avatar_url": "https://avatars.githubusercontent.com/u/1189245?v=4",
          "gravatar_id": "",
          "url": "https://api.github.com/users/bubelov",
          "html_url": "https://github.com/bubelov",
          "followers_url": "https://api.github.com/users/bubelov/followers",
          "following_url": "https://api.github.com/users/bubelov/following%7B/other_user%7D",
          "gists_url": "https://api.github.com/users/bubelov/gists%7B/gist_id%7D",
          "starred_url": "https://api.github.com/users/bubelov/starred%7B/owner%7D%7B/repo%7D",
          "subscriptions_url": "https://api.github.com/users/bubelov/subscriptions",
          "organizations_url": "https://api.github.com/users/bubelov/orgs",
          "repos_url": "https://api.github.com/users/bubelov/repos",
          "events_url": "https://api.github.com/users/bubelov/events%7B/privacy%7D",
          "received_events_url": "https://api.github.com/users/bubelov/received_events",
          "type": "User",
          "site_admin": false
        },
        "private": false,
        "html_url": "https://github.com/bubelov/bitcoin",
        "description": "Bitcoin Core integration/staging tree",
        "fork": true,
        "url": "https://api.github.com/repos/bubelov/bitcoin",
        "archive_url": "https://api.github.com/repos/bubelov/bitcoin/%7Barchive_format%7D%7B/ref%7D",
        "assignees_url": "https://api.github.com/repos/bubelov/bitcoin/assignees%7B/user%7D",
        "blobs_url": "https://api.github.com/repos/bubelov/bitcoin/git/blobs%7B/sha%7D",
        "branches_url": "https://api.github.com/repos/bubelov/bitcoin/branches%7B/branch%7D",
        "collaborators_url": "https://api.github.com/repos/bubelov/bitcoin/collaborators%7B/collaborator%7D",
        "comments_url": "https://api.github.com/repos/bubelov/bitcoin/comments%7B/number%7D",
        "commits_url": "https://api.github.com/repos/bubelov/bitcoin/commits%7B/sha%7D",
        "compare_url": "https://api.github.com/repos/bubelov/bitcoin/compare/%7Bbase%7D...%7Bhead%7D",
        "contents_url": "https://api.github.com/repos/bubelov/bitcoin/contents/%7B+path%7D",
        "contributors_url": "https://api.github.com/repos/bubelov/bitcoin/contributors",
        "deployments_url": "https://api.github.com/repos/bubelov/bitcoin/deployments",
        "downloads_url": "https://api.github.com/repos/bubelov/bitcoin/downloads",
        "events_url": "https://api.github.com/repos/bubelov/bitcoin/events",
        "forks_url": "https://api.github.com/repos/bubelov/bitcoin/forks",
        "git_commits_url": "https://api.github.com/repos/bubelov/bitcoin/git/commits%7B/sha%7D",
        "git_refs_url": "https://api.github.com/repos/bubelov/bitcoin/git/refs%7B/sha%7D",
        "git_tags_url": "https://api.github.com/repos/bubelov/bitcoin/git/tags%7B/sha%7D",
        "git_url": "git://github.com/bubelov/bitcoin.git",
        "issue_comment_url": "https://api.github.com/repos/bubelov/bitcoin/issues/comments%7B/number%7D",
        "issue_events_url": "https://api.github.com/repos/bubelov/bitcoin/issues/events%7B/number%7D",
        "issues_url": "https://api.github.com/repos/bubelov/bitcoin/issues%7B/number%7D",
        "keys_url": "https://api.github.com/repos/bubelov/bitcoin/keys%7B/key_id%7D",
        "labels_url": "https://api.github.com/repos/bubelov/bitcoin/labels%7B/name%7D",
        "languages_url": "https://api.github.com/repos/bubelov/bitcoin/languages",
        "merges_url": "https://api.github.com/repos/bubelov/bitcoin/merges",
        "milestones_url": "https://api.github.com/repos/bubelov/bitcoin/milestones%7B/number%7D",
        "notifications_url": "https://api.github.com/repos/bubelov/bitcoin/notifications%7B?since,all,participating}",
        "pulls_url": "https://api.github.com/repos/bubelov/bitcoin/pulls%7B/number%7D",
        "releases_url": "https://api.github.com/repos/bubelov/bitcoin/releases%7B/id%7D",
        "ssh_url": "git@github.com:bubelov/bitcoin.git",
        "stargazers_url": "https://api.github.com/repos/bubelov/bitcoin/stargazers",
        "statuses_url": "https://api.github.com/repos/bubelov/bitcoin/statuses/%7Bsha%7D",
        "subscribers_url": "https://api.github.com/repos/bubelov/bitcoin/subscribers",
        "subscription_url": "https://api.github.com/repos/bubelov/bitcoin/subscription",
        "tags_url": "https://api.github.com/repos/bubelov/bitcoin/tags",
        "teams_url": "https://api.github.com/repos/bubelov/bitcoin/teams",
        "trees_url": "https://api.github.com/repos/bubelov/bitcoin/git/trees%7B/sha%7D",
        "clone_url": "https://github.com/bubelov/bitcoin.git",
        "hooks_url": "https://api.github.com/repos/bubelov/bitcoin/hooks",
        "svn_url": "https://github.com/bubelov/bitcoin",
        "homepage": "https://bitcoincore.org/en/download",
        "language": "C++",
        "forks_count": 1,
        "stargazers_count": 0,
        "watchers_count": 0,
        "size": 216302,
        "default_branch": "master",
        "open_issues_count": 0,
        "is_template": false,
        "topics": [],
        "has_issues": false,
        "has_projects": true,
        "has_wiki": false,
        "has_pages": false,
        "has_downloads": false,
        "archived": false,
        "disabled": false,
        "visibility": "public",
        "pushed_at": "2022-11-14T09:27:14Z",
        "created_at": "2022-06-18T15:35:04Z",
        "updated_at": "2022-06-19T05:43:58Z",
        "license": {
          "key": "mit",
          "name": "MIT License",
          "node_id": "MDc6TGljZW5zZTEz",
          "spdx_id": "MIT",
          "url": "https://api.github.com/licenses/mit",
          "html_url": null,
          "description": null,
          "implementation": null,
          "permissions": null,
          "conditions": null,
          "limitations": null,
          "body": null,
          "featured": null
        }
      }
    },
    "base": {
      "label": "bitcoin:master",
      "ref": "master",
      "sha": "59e00c7e03107e7d2582a0c14431bb4e62cccd77",
      "user": {
        "login": "bitcoin",
        "id": 528860,
        "node_id": "MDEyOk9yZ2FuaXphdGlvbjUyODg2MA==",
        "avatar_url": "https://avatars.githubusercontent.com/u/528860?v=4",
        "gravatar_id": "",
        "url": "https://api.github.com/users/bitcoin",
        "html_url": "https://github.com/bitcoin",
        "followers_url": "https://api.github.com/users/bitcoin/followers",
        "following_url": "https://api.github.com/users/bitcoin/following%7B/other_user%7D",
        "gists_url": "https://api.github.com/users/bitcoin/gists%7B/gist_id%7D",
        "starred_url": "https://api.github.com/users/bitcoin/starred%7B/owner%7D%7B/repo%7D",
        "subscriptions_url": "https://api.github.com/users/bitcoin/subscriptions",
        "organizations_url": "https://api.github.com/users/bitcoin/orgs",
        "repos_url": "https://api.github.com/users/bitcoin/repos",
        "events_url": "https://api.github.com/users/bitcoin/events%7B/privacy%7D",
        "received_events_url": "https://api.github.com/users/bitcoin/received_events",
        "type": "Organization",
        "site_admin": false
      },
      "repo": {
        "id": 1181927,
        "node_id": "MDEwOlJlcG9zaXRvcnkxMTgxOTI3",
        "name": "bitcoin",
        "full_name": "bitcoin/bitcoin",
        "owner": {
          "login": "bitcoin",
          "id": 528860,
          "node_id": "MDEyOk9yZ2FuaXphdGlvbjUyODg2MA==",
          "avatar_url": "https://avatars.githubusercontent.com/u/528860?v=4",
          "gravatar_id": "",
          "url": "https://api.github.com/users/bitcoin",
          "html_url": "https://github.com/bitcoin",
          "followers_url": "https://api.github.com/users/bitcoin/followers",
          "following_url": "https://api.github.com/users/bitcoin/following%7B/other_user%7D",
          "gists_url": "https://api.github.com/users/bitcoin/gists%7B/gist_id%7D",
          "starred_url": "https://api.github.com/users/bitcoin/starred%7B/owner%7D%7B/repo%7D",
          "subscriptions_url": "https://api.github.com/users/bitcoin/subscriptions",
          "organizations_url": "https://api.github.com/users/bitcoin/orgs",
          "repos_url": "https://api.github.com/users/bitcoin/repos",
          "events_url": "https://api.github.com/users/bitcoin/events%7B/privacy%7D",
          "received_events_url": "https://api.github.com/users/bitcoin/received_events",
          "type": "Organization",
          "site_admin": false
        },
        "private": false,
        "html_url": "https://github.com/bitcoin/bitcoin",
        "description": "Bitcoin Core integration/staging tree",
        "fork": false,
        "url": "https://api.github.com/repos/bitcoin/bitcoin",
        "archive_url": "https://api.github.com/repos/bitcoin/bitcoin/%7Barchive_format%7D%7B/ref%7D",
        "assignees_url": "https://api.github.com/repos/bitcoin/bitcoin/assignees%7B/user%7D",
        "blobs_url": "https://api.github.com/repos/bitcoin/bitcoin/git/blobs%7B/sha%7D",
        "branches_url": "https://api.github.com/repos/bitcoin/bitcoin/branches%7B/branch%7D",
        "collaborators_url": "https://api.github.com/repos/bitcoin/bitcoin/collaborators%7B/collaborator%7D",
        "comments_url": "https://api.github.com/repos/bitcoin/bitcoin/comments%7B/number%7D",
        "commits_url": "https://api.github.com/repos/bitcoin/bitcoin/commits%7B/sha%7D",
        "compare_url": "https://api.github.com/repos/bitcoin/bitcoin/compare/%7Bbase%7D...%7Bhead%7D",
        "contents_url": "https://api.github.com/repos/bitcoin/bitcoin/contents/%7B+path%7D",
        "contributors_url": "https://api.github.com/repos/bitcoin/bitcoin/contributors",
        "deployments_url": "https://api.github.com/repos/bitcoin/bitcoin/deployments",
        "downloads_url": "https://api.github.com/repos/bitcoin/bitcoin/downloads",
        "events_url": "https://api.github.com/repos/bitcoin/bitcoin/events",
        "forks_url": "https://api.github.com/repos/bitcoin/bitcoin/forks",
        "git_commits_url": "https://api.github.com/repos/bitcoin/bitcoin/git/commits%7B/sha%7D",
        "git_refs_url": "https://api.github.com/repos/bitcoin/bitcoin/git/refs%7B/sha%7D",
        "git_tags_url": "https://api.github.com/repos/bitcoin/bitcoin/git/tags%7B/sha%7D",
        "git_url": "git://github.com/bitcoin/bitcoin.git",
        "issue_comment_url": "https://api.github.com/repos/bitcoin/bitcoin/issues/comments%7B/number%7D",
        "issue_events_url": "https://api.github.com/repos/bitcoin/bitcoin/issues/events%7B/number%7D",
        "issues_url": "https://api.github.com/repos/bitcoin/bitcoin/issues%7B/number%7D",
        "keys_url": "https://api.github.com/repos/bitcoin/bitcoin/keys%7B/key_id%7D",
        "labels_url": "https://api.github.com/repos/bitcoin/bitcoin/labels%7B/name%7D",
        "languages_url": "https://api.github.com/repos/bitcoin/bitcoin/languages",
        "merges_url": "https://api.github.com/repos/bitcoin/bitcoin/merges",
        "milestones_url": "https://api.github.com/repos/bitcoin/bitcoin/milestones%7B/number%7D",
        "notifications_url": "https://api.github.com/repos/bitcoin/bitcoin/notifications%7B?since,all,participating}",
        "pulls_url": "https://api.github.com/repos/bitcoin/bitcoin/pulls%7B/number%7D",
        "releases_url": "https://api.github.com/repos/bitcoin/bitcoin/releases%7B/id%7D",
        "ssh_url": "git@github.com:bitcoin/bitcoin.git",
        "stargazers_url": "https://api.github.com/repos/bitcoin/bitcoin/stargazers",
        "statuses_url": "https://api.github.com/repos/bitcoin/bitcoin/statuses/%7Bsha%7D",
        "subscribers_url": "https://api.github.com/repos/bitcoin/bitcoin/subscribers",
        "subscription_url": "https://api.github.com/repos/bitcoin/bitcoin/subscription",
        "tags_url": "https://api.github.com/repos/bitcoin/bitcoin/tags",
        "teams_url": "https://api.github.com/repos/bitcoin/bitcoin/teams",
        "trees_url": "https://api.github.com/repos/bitcoin/bitcoin/git/trees%7B/sha%7D",
        "clone_url": "https://github.com/bitcoin/bitcoin.git",
        "hooks_url": "https://api.github.com/repos/bitcoin/bitcoin/hooks",
        "svn_url": "https://github.com/bitcoin/bitcoin",
        "homepage": "https://bitcoincore.org/en/download",
        "language": "C++",
        "forks_count": 35476,
        "stargazers_count": 70608,
        "watchers_count": 70608,
        "size": 236222,
        "default_branch": "master",
        "open_issues_count": 673,
        "is_template": false,
        "topics": [
          "bitcoin",
          "c-plus-plus",
          "cryptocurrency",
          "cryptography",
          "p2p"
        ],
        "has_issues": true,
        "has_projects": true,
        "has_wiki": false,
        "has_pages": false,
        "has_downloads": false,
        "archived": false,
        "disabled": false,
        "visibility": "public",
        "pushed_at": "2023-08-03T00:03:27Z",
        "created_at": "2010-12-19T15:16:43Z",
        "updated_at": "2023-08-02T18:21:18Z",
        "license": {
          "key": "mit",
          "name": "MIT License",
          "node_id": "MDc6TGljZW5zZTEz",
          "spdx_id": "MIT",
          "url": "https://api.github.com/licenses/mit",
          "html_url": null,
          "description": null,
          "implementation": null,
          "permissions": null,
          "conditions": null,
          "limitations": null,
          "body": null,
          "featured": null
        }
      }
    },
    "_links": {
      "self": {
        "href": "https://api.github.com/repos/bitcoin/bitcoin/pulls/26495"
      }
    },
    "author_association": "CONTRIBUTOR",
    "draft": false,
    "additions": 1,
    "deletions": 2,
    "changed_files": 1,
    "commits": 1,
    "review_comments": 1,
    "comments": 5
  },
  "events": [
    {
      "event": "committed",
      "id": null,
      "node_id": "C_kwDOABII59oAKDBlMzQwOTZiOTNmMjg3MDM4YzAzYTQ1YTZlNjljYzIyZDk2OWU0ZjU",
      "url": "https://api.github.com/repos/bitcoin/bitcoin/git/commits/0e34096b93f287038c03a45a6e69cc22d969e4f5",
      "actor": null,
      "commit_id": null,
      "commit_url": null,
      "created_at": null,
      "html_url": "https://github.com/bitcoin/bitcoin/commit/0e34096b93f287038c03a45a6e69cc22d969e4f5",
      "tree": {
        "sha": "5ba5833c63074c502fd186456e1ef2364c1f0d35",
        "url": "https://api.github.com/repos/bitcoin/bitcoin/git/trees/5ba5833c63074c502fd186456e1ef2364c1f0d35"
      },
      "verification": {
        "verified": false,
        "reason": "unsigned",
        "payload": null,
        "signature": null
      },
      "parents": [
        {
          "url": "https://api.github.com/repos/bitcoin/bitcoin/git/commits/7ef730ca84bd71a06f986ae7070e7b2ac8e47582",
          "sha": "7ef730ca84bd71a06f986ae7070e7b2ac8e47582",
          "html_url": "https://github.com/bitcoin/bitcoin/commit/7ef730ca84bd71a06f986ae7070e7b2ac8e47582"
        }
      ],
      "message": "Speed up systemd boot",
      "committer": {
        "name": "Igor Bubelov",
        "email": "igor@bubelov.com",
        "date": "2022-11-14T09:24:32Z"
      },
      "author": {
        "name": "Igor Bubelov",
        "email": "igor@bubelov.com",
        "date": "2022-11-14T09:24:32Z"
      },
      "sha": "0e34096b93f287038c03a45a6e69cc22d969e4f5"
    },
    {
      "event": "labeled",
      "id": 7803094530,
      "node_id": "LE_lADOABII585WSqDmzwAAAAHRGcYC",
      "url": "https://api.github.com/repos/bitcoin/bitcoin/issues/events/7803094530",
      "actor": {
        "login": "DrahtBot",
        "id": 39886733,
        "node_id": "MDQ6VXNlcjM5ODg2NzMz",
        "avatar_url": "https://avatars.githubusercontent.com/u/39886733?v=4",
        "gravatar_id": "",
        "url": "https://api.github.com/users/DrahtBot",
        "html_url": "https://github.com/DrahtBot",
        "followers_url": "https://api.github.com/users/DrahtBot/followers",
        "following_url": "https://api.github.com/users/DrahtBot/following%7B/other_user%7D",
        "gists_url": "https://api.github.com/users/DrahtBot/gists%7B/gist_id%7D",
        "starred_url": "https://api.github.com/users/DrahtBot/starred%7B/owner%7D%7B/repo%7D",
        "subscriptions_url": "https://api.github.com/users/DrahtBot/subscriptions",
        "organizations_url": "https://api.github.com/users/DrahtBot/orgs",
        "repos_url": "https://api.github.com/users/DrahtBot/repos",
        "events_url": "https://api.github.com/users/DrahtBot/events%7B/privacy%7D",
        "received_events_url": "https://api.github.com/users/DrahtBot/received_events",
        "type": "User",
        "site_admin": false
      },
      "commit_id": null,
      "commit_url": null,
      "created_at": "2022-11-14T11:20:04Z",
      "label": {
        "name": "Scripts and tools",
        "color": "ffffee"
      }
    },
    {
      "event": "commented",
      "id": 1314551734,
      "node_id": "IC_kwDOABII585OWne2",
      "url": "https://api.github.com/repos/bitcoin/bitcoin/issues/comments/1314551734",
      "actor": {
        "login": "luke-jr",
        "id": 1095675,
        "node_id": "MDQ6VXNlcjEwOTU2NzU=",
        "avatar_url": "https://avatars.githubusercontent.com/u/1095675?v=4",
        "gravatar_id": "",
        "url": "https://api.github.com/users/luke-jr",
        "html_url": "https://github.com/luke-jr",
        "followers_url": "https://api.github.com/users/luke-jr/followers",
        "following_url": "https://api.github.com/users/luke-jr/following%7B/other_user%7D",
        "gists_url": "https://api.github.com/users/luke-jr/gists%7B/gist_id%7D",
        "starred_url": "https://api.github.com/users/luke-jr/starred%7B/owner%7D%7B/repo%7D",
        "subscriptions_url": "https://api.github.com/users/luke-jr/subscriptions",
        "organizations_url": "https://api.github.com/users/luke-jr/orgs",
        "repos_url": "https://api.github.com/users/luke-jr/repos",
        "events_url": "https://api.github.com/users/luke-jr/events%7B/privacy%7D",
        "received_events_url": "https://api.github.com/users/luke-jr/received_events",
        "type": "User",
        "site_admin": false
      },
      "commit_id": null,
      "commit_url": null,
      "created_at": "2022-11-14T23:38:50Z",
      "updated_at": "2022-11-14T23:38:50Z",
      "author_association": "MEMBER",
      "body": "Isn't there a risk this triggers unnecessary DNS seed lookups and/or fallback to fixed seeds?\r\n\r\nMaybe we should see if there's a way to get a signal from `network-online` to start the \"peers db isn't working out\" timers?",
      "user": {
        "login": "luke-jr",
        "id": 1095675,
        "node_id": "MDQ6VXNlcjEwOTU2NzU=",
        "avatar_url": "https://avatars.githubusercontent.com/u/1095675?v=4",
        "gravatar_id": "",
        "url": "https://api.github.com/users/luke-jr",
        "html_url": "https://github.com/luke-jr",
        "followers_url": "https://api.github.com/users/luke-jr/followers",
        "following_url": "https://api.github.com/users/luke-jr/following%7B/other_user%7D",
        "gists_url": "https://api.github.com/users/luke-jr/gists%7B/gist_id%7D",
        "starred_url": "https://api.github.com/users/luke-jr/starred%7B/owner%7D%7B/repo%7D",
        "subscriptions_url": "https://api.github.com/users/luke-jr/subscriptions",
        "organizations_url": "https://api.github.com/users/luke-jr/orgs",
        "repos_url": "https://api.github.com/users/luke-jr/repos",
        "events_url": "https://api.github.com/users/luke-jr/events%7B/privacy%7D",
        "received_events_url": "https://api.github.com/users/luke-jr/received_events",
        "type": "User",
        "site_admin": false
      },
      "html_url": "https://github.com/bitcoin/bitcoin/pull/26495#issuecomment-1314551734",
      "issue_url": "https://api.github.com/repos/bitcoin/bitcoin/issues/26495"
    },
    {
      "event": "cross-referenced",
      "id": null,
      "node_id": null,
      "url": null,
      "actor": {
        "login": "Sjors",
        "id": 10217,
        "node_id": "MDQ6VXNlcjEwMjE3",
        "avatar_url": "https://avatars.githubusercontent.com/u/10217?v=4",
        "gravatar_id": "",
        "url": "https://api.github.com/users/Sjors",
        "html_url": "https://github.com/Sjors",
        "followers_url": "https://api.github.com/users/Sjors/followers",
        "following_url": "https://api.github.com/users/Sjors/following%7B/other_user%7D",
        "gists_url": "https://api.github.com/users/Sjors/gists%7B/gist_id%7D",
        "starred_url": "https://api.github.com/users/Sjors/starred%7B/owner%7D%7B/repo%7D",
        "subscriptions_url": "https://api.github.com/users/Sjors/subscriptions",
        "organizations_url": "https://api.github.com/users/Sjors/orgs",
        "repos_url": "https://api.github.com/users/Sjors/repos",
        "events_url": "https://api.github.com/users/Sjors/events%7B/privacy%7D",
        "received_events_url": "https://api.github.com/users/Sjors/received_events",
        "type": "User",
        "site_admin": false
      },
      "commit_id": null,
      "commit_url": null,
      "created_at": "2022-11-15T11:05:39Z",
      "updated_at": "2022-11-15T11:05:39Z",
      "source": {
        "issue": {
          "id": 1446987436,
          "node_id": "I_kwDOABII585WP0as",
          "url": "https://api.github.com/repos/bitcoin/bitcoin/issues/26493",
          "repository_url": "https://api.github.com/repos/bitcoin/bitcoin",
          "labels_url": "https://api.github.com/repos/bitcoin/bitcoin/issues/26493/labels%7B/name%7D",
          "comments_url": "https://api.github.com/repos/bitcoin/bitcoin/issues/26493/comments",
          "events_url": "https://api.github.com/repos/bitcoin/bitcoin/issues/26493/events",
          "html_url": "https://github.com/bitcoin/bitcoin/issues/26493",
          "number": 26493,
          "state": "closed",
          "state_reason": "completed",
          "title": "[systemd] Use of discouraged network target",
          "body": "Here are the current network hooks used in Bitcoin Core systemd integration template:\r\n\r\nhttps://github.com/bitcoin/bitcoin/blob/7ef730ca84bd71a06f986ae7070e7b2ac8e47582/contrib/init/bitcoind.service#L16-L18\r\n\r\nSemantically, it makes sense, so I never questioned those lines when deploying new nodes, but here are some quotes from the official systemd website:\r\n\r\nhttps://systemd.io/NETWORK_ONLINE/\r\n\r\n> $network / network-online.target is a mechanism that is required only to deal with software that assumes continuous network is available (i.e. of the simple not-well-written kind)\r\n\r\n> Services using the network should hence simply place an After=network.target stanza in their unit files, without Wants=network.target or Requires=network.target\r\n\r\n> After=network.target can be sure that it is stopped before the network is shut down when the system is going down. This allows services to cleanly terminate connections before going down, instead of losing ongoing connections leaving the other side in an undefined state.\r\n\r\n> If you are a developer, instead of wondering what to do about network.target, please just fix your program to be friendly to dynamically changing network configuration.\r\n\r\n> Watch rtnetlink and react to network configuration changes as they happen. This is usually the nicest solution, but not always the easiest.\r\n\r\nIt looks like the use of `network-online.target` is discouraged and `network.target` is a preferred option for any program which knows how to adapt to changing network conditions. Are there any good reasons not to follow the official recommendation?",
          "user": {
            "login": "bubelov",
            "id": 1189245,
            "node_id": "MDQ6VXNlcjExODkyNDU=",
            "avatar_url": "https://avatars.githubusercontent.com/u/1189245?v=4",
            "gravatar_id": "",
            "url": "https://api.github.com/users/bubelov",
            "html_url": "https://github.com/bubelov",
            "followers_url": "https://api.github.com/users/bubelov/followers",
            "following_url": "https://api.github.com/users/bubelov/following%7B/other_user%7D",
            "gists_url": "https://api.github.com/users/bubelov/gists%7B/gist_id%7D",
            "starred_url": "https://api.github.com/users/bubelov/starred%7B/owner%7D%7B/repo%7D",
            "subscriptions_url": "https://api.github.com/users/bubelov/subscriptions",
            "organizations_url": "https://api.github.com/users/bubelov/orgs",
            "repos_url": "https://api.github.com/users/bubelov/repos",
            "events_url": "https://api.github.com/users/bubelov/events%7B/privacy%7D",
            "received_events_url": "https://api.github.com/users/bubelov/received_events",
            "type": "User",
            "site_admin": false
          },
          "labels": [
            {
              "id": 64585,
              "node_id": "MDU6TGFiZWw2NDU4NQ==",
              "url": "https://api.github.com/repos/bitcoin/bitcoin/labels/Bug",
              "name": "Bug",
              "color": "FBBAAB",
              "default": false
            }
          ],
          "assignees": [],
          "author_association": "CONTRIBUTOR",
          "locked": false,
          "comments": 10,
          "closed_at": "2023-04-27T13:54:59Z",
          "created_at": "2022-11-13T16:16:35Z",
          "updated_at": "2023-04-27T13:55:00Z"
        },
        "type": "issue"
      }
    },
    {
      "event": "commented",
      "id": 1315202404,
      "node_id": "IC_kwDOABII585OZGVk",
      "url": "https://api.github.com/repos/bitcoin/bitcoin/issues/comments/1315202404",
      "actor": {
        "login": "bubelov",
        "id": 1189245,
        "node_id": "MDQ6VXNlcjExODkyNDU=",
        "avatar_url": "https://avatars.githubusercontent.com/u/1189245?v=4",
        "gravatar_id": "",
        "url": "https://api.github.com/users/bubelov",
        "html_url": "https://github.com/bubelov",
        "followers_url": "https://api.github.com/users/bubelov/followers",
        "following_url": "https://api.github.com/users/bubelov/following%7B/other_user%7D",
        "gists_url": "https://api.github.com/users/bubelov/gists%7B/gist_id%7D",
        "starred_url": "https://api.github.com/users/bubelov/starred%7B/owner%7D%7B/repo%7D",
        "subscriptions_url": "https://api.github.com/users/bubelov/subscriptions",
        "organizations_url": "https://api.github.com/users/bubelov/orgs",
        "repos_url": "https://api.github.com/users/bubelov/repos",
        "events_url": "https://api.github.com/users/bubelov/events%7B/privacy%7D",
        "received_events_url": "https://api.github.com/users/bubelov/received_events",
        "type": "User",
        "site_admin": false
      },
      "commit_id": null,
      "commit_url": null,
      "created_at": "2022-11-15T11:52:41Z",
      "updated_at": "2022-11-15T11:52:41Z",
      "author_association": "CONTRIBUTOR",
      "body": "> Isn't there a risk this triggers unnecessary DNS seed lookups and/or fallback to fixed seeds?\r\n\r\nI'm not sure how Bitcoin Core handles that. That `systemd` page is quite verbose and it discourages the use of `network-online` target in many places, for many reasons. Here is the approach they endorse the most:\r\n\r\n```\r\nWatch rtnetlink and react to network configuration changes as they happen. This is usually the nicest solution, but not always the easiest.\r\n```\r\n\r\nThere is also quite a tirade on \"what does it mean to be online\" there, implying that `network-online` isn't really reliable. I think that depending on the discouraged parts of some external init systems is a bit problematic, because there are no hard guarantees, and because things might change without Bitcoin Core being aware of it, exposing it to potential trouble.\r\n\r\nI also checked my RaspiBlitz config and it looks like it doesn't use `network-online`, so we probably already have thousands of nodes using the proposed init template with no issues. The RaspiBlitz devs fetched the Bitcoin Core template a year ago, though: https://github.com/rootzoll/raspiblitz/issues/2826\r\n\r\nA few interesting quotes from `systemd` doc:\r\n\r\n> network-online.target is a target that actively waits until the network is “up”, where the definition of “up” is defined by the network management software. Usually it indicates a configured, routable IP address of some kind.\r\n\r\n> Reacting to local network configuration changes in daemon code is not particularly hard. In fact many well-known network-facing services running on Linux have been doing this for decades. A service written like this is robust, can be started at any time, and will always do the best of the circumstances it is running in.\r\n\r\n> A robust system boots up independently of external services. More specifically, if a network DHCP server does not react, this should not slow down boot on most setups, but only for those where network connectivity is strictly needed (for example, because the host actually boots from the network). ",
      "user": {
        "login": "bubelov",
        "id": 1189245,
        "node_id": "MDQ6VXNlcjExODkyNDU=",
        "avatar_url": "https://avatars.githubusercontent.com/u/1189245?v=4",
        "gravatar_id": "",
        "url": "https://api.github.com/users/bubelov",
        "html_url": "https://github.com/bubelov",
        "followers_url": "https://api.github.com/users/bubelov/followers",
        "following_url": "https://api.github.com/users/bubelov/following%7B/other_user%7D",
        "gists_url": "https://api.github.com/users/bubelov/gists%7B/gist_id%7D",
        "starred_url": "https://api.github.com/users/bubelov/starred%7B/owner%7D%7B/repo%7D",
        "subscriptions_url": "https://api.github.com/users/bubelov/subscriptions",
        "organizations_url": "https://api.github.com/users/bubelov/orgs",
        "repos_url": "https://api.github.com/users/bubelov/repos",
        "events_url": "https://api.github.com/users/bubelov/events%7B/privacy%7D",
        "received_events_url": "https://api.github.com/users/bubelov/received_events",
        "type": "User",
        "site_admin": false
      },
      "html_url": "https://github.com/bitcoin/bitcoin/pull/26495#issuecomment-1315202404",
      "issue_url": "https://api.github.com/repos/bitcoin/bitcoin/issues/26495"
    },
    {
      "event": "commented",
      "id": 1327377656,
      "node_id": "IC_kwDOABII585PHiz4",
      "url": "https://api.github.com/repos/bitcoin/bitcoin/issues/comments/1327377656",
      "actor": {
        "login": "hebasto",
        "id": 32963518,
        "node_id": "MDQ6VXNlcjMyOTYzNTE4",
        "avatar_url": "https://avatars.githubusercontent.com/u/32963518?v=4",
        "gravatar_id": "",
        "url": "https://api.github.com/users/hebasto",
        "html_url": "https://github.com/hebasto",
        "followers_url": "https://api.github.com/users/hebasto/followers",
        "following_url": "https://api.github.com/users/hebasto/following%7B/other_user%7D",
        "gists_url": "https://api.github.com/users/hebasto/gists%7B/gist_id%7D",
        "starred_url": "https://api.github.com/users/hebasto/starred%7B/owner%7D%7B/repo%7D",
        "subscriptions_url": "https://api.github.com/users/hebasto/subscriptions",
        "organizations_url": "https://api.github.com/users/hebasto/orgs",
        "repos_url": "https://api.github.com/users/hebasto/repos",
        "events_url": "https://api.github.com/users/hebasto/events%7B/privacy%7D",
        "received_events_url": "https://api.github.com/users/hebasto/received_events",
        "type": "User",
        "site_admin": false
      },
      "commit_id": null,
      "commit_url": null,
      "created_at": "2022-11-25T11:46:28Z",
      "updated_at": "2022-11-25T12:33:24Z",
      "author_association": "MEMBER",
      "body": "Could this change re-introduce errors like [that](https://github.com/bitcoin/bitcoin/issues/26493#issuecomment-1326857796)?",
      "user": {
        "login": "hebasto",
        "id": 32963518,
        "node_id": "MDQ6VXNlcjMyOTYzNTE4",
        "avatar_url": "https://avatars.githubusercontent.com/u/32963518?v=4",
        "gravatar_id": "",
        "url": "https://api.github.com/users/hebasto",
        "html_url": "https://github.com/hebasto",
        "followers_url": "https://api.github.com/users/hebasto/followers",
        "following_url": "https://api.github.com/users/hebasto/following%7B/other_user%7D",
        "gists_url": "https://api.github.com/users/hebasto/gists%7B/gist_id%7D",
        "starred_url": "https://api.github.com/users/hebasto/starred%7B/owner%7D%7B/repo%7D",
        "subscriptions_url": "https://api.github.com/users/hebasto/subscriptions",
        "organizations_url": "https://api.github.com/users/hebasto/orgs",
        "repos_url": "https://api.github.com/users/hebasto/repos",
        "events_url": "https://api.github.com/users/hebasto/events%7B/privacy%7D",
        "received_events_url": "https://api.github.com/users/hebasto/received_events",
        "type": "User",
        "site_admin": false
      },
      "html_url": "https://github.com/bitcoin/bitcoin/pull/26495#issuecomment-1327377656",
      "issue_url": "https://api.github.com/repos/bitcoin/bitcoin/issues/26495"
    },
    {
      "event": "commented",
      "id": 1327377680,
      "node_id": "IC_kwDOABII585PHi0Q",
      "url": "https://api.github.com/repos/bitcoin/bitcoin/issues/comments/1327377680",
      "actor": {
        "login": "DrahtBot",
        "id": 39886733,
        "node_id": "MDQ6VXNlcjM5ODg2NzMz",
        "avatar_url": "https://avatars.githubusercontent.com/u/39886733?v=4",
        "gravatar_id": "",
        "url": "https://api.github.com/users/DrahtBot",
        "html_url": "https://github.com/DrahtBot",
        "followers_url": "https://api.github.com/users/DrahtBot/followers",
        "following_url": "https://api.github.com/users/DrahtBot/following%7B/other_user%7D",
        "gists_url": "https://api.github.com/users/DrahtBot/gists%7B/gist_id%7D",
        "starred_url": "https://api.github.com/users/DrahtBot/starred%7B/owner%7D%7B/repo%7D",
        "subscriptions_url": "https://api.github.com/users/DrahtBot/subscriptions",
        "organizations_url": "https://api.github.com/users/DrahtBot/orgs",
        "repos_url": "https://api.github.com/users/DrahtBot/repos",
        "events_url": "https://api.github.com/users/DrahtBot/events%7B/privacy%7D",
        "received_events_url": "https://api.github.com/users/DrahtBot/received_events",
        "type": "User",
        "site_admin": false
      },
      "commit_id": null,
      "commit_url": null,
      "created_at": "2022-11-25T11:46:30Z",
      "updated_at": "2022-11-25T11:46:30Z",
      "author_association": "CONTRIBUTOR",
      "body": "<!--e57a25ab6845829454e8d69fc972939a-->\n\nThe following sections might be updated with supplementary metadata relevant to reviewers and maintainers.\n\n<!--021abf342d371248e50ceaed478a90ca-->\n### Reviews\nSee [the guideline](https://github.com/bitcoin/bitcoin/blob/master/CONTRIBUTING.md#code-review) for information on the review process.\nA summary of reviews will appear here.\n",
      "user": {
        "login": "DrahtBot",
        "id": 39886733,
        "node_id": "MDQ6VXNlcjM5ODg2NzMz",
        "avatar_url": "https://avatars.githubusercontent.com/u/39886733?v=4",
        "gravatar_id": "",
        "url": "https://api.github.com/users/DrahtBot",
        "html_url": "https://github.com/DrahtBot",
        "followers_url": "https://api.github.com/users/DrahtBot/followers",
        "following_url": "https://api.github.com/users/DrahtBot/following%7B/other_user%7D",
        "gists_url": "https://api.github.com/users/DrahtBot/gists%7B/gist_id%7D",
        "starred_url": "https://api.github.com/users/DrahtBot/starred%7B/owner%7D%7B/repo%7D",
        "subscriptions_url": "https://api.github.com/users/DrahtBot/subscriptions",
        "organizations_url": "https://api.github.com/users/DrahtBot/orgs",
        "repos_url": "https://api.github.com/users/DrahtBot/repos",
        "events_url": "https://api.github.com/users/DrahtBot/events%7B/privacy%7D",
        "received_events_url": "https://api.github.com/users/DrahtBot/received_events",
        "type": "User",
        "site_admin": false
      },
      "html_url": "https://github.com/bitcoin/bitcoin/pull/26495#issuecomment-1327377680",
      "issue_url": "https://api.github.com/repos/bitcoin/bitcoin/issues/26495"
    },
    {
      "event": "reviewed",
      "id": 1194336663,
      "node_id": "PRR_kwDOABII585HMCGX",
      "url": null,
      "actor": null,
      "commit_id": "0e34096b93f287038c03a45a6e69cc22d969e4f5",
      "commit_url": null,
      "created_at": null,
      "author_association": "MEMBER",
      "user": {
        "login": "hebasto",
        "id": 32963518,
        "node_id": "MDQ6VXNlcjMyOTYzNTE4",
        "avatar_url": "https://avatars.githubusercontent.com/u/32963518?v=4",
        "gravatar_id": "",
        "url": "https://api.github.com/users/hebasto",
        "html_url": "https://github.com/hebasto",
        "followers_url": "https://api.github.com/users/hebasto/followers",
        "following_url": "https://api.github.com/users/hebasto/following%7B/other_user%7D",
        "gists_url": "https://api.github.com/users/hebasto/gists%7B/gist_id%7D",
        "starred_url": "https://api.github.com/users/hebasto/starred%7B/owner%7D%7B/repo%7D",
        "subscriptions_url": "https://api.github.com/users/hebasto/subscriptions",
        "organizations_url": "https://api.github.com/users/hebasto/orgs",
        "repos_url": "https://api.github.com/users/hebasto/repos",
        "events_url": "https://api.github.com/users/hebasto/events%7B/privacy%7D",
        "received_events_url": "https://api.github.com/users/hebasto/received_events",
        "type": "User",
        "site_admin": false
      },
      "html_url": "https://github.com/bitcoin/bitcoin/pull/26495#pullrequestreview-1194336663",
      "submitted_at": "2022-11-25T11:57:14Z",
      "state": "COMMENTED",
      "pull_request_url": "https://api.github.com/repos/bitcoin/bitcoin/pulls/26495"
    },
    {
      "event": "commented",
      "id": 1422347744,
      "node_id": "IC_kwDOABII585Ux03g",
      "url": "https://api.github.com/repos/bitcoin/bitcoin/issues/comments/1422347744",
      "actor": {
        "login": "fanquake",
        "id": 863730,
        "node_id": "MDQ6VXNlcjg2MzczMA==",
        "avatar_url": "https://avatars.githubusercontent.com/u/863730?v=4",
        "gravatar_id": "",
        "url": "https://api.github.com/users/fanquake",
        "html_url": "https://github.com/fanquake",
        "followers_url": "https://api.github.com/users/fanquake/followers",
        "following_url": "https://api.github.com/users/fanquake/following%7B/other_user%7D",
        "gists_url": "https://api.github.com/users/fanquake/gists%7B/gist_id%7D",
        "starred_url": "https://api.github.com/users/fanquake/starred%7B/owner%7D%7B/repo%7D",
        "subscriptions_url": "https://api.github.com/users/fanquake/subscriptions",
        "organizations_url": "https://api.github.com/users/fanquake/orgs",
        "repos_url": "https://api.github.com/users/fanquake/repos",
        "events_url": "https://api.github.com/users/fanquake/events%7B/privacy%7D",
        "received_events_url": "https://api.github.com/users/fanquake/received_events",
        "type": "User",
        "site_admin": false
      },
      "commit_id": null,
      "commit_url": null,
      "created_at": "2023-02-08T10:10:12Z",
      "updated_at": "2023-02-08T10:10:12Z",
      "author_association": "MEMBER",
      "body": "It's unclear what the next steps are here, given the discussion in #26493, and the fact that other projects have moved to using `network-online.target` (https://github.com/fort-nix/nix-bitcoin/pull/567), to fix issues with bitcoind. Going to close this for now, and discussion can continue in #26493.",
      "user": {
        "login": "fanquake",
        "id": 863730,
        "node_id": "MDQ6VXNlcjg2MzczMA==",
        "avatar_url": "https://avatars.githubusercontent.com/u/863730?v=4",
        "gravatar_id": "",
        "url": "https://api.github.com/users/fanquake",
        "html_url": "https://github.com/fanquake",
        "followers_url": "https://api.github.com/users/fanquake/followers",
        "following_url": "https://api.github.com/users/fanquake/following%7B/other_user%7D",
        "gists_url": "https://api.github.com/users/fanquake/gists%7B/gist_id%7D",
        "starred_url": "https://api.github.com/users/fanquake/starred%7B/owner%7D%7B/repo%7D",
        "subscriptions_url": "https://api.github.com/users/fanquake/subscriptions",
        "organizations_url": "https://api.github.com/users/fanquake/orgs",
        "repos_url": "https://api.github.com/users/fanquake/repos",
        "events_url": "https://api.github.com/users/fanquake/events%7B/privacy%7D",
        "received_events_url": "https://api.github.com/users/fanquake/received_events",
        "type": "User",
        "site_admin": false
      },
      "html_url": "https://github.com/bitcoin/bitcoin/pull/26495#issuecomment-1422347744",
      "issue_url": "https://api.github.com/repos/bitcoin/bitcoin/issues/26495"
    },
    {
      "event": "closed",
      "id": 8467025741,
      "node_id": "CE_lADOABII585WSqDmzwAAAAH4rI9N",
      "url": "https://api.github.com/repos/bitcoin/bitcoin/issues/events/8467025741",
      "actor": {
        "login": "fanquake",
        "id": 863730,
        "node_id": "MDQ6VXNlcjg2MzczMA==",
        "avatar_url": "https://avatars.githubusercontent.com/u/863730?v=4",
        "gravatar_id": "",
        "url": "https://api.github.com/users/fanquake",
        "html_url": "https://github.com/fanquake",
        "followers_url": "https://api.github.com/users/fanquake/followers",
        "following_url": "https://api.github.com/users/fanquake/following%7B/other_user%7D",
        "gists_url": "https://api.github.com/users/fanquake/gists%7B/gist_id%7D",
        "starred_url": "https://api.github.com/users/fanquake/starred%7B/owner%7D%7B/repo%7D",
        "subscriptions_url": "https://api.github.com/users/fanquake/subscriptions",
        "organizations_url": "https://api.github.com/users/fanquake/orgs",
        "repos_url": "https://api.github.com/users/fanquake/repos",
        "events_url": "https://api.github.com/users/fanquake/events%7B/privacy%7D",
        "received_events_url": "https://api.github.com/users/fanquake/received_events",
        "type": "User",
        "site_admin": false
      },
      "commit_id": null,
      "commit_url": null,
      "created_at": "2023-02-08T10:10:12Z"
    }
  ],
  "comments": [
    {
      "url": "https://api.github.com/repos/bitcoin/bitcoin/pulls/comments/1032385535",
      "pull_request_review_id": 1194336663,
      "id": 1032385535,
      "node_id": "PRRC_kwDOABII5849iPP_",
      "diff_hunk": "@@ -14,8 +14,7 @@ Description=Bitcoin daemon\n Documentation=https://github.com/bitcoin/bitcoin/blob/master/doc/init.md\n \n # https://www.freedesktop.org/wiki/Software/systemd/NetworkTarget/\n-After=network-online.target\n-Wants=network-online.target\n+After=network.target",
      "path": "contrib/init/bitcoind.service",
      "position": 6,
      "original_position": 6,
      "commit_id": "0e34096b93f287038c03a45a6e69cc22d969e4f5",
      "original_commit_id": "0e34096b93f287038c03a45a6e69cc22d969e4f5",
      "in_reply_to_id": null,
      "user": {
        "login": "hebasto",
        "id": 32963518,
        "node_id": "MDQ6VXNlcjMyOTYzNTE4",
        "avatar_url": "https://avatars.githubusercontent.com/u/32963518?v=4",
        "gravatar_id": "",
        "url": "https://api.github.com/users/hebasto",
        "html_url": "https://github.com/hebasto",
        "followers_url": "https://api.github.com/users/hebasto/followers",
        "following_url": "https://api.github.com/users/hebasto/following%7B/other_user%7D",
        "gists_url": "https://api.github.com/users/hebasto/gists%7B/gist_id%7D",
        "starred_url": "https://api.github.com/users/hebasto/starred%7B/owner%7D%7B/repo%7D",
        "subscriptions_url": "https://api.github.com/users/hebasto/subscriptions",
        "organizations_url": "https://api.github.com/users/hebasto/orgs",
        "repos_url": "https://api.github.com/users/hebasto/repos",
        "events_url": "https://api.github.com/users/hebasto/events%7B/privacy%7D",
        "received_events_url": "https://api.github.com/users/hebasto/received_events",
        "type": "User",
        "site_admin": false
      },
      "body": "If this change finds reviewers' support, isn't cleaner to just revert d9392b724cae53b7a16fa5f84ebe152eea496502?",
      "created_at": "2022-11-25T11:57:14Z",
      "updated_at": "2022-11-25T11:57:14Z",
      "html_url": "https://github.com/bitcoin/bitcoin/pull/26495#discussion_r1032385535",
      "author_association": "MEMBER",
      "_links": {
        "self": {
          "href": "https://api.github.com/repos/bitcoin/bitcoin/pulls/comments/1032385535"
        },
        "pull_request": {
          "href": "https://api.github.com/repos/bitcoin/bitcoin/pulls/26495"
        }
      },
      "start_line": 17,
      "original_start_line": 17,
      "start_side": "LEFT",
      "line": 17,
      "original_line": 17,
      "side": "RIGHT"
    }
  ]
}