{
  "type": "pull",
  "pull": {
    "url": "https://api.github.com/repos/bitcoin/bitcoin/pulls/26514",
    "id": 1124916562,
    "node_id": "PR_kwDOABII585DDN1S",
    "html_url": "https://github.com/bitcoin/bitcoin/pull/26514",
    "diff_url": "https://github.com/bitcoin/bitcoin/pull/26514.diff",
    "patch_url": "https://github.com/bitcoin/bitcoin/pull/26514.patch",
    "issue_url": "https://api.github.com/repos/bitcoin/bitcoin/issues/26514",
    "commits_url": "https://api.github.com/repos/bitcoin/bitcoin/pulls/26514/commits",
    "review_comments_url": "https://api.github.com/repos/bitcoin/bitcoin/pulls/26514/comments",
    "review_comment_url": "https://api.github.com/repos/bitcoin/bitcoin/pulls/comments%7B/number%7D",
    "comments_url": "https://api.github.com/repos/bitcoin/bitcoin/issues/26514/comments",
    "statuses_url": "https://api.github.com/repos/bitcoin/bitcoin/statuses/962a0930e699b74b3c4d019427df6e2b3af5c831",
    "number": 26514,
    "state": "closed",
    "locked": false,
    "maintainer_can_modify": false,
    "title": "Improve address decoding errors",
    "user": {
      "login": "aureleoules",
      "id": 22493292,
      "node_id": "MDQ6VXNlcjIyNDkzMjky",
      "avatar_url": "https://avatars.githubusercontent.com/u/22493292?v=4",
      "gravatar_id": "",
      "url": "https://api.github.com/users/aureleoules",
      "html_url": "https://github.com/aureleoules",
      "followers_url": "https://api.github.com/users/aureleoules/followers",
      "following_url": "https://api.github.com/users/aureleoules/following%7B/other_user%7D",
      "gists_url": "https://api.github.com/users/aureleoules/gists%7B/gist_id%7D",
      "starred_url": "https://api.github.com/users/aureleoules/starred%7B/owner%7D%7B/repo%7D",
      "subscriptions_url": "https://api.github.com/users/aureleoules/subscriptions",
      "organizations_url": "https://api.github.com/users/aureleoules/orgs",
      "repos_url": "https://api.github.com/users/aureleoules/repos",
      "events_url": "https://api.github.com/users/aureleoules/events%7B/privacy%7D",
      "received_events_url": "https://api.github.com/users/aureleoules/received_events",
      "type": "User",
      "site_admin": false
    },
    "body": "Attempt to fix #21741.",
    "labels": [],
    "created_at": "2022-11-16T18:33:55Z",
    "updated_at": "2023-03-13T19:06:36Z",
    "closed_at": "2023-03-13T16:58:05Z",
    "mergeable_state": "unknown",
    "merged_at": "2023-03-13T16:58:05Z",
    "merge_commit_sha": "73a9892bce41585bf99531ebe70678e0a1dc1a44",
    "assignees": [],
    "requested_reviewers": [],
    "requested_teams": [],
    "head": {
      "label": "aureleoules:2022-11-improve-address-decode-errors",
      "ref": "2022-11-improve-address-decode-errors",
      "sha": "962a0930e699b74b3c4d019427df6e2b3af5c831",
      "user": {
        "login": "aureleoules",
        "id": 22493292,
        "node_id": "MDQ6VXNlcjIyNDkzMjky",
        "avatar_url": "https://avatars.githubusercontent.com/u/22493292?v=4",
        "gravatar_id": "",
        "url": "https://api.github.com/users/aureleoules",
        "html_url": "https://github.com/aureleoules",
        "followers_url": "https://api.github.com/users/aureleoules/followers",
        "following_url": "https://api.github.com/users/aureleoules/following%7B/other_user%7D",
        "gists_url": "https://api.github.com/users/aureleoules/gists%7B/gist_id%7D",
        "starred_url": "https://api.github.com/users/aureleoules/starred%7B/owner%7D%7B/repo%7D",
        "subscriptions_url": "https://api.github.com/users/aureleoules/subscriptions",
        "organizations_url": "https://api.github.com/users/aureleoules/orgs",
        "repos_url": "https://api.github.com/users/aureleoules/repos",
        "events_url": "https://api.github.com/users/aureleoules/events%7B/privacy%7D",
        "received_events_url": "https://api.github.com/users/aureleoules/received_events",
        "type": "User",
        "site_admin": false
      },
      "repo": {
        "id": 468927670,
        "node_id": "R_kgDOG_NEtg",
        "name": "bitcoin",
        "full_name": "aureleoules/bitcoin",
        "owner": {
          "login": "aureleoules",
          "id": 22493292,
          "node_id": "MDQ6VXNlcjIyNDkzMjky",
          "avatar_url": "https://avatars.githubusercontent.com/u/22493292?v=4",
          "gravatar_id": "",
          "url": "https://api.github.com/users/aureleoules",
          "html_url": "https://github.com/aureleoules",
          "followers_url": "https://api.github.com/users/aureleoules/followers",
          "following_url": "https://api.github.com/users/aureleoules/following%7B/other_user%7D",
          "gists_url": "https://api.github.com/users/aureleoules/gists%7B/gist_id%7D",
          "starred_url": "https://api.github.com/users/aureleoules/starred%7B/owner%7D%7B/repo%7D",
          "subscriptions_url": "https://api.github.com/users/aureleoules/subscriptions",
          "organizations_url": "https://api.github.com/users/aureleoules/orgs",
          "repos_url": "https://api.github.com/users/aureleoules/repos",
          "events_url": "https://api.github.com/users/aureleoules/events%7B/privacy%7D",
          "received_events_url": "https://api.github.com/users/aureleoules/received_events",
          "type": "User",
          "site_admin": false
        },
        "private": false,
        "html_url": "https://github.com/aureleoules/bitcoin",
        "description": "Bitcoin Core integration/staging tree",
        "fork": true,
        "url": "https://api.github.com/repos/aureleoules/bitcoin",
        "archive_url": "https://api.github.com/repos/aureleoules/bitcoin/%7Barchive_format%7D%7B/ref%7D",
        "assignees_url": "https://api.github.com/repos/aureleoules/bitcoin/assignees%7B/user%7D",
        "blobs_url": "https://api.github.com/repos/aureleoules/bitcoin/git/blobs%7B/sha%7D",
        "branches_url": "https://api.github.com/repos/aureleoules/bitcoin/branches%7B/branch%7D",
        "collaborators_url": "https://api.github.com/repos/aureleoules/bitcoin/collaborators%7B/collaborator%7D",
        "comments_url": "https://api.github.com/repos/aureleoules/bitcoin/comments%7B/number%7D",
        "commits_url": "https://api.github.com/repos/aureleoules/bitcoin/commits%7B/sha%7D",
        "compare_url": "https://api.github.com/repos/aureleoules/bitcoin/compare/%7Bbase%7D...%7Bhead%7D",
        "contents_url": "https://api.github.com/repos/aureleoules/bitcoin/contents/%7B+path%7D",
        "contributors_url": "https://api.github.com/repos/aureleoules/bitcoin/contributors",
        "deployments_url": "https://api.github.com/repos/aureleoules/bitcoin/deployments",
        "downloads_url": "https://api.github.com/repos/aureleoules/bitcoin/downloads",
        "events_url": "https://api.github.com/repos/aureleoules/bitcoin/events",
        "forks_url": "https://api.github.com/repos/aureleoules/bitcoin/forks",
        "git_commits_url": "https://api.github.com/repos/aureleoules/bitcoin/git/commits%7B/sha%7D",
        "git_refs_url": "https://api.github.com/repos/aureleoules/bitcoin/git/refs%7B/sha%7D",
        "git_tags_url": "https://api.github.com/repos/aureleoules/bitcoin/git/tags%7B/sha%7D",
        "git_url": "git://github.com/aureleoules/bitcoin.git",
        "issue_comment_url": "https://api.github.com/repos/aureleoules/bitcoin/issues/comments%7B/number%7D",
        "issue_events_url": "https://api.github.com/repos/aureleoules/bitcoin/issues/events%7B/number%7D",
        "issues_url": "https://api.github.com/repos/aureleoules/bitcoin/issues%7B/number%7D",
        "keys_url": "https://api.github.com/repos/aureleoules/bitcoin/keys%7B/key_id%7D",
        "labels_url": "https://api.github.com/repos/aureleoules/bitcoin/labels%7B/name%7D",
        "languages_url": "https://api.github.com/repos/aureleoules/bitcoin/languages",
        "merges_url": "https://api.github.com/repos/aureleoules/bitcoin/merges",
        "milestones_url": "https://api.github.com/repos/aureleoules/bitcoin/milestones%7B/number%7D",
        "notifications_url": "https://api.github.com/repos/aureleoules/bitcoin/notifications%7B?since,all,participating}",
        "pulls_url": "https://api.github.com/repos/aureleoules/bitcoin/pulls%7B/number%7D",
        "releases_url": "https://api.github.com/repos/aureleoules/bitcoin/releases%7B/id%7D",
        "ssh_url": "git@github.com:aureleoules/bitcoin.git",
        "stargazers_url": "https://api.github.com/repos/aureleoules/bitcoin/stargazers",
        "statuses_url": "https://api.github.com/repos/aureleoules/bitcoin/statuses/%7Bsha%7D",
        "subscribers_url": "https://api.github.com/repos/aureleoules/bitcoin/subscribers",
        "subscription_url": "https://api.github.com/repos/aureleoules/bitcoin/subscription",
        "tags_url": "https://api.github.com/repos/aureleoules/bitcoin/tags",
        "teams_url": "https://api.github.com/repos/aureleoules/bitcoin/teams",
        "trees_url": "https://api.github.com/repos/aureleoules/bitcoin/git/trees%7B/sha%7D",
        "clone_url": "https://github.com/aureleoules/bitcoin.git",
        "hooks_url": "https://api.github.com/repos/aureleoules/bitcoin/hooks",
        "svn_url": "https://github.com/aureleoules/bitcoin",
        "homepage": "https://bitcoincore.org/en/download",
        "language": "C++",
        "forks_count": 0,
        "stargazers_count": 0,
        "watchers_count": 0,
        "size": 229477,
        "default_branch": "master",
        "open_issues_count": 3,
        "is_template": false,
        "topics": [],
        "has_issues": false,
        "has_projects": true,
        "has_wiki": false,
        "has_pages": false,
        "has_downloads": false,
        "archived": false,
        "disabled": false,
        "visibility": "public",
        "pushed_at": "2023-07-27T22:16:01Z",
        "created_at": "2022-03-11T23:21:06Z",
        "updated_at": "2022-12-07T18:06:10Z",
        "license": {
          "key": "mit",
          "name": "MIT License",
          "node_id": "MDc6TGljZW5zZTEz",
          "spdx_id": "MIT",
          "url": "https://api.github.com/licenses/mit",
          "html_url": null,
          "description": null,
          "implementation": null,
          "permissions": null,
          "conditions": null,
          "limitations": null,
          "body": null,
          "featured": null
        }
      }
    },
    "base": {
      "label": "bitcoin:master",
      "ref": "master",
      "sha": "89fb354f28273c16f8f8152bf112e5246ae40c50",
      "user": {
        "login": "bitcoin",
        "id": 528860,
        "node_id": "MDEyOk9yZ2FuaXphdGlvbjUyODg2MA==",
        "avatar_url": "https://avatars.githubusercontent.com/u/528860?v=4",
        "gravatar_id": "",
        "url": "https://api.github.com/users/bitcoin",
        "html_url": "https://github.com/bitcoin",
        "followers_url": "https://api.github.com/users/bitcoin/followers",
        "following_url": "https://api.github.com/users/bitcoin/following%7B/other_user%7D",
        "gists_url": "https://api.github.com/users/bitcoin/gists%7B/gist_id%7D",
        "starred_url": "https://api.github.com/users/bitcoin/starred%7B/owner%7D%7B/repo%7D",
        "subscriptions_url": "https://api.github.com/users/bitcoin/subscriptions",
        "organizations_url": "https://api.github.com/users/bitcoin/orgs",
        "repos_url": "https://api.github.com/users/bitcoin/repos",
        "events_url": "https://api.github.com/users/bitcoin/events%7B/privacy%7D",
        "received_events_url": "https://api.github.com/users/bitcoin/received_events",
        "type": "Organization",
        "site_admin": false
      },
      "repo": {
        "id": 1181927,
        "node_id": "MDEwOlJlcG9zaXRvcnkxMTgxOTI3",
        "name": "bitcoin",
        "full_name": "bitcoin/bitcoin",
        "owner": {
          "login": "bitcoin",
          "id": 528860,
          "node_id": "MDEyOk9yZ2FuaXphdGlvbjUyODg2MA==",
          "avatar_url": "https://avatars.githubusercontent.com/u/528860?v=4",
          "gravatar_id": "",
          "url": "https://api.github.com/users/bitcoin",
          "html_url": "https://github.com/bitcoin",
          "followers_url": "https://api.github.com/users/bitcoin/followers",
          "following_url": "https://api.github.com/users/bitcoin/following%7B/other_user%7D",
          "gists_url": "https://api.github.com/users/bitcoin/gists%7B/gist_id%7D",
          "starred_url": "https://api.github.com/users/bitcoin/starred%7B/owner%7D%7B/repo%7D",
          "subscriptions_url": "https://api.github.com/users/bitcoin/subscriptions",
          "organizations_url": "https://api.github.com/users/bitcoin/orgs",
          "repos_url": "https://api.github.com/users/bitcoin/repos",
          "events_url": "https://api.github.com/users/bitcoin/events%7B/privacy%7D",
          "received_events_url": "https://api.github.com/users/bitcoin/received_events",
          "type": "Organization",
          "site_admin": false
        },
        "private": false,
        "html_url": "https://github.com/bitcoin/bitcoin",
        "description": "Bitcoin Core integration/staging tree",
        "fork": false,
        "url": "https://api.github.com/repos/bitcoin/bitcoin",
        "archive_url": "https://api.github.com/repos/bitcoin/bitcoin/%7Barchive_format%7D%7B/ref%7D",
        "assignees_url": "https://api.github.com/repos/bitcoin/bitcoin/assignees%7B/user%7D",
        "blobs_url": "https://api.github.com/repos/bitcoin/bitcoin/git/blobs%7B/sha%7D",
        "branches_url": "https://api.github.com/repos/bitcoin/bitcoin/branches%7B/branch%7D",
        "collaborators_url": "https://api.github.com/repos/bitcoin/bitcoin/collaborators%7B/collaborator%7D",
        "comments_url": "https://api.github.com/repos/bitcoin/bitcoin/comments%7B/number%7D",
        "commits_url": "https://api.github.com/repos/bitcoin/bitcoin/commits%7B/sha%7D",
        "compare_url": "https://api.github.com/repos/bitcoin/bitcoin/compare/%7Bbase%7D...%7Bhead%7D",
        "contents_url": "https://api.github.com/repos/bitcoin/bitcoin/contents/%7B+path%7D",
        "contributors_url": "https://api.github.com/repos/bitcoin/bitcoin/contributors",
        "deployments_url": "https://api.github.com/repos/bitcoin/bitcoin/deployments",
        "downloads_url": "https://api.github.com/repos/bitcoin/bitcoin/downloads",
        "events_url": "https://api.github.com/repos/bitcoin/bitcoin/events",
        "forks_url": "https://api.github.com/repos/bitcoin/bitcoin/forks",
        "git_commits_url": "https://api.github.com/repos/bitcoin/bitcoin/git/commits%7B/sha%7D",
        "git_refs_url": "https://api.github.com/repos/bitcoin/bitcoin/git/refs%7B/sha%7D",
        "git_tags_url": "https://api.github.com/repos/bitcoin/bitcoin/git/tags%7B/sha%7D",
        "git_url": "git://github.com/bitcoin/bitcoin.git",
        "issue_comment_url": "https://api.github.com/repos/bitcoin/bitcoin/issues/comments%7B/number%7D",
        "issue_events_url": "https://api.github.com/repos/bitcoin/bitcoin/issues/events%7B/number%7D",
        "issues_url": "https://api.github.com/repos/bitcoin/bitcoin/issues%7B/number%7D",
        "keys_url": "https://api.github.com/repos/bitcoin/bitcoin/keys%7B/key_id%7D",
        "labels_url": "https://api.github.com/repos/bitcoin/bitcoin/labels%7B/name%7D",
        "languages_url": "https://api.github.com/repos/bitcoin/bitcoin/languages",
        "merges_url": "https://api.github.com/repos/bitcoin/bitcoin/merges",
        "milestones_url": "https://api.github.com/repos/bitcoin/bitcoin/milestones%7B/number%7D",
        "notifications_url": "https://api.github.com/repos/bitcoin/bitcoin/notifications%7B?since,all,participating}",
        "pulls_url": "https://api.github.com/repos/bitcoin/bitcoin/pulls%7B/number%7D",
        "releases_url": "https://api.github.com/repos/bitcoin/bitcoin/releases%7B/id%7D",
        "ssh_url": "git@github.com:bitcoin/bitcoin.git",
        "stargazers_url": "https://api.github.com/repos/bitcoin/bitcoin/stargazers",
        "statuses_url": "https://api.github.com/repos/bitcoin/bitcoin/statuses/%7Bsha%7D",
        "subscribers_url": "https://api.github.com/repos/bitcoin/bitcoin/subscribers",
        "subscription_url": "https://api.github.com/repos/bitcoin/bitcoin/subscription",
        "tags_url": "https://api.github.com/repos/bitcoin/bitcoin/tags",
        "teams_url": "https://api.github.com/repos/bitcoin/bitcoin/teams",
        "trees_url": "https://api.github.com/repos/bitcoin/bitcoin/git/trees%7B/sha%7D",
        "clone_url": "https://github.com/bitcoin/bitcoin.git",
        "hooks_url": "https://api.github.com/repos/bitcoin/bitcoin/hooks",
        "svn_url": "https://github.com/bitcoin/bitcoin",
        "homepage": "https://bitcoincore.org/en/download",
        "language": "C++",
        "forks_count": 35476,
        "stargazers_count": 70608,
        "watchers_count": 70608,
        "size": 236222,
        "default_branch": "master",
        "open_issues_count": 673,
        "is_template": false,
        "topics": [
          "bitcoin",
          "c-plus-plus",
          "cryptocurrency",
          "cryptography",
          "p2p"
        ],
        "has_issues": true,
        "has_projects": true,
        "has_wiki": false,
        "has_pages": false,
        "has_downloads": false,
        "archived": false,
        "disabled": false,
        "visibility": "public",
        "pushed_at": "2023-08-03T00:03:27Z",
        "created_at": "2010-12-19T15:16:43Z",
        "updated_at": "2023-08-02T18:21:18Z",
        "license": {
          "key": "mit",
          "name": "MIT License",
          "node_id": "MDc6TGljZW5zZTEz",
          "spdx_id": "MIT",
          "url": "https://api.github.com/licenses/mit",
          "html_url": null,
          "description": null,
          "implementation": null,
          "permissions": null,
          "conditions": null,
          "limitations": null,
          "body": null,
          "featured": null
        }
      }
    },
    "_links": {
      "self": {
        "href": "https://api.github.com/repos/bitcoin/bitcoin/pulls/26514"
      }
    },
    "author_association": "MEMBER",
    "draft": false,
    "additions": 15,
    "deletions": 15,
    "changed_files": 3,
    "commits": 1,
    "review_comments": 4,
    "comments": 9
  },
  "events": [
    {
      "event": "commented",
      "id": 1317556933,
      "node_id": "IC_kwDOABII585OiFLF",
      "url": "https://api.github.com/repos/bitcoin/bitcoin/issues/comments/1317556933",
      "actor": {
        "login": "sipa",
        "id": 548488,
        "node_id": "MDQ6VXNlcjU0ODQ4OA==",
        "avatar_url": "https://avatars.githubusercontent.com/u/548488?v=4",
        "gravatar_id": "",
        "url": "https://api.github.com/users/sipa",
        "html_url": "https://github.com/sipa",
        "followers_url": "https://api.github.com/users/sipa/followers",
        "following_url": "https://api.github.com/users/sipa/following%7B/other_user%7D",
        "gists_url": "https://api.github.com/users/sipa/gists%7B/gist_id%7D",
        "starred_url": "https://api.github.com/users/sipa/starred%7B/owner%7D%7B/repo%7D",
        "subscriptions_url": "https://api.github.com/users/sipa/subscriptions",
        "organizations_url": "https://api.github.com/users/sipa/orgs",
        "repos_url": "https://api.github.com/users/sipa/repos",
        "events_url": "https://api.github.com/users/sipa/events%7B/privacy%7D",
        "received_events_url": "https://api.github.com/users/sipa/received_events",
        "type": "User",
        "site_admin": false
      },
      "commit_id": null,
      "commit_url": null,
      "created_at": "2022-11-16T19:26:48Z",
      "updated_at": "2022-11-16T19:26:48Z",
      "author_association": "MEMBER",
      "body": "Concept ACK",
      "user": {
        "login": "sipa",
        "id": 548488,
        "node_id": "MDQ6VXNlcjU0ODQ4OA==",
        "avatar_url": "https://avatars.githubusercontent.com/u/548488?v=4",
        "gravatar_id": "",
        "url": "https://api.github.com/users/sipa",
        "html_url": "https://github.com/sipa",
        "followers_url": "https://api.github.com/users/sipa/followers",
        "following_url": "https://api.github.com/users/sipa/following%7B/other_user%7D",
        "gists_url": "https://api.github.com/users/sipa/gists%7B/gist_id%7D",
        "starred_url": "https://api.github.com/users/sipa/starred%7B/owner%7D%7B/repo%7D",
        "subscriptions_url": "https://api.github.com/users/sipa/subscriptions",
        "organizations_url": "https://api.github.com/users/sipa/orgs",
        "repos_url": "https://api.github.com/users/sipa/repos",
        "events_url": "https://api.github.com/users/sipa/events%7B/privacy%7D",
        "received_events_url": "https://api.github.com/users/sipa/received_events",
        "type": "User",
        "site_admin": false
      },
      "html_url": "https://github.com/bitcoin/bitcoin/pull/26514#issuecomment-1317556933",
      "issue_url": "https://api.github.com/repos/bitcoin/bitcoin/issues/26514"
    },
    {
      "event": "reviewed",
      "id": 1187122628,
      "node_id": "PRR_kwDOABII585Gwg3E",
      "url": null,
      "actor": null,
      "commit_id": "7d3944dac66f355d3530e2bc6a5fc602a2edba05",
      "commit_url": null,
      "created_at": null,
      "author_association": "MEMBER",
      "body": "NACK on talking about \"different networks\". While this could in theory be Lightning or sidechains, it's more likely to lead users toward scamcoins.",
      "user": {
        "login": "luke-jr",
        "id": 1095675,
        "node_id": "MDQ6VXNlcjEwOTU2NzU=",
        "avatar_url": "https://avatars.githubusercontent.com/u/1095675?v=4",
        "gravatar_id": "",
        "url": "https://api.github.com/users/luke-jr",
        "html_url": "https://github.com/luke-jr",
        "followers_url": "https://api.github.com/users/luke-jr/followers",
        "following_url": "https://api.github.com/users/luke-jr/following%7B/other_user%7D",
        "gists_url": "https://api.github.com/users/luke-jr/gists%7B/gist_id%7D",
        "starred_url": "https://api.github.com/users/luke-jr/starred%7B/owner%7D%7B/repo%7D",
        "subscriptions_url": "https://api.github.com/users/luke-jr/subscriptions",
        "organizations_url": "https://api.github.com/users/luke-jr/orgs",
        "repos_url": "https://api.github.com/users/luke-jr/repos",
        "events_url": "https://api.github.com/users/luke-jr/events%7B/privacy%7D",
        "received_events_url": "https://api.github.com/users/luke-jr/received_events",
        "type": "User",
        "site_admin": false
      },
      "html_url": "https://github.com/bitcoin/bitcoin/pull/26514#pullrequestreview-1187122628",
      "submitted_at": "2022-11-19T21:22:13Z",
      "state": "CHANGES_REQUESTED",
      "pull_request_url": "https://api.github.com/repos/bitcoin/bitcoin/pulls/26514"
    },
    {
      "event": "commented",
      "id": 1320972323,
      "node_id": "IC_kwDOABII585OvHAj",
      "url": "https://api.github.com/repos/bitcoin/bitcoin/issues/comments/1320972323",
      "actor": {
        "login": "DrahtBot",
        "id": 39886733,
        "node_id": "MDQ6VXNlcjM5ODg2NzMz",
        "avatar_url": "https://avatars.githubusercontent.com/u/39886733?v=4",
        "gravatar_id": "",
        "url": "https://api.github.com/users/DrahtBot",
        "html_url": "https://github.com/DrahtBot",
        "followers_url": "https://api.github.com/users/DrahtBot/followers",
        "following_url": "https://api.github.com/users/DrahtBot/following%7B/other_user%7D",
        "gists_url": "https://api.github.com/users/DrahtBot/gists%7B/gist_id%7D",
        "starred_url": "https://api.github.com/users/DrahtBot/starred%7B/owner%7D%7B/repo%7D",
        "subscriptions_url": "https://api.github.com/users/DrahtBot/subscriptions",
        "organizations_url": "https://api.github.com/users/DrahtBot/orgs",
        "repos_url": "https://api.github.com/users/DrahtBot/repos",
        "events_url": "https://api.github.com/users/DrahtBot/events%7B/privacy%7D",
        "received_events_url": "https://api.github.com/users/DrahtBot/received_events",
        "type": "User",
        "site_admin": false
      },
      "commit_id": null,
      "commit_url": null,
      "created_at": "2022-11-19T21:22:15Z",
      "updated_at": "2023-03-13T15:40:07Z",
      "author_association": "CONTRIBUTOR",
      "body": "<!--e57a25ab6845829454e8d69fc972939a-->\n\nThe following sections might be updated with supplementary metadata relevant to reviewers and maintainers.\n\n<!--021abf342d371248e50ceaed478a90ca-->\n### Reviews\nSee [the guideline](https://github.com/bitcoin/bitcoin/blob/master/CONTRIBUTING.md#code-review) for information on the review process.\n| Type | Reviewers |\n| ---- | --------- |\n| ACK | [1440000bytes](https://github.com/bitcoin/bitcoin/pull/26514#pullrequestreview-1335898565), [MarcoFalke](https://github.com/bitcoin/bitcoin/pull/26514#issuecomment-1466373851), [davidgumberg](https://github.com/bitcoin/bitcoin/pull/26514#issuecomment-1466387824) |\n| Concept ACK | [sipa](https://github.com/bitcoin/bitcoin/pull/26514#issuecomment-1317556933), [willcl-ark](https://github.com/bitcoin/bitcoin/pull/26514#issuecomment-1462666899) |\n| Ignored review | [luke-jr](https://github.com/bitcoin/bitcoin/pull/26514#pullrequestreview-1187122628) |\n\nIf your review is incorrectly listed, please react with 👎 to this comment and the bot will ignore it on the next update.\n<!--174a7506f384e20aa4161008e828411d-->\n### Conflicts\nNo conflicts as of last run.\n",
      "user": {
        "login": "DrahtBot",
        "id": 39886733,
        "node_id": "MDQ6VXNlcjM5ODg2NzMz",
        "avatar_url": "https://avatars.githubusercontent.com/u/39886733?v=4",
        "gravatar_id": "",
        "url": "https://api.github.com/users/DrahtBot",
        "html_url": "https://github.com/DrahtBot",
        "followers_url": "https://api.github.com/users/DrahtBot/followers",
        "following_url": "https://api.github.com/users/DrahtBot/following%7B/other_user%7D",
        "gists_url": "https://api.github.com/users/DrahtBot/gists%7B/gist_id%7D",
        "starred_url": "https://api.github.com/users/DrahtBot/starred%7B/owner%7D%7B/repo%7D",
        "subscriptions_url": "https://api.github.com/users/DrahtBot/subscriptions",
        "organizations_url": "https://api.github.com/users/DrahtBot/orgs",
        "repos_url": "https://api.github.com/users/DrahtBot/repos",
        "events_url": "https://api.github.com/users/DrahtBot/events%7B/privacy%7D",
        "received_events_url": "https://api.github.com/users/DrahtBot/received_events",
        "type": "User",
        "site_admin": false
      },
      "html_url": "https://github.com/bitcoin/bitcoin/pull/26514#issuecomment-1320972323",
      "issue_url": "https://api.github.com/repos/bitcoin/bitcoin/issues/26514"
    },
    {
      "event": "cross-referenced",
      "id": null,
      "node_id": null,
      "url": null,
      "actor": {
        "login": "MarcoFalke",
        "id": 6399679,
        "node_id": "MDQ6VXNlcjYzOTk2Nzk=",
        "avatar_url": "https://avatars.githubusercontent.com/u/6399679?v=4",
        "gravatar_id": "",
        "url": "https://api.github.com/users/MarcoFalke",
        "html_url": "https://github.com/MarcoFalke",
        "followers_url": "https://api.github.com/users/MarcoFalke/followers",
        "following_url": "https://api.github.com/users/MarcoFalke/following%7B/other_user%7D",
        "gists_url": "https://api.github.com/users/MarcoFalke/gists%7B/gist_id%7D",
        "starred_url": "https://api.github.com/users/MarcoFalke/starred%7B/owner%7D%7B/repo%7D",
        "subscriptions_url": "https://api.github.com/users/MarcoFalke/subscriptions",
        "organizations_url": "https://api.github.com/users/MarcoFalke/orgs",
        "repos_url": "https://api.github.com/users/MarcoFalke/repos",
        "events_url": "https://api.github.com/users/MarcoFalke/events%7B/privacy%7D",
        "received_events_url": "https://api.github.com/users/MarcoFalke/received_events",
        "type": "User",
        "site_admin": false
      },
      "commit_id": null,
      "commit_url": null,
      "created_at": "2022-11-22T21:34:37Z",
      "updated_at": "2022-11-22T21:34:37Z",
      "source": {
        "issue": {
          "id": 1460558695,
          "node_id": "I_kwDOIQ-abM5XDltn",
          "url": "https://api.github.com/repos/MarcoFalke/DrahtBot/issues/16",
          "repository_url": "https://api.github.com/repos/MarcoFalke/DrahtBot",
          "labels_url": "https://api.github.com/repos/MarcoFalke/DrahtBot/issues/16/labels%7B/name%7D",
          "comments_url": "https://api.github.com/repos/MarcoFalke/DrahtBot/issues/16/comments",
          "events_url": "https://api.github.com/repos/MarcoFalke/DrahtBot/issues/16/events",
          "html_url": "https://github.com/MarcoFalke/DrahtBot/issues/16",
          "number": 16,
          "state": "closed",
          "state_reason": "completed",
          "title": "Incorrect concept NACK",
          "body": "comment here: https://github.com/bitcoin/bitcoin/pull/26076#issuecomment-1294093144\n\nwhich is explicitly \"not a NACK\", is listed as a \"concept NACK\" in the summary comment.",
          "user": {
            "login": "fanquake",
            "id": 863730,
            "node_id": "MDQ6VXNlcjg2MzczMA==",
            "avatar_url": "https://avatars.githubusercontent.com/u/863730?v=4",
            "gravatar_id": "",
            "url": "https://api.github.com/users/fanquake",
            "html_url": "https://github.com/fanquake",
            "followers_url": "https://api.github.com/users/fanquake/followers",
            "following_url": "https://api.github.com/users/fanquake/following%7B/other_user%7D",
            "gists_url": "https://api.github.com/users/fanquake/gists%7B/gist_id%7D",
            "starred_url": "https://api.github.com/users/fanquake/starred%7B/owner%7D%7B/repo%7D",
            "subscriptions_url": "https://api.github.com/users/fanquake/subscriptions",
            "organizations_url": "https://api.github.com/users/fanquake/orgs",
            "repos_url": "https://api.github.com/users/fanquake/repos",
            "events_url": "https://api.github.com/users/fanquake/events%7B/privacy%7D",
            "received_events_url": "https://api.github.com/users/fanquake/received_events",
            "type": "User",
            "site_admin": false
          },
          "labels": [
            {
              "id": 4696721207,
              "node_id": "LA_kwDOIQ-abM8AAAABF_JHNw",
              "url": "https://api.github.com/repos/MarcoFalke/DrahtBot/labels/help%20wanted",
              "name": "help wanted",
              "description": "Extra attention is needed",
              "color": "008672",
              "default": true
            },
            {
              "id": 4812190965,
              "node_id": "LA_kwDOIQ-abM8AAAABHtQ09Q",
              "url": "https://api.github.com/repos/MarcoFalke/DrahtBot/labels/brainstorming",
              "name": "brainstorming",
              "description": "",
              "color": "4BBBF4",
              "default": false
            }
          ],
          "assignees": [],
          "author_association": "NONE",
          "locked": false,
          "comments": 15,
          "closed_at": "2022-11-28T08:24:34Z",
          "created_at": "2022-11-22T21:13:31Z",
          "updated_at": "2022-11-28T08:24:34Z"
        },
        "type": "issue"
      }
    },
    {
      "event": "head_ref_force_pushed",
      "id": 7883241352,
      "node_id": "HRFPE_lADOABII585WjR7PzwAAAAHV4LeI",
      "url": "https://api.github.com/repos/bitcoin/bitcoin/issues/events/7883241352",
      "actor": {
        "login": "aureleoules",
        "id": 22493292,
        "node_id": "MDQ6VXNlcjIyNDkzMjky",
        "avatar_url": "https://avatars.githubusercontent.com/u/22493292?v=4",
        "gravatar_id": "",
        "url": "https://api.github.com/users/aureleoules",
        "html_url": "https://github.com/aureleoules",
        "followers_url": "https://api.github.com/users/aureleoules/followers",
        "following_url": "https://api.github.com/users/aureleoules/following%7B/other_user%7D",
        "gists_url": "https://api.github.com/users/aureleoules/gists%7B/gist_id%7D",
        "starred_url": "https://api.github.com/users/aureleoules/starred%7B/owner%7D%7B/repo%7D",
        "subscriptions_url": "https://api.github.com/users/aureleoules/subscriptions",
        "organizations_url": "https://api.github.com/users/aureleoules/orgs",
        "repos_url": "https://api.github.com/users/aureleoules/repos",
        "events_url": "https://api.github.com/users/aureleoules/events%7B/privacy%7D",
        "received_events_url": "https://api.github.com/users/aureleoules/received_events",
        "type": "User",
        "site_admin": false
      },
      "commit_id": null,
      "commit_url": null,
      "created_at": "2022-11-24T07:28:56Z"
    },
    {
      "event": "head_ref_force_pushed",
      "id": 7883258937,
      "node_id": "HRFPE_lADOABII585WjR7PzwAAAAHV4Pw5",
      "url": "https://api.github.com/repos/bitcoin/bitcoin/issues/events/7883258937",
      "actor": {
        "login": "aureleoules",
        "id": 22493292,
        "node_id": "MDQ6VXNlcjIyNDkzMjky",
        "avatar_url": "https://avatars.githubusercontent.com/u/22493292?v=4",
        "gravatar_id": "",
        "url": "https://api.github.com/users/aureleoules",
        "html_url": "https://github.com/aureleoules",
        "followers_url": "https://api.github.com/users/aureleoules/followers",
        "following_url": "https://api.github.com/users/aureleoules/following%7B/other_user%7D",
        "gists_url": "https://api.github.com/users/aureleoules/gists%7B/gist_id%7D",
        "starred_url": "https://api.github.com/users/aureleoules/starred%7B/owner%7D%7B/repo%7D",
        "subscriptions_url": "https://api.github.com/users/aureleoules/subscriptions",
        "organizations_url": "https://api.github.com/users/aureleoules/orgs",
        "repos_url": "https://api.github.com/users/aureleoules/repos",
        "events_url": "https://api.github.com/users/aureleoules/events%7B/privacy%7D",
        "received_events_url": "https://api.github.com/users/aureleoules/received_events",
        "type": "User",
        "site_admin": false
      },
      "commit_id": null,
      "commit_url": null,
      "created_at": "2022-11-24T07:32:04Z"
    },
    {
      "event": "commented",
      "id": 1326061890,
      "node_id": "IC_kwDOABII585PChlC",
      "url": "https://api.github.com/repos/bitcoin/bitcoin/issues/comments/1326061890",
      "actor": {
        "login": "aureleoules",
        "id": 22493292,
        "node_id": "MDQ6VXNlcjIyNDkzMjky",
        "avatar_url": "https://avatars.githubusercontent.com/u/22493292?v=4",
        "gravatar_id": "",
        "url": "https://api.github.com/users/aureleoules",
        "html_url": "https://github.com/aureleoules",
        "followers_url": "https://api.github.com/users/aureleoules/followers",
        "following_url": "https://api.github.com/users/aureleoules/following%7B/other_user%7D",
        "gists_url": "https://api.github.com/users/aureleoules/gists%7B/gist_id%7D",
        "starred_url": "https://api.github.com/users/aureleoules/starred%7B/owner%7D%7B/repo%7D",
        "subscriptions_url": "https://api.github.com/users/aureleoules/subscriptions",
        "organizations_url": "https://api.github.com/users/aureleoules/orgs",
        "repos_url": "https://api.github.com/users/aureleoules/repos",
        "events_url": "https://api.github.com/users/aureleoules/events%7B/privacy%7D",
        "received_events_url": "https://api.github.com/users/aureleoules/received_events",
        "type": "User",
        "site_admin": false
      },
      "commit_id": null,
      "commit_url": null,
      "created_at": "2022-11-24T07:37:04Z",
      "updated_at": "2022-11-27T19:36:57Z",
      "author_association": "MEMBER",
      "body": "Thanks @luke-jr I addressed your suggestions.  ",
      "user": {
        "login": "aureleoules",
        "id": 22493292,
        "node_id": "MDQ6VXNlcjIyNDkzMjky",
        "avatar_url": "https://avatars.githubusercontent.com/u/22493292?v=4",
        "gravatar_id": "",
        "url": "https://api.github.com/users/aureleoules",
        "html_url": "https://github.com/aureleoules",
        "followers_url": "https://api.github.com/users/aureleoules/followers",
        "following_url": "https://api.github.com/users/aureleoules/following%7B/other_user%7D",
        "gists_url": "https://api.github.com/users/aureleoules/gists%7B/gist_id%7D",
        "starred_url": "https://api.github.com/users/aureleoules/starred%7B/owner%7D%7B/repo%7D",
        "subscriptions_url": "https://api.github.com/users/aureleoules/subscriptions",
        "organizations_url": "https://api.github.com/users/aureleoules/orgs",
        "repos_url": "https://api.github.com/users/aureleoules/repos",
        "events_url": "https://api.github.com/users/aureleoules/events%7B/privacy%7D",
        "received_events_url": "https://api.github.com/users/aureleoules/received_events",
        "type": "User",
        "site_admin": false
      },
      "html_url": "https://github.com/bitcoin/bitcoin/pull/26514#issuecomment-1326061890",
      "issue_url": "https://api.github.com/repos/bitcoin/bitcoin/issues/26514"
    },
    {
      "event": "mentioned",
      "id": 7883286317,
      "node_id": "MEE_lADOABII585WjR7PzwAAAAHV4Wct",
      "url": "https://api.github.com/repos/bitcoin/bitcoin/issues/events/7883286317",
      "actor": {
        "login": "luke-jr",
        "id": 1095675,
        "node_id": "MDQ6VXNlcjEwOTU2NzU=",
        "avatar_url": "https://avatars.githubusercontent.com/u/1095675?v=4",
        "gravatar_id": "",
        "url": "https://api.github.com/users/luke-jr",
        "html_url": "https://github.com/luke-jr",
        "followers_url": "https://api.github.com/users/luke-jr/followers",
        "following_url": "https://api.github.com/users/luke-jr/following%7B/other_user%7D",
        "gists_url": "https://api.github.com/users/luke-jr/gists%7B/gist_id%7D",
        "starred_url": "https://api.github.com/users/luke-jr/starred%7B/owner%7D%7B/repo%7D",
        "subscriptions_url": "https://api.github.com/users/luke-jr/subscriptions",
        "organizations_url": "https://api.github.com/users/luke-jr/orgs",
        "repos_url": "https://api.github.com/users/luke-jr/repos",
        "events_url": "https://api.github.com/users/luke-jr/events%7B/privacy%7D",
        "received_events_url": "https://api.github.com/users/luke-jr/received_events",
        "type": "User",
        "site_admin": false
      },
      "commit_id": null,
      "commit_url": null,
      "created_at": "2022-11-24T07:37:04Z"
    },
    {
      "event": "subscribed",
      "id": 7883286327,
      "node_id": "SE_lADOABII585WjR7PzwAAAAHV4Wc3",
      "url": "https://api.github.com/repos/bitcoin/bitcoin/issues/events/7883286327",
      "actor": {
        "login": "luke-jr",
        "id": 1095675,
        "node_id": "MDQ6VXNlcjEwOTU2NzU=",
        "avatar_url": "https://avatars.githubusercontent.com/u/1095675?v=4",
        "gravatar_id": "",
        "url": "https://api.github.com/users/luke-jr",
        "html_url": "https://github.com/luke-jr",
        "followers_url": "https://api.github.com/users/luke-jr/followers",
        "following_url": "https://api.github.com/users/luke-jr/following%7B/other_user%7D",
        "gists_url": "https://api.github.com/users/luke-jr/gists%7B/gist_id%7D",
        "starred_url": "https://api.github.com/users/luke-jr/starred%7B/owner%7D%7B/repo%7D",
        "subscriptions_url": "https://api.github.com/users/luke-jr/subscriptions",
        "organizations_url": "https://api.github.com/users/luke-jr/orgs",
        "repos_url": "https://api.github.com/users/luke-jr/repos",
        "events_url": "https://api.github.com/users/luke-jr/events%7B/privacy%7D",
        "received_events_url": "https://api.github.com/users/luke-jr/received_events",
        "type": "User",
        "site_admin": false
      },
      "commit_id": null,
      "commit_url": null,
      "created_at": "2022-11-24T07:37:04Z"
    },
    {
      "event": "cross-referenced",
      "id": null,
      "node_id": null,
      "url": null,
      "actor": {
        "login": "DrahtBot",
        "id": 39886733,
        "node_id": "MDQ6VXNlcjM5ODg2NzMz",
        "avatar_url": "https://avatars.githubusercontent.com/u/39886733?v=4",
        "gravatar_id": "",
        "url": "https://api.github.com/users/DrahtBot",
        "html_url": "https://github.com/DrahtBot",
        "followers_url": "https://api.github.com/users/DrahtBot/followers",
        "following_url": "https://api.github.com/users/DrahtBot/following%7B/other_user%7D",
        "gists_url": "https://api.github.com/users/DrahtBot/gists%7B/gist_id%7D",
        "starred_url": "https://api.github.com/users/DrahtBot/starred%7B/owner%7D%7B/repo%7D",
        "subscriptions_url": "https://api.github.com/users/DrahtBot/subscriptions",
        "organizations_url": "https://api.github.com/users/DrahtBot/orgs",
        "repos_url": "https://api.github.com/users/DrahtBot/repos",
        "events_url": "https://api.github.com/users/DrahtBot/events%7B/privacy%7D",
        "received_events_url": "https://api.github.com/users/DrahtBot/received_events",
        "type": "User",
        "site_admin": false
      },
      "commit_id": null,
      "commit_url": null,
      "created_at": "2022-12-13T02:33:42Z",
      "updated_at": "2022-12-13T02:33:42Z",
      "source": {
        "issue": {
          "id": 1229835582,
          "node_id": "PR_kwDOABII5843gkub",
          "url": "https://api.github.com/repos/bitcoin/bitcoin/issues/25093",
          "repository_url": "https://api.github.com/repos/bitcoin/bitcoin",
          "labels_url": "https://api.github.com/repos/bitcoin/bitcoin/issues/25093/labels%7B/name%7D",
          "comments_url": "https://api.github.com/repos/bitcoin/bitcoin/issues/25093/comments",
          "events_url": "https://api.github.com/repos/bitcoin/bitcoin/issues/25093/events",
          "html_url": "https://github.com/bitcoin/bitcoin/pull/25093",
          "number": 25093,
          "state": "closed",
          "state_reason": null,
          "title": "doc: Fix incorrect sendmany RPC doc",
          "body": "This enables the skipped type check for `sendmany` and fixes the resulting error.\r\n\r\nAlso, there is an unrelated test-only commit.",
          "user": {
            "login": "MarcoFalke",
            "id": 6399679,
            "node_id": "MDQ6VXNlcjYzOTk2Nzk=",
            "avatar_url": "https://avatars.githubusercontent.com/u/6399679?v=4",
            "gravatar_id": "",
            "url": "https://api.github.com/users/MarcoFalke",
            "html_url": "https://github.com/MarcoFalke",
            "followers_url": "https://api.github.com/users/MarcoFalke/followers",
            "following_url": "https://api.github.com/users/MarcoFalke/following%7B/other_user%7D",
            "gists_url": "https://api.github.com/users/MarcoFalke/gists%7B/gist_id%7D",
            "starred_url": "https://api.github.com/users/MarcoFalke/starred%7B/owner%7D%7B/repo%7D",
            "subscriptions_url": "https://api.github.com/users/MarcoFalke/subscriptions",
            "organizations_url": "https://api.github.com/users/MarcoFalke/orgs",
            "repos_url": "https://api.github.com/users/MarcoFalke/repos",
            "events_url": "https://api.github.com/users/MarcoFalke/events%7B/privacy%7D",
            "received_events_url": "https://api.github.com/users/MarcoFalke/received_events",
            "type": "User",
            "site_admin": false
          },
          "labels": [
            {
              "id": 148216,
              "node_id": "MDU6TGFiZWwxNDgyMTY=",
              "url": "https://api.github.com/repos/bitcoin/bitcoin/labels/Docs",
              "name": "Docs",
              "color": "02d7e1",
              "default": false
            },
            {
              "id": 149424,
              "node_id": "MDU6TGFiZWwxNDk0MjQ=",
              "url": "https://api.github.com/repos/bitcoin/bitcoin/labels/Wallet",
              "name": "Wallet",
              "color": "08a781",
              "default": false
            },
            {
              "id": 98279177,
              "node_id": "MDU6TGFiZWw5ODI3OTE3Nw==",
              "url": "https://api.github.com/repos/bitcoin/bitcoin/labels/RPC/REST/ZMQ",
              "name": "RPC/REST/ZMQ",
              "color": "0052cc",
              "default": false
            }
          ],
          "assignees": [],
          "author_association": "MEMBER",
          "locked": false,
          "comments": 3,
          "pull_request": {
            "url": "https://api.github.com/repos/bitcoin/bitcoin/pulls/25093",
            "html_url": "https://github.com/bitcoin/bitcoin/pull/25093",
            "diff_url": "https://github.com/bitcoin/bitcoin/pull/25093.diff",
            "patch_url": "https://github.com/bitcoin/bitcoin/pull/25093.patch"
          },
          "closed_at": "2023-01-17T15:20:11Z",
          "created_at": "2022-05-09T14:39:33Z",
          "updated_at": "2023-01-17T19:50:46Z"
        },
        "type": "issue"
      }
    },
    {
      "event": "labeled",
      "id": 8247646966,
      "node_id": "LE_lADOABII585WjR7PzwAAAAHrmRr2",
      "url": "https://api.github.com/repos/bitcoin/bitcoin/issues/events/8247646966",
      "actor": {
        "login": "DrahtBot",
        "id": 39886733,
        "node_id": "MDQ6VXNlcjM5ODg2NzMz",
        "avatar_url": "https://avatars.githubusercontent.com/u/39886733?v=4",
        "gravatar_id": "",
        "url": "https://api.github.com/users/DrahtBot",
        "html_url": "https://github.com/DrahtBot",
        "followers_url": "https://api.github.com/users/DrahtBot/followers",
        "following_url": "https://api.github.com/users/DrahtBot/following%7B/other_user%7D",
        "gists_url": "https://api.github.com/users/DrahtBot/gists%7B/gist_id%7D",
        "starred_url": "https://api.github.com/users/DrahtBot/starred%7B/owner%7D%7B/repo%7D",
        "subscriptions_url": "https://api.github.com/users/DrahtBot/subscriptions",
        "organizations_url": "https://api.github.com/users/DrahtBot/orgs",
        "repos_url": "https://api.github.com/users/DrahtBot/repos",
        "events_url": "https://api.github.com/users/DrahtBot/events%7B/privacy%7D",
        "received_events_url": "https://api.github.com/users/DrahtBot/received_events",
        "type": "User",
        "site_admin": false
      },
      "commit_id": null,
      "commit_url": null,
      "created_at": "2023-01-17T16:47:15Z",
      "label": {
        "name": "Needs rebase",
        "color": "cccccc"
      }
    },
    {
      "event": "committed",
      "id": null,
      "node_id": "C_kwDOABII59oAKDk2MmEwOTMwZTY5OWI3NGIzYzRkMDE5NDI3ZGY2ZTJiM2FmNWM4MzE",
      "url": "https://api.github.com/repos/bitcoin/bitcoin/git/commits/962a0930e699b74b3c4d019427df6e2b3af5c831",
      "actor": null,
      "commit_id": null,
      "commit_url": null,
      "created_at": null,
      "html_url": "https://github.com/bitcoin/bitcoin/commit/962a0930e699b74b3c4d019427df6e2b3af5c831",
      "tree": {
        "sha": "9a50c2e511c562b76df4836c574bb340cd145a2e",
        "url": "https://api.github.com/repos/bitcoin/bitcoin/git/trees/9a50c2e511c562b76df4836c574bb340cd145a2e"
      },
      "verification": {
        "verified": true,
        "reason": "valid",
        "payload": "tree 9a50c2e511c562b76df4836c574bb340cd145a2e\nparent 89fb354f28273c16f8f8152bf112e5246ae40c50\nauthor Aurèle Oulès <aurele@oules.com> 1667921043 +0100\ncommitter Aurèle Oulès <aurele@oules.com> 1673976711 +0100\n\nImprove address decoding errors\n",
        "signature": "-----BEGIN PGP SIGNATURE-----\n\niHUEABYKAB0WIQRWpTAYMQugla4ROcBV85dvcAHZmAUCY8bbiAAKCRBV85dvcAHZ\nmPk9APoCJpvu/ewvBee7n4CvHIKLAAixJ1Cri+Pvbs6KkqLfmAEAmiMcm1FEwafi\nKeCgu7PvkI4l/8fERmtZ/LHG4zG5fAY=\n=ICze\n-----END PGP SIGNATURE-----"
      },
      "parents": [
        {
          "url": "https://api.github.com/repos/bitcoin/bitcoin/git/commits/89fb354f28273c16f8f8152bf112e5246ae40c50",
          "sha": "89fb354f28273c16f8f8152bf112e5246ae40c50",
          "html_url": "https://github.com/bitcoin/bitcoin/commit/89fb354f28273c16f8f8152bf112e5246ae40c50"
        }
      ],
      "message": "Improve address decoding errors",
      "committer": {
        "name": "Aurèle Oulès",
        "email": "aurele@oules.com",
        "date": "2023-01-17T17:31:51Z"
      },
      "author": {
        "name": "Aurèle Oulès",
        "email": "aurele@oules.com",
        "date": "2022-11-08T15:24:03Z"
      },
      "sha": "962a0930e699b74b3c4d019427df6e2b3af5c831"
    },
    {
      "event": "head_ref_force_pushed",
      "id": 8248088580,
      "node_id": "HRFPE_lADOABII585WjR7PzwAAAAHrn9gE",
      "url": "https://api.github.com/repos/bitcoin/bitcoin/issues/events/8248088580",
      "actor": {
        "login": "aureleoules",
        "id": 22493292,
        "node_id": "MDQ6VXNlcjIyNDkzMjky",
        "avatar_url": "https://avatars.githubusercontent.com/u/22493292?v=4",
        "gravatar_id": "",
        "url": "https://api.github.com/users/aureleoules",
        "html_url": "https://github.com/aureleoules",
        "followers_url": "https://api.github.com/users/aureleoules/followers",
        "following_url": "https://api.github.com/users/aureleoules/following%7B/other_user%7D",
        "gists_url": "https://api.github.com/users/aureleoules/gists%7B/gist_id%7D",
        "starred_url": "https://api.github.com/users/aureleoules/starred%7B/owner%7D%7B/repo%7D",
        "subscriptions_url": "https://api.github.com/users/aureleoules/subscriptions",
        "organizations_url": "https://api.github.com/users/aureleoules/orgs",
        "repos_url": "https://api.github.com/users/aureleoules/repos",
        "events_url": "https://api.github.com/users/aureleoules/events%7B/privacy%7D",
        "received_events_url": "https://api.github.com/users/aureleoules/received_events",
        "type": "User",
        "site_admin": false
      },
      "commit_id": null,
      "commit_url": null,
      "created_at": "2023-01-17T17:34:07Z"
    },
    {
      "event": "unlabeled",
      "id": 8248967143,
      "node_id": "UNLE_lADOABII585WjR7PzwAAAAHrrT_n",
      "url": "https://api.github.com/repos/bitcoin/bitcoin/issues/events/8248967143",
      "actor": {
        "login": "DrahtBot",
        "id": 39886733,
        "node_id": "MDQ6VXNlcjM5ODg2NzMz",
        "avatar_url": "https://avatars.githubusercontent.com/u/39886733?v=4",
        "gravatar_id": "",
        "url": "https://api.github.com/users/DrahtBot",
        "html_url": "https://github.com/DrahtBot",
        "followers_url": "https://api.github.com/users/DrahtBot/followers",
        "following_url": "https://api.github.com/users/DrahtBot/following%7B/other_user%7D",
        "gists_url": "https://api.github.com/users/DrahtBot/gists%7B/gist_id%7D",
        "starred_url": "https://api.github.com/users/DrahtBot/starred%7B/owner%7D%7B/repo%7D",
        "subscriptions_url": "https://api.github.com/users/DrahtBot/subscriptions",
        "organizations_url": "https://api.github.com/users/DrahtBot/orgs",
        "repos_url": "https://api.github.com/users/DrahtBot/repos",
        "events_url": "https://api.github.com/users/DrahtBot/events%7B/privacy%7D",
        "received_events_url": "https://api.github.com/users/DrahtBot/received_events",
        "type": "User",
        "site_admin": false
      },
      "commit_id": null,
      "commit_url": null,
      "created_at": "2023-01-17T19:11:54Z",
      "label": {
        "name": "Needs rebase",
        "color": "cccccc"
      }
    },
    {
      "event": "commented",
      "id": 1462666899,
      "node_id": "IC_kwDOABII585XLoaT",
      "url": "https://api.github.com/repos/bitcoin/bitcoin/issues/comments/1462666899",
      "actor": {
        "login": "willcl-ark",
        "id": 6606587,
        "node_id": "MDQ6VXNlcjY2MDY1ODc=",
        "avatar_url": "https://avatars.githubusercontent.com/u/6606587?v=4",
        "gravatar_id": "",
        "url": "https://api.github.com/users/willcl-ark",
        "html_url": "https://github.com/willcl-ark",
        "followers_url": "https://api.github.com/users/willcl-ark/followers",
        "following_url": "https://api.github.com/users/willcl-ark/following%7B/other_user%7D",
        "gists_url": "https://api.github.com/users/willcl-ark/gists%7B/gist_id%7D",
        "starred_url": "https://api.github.com/users/willcl-ark/starred%7B/owner%7D%7B/repo%7D",
        "subscriptions_url": "https://api.github.com/users/willcl-ark/subscriptions",
        "organizations_url": "https://api.github.com/users/willcl-ark/orgs",
        "repos_url": "https://api.github.com/users/willcl-ark/repos",
        "events_url": "https://api.github.com/users/willcl-ark/events%7B/privacy%7D",
        "received_events_url": "https://api.github.com/users/willcl-ark/received_events",
        "type": "User",
        "site_admin": false
      },
      "commit_id": null,
      "commit_url": null,
      "created_at": "2023-03-09T19:38:27Z",
      "updated_at": "2023-03-09T19:38:27Z",
      "author_association": "CONTRIBUTOR",
      "body": "Concept ACK",
      "user": {
        "login": "willcl-ark",
        "id": 6606587,
        "node_id": "MDQ6VXNlcjY2MDY1ODc=",
        "avatar_url": "https://avatars.githubusercontent.com/u/6606587?v=4",
        "gravatar_id": "",
        "url": "https://api.github.com/users/willcl-ark",
        "html_url": "https://github.com/willcl-ark",
        "followers_url": "https://api.github.com/users/willcl-ark/followers",
        "following_url": "https://api.github.com/users/willcl-ark/following%7B/other_user%7D",
        "gists_url": "https://api.github.com/users/willcl-ark/gists%7B/gist_id%7D",
        "starred_url": "https://api.github.com/users/willcl-ark/starred%7B/owner%7D%7B/repo%7D",
        "subscriptions_url": "https://api.github.com/users/willcl-ark/subscriptions",
        "organizations_url": "https://api.github.com/users/willcl-ark/orgs",
        "repos_url": "https://api.github.com/users/willcl-ark/repos",
        "events_url": "https://api.github.com/users/willcl-ark/events%7B/privacy%7D",
        "received_events_url": "https://api.github.com/users/willcl-ark/received_events",
        "type": "User",
        "site_admin": false
      },
      "html_url": "https://github.com/bitcoin/bitcoin/pull/26514#issuecomment-1462666899",
      "issue_url": "https://api.github.com/repos/bitcoin/bitcoin/issues/26514"
    },
    {
      "event": "commented",
      "id": 1464915896,
      "node_id": "IC_kwDOABII585XUNe4",
      "url": "https://api.github.com/repos/bitcoin/bitcoin/issues/comments/1464915896",
      "actor": {
        "login": "davidgumberg",
        "id": 2257631,
        "node_id": "MDQ6VXNlcjIyNTc2MzE=",
        "avatar_url": "https://avatars.githubusercontent.com/u/2257631?v=4",
        "gravatar_id": "",
        "url": "https://api.github.com/users/davidgumberg",
        "html_url": "https://github.com/davidgumberg",
        "followers_url": "https://api.github.com/users/davidgumberg/followers",
        "following_url": "https://api.github.com/users/davidgumberg/following%7B/other_user%7D",
        "gists_url": "https://api.github.com/users/davidgumberg/gists%7B/gist_id%7D",
        "starred_url": "https://api.github.com/users/davidgumberg/starred%7B/owner%7D%7B/repo%7D",
        "subscriptions_url": "https://api.github.com/users/davidgumberg/subscriptions",
        "organizations_url": "https://api.github.com/users/davidgumberg/orgs",
        "repos_url": "https://api.github.com/users/davidgumberg/repos",
        "events_url": "https://api.github.com/users/davidgumberg/events%7B/privacy%7D",
        "received_events_url": "https://api.github.com/users/davidgumberg/received_events",
        "type": "User",
        "site_admin": false
      },
      "commit_id": null,
      "commit_url": null,
      "created_at": "2023-03-11T13:49:09Z",
      "updated_at": "2023-03-11T13:49:09Z",
      "author_association": "CONTRIBUTOR",
      "body": "Maybe add a message for not-yet-understood witness versions and a test case?\r\n\r\n```diff\r\n  if (version == 1 && data.size() == WITNESS_V1_TAPROOT_SIZE) {\r\n      static_assert(WITNESS_V1_TAPROOT_SIZE == WitnessV1Taproot::size());\r\n      WitnessV1Taproot tap;\r\n      std::copy(data.begin(), data.end(), tap.begin());\r\n      return tap;\r\n  }\r\n+\r\n+ if (version > 1 && version <= 16) {\r\n+     error_str =  \"Invalid or unsupported Bech32 address witness version.\"\r\n+     return CNoDestination();\r\n+ }\r\n+\r\n  if (version > 16) {\r\n      error_str = \"Invalid Bech32 address witness version\";\r\n      return CNoDestination();\r\n  }\r\n```",
      "user": {
        "login": "davidgumberg",
        "id": 2257631,
        "node_id": "MDQ6VXNlcjIyNTc2MzE=",
        "avatar_url": "https://avatars.githubusercontent.com/u/2257631?v=4",
        "gravatar_id": "",
        "url": "https://api.github.com/users/davidgumberg",
        "html_url": "https://github.com/davidgumberg",
        "followers_url": "https://api.github.com/users/davidgumberg/followers",
        "following_url": "https://api.github.com/users/davidgumberg/following%7B/other_user%7D",
        "gists_url": "https://api.github.com/users/davidgumberg/gists%7B/gist_id%7D",
        "starred_url": "https://api.github.com/users/davidgumberg/starred%7B/owner%7D%7B/repo%7D",
        "subscriptions_url": "https://api.github.com/users/davidgumberg/subscriptions",
        "organizations_url": "https://api.github.com/users/davidgumberg/orgs",
        "repos_url": "https://api.github.com/users/davidgumberg/repos",
        "events_url": "https://api.github.com/users/davidgumberg/events%7B/privacy%7D",
        "received_events_url": "https://api.github.com/users/davidgumberg/received_events",
        "type": "User",
        "site_admin": false
      },
      "html_url": "https://github.com/bitcoin/bitcoin/pull/26514#issuecomment-1464915896",
      "issue_url": "https://api.github.com/repos/bitcoin/bitcoin/issues/26514"
    },
    {
      "event": "commented",
      "id": 1464916288,
      "node_id": "IC_kwDOABII585XUNlA",
      "url": "https://api.github.com/repos/bitcoin/bitcoin/issues/comments/1464916288",
      "actor": {
        "login": "sipa",
        "id": 548488,
        "node_id": "MDQ6VXNlcjU0ODQ4OA==",
        "avatar_url": "https://avatars.githubusercontent.com/u/548488?v=4",
        "gravatar_id": "",
        "url": "https://api.github.com/users/sipa",
        "html_url": "https://github.com/sipa",
        "followers_url": "https://api.github.com/users/sipa/followers",
        "following_url": "https://api.github.com/users/sipa/following%7B/other_user%7D",
        "gists_url": "https://api.github.com/users/sipa/gists%7B/gist_id%7D",
        "starred_url": "https://api.github.com/users/sipa/starred%7B/owner%7D%7B/repo%7D",
        "subscriptions_url": "https://api.github.com/users/sipa/subscriptions",
        "organizations_url": "https://api.github.com/users/sipa/orgs",
        "repos_url": "https://api.github.com/users/sipa/repos",
        "events_url": "https://api.github.com/users/sipa/events%7B/privacy%7D",
        "received_events_url": "https://api.github.com/users/sipa/received_events",
        "type": "User",
        "site_admin": false
      },
      "commit_id": null,
      "commit_url": null,
      "created_at": "2023-03-11T13:51:01Z",
      "updated_at": "2023-03-11T13:51:01Z",
      "author_association": "MEMBER",
      "body": "@davidgumberg That would be incorrect; sending to future witness versions is perfectly legal. It might make sense in the UI to give a warning, but we can't outlaw it (as it'd break future upgradability).",
      "user": {
        "login": "sipa",
        "id": 548488,
        "node_id": "MDQ6VXNlcjU0ODQ4OA==",
        "avatar_url": "https://avatars.githubusercontent.com/u/548488?v=4",
        "gravatar_id": "",
        "url": "https://api.github.com/users/sipa",
        "html_url": "https://github.com/sipa",
        "followers_url": "https://api.github.com/users/sipa/followers",
        "following_url": "https://api.github.com/users/sipa/following%7B/other_user%7D",
        "gists_url": "https://api.github.com/users/sipa/gists%7B/gist_id%7D",
        "starred_url": "https://api.github.com/users/sipa/starred%7B/owner%7D%7B/repo%7D",
        "subscriptions_url": "https://api.github.com/users/sipa/subscriptions",
        "organizations_url": "https://api.github.com/users/sipa/orgs",
        "repos_url": "https://api.github.com/users/sipa/repos",
        "events_url": "https://api.github.com/users/sipa/events%7B/privacy%7D",
        "received_events_url": "https://api.github.com/users/sipa/received_events",
        "type": "User",
        "site_admin": false
      },
      "html_url": "https://github.com/bitcoin/bitcoin/pull/26514#issuecomment-1464916288",
      "issue_url": "https://api.github.com/repos/bitcoin/bitcoin/issues/26514"
    },
    {
      "event": "mentioned",
      "id": 8724037012,
      "node_id": "MEE_lADOABII585WjR7PzwAAAAIH_j2U",
      "url": "https://api.github.com/repos/bitcoin/bitcoin/issues/events/8724037012",
      "actor": {
        "login": "davidgumberg",
        "id": 2257631,
        "node_id": "MDQ6VXNlcjIyNTc2MzE=",
        "avatar_url": "https://avatars.githubusercontent.com/u/2257631?v=4",
        "gravatar_id": "",
        "url": "https://api.github.com/users/davidgumberg",
        "html_url": "https://github.com/davidgumberg",
        "followers_url": "https://api.github.com/users/davidgumberg/followers",
        "following_url": "https://api.github.com/users/davidgumberg/following%7B/other_user%7D",
        "gists_url": "https://api.github.com/users/davidgumberg/gists%7B/gist_id%7D",
        "starred_url": "https://api.github.com/users/davidgumberg/starred%7B/owner%7D%7B/repo%7D",
        "subscriptions_url": "https://api.github.com/users/davidgumberg/subscriptions",
        "organizations_url": "https://api.github.com/users/davidgumberg/orgs",
        "repos_url": "https://api.github.com/users/davidgumberg/repos",
        "events_url": "https://api.github.com/users/davidgumberg/events%7B/privacy%7D",
        "received_events_url": "https://api.github.com/users/davidgumberg/received_events",
        "type": "User",
        "site_admin": false
      },
      "commit_id": null,
      "commit_url": null,
      "created_at": "2023-03-11T13:51:01Z"
    },
    {
      "event": "subscribed",
      "id": 8724037013,
      "node_id": "SE_lADOABII585WjR7PzwAAAAIH_j2V",
      "url": "https://api.github.com/repos/bitcoin/bitcoin/issues/events/8724037013",
      "actor": {
        "login": "davidgumberg",
        "id": 2257631,
        "node_id": "MDQ6VXNlcjIyNTc2MzE=",
        "avatar_url": "https://avatars.githubusercontent.com/u/2257631?v=4",
        "gravatar_id": "",
        "url": "https://api.github.com/users/davidgumberg",
        "html_url": "https://github.com/davidgumberg",
        "followers_url": "https://api.github.com/users/davidgumberg/followers",
        "following_url": "https://api.github.com/users/davidgumberg/following%7B/other_user%7D",
        "gists_url": "https://api.github.com/users/davidgumberg/gists%7B/gist_id%7D",
        "starred_url": "https://api.github.com/users/davidgumberg/starred%7B/owner%7D%7B/repo%7D",
        "subscriptions_url": "https://api.github.com/users/davidgumberg/subscriptions",
        "organizations_url": "https://api.github.com/users/davidgumberg/orgs",
        "repos_url": "https://api.github.com/users/davidgumberg/repos",
        "events_url": "https://api.github.com/users/davidgumberg/events%7B/privacy%7D",
        "received_events_url": "https://api.github.com/users/davidgumberg/received_events",
        "type": "User",
        "site_admin": false
      },
      "commit_id": null,
      "commit_url": null,
      "created_at": "2023-03-11T13:51:01Z"
    },
    {
      "event": "commented",
      "id": 1464918507,
      "node_id": "IC_kwDOABII585XUOHr",
      "url": "https://api.github.com/repos/bitcoin/bitcoin/issues/comments/1464918507",
      "actor": {
        "login": "davidgumberg",
        "id": 2257631,
        "node_id": "MDQ6VXNlcjIyNTc2MzE=",
        "avatar_url": "https://avatars.githubusercontent.com/u/2257631?v=4",
        "gravatar_id": "",
        "url": "https://api.github.com/users/davidgumberg",
        "html_url": "https://github.com/davidgumberg",
        "followers_url": "https://api.github.com/users/davidgumberg/followers",
        "following_url": "https://api.github.com/users/davidgumberg/following%7B/other_user%7D",
        "gists_url": "https://api.github.com/users/davidgumberg/gists%7B/gist_id%7D",
        "starred_url": "https://api.github.com/users/davidgumberg/starred%7B/owner%7D%7B/repo%7D",
        "subscriptions_url": "https://api.github.com/users/davidgumberg/subscriptions",
        "organizations_url": "https://api.github.com/users/davidgumberg/orgs",
        "repos_url": "https://api.github.com/users/davidgumberg/repos",
        "events_url": "https://api.github.com/users/davidgumberg/events%7B/privacy%7D",
        "received_events_url": "https://api.github.com/users/davidgumberg/received_events",
        "type": "User",
        "site_admin": false
      },
      "commit_id": null,
      "commit_url": null,
      "created_at": "2023-03-11T14:02:03Z",
      "updated_at": "2023-03-11T14:02:03Z",
      "author_association": "CONTRIBUTOR",
      "body": "@sipa Thanks! I misunderstood.",
      "user": {
        "login": "davidgumberg",
        "id": 2257631,
        "node_id": "MDQ6VXNlcjIyNTc2MzE=",
        "avatar_url": "https://avatars.githubusercontent.com/u/2257631?v=4",
        "gravatar_id": "",
        "url": "https://api.github.com/users/davidgumberg",
        "html_url": "https://github.com/davidgumberg",
        "followers_url": "https://api.github.com/users/davidgumberg/followers",
        "following_url": "https://api.github.com/users/davidgumberg/following%7B/other_user%7D",
        "gists_url": "https://api.github.com/users/davidgumberg/gists%7B/gist_id%7D",
        "starred_url": "https://api.github.com/users/davidgumberg/starred%7B/owner%7D%7B/repo%7D",
        "subscriptions_url": "https://api.github.com/users/davidgumberg/subscriptions",
        "organizations_url": "https://api.github.com/users/davidgumberg/orgs",
        "repos_url": "https://api.github.com/users/davidgumberg/repos",
        "events_url": "https://api.github.com/users/davidgumberg/events%7B/privacy%7D",
        "received_events_url": "https://api.github.com/users/davidgumberg/received_events",
        "type": "User",
        "site_admin": false
      },
      "html_url": "https://github.com/bitcoin/bitcoin/pull/26514#issuecomment-1464918507",
      "issue_url": "https://api.github.com/repos/bitcoin/bitcoin/issues/26514"
    },
    {
      "event": "mentioned",
      "id": 8724049997,
      "node_id": "MEE_lADOABII585WjR7PzwAAAAIH_nBN",
      "url": "https://api.github.com/repos/bitcoin/bitcoin/issues/events/8724049997",
      "actor": {
        "login": "sipa",
        "id": 548488,
        "node_id": "MDQ6VXNlcjU0ODQ4OA==",
        "avatar_url": "https://avatars.githubusercontent.com/u/548488?v=4",
        "gravatar_id": "",
        "url": "https://api.github.com/users/sipa",
        "html_url": "https://github.com/sipa",
        "followers_url": "https://api.github.com/users/sipa/followers",
        "following_url": "https://api.github.com/users/sipa/following%7B/other_user%7D",
        "gists_url": "https://api.github.com/users/sipa/gists%7B/gist_id%7D",
        "starred_url": "https://api.github.com/users/sipa/starred%7B/owner%7D%7B/repo%7D",
        "subscriptions_url": "https://api.github.com/users/sipa/subscriptions",
        "organizations_url": "https://api.github.com/users/sipa/orgs",
        "repos_url": "https://api.github.com/users/sipa/repos",
        "events_url": "https://api.github.com/users/sipa/events%7B/privacy%7D",
        "received_events_url": "https://api.github.com/users/sipa/received_events",
        "type": "User",
        "site_admin": false
      },
      "commit_id": null,
      "commit_url": null,
      "created_at": "2023-03-11T14:02:04Z"
    },
    {
      "event": "subscribed",
      "id": 8724050001,
      "node_id": "SE_lADOABII585WjR7PzwAAAAIH_nBR",
      "url": "https://api.github.com/repos/bitcoin/bitcoin/issues/events/8724050001",
      "actor": {
        "login": "sipa",
        "id": 548488,
        "node_id": "MDQ6VXNlcjU0ODQ4OA==",
        "avatar_url": "https://avatars.githubusercontent.com/u/548488?v=4",
        "gravatar_id": "",
        "url": "https://api.github.com/users/sipa",
        "html_url": "https://github.com/sipa",
        "followers_url": "https://api.github.com/users/sipa/followers",
        "following_url": "https://api.github.com/users/sipa/following%7B/other_user%7D",
        "gists_url": "https://api.github.com/users/sipa/gists%7B/gist_id%7D",
        "starred_url": "https://api.github.com/users/sipa/starred%7B/owner%7D%7B/repo%7D",
        "subscriptions_url": "https://api.github.com/users/sipa/subscriptions",
        "organizations_url": "https://api.github.com/users/sipa/orgs",
        "repos_url": "https://api.github.com/users/sipa/repos",
        "events_url": "https://api.github.com/users/sipa/events%7B/privacy%7D",
        "received_events_url": "https://api.github.com/users/sipa/received_events",
        "type": "User",
        "site_admin": false
      },
      "commit_id": null,
      "commit_url": null,
      "created_at": "2023-03-11T14:02:04Z"
    },
    {
      "event": "reviewed",
      "id": 1335898565,
      "node_id": "PRR_kwDOABII585PoDHF",
      "url": null,
      "actor": null,
      "commit_id": "962a0930e699b74b3c4d019427df6e2b3af5c831",
      "commit_url": null,
      "created_at": null,
      "author_association": "NONE",
      "body": "utACK https://github.com/bitcoin/bitcoin/pull/26514/commits/962a0930e699b74b3c4d019427df6e2b3af5c831\r\n\r\n---\r\n\r\n> NACK on talking about \"different networks\". While this could in theory be Lightning or sidechains, it's more likely to lead users toward scamcoins.\r\n\r\nIdeally it should have been 'chain' instead of network as networks are ipv4, ipv6, tor, i2p etc. although we should not be concerned about scammers if they ever use this software but use correct technical terms in errors IMO.\r\n\r\nThe comment is anyways addressed by author and I think PR improves error messages.\r\n",
      "html_url": "https://github.com/bitcoin/bitcoin/pull/26514#pullrequestreview-1335898565",
      "submitted_at": "2023-03-11T15:31:52Z",
      "state": "APPROVED",
      "pull_request_url": "https://api.github.com/repos/bitcoin/bitcoin/pulls/26514"
    },
    {
      "event": "commented",
      "id": 1466373851,
      "node_id": "IC_kwDOABII585XZxbb",
      "url": "https://api.github.com/repos/bitcoin/bitcoin/issues/comments/1466373851",
      "actor": {
        "login": "MarcoFalke",
        "id": 6399679,
        "node_id": "MDQ6VXNlcjYzOTk2Nzk=",
        "avatar_url": "https://avatars.githubusercontent.com/u/6399679?v=4",
        "gravatar_id": "",
        "url": "https://api.github.com/users/MarcoFalke",
        "html_url": "https://github.com/MarcoFalke",
        "followers_url": "https://api.github.com/users/MarcoFalke/followers",
        "following_url": "https://api.github.com/users/MarcoFalke/following%7B/other_user%7D",
        "gists_url": "https://api.github.com/users/MarcoFalke/gists%7B/gist_id%7D",
        "starred_url": "https://api.github.com/users/MarcoFalke/starred%7B/owner%7D%7B/repo%7D",
        "subscriptions_url": "https://api.github.com/users/MarcoFalke/subscriptions",
        "organizations_url": "https://api.github.com/users/MarcoFalke/orgs",
        "repos_url": "https://api.github.com/users/MarcoFalke/repos",
        "events_url": "https://api.github.com/users/MarcoFalke/events%7B/privacy%7D",
        "received_events_url": "https://api.github.com/users/MarcoFalke/received_events",
        "type": "User",
        "site_admin": false
      },
      "commit_id": null,
      "commit_url": null,
      "created_at": "2023-03-13T15:32:28Z",
      "updated_at": "2023-03-13T15:32:28Z",
      "author_association": "MEMBER",
      "body": "lgtm ACK 962a0930e699b74b3c4d019427df6e2b3af5c831",
      "user": {
        "login": "MarcoFalke",
        "id": 6399679,
        "node_id": "MDQ6VXNlcjYzOTk2Nzk=",
        "avatar_url": "https://avatars.githubusercontent.com/u/6399679?v=4",
        "gravatar_id": "",
        "url": "https://api.github.com/users/MarcoFalke",
        "html_url": "https://github.com/MarcoFalke",
        "followers_url": "https://api.github.com/users/MarcoFalke/followers",
        "following_url": "https://api.github.com/users/MarcoFalke/following%7B/other_user%7D",
        "gists_url": "https://api.github.com/users/MarcoFalke/gists%7B/gist_id%7D",
        "starred_url": "https://api.github.com/users/MarcoFalke/starred%7B/owner%7D%7B/repo%7D",
        "subscriptions_url": "https://api.github.com/users/MarcoFalke/subscriptions",
        "organizations_url": "https://api.github.com/users/MarcoFalke/orgs",
        "repos_url": "https://api.github.com/users/MarcoFalke/repos",
        "events_url": "https://api.github.com/users/MarcoFalke/events%7B/privacy%7D",
        "received_events_url": "https://api.github.com/users/MarcoFalke/received_events",
        "type": "User",
        "site_admin": false
      },
      "html_url": "https://github.com/bitcoin/bitcoin/pull/26514#issuecomment-1466373851",
      "issue_url": "https://api.github.com/repos/bitcoin/bitcoin/issues/26514"
    },
    {
      "event": "commented",
      "id": 1466387824,
      "node_id": "IC_kwDOABII585XZ01w",
      "url": "https://api.github.com/repos/bitcoin/bitcoin/issues/comments/1466387824",
      "actor": {
        "login": "davidgumberg",
        "id": 2257631,
        "node_id": "MDQ6VXNlcjIyNTc2MzE=",
        "avatar_url": "https://avatars.githubusercontent.com/u/2257631?v=4",
        "gravatar_id": "",
        "url": "https://api.github.com/users/davidgumberg",
        "html_url": "https://github.com/davidgumberg",
        "followers_url": "https://api.github.com/users/davidgumberg/followers",
        "following_url": "https://api.github.com/users/davidgumberg/following%7B/other_user%7D",
        "gists_url": "https://api.github.com/users/davidgumberg/gists%7B/gist_id%7D",
        "starred_url": "https://api.github.com/users/davidgumberg/starred%7B/owner%7D%7B/repo%7D",
        "subscriptions_url": "https://api.github.com/users/davidgumberg/subscriptions",
        "organizations_url": "https://api.github.com/users/davidgumberg/orgs",
        "repos_url": "https://api.github.com/users/davidgumberg/repos",
        "events_url": "https://api.github.com/users/davidgumberg/events%7B/privacy%7D",
        "received_events_url": "https://api.github.com/users/davidgumberg/received_events",
        "type": "User",
        "site_admin": false
      },
      "commit_id": null,
      "commit_url": null,
      "created_at": "2023-03-13T15:40:04Z",
      "updated_at": "2023-03-13T15:40:04Z",
      "author_association": "CONTRIBUTOR",
      "body": "ACK https://github.com/bitcoin/bitcoin/pull/26514/commits/962a0930e699b74b3c4d019427df6e2b3af5c831",
      "user": {
        "login": "davidgumberg",
        "id": 2257631,
        "node_id": "MDQ6VXNlcjIyNTc2MzE=",
        "avatar_url": "https://avatars.githubusercontent.com/u/2257631?v=4",
        "gravatar_id": "",
        "url": "https://api.github.com/users/davidgumberg",
        "html_url": "https://github.com/davidgumberg",
        "followers_url": "https://api.github.com/users/davidgumberg/followers",
        "following_url": "https://api.github.com/users/davidgumberg/following%7B/other_user%7D",
        "gists_url": "https://api.github.com/users/davidgumberg/gists%7B/gist_id%7D",
        "starred_url": "https://api.github.com/users/davidgumberg/starred%7B/owner%7D%7B/repo%7D",
        "subscriptions_url": "https://api.github.com/users/davidgumberg/subscriptions",
        "organizations_url": "https://api.github.com/users/davidgumberg/orgs",
        "repos_url": "https://api.github.com/users/davidgumberg/repos",
        "events_url": "https://api.github.com/users/davidgumberg/events%7B/privacy%7D",
        "received_events_url": "https://api.github.com/users/davidgumberg/received_events",
        "type": "User",
        "site_admin": false
      },
      "html_url": "https://github.com/bitcoin/bitcoin/pull/26514#issuecomment-1466387824",
      "issue_url": "https://api.github.com/repos/bitcoin/bitcoin/issues/26514"
    },
    {
      "event": "merged",
      "id": 8734191698,
      "node_id": "ME_lADOABII585WjR7PzwAAAAIImTBS",
      "url": "https://api.github.com/repos/bitcoin/bitcoin/issues/events/8734191698",
      "actor": {
        "login": "glozow",
        "id": 25183001,
        "node_id": "MDQ6VXNlcjI1MTgzMDAx",
        "avatar_url": "https://avatars.githubusercontent.com/u/25183001?v=4",
        "gravatar_id": "",
        "url": "https://api.github.com/users/glozow",
        "html_url": "https://github.com/glozow",
        "followers_url": "https://api.github.com/users/glozow/followers",
        "following_url": "https://api.github.com/users/glozow/following%7B/other_user%7D",
        "gists_url": "https://api.github.com/users/glozow/gists%7B/gist_id%7D",
        "starred_url": "https://api.github.com/users/glozow/starred%7B/owner%7D%7B/repo%7D",
        "subscriptions_url": "https://api.github.com/users/glozow/subscriptions",
        "organizations_url": "https://api.github.com/users/glozow/orgs",
        "repos_url": "https://api.github.com/users/glozow/repos",
        "events_url": "https://api.github.com/users/glozow/events%7B/privacy%7D",
        "received_events_url": "https://api.github.com/users/glozow/received_events",
        "type": "User",
        "site_admin": false
      },
      "commit_id": "73a9892bce41585bf99531ebe70678e0a1dc1a44",
      "commit_url": "https://api.github.com/repos/bitcoin/bitcoin/commits/73a9892bce41585bf99531ebe70678e0a1dc1a44",
      "created_at": "2023-03-13T16:58:05Z"
    },
    {
      "event": "closed",
      "id": 8734191740,
      "node_id": "CE_lADOABII585WjR7PzwAAAAIImTB8",
      "url": "https://api.github.com/repos/bitcoin/bitcoin/issues/events/8734191740",
      "actor": {
        "login": "glozow",
        "id": 25183001,
        "node_id": "MDQ6VXNlcjI1MTgzMDAx",
        "avatar_url": "https://avatars.githubusercontent.com/u/25183001?v=4",
        "gravatar_id": "",
        "url": "https://api.github.com/users/glozow",
        "html_url": "https://github.com/glozow",
        "followers_url": "https://api.github.com/users/glozow/followers",
        "following_url": "https://api.github.com/users/glozow/following%7B/other_user%7D",
        "gists_url": "https://api.github.com/users/glozow/gists%7B/gist_id%7D",
        "starred_url": "https://api.github.com/users/glozow/starred%7B/owner%7D%7B/repo%7D",
        "subscriptions_url": "https://api.github.com/users/glozow/subscriptions",
        "organizations_url": "https://api.github.com/users/glozow/orgs",
        "repos_url": "https://api.github.com/users/glozow/repos",
        "events_url": "https://api.github.com/users/glozow/events%7B/privacy%7D",
        "received_events_url": "https://api.github.com/users/glozow/received_events",
        "type": "User",
        "site_admin": false
      },
      "commit_id": null,
      "commit_url": null,
      "created_at": "2023-03-13T16:58:05Z"
    },
    {
      "event": "head_ref_deleted",
      "id": 8735398947,
      "node_id": "HRDE_lADOABII585WjR7PzwAAAAIIq5wj",
      "url": "https://api.github.com/repos/bitcoin/bitcoin/issues/events/8735398947",
      "actor": {
        "login": "aureleoules",
        "id": 22493292,
        "node_id": "MDQ6VXNlcjIyNDkzMjky",
        "avatar_url": "https://avatars.githubusercontent.com/u/22493292?v=4",
        "gravatar_id": "",
        "url": "https://api.github.com/users/aureleoules",
        "html_url": "https://github.com/aureleoules",
        "followers_url": "https://api.github.com/users/aureleoules/followers",
        "following_url": "https://api.github.com/users/aureleoules/following%7B/other_user%7D",
        "gists_url": "https://api.github.com/users/aureleoules/gists%7B/gist_id%7D",
        "starred_url": "https://api.github.com/users/aureleoules/starred%7B/owner%7D%7B/repo%7D",
        "subscriptions_url": "https://api.github.com/users/aureleoules/subscriptions",
        "organizations_url": "https://api.github.com/users/aureleoules/orgs",
        "repos_url": "https://api.github.com/users/aureleoules/repos",
        "events_url": "https://api.github.com/users/aureleoules/events%7B/privacy%7D",
        "received_events_url": "https://api.github.com/users/aureleoules/received_events",
        "type": "User",
        "site_admin": false
      },
      "commit_id": null,
      "commit_url": null,
      "created_at": "2023-03-13T19:06:36Z"
    },
    {
      "event": "referenced",
      "id": 8745459785,
      "node_id": "REFE_lADOABII585WjR7PzwAAAAIJRSBJ",
      "url": "https://api.github.com/repos/bitcoin/bitcoin/issues/events/8745459785",
      "actor": {
        "login": "sidhujag",
        "id": 6238042,
        "node_id": "MDQ6VXNlcjYyMzgwNDI=",
        "avatar_url": "https://avatars.githubusercontent.com/u/6238042?v=4",
        "gravatar_id": "",
        "url": "https://api.github.com/users/sidhujag",
        "html_url": "https://github.com/sidhujag",
        "followers_url": "https://api.github.com/users/sidhujag/followers",
        "following_url": "https://api.github.com/users/sidhujag/following%7B/other_user%7D",
        "gists_url": "https://api.github.com/users/sidhujag/gists%7B/gist_id%7D",
        "starred_url": "https://api.github.com/users/sidhujag/starred%7B/owner%7D%7B/repo%7D",
        "subscriptions_url": "https://api.github.com/users/sidhujag/subscriptions",
        "organizations_url": "https://api.github.com/users/sidhujag/orgs",
        "repos_url": "https://api.github.com/users/sidhujag/repos",
        "events_url": "https://api.github.com/users/sidhujag/events%7B/privacy%7D",
        "received_events_url": "https://api.github.com/users/sidhujag/received_events",
        "type": "User",
        "site_admin": false
      },
      "commit_id": "39cd5ddd7da995474f20bd133f178d9ee6018dfc",
      "commit_url": "https://api.github.com/repos/syscoin/syscoin/commits/39cd5ddd7da995474f20bd133f178d9ee6018dfc",
      "created_at": "2023-03-14T15:53:32Z"
    },
    {
      "event": "referenced",
      "id": 8756299171,
      "node_id": "REFE_lADOABII585WjR7PzwAAAAIJ6oWj",
      "url": "https://api.github.com/repos/bitcoin/bitcoin/issues/events/8756299171",
      "actor": {
        "login": "sidhujag",
        "id": 6238042,
        "node_id": "MDQ6VXNlcjYyMzgwNDI=",
        "avatar_url": "https://avatars.githubusercontent.com/u/6238042?v=4",
        "gravatar_id": "",
        "url": "https://api.github.com/users/sidhujag",
        "html_url": "https://github.com/sidhujag",
        "followers_url": "https://api.github.com/users/sidhujag/followers",
        "following_url": "https://api.github.com/users/sidhujag/following%7B/other_user%7D",
        "gists_url": "https://api.github.com/users/sidhujag/gists%7B/gist_id%7D",
        "starred_url": "https://api.github.com/users/sidhujag/starred%7B/owner%7D%7B/repo%7D",
        "subscriptions_url": "https://api.github.com/users/sidhujag/subscriptions",
        "organizations_url": "https://api.github.com/users/sidhujag/orgs",
        "repos_url": "https://api.github.com/users/sidhujag/repos",
        "events_url": "https://api.github.com/users/sidhujag/events%7B/privacy%7D",
        "received_events_url": "https://api.github.com/users/sidhujag/received_events",
        "type": "User",
        "site_admin": false
      },
      "commit_id": "fc3998666a853b77347627d3a28e84800c95a9e4",
      "commit_url": "https://api.github.com/repos/syscoin/syscoin/commits/fc3998666a853b77347627d3a28e84800c95a9e4",
      "created_at": "2023-03-15T14:42:14Z"
    }
  ],
  "comments": [
    {
      "url": "https://api.github.com/repos/bitcoin/bitcoin/pulls/comments/1027144456",
      "pull_request_review_id": 1187122628,
      "id": 1027144456,
      "node_id": "PRRC_kwDOABII5849OPsI",
      "diff_hunk": "@@ -107,17 +107,17 @@ CTxDestination DecodeDestination(const std::string& str, const CChainParams& par\n                 std::equal(script_prefix.begin(), script_prefix.end(), data.begin())) ||\n             (data.size() >= pubkey_prefix.size() &&\n                 std::equal(pubkey_prefix.begin(), pubkey_prefix.end(), data.begin()))) {\n-            error_str = \"Invalid length for Base58 address\";\n+            error_str = \"Invalid length for Base58 address (P2PKH or P2SH)\";\n         } else {\n-            error_str = \"Invalid prefix for Base58-encoded address\";\n+            error_str = strprintf(\"Invalid prefix for Base58-encoded address on %s. This may be an address for a different network. Valid address starts with `1` or `3` (mainnet) and `m` or `n` or `2` (testnet).\", params.NetworkIDString());",
      "path": "src/key_io.cpp",
      "position": null,
      "original_position": 8,
      "commit_id": "962a0930e699b74b3c4d019427df6e2b3af5c831",
      "original_commit_id": "7d3944dac66f355d3530e2bc6a5fc602a2edba05",
      "in_reply_to_id": null,
      "user": {
        "login": "luke-jr",
        "id": 1095675,
        "node_id": "MDQ6VXNlcjEwOTU2NzU=",
        "avatar_url": "https://avatars.githubusercontent.com/u/1095675?v=4",
        "gravatar_id": "",
        "url": "https://api.github.com/users/luke-jr",
        "html_url": "https://github.com/luke-jr",
        "followers_url": "https://api.github.com/users/luke-jr/followers",
        "following_url": "https://api.github.com/users/luke-jr/following%7B/other_user%7D",
        "gists_url": "https://api.github.com/users/luke-jr/gists%7B/gist_id%7D",
        "starred_url": "https://api.github.com/users/luke-jr/starred%7B/owner%7D%7B/repo%7D",
        "subscriptions_url": "https://api.github.com/users/luke-jr/subscriptions",
        "organizations_url": "https://api.github.com/users/luke-jr/orgs",
        "repos_url": "https://api.github.com/users/luke-jr/repos",
        "events_url": "https://api.github.com/users/luke-jr/events%7B/privacy%7D",
        "received_events_url": "https://api.github.com/users/luke-jr/received_events",
        "type": "User",
        "site_admin": false
      },
      "body": "```suggestion\r\n            error_str = strprintf(\"Invalid or unsupported Base58-encoded address.\", params.NetworkIDString());\r\n```",
      "created_at": "2022-11-19T21:17:45Z",
      "updated_at": "2022-11-19T21:22:13Z",
      "html_url": "https://github.com/bitcoin/bitcoin/pull/26514#discussion_r1027144456",
      "author_association": "MEMBER",
      "_links": {
        "self": {
          "href": "https://api.github.com/repos/bitcoin/bitcoin/pulls/comments/1027144456"
        },
        "pull_request": {
          "href": "https://api.github.com/repos/bitcoin/bitcoin/pulls/26514"
        }
      },
      "start_line": null,
      "original_start_line": null,
      "start_side": null,
      "line": null,
      "original_line": 112,
      "side": "RIGHT"
    },
    {
      "url": "https://api.github.com/repos/bitcoin/bitcoin/pulls/comments/1027144497",
      "pull_request_review_id": 1187122628,
      "id": 1027144497,
      "node_id": "PRRC_kwDOABII5849OPsx",
      "diff_hunk": "@@ -107,17 +107,17 @@ CTxDestination DecodeDestination(const std::string& str, const CChainParams& par\n                 std::equal(script_prefix.begin(), script_prefix.end(), data.begin())) ||\n             (data.size() >= pubkey_prefix.size() &&\n                 std::equal(pubkey_prefix.begin(), pubkey_prefix.end(), data.begin()))) {\n-            error_str = \"Invalid length for Base58 address\";\n+            error_str = \"Invalid length for Base58 address (P2PKH or P2SH)\";\n         } else {\n-            error_str = \"Invalid prefix for Base58-encoded address\";\n+            error_str = strprintf(\"Invalid prefix for Base58-encoded address on %s. This may be an address for a different network. Valid address starts with `1` or `3` (mainnet) and `m` or `n` or `2` (testnet).\", params.NetworkIDString());\n         }\n         return CNoDestination();\n     } else if (!is_bech32) {\n         // Try Base58 decoding without the checksum, using a much larger max length\n         if (!DecodeBase58(str, data, 100)) {\n-            error_str = \"Not a valid Bech32 or Base58 encoding\";\n+            error_str = \"Not a valid Segwit (Bech32) or Base58 encoding. This may be an address for a different network.\";",
      "path": "src/key_io.cpp",
      "position": null,
      "original_position": 15,
      "commit_id": "962a0930e699b74b3c4d019427df6e2b3af5c831",
      "original_commit_id": "7d3944dac66f355d3530e2bc6a5fc602a2edba05",
      "in_reply_to_id": null,
      "user": {
        "login": "luke-jr",
        "id": 1095675,
        "node_id": "MDQ6VXNlcjEwOTU2NzU=",
        "avatar_url": "https://avatars.githubusercontent.com/u/1095675?v=4",
        "gravatar_id": "",
        "url": "https://api.github.com/users/luke-jr",
        "html_url": "https://github.com/luke-jr",
        "followers_url": "https://api.github.com/users/luke-jr/followers",
        "following_url": "https://api.github.com/users/luke-jr/following%7B/other_user%7D",
        "gists_url": "https://api.github.com/users/luke-jr/gists%7B/gist_id%7D",
        "starred_url": "https://api.github.com/users/luke-jr/starred%7B/owner%7D%7B/repo%7D",
        "subscriptions_url": "https://api.github.com/users/luke-jr/subscriptions",
        "organizations_url": "https://api.github.com/users/luke-jr/orgs",
        "repos_url": "https://api.github.com/users/luke-jr/repos",
        "events_url": "https://api.github.com/users/luke-jr/events%7B/privacy%7D",
        "received_events_url": "https://api.github.com/users/luke-jr/received_events",
        "type": "User",
        "site_admin": false
      },
      "body": "```suggestion\r\n            error_str = \"Invalid or unsupported Segwit (Bech32) or Base58 encoding.\";\r\n```",
      "created_at": "2022-11-19T21:18:07Z",
      "updated_at": "2022-11-19T21:22:13Z",
      "html_url": "https://github.com/bitcoin/bitcoin/pull/26514#discussion_r1027144497",
      "author_association": "MEMBER",
      "_links": {
        "self": {
          "href": "https://api.github.com/repos/bitcoin/bitcoin/pulls/comments/1027144497"
        },
        "pull_request": {
          "href": "https://api.github.com/repos/bitcoin/bitcoin/pulls/26514"
        }
      },
      "start_line": null,
      "original_start_line": null,
      "start_side": null,
      "line": null,
      "original_line": 118,
      "side": "RIGHT"
    },
    {
      "url": "https://api.github.com/repos/bitcoin/bitcoin/pulls/comments/1027144582",
      "pull_request_review_id": 1187122628,
      "id": 1027144582,
      "node_id": "PRRC_kwDOABII5849OPuG",
      "diff_hunk": "@@ -127,7 +127,8 @@ CTxDestination DecodeDestination(const std::string& str, const CChainParams& par\n     if ((dec.encoding == bech32::Encoding::BECH32 || dec.encoding == bech32::Encoding::BECH32M) && dec.data.size() > 0) {\n         // Bech32 decoding\n         if (dec.hrp != params.Bech32HRP()) {\n-            error_str = \"Invalid prefix for Bech32 address\";\n+            error_str = strprintf(\"Invalid prefix for Segwit (Bech32) address on %s (expected %s, got %s). This may be an address for a different network.\",",
      "path": "src/key_io.cpp",
      "position": null,
      "original_position": 27,
      "commit_id": "962a0930e699b74b3c4d019427df6e2b3af5c831",
      "original_commit_id": "7d3944dac66f355d3530e2bc6a5fc602a2edba05",
      "in_reply_to_id": null,
      "user": {
        "login": "luke-jr",
        "id": 1095675,
        "node_id": "MDQ6VXNlcjEwOTU2NzU=",
        "avatar_url": "https://avatars.githubusercontent.com/u/1095675?v=4",
        "gravatar_id": "",
        "url": "https://api.github.com/users/luke-jr",
        "html_url": "https://github.com/luke-jr",
        "followers_url": "https://api.github.com/users/luke-jr/followers",
        "following_url": "https://api.github.com/users/luke-jr/following%7B/other_user%7D",
        "gists_url": "https://api.github.com/users/luke-jr/gists%7B/gist_id%7D",
        "starred_url": "https://api.github.com/users/luke-jr/starred%7B/owner%7D%7B/repo%7D",
        "subscriptions_url": "https://api.github.com/users/luke-jr/subscriptions",
        "organizations_url": "https://api.github.com/users/luke-jr/orgs",
        "repos_url": "https://api.github.com/users/luke-jr/repos",
        "events_url": "https://api.github.com/users/luke-jr/events%7B/privacy%7D",
        "received_events_url": "https://api.github.com/users/luke-jr/received_events",
        "type": "User",
        "site_admin": false
      },
      "body": "```suggestion\r\n            error_str = strprintf(\"Invalid or unsupported prefix for Segwit (Bech32) address on %s (expected %s, got %s).\",\r\n```",
      "created_at": "2022-11-19T21:18:29Z",
      "updated_at": "2022-11-19T21:22:13Z",
      "html_url": "https://github.com/bitcoin/bitcoin/pull/26514#discussion_r1027144582",
      "author_association": "MEMBER",
      "_links": {
        "self": {
          "href": "https://api.github.com/repos/bitcoin/bitcoin/pulls/comments/1027144582"
        },
        "pull_request": {
          "href": "https://api.github.com/repos/bitcoin/bitcoin/pulls/26514"
        }
      },
      "start_line": null,
      "original_start_line": null,
      "start_side": null,
      "line": null,
      "original_line": 130,
      "side": "RIGHT"
    },
    {
      "url": "https://api.github.com/repos/bitcoin/bitcoin/pulls/comments/1031144140",
      "pull_request_review_id": 1192647453,
      "id": 1031144140,
      "node_id": "PRRC_kwDOABII5849dgLM",
      "diff_hunk": "@@ -127,7 +127,8 @@ CTxDestination DecodeDestination(const std::string& str, const CChainParams& par\n     if ((dec.encoding == bech32::Encoding::BECH32 || dec.encoding == bech32::Encoding::BECH32M) && dec.data.size() > 0) {\n         // Bech32 decoding\n         if (dec.hrp != params.Bech32HRP()) {\n-            error_str = \"Invalid prefix for Bech32 address\";\n+            error_str = strprintf(\"Invalid prefix for Segwit (Bech32) address on %s (expected %s, got %s). This may be an address for a different network.\",",
      "path": "src/key_io.cpp",
      "position": null,
      "original_position": 27,
      "commit_id": "962a0930e699b74b3c4d019427df6e2b3af5c831",
      "original_commit_id": "7d3944dac66f355d3530e2bc6a5fc602a2edba05",
      "in_reply_to_id": 1027144582,
      "user": {
        "login": "aureleoules",
        "id": 22493292,
        "node_id": "MDQ6VXNlcjIyNDkzMjky",
        "avatar_url": "https://avatars.githubusercontent.com/u/22493292?v=4",
        "gravatar_id": "",
        "url": "https://api.github.com/users/aureleoules",
        "html_url": "https://github.com/aureleoules",
        "followers_url": "https://api.github.com/users/aureleoules/followers",
        "following_url": "https://api.github.com/users/aureleoules/following%7B/other_user%7D",
        "gists_url": "https://api.github.com/users/aureleoules/gists%7B/gist_id%7D",
        "starred_url": "https://api.github.com/users/aureleoules/starred%7B/owner%7D%7B/repo%7D",
        "subscriptions_url": "https://api.github.com/users/aureleoules/subscriptions",
        "organizations_url": "https://api.github.com/users/aureleoules/orgs",
        "repos_url": "https://api.github.com/users/aureleoules/repos",
        "events_url": "https://api.github.com/users/aureleoules/events%7B/privacy%7D",
        "received_events_url": "https://api.github.com/users/aureleoules/received_events",
        "type": "User",
        "site_admin": false
      },
      "body": "I also removed the `on %s` (network)",
      "created_at": "2022-11-24T07:42:42Z",
      "updated_at": "2022-11-24T07:42:42Z",
      "html_url": "https://github.com/bitcoin/bitcoin/pull/26514#discussion_r1031144140",
      "author_association": "MEMBER",
      "_links": {
        "self": {
          "href": "https://api.github.com/repos/bitcoin/bitcoin/pulls/comments/1031144140"
        },
        "pull_request": {
          "href": "https://api.github.com/repos/bitcoin/bitcoin/pulls/26514"
        }
      },
      "start_line": null,
      "original_start_line": null,
      "start_side": null,
      "line": null,
      "original_line": 130,
      "side": "RIGHT"
    }
  ]
}