{
  "type": "pull",
  "pull": {
    "url": "https://api.github.com/repos/bitcoin/bitcoin/pulls/26522",
    "id": 1126108292,
    "node_id": "PR_kwDOABII585DHwyE",
    "html_url": "https://github.com/bitcoin/bitcoin/pull/26522",
    "diff_url": "https://github.com/bitcoin/bitcoin/pull/26522.diff",
    "patch_url": "https://github.com/bitcoin/bitcoin/pull/26522.patch",
    "issue_url": "https://api.github.com/repos/bitcoin/bitcoin/issues/26522",
    "commits_url": "https://api.github.com/repos/bitcoin/bitcoin/pulls/26522/commits",
    "review_comments_url": "https://api.github.com/repos/bitcoin/bitcoin/pulls/26522/comments",
    "review_comment_url": "https://api.github.com/repos/bitcoin/bitcoin/pulls/comments%7B/number%7D",
    "comments_url": "https://api.github.com/repos/bitcoin/bitcoin/issues/26522/comments",
    "statuses_url": "https://api.github.com/repos/bitcoin/bitcoin/statuses/e54a4deff85d079099c76fb63c128fa597834f75",
    "number": 26522,
    "state": "closed",
    "locked": false,
    "maintainer_can_modify": false,
    "title": "[23.x] GUI backports",
    "user": {
      "login": "hebasto",
      "id": 32963518,
      "node_id": "MDQ6VXNlcjMyOTYzNTE4",
      "avatar_url": "https://avatars.githubusercontent.com/u/32963518?v=4",
      "gravatar_id": "",
      "url": "https://api.github.com/users/hebasto",
      "html_url": "https://github.com/hebasto",
      "followers_url": "https://api.github.com/users/hebasto/followers",
      "following_url": "https://api.github.com/users/hebasto/following%7B/other_user%7D",
      "gists_url": "https://api.github.com/users/hebasto/gists%7B/gist_id%7D",
      "starred_url": "https://api.github.com/users/hebasto/starred%7B/owner%7D%7B/repo%7D",
      "subscriptions_url": "https://api.github.com/users/hebasto/subscriptions",
      "organizations_url": "https://api.github.com/users/hebasto/orgs",
      "repos_url": "https://api.github.com/users/hebasto/repos",
      "events_url": "https://api.github.com/users/hebasto/events%7B/privacy%7D",
      "received_events_url": "https://api.github.com/users/hebasto/received_events",
      "type": "User",
      "site_admin": false
    },
    "body": "Backports:\r\n- bitcoin-core/gui#680",
    "labels": [
      {
        "id": 390024790,
        "node_id": "MDU6TGFiZWwzOTAwMjQ3OTA=",
        "url": "https://api.github.com/repos/bitcoin/bitcoin/labels/Backport",
        "name": "Backport",
        "description": "",
        "color": "dd7200",
        "default": false
      }
    ],
    "milestone": {
      "url": "https://api.github.com/repos/bitcoin/bitcoin/milestones/57",
      "html_url": "https://github.com/bitcoin/bitcoin/milestone/57",
      "labels_url": "https://api.github.com/repos/bitcoin/bitcoin/milestones/57/labels",
      "id": 7754034,
      "node_id": "MI_kwDOABII584AdlEy",
      "number": 57,
      "state": "closed",
      "title": "23.1",
      "description": "",
      "creator": {
        "login": "laanwj",
        "id": 126646,
        "node_id": "MDQ6VXNlcjEyNjY0Ng==",
        "avatar_url": "https://avatars.githubusercontent.com/u/126646?v=4",
        "gravatar_id": "",
        "url": "https://api.github.com/users/laanwj",
        "html_url": "https://github.com/laanwj",
        "followers_url": "https://api.github.com/users/laanwj/followers",
        "following_url": "https://api.github.com/users/laanwj/following%7B/other_user%7D",
        "gists_url": "https://api.github.com/users/laanwj/gists%7B/gist_id%7D",
        "starred_url": "https://api.github.com/users/laanwj/starred%7B/owner%7D%7B/repo%7D",
        "subscriptions_url": "https://api.github.com/users/laanwj/subscriptions",
        "organizations_url": "https://api.github.com/users/laanwj/orgs",
        "repos_url": "https://api.github.com/users/laanwj/repos",
        "events_url": "https://api.github.com/users/laanwj/events%7B/privacy%7D",
        "received_events_url": "https://api.github.com/users/laanwj/received_events",
        "type": "User",
        "site_admin": false
      },
      "open_issues": 0,
      "closed_issues": 16,
      "created_at": "2022-03-10T11:27:28Z",
      "updated_at": "2023-01-11T16:43:36Z",
      "closed_at": "2023-01-11T16:43:36Z"
    },
    "created_at": "2022-11-17T14:42:10Z",
    "updated_at": "2022-11-21T10:11:26Z",
    "closed_at": "2022-11-21T09:59:08Z",
    "mergeable_state": "unknown",
    "merged_at": "2022-11-21T09:59:08Z",
    "merge_commit_sha": "d14dc8e2c6e80a7bfe0351ee59818a75158c160a",
    "assignees": [],
    "requested_reviewers": [],
    "requested_teams": [],
    "head": {
      "label": "hebasto:221117-23.1-gui-bp",
      "ref": "221117-23.1-gui-bp",
      "sha": "e54a4deff85d079099c76fb63c128fa597834f75",
      "user": {
        "login": "hebasto",
        "id": 32963518,
        "node_id": "MDQ6VXNlcjMyOTYzNTE4",
        "avatar_url": "https://avatars.githubusercontent.com/u/32963518?v=4",
        "gravatar_id": "",
        "url": "https://api.github.com/users/hebasto",
        "html_url": "https://github.com/hebasto",
        "followers_url": "https://api.github.com/users/hebasto/followers",
        "following_url": "https://api.github.com/users/hebasto/following%7B/other_user%7D",
        "gists_url": "https://api.github.com/users/hebasto/gists%7B/gist_id%7D",
        "starred_url": "https://api.github.com/users/hebasto/starred%7B/owner%7D%7B/repo%7D",
        "subscriptions_url": "https://api.github.com/users/hebasto/subscriptions",
        "organizations_url": "https://api.github.com/users/hebasto/orgs",
        "repos_url": "https://api.github.com/users/hebasto/repos",
        "events_url": "https://api.github.com/users/hebasto/events%7B/privacy%7D",
        "received_events_url": "https://api.github.com/users/hebasto/received_events",
        "type": "User",
        "site_admin": false
      },
      "repo": {
        "id": 143212778,
        "node_id": "MDEwOlJlcG9zaXRvcnkxNDMyMTI3Nzg=",
        "name": "bitcoin",
        "full_name": "hebasto/bitcoin",
        "owner": {
          "login": "hebasto",
          "id": 32963518,
          "node_id": "MDQ6VXNlcjMyOTYzNTE4",
          "avatar_url": "https://avatars.githubusercontent.com/u/32963518?v=4",
          "gravatar_id": "",
          "url": "https://api.github.com/users/hebasto",
          "html_url": "https://github.com/hebasto",
          "followers_url": "https://api.github.com/users/hebasto/followers",
          "following_url": "https://api.github.com/users/hebasto/following%7B/other_user%7D",
          "gists_url": "https://api.github.com/users/hebasto/gists%7B/gist_id%7D",
          "starred_url": "https://api.github.com/users/hebasto/starred%7B/owner%7D%7B/repo%7D",
          "subscriptions_url": "https://api.github.com/users/hebasto/subscriptions",
          "organizations_url": "https://api.github.com/users/hebasto/orgs",
          "repos_url": "https://api.github.com/users/hebasto/repos",
          "events_url": "https://api.github.com/users/hebasto/events%7B/privacy%7D",
          "received_events_url": "https://api.github.com/users/hebasto/received_events",
          "type": "User",
          "site_admin": false
        },
        "private": false,
        "html_url": "https://github.com/hebasto/bitcoin",
        "description": "Bitcoin Core integration/staging tree",
        "fork": true,
        "url": "https://api.github.com/repos/hebasto/bitcoin",
        "archive_url": "https://api.github.com/repos/hebasto/bitcoin/%7Barchive_format%7D%7B/ref%7D",
        "assignees_url": "https://api.github.com/repos/hebasto/bitcoin/assignees%7B/user%7D",
        "blobs_url": "https://api.github.com/repos/hebasto/bitcoin/git/blobs%7B/sha%7D",
        "branches_url": "https://api.github.com/repos/hebasto/bitcoin/branches%7B/branch%7D",
        "collaborators_url": "https://api.github.com/repos/hebasto/bitcoin/collaborators%7B/collaborator%7D",
        "comments_url": "https://api.github.com/repos/hebasto/bitcoin/comments%7B/number%7D",
        "commits_url": "https://api.github.com/repos/hebasto/bitcoin/commits%7B/sha%7D",
        "compare_url": "https://api.github.com/repos/hebasto/bitcoin/compare/%7Bbase%7D...%7Bhead%7D",
        "contents_url": "https://api.github.com/repos/hebasto/bitcoin/contents/%7B+path%7D",
        "contributors_url": "https://api.github.com/repos/hebasto/bitcoin/contributors",
        "deployments_url": "https://api.github.com/repos/hebasto/bitcoin/deployments",
        "downloads_url": "https://api.github.com/repos/hebasto/bitcoin/downloads",
        "events_url": "https://api.github.com/repos/hebasto/bitcoin/events",
        "forks_url": "https://api.github.com/repos/hebasto/bitcoin/forks",
        "git_commits_url": "https://api.github.com/repos/hebasto/bitcoin/git/commits%7B/sha%7D",
        "git_refs_url": "https://api.github.com/repos/hebasto/bitcoin/git/refs%7B/sha%7D",
        "git_tags_url": "https://api.github.com/repos/hebasto/bitcoin/git/tags%7B/sha%7D",
        "git_url": "git://github.com/hebasto/bitcoin.git",
        "issue_comment_url": "https://api.github.com/repos/hebasto/bitcoin/issues/comments%7B/number%7D",
        "issue_events_url": "https://api.github.com/repos/hebasto/bitcoin/issues/events%7B/number%7D",
        "issues_url": "https://api.github.com/repos/hebasto/bitcoin/issues%7B/number%7D",
        "keys_url": "https://api.github.com/repos/hebasto/bitcoin/keys%7B/key_id%7D",
        "labels_url": "https://api.github.com/repos/hebasto/bitcoin/labels%7B/name%7D",
        "languages_url": "https://api.github.com/repos/hebasto/bitcoin/languages",
        "merges_url": "https://api.github.com/repos/hebasto/bitcoin/merges",
        "milestones_url": "https://api.github.com/repos/hebasto/bitcoin/milestones%7B/number%7D",
        "notifications_url": "https://api.github.com/repos/hebasto/bitcoin/notifications%7B?since,all,participating}",
        "pulls_url": "https://api.github.com/repos/hebasto/bitcoin/pulls%7B/number%7D",
        "releases_url": "https://api.github.com/repos/hebasto/bitcoin/releases%7B/id%7D",
        "ssh_url": "git@github.com:hebasto/bitcoin.git",
        "stargazers_url": "https://api.github.com/repos/hebasto/bitcoin/stargazers",
        "statuses_url": "https://api.github.com/repos/hebasto/bitcoin/statuses/%7Bsha%7D",
        "subscribers_url": "https://api.github.com/repos/hebasto/bitcoin/subscribers",
        "subscription_url": "https://api.github.com/repos/hebasto/bitcoin/subscription",
        "tags_url": "https://api.github.com/repos/hebasto/bitcoin/tags",
        "teams_url": "https://api.github.com/repos/hebasto/bitcoin/teams",
        "trees_url": "https://api.github.com/repos/hebasto/bitcoin/git/trees%7B/sha%7D",
        "clone_url": "https://github.com/hebasto/bitcoin.git",
        "hooks_url": "https://api.github.com/repos/hebasto/bitcoin/hooks",
        "svn_url": "https://github.com/hebasto/bitcoin",
        "homepage": "https://bitcoincore.org/en/download",
        "language": "C++",
        "forks_count": 3,
        "stargazers_count": 13,
        "watchers_count": 13,
        "size": 251607,
        "default_branch": "master",
        "open_issues_count": 3,
        "is_template": false,
        "topics": [
          "bitcoin-core"
        ],
        "has_issues": true,
        "has_projects": false,
        "has_wiki": false,
        "has_pages": false,
        "has_downloads": false,
        "archived": false,
        "disabled": false,
        "visibility": "public",
        "pushed_at": "2023-08-02T18:38:17Z",
        "created_at": "2018-08-01T21:59:57Z",
        "updated_at": "2023-07-25T14:18:54Z",
        "license": {
          "key": "mit",
          "name": "MIT License",
          "node_id": "MDc6TGljZW5zZTEz",
          "spdx_id": "MIT",
          "url": "https://api.github.com/licenses/mit",
          "html_url": null,
          "description": null,
          "implementation": null,
          "permissions": null,
          "conditions": null,
          "limitations": null,
          "body": null,
          "featured": null
        }
      }
    },
    "base": {
      "label": "bitcoin:23.x",
      "ref": "23.x",
      "sha": "3e0cf5e82ba34f647a906fca8c7f2b849ddee41d",
      "user": {
        "login": "bitcoin",
        "id": 528860,
        "node_id": "MDEyOk9yZ2FuaXphdGlvbjUyODg2MA==",
        "avatar_url": "https://avatars.githubusercontent.com/u/528860?v=4",
        "gravatar_id": "",
        "url": "https://api.github.com/users/bitcoin",
        "html_url": "https://github.com/bitcoin",
        "followers_url": "https://api.github.com/users/bitcoin/followers",
        "following_url": "https://api.github.com/users/bitcoin/following%7B/other_user%7D",
        "gists_url": "https://api.github.com/users/bitcoin/gists%7B/gist_id%7D",
        "starred_url": "https://api.github.com/users/bitcoin/starred%7B/owner%7D%7B/repo%7D",
        "subscriptions_url": "https://api.github.com/users/bitcoin/subscriptions",
        "organizations_url": "https://api.github.com/users/bitcoin/orgs",
        "repos_url": "https://api.github.com/users/bitcoin/repos",
        "events_url": "https://api.github.com/users/bitcoin/events%7B/privacy%7D",
        "received_events_url": "https://api.github.com/users/bitcoin/received_events",
        "type": "Organization",
        "site_admin": false
      },
      "repo": {
        "id": 1181927,
        "node_id": "MDEwOlJlcG9zaXRvcnkxMTgxOTI3",
        "name": "bitcoin",
        "full_name": "bitcoin/bitcoin",
        "owner": {
          "login": "bitcoin",
          "id": 528860,
          "node_id": "MDEyOk9yZ2FuaXphdGlvbjUyODg2MA==",
          "avatar_url": "https://avatars.githubusercontent.com/u/528860?v=4",
          "gravatar_id": "",
          "url": "https://api.github.com/users/bitcoin",
          "html_url": "https://github.com/bitcoin",
          "followers_url": "https://api.github.com/users/bitcoin/followers",
          "following_url": "https://api.github.com/users/bitcoin/following%7B/other_user%7D",
          "gists_url": "https://api.github.com/users/bitcoin/gists%7B/gist_id%7D",
          "starred_url": "https://api.github.com/users/bitcoin/starred%7B/owner%7D%7B/repo%7D",
          "subscriptions_url": "https://api.github.com/users/bitcoin/subscriptions",
          "organizations_url": "https://api.github.com/users/bitcoin/orgs",
          "repos_url": "https://api.github.com/users/bitcoin/repos",
          "events_url": "https://api.github.com/users/bitcoin/events%7B/privacy%7D",
          "received_events_url": "https://api.github.com/users/bitcoin/received_events",
          "type": "Organization",
          "site_admin": false
        },
        "private": false,
        "html_url": "https://github.com/bitcoin/bitcoin",
        "description": "Bitcoin Core integration/staging tree",
        "fork": false,
        "url": "https://api.github.com/repos/bitcoin/bitcoin",
        "archive_url": "https://api.github.com/repos/bitcoin/bitcoin/%7Barchive_format%7D%7B/ref%7D",
        "assignees_url": "https://api.github.com/repos/bitcoin/bitcoin/assignees%7B/user%7D",
        "blobs_url": "https://api.github.com/repos/bitcoin/bitcoin/git/blobs%7B/sha%7D",
        "branches_url": "https://api.github.com/repos/bitcoin/bitcoin/branches%7B/branch%7D",
        "collaborators_url": "https://api.github.com/repos/bitcoin/bitcoin/collaborators%7B/collaborator%7D",
        "comments_url": "https://api.github.com/repos/bitcoin/bitcoin/comments%7B/number%7D",
        "commits_url": "https://api.github.com/repos/bitcoin/bitcoin/commits%7B/sha%7D",
        "compare_url": "https://api.github.com/repos/bitcoin/bitcoin/compare/%7Bbase%7D...%7Bhead%7D",
        "contents_url": "https://api.github.com/repos/bitcoin/bitcoin/contents/%7B+path%7D",
        "contributors_url": "https://api.github.com/repos/bitcoin/bitcoin/contributors",
        "deployments_url": "https://api.github.com/repos/bitcoin/bitcoin/deployments",
        "downloads_url": "https://api.github.com/repos/bitcoin/bitcoin/downloads",
        "events_url": "https://api.github.com/repos/bitcoin/bitcoin/events",
        "forks_url": "https://api.github.com/repos/bitcoin/bitcoin/forks",
        "git_commits_url": "https://api.github.com/repos/bitcoin/bitcoin/git/commits%7B/sha%7D",
        "git_refs_url": "https://api.github.com/repos/bitcoin/bitcoin/git/refs%7B/sha%7D",
        "git_tags_url": "https://api.github.com/repos/bitcoin/bitcoin/git/tags%7B/sha%7D",
        "git_url": "git://github.com/bitcoin/bitcoin.git",
        "issue_comment_url": "https://api.github.com/repos/bitcoin/bitcoin/issues/comments%7B/number%7D",
        "issue_events_url": "https://api.github.com/repos/bitcoin/bitcoin/issues/events%7B/number%7D",
        "issues_url": "https://api.github.com/repos/bitcoin/bitcoin/issues%7B/number%7D",
        "keys_url": "https://api.github.com/repos/bitcoin/bitcoin/keys%7B/key_id%7D",
        "labels_url": "https://api.github.com/repos/bitcoin/bitcoin/labels%7B/name%7D",
        "languages_url": "https://api.github.com/repos/bitcoin/bitcoin/languages",
        "merges_url": "https://api.github.com/repos/bitcoin/bitcoin/merges",
        "milestones_url": "https://api.github.com/repos/bitcoin/bitcoin/milestones%7B/number%7D",
        "notifications_url": "https://api.github.com/repos/bitcoin/bitcoin/notifications%7B?since,all,participating}",
        "pulls_url": "https://api.github.com/repos/bitcoin/bitcoin/pulls%7B/number%7D",
        "releases_url": "https://api.github.com/repos/bitcoin/bitcoin/releases%7B/id%7D",
        "ssh_url": "git@github.com:bitcoin/bitcoin.git",
        "stargazers_url": "https://api.github.com/repos/bitcoin/bitcoin/stargazers",
        "statuses_url": "https://api.github.com/repos/bitcoin/bitcoin/statuses/%7Bsha%7D",
        "subscribers_url": "https://api.github.com/repos/bitcoin/bitcoin/subscribers",
        "subscription_url": "https://api.github.com/repos/bitcoin/bitcoin/subscription",
        "tags_url": "https://api.github.com/repos/bitcoin/bitcoin/tags",
        "teams_url": "https://api.github.com/repos/bitcoin/bitcoin/teams",
        "trees_url": "https://api.github.com/repos/bitcoin/bitcoin/git/trees%7B/sha%7D",
        "clone_url": "https://github.com/bitcoin/bitcoin.git",
        "hooks_url": "https://api.github.com/repos/bitcoin/bitcoin/hooks",
        "svn_url": "https://github.com/bitcoin/bitcoin",
        "homepage": "https://bitcoincore.org/en/download",
        "language": "C++",
        "forks_count": 35476,
        "stargazers_count": 70608,
        "watchers_count": 70608,
        "size": 236222,
        "default_branch": "master",
        "open_issues_count": 673,
        "is_template": false,
        "topics": [
          "bitcoin",
          "c-plus-plus",
          "cryptocurrency",
          "cryptography",
          "p2p"
        ],
        "has_issues": true,
        "has_projects": true,
        "has_wiki": false,
        "has_pages": false,
        "has_downloads": false,
        "archived": false,
        "disabled": false,
        "visibility": "public",
        "pushed_at": "2023-08-03T00:03:27Z",
        "created_at": "2010-12-19T15:16:43Z",
        "updated_at": "2023-08-02T18:21:18Z",
        "license": {
          "key": "mit",
          "name": "MIT License",
          "node_id": "MDc6TGljZW5zZTEz",
          "spdx_id": "MIT",
          "url": "https://api.github.com/licenses/mit",
          "html_url": null,
          "description": null,
          "implementation": null,
          "permissions": null,
          "conditions": null,
          "limitations": null,
          "body": null,
          "featured": null
        }
      }
    },
    "_links": {
      "self": {
        "href": "https://api.github.com/repos/bitcoin/bitcoin/pulls/26522"
      }
    },
    "author_association": "MEMBER",
    "draft": false,
    "additions": 2,
    "deletions": 2,
    "changed_files": 1,
    "commits": 1,
    "review_comments": 0,
    "comments": 1
  },
  "events": [
    {
      "event": "committed",
      "id": null,
      "node_id": "C_kwDOABII59oAKGU1NGE0ZGVmZjg1ZDA3OTA5OWM3NmZiNjNjMTI4ZmE1OTc4MzRmNzU",
      "url": "https://api.github.com/repos/bitcoin/bitcoin/git/commits/e54a4deff85d079099c76fb63c128fa597834f75",
      "actor": null,
      "commit_id": null,
      "commit_url": null,
      "created_at": null,
      "html_url": "https://github.com/bitcoin/bitcoin/commit/e54a4deff85d079099c76fb63c128fa597834f75",
      "tree": {
        "sha": "7ee8c330f15a3d7e15f226b724f2e25638b5bff5",
        "url": "https://api.github.com/repos/bitcoin/bitcoin/git/trees/7ee8c330f15a3d7e15f226b724f2e25638b5bff5"
      },
      "verification": {
        "verified": true,
        "reason": "valid",
        "payload": "tree 7ee8c330f15a3d7e15f226b724f2e25638b5bff5\nparent 3e0cf5e82ba34f647a906fca8c7f2b849ddee41d\nauthor John Moffett <john.moff@gmail.com> 1668526863 -0500\ncommitter Hennadii Stepanov <32963518+hebasto@users.noreply.github.com> 1668695966 +0000\n\nFixes bitcoin#26490 by preventing notifications\n\nMacOS 13 sends a window focus change notification after the main\nwindow has been destroyed but before the QTApplication has been\ndestroyed. This results in the menu bar receiving a notification\ndespite it no longer existing. The solution is to pass the main\nwindow as context when subscribing to the notifications. Qt\nautomatically unsubscribes to notifications if the sender OR\ncontext is destroyed.\n\nGithub-Pull: bitcoin-core/gui#680\nRebased-From: 8a5014cd8a05b3ab86ae34a47653a82ce11bdf17\n",
        "signature": "-----BEGIN PGP SIGNATURE-----\n\niQIzBAABCgAdFiEE0dvyxLlvLev0wWZUQQEIES5+qB8FAmN2R54ACgkQQQEIES5+\nqB9lzw/+J61njWeS9WA5lAoAjlyCR9IqmBHUCJryh96tg42sYX3GIGfLKhqTjsL4\nsKjg5wC/YOXX9jl22pms5g1Ue65CWYOmWRvrBt/Pi32lJLGxRQOCnwg7sJAYUpjL\nfMJpsRbZMrHzwpjIvY0oI5I+WVkL/Hrek2KAoacOQfMcyl2AWQIXV89qLHEsYvsX\n1ed42TsMc7AHVoyvS4xss/731Z9OHQVZq1MPdDAVM83I7eHDhs71vgUifd/XZ9Qo\nYQTzuPiHHRDTAfaLpFk0zjlBTlKcUllmx6ZjXecWQOsTfSYS25jkadkFoc+2kjg3\nhi/YwmbZwyNbOvAkFFoMyB2CVDu8A+DiVqHxvrGT2fhpgHZpdGVsusMimNtHB5VI\ncJ1AJo8HhSZNrILynjhfxi2MfD58KTEnV+nm3ESBneAWHZXKcrxc2WvcJPuaVA4P\nZakV5Dz3ltRHVp2Is8pOn5x64+PyRfl9zFEtiM6qcxn/XyyJtLqT8riAiRNZHpPN\nuY8QUsx8zj2EBYxyIJNXURbjWAEKMgyRxgoO672/w1wdEaI24xkiwnCyrKEJCyEj\n+9mk99fJaHKr3z3S6CTcEHRX2qIev1JAxMFhgAAcSir807gL+L/f15vJ6RX5N4D+\nUEeyWcxRYqk3veWTaJafUNLnoDirdti36nDkadYANBathNELsps=\n=70ri\n-----END PGP SIGNATURE-----"
      },
      "parents": [
        {
          "url": "https://api.github.com/repos/bitcoin/bitcoin/git/commits/3e0cf5e82ba34f647a906fca8c7f2b849ddee41d",
          "sha": "3e0cf5e82ba34f647a906fca8c7f2b849ddee41d",
          "html_url": "https://github.com/bitcoin/bitcoin/commit/3e0cf5e82ba34f647a906fca8c7f2b849ddee41d"
        }
      ],
      "message": "Fixes bitcoin#26490 by preventing notifications\n\nMacOS 13 sends a window focus change notification after the main\nwindow has been destroyed but before the QTApplication has been\ndestroyed. This results in the menu bar receiving a notification\ndespite it no longer existing. The solution is to pass the main\nwindow as context when subscribing to the notifications. Qt\nautomatically unsubscribes to notifications if the sender OR\ncontext is destroyed.\n\nGithub-Pull: bitcoin-core/gui#680\nRebased-From: 8a5014cd8a05b3ab86ae34a47653a82ce11bdf17",
      "committer": {
        "name": "Hennadii Stepanov",
        "email": "32963518+hebasto@users.noreply.github.com",
        "date": "2022-11-17T14:39:26Z"
      },
      "author": {
        "name": "John Moffett",
        "email": "john.moff@gmail.com",
        "date": "2022-11-15T15:41:03Z"
      },
      "sha": "e54a4deff85d079099c76fb63c128fa597834f75"
    },
    {
      "event": "labeled",
      "id": 7834619987,
      "node_id": "LE_lADOABII585WoipXzwAAAAHS-tBT",
      "url": "https://api.github.com/repos/bitcoin/bitcoin/issues/events/7834619987",
      "actor": {
        "login": "hebasto",
        "id": 32963518,
        "node_id": "MDQ6VXNlcjMyOTYzNTE4",
        "avatar_url": "https://avatars.githubusercontent.com/u/32963518?v=4",
        "gravatar_id": "",
        "url": "https://api.github.com/users/hebasto",
        "html_url": "https://github.com/hebasto",
        "followers_url": "https://api.github.com/users/hebasto/followers",
        "following_url": "https://api.github.com/users/hebasto/following%7B/other_user%7D",
        "gists_url": "https://api.github.com/users/hebasto/gists%7B/gist_id%7D",
        "starred_url": "https://api.github.com/users/hebasto/starred%7B/owner%7D%7B/repo%7D",
        "subscriptions_url": "https://api.github.com/users/hebasto/subscriptions",
        "organizations_url": "https://api.github.com/users/hebasto/orgs",
        "repos_url": "https://api.github.com/users/hebasto/repos",
        "events_url": "https://api.github.com/users/hebasto/events%7B/privacy%7D",
        "received_events_url": "https://api.github.com/users/hebasto/received_events",
        "type": "User",
        "site_admin": false
      },
      "commit_id": null,
      "commit_url": null,
      "created_at": "2022-11-17T14:42:10Z",
      "label": {
        "name": "Backport",
        "color": "dd7200"
      }
    },
    {
      "event": "milestoned",
      "id": 7834620003,
      "node_id": "MIE_lADOABII585WoipXzwAAAAHS-tBj",
      "url": "https://api.github.com/repos/bitcoin/bitcoin/issues/events/7834620003",
      "actor": {
        "login": "hebasto",
        "id": 32963518,
        "node_id": "MDQ6VXNlcjMyOTYzNTE4",
        "avatar_url": "https://avatars.githubusercontent.com/u/32963518?v=4",
        "gravatar_id": "",
        "url": "https://api.github.com/users/hebasto",
        "html_url": "https://github.com/hebasto",
        "followers_url": "https://api.github.com/users/hebasto/followers",
        "following_url": "https://api.github.com/users/hebasto/following%7B/other_user%7D",
        "gists_url": "https://api.github.com/users/hebasto/gists%7B/gist_id%7D",
        "starred_url": "https://api.github.com/users/hebasto/starred%7B/owner%7D%7B/repo%7D",
        "subscriptions_url": "https://api.github.com/users/hebasto/subscriptions",
        "organizations_url": "https://api.github.com/users/hebasto/orgs",
        "repos_url": "https://api.github.com/users/hebasto/repos",
        "events_url": "https://api.github.com/users/hebasto/events%7B/privacy%7D",
        "received_events_url": "https://api.github.com/users/hebasto/received_events",
        "type": "User",
        "site_admin": false
      },
      "commit_id": null,
      "commit_url": null,
      "created_at": "2022-11-17T14:42:10Z",
      "milestone": {
        "title": "23.1"
      }
    },
    {
      "event": "cross-referenced",
      "id": null,
      "node_id": null,
      "url": null,
      "actor": {
        "login": "hebasto",
        "id": 32963518,
        "node_id": "MDQ6VXNlcjMyOTYzNTE4",
        "avatar_url": "https://avatars.githubusercontent.com/u/32963518?v=4",
        "gravatar_id": "",
        "url": "https://api.github.com/users/hebasto",
        "html_url": "https://github.com/hebasto",
        "followers_url": "https://api.github.com/users/hebasto/followers",
        "following_url": "https://api.github.com/users/hebasto/following%7B/other_user%7D",
        "gists_url": "https://api.github.com/users/hebasto/gists%7B/gist_id%7D",
        "starred_url": "https://api.github.com/users/hebasto/starred%7B/owner%7D%7B/repo%7D",
        "subscriptions_url": "https://api.github.com/users/hebasto/subscriptions",
        "organizations_url": "https://api.github.com/users/hebasto/orgs",
        "repos_url": "https://api.github.com/users/hebasto/repos",
        "events_url": "https://api.github.com/users/hebasto/events%7B/privacy%7D",
        "received_events_url": "https://api.github.com/users/hebasto/received_events",
        "type": "User",
        "site_admin": false
      },
      "commit_id": null,
      "commit_url": null,
      "created_at": "2022-11-17T14:46:47Z",
      "updated_at": "2022-11-17T14:46:47Z",
      "source": {
        "issue": {
          "id": 1450149082,
          "node_id": "PR_kwDOEEET9c5C8saa",
          "url": "https://api.github.com/repos/bitcoin-core/gui/issues/680",
          "repository_url": "https://api.github.com/repos/bitcoin-core/gui",
          "labels_url": "https://api.github.com/repos/bitcoin-core/gui/issues/680/labels%7B/name%7D",
          "comments_url": "https://api.github.com/repos/bitcoin-core/gui/issues/680/comments",
          "events_url": "https://api.github.com/repos/bitcoin-core/gui/issues/680/events",
          "html_url": "https://github.com/bitcoin-core/gui/pull/680",
          "number": 680,
          "state": "closed",
          "state_reason": null,
          "title": "Fixes MacOS 13 segfault by preventing certain notifications after main window is destroyed",
          "body": "This is a PR to address https://github.com/bitcoin/bitcoin/issues/26490\r\n\r\nThe menu bar currently subscribes to window focus change notifications to enable or disable certain menu options in response to the window status. \r\n\r\nNotifications are automatically unsubscribed (disconnected in Qt parlance) if the sender is deleted -- in this case, the sender is the QTApplication object (`qApp`). However, MacOS 13 sends a window focus change notification *after* the main window has been destroyed but *before* `qApp` has been fully destroyed. \r\n\r\nSince the menu bar is deleted in the main window's destructor, it no longer exists when it receives these notifications (in two different places via lambda expressions). The solution is to pass the main window (`this`) as context when subscribing to the notifications. In this [overloaded version](https://doc.qt.io/qt-5/qobject.html#connect-1) of `connect`, Qt automatically unsubscribes to notifications if the sender OR context (here the main window object) is destroyed. Since the spurious notifications are sent after the main window object is destroyed, this change prevents them from being sent.\r\n\r\nTested on Mac OS 13 and 12 only.\r\n",
          "user": {
            "login": "john-moffett",
            "id": 116917595,
            "node_id": "U_kgDOBvgFWw",
            "avatar_url": "https://avatars.githubusercontent.com/u/116917595?v=4",
            "gravatar_id": "",
            "url": "https://api.github.com/users/john-moffett",
            "html_url": "https://github.com/john-moffett",
            "followers_url": "https://api.github.com/users/john-moffett/followers",
            "following_url": "https://api.github.com/users/john-moffett/following%7B/other_user%7D",
            "gists_url": "https://api.github.com/users/john-moffett/gists%7B/gist_id%7D",
            "starred_url": "https://api.github.com/users/john-moffett/starred%7B/owner%7D%7B/repo%7D",
            "subscriptions_url": "https://api.github.com/users/john-moffett/subscriptions",
            "organizations_url": "https://api.github.com/users/john-moffett/orgs",
            "repos_url": "https://api.github.com/users/john-moffett/repos",
            "events_url": "https://api.github.com/users/john-moffett/events%7B/privacy%7D",
            "received_events_url": "https://api.github.com/users/john-moffett/received_events",
            "type": "User",
            "site_admin": false
          },
          "labels": [
            {
              "id": 2140649117,
              "node_id": "MDU6TGFiZWwyMTQwNjQ5MTE3",
              "url": "https://api.github.com/repos/bitcoin-core/gui/labels/Bug",
              "name": "Bug",
              "description": "Something isn't working",
              "color": "d73a4a",
              "default": false
            },
            {
              "id": 2452934032,
              "node_id": "MDU6TGFiZWwyNDUyOTM0MDMy",
              "url": "https://api.github.com/repos/bitcoin-core/gui/labels/macOS",
              "name": "macOS",
              "description": "",
              "color": "551189",
              "default": false
            }
          ],
          "assignees": [],
          "author_association": "CONTRIBUTOR",
          "locked": false,
          "comments": 6,
          "pull_request": {
            "url": "https://api.github.com/repos/bitcoin-core/gui/pulls/680",
            "html_url": "https://github.com/bitcoin-core/gui/pull/680",
            "diff_url": "https://github.com/bitcoin-core/gui/pull/680.diff",
            "patch_url": "https://github.com/bitcoin-core/gui/pull/680.patch"
          },
          "closed_at": "2022-11-17T14:30:27Z",
          "created_at": "2022-11-15T17:39:20Z",
          "updated_at": "2022-11-17T18:13:43Z"
        },
        "type": "issue"
      }
    },
    {
      "event": "review_requested",
      "id": 7842357459,
      "node_id": "RRE_lADOABII585WoipXzwAAAAHTcODT",
      "url": "https://api.github.com/repos/bitcoin/bitcoin/issues/events/7842357459",
      "actor": {
        "login": "fanquake",
        "id": 863730,
        "node_id": "MDQ6VXNlcjg2MzczMA==",
        "avatar_url": "https://avatars.githubusercontent.com/u/863730?v=4",
        "gravatar_id": "",
        "url": "https://api.github.com/users/fanquake",
        "html_url": "https://github.com/fanquake",
        "followers_url": "https://api.github.com/users/fanquake/followers",
        "following_url": "https://api.github.com/users/fanquake/following%7B/other_user%7D",
        "gists_url": "https://api.github.com/users/fanquake/gists%7B/gist_id%7D",
        "starred_url": "https://api.github.com/users/fanquake/starred%7B/owner%7D%7B/repo%7D",
        "subscriptions_url": "https://api.github.com/users/fanquake/subscriptions",
        "organizations_url": "https://api.github.com/users/fanquake/orgs",
        "repos_url": "https://api.github.com/users/fanquake/repos",
        "events_url": "https://api.github.com/users/fanquake/events%7B/privacy%7D",
        "received_events_url": "https://api.github.com/users/fanquake/received_events",
        "type": "User",
        "site_admin": false
      },
      "commit_id": null,
      "commit_url": null,
      "created_at": "2022-11-18T10:24:30Z",
      "requested_reviewer": {
        "login": "jarolrod",
        "id": 23396902,
        "node_id": "MDQ6VXNlcjIzMzk2OTAy",
        "avatar_url": "https://avatars.githubusercontent.com/u/23396902?v=4",
        "gravatar_id": "",
        "url": "https://api.github.com/users/jarolrod",
        "html_url": "https://github.com/jarolrod",
        "followers_url": "https://api.github.com/users/jarolrod/followers",
        "following_url": "https://api.github.com/users/jarolrod/following%7B/other_user%7D",
        "gists_url": "https://api.github.com/users/jarolrod/gists%7B/gist_id%7D",
        "starred_url": "https://api.github.com/users/jarolrod/starred%7B/owner%7D%7B/repo%7D",
        "subscriptions_url": "https://api.github.com/users/jarolrod/subscriptions",
        "organizations_url": "https://api.github.com/users/jarolrod/orgs",
        "repos_url": "https://api.github.com/users/jarolrod/repos",
        "events_url": "https://api.github.com/users/jarolrod/events%7B/privacy%7D",
        "received_events_url": "https://api.github.com/users/jarolrod/received_events",
        "type": "User",
        "site_admin": false
      },
      "review_requester": {
        "login": "fanquake",
        "id": 863730,
        "node_id": "MDQ6VXNlcjg2MzczMA==",
        "avatar_url": "https://avatars.githubusercontent.com/u/863730?v=4",
        "gravatar_id": "",
        "url": "https://api.github.com/users/fanquake",
        "html_url": "https://github.com/fanquake",
        "followers_url": "https://api.github.com/users/fanquake/followers",
        "following_url": "https://api.github.com/users/fanquake/following%7B/other_user%7D",
        "gists_url": "https://api.github.com/users/fanquake/gists%7B/gist_id%7D",
        "starred_url": "https://api.github.com/users/fanquake/starred%7B/owner%7D%7B/repo%7D",
        "subscriptions_url": "https://api.github.com/users/fanquake/subscriptions",
        "organizations_url": "https://api.github.com/users/fanquake/orgs",
        "repos_url": "https://api.github.com/users/fanquake/repos",
        "events_url": "https://api.github.com/users/fanquake/events%7B/privacy%7D",
        "received_events_url": "https://api.github.com/users/fanquake/received_events",
        "type": "User",
        "site_admin": false
      }
    },
    {
      "event": "reviewed",
      "id": 1186770883,
      "node_id": "PRR_kwDOABII585GvK_D",
      "url": null,
      "actor": null,
      "commit_id": "e54a4deff85d079099c76fb63c128fa597834f75",
      "commit_url": null,
      "created_at": null,
      "author_association": "MEMBER",
      "body": "ACK e54a4deff85d079099c76fb63c128fa597834f75\r\n\r\nConfirmed the issue by running 23.x on macOS Ventura, this backport fixes the issue.",
      "user": {
        "login": "jarolrod",
        "id": 23396902,
        "node_id": "MDQ6VXNlcjIzMzk2OTAy",
        "avatar_url": "https://avatars.githubusercontent.com/u/23396902?v=4",
        "gravatar_id": "",
        "url": "https://api.github.com/users/jarolrod",
        "html_url": "https://github.com/jarolrod",
        "followers_url": "https://api.github.com/users/jarolrod/followers",
        "following_url": "https://api.github.com/users/jarolrod/following%7B/other_user%7D",
        "gists_url": "https://api.github.com/users/jarolrod/gists%7B/gist_id%7D",
        "starred_url": "https://api.github.com/users/jarolrod/starred%7B/owner%7D%7B/repo%7D",
        "subscriptions_url": "https://api.github.com/users/jarolrod/subscriptions",
        "organizations_url": "https://api.github.com/users/jarolrod/orgs",
        "repos_url": "https://api.github.com/users/jarolrod/repos",
        "events_url": "https://api.github.com/users/jarolrod/events%7B/privacy%7D",
        "received_events_url": "https://api.github.com/users/jarolrod/received_events",
        "type": "User",
        "site_admin": false
      },
      "html_url": "https://github.com/bitcoin/bitcoin/pull/26522#pullrequestreview-1186770883",
      "submitted_at": "2022-11-18T20:53:40Z",
      "state": "APPROVED",
      "pull_request_url": "https://api.github.com/repos/bitcoin/bitcoin/pulls/26522"
    },
    {
      "event": "commented",
      "id": 1320511913,
      "node_id": "IC_kwDOABII585OtWmp",
      "url": "https://api.github.com/repos/bitcoin/bitcoin/issues/comments/1320511913",
      "actor": {
        "login": "DrahtBot",
        "id": 39886733,
        "node_id": "MDQ6VXNlcjM5ODg2NzMz",
        "avatar_url": "https://avatars.githubusercontent.com/u/39886733?v=4",
        "gravatar_id": "",
        "url": "https://api.github.com/users/DrahtBot",
        "html_url": "https://github.com/DrahtBot",
        "followers_url": "https://api.github.com/users/DrahtBot/followers",
        "following_url": "https://api.github.com/users/DrahtBot/following%7B/other_user%7D",
        "gists_url": "https://api.github.com/users/DrahtBot/gists%7B/gist_id%7D",
        "starred_url": "https://api.github.com/users/DrahtBot/starred%7B/owner%7D%7B/repo%7D",
        "subscriptions_url": "https://api.github.com/users/DrahtBot/subscriptions",
        "organizations_url": "https://api.github.com/users/DrahtBot/orgs",
        "repos_url": "https://api.github.com/users/DrahtBot/repos",
        "events_url": "https://api.github.com/users/DrahtBot/events%7B/privacy%7D",
        "received_events_url": "https://api.github.com/users/DrahtBot/received_events",
        "type": "User",
        "site_admin": false
      },
      "commit_id": null,
      "commit_url": null,
      "created_at": "2022-11-18T20:53:42Z",
      "updated_at": "2022-11-18T20:53:42Z",
      "author_association": "CONTRIBUTOR",
      "body": "<!--e57a25ab6845829454e8d69fc972939a-->\n\nThe following sections might be updated with supplementary metadata relevant to reviewers and maintainers.\n\n<!--021abf342d371248e50ceaed478a90ca-->\n### Reviews\nSee [the guideline](https://github.com/bitcoin/bitcoin/blob/master/CONTRIBUTING.md#code-review) for information on the review process.\n| Type | Reviewers |\n| ---- | --------- |\n| ACK | [jarolrod](https://github.com/bitcoin/bitcoin/pull/26522#pullrequestreview-1186770883) |\n\n",
      "user": {
        "login": "DrahtBot",
        "id": 39886733,
        "node_id": "MDQ6VXNlcjM5ODg2NzMz",
        "avatar_url": "https://avatars.githubusercontent.com/u/39886733?v=4",
        "gravatar_id": "",
        "url": "https://api.github.com/users/DrahtBot",
        "html_url": "https://github.com/DrahtBot",
        "followers_url": "https://api.github.com/users/DrahtBot/followers",
        "following_url": "https://api.github.com/users/DrahtBot/following%7B/other_user%7D",
        "gists_url": "https://api.github.com/users/DrahtBot/gists%7B/gist_id%7D",
        "starred_url": "https://api.github.com/users/DrahtBot/starred%7B/owner%7D%7B/repo%7D",
        "subscriptions_url": "https://api.github.com/users/DrahtBot/subscriptions",
        "organizations_url": "https://api.github.com/users/DrahtBot/orgs",
        "repos_url": "https://api.github.com/users/DrahtBot/repos",
        "events_url": "https://api.github.com/users/DrahtBot/events%7B/privacy%7D",
        "received_events_url": "https://api.github.com/users/DrahtBot/received_events",
        "type": "User",
        "site_admin": false
      },
      "html_url": "https://github.com/bitcoin/bitcoin/pull/26522#issuecomment-1320511913",
      "issue_url": "https://api.github.com/repos/bitcoin/bitcoin/issues/26522"
    },
    {
      "event": "merged",
      "id": 7855746176,
      "node_id": "ME_lADOABII585WoipXzwAAAAHUPSyA",
      "url": "https://api.github.com/repos/bitcoin/bitcoin/issues/events/7855746176",
      "actor": {
        "login": "fanquake",
        "id": 863730,
        "node_id": "MDQ6VXNlcjg2MzczMA==",
        "avatar_url": "https://avatars.githubusercontent.com/u/863730?v=4",
        "gravatar_id": "",
        "url": "https://api.github.com/users/fanquake",
        "html_url": "https://github.com/fanquake",
        "followers_url": "https://api.github.com/users/fanquake/followers",
        "following_url": "https://api.github.com/users/fanquake/following%7B/other_user%7D",
        "gists_url": "https://api.github.com/users/fanquake/gists%7B/gist_id%7D",
        "starred_url": "https://api.github.com/users/fanquake/starred%7B/owner%7D%7B/repo%7D",
        "subscriptions_url": "https://api.github.com/users/fanquake/subscriptions",
        "organizations_url": "https://api.github.com/users/fanquake/orgs",
        "repos_url": "https://api.github.com/users/fanquake/repos",
        "events_url": "https://api.github.com/users/fanquake/events%7B/privacy%7D",
        "received_events_url": "https://api.github.com/users/fanquake/received_events",
        "type": "User",
        "site_admin": false
      },
      "commit_id": "d14dc8e2c6e80a7bfe0351ee59818a75158c160a",
      "commit_url": "https://api.github.com/repos/bitcoin/bitcoin/commits/d14dc8e2c6e80a7bfe0351ee59818a75158c160a",
      "created_at": "2022-11-21T09:59:08Z"
    },
    {
      "event": "closed",
      "id": 7855746209,
      "node_id": "CE_lADOABII585WoipXzwAAAAHUPSyh",
      "url": "https://api.github.com/repos/bitcoin/bitcoin/issues/events/7855746209",
      "actor": {
        "login": "fanquake",
        "id": 863730,
        "node_id": "MDQ6VXNlcjg2MzczMA==",
        "avatar_url": "https://avatars.githubusercontent.com/u/863730?v=4",
        "gravatar_id": "",
        "url": "https://api.github.com/users/fanquake",
        "html_url": "https://github.com/fanquake",
        "followers_url": "https://api.github.com/users/fanquake/followers",
        "following_url": "https://api.github.com/users/fanquake/following%7B/other_user%7D",
        "gists_url": "https://api.github.com/users/fanquake/gists%7B/gist_id%7D",
        "starred_url": "https://api.github.com/users/fanquake/starred%7B/owner%7D%7B/repo%7D",
        "subscriptions_url": "https://api.github.com/users/fanquake/subscriptions",
        "organizations_url": "https://api.github.com/users/fanquake/orgs",
        "repos_url": "https://api.github.com/users/fanquake/repos",
        "events_url": "https://api.github.com/users/fanquake/events%7B/privacy%7D",
        "received_events_url": "https://api.github.com/users/fanquake/received_events",
        "type": "User",
        "site_admin": false
      },
      "commit_id": null,
      "commit_url": null,
      "created_at": "2022-11-21T09:59:08Z"
    },
    {
      "event": "head_ref_deleted",
      "id": 7855859803,
      "node_id": "HRDE_lADOABII585WoipXzwAAAAHUPuhb",
      "url": "https://api.github.com/repos/bitcoin/bitcoin/issues/events/7855859803",
      "actor": {
        "login": "hebasto",
        "id": 32963518,
        "node_id": "MDQ6VXNlcjMyOTYzNTE4",
        "avatar_url": "https://avatars.githubusercontent.com/u/32963518?v=4",
        "gravatar_id": "",
        "url": "https://api.github.com/users/hebasto",
        "html_url": "https://github.com/hebasto",
        "followers_url": "https://api.github.com/users/hebasto/followers",
        "following_url": "https://api.github.com/users/hebasto/following%7B/other_user%7D",
        "gists_url": "https://api.github.com/users/hebasto/gists%7B/gist_id%7D",
        "starred_url": "https://api.github.com/users/hebasto/starred%7B/owner%7D%7B/repo%7D",
        "subscriptions_url": "https://api.github.com/users/hebasto/subscriptions",
        "organizations_url": "https://api.github.com/users/hebasto/orgs",
        "repos_url": "https://api.github.com/users/hebasto/repos",
        "events_url": "https://api.github.com/users/hebasto/events%7B/privacy%7D",
        "received_events_url": "https://api.github.com/users/hebasto/received_events",
        "type": "User",
        "site_admin": false
      },
      "commit_id": null,
      "commit_url": null,
      "created_at": "2022-11-21T10:11:26Z"
    },
    {
      "event": "cross-referenced",
      "id": null,
      "node_id": null,
      "url": null,
      "actor": {
        "login": "fanquake",
        "id": 863730,
        "node_id": "MDQ6VXNlcjg2MzczMA==",
        "avatar_url": "https://avatars.githubusercontent.com/u/863730?v=4",
        "gravatar_id": "",
        "url": "https://api.github.com/users/fanquake",
        "html_url": "https://github.com/fanquake",
        "followers_url": "https://api.github.com/users/fanquake/followers",
        "following_url": "https://api.github.com/users/fanquake/following%7B/other_user%7D",
        "gists_url": "https://api.github.com/users/fanquake/gists%7B/gist_id%7D",
        "starred_url": "https://api.github.com/users/fanquake/starred%7B/owner%7D%7B/repo%7D",
        "subscriptions_url": "https://api.github.com/users/fanquake/subscriptions",
        "organizations_url": "https://api.github.com/users/fanquake/orgs",
        "repos_url": "https://api.github.com/users/fanquake/repos",
        "events_url": "https://api.github.com/users/fanquake/events%7B/privacy%7D",
        "received_events_url": "https://api.github.com/users/fanquake/received_events",
        "type": "User",
        "site_admin": false
      },
      "commit_id": null,
      "commit_url": null,
      "created_at": "2022-11-21T11:06:36Z",
      "updated_at": "2022-11-21T11:06:36Z",
      "source": {
        "issue": {
          "id": 1457746918,
          "node_id": "PR_kwDOABII585DWJFj",
          "url": "https://api.github.com/repos/bitcoin/bitcoin/issues/26543",
          "repository_url": "https://api.github.com/repos/bitcoin/bitcoin",
          "labels_url": "https://api.github.com/repos/bitcoin/bitcoin/issues/26543/labels%7B/name%7D",
          "comments_url": "https://api.github.com/repos/bitcoin/bitcoin/issues/26543/comments",
          "events_url": "https://api.github.com/repos/bitcoin/bitcoin/issues/26543/events",
          "html_url": "https://github.com/bitcoin/bitcoin/pull/26543",
          "number": 26543,
          "state": "closed",
          "state_reason": null,
          "title": "[23.x] Bump version to 23.1rc2 & add release notes",
          "body": "Bump the version to 23.1rc2.\r\nRegenerate the man pages.\r\nAdd historical 23.0 release notes.\r\nAdd WIP 23.1 release notes.\r\n\r\nChanges since rc1:\r\n* https://github.com/bitcoin/bitcoin/pull/26474\r\n* https://github.com/bitcoin/bitcoin/pull/26522",
          "user": {
            "login": "fanquake",
            "id": 863730,
            "node_id": "MDQ6VXNlcjg2MzczMA==",
            "avatar_url": "https://avatars.githubusercontent.com/u/863730?v=4",
            "gravatar_id": "",
            "url": "https://api.github.com/users/fanquake",
            "html_url": "https://github.com/fanquake",
            "followers_url": "https://api.github.com/users/fanquake/followers",
            "following_url": "https://api.github.com/users/fanquake/following%7B/other_user%7D",
            "gists_url": "https://api.github.com/users/fanquake/gists%7B/gist_id%7D",
            "starred_url": "https://api.github.com/users/fanquake/starred%7B/owner%7D%7B/repo%7D",
            "subscriptions_url": "https://api.github.com/users/fanquake/subscriptions",
            "organizations_url": "https://api.github.com/users/fanquake/orgs",
            "repos_url": "https://api.github.com/users/fanquake/repos",
            "events_url": "https://api.github.com/users/fanquake/events%7B/privacy%7D",
            "received_events_url": "https://api.github.com/users/fanquake/received_events",
            "type": "User",
            "site_admin": false
          },
          "labels": [
            {
              "id": 390024790,
              "node_id": "MDU6TGFiZWwzOTAwMjQ3OTA=",
              "url": "https://api.github.com/repos/bitcoin/bitcoin/labels/Backport",
              "name": "Backport",
              "description": "",
              "color": "dd7200",
              "default": false
            }
          ],
          "assignees": [],
          "author_association": "MEMBER",
          "milestone": {
            "url": "https://api.github.com/repos/bitcoin/bitcoin/milestones/57",
            "html_url": "https://github.com/bitcoin/bitcoin/milestone/57",
            "labels_url": "https://api.github.com/repos/bitcoin/bitcoin/milestones/57/labels",
            "id": 7754034,
            "node_id": "MI_kwDOABII584AdlEy",
            "number": 57,
            "state": "closed",
            "title": "23.1",
            "description": "",
            "creator": {
              "login": "laanwj",
              "id": 126646,
              "node_id": "MDQ6VXNlcjEyNjY0Ng==",
              "avatar_url": "https://avatars.githubusercontent.com/u/126646?v=4",
              "gravatar_id": "",
              "url": "https://api.github.com/users/laanwj",
              "html_url": "https://github.com/laanwj",
              "followers_url": "https://api.github.com/users/laanwj/followers",
              "following_url": "https://api.github.com/users/laanwj/following%7B/other_user%7D",
              "gists_url": "https://api.github.com/users/laanwj/gists%7B/gist_id%7D",
              "starred_url": "https://api.github.com/users/laanwj/starred%7B/owner%7D%7B/repo%7D",
              "subscriptions_url": "https://api.github.com/users/laanwj/subscriptions",
              "organizations_url": "https://api.github.com/users/laanwj/orgs",
              "repos_url": "https://api.github.com/users/laanwj/repos",
              "events_url": "https://api.github.com/users/laanwj/events%7B/privacy%7D",
              "received_events_url": "https://api.github.com/users/laanwj/received_events",
              "type": "User",
              "site_admin": false
            },
            "open_issues": 0,
            "closed_issues": 16,
            "created_at": "2022-03-10T11:27:28Z",
            "updated_at": "2023-01-11T16:43:36Z",
            "closed_at": "2023-01-11T16:43:36Z"
          },
          "locked": false,
          "comments": 1,
          "pull_request": {
            "url": "https://api.github.com/repos/bitcoin/bitcoin/pulls/26543",
            "html_url": "https://github.com/bitcoin/bitcoin/pull/26543",
            "diff_url": "https://github.com/bitcoin/bitcoin/pull/26543.diff",
            "patch_url": "https://github.com/bitcoin/bitcoin/pull/26543.patch"
          },
          "closed_at": "2022-11-22T09:37:06Z",
          "created_at": "2022-11-21T11:06:36Z",
          "updated_at": "2022-11-22T09:37:32Z"
        },
        "type": "issue"
      }
    },
    {
      "event": "referenced",
      "id": 7865888872,
      "node_id": "REFE_lADOABII585WoipXzwAAAAHU1_Bo",
      "url": "https://api.github.com/repos/bitcoin/bitcoin/issues/events/7865888872",
      "actor": {
        "login": "fanquake",
        "id": 863730,
        "node_id": "MDQ6VXNlcjg2MzczMA==",
        "avatar_url": "https://avatars.githubusercontent.com/u/863730?v=4",
        "gravatar_id": "",
        "url": "https://api.github.com/users/fanquake",
        "html_url": "https://github.com/fanquake",
        "followers_url": "https://api.github.com/users/fanquake/followers",
        "following_url": "https://api.github.com/users/fanquake/following%7B/other_user%7D",
        "gists_url": "https://api.github.com/users/fanquake/gists%7B/gist_id%7D",
        "starred_url": "https://api.github.com/users/fanquake/starred%7B/owner%7D%7B/repo%7D",
        "subscriptions_url": "https://api.github.com/users/fanquake/subscriptions",
        "organizations_url": "https://api.github.com/users/fanquake/orgs",
        "repos_url": "https://api.github.com/users/fanquake/repos",
        "events_url": "https://api.github.com/users/fanquake/events%7B/privacy%7D",
        "received_events_url": "https://api.github.com/users/fanquake/received_events",
        "type": "User",
        "site_admin": false
      },
      "commit_id": "ea9aa3f02f7005a35a3b0e6c31d00513232948d8",
      "commit_url": "https://api.github.com/repos/bitcoin/bitcoin/commits/ea9aa3f02f7005a35a3b0e6c31d00513232948d8",
      "created_at": "2022-11-22T09:37:05Z"
    }
  ],
  "comments": []
}