{
  "type": "pull",
  "pull": {
    "url": "https://api.github.com/repos/bitcoin/bitcoin/pulls/26535",
    "id": 1128884705,
    "node_id": "PR_kwDOABII585DSWnh",
    "html_url": "https://github.com/bitcoin/bitcoin/pull/26535",
    "diff_url": "https://github.com/bitcoin/bitcoin/pull/26535.diff",
    "patch_url": "https://github.com/bitcoin/bitcoin/pull/26535.patch",
    "issue_url": "https://api.github.com/repos/bitcoin/bitcoin/issues/26535",
    "commits_url": "https://api.github.com/repos/bitcoin/bitcoin/pulls/26535/commits",
    "review_comments_url": "https://api.github.com/repos/bitcoin/bitcoin/pulls/26535/comments",
    "review_comment_url": "https://api.github.com/repos/bitcoin/bitcoin/pulls/comments%7B/number%7D",
    "comments_url": "https://api.github.com/repos/bitcoin/bitcoin/issues/26535/comments",
    "statuses_url": "https://api.github.com/repos/bitcoin/bitcoin/statuses/af864a5a565403b20bea5220412e7f5cf39578ef",
    "number": 26535,
    "state": "closed",
    "locked": false,
    "maintainer_can_modify": false,
    "title": "reindex: allow finalized blk files to use read-only permissions",
    "user": {
      "login": "mruddy",
      "id": 6440430,
      "node_id": "MDQ6VXNlcjY0NDA0MzA=",
      "avatar_url": "https://avatars.githubusercontent.com/u/6440430?v=4",
      "gravatar_id": "",
      "url": "https://api.github.com/users/mruddy",
      "html_url": "https://github.com/mruddy",
      "followers_url": "https://api.github.com/users/mruddy/followers",
      "following_url": "https://api.github.com/users/mruddy/following%7B/other_user%7D",
      "gists_url": "https://api.github.com/users/mruddy/gists%7B/gist_id%7D",
      "starred_url": "https://api.github.com/users/mruddy/starred%7B/owner%7D%7B/repo%7D",
      "subscriptions_url": "https://api.github.com/users/mruddy/subscriptions",
      "organizations_url": "https://api.github.com/users/mruddy/orgs",
      "repos_url": "https://api.github.com/users/mruddy/repos",
      "events_url": "https://api.github.com/users/mruddy/events%7B/privacy%7D",
      "received_events_url": "https://api.github.com/users/mruddy/received_events",
      "type": "User",
      "site_admin": false
    },
    "body": "Fixes #2039\r\n\r\nThis PR allows node operators to set file permissions on finalized blk files to be read-only.\r\n\r\nGenerally, we assume that the node can write to anything within the data directory. But, in this case, the finalized blk files don't need to be written to again. So, it might be useful to be able to set them as read-only.\r\n\r\nThis only makes sense with **finalized** block files as blk files that have logical space under the 128 MiB limit need to be writable for appending additional blocks.\r\n\r\nUsing read-only permissions had caused a problem while using `-reindex` because there was an unnecessary flush being performed on unmodified blk files within `BlockManager::FlushBlockFile`.\r\n\r\nThe flush would show up in logs in two ways:\r\n\r\n```\r\n2022-11-19T14:26:57Z [loadblk] Loaded 119965 blocks from external file in 3868921ms\r\n2022-11-19T14:26:57Z [loadblk] Reindexing block file blk00001.dat...\r\n2022-11-19T14:26:57Z [loadblk] Unable to open file /tmp/btc/blocks/blk00000.dat\r\n2022-11-19T14:26:57Z [loadblk] ERROR: Flush: failed to open file 0\r\n2022-11-19T14:26:57Z [loadblk] *** Flushing block file to disk failed. This is likely the result of an I/O error.\r\n2022-11-19T14:26:57Z [loadblk] Error: A fatal internal error occurred, see debug.log for details\r\n```\r\n\r\nor\r\n\r\n```\r\n2022-11-19T13:17:59Z [loadblk] [bench] FlushStateToDisk: write block and undo data to disk started\r\n2022-11-19T13:17:59Z [loadblk] Unable to open file /tmp/btc/blocks/blk00000.dat\r\n2022-11-19T13:17:59Z [loadblk] ERROR: Flush: failed to open file 0\r\n2022-11-19T13:17:59Z [loadblk] *** Flushing block file to disk failed. This is likely the result of an I/O error.\r\n2022-11-19T13:17:59Z [loadblk] Error: A fatal internal error occurred, see debug.log for details\r\n2022-11-19T13:18:14Z [loadblk] [bench] FlushStateToDisk: write block and undo data to disk completed (15582.56ms)\r\n2022-11-19T13:18:14Z [loadblk] [bench] FlushStateToDisk: write block index to disk started\r\n2022-11-19T13:18:14Z [loadblk] [leveldb] WriteBatch memory usage: db=index, before=0.0MiB, after=0.0MiB\r\n2022-11-19T13:18:14Z [loadblk] [bench] FlushStateToDisk: write block index to disk completed (4.38ms)\r\n```\r\n\r\nTo test these changes, you can grab some linearized test blk files over at https://github.com/mruddy/test_blk_files\r\nYou only need to import a handful of the files to test that the flush doesn't cause the problem anymore.\r\n\r\nOnce you have the files, setup with:\r\n\r\n```\r\nmkdir -p /tmp/btc && ./src/qt/bitcoin-qt -debug -logthreadnames -datadir=/tmp/btc -loadblock=/readonly/btc/main/blk{00000..00005}.dat -connect=0\r\n```\r\n\r\nWhen those are done importing, stop the node and run\r\n\r\n```\r\nchmod 0400 /tmp/btc/blocks/blk00000.dat\r\n```\r\n\r\nFinally, start the node again, and this time run the reindex and verify that the failure does not occur as will occur without this PR's patch.\r\n\r\n```\r\n./src/qt/bitcoin-qt -debug -logthreadnames -datadir=/tmp/btc -reindex -connect=0\r\n```",
    "labels": [],
    "created_at": "2022-11-19T17:17:46Z",
    "updated_at": "2023-02-22T09:03:24Z",
    "closed_at": "2023-01-15T13:10:58Z",
    "mergeable_state": "unknown",
    "merge_commit_sha": "76d7b2258de741a3996d881350647922fd81ce9b",
    "assignees": [],
    "requested_reviewers": [],
    "requested_teams": [],
    "head": {
      "label": "mruddy:issue_2039_readonly_finalized_blk_files",
      "ref": "issue_2039_readonly_finalized_blk_files",
      "sha": "af864a5a565403b20bea5220412e7f5cf39578ef",
      "user": {
        "login": "mruddy",
        "id": 6440430,
        "node_id": "MDQ6VXNlcjY0NDA0MzA=",
        "avatar_url": "https://avatars.githubusercontent.com/u/6440430?v=4",
        "gravatar_id": "",
        "url": "https://api.github.com/users/mruddy",
        "html_url": "https://github.com/mruddy",
        "followers_url": "https://api.github.com/users/mruddy/followers",
        "following_url": "https://api.github.com/users/mruddy/following%7B/other_user%7D",
        "gists_url": "https://api.github.com/users/mruddy/gists%7B/gist_id%7D",
        "starred_url": "https://api.github.com/users/mruddy/starred%7B/owner%7D%7B/repo%7D",
        "subscriptions_url": "https://api.github.com/users/mruddy/subscriptions",
        "organizations_url": "https://api.github.com/users/mruddy/orgs",
        "repos_url": "https://api.github.com/users/mruddy/repos",
        "events_url": "https://api.github.com/users/mruddy/events%7B/privacy%7D",
        "received_events_url": "https://api.github.com/users/mruddy/received_events",
        "type": "User",
        "site_admin": false
      },
      "repo": {
        "id": 26165777,
        "node_id": "MDEwOlJlcG9zaXRvcnkyNjE2NTc3Nw==",
        "name": "bitcoin",
        "full_name": "mruddy/bitcoin",
        "owner": {
          "login": "mruddy",
          "id": 6440430,
          "node_id": "MDQ6VXNlcjY0NDA0MzA=",
          "avatar_url": "https://avatars.githubusercontent.com/u/6440430?v=4",
          "gravatar_id": "",
          "url": "https://api.github.com/users/mruddy",
          "html_url": "https://github.com/mruddy",
          "followers_url": "https://api.github.com/users/mruddy/followers",
          "following_url": "https://api.github.com/users/mruddy/following%7B/other_user%7D",
          "gists_url": "https://api.github.com/users/mruddy/gists%7B/gist_id%7D",
          "starred_url": "https://api.github.com/users/mruddy/starred%7B/owner%7D%7B/repo%7D",
          "subscriptions_url": "https://api.github.com/users/mruddy/subscriptions",
          "organizations_url": "https://api.github.com/users/mruddy/orgs",
          "repos_url": "https://api.github.com/users/mruddy/repos",
          "events_url": "https://api.github.com/users/mruddy/events%7B/privacy%7D",
          "received_events_url": "https://api.github.com/users/mruddy/received_events",
          "type": "User",
          "site_admin": false
        },
        "private": false,
        "html_url": "https://github.com/mruddy/bitcoin",
        "fork": true,
        "url": "https://api.github.com/repos/mruddy/bitcoin",
        "archive_url": "https://api.github.com/repos/mruddy/bitcoin/%7Barchive_format%7D%7B/ref%7D",
        "assignees_url": "https://api.github.com/repos/mruddy/bitcoin/assignees%7B/user%7D",
        "blobs_url": "https://api.github.com/repos/mruddy/bitcoin/git/blobs%7B/sha%7D",
        "branches_url": "https://api.github.com/repos/mruddy/bitcoin/branches%7B/branch%7D",
        "collaborators_url": "https://api.github.com/repos/mruddy/bitcoin/collaborators%7B/collaborator%7D",
        "comments_url": "https://api.github.com/repos/mruddy/bitcoin/comments%7B/number%7D",
        "commits_url": "https://api.github.com/repos/mruddy/bitcoin/commits%7B/sha%7D",
        "compare_url": "https://api.github.com/repos/mruddy/bitcoin/compare/%7Bbase%7D...%7Bhead%7D",
        "contents_url": "https://api.github.com/repos/mruddy/bitcoin/contents/%7B+path%7D",
        "contributors_url": "https://api.github.com/repos/mruddy/bitcoin/contributors",
        "deployments_url": "https://api.github.com/repos/mruddy/bitcoin/deployments",
        "downloads_url": "https://api.github.com/repos/mruddy/bitcoin/downloads",
        "events_url": "https://api.github.com/repos/mruddy/bitcoin/events",
        "forks_url": "https://api.github.com/repos/mruddy/bitcoin/forks",
        "git_commits_url": "https://api.github.com/repos/mruddy/bitcoin/git/commits%7B/sha%7D",
        "git_refs_url": "https://api.github.com/repos/mruddy/bitcoin/git/refs%7B/sha%7D",
        "git_tags_url": "https://api.github.com/repos/mruddy/bitcoin/git/tags%7B/sha%7D",
        "git_url": "git://github.com/mruddy/bitcoin.git",
        "issue_comment_url": "https://api.github.com/repos/mruddy/bitcoin/issues/comments%7B/number%7D",
        "issue_events_url": "https://api.github.com/repos/mruddy/bitcoin/issues/events%7B/number%7D",
        "issues_url": "https://api.github.com/repos/mruddy/bitcoin/issues%7B/number%7D",
        "keys_url": "https://api.github.com/repos/mruddy/bitcoin/keys%7B/key_id%7D",
        "labels_url": "https://api.github.com/repos/mruddy/bitcoin/labels%7B/name%7D",
        "languages_url": "https://api.github.com/repos/mruddy/bitcoin/languages",
        "merges_url": "https://api.github.com/repos/mruddy/bitcoin/merges",
        "milestones_url": "https://api.github.com/repos/mruddy/bitcoin/milestones%7B/number%7D",
        "notifications_url": "https://api.github.com/repos/mruddy/bitcoin/notifications%7B?since,all,participating}",
        "pulls_url": "https://api.github.com/repos/mruddy/bitcoin/pulls%7B/number%7D",
        "releases_url": "https://api.github.com/repos/mruddy/bitcoin/releases%7B/id%7D",
        "ssh_url": "git@github.com:mruddy/bitcoin.git",
        "stargazers_url": "https://api.github.com/repos/mruddy/bitcoin/stargazers",
        "statuses_url": "https://api.github.com/repos/mruddy/bitcoin/statuses/%7Bsha%7D",
        "subscribers_url": "https://api.github.com/repos/mruddy/bitcoin/subscribers",
        "subscription_url": "https://api.github.com/repos/mruddy/bitcoin/subscription",
        "tags_url": "https://api.github.com/repos/mruddy/bitcoin/tags",
        "teams_url": "https://api.github.com/repos/mruddy/bitcoin/teams",
        "trees_url": "https://api.github.com/repos/mruddy/bitcoin/git/trees%7B/sha%7D",
        "clone_url": "https://github.com/mruddy/bitcoin.git",
        "hooks_url": "https://api.github.com/repos/mruddy/bitcoin/hooks",
        "svn_url": "https://github.com/mruddy/bitcoin",
        "homepage": "",
        "language": "C++",
        "forks_count": 0,
        "stargazers_count": 1,
        "watchers_count": 1,
        "size": 231438,
        "default_branch": "master",
        "open_issues_count": 0,
        "is_template": false,
        "topics": [],
        "has_issues": false,
        "has_projects": false,
        "has_wiki": false,
        "has_pages": false,
        "has_downloads": false,
        "archived": false,
        "disabled": false,
        "visibility": "public",
        "pushed_at": "2023-06-17T06:29:04Z",
        "created_at": "2014-11-04T11:20:28Z",
        "updated_at": "2022-12-07T18:05:32Z",
        "license": {
          "key": "mit",
          "name": "MIT License",
          "node_id": "MDc6TGljZW5zZTEz",
          "spdx_id": "MIT",
          "url": "https://api.github.com/licenses/mit",
          "html_url": null,
          "description": null,
          "implementation": null,
          "permissions": null,
          "conditions": null,
          "limitations": null,
          "body": null,
          "featured": null
        }
      }
    },
    "base": {
      "label": "bitcoin:master",
      "ref": "master",
      "sha": "d0b1f613c2a20b2de2878be2de19f827347dcc24",
      "user": {
        "login": "bitcoin",
        "id": 528860,
        "node_id": "MDEyOk9yZ2FuaXphdGlvbjUyODg2MA==",
        "avatar_url": "https://avatars.githubusercontent.com/u/528860?v=4",
        "gravatar_id": "",
        "url": "https://api.github.com/users/bitcoin",
        "html_url": "https://github.com/bitcoin",
        "followers_url": "https://api.github.com/users/bitcoin/followers",
        "following_url": "https://api.github.com/users/bitcoin/following%7B/other_user%7D",
        "gists_url": "https://api.github.com/users/bitcoin/gists%7B/gist_id%7D",
        "starred_url": "https://api.github.com/users/bitcoin/starred%7B/owner%7D%7B/repo%7D",
        "subscriptions_url": "https://api.github.com/users/bitcoin/subscriptions",
        "organizations_url": "https://api.github.com/users/bitcoin/orgs",
        "repos_url": "https://api.github.com/users/bitcoin/repos",
        "events_url": "https://api.github.com/users/bitcoin/events%7B/privacy%7D",
        "received_events_url": "https://api.github.com/users/bitcoin/received_events",
        "type": "Organization",
        "site_admin": false
      },
      "repo": {
        "id": 1181927,
        "node_id": "MDEwOlJlcG9zaXRvcnkxMTgxOTI3",
        "name": "bitcoin",
        "full_name": "bitcoin/bitcoin",
        "owner": {
          "login": "bitcoin",
          "id": 528860,
          "node_id": "MDEyOk9yZ2FuaXphdGlvbjUyODg2MA==",
          "avatar_url": "https://avatars.githubusercontent.com/u/528860?v=4",
          "gravatar_id": "",
          "url": "https://api.github.com/users/bitcoin",
          "html_url": "https://github.com/bitcoin",
          "followers_url": "https://api.github.com/users/bitcoin/followers",
          "following_url": "https://api.github.com/users/bitcoin/following%7B/other_user%7D",
          "gists_url": "https://api.github.com/users/bitcoin/gists%7B/gist_id%7D",
          "starred_url": "https://api.github.com/users/bitcoin/starred%7B/owner%7D%7B/repo%7D",
          "subscriptions_url": "https://api.github.com/users/bitcoin/subscriptions",
          "organizations_url": "https://api.github.com/users/bitcoin/orgs",
          "repos_url": "https://api.github.com/users/bitcoin/repos",
          "events_url": "https://api.github.com/users/bitcoin/events%7B/privacy%7D",
          "received_events_url": "https://api.github.com/users/bitcoin/received_events",
          "type": "Organization",
          "site_admin": false
        },
        "private": false,
        "html_url": "https://github.com/bitcoin/bitcoin",
        "description": "Bitcoin Core integration/staging tree",
        "fork": false,
        "url": "https://api.github.com/repos/bitcoin/bitcoin",
        "archive_url": "https://api.github.com/repos/bitcoin/bitcoin/%7Barchive_format%7D%7B/ref%7D",
        "assignees_url": "https://api.github.com/repos/bitcoin/bitcoin/assignees%7B/user%7D",
        "blobs_url": "https://api.github.com/repos/bitcoin/bitcoin/git/blobs%7B/sha%7D",
        "branches_url": "https://api.github.com/repos/bitcoin/bitcoin/branches%7B/branch%7D",
        "collaborators_url": "https://api.github.com/repos/bitcoin/bitcoin/collaborators%7B/collaborator%7D",
        "comments_url": "https://api.github.com/repos/bitcoin/bitcoin/comments%7B/number%7D",
        "commits_url": "https://api.github.com/repos/bitcoin/bitcoin/commits%7B/sha%7D",
        "compare_url": "https://api.github.com/repos/bitcoin/bitcoin/compare/%7Bbase%7D...%7Bhead%7D",
        "contents_url": "https://api.github.com/repos/bitcoin/bitcoin/contents/%7B+path%7D",
        "contributors_url": "https://api.github.com/repos/bitcoin/bitcoin/contributors",
        "deployments_url": "https://api.github.com/repos/bitcoin/bitcoin/deployments",
        "downloads_url": "https://api.github.com/repos/bitcoin/bitcoin/downloads",
        "events_url": "https://api.github.com/repos/bitcoin/bitcoin/events",
        "forks_url": "https://api.github.com/repos/bitcoin/bitcoin/forks",
        "git_commits_url": "https://api.github.com/repos/bitcoin/bitcoin/git/commits%7B/sha%7D",
        "git_refs_url": "https://api.github.com/repos/bitcoin/bitcoin/git/refs%7B/sha%7D",
        "git_tags_url": "https://api.github.com/repos/bitcoin/bitcoin/git/tags%7B/sha%7D",
        "git_url": "git://github.com/bitcoin/bitcoin.git",
        "issue_comment_url": "https://api.github.com/repos/bitcoin/bitcoin/issues/comments%7B/number%7D",
        "issue_events_url": "https://api.github.com/repos/bitcoin/bitcoin/issues/events%7B/number%7D",
        "issues_url": "https://api.github.com/repos/bitcoin/bitcoin/issues%7B/number%7D",
        "keys_url": "https://api.github.com/repos/bitcoin/bitcoin/keys%7B/key_id%7D",
        "labels_url": "https://api.github.com/repos/bitcoin/bitcoin/labels%7B/name%7D",
        "languages_url": "https://api.github.com/repos/bitcoin/bitcoin/languages",
        "merges_url": "https://api.github.com/repos/bitcoin/bitcoin/merges",
        "milestones_url": "https://api.github.com/repos/bitcoin/bitcoin/milestones%7B/number%7D",
        "notifications_url": "https://api.github.com/repos/bitcoin/bitcoin/notifications%7B?since,all,participating}",
        "pulls_url": "https://api.github.com/repos/bitcoin/bitcoin/pulls%7B/number%7D",
        "releases_url": "https://api.github.com/repos/bitcoin/bitcoin/releases%7B/id%7D",
        "ssh_url": "git@github.com:bitcoin/bitcoin.git",
        "stargazers_url": "https://api.github.com/repos/bitcoin/bitcoin/stargazers",
        "statuses_url": "https://api.github.com/repos/bitcoin/bitcoin/statuses/%7Bsha%7D",
        "subscribers_url": "https://api.github.com/repos/bitcoin/bitcoin/subscribers",
        "subscription_url": "https://api.github.com/repos/bitcoin/bitcoin/subscription",
        "tags_url": "https://api.github.com/repos/bitcoin/bitcoin/tags",
        "teams_url": "https://api.github.com/repos/bitcoin/bitcoin/teams",
        "trees_url": "https://api.github.com/repos/bitcoin/bitcoin/git/trees%7B/sha%7D",
        "clone_url": "https://github.com/bitcoin/bitcoin.git",
        "hooks_url": "https://api.github.com/repos/bitcoin/bitcoin/hooks",
        "svn_url": "https://github.com/bitcoin/bitcoin",
        "homepage": "https://bitcoincore.org/en/download",
        "language": "C++",
        "forks_count": 35476,
        "stargazers_count": 70608,
        "watchers_count": 70608,
        "size": 236222,
        "default_branch": "master",
        "open_issues_count": 673,
        "is_template": false,
        "topics": [
          "bitcoin",
          "c-plus-plus",
          "cryptocurrency",
          "cryptography",
          "p2p"
        ],
        "has_issues": true,
        "has_projects": true,
        "has_wiki": false,
        "has_pages": false,
        "has_downloads": false,
        "archived": false,
        "disabled": false,
        "visibility": "public",
        "pushed_at": "2023-08-03T00:03:27Z",
        "created_at": "2010-12-19T15:16:43Z",
        "updated_at": "2023-08-02T18:21:18Z",
        "license": {
          "key": "mit",
          "name": "MIT License",
          "node_id": "MDc6TGljZW5zZTEz",
          "spdx_id": "MIT",
          "url": "https://api.github.com/licenses/mit",
          "html_url": null,
          "description": null,
          "implementation": null,
          "permissions": null,
          "conditions": null,
          "limitations": null,
          "body": null,
          "featured": null
        }
      }
    },
    "_links": {
      "self": {
        "href": "https://api.github.com/repos/bitcoin/bitcoin/pulls/26535"
      }
    },
    "author_association": "CONTRIBUTOR",
    "draft": false,
    "additions": 9,
    "deletions": 3,
    "changed_files": 2,
    "commits": 1,
    "review_comments": 0,
    "comments": 4
  },
  "events": [
    {
      "event": "committed",
      "id": null,
      "node_id": "C_kwDOABII59oAKGFmODY0YTVhNTY1NDAzYjIwYmVhNTIyMDQxMmU3ZjVjZjM5NTc4ZWY",
      "url": "https://api.github.com/repos/bitcoin/bitcoin/git/commits/af864a5a565403b20bea5220412e7f5cf39578ef",
      "actor": null,
      "commit_id": null,
      "commit_url": null,
      "created_at": null,
      "html_url": "https://github.com/bitcoin/bitcoin/commit/af864a5a565403b20bea5220412e7f5cf39578ef",
      "tree": {
        "sha": "3cc000fc000b4c9df5403c5615b8787705ac3c04",
        "url": "https://api.github.com/repos/bitcoin/bitcoin/git/trees/3cc000fc000b4c9df5403c5615b8787705ac3c04"
      },
      "verification": {
        "verified": false,
        "reason": "unsigned",
        "payload": null,
        "signature": null
      },
      "parents": [
        {
          "url": "https://api.github.com/repos/bitcoin/bitcoin/git/commits/d0b1f613c2a20b2de2878be2de19f827347dcc24",
          "sha": "d0b1f613c2a20b2de2878be2de19f827347dcc24",
          "html_url": "https://github.com/bitcoin/bitcoin/commit/d0b1f613c2a20b2de2878be2de19f827347dcc24"
        }
      ],
      "message": "reindex: fixes #2039\n\nallow finalized blk files to use read-only permissions",
      "committer": {
        "name": "mruddy",
        "email": "6440430+mruddy@users.noreply.github.com",
        "date": "2022-11-19T16:46:44Z"
      },
      "author": {
        "name": "mruddy",
        "email": "6440430+mruddy@users.noreply.github.com",
        "date": "2022-11-19T16:46:44Z"
      },
      "sha": "af864a5a565403b20bea5220412e7f5cf39578ef"
    },
    {
      "event": "commented",
      "id": 1320928048,
      "node_id": "IC_kwDOABII585Ou8Mw",
      "url": "https://api.github.com/repos/bitcoin/bitcoin/issues/comments/1320928048",
      "actor": {
        "login": "DrahtBot",
        "id": 39886733,
        "node_id": "MDQ6VXNlcjM5ODg2NzMz",
        "avatar_url": "https://avatars.githubusercontent.com/u/39886733?v=4",
        "gravatar_id": "",
        "url": "https://api.github.com/users/DrahtBot",
        "html_url": "https://github.com/DrahtBot",
        "followers_url": "https://api.github.com/users/DrahtBot/followers",
        "following_url": "https://api.github.com/users/DrahtBot/following%7B/other_user%7D",
        "gists_url": "https://api.github.com/users/DrahtBot/gists%7B/gist_id%7D",
        "starred_url": "https://api.github.com/users/DrahtBot/starred%7B/owner%7D%7B/repo%7D",
        "subscriptions_url": "https://api.github.com/users/DrahtBot/subscriptions",
        "organizations_url": "https://api.github.com/users/DrahtBot/orgs",
        "repos_url": "https://api.github.com/users/DrahtBot/repos",
        "events_url": "https://api.github.com/users/DrahtBot/events%7B/privacy%7D",
        "received_events_url": "https://api.github.com/users/DrahtBot/received_events",
        "type": "User",
        "site_admin": false
      },
      "commit_id": null,
      "commit_url": null,
      "created_at": "2022-11-19T17:17:48Z",
      "updated_at": "2022-11-19T17:17:48Z",
      "author_association": "CONTRIBUTOR",
      "body": "<!--e57a25ab6845829454e8d69fc972939a-->\n\nThe following sections might be updated with supplementary metadata relevant to reviewers and maintainers.\n\n<!--021abf342d371248e50ceaed478a90ca-->\n### Reviews\nSee [the guideline](https://github.com/bitcoin/bitcoin/blob/master/CONTRIBUTING.md#code-review) for information on the review process.\nA summary of reviews will appear here.\n",
      "user": {
        "login": "DrahtBot",
        "id": 39886733,
        "node_id": "MDQ6VXNlcjM5ODg2NzMz",
        "avatar_url": "https://avatars.githubusercontent.com/u/39886733?v=4",
        "gravatar_id": "",
        "url": "https://api.github.com/users/DrahtBot",
        "html_url": "https://github.com/DrahtBot",
        "followers_url": "https://api.github.com/users/DrahtBot/followers",
        "following_url": "https://api.github.com/users/DrahtBot/following%7B/other_user%7D",
        "gists_url": "https://api.github.com/users/DrahtBot/gists%7B/gist_id%7D",
        "starred_url": "https://api.github.com/users/DrahtBot/starred%7B/owner%7D%7B/repo%7D",
        "subscriptions_url": "https://api.github.com/users/DrahtBot/subscriptions",
        "organizations_url": "https://api.github.com/users/DrahtBot/orgs",
        "repos_url": "https://api.github.com/users/DrahtBot/repos",
        "events_url": "https://api.github.com/users/DrahtBot/events%7B/privacy%7D",
        "received_events_url": "https://api.github.com/users/DrahtBot/received_events",
        "type": "User",
        "site_admin": false
      },
      "html_url": "https://github.com/bitcoin/bitcoin/pull/26535#issuecomment-1320928048",
      "issue_url": "https://api.github.com/repos/bitcoin/bitcoin/issues/26535"
    },
    {
      "event": "commented",
      "id": 1320975765,
      "node_id": "IC_kwDOABII585OvH2V",
      "url": "https://api.github.com/repos/bitcoin/bitcoin/issues/comments/1320975765",
      "actor": {
        "login": "luke-jr",
        "id": 1095675,
        "node_id": "MDQ6VXNlcjEwOTU2NzU=",
        "avatar_url": "https://avatars.githubusercontent.com/u/1095675?v=4",
        "gravatar_id": "",
        "url": "https://api.github.com/users/luke-jr",
        "html_url": "https://github.com/luke-jr",
        "followers_url": "https://api.github.com/users/luke-jr/followers",
        "following_url": "https://api.github.com/users/luke-jr/following%7B/other_user%7D",
        "gists_url": "https://api.github.com/users/luke-jr/gists%7B/gist_id%7D",
        "starred_url": "https://api.github.com/users/luke-jr/starred%7B/owner%7D%7B/repo%7D",
        "subscriptions_url": "https://api.github.com/users/luke-jr/subscriptions",
        "organizations_url": "https://api.github.com/users/luke-jr/orgs",
        "repos_url": "https://api.github.com/users/luke-jr/repos",
        "events_url": "https://api.github.com/users/luke-jr/events%7B/privacy%7D",
        "received_events_url": "https://api.github.com/users/luke-jr/received_events",
        "type": "User",
        "site_admin": false
      },
      "commit_id": null,
      "commit_url": null,
      "created_at": "2022-11-19T21:43:52Z",
      "updated_at": "2022-11-19T21:43:52Z",
      "author_association": "MEMBER",
      "body": "Seems like we shouldn't be calling `BlockManager::FlushBlockFile` in these cases, not silently ignoring the call within the function?",
      "user": {
        "login": "luke-jr",
        "id": 1095675,
        "node_id": "MDQ6VXNlcjEwOTU2NzU=",
        "avatar_url": "https://avatars.githubusercontent.com/u/1095675?v=4",
        "gravatar_id": "",
        "url": "https://api.github.com/users/luke-jr",
        "html_url": "https://github.com/luke-jr",
        "followers_url": "https://api.github.com/users/luke-jr/followers",
        "following_url": "https://api.github.com/users/luke-jr/following%7B/other_user%7D",
        "gists_url": "https://api.github.com/users/luke-jr/gists%7B/gist_id%7D",
        "starred_url": "https://api.github.com/users/luke-jr/starred%7B/owner%7D%7B/repo%7D",
        "subscriptions_url": "https://api.github.com/users/luke-jr/subscriptions",
        "organizations_url": "https://api.github.com/users/luke-jr/orgs",
        "repos_url": "https://api.github.com/users/luke-jr/repos",
        "events_url": "https://api.github.com/users/luke-jr/events%7B/privacy%7D",
        "received_events_url": "https://api.github.com/users/luke-jr/received_events",
        "type": "User",
        "site_admin": false
      },
      "html_url": "https://github.com/bitcoin/bitcoin/pull/26535#issuecomment-1320975765",
      "issue_url": "https://api.github.com/repos/bitcoin/bitcoin/issues/26535"
    },
    {
      "event": "commented",
      "id": 1321143881,
      "node_id": "IC_kwDOABII585Ovw5J",
      "url": "https://api.github.com/repos/bitcoin/bitcoin/issues/comments/1321143881",
      "actor": {
        "login": "mruddy",
        "id": 6440430,
        "node_id": "MDQ6VXNlcjY0NDA0MzA=",
        "avatar_url": "https://avatars.githubusercontent.com/u/6440430?v=4",
        "gravatar_id": "",
        "url": "https://api.github.com/users/mruddy",
        "html_url": "https://github.com/mruddy",
        "followers_url": "https://api.github.com/users/mruddy/followers",
        "following_url": "https://api.github.com/users/mruddy/following%7B/other_user%7D",
        "gists_url": "https://api.github.com/users/mruddy/gists%7B/gist_id%7D",
        "starred_url": "https://api.github.com/users/mruddy/starred%7B/owner%7D%7B/repo%7D",
        "subscriptions_url": "https://api.github.com/users/mruddy/subscriptions",
        "organizations_url": "https://api.github.com/users/mruddy/orgs",
        "repos_url": "https://api.github.com/users/mruddy/repos",
        "events_url": "https://api.github.com/users/mruddy/events%7B/privacy%7D",
        "received_events_url": "https://api.github.com/users/mruddy/received_events",
        "type": "User",
        "site_admin": false
      },
      "commit_id": null,
      "commit_url": null,
      "created_at": "2022-11-20T14:11:38Z",
      "updated_at": "2022-11-20T14:11:38Z",
      "author_association": "CONTRIBUTOR",
      "body": "That's a fair point. I did it this way to achieve the effect with the smallest difference in runtime function. `BlockManager::FlushBlockFile` can flush the undo file later in that method. For example, if you start out with some read-only blk files and have removed the corresponding rev*.dat files, the difference is that the way I did it will still create the rev files when the flush is called. If you don't call the flush, then the rev files won't be created then. This might be a meaningless difference. I'll look deeper into the undo file handling. If we avoid the flush entirely, maybe we could make the corresponding undo files read-only (but I tend to think that's less useful and possibly not all that desirable).",
      "user": {
        "login": "mruddy",
        "id": 6440430,
        "node_id": "MDQ6VXNlcjY0NDA0MzA=",
        "avatar_url": "https://avatars.githubusercontent.com/u/6440430?v=4",
        "gravatar_id": "",
        "url": "https://api.github.com/users/mruddy",
        "html_url": "https://github.com/mruddy",
        "followers_url": "https://api.github.com/users/mruddy/followers",
        "following_url": "https://api.github.com/users/mruddy/following%7B/other_user%7D",
        "gists_url": "https://api.github.com/users/mruddy/gists%7B/gist_id%7D",
        "starred_url": "https://api.github.com/users/mruddy/starred%7B/owner%7D%7B/repo%7D",
        "subscriptions_url": "https://api.github.com/users/mruddy/subscriptions",
        "organizations_url": "https://api.github.com/users/mruddy/orgs",
        "repos_url": "https://api.github.com/users/mruddy/repos",
        "events_url": "https://api.github.com/users/mruddy/events%7B/privacy%7D",
        "received_events_url": "https://api.github.com/users/mruddy/received_events",
        "type": "User",
        "site_admin": false
      },
      "html_url": "https://github.com/bitcoin/bitcoin/pull/26535#issuecomment-1321143881",
      "issue_url": "https://api.github.com/repos/bitcoin/bitcoin/issues/26535"
    },
    {
      "event": "commented",
      "id": 1383147680,
      "node_id": "IC_kwDOABII585ScSig",
      "url": "https://api.github.com/repos/bitcoin/bitcoin/issues/comments/1383147680",
      "actor": {
        "login": "mruddy",
        "id": 6440430,
        "node_id": "MDQ6VXNlcjY0NDA0MzA=",
        "avatar_url": "https://avatars.githubusercontent.com/u/6440430?v=4",
        "gravatar_id": "",
        "url": "https://api.github.com/users/mruddy",
        "html_url": "https://github.com/mruddy",
        "followers_url": "https://api.github.com/users/mruddy/followers",
        "following_url": "https://api.github.com/users/mruddy/following%7B/other_user%7D",
        "gists_url": "https://api.github.com/users/mruddy/gists%7B/gist_id%7D",
        "starred_url": "https://api.github.com/users/mruddy/starred%7B/owner%7D%7B/repo%7D",
        "subscriptions_url": "https://api.github.com/users/mruddy/subscriptions",
        "organizations_url": "https://api.github.com/users/mruddy/orgs",
        "repos_url": "https://api.github.com/users/mruddy/repos",
        "events_url": "https://api.github.com/users/mruddy/events%7B/privacy%7D",
        "received_events_url": "https://api.github.com/users/mruddy/received_events",
        "type": "User",
        "site_admin": false
      },
      "commit_id": null,
      "commit_url": null,
      "created_at": "2023-01-15T13:10:57Z",
      "updated_at": "2023-01-15T13:10:57Z",
      "author_association": "CONTRIBUTOR",
      "body": "I don't have time for this one right now, so closing. If someone else wants to pick this up, go for it.",
      "user": {
        "login": "mruddy",
        "id": 6440430,
        "node_id": "MDQ6VXNlcjY0NDA0MzA=",
        "avatar_url": "https://avatars.githubusercontent.com/u/6440430?v=4",
        "gravatar_id": "",
        "url": "https://api.github.com/users/mruddy",
        "html_url": "https://github.com/mruddy",
        "followers_url": "https://api.github.com/users/mruddy/followers",
        "following_url": "https://api.github.com/users/mruddy/following%7B/other_user%7D",
        "gists_url": "https://api.github.com/users/mruddy/gists%7B/gist_id%7D",
        "starred_url": "https://api.github.com/users/mruddy/starred%7B/owner%7D%7B/repo%7D",
        "subscriptions_url": "https://api.github.com/users/mruddy/subscriptions",
        "organizations_url": "https://api.github.com/users/mruddy/orgs",
        "repos_url": "https://api.github.com/users/mruddy/repos",
        "events_url": "https://api.github.com/users/mruddy/events%7B/privacy%7D",
        "received_events_url": "https://api.github.com/users/mruddy/received_events",
        "type": "User",
        "site_admin": false
      },
      "html_url": "https://github.com/bitcoin/bitcoin/pull/26535#issuecomment-1383147680",
      "issue_url": "https://api.github.com/repos/bitcoin/bitcoin/issues/26535"
    },
    {
      "event": "closed",
      "id": 8229488532,
      "node_id": "CE_lADOABII585W0buhzwAAAAHqhAeU",
      "url": "https://api.github.com/repos/bitcoin/bitcoin/issues/events/8229488532",
      "actor": {
        "login": "mruddy",
        "id": 6440430,
        "node_id": "MDQ6VXNlcjY0NDA0MzA=",
        "avatar_url": "https://avatars.githubusercontent.com/u/6440430?v=4",
        "gravatar_id": "",
        "url": "https://api.github.com/users/mruddy",
        "html_url": "https://github.com/mruddy",
        "followers_url": "https://api.github.com/users/mruddy/followers",
        "following_url": "https://api.github.com/users/mruddy/following%7B/other_user%7D",
        "gists_url": "https://api.github.com/users/mruddy/gists%7B/gist_id%7D",
        "starred_url": "https://api.github.com/users/mruddy/starred%7B/owner%7D%7B/repo%7D",
        "subscriptions_url": "https://api.github.com/users/mruddy/subscriptions",
        "organizations_url": "https://api.github.com/users/mruddy/orgs",
        "repos_url": "https://api.github.com/users/mruddy/repos",
        "events_url": "https://api.github.com/users/mruddy/events%7B/privacy%7D",
        "received_events_url": "https://api.github.com/users/mruddy/received_events",
        "type": "User",
        "site_admin": false
      },
      "commit_id": null,
      "commit_url": null,
      "created_at": "2023-01-15T13:10:58Z"
    },
    {
      "event": "cross-referenced",
      "id": null,
      "node_id": null,
      "url": null,
      "actor": {
        "login": "pinheadmz",
        "id": 2084648,
        "node_id": "MDQ6VXNlcjIwODQ2NDg=",
        "avatar_url": "https://avatars.githubusercontent.com/u/2084648?v=4",
        "gravatar_id": "",
        "url": "https://api.github.com/users/pinheadmz",
        "html_url": "https://github.com/pinheadmz",
        "followers_url": "https://api.github.com/users/pinheadmz/followers",
        "following_url": "https://api.github.com/users/pinheadmz/following%7B/other_user%7D",
        "gists_url": "https://api.github.com/users/pinheadmz/gists%7B/gist_id%7D",
        "starred_url": "https://api.github.com/users/pinheadmz/starred%7B/owner%7D%7B/repo%7D",
        "subscriptions_url": "https://api.github.com/users/pinheadmz/subscriptions",
        "organizations_url": "https://api.github.com/users/pinheadmz/orgs",
        "repos_url": "https://api.github.com/users/pinheadmz/repos",
        "events_url": "https://api.github.com/users/pinheadmz/events%7B/privacy%7D",
        "received_events_url": "https://api.github.com/users/pinheadmz/received_events",
        "type": "User",
        "site_admin": false
      },
      "commit_id": null,
      "commit_url": null,
      "created_at": "2023-02-03T18:50:50Z",
      "updated_at": "2023-02-03T18:50:50Z",
      "source": {
        "issue": {
          "id": 1570294980,
          "node_id": "PR_kwDOABII585JOgro",
          "url": "https://api.github.com/repos/bitcoin/bitcoin/issues/27039",
          "repository_url": "https://api.github.com/repos/bitcoin/bitcoin",
          "labels_url": "https://api.github.com/repos/bitcoin/bitcoin/issues/27039/labels%7B/name%7D",
          "comments_url": "https://api.github.com/repos/bitcoin/bitcoin/issues/27039/comments",
          "events_url": "https://api.github.com/repos/bitcoin/bitcoin/issues/27039/events",
          "html_url": "https://github.com/bitcoin/bitcoin/pull/27039",
          "number": 27039,
          "state": "open",
          "state_reason": null,
          "title": "blockstorage: do not flush block to disk if it is already there",
          "body": "Closes https://github.com/bitcoin/bitcoin/issues/2039\r\nReplaces https://github.com/bitcoin/bitcoin/pull/26535 (added test, addressed feedback from reviews)\r\n\r\nWhen reindexing from flat-file block storage there is no need to write anything back to disk, since the block data is already there. This PR skips flushing to disk those blocks that already have a known position in the datastore. Skipping this means that users can write-protect the `blk` files on disk which may be useful for security or even safely sharing that data between multiple bitcoind instances.\r\n\r\n`FindBlockPos()` may also flush the undo data file, but again this is skipped if the corresponding block position is known, like during the initial stage of a reindex when block data is being indexed. Once the block index is complete the validation mechanism will call `ConnectBlock()` which will save undo data at that time.\r\n\r\nThe call stack looks like this:\r\n\r\n```\r\ninit()\r\nThreadImport() <-- process fReindex flag\r\nLoadExternalBlockFile()\r\nAcceptBlock()\r\nSaveBlockToDisk()\r\nFindBlockPos()\r\nFlushBlockFile() <-- unnecessary if block is already on disk\r\n```\r\n\r\nA larger refactor of this part of the code was started by mzumsande here:  https://github.com/mzumsande/bitcoin/tree/202207_refactor_findblockpos including this fix, reviewers can let me know if the changes should be combined.\r\n\r\nThis branch also adds a unit test for `BlockManager` to ensure that the patch does not affect currently expected behavior.",
          "user": {
            "login": "pinheadmz",
            "id": 2084648,
            "node_id": "MDQ6VXNlcjIwODQ2NDg=",
            "avatar_url": "https://avatars.githubusercontent.com/u/2084648?v=4",
            "gravatar_id": "",
            "url": "https://api.github.com/users/pinheadmz",
            "html_url": "https://github.com/pinheadmz",
            "followers_url": "https://api.github.com/users/pinheadmz/followers",
            "following_url": "https://api.github.com/users/pinheadmz/following%7B/other_user%7D",
            "gists_url": "https://api.github.com/users/pinheadmz/gists%7B/gist_id%7D",
            "starred_url": "https://api.github.com/users/pinheadmz/starred%7B/owner%7D%7B/repo%7D",
            "subscriptions_url": "https://api.github.com/users/pinheadmz/subscriptions",
            "organizations_url": "https://api.github.com/users/pinheadmz/orgs",
            "repos_url": "https://api.github.com/users/pinheadmz/repos",
            "events_url": "https://api.github.com/users/pinheadmz/events%7B/privacy%7D",
            "received_events_url": "https://api.github.com/users/pinheadmz/received_events",
            "type": "User",
            "site_admin": false
          },
          "labels": [
            {
              "id": 219890555,
              "node_id": "MDU6TGFiZWwyMTk4OTA1NTU=",
              "url": "https://api.github.com/repos/bitcoin/bitcoin/labels/Block%20storage",
              "name": "Block storage",
              "color": "000000",
              "default": false
            },
            {
              "id": 955867938,
              "node_id": "MDU6TGFiZWw5NTU4Njc5Mzg=",
              "url": "https://api.github.com/repos/bitcoin/bitcoin/labels/Needs%20rebase",
              "name": "Needs rebase",
              "description": "",
              "color": "cccccc",
              "default": false
            },
            {
              "id": 1648013533,
              "node_id": "MDU6TGFiZWwxNjQ4MDEzNTMz",
              "url": "https://api.github.com/repos/bitcoin/bitcoin/labels/Review%20club",
              "name": "Review club",
              "description": "",
              "color": "0052cc",
              "default": false
            }
          ],
          "assignees": [],
          "author_association": "MEMBER",
          "milestone": {
            "url": "https://api.github.com/repos/bitcoin/bitcoin/milestones/60",
            "html_url": "https://github.com/bitcoin/bitcoin/milestone/60",
            "labels_url": "https://api.github.com/repos/bitcoin/bitcoin/milestones/60/labels",
            "id": 9286970,
            "node_id": "MI_kwDOABII584AjbU6",
            "number": 60,
            "state": "open",
            "title": "26.0",
            "description": "",
            "creator": {
              "login": "fanquake",
              "id": 863730,
              "node_id": "MDQ6VXNlcjg2MzczMA==",
              "avatar_url": "https://avatars.githubusercontent.com/u/863730?v=4",
              "gravatar_id": "",
              "url": "https://api.github.com/users/fanquake",
              "html_url": "https://github.com/fanquake",
              "followers_url": "https://api.github.com/users/fanquake/followers",
              "following_url": "https://api.github.com/users/fanquake/following%7B/other_user%7D",
              "gists_url": "https://api.github.com/users/fanquake/gists%7B/gist_id%7D",
              "starred_url": "https://api.github.com/users/fanquake/starred%7B/owner%7D%7B/repo%7D",
              "subscriptions_url": "https://api.github.com/users/fanquake/subscriptions",
              "organizations_url": "https://api.github.com/users/fanquake/orgs",
              "repos_url": "https://api.github.com/users/fanquake/repos",
              "events_url": "https://api.github.com/users/fanquake/events%7B/privacy%7D",
              "received_events_url": "https://api.github.com/users/fanquake/received_events",
              "type": "User",
              "site_admin": false
            },
            "open_issues": 7,
            "closed_issues": 23,
            "created_at": "2023-04-15T11:36:05Z",
            "updated_at": "2023-08-01T16:50:00Z"
          },
          "locked": false,
          "comments": 18,
          "pull_request": {
            "url": "https://api.github.com/repos/bitcoin/bitcoin/pulls/27039",
            "html_url": "https://github.com/bitcoin/bitcoin/pull/27039",
            "diff_url": "https://github.com/bitcoin/bitcoin/pull/27039.diff",
            "patch_url": "https://github.com/bitcoin/bitcoin/pull/27039.patch"
          },
          "created_at": "2023-02-03T18:50:50Z",
          "updated_at": "2023-07-10T13:48:13Z"
        },
        "type": "issue"
      }
    },
    {
      "event": "head_ref_deleted",
      "id": 8578657724,
      "node_id": "HRDE_lADOABII585W0buhzwAAAAH_U-28",
      "url": "https://api.github.com/repos/bitcoin/bitcoin/issues/events/8578657724",
      "actor": {
        "login": "mruddy",
        "id": 6440430,
        "node_id": "MDQ6VXNlcjY0NDA0MzA=",
        "avatar_url": "https://avatars.githubusercontent.com/u/6440430?v=4",
        "gravatar_id": "",
        "url": "https://api.github.com/users/mruddy",
        "html_url": "https://github.com/mruddy",
        "followers_url": "https://api.github.com/users/mruddy/followers",
        "following_url": "https://api.github.com/users/mruddy/following%7B/other_user%7D",
        "gists_url": "https://api.github.com/users/mruddy/gists%7B/gist_id%7D",
        "starred_url": "https://api.github.com/users/mruddy/starred%7B/owner%7D%7B/repo%7D",
        "subscriptions_url": "https://api.github.com/users/mruddy/subscriptions",
        "organizations_url": "https://api.github.com/users/mruddy/orgs",
        "repos_url": "https://api.github.com/users/mruddy/repos",
        "events_url": "https://api.github.com/users/mruddy/events%7B/privacy%7D",
        "received_events_url": "https://api.github.com/users/mruddy/received_events",
        "type": "User",
        "site_admin": false
      },
      "commit_id": null,
      "commit_url": null,
      "created_at": "2023-02-22T09:03:24Z"
    },
    {
      "event": "cross-referenced",
      "id": null,
      "node_id": null,
      "url": null,
      "actor": {
        "login": "LarryRuane",
        "id": 8321330,
        "node_id": "MDQ6VXNlcjgzMjEzMzA=",
        "avatar_url": "https://avatars.githubusercontent.com/u/8321330?v=4",
        "gravatar_id": "",
        "url": "https://api.github.com/users/LarryRuane",
        "html_url": "https://github.com/LarryRuane",
        "followers_url": "https://api.github.com/users/LarryRuane/followers",
        "following_url": "https://api.github.com/users/LarryRuane/following%7B/other_user%7D",
        "gists_url": "https://api.github.com/users/LarryRuane/gists%7B/gist_id%7D",
        "starred_url": "https://api.github.com/users/LarryRuane/starred%7B/owner%7D%7B/repo%7D",
        "subscriptions_url": "https://api.github.com/users/LarryRuane/subscriptions",
        "organizations_url": "https://api.github.com/users/LarryRuane/orgs",
        "repos_url": "https://api.github.com/users/LarryRuane/repos",
        "events_url": "https://api.github.com/users/LarryRuane/events%7B/privacy%7D",
        "received_events_url": "https://api.github.com/users/LarryRuane/received_events",
        "type": "User",
        "site_admin": false
      },
      "commit_id": null,
      "commit_url": null,
      "created_at": "2023-02-28T00:17:10Z",
      "updated_at": "2023-02-28T00:17:10Z",
      "source": {
        "issue": {
          "id": 1602159846,
          "node_id": "I_kwDOCoXYYs5ffwTm",
          "url": "https://api.github.com/repos/LarryRuane/bitcoin/issues/6",
          "repository_url": "https://api.github.com/repos/LarryRuane/bitcoin",
          "labels_url": "https://api.github.com/repos/LarryRuane/bitcoin/issues/6/labels%7B/name%7D",
          "comments_url": "https://api.github.com/repos/LarryRuane/bitcoin/issues/6/comments",
          "events_url": "https://api.github.com/repos/LarryRuane/bitcoin/issues/6/events",
          "html_url": "https://github.com/LarryRuane/bitcoin/issues/6",
          "number": 6,
          "state": "open",
          "state_reason": null,
          "title": "revive 26535 - reindex: allow finalized blk files to use read-only permissions",
          "body": "https://github.com/bitcoin/bitcoin/pull/26535\r\n\r\nI think a good way to do this is, first, wait for [#27039](https://github.com/bitcoin/bitcoin/pull/27039) to merge. This prevents flushing to blk files that are already full (128 mb), but still has the problem that if _all_ blk files are set to read-only, then when the system tries to write to and flush the last partial blk file, it fails.\r\n\r\nWhy not, when this error occurs, pretend the blk file is full (leave it partially filled) and go and create a brand new one (which would be read-write).",
          "user": {
            "login": "LarryRuane",
            "id": 8321330,
            "node_id": "MDQ6VXNlcjgzMjEzMzA=",
            "avatar_url": "https://avatars.githubusercontent.com/u/8321330?v=4",
            "gravatar_id": "",
            "url": "https://api.github.com/users/LarryRuane",
            "html_url": "https://github.com/LarryRuane",
            "followers_url": "https://api.github.com/users/LarryRuane/followers",
            "following_url": "https://api.github.com/users/LarryRuane/following%7B/other_user%7D",
            "gists_url": "https://api.github.com/users/LarryRuane/gists%7B/gist_id%7D",
            "starred_url": "https://api.github.com/users/LarryRuane/starred%7B/owner%7D%7B/repo%7D",
            "subscriptions_url": "https://api.github.com/users/LarryRuane/subscriptions",
            "organizations_url": "https://api.github.com/users/LarryRuane/orgs",
            "repos_url": "https://api.github.com/users/LarryRuane/repos",
            "events_url": "https://api.github.com/users/LarryRuane/events%7B/privacy%7D",
            "received_events_url": "https://api.github.com/users/LarryRuane/received_events",
            "type": "User",
            "site_admin": false
          },
          "labels": [],
          "assignees": [],
          "author_association": "OWNER",
          "locked": false,
          "comments": 0,
          "created_at": "2023-02-28T00:17:09Z",
          "updated_at": "2023-02-28T00:17:09Z"
        },
        "type": "issue"
      }
    }
  ],
  "comments": []
}