{
  "type": "pull",
  "pull": {
    "url": "https://api.github.com/repos/bitcoin/bitcoin/pulls/26545",
    "id": 1129888078,
    "node_id": "PR_kwDOABII585DWLlO",
    "html_url": "https://github.com/bitcoin/bitcoin/pull/26545",
    "diff_url": "https://github.com/bitcoin/bitcoin/pull/26545.diff",
    "patch_url": "https://github.com/bitcoin/bitcoin/pull/26545.patch",
    "issue_url": "https://api.github.com/repos/bitcoin/bitcoin/issues/26545",
    "commits_url": "https://api.github.com/repos/bitcoin/bitcoin/pulls/26545/commits",
    "review_comments_url": "https://api.github.com/repos/bitcoin/bitcoin/pulls/26545/comments",
    "review_comment_url": "https://api.github.com/repos/bitcoin/bitcoin/pulls/comments%7B/number%7D",
    "comments_url": "https://api.github.com/repos/bitcoin/bitcoin/issues/26545/comments",
    "statuses_url": "https://api.github.com/repos/bitcoin/bitcoin/statuses/fadb71403910cdb91b6173d5dc909d3db72742ba",
    "number": 26545,
    "state": "closed",
    "locked": false,
    "maintainer_can_modify": false,
    "title": "test: Remove unused sanitizer suppressions",
    "user": {
      "login": "MarcoFalke",
      "id": 6399679,
      "node_id": "MDQ6VXNlcjYzOTk2Nzk=",
      "avatar_url": "https://avatars.githubusercontent.com/u/6399679?v=4",
      "gravatar_id": "",
      "url": "https://api.github.com/users/MarcoFalke",
      "html_url": "https://github.com/MarcoFalke",
      "followers_url": "https://api.github.com/users/MarcoFalke/followers",
      "following_url": "https://api.github.com/users/MarcoFalke/following%7B/other_user%7D",
      "gists_url": "https://api.github.com/users/MarcoFalke/gists%7B/gist_id%7D",
      "starred_url": "https://api.github.com/users/MarcoFalke/starred%7B/owner%7D%7B/repo%7D",
      "subscriptions_url": "https://api.github.com/users/MarcoFalke/subscriptions",
      "organizations_url": "https://api.github.com/users/MarcoFalke/orgs",
      "repos_url": "https://api.github.com/users/MarcoFalke/repos",
      "events_url": "https://api.github.com/users/MarcoFalke/events%7B/privacy%7D",
      "received_events_url": "https://api.github.com/users/MarcoFalke/received_events",
      "type": "User",
      "site_admin": false
    },
    "labels": [
      {
        "id": 62963516,
        "node_id": "MDU6TGFiZWw2Mjk2MzUxNg==",
        "url": "https://api.github.com/repos/bitcoin/bitcoin/labels/Tests",
        "name": "Tests",
        "color": "d4c5f9",
        "default": false
      }
    ],
    "created_at": "2022-11-21T11:14:31Z",
    "updated_at": "2022-11-21T16:30:03Z",
    "closed_at": "2022-11-21T16:29:21Z",
    "mergeable_state": "unknown",
    "merged_at": "2022-11-21T16:29:20Z",
    "merge_commit_sha": "60a00889b02cdb67ac20328af7477ff55ecd8e46",
    "assignees": [],
    "requested_reviewers": [],
    "requested_teams": [],
    "head": {
      "label": "MarcoFalke:2211-test-san-🌟",
      "ref": "2211-test-san-🌟",
      "sha": "fadb71403910cdb91b6173d5dc909d3db72742ba",
      "user": {
        "login": "MarcoFalke",
        "id": 6399679,
        "node_id": "MDQ6VXNlcjYzOTk2Nzk=",
        "avatar_url": "https://avatars.githubusercontent.com/u/6399679?v=4",
        "gravatar_id": "",
        "url": "https://api.github.com/users/MarcoFalke",
        "html_url": "https://github.com/MarcoFalke",
        "followers_url": "https://api.github.com/users/MarcoFalke/followers",
        "following_url": "https://api.github.com/users/MarcoFalke/following%7B/other_user%7D",
        "gists_url": "https://api.github.com/users/MarcoFalke/gists%7B/gist_id%7D",
        "starred_url": "https://api.github.com/users/MarcoFalke/starred%7B/owner%7D%7B/repo%7D",
        "subscriptions_url": "https://api.github.com/users/MarcoFalke/subscriptions",
        "organizations_url": "https://api.github.com/users/MarcoFalke/orgs",
        "repos_url": "https://api.github.com/users/MarcoFalke/repos",
        "events_url": "https://api.github.com/users/MarcoFalke/events%7B/privacy%7D",
        "received_events_url": "https://api.github.com/users/MarcoFalke/received_events",
        "type": "User",
        "site_admin": false
      },
      "repo": {
        "id": 40046254,
        "node_id": "MDEwOlJlcG9zaXRvcnk0MDA0NjI1NA==",
        "name": "b-c",
        "full_name": "MarcoFalke/b-c",
        "owner": {
          "login": "MarcoFalke",
          "id": 6399679,
          "node_id": "MDQ6VXNlcjYzOTk2Nzk=",
          "avatar_url": "https://avatars.githubusercontent.com/u/6399679?v=4",
          "gravatar_id": "",
          "url": "https://api.github.com/users/MarcoFalke",
          "html_url": "https://github.com/MarcoFalke",
          "followers_url": "https://api.github.com/users/MarcoFalke/followers",
          "following_url": "https://api.github.com/users/MarcoFalke/following%7B/other_user%7D",
          "gists_url": "https://api.github.com/users/MarcoFalke/gists%7B/gist_id%7D",
          "starred_url": "https://api.github.com/users/MarcoFalke/starred%7B/owner%7D%7B/repo%7D",
          "subscriptions_url": "https://api.github.com/users/MarcoFalke/subscriptions",
          "organizations_url": "https://api.github.com/users/MarcoFalke/orgs",
          "repos_url": "https://api.github.com/users/MarcoFalke/repos",
          "events_url": "https://api.github.com/users/MarcoFalke/events%7B/privacy%7D",
          "received_events_url": "https://api.github.com/users/MarcoFalke/received_events",
          "type": "User",
          "site_admin": false
        },
        "private": false,
        "html_url": "https://github.com/MarcoFalke/b-c",
        "fork": true,
        "url": "https://api.github.com/repos/MarcoFalke/b-c",
        "archive_url": "https://api.github.com/repos/MarcoFalke/b-c/%7Barchive_format%7D%7B/ref%7D",
        "assignees_url": "https://api.github.com/repos/MarcoFalke/b-c/assignees%7B/user%7D",
        "blobs_url": "https://api.github.com/repos/MarcoFalke/b-c/git/blobs%7B/sha%7D",
        "branches_url": "https://api.github.com/repos/MarcoFalke/b-c/branches%7B/branch%7D",
        "collaborators_url": "https://api.github.com/repos/MarcoFalke/b-c/collaborators%7B/collaborator%7D",
        "comments_url": "https://api.github.com/repos/MarcoFalke/b-c/comments%7B/number%7D",
        "commits_url": "https://api.github.com/repos/MarcoFalke/b-c/commits%7B/sha%7D",
        "compare_url": "https://api.github.com/repos/MarcoFalke/b-c/compare/%7Bbase%7D...%7Bhead%7D",
        "contents_url": "https://api.github.com/repos/MarcoFalke/b-c/contents/%7B+path%7D",
        "contributors_url": "https://api.github.com/repos/MarcoFalke/b-c/contributors",
        "deployments_url": "https://api.github.com/repos/MarcoFalke/b-c/deployments",
        "downloads_url": "https://api.github.com/repos/MarcoFalke/b-c/downloads",
        "events_url": "https://api.github.com/repos/MarcoFalke/b-c/events",
        "forks_url": "https://api.github.com/repos/MarcoFalke/b-c/forks",
        "git_commits_url": "https://api.github.com/repos/MarcoFalke/b-c/git/commits%7B/sha%7D",
        "git_refs_url": "https://api.github.com/repos/MarcoFalke/b-c/git/refs%7B/sha%7D",
        "git_tags_url": "https://api.github.com/repos/MarcoFalke/b-c/git/tags%7B/sha%7D",
        "git_url": "git://github.com/MarcoFalke/b-c.git",
        "issue_comment_url": "https://api.github.com/repos/MarcoFalke/b-c/issues/comments%7B/number%7D",
        "issue_events_url": "https://api.github.com/repos/MarcoFalke/b-c/issues/events%7B/number%7D",
        "issues_url": "https://api.github.com/repos/MarcoFalke/b-c/issues%7B/number%7D",
        "keys_url": "https://api.github.com/repos/MarcoFalke/b-c/keys%7B/key_id%7D",
        "labels_url": "https://api.github.com/repos/MarcoFalke/b-c/labels%7B/name%7D",
        "languages_url": "https://api.github.com/repos/MarcoFalke/b-c/languages",
        "merges_url": "https://api.github.com/repos/MarcoFalke/b-c/merges",
        "milestones_url": "https://api.github.com/repos/MarcoFalke/b-c/milestones%7B/number%7D",
        "notifications_url": "https://api.github.com/repos/MarcoFalke/b-c/notifications%7B?since,all,participating}",
        "pulls_url": "https://api.github.com/repos/MarcoFalke/b-c/pulls%7B/number%7D",
        "releases_url": "https://api.github.com/repos/MarcoFalke/b-c/releases%7B/id%7D",
        "ssh_url": "git@github.com:MarcoFalke/b-c.git",
        "stargazers_url": "https://api.github.com/repos/MarcoFalke/b-c/stargazers",
        "statuses_url": "https://api.github.com/repos/MarcoFalke/b-c/statuses/%7Bsha%7D",
        "subscribers_url": "https://api.github.com/repos/MarcoFalke/b-c/subscribers",
        "subscription_url": "https://api.github.com/repos/MarcoFalke/b-c/subscription",
        "tags_url": "https://api.github.com/repos/MarcoFalke/b-c/tags",
        "teams_url": "https://api.github.com/repos/MarcoFalke/b-c/teams",
        "trees_url": "https://api.github.com/repos/MarcoFalke/b-c/git/trees%7B/sha%7D",
        "clone_url": "https://github.com/MarcoFalke/b-c.git",
        "hooks_url": "https://api.github.com/repos/MarcoFalke/b-c/hooks",
        "svn_url": "https://github.com/MarcoFalke/b-c",
        "homepage": "",
        "language": "C++",
        "forks_count": 12,
        "stargazers_count": 25,
        "watchers_count": 25,
        "size": 207848,
        "default_branch": "master",
        "open_issues_count": 25,
        "is_template": false,
        "topics": [],
        "has_issues": true,
        "has_projects": true,
        "has_wiki": false,
        "has_pages": false,
        "has_downloads": false,
        "archived": false,
        "disabled": false,
        "visibility": "public",
        "pushed_at": "2023-08-02T15:31:58Z",
        "created_at": "2015-08-01T12:42:47Z",
        "updated_at": "2023-05-28T20:12:34Z",
        "license": {
          "key": "mit",
          "name": "MIT License",
          "node_id": "MDc6TGljZW5zZTEz",
          "spdx_id": "MIT",
          "url": "https://api.github.com/licenses/mit",
          "html_url": null,
          "description": null,
          "implementation": null,
          "permissions": null,
          "conditions": null,
          "limitations": null,
          "body": null,
          "featured": null
        }
      }
    },
    "base": {
      "label": "bitcoin:master",
      "ref": "master",
      "sha": "df2f16666c05f8fef2eab0811f87e60b7fb18224",
      "user": {
        "login": "bitcoin",
        "id": 528860,
        "node_id": "MDEyOk9yZ2FuaXphdGlvbjUyODg2MA==",
        "avatar_url": "https://avatars.githubusercontent.com/u/528860?v=4",
        "gravatar_id": "",
        "url": "https://api.github.com/users/bitcoin",
        "html_url": "https://github.com/bitcoin",
        "followers_url": "https://api.github.com/users/bitcoin/followers",
        "following_url": "https://api.github.com/users/bitcoin/following%7B/other_user%7D",
        "gists_url": "https://api.github.com/users/bitcoin/gists%7B/gist_id%7D",
        "starred_url": "https://api.github.com/users/bitcoin/starred%7B/owner%7D%7B/repo%7D",
        "subscriptions_url": "https://api.github.com/users/bitcoin/subscriptions",
        "organizations_url": "https://api.github.com/users/bitcoin/orgs",
        "repos_url": "https://api.github.com/users/bitcoin/repos",
        "events_url": "https://api.github.com/users/bitcoin/events%7B/privacy%7D",
        "received_events_url": "https://api.github.com/users/bitcoin/received_events",
        "type": "Organization",
        "site_admin": false
      },
      "repo": {
        "id": 1181927,
        "node_id": "MDEwOlJlcG9zaXRvcnkxMTgxOTI3",
        "name": "bitcoin",
        "full_name": "bitcoin/bitcoin",
        "owner": {
          "login": "bitcoin",
          "id": 528860,
          "node_id": "MDEyOk9yZ2FuaXphdGlvbjUyODg2MA==",
          "avatar_url": "https://avatars.githubusercontent.com/u/528860?v=4",
          "gravatar_id": "",
          "url": "https://api.github.com/users/bitcoin",
          "html_url": "https://github.com/bitcoin",
          "followers_url": "https://api.github.com/users/bitcoin/followers",
          "following_url": "https://api.github.com/users/bitcoin/following%7B/other_user%7D",
          "gists_url": "https://api.github.com/users/bitcoin/gists%7B/gist_id%7D",
          "starred_url": "https://api.github.com/users/bitcoin/starred%7B/owner%7D%7B/repo%7D",
          "subscriptions_url": "https://api.github.com/users/bitcoin/subscriptions",
          "organizations_url": "https://api.github.com/users/bitcoin/orgs",
          "repos_url": "https://api.github.com/users/bitcoin/repos",
          "events_url": "https://api.github.com/users/bitcoin/events%7B/privacy%7D",
          "received_events_url": "https://api.github.com/users/bitcoin/received_events",
          "type": "Organization",
          "site_admin": false
        },
        "private": false,
        "html_url": "https://github.com/bitcoin/bitcoin",
        "description": "Bitcoin Core integration/staging tree",
        "fork": false,
        "url": "https://api.github.com/repos/bitcoin/bitcoin",
        "archive_url": "https://api.github.com/repos/bitcoin/bitcoin/%7Barchive_format%7D%7B/ref%7D",
        "assignees_url": "https://api.github.com/repos/bitcoin/bitcoin/assignees%7B/user%7D",
        "blobs_url": "https://api.github.com/repos/bitcoin/bitcoin/git/blobs%7B/sha%7D",
        "branches_url": "https://api.github.com/repos/bitcoin/bitcoin/branches%7B/branch%7D",
        "collaborators_url": "https://api.github.com/repos/bitcoin/bitcoin/collaborators%7B/collaborator%7D",
        "comments_url": "https://api.github.com/repos/bitcoin/bitcoin/comments%7B/number%7D",
        "commits_url": "https://api.github.com/repos/bitcoin/bitcoin/commits%7B/sha%7D",
        "compare_url": "https://api.github.com/repos/bitcoin/bitcoin/compare/%7Bbase%7D...%7Bhead%7D",
        "contents_url": "https://api.github.com/repos/bitcoin/bitcoin/contents/%7B+path%7D",
        "contributors_url": "https://api.github.com/repos/bitcoin/bitcoin/contributors",
        "deployments_url": "https://api.github.com/repos/bitcoin/bitcoin/deployments",
        "downloads_url": "https://api.github.com/repos/bitcoin/bitcoin/downloads",
        "events_url": "https://api.github.com/repos/bitcoin/bitcoin/events",
        "forks_url": "https://api.github.com/repos/bitcoin/bitcoin/forks",
        "git_commits_url": "https://api.github.com/repos/bitcoin/bitcoin/git/commits%7B/sha%7D",
        "git_refs_url": "https://api.github.com/repos/bitcoin/bitcoin/git/refs%7B/sha%7D",
        "git_tags_url": "https://api.github.com/repos/bitcoin/bitcoin/git/tags%7B/sha%7D",
        "git_url": "git://github.com/bitcoin/bitcoin.git",
        "issue_comment_url": "https://api.github.com/repos/bitcoin/bitcoin/issues/comments%7B/number%7D",
        "issue_events_url": "https://api.github.com/repos/bitcoin/bitcoin/issues/events%7B/number%7D",
        "issues_url": "https://api.github.com/repos/bitcoin/bitcoin/issues%7B/number%7D",
        "keys_url": "https://api.github.com/repos/bitcoin/bitcoin/keys%7B/key_id%7D",
        "labels_url": "https://api.github.com/repos/bitcoin/bitcoin/labels%7B/name%7D",
        "languages_url": "https://api.github.com/repos/bitcoin/bitcoin/languages",
        "merges_url": "https://api.github.com/repos/bitcoin/bitcoin/merges",
        "milestones_url": "https://api.github.com/repos/bitcoin/bitcoin/milestones%7B/number%7D",
        "notifications_url": "https://api.github.com/repos/bitcoin/bitcoin/notifications%7B?since,all,participating}",
        "pulls_url": "https://api.github.com/repos/bitcoin/bitcoin/pulls%7B/number%7D",
        "releases_url": "https://api.github.com/repos/bitcoin/bitcoin/releases%7B/id%7D",
        "ssh_url": "git@github.com:bitcoin/bitcoin.git",
        "stargazers_url": "https://api.github.com/repos/bitcoin/bitcoin/stargazers",
        "statuses_url": "https://api.github.com/repos/bitcoin/bitcoin/statuses/%7Bsha%7D",
        "subscribers_url": "https://api.github.com/repos/bitcoin/bitcoin/subscribers",
        "subscription_url": "https://api.github.com/repos/bitcoin/bitcoin/subscription",
        "tags_url": "https://api.github.com/repos/bitcoin/bitcoin/tags",
        "teams_url": "https://api.github.com/repos/bitcoin/bitcoin/teams",
        "trees_url": "https://api.github.com/repos/bitcoin/bitcoin/git/trees%7B/sha%7D",
        "clone_url": "https://github.com/bitcoin/bitcoin.git",
        "hooks_url": "https://api.github.com/repos/bitcoin/bitcoin/hooks",
        "svn_url": "https://github.com/bitcoin/bitcoin",
        "homepage": "https://bitcoincore.org/en/download",
        "language": "C++",
        "forks_count": 35476,
        "stargazers_count": 70608,
        "watchers_count": 70608,
        "size": 236222,
        "default_branch": "master",
        "open_issues_count": 673,
        "is_template": false,
        "topics": [
          "bitcoin",
          "c-plus-plus",
          "cryptocurrency",
          "cryptography",
          "p2p"
        ],
        "has_issues": true,
        "has_projects": true,
        "has_wiki": false,
        "has_pages": false,
        "has_downloads": false,
        "archived": false,
        "disabled": false,
        "visibility": "public",
        "pushed_at": "2023-08-03T00:03:27Z",
        "created_at": "2010-12-19T15:16:43Z",
        "updated_at": "2023-08-02T18:21:18Z",
        "license": {
          "key": "mit",
          "name": "MIT License",
          "node_id": "MDc6TGljZW5zZTEz",
          "spdx_id": "MIT",
          "url": "https://api.github.com/licenses/mit",
          "html_url": null,
          "description": null,
          "implementation": null,
          "permissions": null,
          "conditions": null,
          "limitations": null,
          "body": null,
          "featured": null
        }
      }
    },
    "_links": {
      "self": {
        "href": "https://api.github.com/repos/bitcoin/bitcoin/pulls/26545"
      }
    },
    "author_association": "MEMBER",
    "draft": false,
    "additions": 0,
    "deletions": 2,
    "changed_files": 1,
    "commits": 1,
    "review_comments": 0,
    "comments": 3
  },
  "events": [
    {
      "event": "committed",
      "id": null,
      "node_id": "C_kwDOABII59oAKGZhZGI3MTQwMzkxMGNkYjkxYjYxNzNkNWRjOTA5ZDNkYjcyNzQyYmE",
      "url": "https://api.github.com/repos/bitcoin/bitcoin/git/commits/fadb71403910cdb91b6173d5dc909d3db72742ba",
      "actor": null,
      "commit_id": null,
      "commit_url": null,
      "created_at": null,
      "html_url": "https://github.com/bitcoin/bitcoin/commit/fadb71403910cdb91b6173d5dc909d3db72742ba",
      "tree": {
        "sha": "4ff1f4044135babc39cb29cabbf95f2089299cc7",
        "url": "https://api.github.com/repos/bitcoin/bitcoin/git/trees/4ff1f4044135babc39cb29cabbf95f2089299cc7"
      },
      "verification": {
        "verified": false,
        "reason": "no_user",
        "payload": "tree 4ff1f4044135babc39cb29cabbf95f2089299cc7\nparent df2f16666c05f8fef2eab0811f87e60b7fb18224\nauthor MacroFake <falke.marco@gmail.com> 1669029642 +0100\ncommitter MacroFake <falke.marco@gmail.com> 1669029222 +0100\n\ntest: Remove unused sanitizer suppressions\n",
        "signature": "-----BEGIN PGP SIGNATURE-----\n\niQGzBAABCgAdFiEE+rVPoUahrI9sLGYTzit1aX5ppUgFAlwqrYAACgkQzit1aX5p\npUhB0Qv/Y7y+0v4SyWM9krFetVJDAolQoeSMOxxoNHK3lBV4DYp6f2fwm9MRhGyq\ndzvANDq79do66xrIb/hxzRQ+VUtCI72XEdsCSe8iUdlM6WNVX5J6dflFKyoreM+Y\nLi4opDkaaMjwkcFI83g1kOq/v31Wlli9G36gXNFLYdD+/9RV/3hmZoEpiX5CqYYh\n0SoZtWutOyLGeIHAHf6R12H72y0nVP89eJ8DrhrqjlmD0vdR3HCNV16s5DJe6RbB\nFZVLRQs3SzurFS5ZM9pmY99dNrPcChKcexgAX2T/pWXaDNnVW6LngPEWX43uYuge\nOUe5PL+layTGIAR8U0MPKULQFhkorWeALzLUKZNKXAGCqn1ftpzbwblxOD+QsXjQ\nFE4OLwA6jwEp/92tkRf52QJQ1fzO3rTm86jFLjEhG9TV3PtMwmC3U1E47IpgdmzQ\nCHpmR8t9We0kuumMp4aceeCUAsQrAZfNGOW4R4f+afCqZOxBLO7/anKGt7VJKibe\nDGZJX0R0\n=yM+r\n-----END PGP SIGNATURE-----"
      },
      "parents": [
        {
          "url": "https://api.github.com/repos/bitcoin/bitcoin/git/commits/df2f16666c05f8fef2eab0811f87e60b7fb18224",
          "sha": "df2f16666c05f8fef2eab0811f87e60b7fb18224",
          "html_url": "https://github.com/bitcoin/bitcoin/commit/df2f16666c05f8fef2eab0811f87e60b7fb18224"
        }
      ],
      "message": "test: Remove unused sanitizer suppressions",
      "committer": {
        "name": "MacroFake",
        "email": "falke.marco@gmail.com",
        "date": "2022-11-21T11:13:42Z"
      },
      "author": {
        "name": "MacroFake",
        "email": "falke.marco@gmail.com",
        "date": "2022-11-21T11:20:42Z"
      },
      "sha": "fadb71403910cdb91b6173d5dc909d3db72742ba"
    },
    {
      "event": "commented",
      "id": 1321891950,
      "node_id": "IC_kwDOABII585Oynhu",
      "url": "https://api.github.com/repos/bitcoin/bitcoin/issues/comments/1321891950",
      "actor": {
        "login": "DrahtBot",
        "id": 39886733,
        "node_id": "MDQ6VXNlcjM5ODg2NzMz",
        "avatar_url": "https://avatars.githubusercontent.com/u/39886733?v=4",
        "gravatar_id": "",
        "url": "https://api.github.com/users/DrahtBot",
        "html_url": "https://github.com/DrahtBot",
        "followers_url": "https://api.github.com/users/DrahtBot/followers",
        "following_url": "https://api.github.com/users/DrahtBot/following%7B/other_user%7D",
        "gists_url": "https://api.github.com/users/DrahtBot/gists%7B/gist_id%7D",
        "starred_url": "https://api.github.com/users/DrahtBot/starred%7B/owner%7D%7B/repo%7D",
        "subscriptions_url": "https://api.github.com/users/DrahtBot/subscriptions",
        "organizations_url": "https://api.github.com/users/DrahtBot/orgs",
        "repos_url": "https://api.github.com/users/DrahtBot/repos",
        "events_url": "https://api.github.com/users/DrahtBot/events%7B/privacy%7D",
        "received_events_url": "https://api.github.com/users/DrahtBot/received_events",
        "type": "User",
        "site_admin": false
      },
      "commit_id": null,
      "commit_url": null,
      "created_at": "2022-11-21T11:14:34Z",
      "updated_at": "2022-11-21T16:19:48Z",
      "author_association": "CONTRIBUTOR",
      "body": "<!--e57a25ab6845829454e8d69fc972939a-->\n\nThe following sections might be updated with supplementary metadata relevant to reviewers and maintainers.\n\n<!--021abf342d371248e50ceaed478a90ca-->\n### Reviews\nSee [the guideline](https://github.com/bitcoin/bitcoin/blob/master/CONTRIBUTING.md#code-review) for information on the review process.\n| Type | Reviewers |\n| ---- | --------- |\n| ACK | [fanquake](https://github.com/bitcoin/bitcoin/pull/26545#pullrequestreview-1188552685), [hebasto](https://github.com/bitcoin/bitcoin/pull/26545#pullrequestreview-1188558050) |\n\n",
      "user": {
        "login": "DrahtBot",
        "id": 39886733,
        "node_id": "MDQ6VXNlcjM5ODg2NzMz",
        "avatar_url": "https://avatars.githubusercontent.com/u/39886733?v=4",
        "gravatar_id": "",
        "url": "https://api.github.com/users/DrahtBot",
        "html_url": "https://github.com/DrahtBot",
        "followers_url": "https://api.github.com/users/DrahtBot/followers",
        "following_url": "https://api.github.com/users/DrahtBot/following%7B/other_user%7D",
        "gists_url": "https://api.github.com/users/DrahtBot/gists%7B/gist_id%7D",
        "starred_url": "https://api.github.com/users/DrahtBot/starred%7B/owner%7D%7B/repo%7D",
        "subscriptions_url": "https://api.github.com/users/DrahtBot/subscriptions",
        "organizations_url": "https://api.github.com/users/DrahtBot/orgs",
        "repos_url": "https://api.github.com/users/DrahtBot/repos",
        "events_url": "https://api.github.com/users/DrahtBot/events%7B/privacy%7D",
        "received_events_url": "https://api.github.com/users/DrahtBot/received_events",
        "type": "User",
        "site_admin": false
      },
      "html_url": "https://github.com/bitcoin/bitcoin/pull/26545#issuecomment-1321891950",
      "issue_url": "https://api.github.com/repos/bitcoin/bitcoin/issues/26545"
    },
    {
      "event": "labeled",
      "id": 7856408964,
      "node_id": "LE_lADOABII585W46ByzwAAAAHUR0mE",
      "url": "https://api.github.com/repos/bitcoin/bitcoin/issues/events/7856408964",
      "actor": {
        "login": "DrahtBot",
        "id": 39886733,
        "node_id": "MDQ6VXNlcjM5ODg2NzMz",
        "avatar_url": "https://avatars.githubusercontent.com/u/39886733?v=4",
        "gravatar_id": "",
        "url": "https://api.github.com/users/DrahtBot",
        "html_url": "https://github.com/DrahtBot",
        "followers_url": "https://api.github.com/users/DrahtBot/followers",
        "following_url": "https://api.github.com/users/DrahtBot/following%7B/other_user%7D",
        "gists_url": "https://api.github.com/users/DrahtBot/gists%7B/gist_id%7D",
        "starred_url": "https://api.github.com/users/DrahtBot/starred%7B/owner%7D%7B/repo%7D",
        "subscriptions_url": "https://api.github.com/users/DrahtBot/subscriptions",
        "organizations_url": "https://api.github.com/users/DrahtBot/orgs",
        "repos_url": "https://api.github.com/users/DrahtBot/repos",
        "events_url": "https://api.github.com/users/DrahtBot/events%7B/privacy%7D",
        "received_events_url": "https://api.github.com/users/DrahtBot/received_events",
        "type": "User",
        "site_admin": false
      },
      "commit_id": null,
      "commit_url": null,
      "created_at": "2022-11-21T11:14:35Z",
      "label": {
        "name": "Tests",
        "color": "d4c5f9"
      }
    },
    {
      "event": "commented",
      "id": 1321892651,
      "node_id": "IC_kwDOABII585Oynsr",
      "url": "https://api.github.com/repos/bitcoin/bitcoin/issues/comments/1321892651",
      "actor": {
        "login": "MarcoFalke",
        "id": 6399679,
        "node_id": "MDQ6VXNlcjYzOTk2Nzk=",
        "avatar_url": "https://avatars.githubusercontent.com/u/6399679?v=4",
        "gravatar_id": "",
        "url": "https://api.github.com/users/MarcoFalke",
        "html_url": "https://github.com/MarcoFalke",
        "followers_url": "https://api.github.com/users/MarcoFalke/followers",
        "following_url": "https://api.github.com/users/MarcoFalke/following%7B/other_user%7D",
        "gists_url": "https://api.github.com/users/MarcoFalke/gists%7B/gist_id%7D",
        "starred_url": "https://api.github.com/users/MarcoFalke/starred%7B/owner%7D%7B/repo%7D",
        "subscriptions_url": "https://api.github.com/users/MarcoFalke/subscriptions",
        "organizations_url": "https://api.github.com/users/MarcoFalke/orgs",
        "repos_url": "https://api.github.com/users/MarcoFalke/repos",
        "events_url": "https://api.github.com/users/MarcoFalke/events%7B/privacy%7D",
        "received_events_url": "https://api.github.com/users/MarcoFalke/received_events",
        "type": "User",
        "site_admin": false
      },
      "commit_id": null,
      "commit_url": null,
      "created_at": "2022-11-21T11:15:07Z",
      "updated_at": "2022-11-21T11:15:07Z",
      "author_association": "MEMBER",
      "body": "https://github.com/bitcoin/bitcoin/pull/17786#discussion_r1027818707",
      "user": {
        "login": "MarcoFalke",
        "id": 6399679,
        "node_id": "MDQ6VXNlcjYzOTk2Nzk=",
        "avatar_url": "https://avatars.githubusercontent.com/u/6399679?v=4",
        "gravatar_id": "",
        "url": "https://api.github.com/users/MarcoFalke",
        "html_url": "https://github.com/MarcoFalke",
        "followers_url": "https://api.github.com/users/MarcoFalke/followers",
        "following_url": "https://api.github.com/users/MarcoFalke/following%7B/other_user%7D",
        "gists_url": "https://api.github.com/users/MarcoFalke/gists%7B/gist_id%7D",
        "starred_url": "https://api.github.com/users/MarcoFalke/starred%7B/owner%7D%7B/repo%7D",
        "subscriptions_url": "https://api.github.com/users/MarcoFalke/subscriptions",
        "organizations_url": "https://api.github.com/users/MarcoFalke/orgs",
        "repos_url": "https://api.github.com/users/MarcoFalke/repos",
        "events_url": "https://api.github.com/users/MarcoFalke/events%7B/privacy%7D",
        "received_events_url": "https://api.github.com/users/MarcoFalke/received_events",
        "type": "User",
        "site_admin": false
      },
      "html_url": "https://github.com/bitcoin/bitcoin/pull/26545#issuecomment-1321892651",
      "issue_url": "https://api.github.com/repos/bitcoin/bitcoin/issues/26545"
    },
    {
      "event": "cross-referenced",
      "id": null,
      "node_id": null,
      "url": null,
      "actor": {
        "login": "fanquake",
        "id": 863730,
        "node_id": "MDQ6VXNlcjg2MzczMA==",
        "avatar_url": "https://avatars.githubusercontent.com/u/863730?v=4",
        "gravatar_id": "",
        "url": "https://api.github.com/users/fanquake",
        "html_url": "https://github.com/fanquake",
        "followers_url": "https://api.github.com/users/fanquake/followers",
        "following_url": "https://api.github.com/users/fanquake/following%7B/other_user%7D",
        "gists_url": "https://api.github.com/users/fanquake/gists%7B/gist_id%7D",
        "starred_url": "https://api.github.com/users/fanquake/starred%7B/owner%7D%7B/repo%7D",
        "subscriptions_url": "https://api.github.com/users/fanquake/subscriptions",
        "organizations_url": "https://api.github.com/users/fanquake/orgs",
        "repos_url": "https://api.github.com/users/fanquake/repos",
        "events_url": "https://api.github.com/users/fanquake/events%7B/privacy%7D",
        "received_events_url": "https://api.github.com/users/fanquake/received_events",
        "type": "User",
        "site_admin": false
      },
      "commit_id": null,
      "commit_url": null,
      "created_at": "2022-11-21T11:16:05Z",
      "updated_at": "2022-11-21T11:16:05Z",
      "source": {
        "issue": {
          "id": 1457739186,
          "node_id": "PR_kwDOABII585DWHY6",
          "url": "https://api.github.com/repos/bitcoin/bitcoin/issues/26542",
          "repository_url": "https://api.github.com/repos/bitcoin/bitcoin",
          "labels_url": "https://api.github.com/repos/bitcoin/bitcoin/issues/26542/labels%7B/name%7D",
          "comments_url": "https://api.github.com/repos/bitcoin/bitcoin/issues/26542/comments",
          "events_url": "https://api.github.com/repos/bitcoin/bitcoin/issues/26542/events",
          "html_url": "https://github.com/bitcoin/bitcoin/pull/26542",
          "number": 26542,
          "state": "closed",
          "state_reason": null,
          "title": "Drop unneeded UBSan suppression",
          "body": "The needlessness of this suppression was [overlooked](https://github.com/bitcoin/bitcoin/pull/17786#discussion_r1027818707) in https://github.com/bitcoin/bitcoin/pull/17786.",
          "user": {
            "login": "hebasto",
            "id": 32963518,
            "node_id": "MDQ6VXNlcjMyOTYzNTE4",
            "avatar_url": "https://avatars.githubusercontent.com/u/32963518?v=4",
            "gravatar_id": "",
            "url": "https://api.github.com/users/hebasto",
            "html_url": "https://github.com/hebasto",
            "followers_url": "https://api.github.com/users/hebasto/followers",
            "following_url": "https://api.github.com/users/hebasto/following%7B/other_user%7D",
            "gists_url": "https://api.github.com/users/hebasto/gists%7B/gist_id%7D",
            "starred_url": "https://api.github.com/users/hebasto/starred%7B/owner%7D%7B/repo%7D",
            "subscriptions_url": "https://api.github.com/users/hebasto/subscriptions",
            "organizations_url": "https://api.github.com/users/hebasto/orgs",
            "repos_url": "https://api.github.com/users/hebasto/repos",
            "events_url": "https://api.github.com/users/hebasto/events%7B/privacy%7D",
            "received_events_url": "https://api.github.com/users/hebasto/received_events",
            "type": "User",
            "site_admin": false
          },
          "labels": [],
          "assignees": [],
          "author_association": "MEMBER",
          "locked": true,
          "comments": 3,
          "pull_request": {
            "url": "https://api.github.com/repos/bitcoin/bitcoin/pulls/26542",
            "html_url": "https://github.com/bitcoin/bitcoin/pull/26542",
            "diff_url": "https://github.com/bitcoin/bitcoin/pull/26542.diff",
            "patch_url": "https://github.com/bitcoin/bitcoin/pull/26542.patch"
          },
          "closed_at": "2022-11-21T11:19:35Z",
          "created_at": "2022-11-21T11:01:30Z",
          "updated_at": "2022-11-22T16:41:36Z"
        },
        "type": "issue"
      }
    },
    {
      "event": "commented",
      "id": 1321903377,
      "node_id": "IC_kwDOABII585OyqUR",
      "url": "https://api.github.com/repos/bitcoin/bitcoin/issues/comments/1321903377",
      "actor": {
        "login": "hebasto",
        "id": 32963518,
        "node_id": "MDQ6VXNlcjMyOTYzNTE4",
        "avatar_url": "https://avatars.githubusercontent.com/u/32963518?v=4",
        "gravatar_id": "",
        "url": "https://api.github.com/users/hebasto",
        "html_url": "https://github.com/hebasto",
        "followers_url": "https://api.github.com/users/hebasto/followers",
        "following_url": "https://api.github.com/users/hebasto/following%7B/other_user%7D",
        "gists_url": "https://api.github.com/users/hebasto/gists%7B/gist_id%7D",
        "starred_url": "https://api.github.com/users/hebasto/starred%7B/owner%7D%7B/repo%7D",
        "subscriptions_url": "https://api.github.com/users/hebasto/subscriptions",
        "organizations_url": "https://api.github.com/users/hebasto/orgs",
        "repos_url": "https://api.github.com/users/hebasto/repos",
        "events_url": "https://api.github.com/users/hebasto/events%7B/privacy%7D",
        "received_events_url": "https://api.github.com/users/hebasto/received_events",
        "type": "User",
        "site_admin": false
      },
      "commit_id": null,
      "commit_url": null,
      "created_at": "2022-11-21T11:22:24Z",
      "updated_at": "2022-11-21T11:22:24Z",
      "author_association": "MEMBER",
      "body": "Concept ACK. It was overlooked in #17786 somewhere among dozens of rebasings :)",
      "user": {
        "login": "hebasto",
        "id": 32963518,
        "node_id": "MDQ6VXNlcjMyOTYzNTE4",
        "avatar_url": "https://avatars.githubusercontent.com/u/32963518?v=4",
        "gravatar_id": "",
        "url": "https://api.github.com/users/hebasto",
        "html_url": "https://github.com/hebasto",
        "followers_url": "https://api.github.com/users/hebasto/followers",
        "following_url": "https://api.github.com/users/hebasto/following%7B/other_user%7D",
        "gists_url": "https://api.github.com/users/hebasto/gists%7B/gist_id%7D",
        "starred_url": "https://api.github.com/users/hebasto/starred%7B/owner%7D%7B/repo%7D",
        "subscriptions_url": "https://api.github.com/users/hebasto/subscriptions",
        "organizations_url": "https://api.github.com/users/hebasto/orgs",
        "repos_url": "https://api.github.com/users/hebasto/repos",
        "events_url": "https://api.github.com/users/hebasto/events%7B/privacy%7D",
        "received_events_url": "https://api.github.com/users/hebasto/received_events",
        "type": "User",
        "site_admin": false
      },
      "html_url": "https://github.com/bitcoin/bitcoin/pull/26545#issuecomment-1321903377",
      "issue_url": "https://api.github.com/repos/bitcoin/bitcoin/issues/26545"
    },
    {
      "event": "reviewed",
      "id": 1188552685,
      "node_id": "PRR_kwDOABII585G19_t",
      "url": null,
      "actor": null,
      "commit_id": "fadb71403910cdb91b6173d5dc909d3db72742ba",
      "commit_url": null,
      "created_at": null,
      "author_association": "MEMBER",
      "body": "ACK fadb71403910cdb91b6173d5dc909d3db72742ba",
      "user": {
        "login": "fanquake",
        "id": 863730,
        "node_id": "MDQ6VXNlcjg2MzczMA==",
        "avatar_url": "https://avatars.githubusercontent.com/u/863730?v=4",
        "gravatar_id": "",
        "url": "https://api.github.com/users/fanquake",
        "html_url": "https://github.com/fanquake",
        "followers_url": "https://api.github.com/users/fanquake/followers",
        "following_url": "https://api.github.com/users/fanquake/following%7B/other_user%7D",
        "gists_url": "https://api.github.com/users/fanquake/gists%7B/gist_id%7D",
        "starred_url": "https://api.github.com/users/fanquake/starred%7B/owner%7D%7B/repo%7D",
        "subscriptions_url": "https://api.github.com/users/fanquake/subscriptions",
        "organizations_url": "https://api.github.com/users/fanquake/orgs",
        "repos_url": "https://api.github.com/users/fanquake/repos",
        "events_url": "https://api.github.com/users/fanquake/events%7B/privacy%7D",
        "received_events_url": "https://api.github.com/users/fanquake/received_events",
        "type": "User",
        "site_admin": false
      },
      "html_url": "https://github.com/bitcoin/bitcoin/pull/26545#pullrequestreview-1188552685",
      "submitted_at": "2022-11-21T16:16:19Z",
      "state": "APPROVED",
      "pull_request_url": "https://api.github.com/repos/bitcoin/bitcoin/pulls/26545"
    },
    {
      "event": "reviewed",
      "id": 1188558050,
      "node_id": "PRR_kwDOABII585G1_Ti",
      "url": null,
      "actor": null,
      "commit_id": "fadb71403910cdb91b6173d5dc909d3db72742ba",
      "commit_url": null,
      "created_at": null,
      "author_association": "MEMBER",
      "body": "ACK fadb71403910cdb91b6173d5dc909d3db72742ba",
      "user": {
        "login": "hebasto",
        "id": 32963518,
        "node_id": "MDQ6VXNlcjMyOTYzNTE4",
        "avatar_url": "https://avatars.githubusercontent.com/u/32963518?v=4",
        "gravatar_id": "",
        "url": "https://api.github.com/users/hebasto",
        "html_url": "https://github.com/hebasto",
        "followers_url": "https://api.github.com/users/hebasto/followers",
        "following_url": "https://api.github.com/users/hebasto/following%7B/other_user%7D",
        "gists_url": "https://api.github.com/users/hebasto/gists%7B/gist_id%7D",
        "starred_url": "https://api.github.com/users/hebasto/starred%7B/owner%7D%7B/repo%7D",
        "subscriptions_url": "https://api.github.com/users/hebasto/subscriptions",
        "organizations_url": "https://api.github.com/users/hebasto/orgs",
        "repos_url": "https://api.github.com/users/hebasto/repos",
        "events_url": "https://api.github.com/users/hebasto/events%7B/privacy%7D",
        "received_events_url": "https://api.github.com/users/hebasto/received_events",
        "type": "User",
        "site_admin": false
      },
      "html_url": "https://github.com/bitcoin/bitcoin/pull/26545#pullrequestreview-1188558050",
      "submitted_at": "2022-11-21T16:19:46Z",
      "state": "APPROVED",
      "pull_request_url": "https://api.github.com/repos/bitcoin/bitcoin/pulls/26545"
    },
    {
      "event": "merged",
      "id": 7859151200,
      "node_id": "ME_lADOABII585W46ByzwAAAAHUcSFg",
      "url": "https://api.github.com/repos/bitcoin/bitcoin/issues/events/7859151200",
      "actor": {
        "login": "MarcoFalke",
        "id": 6399679,
        "node_id": "MDQ6VXNlcjYzOTk2Nzk=",
        "avatar_url": "https://avatars.githubusercontent.com/u/6399679?v=4",
        "gravatar_id": "",
        "url": "https://api.github.com/users/MarcoFalke",
        "html_url": "https://github.com/MarcoFalke",
        "followers_url": "https://api.github.com/users/MarcoFalke/followers",
        "following_url": "https://api.github.com/users/MarcoFalke/following%7B/other_user%7D",
        "gists_url": "https://api.github.com/users/MarcoFalke/gists%7B/gist_id%7D",
        "starred_url": "https://api.github.com/users/MarcoFalke/starred%7B/owner%7D%7B/repo%7D",
        "subscriptions_url": "https://api.github.com/users/MarcoFalke/subscriptions",
        "organizations_url": "https://api.github.com/users/MarcoFalke/orgs",
        "repos_url": "https://api.github.com/users/MarcoFalke/repos",
        "events_url": "https://api.github.com/users/MarcoFalke/events%7B/privacy%7D",
        "received_events_url": "https://api.github.com/users/MarcoFalke/received_events",
        "type": "User",
        "site_admin": false
      },
      "commit_id": "60a00889b02cdb67ac20328af7477ff55ecd8e46",
      "commit_url": "https://api.github.com/repos/bitcoin/bitcoin/commits/60a00889b02cdb67ac20328af7477ff55ecd8e46",
      "created_at": "2022-11-21T16:29:20Z"
    },
    {
      "event": "closed",
      "id": 7859151232,
      "node_id": "CE_lADOABII585W46ByzwAAAAHUcSGA",
      "url": "https://api.github.com/repos/bitcoin/bitcoin/issues/events/7859151232",
      "actor": {
        "login": "MarcoFalke",
        "id": 6399679,
        "node_id": "MDQ6VXNlcjYzOTk2Nzk=",
        "avatar_url": "https://avatars.githubusercontent.com/u/6399679?v=4",
        "gravatar_id": "",
        "url": "https://api.github.com/users/MarcoFalke",
        "html_url": "https://github.com/MarcoFalke",
        "followers_url": "https://api.github.com/users/MarcoFalke/followers",
        "following_url": "https://api.github.com/users/MarcoFalke/following%7B/other_user%7D",
        "gists_url": "https://api.github.com/users/MarcoFalke/gists%7B/gist_id%7D",
        "starred_url": "https://api.github.com/users/MarcoFalke/starred%7B/owner%7D%7B/repo%7D",
        "subscriptions_url": "https://api.github.com/users/MarcoFalke/subscriptions",
        "organizations_url": "https://api.github.com/users/MarcoFalke/orgs",
        "repos_url": "https://api.github.com/users/MarcoFalke/repos",
        "events_url": "https://api.github.com/users/MarcoFalke/events%7B/privacy%7D",
        "received_events_url": "https://api.github.com/users/MarcoFalke/received_events",
        "type": "User",
        "site_admin": false
      },
      "commit_id": null,
      "commit_url": null,
      "created_at": "2022-11-21T16:29:21Z"
    },
    {
      "event": "head_ref_deleted",
      "id": 7859157478,
      "node_id": "HRDE_lADOABII585W46ByzwAAAAHUcTnm",
      "url": "https://api.github.com/repos/bitcoin/bitcoin/issues/events/7859157478",
      "actor": {
        "login": "MarcoFalke",
        "id": 6399679,
        "node_id": "MDQ6VXNlcjYzOTk2Nzk=",
        "avatar_url": "https://avatars.githubusercontent.com/u/6399679?v=4",
        "gravatar_id": "",
        "url": "https://api.github.com/users/MarcoFalke",
        "html_url": "https://github.com/MarcoFalke",
        "followers_url": "https://api.github.com/users/MarcoFalke/followers",
        "following_url": "https://api.github.com/users/MarcoFalke/following%7B/other_user%7D",
        "gists_url": "https://api.github.com/users/MarcoFalke/gists%7B/gist_id%7D",
        "starred_url": "https://api.github.com/users/MarcoFalke/starred%7B/owner%7D%7B/repo%7D",
        "subscriptions_url": "https://api.github.com/users/MarcoFalke/subscriptions",
        "organizations_url": "https://api.github.com/users/MarcoFalke/orgs",
        "repos_url": "https://api.github.com/users/MarcoFalke/repos",
        "events_url": "https://api.github.com/users/MarcoFalke/events%7B/privacy%7D",
        "received_events_url": "https://api.github.com/users/MarcoFalke/received_events",
        "type": "User",
        "site_admin": false
      },
      "commit_id": null,
      "commit_url": null,
      "created_at": "2022-11-21T16:30:03Z"
    },
    {
      "event": "referenced",
      "id": 7860134965,
      "node_id": "REFE_lADOABII585W46ByzwAAAAHUgCQ1",
      "url": "https://api.github.com/repos/bitcoin/bitcoin/issues/events/7860134965",
      "actor": {
        "login": "sidhujag",
        "id": 6238042,
        "node_id": "MDQ6VXNlcjYyMzgwNDI=",
        "avatar_url": "https://avatars.githubusercontent.com/u/6238042?v=4",
        "gravatar_id": "",
        "url": "https://api.github.com/users/sidhujag",
        "html_url": "https://github.com/sidhujag",
        "followers_url": "https://api.github.com/users/sidhujag/followers",
        "following_url": "https://api.github.com/users/sidhujag/following%7B/other_user%7D",
        "gists_url": "https://api.github.com/users/sidhujag/gists%7B/gist_id%7D",
        "starred_url": "https://api.github.com/users/sidhujag/starred%7B/owner%7D%7B/repo%7D",
        "subscriptions_url": "https://api.github.com/users/sidhujag/subscriptions",
        "organizations_url": "https://api.github.com/users/sidhujag/orgs",
        "repos_url": "https://api.github.com/users/sidhujag/repos",
        "events_url": "https://api.github.com/users/sidhujag/events%7B/privacy%7D",
        "received_events_url": "https://api.github.com/users/sidhujag/received_events",
        "type": "User",
        "site_admin": false
      },
      "commit_id": "5b5fea138860dec882b5347536ba625f4efbb393",
      "commit_url": "https://api.github.com/repos/syscoin/syscoin/commits/5b5fea138860dec882b5347536ba625f4efbb393",
      "created_at": "2022-11-21T18:27:08Z"
    },
    {
      "event": "cross-referenced",
      "id": null,
      "node_id": null,
      "url": null,
      "actor": {
        "login": "hebasto",
        "id": 32963518,
        "node_id": "MDQ6VXNlcjMyOTYzNTE4",
        "avatar_url": "https://avatars.githubusercontent.com/u/32963518?v=4",
        "gravatar_id": "",
        "url": "https://api.github.com/users/hebasto",
        "html_url": "https://github.com/hebasto",
        "followers_url": "https://api.github.com/users/hebasto/followers",
        "following_url": "https://api.github.com/users/hebasto/following%7B/other_user%7D",
        "gists_url": "https://api.github.com/users/hebasto/gists%7B/gist_id%7D",
        "starred_url": "https://api.github.com/users/hebasto/starred%7B/owner%7D%7B/repo%7D",
        "subscriptions_url": "https://api.github.com/users/hebasto/subscriptions",
        "organizations_url": "https://api.github.com/users/hebasto/orgs",
        "repos_url": "https://api.github.com/users/hebasto/repos",
        "events_url": "https://api.github.com/users/hebasto/events%7B/privacy%7D",
        "received_events_url": "https://api.github.com/users/hebasto/received_events",
        "type": "User",
        "site_admin": false
      },
      "commit_id": null,
      "commit_url": null,
      "created_at": "2022-11-30T10:27:52Z",
      "updated_at": "2022-11-30T10:27:52Z",
      "source": {
        "issue": {
          "id": 541348481,
          "node_id": "MDExOlB1bGxSZXF1ZXN0MzU2MDE2MTI5",
          "url": "https://api.github.com/repos/bitcoin/bitcoin/issues/17786",
          "repository_url": "https://api.github.com/repos/bitcoin/bitcoin",
          "labels_url": "https://api.github.com/repos/bitcoin/bitcoin/issues/17786/labels%7B/name%7D",
          "comments_url": "https://api.github.com/repos/bitcoin/bitcoin/issues/17786/comments",
          "events_url": "https://api.github.com/repos/bitcoin/bitcoin/issues/17786/events",
          "html_url": "https://github.com/bitcoin/bitcoin/pull/17786",
          "number": 17786,
          "state": "closed",
          "state_reason": null,
          "title": "refactor: Nuke policy/fees->mempool circular dependencies",
          "body": "This PR:\r\n- gets rid of the `policy/fees` -> `txmempool` -> `policy/fees` circular dependency\r\n- is an alternative to #13949, which nukes only one circular dependency",
          "user": {
            "login": "hebasto",
            "id": 32963518,
            "node_id": "MDQ6VXNlcjMyOTYzNTE4",
            "avatar_url": "https://avatars.githubusercontent.com/u/32963518?v=4",
            "gravatar_id": "",
            "url": "https://api.github.com/users/hebasto",
            "html_url": "https://github.com/hebasto",
            "followers_url": "https://api.github.com/users/hebasto/followers",
            "following_url": "https://api.github.com/users/hebasto/following%7B/other_user%7D",
            "gists_url": "https://api.github.com/users/hebasto/gists%7B/gist_id%7D",
            "starred_url": "https://api.github.com/users/hebasto/starred%7B/owner%7D%7B/repo%7D",
            "subscriptions_url": "https://api.github.com/users/hebasto/subscriptions",
            "organizations_url": "https://api.github.com/users/hebasto/orgs",
            "repos_url": "https://api.github.com/users/hebasto/repos",
            "events_url": "https://api.github.com/users/hebasto/events%7B/privacy%7D",
            "received_events_url": "https://api.github.com/users/hebasto/received_events",
            "type": "User",
            "site_admin": false
          },
          "labels": [
            {
              "id": 135961,
              "node_id": "MDU6TGFiZWwxMzU5NjE=",
              "url": "https://api.github.com/repos/bitcoin/bitcoin/labels/Refactoring",
              "name": "Refactoring",
              "color": "E6F6D6",
              "default": false
            }
          ],
          "assignees": [],
          "author_association": "MEMBER",
          "locked": false,
          "comments": 45,
          "pull_request": {
            "url": "https://api.github.com/repos/bitcoin/bitcoin/pulls/17786",
            "html_url": "https://github.com/bitcoin/bitcoin/pull/17786",
            "diff_url": "https://github.com/bitcoin/bitcoin/pull/17786.diff",
            "patch_url": "https://github.com/bitcoin/bitcoin/pull/17786.patch"
          },
          "closed_at": "2022-11-19T01:05:22Z",
          "created_at": "2019-12-21T17:08:37Z",
          "updated_at": "2022-11-30T10:42:30Z"
        },
        "type": "issue"
      }
    }
  ],
  "comments": []
}