{
  "type": "pull",
  "pull": {
    "url": "https://api.github.com/repos/bitcoin/bitcoin/pulls/26565",
    "id": 1134319877,
    "node_id": "PR_kwDOABII585DnFkF",
    "html_url": "https://github.com/bitcoin/bitcoin/pull/26565",
    "diff_url": "https://github.com/bitcoin/bitcoin/pull/26565.diff",
    "patch_url": "https://github.com/bitcoin/bitcoin/pull/26565.patch",
    "issue_url": "https://api.github.com/repos/bitcoin/bitcoin/issues/26565",
    "commits_url": "https://api.github.com/repos/bitcoin/bitcoin/pulls/26565/commits",
    "review_comments_url": "https://api.github.com/repos/bitcoin/bitcoin/pulls/26565/comments",
    "review_comment_url": "https://api.github.com/repos/bitcoin/bitcoin/pulls/comments%7B/number%7D",
    "comments_url": "https://api.github.com/repos/bitcoin/bitcoin/issues/26565/comments",
    "statuses_url": "https://api.github.com/repos/bitcoin/bitcoin/statuses/dddfa028ffa6b6d70e4fae761ecb9477877d8ec2",
    "number": 26565,
    "state": "closed",
    "locked": false,
    "maintainer_can_modify": false,
    "title": "contrib/builder-keys/keys.txt: remove unavailable key",
    "user": {
      "login": "RandyMcMillan",
      "id": 152159,
      "node_id": "MDQ6VXNlcjE1MjE1OQ==",
      "avatar_url": "https://avatars.githubusercontent.com/u/152159?v=4",
      "gravatar_id": "",
      "url": "https://api.github.com/users/RandyMcMillan",
      "html_url": "https://github.com/RandyMcMillan",
      "followers_url": "https://api.github.com/users/RandyMcMillan/followers",
      "following_url": "https://api.github.com/users/RandyMcMillan/following%7B/other_user%7D",
      "gists_url": "https://api.github.com/users/RandyMcMillan/gists%7B/gist_id%7D",
      "starred_url": "https://api.github.com/users/RandyMcMillan/starred%7B/owner%7D%7B/repo%7D",
      "subscriptions_url": "https://api.github.com/users/RandyMcMillan/subscriptions",
      "organizations_url": "https://api.github.com/users/RandyMcMillan/orgs",
      "repos_url": "https://api.github.com/users/RandyMcMillan/repos",
      "events_url": "https://api.github.com/users/RandyMcMillan/events%7B/privacy%7D",
      "received_events_url": "https://api.github.com/users/RandyMcMillan/received_events",
      "type": "User",
      "site_admin": false
    },
    "labels": [],
    "created_at": "2022-11-24T02:33:02Z",
    "updated_at": "2022-11-29T12:13:02Z",
    "closed_at": "2022-11-29T12:13:01Z",
    "mergeable_state": "unknown",
    "merged_at": "2022-11-29T12:13:01Z",
    "merge_commit_sha": "a035b6a0c418d0b720707df69559028bd662fa70",
    "assignees": [],
    "requested_reviewers": [],
    "requested_teams": [],
    "head": {
      "label": "RandyMcMillan:1669256933/85892f77c9/38d06e1561-builder-keys",
      "ref": "1669256933/85892f77c9/38d06e1561-builder-keys",
      "sha": "dddfa028ffa6b6d70e4fae761ecb9477877d8ec2",
      "user": {
        "login": "RandyMcMillan",
        "id": 152159,
        "node_id": "MDQ6VXNlcjE1MjE1OQ==",
        "avatar_url": "https://avatars.githubusercontent.com/u/152159?v=4",
        "gravatar_id": "",
        "url": "https://api.github.com/users/RandyMcMillan",
        "html_url": "https://github.com/RandyMcMillan",
        "followers_url": "https://api.github.com/users/RandyMcMillan/followers",
        "following_url": "https://api.github.com/users/RandyMcMillan/following%7B/other_user%7D",
        "gists_url": "https://api.github.com/users/RandyMcMillan/gists%7B/gist_id%7D",
        "starred_url": "https://api.github.com/users/RandyMcMillan/starred%7B/owner%7D%7B/repo%7D",
        "subscriptions_url": "https://api.github.com/users/RandyMcMillan/subscriptions",
        "organizations_url": "https://api.github.com/users/RandyMcMillan/orgs",
        "repos_url": "https://api.github.com/users/RandyMcMillan/repos",
        "events_url": "https://api.github.com/users/RandyMcMillan/events%7B/privacy%7D",
        "received_events_url": "https://api.github.com/users/RandyMcMillan/received_events",
        "type": "User",
        "site_admin": false
      },
      "repo": {
        "id": 316831748,
        "node_id": "MDEwOlJlcG9zaXRvcnkzMTY4MzE3NDg=",
        "name": "bitcoin",
        "full_name": "RandyMcMillan/bitcoin",
        "owner": {
          "login": "RandyMcMillan",
          "id": 152159,
          "node_id": "MDQ6VXNlcjE1MjE1OQ==",
          "avatar_url": "https://avatars.githubusercontent.com/u/152159?v=4",
          "gravatar_id": "",
          "url": "https://api.github.com/users/RandyMcMillan",
          "html_url": "https://github.com/RandyMcMillan",
          "followers_url": "https://api.github.com/users/RandyMcMillan/followers",
          "following_url": "https://api.github.com/users/RandyMcMillan/following%7B/other_user%7D",
          "gists_url": "https://api.github.com/users/RandyMcMillan/gists%7B/gist_id%7D",
          "starred_url": "https://api.github.com/users/RandyMcMillan/starred%7B/owner%7D%7B/repo%7D",
          "subscriptions_url": "https://api.github.com/users/RandyMcMillan/subscriptions",
          "organizations_url": "https://api.github.com/users/RandyMcMillan/orgs",
          "repos_url": "https://api.github.com/users/RandyMcMillan/repos",
          "events_url": "https://api.github.com/users/RandyMcMillan/events%7B/privacy%7D",
          "received_events_url": "https://api.github.com/users/RandyMcMillan/received_events",
          "type": "User",
          "site_admin": false
        },
        "private": false,
        "html_url": "https://github.com/RandyMcMillan/bitcoin",
        "description": "Bitcoin Core integration/staging tree",
        "fork": true,
        "url": "https://api.github.com/repos/RandyMcMillan/bitcoin",
        "archive_url": "https://api.github.com/repos/RandyMcMillan/bitcoin/%7Barchive_format%7D%7B/ref%7D",
        "assignees_url": "https://api.github.com/repos/RandyMcMillan/bitcoin/assignees%7B/user%7D",
        "blobs_url": "https://api.github.com/repos/RandyMcMillan/bitcoin/git/blobs%7B/sha%7D",
        "branches_url": "https://api.github.com/repos/RandyMcMillan/bitcoin/branches%7B/branch%7D",
        "collaborators_url": "https://api.github.com/repos/RandyMcMillan/bitcoin/collaborators%7B/collaborator%7D",
        "comments_url": "https://api.github.com/repos/RandyMcMillan/bitcoin/comments%7B/number%7D",
        "commits_url": "https://api.github.com/repos/RandyMcMillan/bitcoin/commits%7B/sha%7D",
        "compare_url": "https://api.github.com/repos/RandyMcMillan/bitcoin/compare/%7Bbase%7D...%7Bhead%7D",
        "contents_url": "https://api.github.com/repos/RandyMcMillan/bitcoin/contents/%7B+path%7D",
        "contributors_url": "https://api.github.com/repos/RandyMcMillan/bitcoin/contributors",
        "deployments_url": "https://api.github.com/repos/RandyMcMillan/bitcoin/deployments",
        "downloads_url": "https://api.github.com/repos/RandyMcMillan/bitcoin/downloads",
        "events_url": "https://api.github.com/repos/RandyMcMillan/bitcoin/events",
        "forks_url": "https://api.github.com/repos/RandyMcMillan/bitcoin/forks",
        "git_commits_url": "https://api.github.com/repos/RandyMcMillan/bitcoin/git/commits%7B/sha%7D",
        "git_refs_url": "https://api.github.com/repos/RandyMcMillan/bitcoin/git/refs%7B/sha%7D",
        "git_tags_url": "https://api.github.com/repos/RandyMcMillan/bitcoin/git/tags%7B/sha%7D",
        "git_url": "git://github.com/RandyMcMillan/bitcoin.git",
        "issue_comment_url": "https://api.github.com/repos/RandyMcMillan/bitcoin/issues/comments%7B/number%7D",
        "issue_events_url": "https://api.github.com/repos/RandyMcMillan/bitcoin/issues/events%7B/number%7D",
        "issues_url": "https://api.github.com/repos/RandyMcMillan/bitcoin/issues%7B/number%7D",
        "keys_url": "https://api.github.com/repos/RandyMcMillan/bitcoin/keys%7B/key_id%7D",
        "labels_url": "https://api.github.com/repos/RandyMcMillan/bitcoin/labels%7B/name%7D",
        "languages_url": "https://api.github.com/repos/RandyMcMillan/bitcoin/languages",
        "merges_url": "https://api.github.com/repos/RandyMcMillan/bitcoin/merges",
        "milestones_url": "https://api.github.com/repos/RandyMcMillan/bitcoin/milestones%7B/number%7D",
        "notifications_url": "https://api.github.com/repos/RandyMcMillan/bitcoin/notifications%7B?since,all,participating}",
        "pulls_url": "https://api.github.com/repos/RandyMcMillan/bitcoin/pulls%7B/number%7D",
        "releases_url": "https://api.github.com/repos/RandyMcMillan/bitcoin/releases%7B/id%7D",
        "ssh_url": "git@github.com:RandyMcMillan/bitcoin.git",
        "stargazers_url": "https://api.github.com/repos/RandyMcMillan/bitcoin/stargazers",
        "statuses_url": "https://api.github.com/repos/RandyMcMillan/bitcoin/statuses/%7Bsha%7D",
        "subscribers_url": "https://api.github.com/repos/RandyMcMillan/bitcoin/subscribers",
        "subscription_url": "https://api.github.com/repos/RandyMcMillan/bitcoin/subscription",
        "tags_url": "https://api.github.com/repos/RandyMcMillan/bitcoin/tags",
        "teams_url": "https://api.github.com/repos/RandyMcMillan/bitcoin/teams",
        "trees_url": "https://api.github.com/repos/RandyMcMillan/bitcoin/git/trees%7B/sha%7D",
        "clone_url": "https://github.com/RandyMcMillan/bitcoin.git",
        "hooks_url": "https://api.github.com/repos/RandyMcMillan/bitcoin/hooks",
        "svn_url": "https://github.com/RandyMcMillan/bitcoin",
        "homepage": "https://bitcoincore.org/en/download",
        "language": "C++",
        "forks_count": 0,
        "stargazers_count": 2,
        "watchers_count": 2,
        "size": 259375,
        "default_branch": "master",
        "open_issues_count": 0,
        "is_template": true,
        "topics": [],
        "has_issues": false,
        "has_projects": true,
        "has_wiki": false,
        "has_pages": false,
        "has_downloads": false,
        "archived": false,
        "disabled": false,
        "visibility": "public",
        "pushed_at": "2023-06-12T12:01:26Z",
        "created_at": "2020-11-28T22:18:36Z",
        "updated_at": "2023-03-10T12:27:53Z",
        "license": {
          "key": "mit",
          "name": "MIT License",
          "node_id": "MDc6TGljZW5zZTEz",
          "spdx_id": "MIT",
          "url": "https://api.github.com/licenses/mit",
          "html_url": null,
          "description": null,
          "implementation": null,
          "permissions": null,
          "conditions": null,
          "limitations": null,
          "body": null,
          "featured": null
        }
      }
    },
    "base": {
      "label": "bitcoin:master",
      "ref": "master",
      "sha": "38d06e1561013f4ca845fd5ba6ffcc64de67f9c0",
      "user": {
        "login": "bitcoin",
        "id": 528860,
        "node_id": "MDEyOk9yZ2FuaXphdGlvbjUyODg2MA==",
        "avatar_url": "https://avatars.githubusercontent.com/u/528860?v=4",
        "gravatar_id": "",
        "url": "https://api.github.com/users/bitcoin",
        "html_url": "https://github.com/bitcoin",
        "followers_url": "https://api.github.com/users/bitcoin/followers",
        "following_url": "https://api.github.com/users/bitcoin/following%7B/other_user%7D",
        "gists_url": "https://api.github.com/users/bitcoin/gists%7B/gist_id%7D",
        "starred_url": "https://api.github.com/users/bitcoin/starred%7B/owner%7D%7B/repo%7D",
        "subscriptions_url": "https://api.github.com/users/bitcoin/subscriptions",
        "organizations_url": "https://api.github.com/users/bitcoin/orgs",
        "repos_url": "https://api.github.com/users/bitcoin/repos",
        "events_url": "https://api.github.com/users/bitcoin/events%7B/privacy%7D",
        "received_events_url": "https://api.github.com/users/bitcoin/received_events",
        "type": "Organization",
        "site_admin": false
      },
      "repo": {
        "id": 1181927,
        "node_id": "MDEwOlJlcG9zaXRvcnkxMTgxOTI3",
        "name": "bitcoin",
        "full_name": "bitcoin/bitcoin",
        "owner": {
          "login": "bitcoin",
          "id": 528860,
          "node_id": "MDEyOk9yZ2FuaXphdGlvbjUyODg2MA==",
          "avatar_url": "https://avatars.githubusercontent.com/u/528860?v=4",
          "gravatar_id": "",
          "url": "https://api.github.com/users/bitcoin",
          "html_url": "https://github.com/bitcoin",
          "followers_url": "https://api.github.com/users/bitcoin/followers",
          "following_url": "https://api.github.com/users/bitcoin/following%7B/other_user%7D",
          "gists_url": "https://api.github.com/users/bitcoin/gists%7B/gist_id%7D",
          "starred_url": "https://api.github.com/users/bitcoin/starred%7B/owner%7D%7B/repo%7D",
          "subscriptions_url": "https://api.github.com/users/bitcoin/subscriptions",
          "organizations_url": "https://api.github.com/users/bitcoin/orgs",
          "repos_url": "https://api.github.com/users/bitcoin/repos",
          "events_url": "https://api.github.com/users/bitcoin/events%7B/privacy%7D",
          "received_events_url": "https://api.github.com/users/bitcoin/received_events",
          "type": "Organization",
          "site_admin": false
        },
        "private": false,
        "html_url": "https://github.com/bitcoin/bitcoin",
        "description": "Bitcoin Core integration/staging tree",
        "fork": false,
        "url": "https://api.github.com/repos/bitcoin/bitcoin",
        "archive_url": "https://api.github.com/repos/bitcoin/bitcoin/%7Barchive_format%7D%7B/ref%7D",
        "assignees_url": "https://api.github.com/repos/bitcoin/bitcoin/assignees%7B/user%7D",
        "blobs_url": "https://api.github.com/repos/bitcoin/bitcoin/git/blobs%7B/sha%7D",
        "branches_url": "https://api.github.com/repos/bitcoin/bitcoin/branches%7B/branch%7D",
        "collaborators_url": "https://api.github.com/repos/bitcoin/bitcoin/collaborators%7B/collaborator%7D",
        "comments_url": "https://api.github.com/repos/bitcoin/bitcoin/comments%7B/number%7D",
        "commits_url": "https://api.github.com/repos/bitcoin/bitcoin/commits%7B/sha%7D",
        "compare_url": "https://api.github.com/repos/bitcoin/bitcoin/compare/%7Bbase%7D...%7Bhead%7D",
        "contents_url": "https://api.github.com/repos/bitcoin/bitcoin/contents/%7B+path%7D",
        "contributors_url": "https://api.github.com/repos/bitcoin/bitcoin/contributors",
        "deployments_url": "https://api.github.com/repos/bitcoin/bitcoin/deployments",
        "downloads_url": "https://api.github.com/repos/bitcoin/bitcoin/downloads",
        "events_url": "https://api.github.com/repos/bitcoin/bitcoin/events",
        "forks_url": "https://api.github.com/repos/bitcoin/bitcoin/forks",
        "git_commits_url": "https://api.github.com/repos/bitcoin/bitcoin/git/commits%7B/sha%7D",
        "git_refs_url": "https://api.github.com/repos/bitcoin/bitcoin/git/refs%7B/sha%7D",
        "git_tags_url": "https://api.github.com/repos/bitcoin/bitcoin/git/tags%7B/sha%7D",
        "git_url": "git://github.com/bitcoin/bitcoin.git",
        "issue_comment_url": "https://api.github.com/repos/bitcoin/bitcoin/issues/comments%7B/number%7D",
        "issue_events_url": "https://api.github.com/repos/bitcoin/bitcoin/issues/events%7B/number%7D",
        "issues_url": "https://api.github.com/repos/bitcoin/bitcoin/issues%7B/number%7D",
        "keys_url": "https://api.github.com/repos/bitcoin/bitcoin/keys%7B/key_id%7D",
        "labels_url": "https://api.github.com/repos/bitcoin/bitcoin/labels%7B/name%7D",
        "languages_url": "https://api.github.com/repos/bitcoin/bitcoin/languages",
        "merges_url": "https://api.github.com/repos/bitcoin/bitcoin/merges",
        "milestones_url": "https://api.github.com/repos/bitcoin/bitcoin/milestones%7B/number%7D",
        "notifications_url": "https://api.github.com/repos/bitcoin/bitcoin/notifications%7B?since,all,participating}",
        "pulls_url": "https://api.github.com/repos/bitcoin/bitcoin/pulls%7B/number%7D",
        "releases_url": "https://api.github.com/repos/bitcoin/bitcoin/releases%7B/id%7D",
        "ssh_url": "git@github.com:bitcoin/bitcoin.git",
        "stargazers_url": "https://api.github.com/repos/bitcoin/bitcoin/stargazers",
        "statuses_url": "https://api.github.com/repos/bitcoin/bitcoin/statuses/%7Bsha%7D",
        "subscribers_url": "https://api.github.com/repos/bitcoin/bitcoin/subscribers",
        "subscription_url": "https://api.github.com/repos/bitcoin/bitcoin/subscription",
        "tags_url": "https://api.github.com/repos/bitcoin/bitcoin/tags",
        "teams_url": "https://api.github.com/repos/bitcoin/bitcoin/teams",
        "trees_url": "https://api.github.com/repos/bitcoin/bitcoin/git/trees%7B/sha%7D",
        "clone_url": "https://github.com/bitcoin/bitcoin.git",
        "hooks_url": "https://api.github.com/repos/bitcoin/bitcoin/hooks",
        "svn_url": "https://github.com/bitcoin/bitcoin",
        "homepage": "https://bitcoincore.org/en/download",
        "language": "C++",
        "forks_count": 35476,
        "stargazers_count": 70608,
        "watchers_count": 70608,
        "size": 236222,
        "default_branch": "master",
        "open_issues_count": 673,
        "is_template": false,
        "topics": [
          "bitcoin",
          "c-plus-plus",
          "cryptocurrency",
          "cryptography",
          "p2p"
        ],
        "has_issues": true,
        "has_projects": true,
        "has_wiki": false,
        "has_pages": false,
        "has_downloads": false,
        "archived": false,
        "disabled": false,
        "visibility": "public",
        "pushed_at": "2023-08-03T00:03:27Z",
        "created_at": "2010-12-19T15:16:43Z",
        "updated_at": "2023-08-02T18:21:18Z",
        "license": {
          "key": "mit",
          "name": "MIT License",
          "node_id": "MDc6TGljZW5zZTEz",
          "spdx_id": "MIT",
          "url": "https://api.github.com/licenses/mit",
          "html_url": null,
          "description": null,
          "implementation": null,
          "permissions": null,
          "conditions": null,
          "limitations": null,
          "body": null,
          "featured": null
        }
      }
    },
    "_links": {
      "self": {
        "href": "https://api.github.com/repos/bitcoin/bitcoin/pulls/26565"
      }
    },
    "author_association": "CONTRIBUTOR",
    "draft": false,
    "additions": 0,
    "deletions": 1,
    "changed_files": 1,
    "commits": 1,
    "review_comments": 0,
    "comments": 6
  },
  "events": [
    {
      "event": "committed",
      "id": null,
      "node_id": "C_kwDOABII59oAKGRkZGZhMDI4ZmZhNmI2ZDcwZTRmYWU3NjFlY2I5NDc3ODc3ZDhlYzI",
      "url": "https://api.github.com/repos/bitcoin/bitcoin/git/commits/dddfa028ffa6b6d70e4fae761ecb9477877d8ec2",
      "actor": null,
      "commit_id": null,
      "commit_url": null,
      "created_at": null,
      "html_url": "https://github.com/bitcoin/bitcoin/commit/dddfa028ffa6b6d70e4fae761ecb9477877d8ec2",
      "tree": {
        "sha": "14eee11d0b2104bebf8201c774f9eedddad46947",
        "url": "https://api.github.com/repos/bitcoin/bitcoin/git/trees/14eee11d0b2104bebf8201c774f9eedddad46947"
      },
      "verification": {
        "verified": true,
        "reason": "valid",
        "payload": "tree 14eee11d0b2104bebf8201c774f9eedddad46947\nparent 38d06e1561013f4ca845fd5ba6ffcc64de67f9c0\nauthor @RandyMcMillan <randy.lee.mcmillan@gmail.com> 1669256973 -0500\ncommitter @RandyMcMillan <randy.lee.mcmillan@gmail.com> 1669256973 -0500\n\ncontrib/builder-keys/keys.txt: remove unavailable key\n\nremove unavailable builder-key:\nA2FD494D0021AA9B4FA58F759102B7AE654A4A5A Ilyas Ridhuan (IlyasRidhuan)\n",
        "signature": "-----BEGIN PGP SIGNATURE-----\n\niHUEABEIAB0WIQR57cJaGXGG3BPH59GFSVqTi3943wUCY37XZAAKCRCFSVqTi394\n34vKAQDvz1BJ6ZfVxkRClgHqAOdOnYAleEvFMLr0mH4rZK+9uAD/cQ3Z0nsuc8C/\nz7ZxGczprwsvaZnT1Sd/IdzpP+1ncsg=\n=B4zr\n-----END PGP SIGNATURE-----"
      },
      "parents": [
        {
          "url": "https://api.github.com/repos/bitcoin/bitcoin/git/commits/38d06e1561013f4ca845fd5ba6ffcc64de67f9c0",
          "sha": "38d06e1561013f4ca845fd5ba6ffcc64de67f9c0",
          "html_url": "https://github.com/bitcoin/bitcoin/commit/38d06e1561013f4ca845fd5ba6ffcc64de67f9c0"
        }
      ],
      "message": "contrib/builder-keys/keys.txt: remove unavailable key\n\nremove unavailable builder-key:\nA2FD494D0021AA9B4FA58F759102B7AE654A4A5A Ilyas Ridhuan (IlyasRidhuan)",
      "committer": {
        "name": "@RandyMcMillan",
        "email": "randy.lee.mcmillan@gmail.com",
        "date": "2022-11-24T02:29:33Z"
      },
      "author": {
        "name": "@RandyMcMillan",
        "email": "randy.lee.mcmillan@gmail.com",
        "date": "2022-11-24T02:29:33Z"
      },
      "sha": "dddfa028ffa6b6d70e4fae761ecb9477877d8ec2"
    },
    {
      "event": "commented",
      "id": 1325870873,
      "node_id": "IC_kwDOABII585PBy8Z",
      "url": "https://api.github.com/repos/bitcoin/bitcoin/issues/comments/1325870873",
      "actor": {
        "login": "DrahtBot",
        "id": 39886733,
        "node_id": "MDQ6VXNlcjM5ODg2NzMz",
        "avatar_url": "https://avatars.githubusercontent.com/u/39886733?v=4",
        "gravatar_id": "",
        "url": "https://api.github.com/users/DrahtBot",
        "html_url": "https://github.com/DrahtBot",
        "followers_url": "https://api.github.com/users/DrahtBot/followers",
        "following_url": "https://api.github.com/users/DrahtBot/following%7B/other_user%7D",
        "gists_url": "https://api.github.com/users/DrahtBot/gists%7B/gist_id%7D",
        "starred_url": "https://api.github.com/users/DrahtBot/starred%7B/owner%7D%7B/repo%7D",
        "subscriptions_url": "https://api.github.com/users/DrahtBot/subscriptions",
        "organizations_url": "https://api.github.com/users/DrahtBot/orgs",
        "repos_url": "https://api.github.com/users/DrahtBot/repos",
        "events_url": "https://api.github.com/users/DrahtBot/events%7B/privacy%7D",
        "received_events_url": "https://api.github.com/users/DrahtBot/received_events",
        "type": "User",
        "site_admin": false
      },
      "commit_id": null,
      "commit_url": null,
      "created_at": "2022-11-24T02:33:05Z",
      "updated_at": "2022-11-29T12:11:57Z",
      "author_association": "CONTRIBUTOR",
      "body": "<!--e57a25ab6845829454e8d69fc972939a-->\n\nThe following sections might be updated with supplementary metadata relevant to reviewers and maintainers.\n\n<!--021abf342d371248e50ceaed478a90ca-->\n### Reviews\nSee [the guideline](https://github.com/bitcoin/bitcoin/blob/master/CONTRIBUTING.md#code-review) for information on the review process.\n| Type | Reviewers |\n| ---- | --------- |\n| ACK | [fanquake](https://github.com/bitcoin/bitcoin/pull/26565#pullrequestreview-1197433897) |\n\nIf your review is incorrectly listed, please react with 👎 to this comment and the bot will ignore it on the next update.\n",
      "user": {
        "login": "DrahtBot",
        "id": 39886733,
        "node_id": "MDQ6VXNlcjM5ODg2NzMz",
        "avatar_url": "https://avatars.githubusercontent.com/u/39886733?v=4",
        "gravatar_id": "",
        "url": "https://api.github.com/users/DrahtBot",
        "html_url": "https://github.com/DrahtBot",
        "followers_url": "https://api.github.com/users/DrahtBot/followers",
        "following_url": "https://api.github.com/users/DrahtBot/following%7B/other_user%7D",
        "gists_url": "https://api.github.com/users/DrahtBot/gists%7B/gist_id%7D",
        "starred_url": "https://api.github.com/users/DrahtBot/starred%7B/owner%7D%7B/repo%7D",
        "subscriptions_url": "https://api.github.com/users/DrahtBot/subscriptions",
        "organizations_url": "https://api.github.com/users/DrahtBot/orgs",
        "repos_url": "https://api.github.com/users/DrahtBot/repos",
        "events_url": "https://api.github.com/users/DrahtBot/events%7B/privacy%7D",
        "received_events_url": "https://api.github.com/users/DrahtBot/received_events",
        "type": "User",
        "site_admin": false
      },
      "html_url": "https://github.com/bitcoin/bitcoin/pull/26565#issuecomment-1325870873",
      "issue_url": "https://api.github.com/repos/bitcoin/bitcoin/issues/26565"
    },
    {
      "event": "cross-referenced",
      "id": null,
      "node_id": null,
      "url": null,
      "actor": {
        "login": "RandyMcMillan",
        "id": 152159,
        "node_id": "MDQ6VXNlcjE1MjE1OQ==",
        "avatar_url": "https://avatars.githubusercontent.com/u/152159?v=4",
        "gravatar_id": "",
        "url": "https://api.github.com/users/RandyMcMillan",
        "html_url": "https://github.com/RandyMcMillan",
        "followers_url": "https://api.github.com/users/RandyMcMillan/followers",
        "following_url": "https://api.github.com/users/RandyMcMillan/following%7B/other_user%7D",
        "gists_url": "https://api.github.com/users/RandyMcMillan/gists%7B/gist_id%7D",
        "starred_url": "https://api.github.com/users/RandyMcMillan/starred%7B/owner%7D%7B/repo%7D",
        "subscriptions_url": "https://api.github.com/users/RandyMcMillan/subscriptions",
        "organizations_url": "https://api.github.com/users/RandyMcMillan/orgs",
        "repos_url": "https://api.github.com/users/RandyMcMillan/repos",
        "events_url": "https://api.github.com/users/RandyMcMillan/events%7B/privacy%7D",
        "received_events_url": "https://api.github.com/users/RandyMcMillan/received_events",
        "type": "User",
        "site_admin": false
      },
      "commit_id": null,
      "commit_url": null,
      "created_at": "2022-11-24T02:33:27Z",
      "updated_at": "2022-11-24T02:33:27Z",
      "source": {
        "issue": {
          "id": 1462649491,
          "node_id": "I_kwDOABII585XLkKT",
          "url": "https://api.github.com/repos/bitcoin/bitcoin/issues/26563",
          "repository_url": "https://api.github.com/repos/bitcoin/bitcoin",
          "labels_url": "https://api.github.com/repos/bitcoin/bitcoin/issues/26563/labels%7B/name%7D",
          "comments_url": "https://api.github.com/repos/bitcoin/bitcoin/issues/26563/comments",
          "events_url": "https://api.github.com/repos/bitcoin/bitcoin/issues/26563/events",
          "html_url": "https://github.com/bitcoin/bitcoin/issues/26563",
          "number": 26563,
          "state": "closed",
          "state_reason": "completed",
          "title": "builder-keys: unable to find A2FD494D0021AA9B4FA58F759102B7AE654A4A5A",
          "body": "https://github.com/bitcoin/bitcoin/blob/38d06e1561013f4ca845fd5ba6ffcc64de67f9c0/contrib/builder-keys/keys.txt#L25\r\n\r\nhttps://github.com/bitcoin/bitcoin/commit/2b4cfb44bd75d6e51eb9e7ca692b2fa32250ad04#diff-0538084c53da5acd80bd796d75b10246d7346231643b3f4b1e136204bc829f56R21\r\n\r\nPlease post which key server this is available on.\r\n\r\ncc: @IlyasRidhuan ",
          "user": {
            "login": "RandyMcMillan",
            "id": 152159,
            "node_id": "MDQ6VXNlcjE1MjE1OQ==",
            "avatar_url": "https://avatars.githubusercontent.com/u/152159?v=4",
            "gravatar_id": "",
            "url": "https://api.github.com/users/RandyMcMillan",
            "html_url": "https://github.com/RandyMcMillan",
            "followers_url": "https://api.github.com/users/RandyMcMillan/followers",
            "following_url": "https://api.github.com/users/RandyMcMillan/following%7B/other_user%7D",
            "gists_url": "https://api.github.com/users/RandyMcMillan/gists%7B/gist_id%7D",
            "starred_url": "https://api.github.com/users/RandyMcMillan/starred%7B/owner%7D%7B/repo%7D",
            "subscriptions_url": "https://api.github.com/users/RandyMcMillan/subscriptions",
            "organizations_url": "https://api.github.com/users/RandyMcMillan/orgs",
            "repos_url": "https://api.github.com/users/RandyMcMillan/repos",
            "events_url": "https://api.github.com/users/RandyMcMillan/events%7B/privacy%7D",
            "received_events_url": "https://api.github.com/users/RandyMcMillan/received_events",
            "type": "User",
            "site_admin": false
          },
          "labels": [],
          "assignees": [],
          "author_association": "CONTRIBUTOR",
          "locked": false,
          "comments": 2,
          "closed_at": "2022-11-24T07:27:20Z",
          "created_at": "2022-11-24T02:07:47Z",
          "updated_at": "2022-11-24T07:27:20Z"
        },
        "type": "issue"
      }
    },
    {
      "event": "commented",
      "id": 1325929668,
      "node_id": "IC_kwDOABII585PCBTE",
      "url": "https://api.github.com/repos/bitcoin/bitcoin/issues/comments/1325929668",
      "actor": {
        "login": "RandyMcMillan",
        "id": 152159,
        "node_id": "MDQ6VXNlcjE1MjE1OQ==",
        "avatar_url": "https://avatars.githubusercontent.com/u/152159?v=4",
        "gravatar_id": "",
        "url": "https://api.github.com/users/RandyMcMillan",
        "html_url": "https://github.com/RandyMcMillan",
        "followers_url": "https://api.github.com/users/RandyMcMillan/followers",
        "following_url": "https://api.github.com/users/RandyMcMillan/following%7B/other_user%7D",
        "gists_url": "https://api.github.com/users/RandyMcMillan/gists%7B/gist_id%7D",
        "starred_url": "https://api.github.com/users/RandyMcMillan/starred%7B/owner%7D%7B/repo%7D",
        "subscriptions_url": "https://api.github.com/users/RandyMcMillan/subscriptions",
        "organizations_url": "https://api.github.com/users/RandyMcMillan/orgs",
        "repos_url": "https://api.github.com/users/RandyMcMillan/repos",
        "events_url": "https://api.github.com/users/RandyMcMillan/events%7B/privacy%7D",
        "received_events_url": "https://api.github.com/users/RandyMcMillan/received_events",
        "type": "User",
        "site_admin": false
      },
      "commit_id": null,
      "commit_url": null,
      "created_at": "2022-11-24T04:05:49Z",
      "updated_at": "2022-11-24T04:05:49Z",
      "author_association": "CONTRIBUTOR",
      "body": "synced all other keys with\r\n\r\nhkp://keys.openpgp.org,\r\nhkp://keyserver.ubuntu.com,\r\nhkp://pgp.mit.edu\r\n\r\nto ensure redundancy:\r\n\r\nhttps://raw.githubusercontent.com/RandyMcMillan/bitcoin/2e7e4ec93b85c54e55fc0cf053bb57c8da079d08/builder-key-sync.log\r\n\r\n",
      "user": {
        "login": "RandyMcMillan",
        "id": 152159,
        "node_id": "MDQ6VXNlcjE1MjE1OQ==",
        "avatar_url": "https://avatars.githubusercontent.com/u/152159?v=4",
        "gravatar_id": "",
        "url": "https://api.github.com/users/RandyMcMillan",
        "html_url": "https://github.com/RandyMcMillan",
        "followers_url": "https://api.github.com/users/RandyMcMillan/followers",
        "following_url": "https://api.github.com/users/RandyMcMillan/following%7B/other_user%7D",
        "gists_url": "https://api.github.com/users/RandyMcMillan/gists%7B/gist_id%7D",
        "starred_url": "https://api.github.com/users/RandyMcMillan/starred%7B/owner%7D%7B/repo%7D",
        "subscriptions_url": "https://api.github.com/users/RandyMcMillan/subscriptions",
        "organizations_url": "https://api.github.com/users/RandyMcMillan/orgs",
        "repos_url": "https://api.github.com/users/RandyMcMillan/repos",
        "events_url": "https://api.github.com/users/RandyMcMillan/events%7B/privacy%7D",
        "received_events_url": "https://api.github.com/users/RandyMcMillan/received_events",
        "type": "User",
        "site_admin": false
      },
      "html_url": "https://github.com/bitcoin/bitcoin/pull/26565#issuecomment-1325929668",
      "issue_url": "https://api.github.com/repos/bitcoin/bitcoin/issues/26565"
    },
    {
      "event": "commented",
      "id": 1326053939,
      "node_id": "IC_kwDOABII585PCfoz",
      "url": "https://api.github.com/repos/bitcoin/bitcoin/issues/comments/1326053939",
      "actor": {
        "login": "MarcoFalke",
        "id": 6399679,
        "node_id": "MDQ6VXNlcjYzOTk2Nzk=",
        "avatar_url": "https://avatars.githubusercontent.com/u/6399679?v=4",
        "gravatar_id": "",
        "url": "https://api.github.com/users/MarcoFalke",
        "html_url": "https://github.com/MarcoFalke",
        "followers_url": "https://api.github.com/users/MarcoFalke/followers",
        "following_url": "https://api.github.com/users/MarcoFalke/following%7B/other_user%7D",
        "gists_url": "https://api.github.com/users/MarcoFalke/gists%7B/gist_id%7D",
        "starred_url": "https://api.github.com/users/MarcoFalke/starred%7B/owner%7D%7B/repo%7D",
        "subscriptions_url": "https://api.github.com/users/MarcoFalke/subscriptions",
        "organizations_url": "https://api.github.com/users/MarcoFalke/orgs",
        "repos_url": "https://api.github.com/users/MarcoFalke/repos",
        "events_url": "https://api.github.com/users/MarcoFalke/events%7B/privacy%7D",
        "received_events_url": "https://api.github.com/users/MarcoFalke/received_events",
        "type": "User",
        "site_admin": false
      },
      "commit_id": null,
      "commit_url": null,
      "created_at": "2022-11-24T07:26:02Z",
      "updated_at": "2022-11-24T07:26:02Z",
      "author_association": "MEMBER",
      "body": "I think we can remove all keys that were used for gitian builds only and never for a guix build",
      "user": {
        "login": "MarcoFalke",
        "id": 6399679,
        "node_id": "MDQ6VXNlcjYzOTk2Nzk=",
        "avatar_url": "https://avatars.githubusercontent.com/u/6399679?v=4",
        "gravatar_id": "",
        "url": "https://api.github.com/users/MarcoFalke",
        "html_url": "https://github.com/MarcoFalke",
        "followers_url": "https://api.github.com/users/MarcoFalke/followers",
        "following_url": "https://api.github.com/users/MarcoFalke/following%7B/other_user%7D",
        "gists_url": "https://api.github.com/users/MarcoFalke/gists%7B/gist_id%7D",
        "starred_url": "https://api.github.com/users/MarcoFalke/starred%7B/owner%7D%7B/repo%7D",
        "subscriptions_url": "https://api.github.com/users/MarcoFalke/subscriptions",
        "organizations_url": "https://api.github.com/users/MarcoFalke/orgs",
        "repos_url": "https://api.github.com/users/MarcoFalke/repos",
        "events_url": "https://api.github.com/users/MarcoFalke/events%7B/privacy%7D",
        "received_events_url": "https://api.github.com/users/MarcoFalke/received_events",
        "type": "User",
        "site_admin": false
      },
      "html_url": "https://github.com/bitcoin/bitcoin/pull/26565#issuecomment-1326053939",
      "issue_url": "https://api.github.com/repos/bitcoin/bitcoin/issues/26565"
    },
    {
      "event": "commented",
      "id": 1326068128,
      "node_id": "IC_kwDOABII585PCjGg",
      "url": "https://api.github.com/repos/bitcoin/bitcoin/issues/comments/1326068128",
      "actor": {
        "login": "RandyMcMillan",
        "id": 152159,
        "node_id": "MDQ6VXNlcjE1MjE1OQ==",
        "avatar_url": "https://avatars.githubusercontent.com/u/152159?v=4",
        "gravatar_id": "",
        "url": "https://api.github.com/users/RandyMcMillan",
        "html_url": "https://github.com/RandyMcMillan",
        "followers_url": "https://api.github.com/users/RandyMcMillan/followers",
        "following_url": "https://api.github.com/users/RandyMcMillan/following%7B/other_user%7D",
        "gists_url": "https://api.github.com/users/RandyMcMillan/gists%7B/gist_id%7D",
        "starred_url": "https://api.github.com/users/RandyMcMillan/starred%7B/owner%7D%7B/repo%7D",
        "subscriptions_url": "https://api.github.com/users/RandyMcMillan/subscriptions",
        "organizations_url": "https://api.github.com/users/RandyMcMillan/orgs",
        "repos_url": "https://api.github.com/users/RandyMcMillan/repos",
        "events_url": "https://api.github.com/users/RandyMcMillan/events%7B/privacy%7D",
        "received_events_url": "https://api.github.com/users/RandyMcMillan/received_events",
        "type": "User",
        "site_admin": false
      },
      "commit_id": null,
      "commit_url": null,
      "created_at": "2022-11-24T07:44:22Z",
      "updated_at": "2022-11-24T07:44:22Z",
      "author_association": "CONTRIBUTOR",
      "body": "additionally - we can setup a ci script that detects when this file changes (PR) and checks that the keys are on public key servers? ",
      "user": {
        "login": "RandyMcMillan",
        "id": 152159,
        "node_id": "MDQ6VXNlcjE1MjE1OQ==",
        "avatar_url": "https://avatars.githubusercontent.com/u/152159?v=4",
        "gravatar_id": "",
        "url": "https://api.github.com/users/RandyMcMillan",
        "html_url": "https://github.com/RandyMcMillan",
        "followers_url": "https://api.github.com/users/RandyMcMillan/followers",
        "following_url": "https://api.github.com/users/RandyMcMillan/following%7B/other_user%7D",
        "gists_url": "https://api.github.com/users/RandyMcMillan/gists%7B/gist_id%7D",
        "starred_url": "https://api.github.com/users/RandyMcMillan/starred%7B/owner%7D%7B/repo%7D",
        "subscriptions_url": "https://api.github.com/users/RandyMcMillan/subscriptions",
        "organizations_url": "https://api.github.com/users/RandyMcMillan/orgs",
        "repos_url": "https://api.github.com/users/RandyMcMillan/repos",
        "events_url": "https://api.github.com/users/RandyMcMillan/events%7B/privacy%7D",
        "received_events_url": "https://api.github.com/users/RandyMcMillan/received_events",
        "type": "User",
        "site_admin": false
      },
      "html_url": "https://github.com/bitcoin/bitcoin/pull/26565#issuecomment-1326068128",
      "issue_url": "https://api.github.com/repos/bitcoin/bitcoin/issues/26565"
    },
    {
      "event": "commented",
      "id": 1326077333,
      "node_id": "IC_kwDOABII585PClWV",
      "url": "https://api.github.com/repos/bitcoin/bitcoin/issues/comments/1326077333",
      "actor": {
        "login": "MarcoFalke",
        "id": 6399679,
        "node_id": "MDQ6VXNlcjYzOTk2Nzk=",
        "avatar_url": "https://avatars.githubusercontent.com/u/6399679?v=4",
        "gravatar_id": "",
        "url": "https://api.github.com/users/MarcoFalke",
        "html_url": "https://github.com/MarcoFalke",
        "followers_url": "https://api.github.com/users/MarcoFalke/followers",
        "following_url": "https://api.github.com/users/MarcoFalke/following%7B/other_user%7D",
        "gists_url": "https://api.github.com/users/MarcoFalke/gists%7B/gist_id%7D",
        "starred_url": "https://api.github.com/users/MarcoFalke/starred%7B/owner%7D%7B/repo%7D",
        "subscriptions_url": "https://api.github.com/users/MarcoFalke/subscriptions",
        "organizations_url": "https://api.github.com/users/MarcoFalke/orgs",
        "repos_url": "https://api.github.com/users/MarcoFalke/repos",
        "events_url": "https://api.github.com/users/MarcoFalke/events%7B/privacy%7D",
        "received_events_url": "https://api.github.com/users/MarcoFalke/received_events",
        "type": "User",
        "site_admin": false
      },
      "commit_id": null,
      "commit_url": null,
      "created_at": "2022-11-24T07:55:39Z",
      "updated_at": "2022-11-24T07:55:39Z",
      "author_association": "MEMBER",
      "body": "I think it only changes rarely, and if it changes, people will check that the key is available. See also https://github.com/bitcoin-core/guix.sigs/issues/133",
      "user": {
        "login": "MarcoFalke",
        "id": 6399679,
        "node_id": "MDQ6VXNlcjYzOTk2Nzk=",
        "avatar_url": "https://avatars.githubusercontent.com/u/6399679?v=4",
        "gravatar_id": "",
        "url": "https://api.github.com/users/MarcoFalke",
        "html_url": "https://github.com/MarcoFalke",
        "followers_url": "https://api.github.com/users/MarcoFalke/followers",
        "following_url": "https://api.github.com/users/MarcoFalke/following%7B/other_user%7D",
        "gists_url": "https://api.github.com/users/MarcoFalke/gists%7B/gist_id%7D",
        "starred_url": "https://api.github.com/users/MarcoFalke/starred%7B/owner%7D%7B/repo%7D",
        "subscriptions_url": "https://api.github.com/users/MarcoFalke/subscriptions",
        "organizations_url": "https://api.github.com/users/MarcoFalke/orgs",
        "repos_url": "https://api.github.com/users/MarcoFalke/repos",
        "events_url": "https://api.github.com/users/MarcoFalke/events%7B/privacy%7D",
        "received_events_url": "https://api.github.com/users/MarcoFalke/received_events",
        "type": "User",
        "site_admin": false
      },
      "html_url": "https://github.com/bitcoin/bitcoin/pull/26565#issuecomment-1326077333",
      "issue_url": "https://api.github.com/repos/bitcoin/bitcoin/issues/26565"
    },
    {
      "event": "commented",
      "id": 1326571405,
      "node_id": "IC_kwDOABII585PEd-N",
      "url": "https://api.github.com/repos/bitcoin/bitcoin/issues/comments/1326571405",
      "actor": {
        "login": "RandyMcMillan",
        "id": 152159,
        "node_id": "MDQ6VXNlcjE1MjE1OQ==",
        "avatar_url": "https://avatars.githubusercontent.com/u/152159?v=4",
        "gravatar_id": "",
        "url": "https://api.github.com/users/RandyMcMillan",
        "html_url": "https://github.com/RandyMcMillan",
        "followers_url": "https://api.github.com/users/RandyMcMillan/followers",
        "following_url": "https://api.github.com/users/RandyMcMillan/following%7B/other_user%7D",
        "gists_url": "https://api.github.com/users/RandyMcMillan/gists%7B/gist_id%7D",
        "starred_url": "https://api.github.com/users/RandyMcMillan/starred%7B/owner%7D%7B/repo%7D",
        "subscriptions_url": "https://api.github.com/users/RandyMcMillan/subscriptions",
        "organizations_url": "https://api.github.com/users/RandyMcMillan/orgs",
        "repos_url": "https://api.github.com/users/RandyMcMillan/repos",
        "events_url": "https://api.github.com/users/RandyMcMillan/events%7B/privacy%7D",
        "received_events_url": "https://api.github.com/users/RandyMcMillan/received_events",
        "type": "User",
        "site_admin": false
      },
      "commit_id": null,
      "commit_url": null,
      "created_at": "2022-11-24T15:07:55Z",
      "updated_at": "2022-11-24T15:07:55Z",
      "author_association": "CONTRIBUTOR",
      "body": "> I think we can remove all keys that were used for gitian builds only and never for a guix build\r\n\r\nI will cross reference the https://github.com/bitcoin-core/guix.sigs repo - and list any unused keys from the contrib/builder-keys/keys.txt in this PR for discussion and/or removal.",
      "user": {
        "login": "RandyMcMillan",
        "id": 152159,
        "node_id": "MDQ6VXNlcjE1MjE1OQ==",
        "avatar_url": "https://avatars.githubusercontent.com/u/152159?v=4",
        "gravatar_id": "",
        "url": "https://api.github.com/users/RandyMcMillan",
        "html_url": "https://github.com/RandyMcMillan",
        "followers_url": "https://api.github.com/users/RandyMcMillan/followers",
        "following_url": "https://api.github.com/users/RandyMcMillan/following%7B/other_user%7D",
        "gists_url": "https://api.github.com/users/RandyMcMillan/gists%7B/gist_id%7D",
        "starred_url": "https://api.github.com/users/RandyMcMillan/starred%7B/owner%7D%7B/repo%7D",
        "subscriptions_url": "https://api.github.com/users/RandyMcMillan/subscriptions",
        "organizations_url": "https://api.github.com/users/RandyMcMillan/orgs",
        "repos_url": "https://api.github.com/users/RandyMcMillan/repos",
        "events_url": "https://api.github.com/users/RandyMcMillan/events%7B/privacy%7D",
        "received_events_url": "https://api.github.com/users/RandyMcMillan/received_events",
        "type": "User",
        "site_admin": false
      },
      "html_url": "https://github.com/bitcoin/bitcoin/pull/26565#issuecomment-1326571405",
      "issue_url": "https://api.github.com/repos/bitcoin/bitcoin/issues/26565"
    },
    {
      "event": "review_requested",
      "id": 7910897863,
      "node_id": "RRE_lADOABII585XLn8RzwAAAAHXhrjH",
      "url": "https://api.github.com/repos/bitcoin/bitcoin/issues/events/7910897863",
      "actor": {
        "login": "glozow",
        "id": 25183001,
        "node_id": "MDQ6VXNlcjI1MTgzMDAx",
        "avatar_url": "https://avatars.githubusercontent.com/u/25183001?v=4",
        "gravatar_id": "",
        "url": "https://api.github.com/users/glozow",
        "html_url": "https://github.com/glozow",
        "followers_url": "https://api.github.com/users/glozow/followers",
        "following_url": "https://api.github.com/users/glozow/following%7B/other_user%7D",
        "gists_url": "https://api.github.com/users/glozow/gists%7B/gist_id%7D",
        "starred_url": "https://api.github.com/users/glozow/starred%7B/owner%7D%7B/repo%7D",
        "subscriptions_url": "https://api.github.com/users/glozow/subscriptions",
        "organizations_url": "https://api.github.com/users/glozow/orgs",
        "repos_url": "https://api.github.com/users/glozow/repos",
        "events_url": "https://api.github.com/users/glozow/events%7B/privacy%7D",
        "received_events_url": "https://api.github.com/users/glozow/received_events",
        "type": "User",
        "site_admin": false
      },
      "commit_id": null,
      "commit_url": null,
      "created_at": "2022-11-29T10:05:38Z",
      "requested_reviewer": {
        "login": "fanquake",
        "id": 863730,
        "node_id": "MDQ6VXNlcjg2MzczMA==",
        "avatar_url": "https://avatars.githubusercontent.com/u/863730?v=4",
        "gravatar_id": "",
        "url": "https://api.github.com/users/fanquake",
        "html_url": "https://github.com/fanquake",
        "followers_url": "https://api.github.com/users/fanquake/followers",
        "following_url": "https://api.github.com/users/fanquake/following%7B/other_user%7D",
        "gists_url": "https://api.github.com/users/fanquake/gists%7B/gist_id%7D",
        "starred_url": "https://api.github.com/users/fanquake/starred%7B/owner%7D%7B/repo%7D",
        "subscriptions_url": "https://api.github.com/users/fanquake/subscriptions",
        "organizations_url": "https://api.github.com/users/fanquake/orgs",
        "repos_url": "https://api.github.com/users/fanquake/repos",
        "events_url": "https://api.github.com/users/fanquake/events%7B/privacy%7D",
        "received_events_url": "https://api.github.com/users/fanquake/received_events",
        "type": "User",
        "site_admin": false
      },
      "review_requester": {
        "login": "glozow",
        "id": 25183001,
        "node_id": "MDQ6VXNlcjI1MTgzMDAx",
        "avatar_url": "https://avatars.githubusercontent.com/u/25183001?v=4",
        "gravatar_id": "",
        "url": "https://api.github.com/users/glozow",
        "html_url": "https://github.com/glozow",
        "followers_url": "https://api.github.com/users/glozow/followers",
        "following_url": "https://api.github.com/users/glozow/following%7B/other_user%7D",
        "gists_url": "https://api.github.com/users/glozow/gists%7B/gist_id%7D",
        "starred_url": "https://api.github.com/users/glozow/starred%7B/owner%7D%7B/repo%7D",
        "subscriptions_url": "https://api.github.com/users/glozow/subscriptions",
        "organizations_url": "https://api.github.com/users/glozow/orgs",
        "repos_url": "https://api.github.com/users/glozow/repos",
        "events_url": "https://api.github.com/users/glozow/events%7B/privacy%7D",
        "received_events_url": "https://api.github.com/users/glozow/received_events",
        "type": "User",
        "site_admin": false
      }
    },
    {
      "event": "reviewed",
      "id": 1197433897,
      "node_id": "PRR_kwDOABII585HX2Qp",
      "url": null,
      "actor": null,
      "commit_id": "dddfa028ffa6b6d70e4fae761ecb9477877d8ec2",
      "commit_url": null,
      "created_at": null,
      "author_association": "MEMBER",
      "body": "ACK dddfa028ffa6b6d70e4fae761ecb9477877d8ec2\r\n\r\n> I think we can remove all keys that were used for gitian builds only and never for a guix build\r\n\r\nI'll follow up with this.",
      "user": {
        "login": "fanquake",
        "id": 863730,
        "node_id": "MDQ6VXNlcjg2MzczMA==",
        "avatar_url": "https://avatars.githubusercontent.com/u/863730?v=4",
        "gravatar_id": "",
        "url": "https://api.github.com/users/fanquake",
        "html_url": "https://github.com/fanquake",
        "followers_url": "https://api.github.com/users/fanquake/followers",
        "following_url": "https://api.github.com/users/fanquake/following%7B/other_user%7D",
        "gists_url": "https://api.github.com/users/fanquake/gists%7B/gist_id%7D",
        "starred_url": "https://api.github.com/users/fanquake/starred%7B/owner%7D%7B/repo%7D",
        "subscriptions_url": "https://api.github.com/users/fanquake/subscriptions",
        "organizations_url": "https://api.github.com/users/fanquake/orgs",
        "repos_url": "https://api.github.com/users/fanquake/repos",
        "events_url": "https://api.github.com/users/fanquake/events%7B/privacy%7D",
        "received_events_url": "https://api.github.com/users/fanquake/received_events",
        "type": "User",
        "site_admin": false
      },
      "html_url": "https://github.com/bitcoin/bitcoin/pull/26565#pullrequestreview-1197433897",
      "submitted_at": "2022-11-29T12:11:55Z",
      "state": "APPROVED",
      "pull_request_url": "https://api.github.com/repos/bitcoin/bitcoin/pulls/26565"
    },
    {
      "event": "merged",
      "id": 7911954599,
      "node_id": "ME_lADOABII585XLn8RzwAAAAHXltin",
      "url": "https://api.github.com/repos/bitcoin/bitcoin/issues/events/7911954599",
      "actor": {
        "login": "fanquake",
        "id": 863730,
        "node_id": "MDQ6VXNlcjg2MzczMA==",
        "avatar_url": "https://avatars.githubusercontent.com/u/863730?v=4",
        "gravatar_id": "",
        "url": "https://api.github.com/users/fanquake",
        "html_url": "https://github.com/fanquake",
        "followers_url": "https://api.github.com/users/fanquake/followers",
        "following_url": "https://api.github.com/users/fanquake/following%7B/other_user%7D",
        "gists_url": "https://api.github.com/users/fanquake/gists%7B/gist_id%7D",
        "starred_url": "https://api.github.com/users/fanquake/starred%7B/owner%7D%7B/repo%7D",
        "subscriptions_url": "https://api.github.com/users/fanquake/subscriptions",
        "organizations_url": "https://api.github.com/users/fanquake/orgs",
        "repos_url": "https://api.github.com/users/fanquake/repos",
        "events_url": "https://api.github.com/users/fanquake/events%7B/privacy%7D",
        "received_events_url": "https://api.github.com/users/fanquake/received_events",
        "type": "User",
        "site_admin": false
      },
      "commit_id": "a035b6a0c418d0b720707df69559028bd662fa70",
      "commit_url": "https://api.github.com/repos/bitcoin/bitcoin/commits/a035b6a0c418d0b720707df69559028bd662fa70",
      "created_at": "2022-11-29T12:13:01Z"
    },
    {
      "event": "closed",
      "id": 7911954611,
      "node_id": "CE_lADOABII585XLn8RzwAAAAHXltiz",
      "url": "https://api.github.com/repos/bitcoin/bitcoin/issues/events/7911954611",
      "actor": {
        "login": "fanquake",
        "id": 863730,
        "node_id": "MDQ6VXNlcjg2MzczMA==",
        "avatar_url": "https://avatars.githubusercontent.com/u/863730?v=4",
        "gravatar_id": "",
        "url": "https://api.github.com/users/fanquake",
        "html_url": "https://github.com/fanquake",
        "followers_url": "https://api.github.com/users/fanquake/followers",
        "following_url": "https://api.github.com/users/fanquake/following%7B/other_user%7D",
        "gists_url": "https://api.github.com/users/fanquake/gists%7B/gist_id%7D",
        "starred_url": "https://api.github.com/users/fanquake/starred%7B/owner%7D%7B/repo%7D",
        "subscriptions_url": "https://api.github.com/users/fanquake/subscriptions",
        "organizations_url": "https://api.github.com/users/fanquake/orgs",
        "repos_url": "https://api.github.com/users/fanquake/repos",
        "events_url": "https://api.github.com/users/fanquake/events%7B/privacy%7D",
        "received_events_url": "https://api.github.com/users/fanquake/received_events",
        "type": "User",
        "site_admin": false
      },
      "commit_id": null,
      "commit_url": null,
      "created_at": "2022-11-29T12:13:01Z"
    },
    {
      "event": "cross-referenced",
      "id": null,
      "node_id": null,
      "url": null,
      "actor": {
        "login": "fanquake",
        "id": 863730,
        "node_id": "MDQ6VXNlcjg2MzczMA==",
        "avatar_url": "https://avatars.githubusercontent.com/u/863730?v=4",
        "gravatar_id": "",
        "url": "https://api.github.com/users/fanquake",
        "html_url": "https://github.com/fanquake",
        "followers_url": "https://api.github.com/users/fanquake/followers",
        "following_url": "https://api.github.com/users/fanquake/following%7B/other_user%7D",
        "gists_url": "https://api.github.com/users/fanquake/gists%7B/gist_id%7D",
        "starred_url": "https://api.github.com/users/fanquake/starred%7B/owner%7D%7B/repo%7D",
        "subscriptions_url": "https://api.github.com/users/fanquake/subscriptions",
        "organizations_url": "https://api.github.com/users/fanquake/orgs",
        "repos_url": "https://api.github.com/users/fanquake/repos",
        "events_url": "https://api.github.com/users/fanquake/events%7B/privacy%7D",
        "received_events_url": "https://api.github.com/users/fanquake/received_events",
        "type": "User",
        "site_admin": false
      },
      "commit_id": null,
      "commit_url": null,
      "created_at": "2022-11-29T12:19:43Z",
      "updated_at": "2022-11-29T12:19:43Z",
      "source": {
        "issue": {
          "id": 1467970553,
          "node_id": "PR_kwDOABII585D4hO8",
          "url": "https://api.github.com/repos/bitcoin/bitcoin/issues/26598",
          "repository_url": "https://api.github.com/repos/bitcoin/bitcoin",
          "labels_url": "https://api.github.com/repos/bitcoin/bitcoin/issues/26598/labels%7B/name%7D",
          "comments_url": "https://api.github.com/repos/bitcoin/bitcoin/issues/26598/comments",
          "events_url": "https://api.github.com/repos/bitcoin/bitcoin/issues/26598/events",
          "html_url": "https://github.com/bitcoin/bitcoin/pull/26598",
          "number": 26598,
          "state": "closed",
          "state_reason": null,
          "title": "contrib: remove builder keys",
          "body": "This has been superseded by adding a builder-keys/ directory in\r\nguix.sigs, where the presence of keys, and validity of signatures\r\nis checked. Preventing issues like missing keys or invalid signatures.\r\n\r\nNew (or exisiting) Guix builders can add their key in the next PR\r\nthey open adding attestations.\r\n\r\nRelated to issues like #26566, #26563.\r\n\r\nAlso follows up with the comment here: https://github.com/bitcoin/bitcoin/pull/26565#issuecomment-1326053939.\r\n",
          "user": {
            "login": "fanquake",
            "id": 863730,
            "node_id": "MDQ6VXNlcjg2MzczMA==",
            "avatar_url": "https://avatars.githubusercontent.com/u/863730?v=4",
            "gravatar_id": "",
            "url": "https://api.github.com/users/fanquake",
            "html_url": "https://github.com/fanquake",
            "followers_url": "https://api.github.com/users/fanquake/followers",
            "following_url": "https://api.github.com/users/fanquake/following%7B/other_user%7D",
            "gists_url": "https://api.github.com/users/fanquake/gists%7B/gist_id%7D",
            "starred_url": "https://api.github.com/users/fanquake/starred%7B/owner%7D%7B/repo%7D",
            "subscriptions_url": "https://api.github.com/users/fanquake/subscriptions",
            "organizations_url": "https://api.github.com/users/fanquake/orgs",
            "repos_url": "https://api.github.com/users/fanquake/repos",
            "events_url": "https://api.github.com/users/fanquake/events%7B/privacy%7D",
            "received_events_url": "https://api.github.com/users/fanquake/received_events",
            "type": "User",
            "site_admin": false
          },
          "labels": [
            {
              "id": 231994551,
              "node_id": "MDU6TGFiZWwyMzE5OTQ1NTE=",
              "url": "https://api.github.com/repos/bitcoin/bitcoin/labels/Scripts%20and%20tools",
              "name": "Scripts and tools",
              "color": "ffffee",
              "default": false
            },
            {
              "id": 955867938,
              "node_id": "MDU6TGFiZWw5NTU4Njc5Mzg=",
              "url": "https://api.github.com/repos/bitcoin/bitcoin/labels/Needs%20rebase",
              "name": "Needs rebase",
              "description": "",
              "color": "cccccc",
              "default": false
            }
          ],
          "assignees": [],
          "author_association": "MEMBER",
          "locked": false,
          "comments": 24,
          "pull_request": {
            "url": "https://api.github.com/repos/bitcoin/bitcoin/pulls/26598",
            "html_url": "https://github.com/bitcoin/bitcoin/pull/26598",
            "diff_url": "https://github.com/bitcoin/bitcoin/pull/26598.diff",
            "patch_url": "https://github.com/bitcoin/bitcoin/pull/26598.patch"
          },
          "closed_at": "2023-01-05T08:43:35Z",
          "created_at": "2022-11-29T12:19:42Z",
          "updated_at": "2023-01-05T09:03:30Z"
        },
        "type": "issue"
      }
    },
    {
      "event": "referenced",
      "id": 7932959669,
      "node_id": "REFE_lADOABII585XLn8RzwAAAAHY11u1",
      "url": "https://api.github.com/repos/bitcoin/bitcoin/issues/events/7932959669",
      "actor": {
        "login": "sidhujag",
        "id": 6238042,
        "node_id": "MDQ6VXNlcjYyMzgwNDI=",
        "avatar_url": "https://avatars.githubusercontent.com/u/6238042?v=4",
        "gravatar_id": "",
        "url": "https://api.github.com/users/sidhujag",
        "html_url": "https://github.com/sidhujag",
        "followers_url": "https://api.github.com/users/sidhujag/followers",
        "following_url": "https://api.github.com/users/sidhujag/following%7B/other_user%7D",
        "gists_url": "https://api.github.com/users/sidhujag/gists%7B/gist_id%7D",
        "starred_url": "https://api.github.com/users/sidhujag/starred%7B/owner%7D%7B/repo%7D",
        "subscriptions_url": "https://api.github.com/users/sidhujag/subscriptions",
        "organizations_url": "https://api.github.com/users/sidhujag/orgs",
        "repos_url": "https://api.github.com/users/sidhujag/repos",
        "events_url": "https://api.github.com/users/sidhujag/events%7B/privacy%7D",
        "received_events_url": "https://api.github.com/users/sidhujag/received_events",
        "type": "User",
        "site_admin": false
      },
      "commit_id": "70637ce5810a88b4c8368a64de973bc242bf7ee4",
      "commit_url": "https://api.github.com/repos/syscoin/syscoin/commits/70637ce5810a88b4c8368a64de973bc242bf7ee4",
      "created_at": "2022-12-01T15:19:58Z"
    },
    {
      "event": "referenced",
      "id": 8157960662,
      "node_id": "REFE_lADOABII585XLn8RzwAAAAHmQJnW",
      "url": "https://api.github.com/repos/bitcoin/bitcoin/issues/events/8157960662",
      "actor": {
        "login": "MarcoFalke",
        "id": 6399679,
        "node_id": "MDQ6VXNlcjYzOTk2Nzk=",
        "avatar_url": "https://avatars.githubusercontent.com/u/6399679?v=4",
        "gravatar_id": "",
        "url": "https://api.github.com/users/MarcoFalke",
        "html_url": "https://github.com/MarcoFalke",
        "followers_url": "https://api.github.com/users/MarcoFalke/followers",
        "following_url": "https://api.github.com/users/MarcoFalke/following%7B/other_user%7D",
        "gists_url": "https://api.github.com/users/MarcoFalke/gists%7B/gist_id%7D",
        "starred_url": "https://api.github.com/users/MarcoFalke/starred%7B/owner%7D%7B/repo%7D",
        "subscriptions_url": "https://api.github.com/users/MarcoFalke/subscriptions",
        "organizations_url": "https://api.github.com/users/MarcoFalke/orgs",
        "repos_url": "https://api.github.com/users/MarcoFalke/repos",
        "events_url": "https://api.github.com/users/MarcoFalke/events%7B/privacy%7D",
        "received_events_url": "https://api.github.com/users/MarcoFalke/received_events",
        "type": "User",
        "site_admin": false
      },
      "commit_id": "296e88225096125b08665b97715c5b8ebb1d28ec",
      "commit_url": "https://api.github.com/repos/bitcoin-core/gui/commits/296e88225096125b08665b97715c5b8ebb1d28ec",
      "created_at": "2023-01-05T08:20:34Z"
    }
  ],
  "comments": []
}