{
  "type": "pull",
  "pull": {
    "url": "https://api.github.com/repos/bitcoin/bitcoin/pulls/26622",
    "id": 1142325431,
    "node_id": "PR_kwDOABII585EFoC3",
    "html_url": "https://github.com/bitcoin/bitcoin/pull/26622",
    "diff_url": "https://github.com/bitcoin/bitcoin/pull/26622.diff",
    "patch_url": "https://github.com/bitcoin/bitcoin/pull/26622.patch",
    "issue_url": "https://api.github.com/repos/bitcoin/bitcoin/issues/26622",
    "commits_url": "https://api.github.com/repos/bitcoin/bitcoin/pulls/26622/commits",
    "review_comments_url": "https://api.github.com/repos/bitcoin/bitcoin/pulls/26622/comments",
    "review_comment_url": "https://api.github.com/repos/bitcoin/bitcoin/pulls/comments%7B/number%7D",
    "comments_url": "https://api.github.com/repos/bitcoin/bitcoin/issues/26622/comments",
    "statuses_url": "https://api.github.com/repos/bitcoin/bitcoin/statuses/cb44c5923a7c0ba15400d2b420faedd39cdce128",
    "number": 26622,
    "state": "closed",
    "locked": false,
    "maintainer_can_modify": false,
    "title": "test: Add test for sendall min-fee setting",
    "user": {
      "login": "aureleoules",
      "id": 22493292,
      "node_id": "MDQ6VXNlcjIyNDkzMjky",
      "avatar_url": "https://avatars.githubusercontent.com/u/22493292?v=4",
      "gravatar_id": "",
      "url": "https://api.github.com/users/aureleoules",
      "html_url": "https://github.com/aureleoules",
      "followers_url": "https://api.github.com/users/aureleoules/followers",
      "following_url": "https://api.github.com/users/aureleoules/following%7B/other_user%7D",
      "gists_url": "https://api.github.com/users/aureleoules/gists%7B/gist_id%7D",
      "starred_url": "https://api.github.com/users/aureleoules/starred%7B/owner%7D%7B/repo%7D",
      "subscriptions_url": "https://api.github.com/users/aureleoules/subscriptions",
      "organizations_url": "https://api.github.com/users/aureleoules/orgs",
      "repos_url": "https://api.github.com/users/aureleoules/repos",
      "events_url": "https://api.github.com/users/aureleoules/events%7B/privacy%7D",
      "received_events_url": "https://api.github.com/users/aureleoules/received_events",
      "type": "User",
      "site_admin": false
    },
    "body": "While experimenting with mutation testing it appeared that the minimum fee-rate check was not tested for the `sendall` RPC.\r\n \r\nhttps://bcm-ui.aureleoules.com/mutations/3581479318544ea6b97f788cec6e6ef1",
    "labels": [
      {
        "id": 62963516,
        "node_id": "MDU6TGFiZWw2Mjk2MzUxNg==",
        "url": "https://api.github.com/repos/bitcoin/bitcoin/labels/Tests",
        "name": "Tests",
        "color": "d4c5f9",
        "default": false
      }
    ],
    "created_at": "2022-12-01T19:34:22Z",
    "updated_at": "2023-01-12T11:51:43Z",
    "closed_at": "2022-12-03T11:30:31Z",
    "mergeable_state": "unknown",
    "merged_at": "2022-12-03T11:30:31Z",
    "merge_commit_sha": "cac29f5cd66f005ce65edd697990d495a904a1f1",
    "assignees": [],
    "requested_reviewers": [],
    "requested_teams": [],
    "head": {
      "label": "aureleoules:2022-11-test-sendall-min-fee",
      "ref": "2022-11-test-sendall-min-fee",
      "sha": "cb44c5923a7c0ba15400d2b420faedd39cdce128",
      "user": {
        "login": "aureleoules",
        "id": 22493292,
        "node_id": "MDQ6VXNlcjIyNDkzMjky",
        "avatar_url": "https://avatars.githubusercontent.com/u/22493292?v=4",
        "gravatar_id": "",
        "url": "https://api.github.com/users/aureleoules",
        "html_url": "https://github.com/aureleoules",
        "followers_url": "https://api.github.com/users/aureleoules/followers",
        "following_url": "https://api.github.com/users/aureleoules/following%7B/other_user%7D",
        "gists_url": "https://api.github.com/users/aureleoules/gists%7B/gist_id%7D",
        "starred_url": "https://api.github.com/users/aureleoules/starred%7B/owner%7D%7B/repo%7D",
        "subscriptions_url": "https://api.github.com/users/aureleoules/subscriptions",
        "organizations_url": "https://api.github.com/users/aureleoules/orgs",
        "repos_url": "https://api.github.com/users/aureleoules/repos",
        "events_url": "https://api.github.com/users/aureleoules/events%7B/privacy%7D",
        "received_events_url": "https://api.github.com/users/aureleoules/received_events",
        "type": "User",
        "site_admin": false
      },
      "repo": {
        "id": 468927670,
        "node_id": "R_kgDOG_NEtg",
        "name": "bitcoin",
        "full_name": "aureleoules/bitcoin",
        "owner": {
          "login": "aureleoules",
          "id": 22493292,
          "node_id": "MDQ6VXNlcjIyNDkzMjky",
          "avatar_url": "https://avatars.githubusercontent.com/u/22493292?v=4",
          "gravatar_id": "",
          "url": "https://api.github.com/users/aureleoules",
          "html_url": "https://github.com/aureleoules",
          "followers_url": "https://api.github.com/users/aureleoules/followers",
          "following_url": "https://api.github.com/users/aureleoules/following%7B/other_user%7D",
          "gists_url": "https://api.github.com/users/aureleoules/gists%7B/gist_id%7D",
          "starred_url": "https://api.github.com/users/aureleoules/starred%7B/owner%7D%7B/repo%7D",
          "subscriptions_url": "https://api.github.com/users/aureleoules/subscriptions",
          "organizations_url": "https://api.github.com/users/aureleoules/orgs",
          "repos_url": "https://api.github.com/users/aureleoules/repos",
          "events_url": "https://api.github.com/users/aureleoules/events%7B/privacy%7D",
          "received_events_url": "https://api.github.com/users/aureleoules/received_events",
          "type": "User",
          "site_admin": false
        },
        "private": false,
        "html_url": "https://github.com/aureleoules/bitcoin",
        "description": "Bitcoin Core integration/staging tree",
        "fork": true,
        "url": "https://api.github.com/repos/aureleoules/bitcoin",
        "archive_url": "https://api.github.com/repos/aureleoules/bitcoin/%7Barchive_format%7D%7B/ref%7D",
        "assignees_url": "https://api.github.com/repos/aureleoules/bitcoin/assignees%7B/user%7D",
        "blobs_url": "https://api.github.com/repos/aureleoules/bitcoin/git/blobs%7B/sha%7D",
        "branches_url": "https://api.github.com/repos/aureleoules/bitcoin/branches%7B/branch%7D",
        "collaborators_url": "https://api.github.com/repos/aureleoules/bitcoin/collaborators%7B/collaborator%7D",
        "comments_url": "https://api.github.com/repos/aureleoules/bitcoin/comments%7B/number%7D",
        "commits_url": "https://api.github.com/repos/aureleoules/bitcoin/commits%7B/sha%7D",
        "compare_url": "https://api.github.com/repos/aureleoules/bitcoin/compare/%7Bbase%7D...%7Bhead%7D",
        "contents_url": "https://api.github.com/repos/aureleoules/bitcoin/contents/%7B+path%7D",
        "contributors_url": "https://api.github.com/repos/aureleoules/bitcoin/contributors",
        "deployments_url": "https://api.github.com/repos/aureleoules/bitcoin/deployments",
        "downloads_url": "https://api.github.com/repos/aureleoules/bitcoin/downloads",
        "events_url": "https://api.github.com/repos/aureleoules/bitcoin/events",
        "forks_url": "https://api.github.com/repos/aureleoules/bitcoin/forks",
        "git_commits_url": "https://api.github.com/repos/aureleoules/bitcoin/git/commits%7B/sha%7D",
        "git_refs_url": "https://api.github.com/repos/aureleoules/bitcoin/git/refs%7B/sha%7D",
        "git_tags_url": "https://api.github.com/repos/aureleoules/bitcoin/git/tags%7B/sha%7D",
        "git_url": "git://github.com/aureleoules/bitcoin.git",
        "issue_comment_url": "https://api.github.com/repos/aureleoules/bitcoin/issues/comments%7B/number%7D",
        "issue_events_url": "https://api.github.com/repos/aureleoules/bitcoin/issues/events%7B/number%7D",
        "issues_url": "https://api.github.com/repos/aureleoules/bitcoin/issues%7B/number%7D",
        "keys_url": "https://api.github.com/repos/aureleoules/bitcoin/keys%7B/key_id%7D",
        "labels_url": "https://api.github.com/repos/aureleoules/bitcoin/labels%7B/name%7D",
        "languages_url": "https://api.github.com/repos/aureleoules/bitcoin/languages",
        "merges_url": "https://api.github.com/repos/aureleoules/bitcoin/merges",
        "milestones_url": "https://api.github.com/repos/aureleoules/bitcoin/milestones%7B/number%7D",
        "notifications_url": "https://api.github.com/repos/aureleoules/bitcoin/notifications%7B?since,all,participating}",
        "pulls_url": "https://api.github.com/repos/aureleoules/bitcoin/pulls%7B/number%7D",
        "releases_url": "https://api.github.com/repos/aureleoules/bitcoin/releases%7B/id%7D",
        "ssh_url": "git@github.com:aureleoules/bitcoin.git",
        "stargazers_url": "https://api.github.com/repos/aureleoules/bitcoin/stargazers",
        "statuses_url": "https://api.github.com/repos/aureleoules/bitcoin/statuses/%7Bsha%7D",
        "subscribers_url": "https://api.github.com/repos/aureleoules/bitcoin/subscribers",
        "subscription_url": "https://api.github.com/repos/aureleoules/bitcoin/subscription",
        "tags_url": "https://api.github.com/repos/aureleoules/bitcoin/tags",
        "teams_url": "https://api.github.com/repos/aureleoules/bitcoin/teams",
        "trees_url": "https://api.github.com/repos/aureleoules/bitcoin/git/trees%7B/sha%7D",
        "clone_url": "https://github.com/aureleoules/bitcoin.git",
        "hooks_url": "https://api.github.com/repos/aureleoules/bitcoin/hooks",
        "svn_url": "https://github.com/aureleoules/bitcoin",
        "homepage": "https://bitcoincore.org/en/download",
        "language": "C++",
        "forks_count": 0,
        "stargazers_count": 0,
        "watchers_count": 0,
        "size": 229477,
        "default_branch": "master",
        "open_issues_count": 3,
        "is_template": false,
        "topics": [],
        "has_issues": false,
        "has_projects": true,
        "has_wiki": false,
        "has_pages": false,
        "has_downloads": false,
        "archived": false,
        "disabled": false,
        "visibility": "public",
        "pushed_at": "2023-07-27T22:16:01Z",
        "created_at": "2022-03-11T23:21:06Z",
        "updated_at": "2022-12-07T18:06:10Z",
        "license": {
          "key": "mit",
          "name": "MIT License",
          "node_id": "MDc6TGljZW5zZTEz",
          "spdx_id": "MIT",
          "url": "https://api.github.com/licenses/mit",
          "html_url": null,
          "description": null,
          "implementation": null,
          "permissions": null,
          "conditions": null,
          "limitations": null,
          "body": null,
          "featured": null
        }
      }
    },
    "base": {
      "label": "bitcoin:master",
      "ref": "master",
      "sha": "9e59d21fbe5746b220f35b0a5a735198c3e6dcdb",
      "user": {
        "login": "bitcoin",
        "id": 528860,
        "node_id": "MDEyOk9yZ2FuaXphdGlvbjUyODg2MA==",
        "avatar_url": "https://avatars.githubusercontent.com/u/528860?v=4",
        "gravatar_id": "",
        "url": "https://api.github.com/users/bitcoin",
        "html_url": "https://github.com/bitcoin",
        "followers_url": "https://api.github.com/users/bitcoin/followers",
        "following_url": "https://api.github.com/users/bitcoin/following%7B/other_user%7D",
        "gists_url": "https://api.github.com/users/bitcoin/gists%7B/gist_id%7D",
        "starred_url": "https://api.github.com/users/bitcoin/starred%7B/owner%7D%7B/repo%7D",
        "subscriptions_url": "https://api.github.com/users/bitcoin/subscriptions",
        "organizations_url": "https://api.github.com/users/bitcoin/orgs",
        "repos_url": "https://api.github.com/users/bitcoin/repos",
        "events_url": "https://api.github.com/users/bitcoin/events%7B/privacy%7D",
        "received_events_url": "https://api.github.com/users/bitcoin/received_events",
        "type": "Organization",
        "site_admin": false
      },
      "repo": {
        "id": 1181927,
        "node_id": "MDEwOlJlcG9zaXRvcnkxMTgxOTI3",
        "name": "bitcoin",
        "full_name": "bitcoin/bitcoin",
        "owner": {
          "login": "bitcoin",
          "id": 528860,
          "node_id": "MDEyOk9yZ2FuaXphdGlvbjUyODg2MA==",
          "avatar_url": "https://avatars.githubusercontent.com/u/528860?v=4",
          "gravatar_id": "",
          "url": "https://api.github.com/users/bitcoin",
          "html_url": "https://github.com/bitcoin",
          "followers_url": "https://api.github.com/users/bitcoin/followers",
          "following_url": "https://api.github.com/users/bitcoin/following%7B/other_user%7D",
          "gists_url": "https://api.github.com/users/bitcoin/gists%7B/gist_id%7D",
          "starred_url": "https://api.github.com/users/bitcoin/starred%7B/owner%7D%7B/repo%7D",
          "subscriptions_url": "https://api.github.com/users/bitcoin/subscriptions",
          "organizations_url": "https://api.github.com/users/bitcoin/orgs",
          "repos_url": "https://api.github.com/users/bitcoin/repos",
          "events_url": "https://api.github.com/users/bitcoin/events%7B/privacy%7D",
          "received_events_url": "https://api.github.com/users/bitcoin/received_events",
          "type": "Organization",
          "site_admin": false
        },
        "private": false,
        "html_url": "https://github.com/bitcoin/bitcoin",
        "description": "Bitcoin Core integration/staging tree",
        "fork": false,
        "url": "https://api.github.com/repos/bitcoin/bitcoin",
        "archive_url": "https://api.github.com/repos/bitcoin/bitcoin/%7Barchive_format%7D%7B/ref%7D",
        "assignees_url": "https://api.github.com/repos/bitcoin/bitcoin/assignees%7B/user%7D",
        "blobs_url": "https://api.github.com/repos/bitcoin/bitcoin/git/blobs%7B/sha%7D",
        "branches_url": "https://api.github.com/repos/bitcoin/bitcoin/branches%7B/branch%7D",
        "collaborators_url": "https://api.github.com/repos/bitcoin/bitcoin/collaborators%7B/collaborator%7D",
        "comments_url": "https://api.github.com/repos/bitcoin/bitcoin/comments%7B/number%7D",
        "commits_url": "https://api.github.com/repos/bitcoin/bitcoin/commits%7B/sha%7D",
        "compare_url": "https://api.github.com/repos/bitcoin/bitcoin/compare/%7Bbase%7D...%7Bhead%7D",
        "contents_url": "https://api.github.com/repos/bitcoin/bitcoin/contents/%7B+path%7D",
        "contributors_url": "https://api.github.com/repos/bitcoin/bitcoin/contributors",
        "deployments_url": "https://api.github.com/repos/bitcoin/bitcoin/deployments",
        "downloads_url": "https://api.github.com/repos/bitcoin/bitcoin/downloads",
        "events_url": "https://api.github.com/repos/bitcoin/bitcoin/events",
        "forks_url": "https://api.github.com/repos/bitcoin/bitcoin/forks",
        "git_commits_url": "https://api.github.com/repos/bitcoin/bitcoin/git/commits%7B/sha%7D",
        "git_refs_url": "https://api.github.com/repos/bitcoin/bitcoin/git/refs%7B/sha%7D",
        "git_tags_url": "https://api.github.com/repos/bitcoin/bitcoin/git/tags%7B/sha%7D",
        "git_url": "git://github.com/bitcoin/bitcoin.git",
        "issue_comment_url": "https://api.github.com/repos/bitcoin/bitcoin/issues/comments%7B/number%7D",
        "issue_events_url": "https://api.github.com/repos/bitcoin/bitcoin/issues/events%7B/number%7D",
        "issues_url": "https://api.github.com/repos/bitcoin/bitcoin/issues%7B/number%7D",
        "keys_url": "https://api.github.com/repos/bitcoin/bitcoin/keys%7B/key_id%7D",
        "labels_url": "https://api.github.com/repos/bitcoin/bitcoin/labels%7B/name%7D",
        "languages_url": "https://api.github.com/repos/bitcoin/bitcoin/languages",
        "merges_url": "https://api.github.com/repos/bitcoin/bitcoin/merges",
        "milestones_url": "https://api.github.com/repos/bitcoin/bitcoin/milestones%7B/number%7D",
        "notifications_url": "https://api.github.com/repos/bitcoin/bitcoin/notifications%7B?since,all,participating}",
        "pulls_url": "https://api.github.com/repos/bitcoin/bitcoin/pulls%7B/number%7D",
        "releases_url": "https://api.github.com/repos/bitcoin/bitcoin/releases%7B/id%7D",
        "ssh_url": "git@github.com:bitcoin/bitcoin.git",
        "stargazers_url": "https://api.github.com/repos/bitcoin/bitcoin/stargazers",
        "statuses_url": "https://api.github.com/repos/bitcoin/bitcoin/statuses/%7Bsha%7D",
        "subscribers_url": "https://api.github.com/repos/bitcoin/bitcoin/subscribers",
        "subscription_url": "https://api.github.com/repos/bitcoin/bitcoin/subscription",
        "tags_url": "https://api.github.com/repos/bitcoin/bitcoin/tags",
        "teams_url": "https://api.github.com/repos/bitcoin/bitcoin/teams",
        "trees_url": "https://api.github.com/repos/bitcoin/bitcoin/git/trees%7B/sha%7D",
        "clone_url": "https://github.com/bitcoin/bitcoin.git",
        "hooks_url": "https://api.github.com/repos/bitcoin/bitcoin/hooks",
        "svn_url": "https://github.com/bitcoin/bitcoin",
        "homepage": "https://bitcoincore.org/en/download",
        "language": "C++",
        "forks_count": 35476,
        "stargazers_count": 70608,
        "watchers_count": 70608,
        "size": 236222,
        "default_branch": "master",
        "open_issues_count": 673,
        "is_template": false,
        "topics": [
          "bitcoin",
          "c-plus-plus",
          "cryptocurrency",
          "cryptography",
          "p2p"
        ],
        "has_issues": true,
        "has_projects": true,
        "has_wiki": false,
        "has_pages": false,
        "has_downloads": false,
        "archived": false,
        "disabled": false,
        "visibility": "public",
        "pushed_at": "2023-08-03T00:03:27Z",
        "created_at": "2010-12-19T15:16:43Z",
        "updated_at": "2023-08-02T18:21:18Z",
        "license": {
          "key": "mit",
          "name": "MIT License",
          "node_id": "MDc6TGljZW5zZTEz",
          "spdx_id": "MIT",
          "url": "https://api.github.com/licenses/mit",
          "html_url": null,
          "description": null,
          "implementation": null,
          "permissions": null,
          "conditions": null,
          "limitations": null,
          "body": null,
          "featured": null
        }
      }
    },
    "_links": {
      "self": {
        "href": "https://api.github.com/repos/bitcoin/bitcoin/pulls/26622"
      }
    },
    "author_association": "MEMBER",
    "draft": false,
    "additions": 9,
    "deletions": 0,
    "changed_files": 1,
    "commits": 1,
    "review_comments": 8,
    "comments": 6
  },
  "events": [
    {
      "event": "commented",
      "id": 1334263162,
      "node_id": "IC_kwDOABII585Phz16",
      "url": "https://api.github.com/repos/bitcoin/bitcoin/issues/comments/1334263162",
      "actor": {
        "login": "DrahtBot",
        "id": 39886733,
        "node_id": "MDQ6VXNlcjM5ODg2NzMz",
        "avatar_url": "https://avatars.githubusercontent.com/u/39886733?v=4",
        "gravatar_id": "",
        "url": "https://api.github.com/users/DrahtBot",
        "html_url": "https://github.com/DrahtBot",
        "followers_url": "https://api.github.com/users/DrahtBot/followers",
        "following_url": "https://api.github.com/users/DrahtBot/following%7B/other_user%7D",
        "gists_url": "https://api.github.com/users/DrahtBot/gists%7B/gist_id%7D",
        "starred_url": "https://api.github.com/users/DrahtBot/starred%7B/owner%7D%7B/repo%7D",
        "subscriptions_url": "https://api.github.com/users/DrahtBot/subscriptions",
        "organizations_url": "https://api.github.com/users/DrahtBot/orgs",
        "repos_url": "https://api.github.com/users/DrahtBot/repos",
        "events_url": "https://api.github.com/users/DrahtBot/events%7B/privacy%7D",
        "received_events_url": "https://api.github.com/users/DrahtBot/received_events",
        "type": "User",
        "site_admin": false
      },
      "commit_id": null,
      "commit_url": null,
      "created_at": "2022-12-01T19:34:25Z",
      "updated_at": "2022-12-02T21:55:04Z",
      "author_association": "CONTRIBUTOR",
      "body": "<!--e57a25ab6845829454e8d69fc972939a-->\n\nThe following sections might be updated with supplementary metadata relevant to reviewers and maintainers.\n\n<!--021abf342d371248e50ceaed478a90ca-->\n### Reviews\nSee [the guideline](https://github.com/bitcoin/bitcoin/blob/master/CONTRIBUTING.md#code-review) for information on the review process.\n| Type | Reviewers |\n| ---- | --------- |\n| ACK | [stickies-v](https://github.com/bitcoin/bitcoin/pull/26622#pullrequestreview-1202435599), [0xB10C](https://github.com/bitcoin/bitcoin/pull/26622#issuecomment-1335574646), [ishaanam](https://github.com/bitcoin/bitcoin/pull/26622#issuecomment-1335881861) |\n\nIf your review is incorrectly listed, please react with 👎 to this comment and the bot will ignore it on the next update.\n",
      "user": {
        "login": "DrahtBot",
        "id": 39886733,
        "node_id": "MDQ6VXNlcjM5ODg2NzMz",
        "avatar_url": "https://avatars.githubusercontent.com/u/39886733?v=4",
        "gravatar_id": "",
        "url": "https://api.github.com/users/DrahtBot",
        "html_url": "https://github.com/DrahtBot",
        "followers_url": "https://api.github.com/users/DrahtBot/followers",
        "following_url": "https://api.github.com/users/DrahtBot/following%7B/other_user%7D",
        "gists_url": "https://api.github.com/users/DrahtBot/gists%7B/gist_id%7D",
        "starred_url": "https://api.github.com/users/DrahtBot/starred%7B/owner%7D%7B/repo%7D",
        "subscriptions_url": "https://api.github.com/users/DrahtBot/subscriptions",
        "organizations_url": "https://api.github.com/users/DrahtBot/orgs",
        "repos_url": "https://api.github.com/users/DrahtBot/repos",
        "events_url": "https://api.github.com/users/DrahtBot/events%7B/privacy%7D",
        "received_events_url": "https://api.github.com/users/DrahtBot/received_events",
        "type": "User",
        "site_admin": false
      },
      "html_url": "https://github.com/bitcoin/bitcoin/pull/26622#issuecomment-1334263162",
      "issue_url": "https://api.github.com/repos/bitcoin/bitcoin/issues/26622"
    },
    {
      "event": "renamed",
      "id": 7935674953,
      "node_id": "RTE_lADOABII585XuoLKzwAAAAHZAMpJ",
      "url": "https://api.github.com/repos/bitcoin/bitcoin/issues/events/7935674953",
      "actor": {
        "login": "MarcoFalke",
        "id": 6399679,
        "node_id": "MDQ6VXNlcjYzOTk2Nzk=",
        "avatar_url": "https://avatars.githubusercontent.com/u/6399679?v=4",
        "gravatar_id": "",
        "url": "https://api.github.com/users/MarcoFalke",
        "html_url": "https://github.com/MarcoFalke",
        "followers_url": "https://api.github.com/users/MarcoFalke/followers",
        "following_url": "https://api.github.com/users/MarcoFalke/following%7B/other_user%7D",
        "gists_url": "https://api.github.com/users/MarcoFalke/gists%7B/gist_id%7D",
        "starred_url": "https://api.github.com/users/MarcoFalke/starred%7B/owner%7D%7B/repo%7D",
        "subscriptions_url": "https://api.github.com/users/MarcoFalke/subscriptions",
        "organizations_url": "https://api.github.com/users/MarcoFalke/orgs",
        "repos_url": "https://api.github.com/users/MarcoFalke/repos",
        "events_url": "https://api.github.com/users/MarcoFalke/events%7B/privacy%7D",
        "received_events_url": "https://api.github.com/users/MarcoFalke/received_events",
        "type": "User",
        "site_admin": false
      },
      "commit_id": null,
      "commit_url": null,
      "created_at": "2022-12-01T21:15:29Z",
      "rename": {
        "from": "test(sendall): Add test for min-fee setting",
        "to": "test: Add test for sendall min-fee setting"
      }
    },
    {
      "event": "labeled",
      "id": 7935675223,
      "node_id": "LE_lADOABII585XuoLKzwAAAAHZAMtX",
      "url": "https://api.github.com/repos/bitcoin/bitcoin/issues/events/7935675223",
      "actor": {
        "login": "DrahtBot",
        "id": 39886733,
        "node_id": "MDQ6VXNlcjM5ODg2NzMz",
        "avatar_url": "https://avatars.githubusercontent.com/u/39886733?v=4",
        "gravatar_id": "",
        "url": "https://api.github.com/users/DrahtBot",
        "html_url": "https://github.com/DrahtBot",
        "followers_url": "https://api.github.com/users/DrahtBot/followers",
        "following_url": "https://api.github.com/users/DrahtBot/following%7B/other_user%7D",
        "gists_url": "https://api.github.com/users/DrahtBot/gists%7B/gist_id%7D",
        "starred_url": "https://api.github.com/users/DrahtBot/starred%7B/owner%7D%7B/repo%7D",
        "subscriptions_url": "https://api.github.com/users/DrahtBot/subscriptions",
        "organizations_url": "https://api.github.com/users/DrahtBot/orgs",
        "repos_url": "https://api.github.com/users/DrahtBot/repos",
        "events_url": "https://api.github.com/users/DrahtBot/events%7B/privacy%7D",
        "received_events_url": "https://api.github.com/users/DrahtBot/received_events",
        "type": "User",
        "site_admin": false
      },
      "commit_id": null,
      "commit_url": null,
      "created_at": "2022-12-01T21:15:32Z",
      "label": {
        "name": "Tests",
        "color": "d4c5f9"
      }
    },
    {
      "event": "reviewed",
      "id": 1201800771,
      "node_id": "PRR_kwDOABII585HogZD",
      "url": null,
      "actor": null,
      "commit_id": "753258c9bccaa587ac47bd7d1d30fb3293ebd8b9",
      "commit_url": null,
      "created_at": null,
      "author_association": "CONTRIBUTOR",
      "body": "Concept ACK, but any reason not to put this in `wallet_sendall.py`?",
      "user": {
        "login": "stickies-v",
        "id": 69010457,
        "node_id": "MDQ6VXNlcjY5MDEwNDU3",
        "avatar_url": "https://avatars.githubusercontent.com/u/69010457?v=4",
        "gravatar_id": "",
        "url": "https://api.github.com/users/stickies-v",
        "html_url": "https://github.com/stickies-v",
        "followers_url": "https://api.github.com/users/stickies-v/followers",
        "following_url": "https://api.github.com/users/stickies-v/following%7B/other_user%7D",
        "gists_url": "https://api.github.com/users/stickies-v/gists%7B/gist_id%7D",
        "starred_url": "https://api.github.com/users/stickies-v/starred%7B/owner%7D%7B/repo%7D",
        "subscriptions_url": "https://api.github.com/users/stickies-v/subscriptions",
        "organizations_url": "https://api.github.com/users/stickies-v/orgs",
        "repos_url": "https://api.github.com/users/stickies-v/repos",
        "events_url": "https://api.github.com/users/stickies-v/events%7B/privacy%7D",
        "received_events_url": "https://api.github.com/users/stickies-v/received_events",
        "type": "User",
        "site_admin": false
      },
      "html_url": "https://github.com/bitcoin/bitcoin/pull/26622#pullrequestreview-1201800771",
      "submitted_at": "2022-12-01T23:37:50Z",
      "state": "COMMENTED",
      "pull_request_url": "https://api.github.com/repos/bitcoin/bitcoin/pulls/26622"
    },
    {
      "event": "head_ref_force_pushed",
      "id": 7939635653,
      "node_id": "HRFPE_lADOABII585XuoLKzwAAAAHZPTnF",
      "url": "https://api.github.com/repos/bitcoin/bitcoin/issues/events/7939635653",
      "actor": {
        "login": "aureleoules",
        "id": 22493292,
        "node_id": "MDQ6VXNlcjIyNDkzMjky",
        "avatar_url": "https://avatars.githubusercontent.com/u/22493292?v=4",
        "gravatar_id": "",
        "url": "https://api.github.com/users/aureleoules",
        "html_url": "https://github.com/aureleoules",
        "followers_url": "https://api.github.com/users/aureleoules/followers",
        "following_url": "https://api.github.com/users/aureleoules/following%7B/other_user%7D",
        "gists_url": "https://api.github.com/users/aureleoules/gists%7B/gist_id%7D",
        "starred_url": "https://api.github.com/users/aureleoules/starred%7B/owner%7D%7B/repo%7D",
        "subscriptions_url": "https://api.github.com/users/aureleoules/subscriptions",
        "organizations_url": "https://api.github.com/users/aureleoules/orgs",
        "repos_url": "https://api.github.com/users/aureleoules/repos",
        "events_url": "https://api.github.com/users/aureleoules/events%7B/privacy%7D",
        "received_events_url": "https://api.github.com/users/aureleoules/received_events",
        "type": "User",
        "site_admin": false
      },
      "commit_id": null,
      "commit_url": null,
      "created_at": "2022-12-02T10:48:53Z"
    },
    {
      "event": "commented",
      "id": 1335066408,
      "node_id": "IC_kwDOABII585Pk38o",
      "url": "https://api.github.com/repos/bitcoin/bitcoin/issues/comments/1335066408",
      "actor": {
        "login": "aureleoules",
        "id": 22493292,
        "node_id": "MDQ6VXNlcjIyNDkzMjky",
        "avatar_url": "https://avatars.githubusercontent.com/u/22493292?v=4",
        "gravatar_id": "",
        "url": "https://api.github.com/users/aureleoules",
        "html_url": "https://github.com/aureleoules",
        "followers_url": "https://api.github.com/users/aureleoules/followers",
        "following_url": "https://api.github.com/users/aureleoules/following%7B/other_user%7D",
        "gists_url": "https://api.github.com/users/aureleoules/gists%7B/gist_id%7D",
        "starred_url": "https://api.github.com/users/aureleoules/starred%7B/owner%7D%7B/repo%7D",
        "subscriptions_url": "https://api.github.com/users/aureleoules/subscriptions",
        "organizations_url": "https://api.github.com/users/aureleoules/orgs",
        "repos_url": "https://api.github.com/users/aureleoules/repos",
        "events_url": "https://api.github.com/users/aureleoules/events%7B/privacy%7D",
        "received_events_url": "https://api.github.com/users/aureleoules/received_events",
        "type": "User",
        "site_admin": false
      },
      "commit_id": null,
      "commit_url": null,
      "created_at": "2022-12-02T10:49:02Z",
      "updated_at": "2022-12-02T10:49:02Z",
      "author_association": "MEMBER",
      "body": "> Concept ACK, but any reason not to put this in wallet_sendall.py?\r\n\r\nYou're right it makes more sense. Updated.",
      "user": {
        "login": "aureleoules",
        "id": 22493292,
        "node_id": "MDQ6VXNlcjIyNDkzMjky",
        "avatar_url": "https://avatars.githubusercontent.com/u/22493292?v=4",
        "gravatar_id": "",
        "url": "https://api.github.com/users/aureleoules",
        "html_url": "https://github.com/aureleoules",
        "followers_url": "https://api.github.com/users/aureleoules/followers",
        "following_url": "https://api.github.com/users/aureleoules/following%7B/other_user%7D",
        "gists_url": "https://api.github.com/users/aureleoules/gists%7B/gist_id%7D",
        "starred_url": "https://api.github.com/users/aureleoules/starred%7B/owner%7D%7B/repo%7D",
        "subscriptions_url": "https://api.github.com/users/aureleoules/subscriptions",
        "organizations_url": "https://api.github.com/users/aureleoules/orgs",
        "repos_url": "https://api.github.com/users/aureleoules/repos",
        "events_url": "https://api.github.com/users/aureleoules/events%7B/privacy%7D",
        "received_events_url": "https://api.github.com/users/aureleoules/received_events",
        "type": "User",
        "site_admin": false
      },
      "html_url": "https://github.com/bitcoin/bitcoin/pull/26622#issuecomment-1335066408",
      "issue_url": "https://api.github.com/repos/bitcoin/bitcoin/issues/26622"
    },
    {
      "event": "reviewed",
      "id": 1202330289,
      "node_id": "PRR_kwDOABII585Hqhqx",
      "url": null,
      "actor": null,
      "commit_id": "705a03cdc7a6e0feee24a0522162c53cc9b9ff00",
      "commit_url": null,
      "created_at": null,
      "author_association": "CONTRIBUTOR",
      "body": "Approach ACK 705a03cdc7a6e0feee24a0522162c53cc9b9ff00",
      "user": {
        "login": "stickies-v",
        "id": 69010457,
        "node_id": "MDQ6VXNlcjY5MDEwNDU3",
        "avatar_url": "https://avatars.githubusercontent.com/u/69010457?v=4",
        "gravatar_id": "",
        "url": "https://api.github.com/users/stickies-v",
        "html_url": "https://github.com/stickies-v",
        "followers_url": "https://api.github.com/users/stickies-v/followers",
        "following_url": "https://api.github.com/users/stickies-v/following%7B/other_user%7D",
        "gists_url": "https://api.github.com/users/stickies-v/gists%7B/gist_id%7D",
        "starred_url": "https://api.github.com/users/stickies-v/starred%7B/owner%7D%7B/repo%7D",
        "subscriptions_url": "https://api.github.com/users/stickies-v/subscriptions",
        "organizations_url": "https://api.github.com/users/stickies-v/orgs",
        "repos_url": "https://api.github.com/users/stickies-v/repos",
        "events_url": "https://api.github.com/users/stickies-v/events%7B/privacy%7D",
        "received_events_url": "https://api.github.com/users/stickies-v/received_events",
        "type": "User",
        "site_admin": false
      },
      "html_url": "https://github.com/bitcoin/bitcoin/pull/26622#pullrequestreview-1202330289",
      "submitted_at": "2022-12-02T11:01:54Z",
      "state": "COMMENTED",
      "pull_request_url": "https://api.github.com/repos/bitcoin/bitcoin/pulls/26622"
    },
    {
      "event": "head_ref_force_pushed",
      "id": 7940120886,
      "node_id": "HRFPE_lADOABII585XuoLKzwAAAAHZRKE2",
      "url": "https://api.github.com/repos/bitcoin/bitcoin/issues/events/7940120886",
      "actor": {
        "login": "aureleoules",
        "id": 22493292,
        "node_id": "MDQ6VXNlcjIyNDkzMjky",
        "avatar_url": "https://avatars.githubusercontent.com/u/22493292?v=4",
        "gravatar_id": "",
        "url": "https://api.github.com/users/aureleoules",
        "html_url": "https://github.com/aureleoules",
        "followers_url": "https://api.github.com/users/aureleoules/followers",
        "following_url": "https://api.github.com/users/aureleoules/following%7B/other_user%7D",
        "gists_url": "https://api.github.com/users/aureleoules/gists%7B/gist_id%7D",
        "starred_url": "https://api.github.com/users/aureleoules/starred%7B/owner%7D%7B/repo%7D",
        "subscriptions_url": "https://api.github.com/users/aureleoules/subscriptions",
        "organizations_url": "https://api.github.com/users/aureleoules/orgs",
        "repos_url": "https://api.github.com/users/aureleoules/repos",
        "events_url": "https://api.github.com/users/aureleoules/events%7B/privacy%7D",
        "received_events_url": "https://api.github.com/users/aureleoules/received_events",
        "type": "User",
        "site_admin": false
      },
      "commit_id": null,
      "commit_url": null,
      "created_at": "2022-12-02T12:00:55Z"
    },
    {
      "event": "commented",
      "id": 1335136844,
      "node_id": "IC_kwDOABII585PlJJM",
      "url": "https://api.github.com/repos/bitcoin/bitcoin/issues/comments/1335136844",
      "actor": {
        "login": "aureleoules",
        "id": 22493292,
        "node_id": "MDQ6VXNlcjIyNDkzMjky",
        "avatar_url": "https://avatars.githubusercontent.com/u/22493292?v=4",
        "gravatar_id": "",
        "url": "https://api.github.com/users/aureleoules",
        "html_url": "https://github.com/aureleoules",
        "followers_url": "https://api.github.com/users/aureleoules/followers",
        "following_url": "https://api.github.com/users/aureleoules/following%7B/other_user%7D",
        "gists_url": "https://api.github.com/users/aureleoules/gists%7B/gist_id%7D",
        "starred_url": "https://api.github.com/users/aureleoules/starred%7B/owner%7D%7B/repo%7D",
        "subscriptions_url": "https://api.github.com/users/aureleoules/subscriptions",
        "organizations_url": "https://api.github.com/users/aureleoules/orgs",
        "repos_url": "https://api.github.com/users/aureleoules/repos",
        "events_url": "https://api.github.com/users/aureleoules/events%7B/privacy%7D",
        "received_events_url": "https://api.github.com/users/aureleoules/received_events",
        "type": "User",
        "site_admin": false
      },
      "commit_id": null,
      "commit_url": null,
      "created_at": "2022-12-02T12:00:58Z",
      "updated_at": "2022-12-02T12:00:58Z",
      "author_association": "MEMBER",
      "body": "Updated per feedback, thanks @stickies-v.",
      "user": {
        "login": "aureleoules",
        "id": 22493292,
        "node_id": "MDQ6VXNlcjIyNDkzMjky",
        "avatar_url": "https://avatars.githubusercontent.com/u/22493292?v=4",
        "gravatar_id": "",
        "url": "https://api.github.com/users/aureleoules",
        "html_url": "https://github.com/aureleoules",
        "followers_url": "https://api.github.com/users/aureleoules/followers",
        "following_url": "https://api.github.com/users/aureleoules/following%7B/other_user%7D",
        "gists_url": "https://api.github.com/users/aureleoules/gists%7B/gist_id%7D",
        "starred_url": "https://api.github.com/users/aureleoules/starred%7B/owner%7D%7B/repo%7D",
        "subscriptions_url": "https://api.github.com/users/aureleoules/subscriptions",
        "organizations_url": "https://api.github.com/users/aureleoules/orgs",
        "repos_url": "https://api.github.com/users/aureleoules/repos",
        "events_url": "https://api.github.com/users/aureleoules/events%7B/privacy%7D",
        "received_events_url": "https://api.github.com/users/aureleoules/received_events",
        "type": "User",
        "site_admin": false
      },
      "html_url": "https://github.com/bitcoin/bitcoin/pull/26622#issuecomment-1335136844",
      "issue_url": "https://api.github.com/repos/bitcoin/bitcoin/issues/26622"
    },
    {
      "event": "mentioned",
      "id": 7940121277,
      "node_id": "MEE_lADOABII585XuoLKzwAAAAHZRKK9",
      "url": "https://api.github.com/repos/bitcoin/bitcoin/issues/events/7940121277",
      "actor": {
        "login": "stickies-v",
        "id": 69010457,
        "node_id": "MDQ6VXNlcjY5MDEwNDU3",
        "avatar_url": "https://avatars.githubusercontent.com/u/69010457?v=4",
        "gravatar_id": "",
        "url": "https://api.github.com/users/stickies-v",
        "html_url": "https://github.com/stickies-v",
        "followers_url": "https://api.github.com/users/stickies-v/followers",
        "following_url": "https://api.github.com/users/stickies-v/following%7B/other_user%7D",
        "gists_url": "https://api.github.com/users/stickies-v/gists%7B/gist_id%7D",
        "starred_url": "https://api.github.com/users/stickies-v/starred%7B/owner%7D%7B/repo%7D",
        "subscriptions_url": "https://api.github.com/users/stickies-v/subscriptions",
        "organizations_url": "https://api.github.com/users/stickies-v/orgs",
        "repos_url": "https://api.github.com/users/stickies-v/repos",
        "events_url": "https://api.github.com/users/stickies-v/events%7B/privacy%7D",
        "received_events_url": "https://api.github.com/users/stickies-v/received_events",
        "type": "User",
        "site_admin": false
      },
      "commit_id": null,
      "commit_url": null,
      "created_at": "2022-12-02T12:00:58Z"
    },
    {
      "event": "subscribed",
      "id": 7940121286,
      "node_id": "SE_lADOABII585XuoLKzwAAAAHZRKLG",
      "url": "https://api.github.com/repos/bitcoin/bitcoin/issues/events/7940121286",
      "actor": {
        "login": "stickies-v",
        "id": 69010457,
        "node_id": "MDQ6VXNlcjY5MDEwNDU3",
        "avatar_url": "https://avatars.githubusercontent.com/u/69010457?v=4",
        "gravatar_id": "",
        "url": "https://api.github.com/users/stickies-v",
        "html_url": "https://github.com/stickies-v",
        "followers_url": "https://api.github.com/users/stickies-v/followers",
        "following_url": "https://api.github.com/users/stickies-v/following%7B/other_user%7D",
        "gists_url": "https://api.github.com/users/stickies-v/gists%7B/gist_id%7D",
        "starred_url": "https://api.github.com/users/stickies-v/starred%7B/owner%7D%7B/repo%7D",
        "subscriptions_url": "https://api.github.com/users/stickies-v/subscriptions",
        "organizations_url": "https://api.github.com/users/stickies-v/orgs",
        "repos_url": "https://api.github.com/users/stickies-v/repos",
        "events_url": "https://api.github.com/users/stickies-v/events%7B/privacy%7D",
        "received_events_url": "https://api.github.com/users/stickies-v/received_events",
        "type": "User",
        "site_admin": false
      },
      "commit_id": null,
      "commit_url": null,
      "created_at": "2022-12-02T12:00:58Z"
    },
    {
      "event": "reviewed",
      "id": 1202412751,
      "node_id": "PRR_kwDOABII585Hq1zP",
      "url": null,
      "actor": null,
      "commit_id": "1bfa0de5f44316ebe9d19a8aea7bcf46211ced99",
      "commit_url": null,
      "created_at": null,
      "author_association": "CONTRIBUTOR",
      "body": "ACK 1bfa0de5f",
      "user": {
        "login": "stickies-v",
        "id": 69010457,
        "node_id": "MDQ6VXNlcjY5MDEwNDU3",
        "avatar_url": "https://avatars.githubusercontent.com/u/69010457?v=4",
        "gravatar_id": "",
        "url": "https://api.github.com/users/stickies-v",
        "html_url": "https://github.com/stickies-v",
        "followers_url": "https://api.github.com/users/stickies-v/followers",
        "following_url": "https://api.github.com/users/stickies-v/following%7B/other_user%7D",
        "gists_url": "https://api.github.com/users/stickies-v/gists%7B/gist_id%7D",
        "starred_url": "https://api.github.com/users/stickies-v/starred%7B/owner%7D%7B/repo%7D",
        "subscriptions_url": "https://api.github.com/users/stickies-v/subscriptions",
        "organizations_url": "https://api.github.com/users/stickies-v/orgs",
        "repos_url": "https://api.github.com/users/stickies-v/repos",
        "events_url": "https://api.github.com/users/stickies-v/events%7B/privacy%7D",
        "received_events_url": "https://api.github.com/users/stickies-v/received_events",
        "type": "User",
        "site_admin": false
      },
      "html_url": "https://github.com/bitcoin/bitcoin/pull/26622#pullrequestreview-1202412751",
      "submitted_at": "2022-12-02T12:26:16Z",
      "state": "APPROVED",
      "pull_request_url": "https://api.github.com/repos/bitcoin/bitcoin/pulls/26622"
    },
    {
      "event": "committed",
      "id": null,
      "node_id": "C_kwDOABII59oAKGNiNDRjNTkyM2E3YzBiYTE1NDAwZDJiNDIwZmFlZGQzOWNkY2UxMjg",
      "url": "https://api.github.com/repos/bitcoin/bitcoin/git/commits/cb44c5923a7c0ba15400d2b420faedd39cdce128",
      "actor": null,
      "commit_id": null,
      "commit_url": null,
      "created_at": null,
      "html_url": "https://github.com/bitcoin/bitcoin/commit/cb44c5923a7c0ba15400d2b420faedd39cdce128",
      "tree": {
        "sha": "84f51bfe6fde664823edfd00d8463ed6da773d78",
        "url": "https://api.github.com/repos/bitcoin/bitcoin/git/trees/84f51bfe6fde664823edfd00d8463ed6da773d78"
      },
      "verification": {
        "verified": true,
        "reason": "valid",
        "payload": "tree 84f51bfe6fde664823edfd00d8463ed6da773d78\nparent 02515117dc5a25998f5dd92938eccb326b1eec5c\nauthor Aurèle Oulès <aurele@oules.com> 1669922758 +0100\ncommitter Aurèle Oulès <aurele@oules.com> 1669984240 +0100\n\ntest: Add sendall test for min-fee setting\n",
        "signature": "-----BEGIN PGP SIGNATURE-----\n\niHUEABYKAB0WIQRWpTAYMQugla4ROcBV85dvcAHZmAUCY4nv8QAKCRBV85dvcAHZ\nmCcVAP9ciDGOrizXjsR3ztjfKNpuOs7JsHbkk/UzEo9QBKGRsQEA6LlcYFJQfgkT\nZBRFSur8wEGonMckSotK8J+2hRV9pAo=\n=bmTV\n-----END PGP SIGNATURE-----"
      },
      "parents": [
        {
          "url": "https://api.github.com/repos/bitcoin/bitcoin/git/commits/02515117dc5a25998f5dd92938eccb326b1eec5c",
          "sha": "02515117dc5a25998f5dd92938eccb326b1eec5c",
          "html_url": "https://github.com/bitcoin/bitcoin/commit/02515117dc5a25998f5dd92938eccb326b1eec5c"
        }
      ],
      "message": "test: Add sendall test for min-fee setting",
      "committer": {
        "name": "Aurèle Oulès",
        "email": "aurele@oules.com",
        "date": "2022-12-02T12:30:40Z"
      },
      "author": {
        "name": "Aurèle Oulès",
        "email": "aurele@oules.com",
        "date": "2022-12-01T19:25:58Z"
      },
      "sha": "cb44c5923a7c0ba15400d2b420faedd39cdce128"
    },
    {
      "event": "head_ref_force_pushed",
      "id": 7940327506,
      "node_id": "HRFPE_lADOABII585XuoLKzwAAAAHZR8hS",
      "url": "https://api.github.com/repos/bitcoin/bitcoin/issues/events/7940327506",
      "actor": {
        "login": "aureleoules",
        "id": 22493292,
        "node_id": "MDQ6VXNlcjIyNDkzMjky",
        "avatar_url": "https://avatars.githubusercontent.com/u/22493292?v=4",
        "gravatar_id": "",
        "url": "https://api.github.com/users/aureleoules",
        "html_url": "https://github.com/aureleoules",
        "followers_url": "https://api.github.com/users/aureleoules/followers",
        "following_url": "https://api.github.com/users/aureleoules/following%7B/other_user%7D",
        "gists_url": "https://api.github.com/users/aureleoules/gists%7B/gist_id%7D",
        "starred_url": "https://api.github.com/users/aureleoules/starred%7B/owner%7D%7B/repo%7D",
        "subscriptions_url": "https://api.github.com/users/aureleoules/subscriptions",
        "organizations_url": "https://api.github.com/users/aureleoules/orgs",
        "repos_url": "https://api.github.com/users/aureleoules/repos",
        "events_url": "https://api.github.com/users/aureleoules/events%7B/privacy%7D",
        "received_events_url": "https://api.github.com/users/aureleoules/received_events",
        "type": "User",
        "site_admin": false
      },
      "commit_id": null,
      "commit_url": null,
      "created_at": "2022-12-02T12:31:22Z"
    },
    {
      "event": "reviewed",
      "id": 1202435599,
      "node_id": "PRR_kwDOABII585Hq7YP",
      "url": null,
      "actor": null,
      "commit_id": "cb44c5923a7c0ba15400d2b420faedd39cdce128",
      "commit_url": null,
      "created_at": null,
      "author_association": "CONTRIBUTOR",
      "body": "re-ACK [cb44c59](https://github.com/bitcoin/bitcoin/commit/cb44c5923a7c0ba15400d2b420faedd39cdce128)",
      "user": {
        "login": "stickies-v",
        "id": 69010457,
        "node_id": "MDQ6VXNlcjY5MDEwNDU3",
        "avatar_url": "https://avatars.githubusercontent.com/u/69010457?v=4",
        "gravatar_id": "",
        "url": "https://api.github.com/users/stickies-v",
        "html_url": "https://github.com/stickies-v",
        "followers_url": "https://api.github.com/users/stickies-v/followers",
        "following_url": "https://api.github.com/users/stickies-v/following%7B/other_user%7D",
        "gists_url": "https://api.github.com/users/stickies-v/gists%7B/gist_id%7D",
        "starred_url": "https://api.github.com/users/stickies-v/starred%7B/owner%7D%7B/repo%7D",
        "subscriptions_url": "https://api.github.com/users/stickies-v/subscriptions",
        "organizations_url": "https://api.github.com/users/stickies-v/orgs",
        "repos_url": "https://api.github.com/users/stickies-v/repos",
        "events_url": "https://api.github.com/users/stickies-v/events%7B/privacy%7D",
        "received_events_url": "https://api.github.com/users/stickies-v/received_events",
        "type": "User",
        "site_admin": false
      },
      "html_url": "https://github.com/bitcoin/bitcoin/pull/26622#pullrequestreview-1202435599",
      "submitted_at": "2022-12-02T12:33:44Z",
      "state": "APPROVED",
      "pull_request_url": "https://api.github.com/repos/bitcoin/bitcoin/pulls/26622"
    },
    {
      "event": "commented",
      "id": 1335574646,
      "node_id": "IC_kwDOABII585Pm0B2",
      "url": "https://api.github.com/repos/bitcoin/bitcoin/issues/comments/1335574646",
      "actor": {
        "login": "0xB10C",
        "id": 19157360,
        "node_id": "MDQ6VXNlcjE5MTU3MzYw",
        "avatar_url": "https://avatars.githubusercontent.com/u/19157360?v=4",
        "gravatar_id": "",
        "url": "https://api.github.com/users/0xB10C",
        "html_url": "https://github.com/0xB10C",
        "followers_url": "https://api.github.com/users/0xB10C/followers",
        "following_url": "https://api.github.com/users/0xB10C/following%7B/other_user%7D",
        "gists_url": "https://api.github.com/users/0xB10C/gists%7B/gist_id%7D",
        "starred_url": "https://api.github.com/users/0xB10C/starred%7B/owner%7D%7B/repo%7D",
        "subscriptions_url": "https://api.github.com/users/0xB10C/subscriptions",
        "organizations_url": "https://api.github.com/users/0xB10C/orgs",
        "repos_url": "https://api.github.com/users/0xB10C/repos",
        "events_url": "https://api.github.com/users/0xB10C/events%7B/privacy%7D",
        "received_events_url": "https://api.github.com/users/0xB10C/received_events",
        "type": "User",
        "site_admin": false
      },
      "commit_id": null,
      "commit_url": null,
      "created_at": "2022-12-02T17:36:38Z",
      "updated_at": "2022-12-02T17:36:38Z",
      "author_association": "CONTRIBUTOR",
      "body": "ACK cb44c5923a7c0ba15400d2b420faedd39cdce128\r\n\r\nApplied the diff from your mutation test and checked that the test now fails and would kill the mutation.\r\n\r\nMaybe a feature to consider for your mutation testing: Pushing a failed mutation diff to a branch somewhere. Allows to quickly cherry-pick the fix on top and test that it's fixed. ",
      "user": {
        "login": "0xB10C",
        "id": 19157360,
        "node_id": "MDQ6VXNlcjE5MTU3MzYw",
        "avatar_url": "https://avatars.githubusercontent.com/u/19157360?v=4",
        "gravatar_id": "",
        "url": "https://api.github.com/users/0xB10C",
        "html_url": "https://github.com/0xB10C",
        "followers_url": "https://api.github.com/users/0xB10C/followers",
        "following_url": "https://api.github.com/users/0xB10C/following%7B/other_user%7D",
        "gists_url": "https://api.github.com/users/0xB10C/gists%7B/gist_id%7D",
        "starred_url": "https://api.github.com/users/0xB10C/starred%7B/owner%7D%7B/repo%7D",
        "subscriptions_url": "https://api.github.com/users/0xB10C/subscriptions",
        "organizations_url": "https://api.github.com/users/0xB10C/orgs",
        "repos_url": "https://api.github.com/users/0xB10C/repos",
        "events_url": "https://api.github.com/users/0xB10C/events%7B/privacy%7D",
        "received_events_url": "https://api.github.com/users/0xB10C/received_events",
        "type": "User",
        "site_admin": false
      },
      "html_url": "https://github.com/bitcoin/bitcoin/pull/26622#issuecomment-1335574646",
      "issue_url": "https://api.github.com/repos/bitcoin/bitcoin/issues/26622"
    },
    {
      "event": "commented",
      "id": 1335654243,
      "node_id": "IC_kwDOABII585PnHdj",
      "url": "https://api.github.com/repos/bitcoin/bitcoin/issues/comments/1335654243",
      "actor": {
        "login": "aureleoules",
        "id": 22493292,
        "node_id": "MDQ6VXNlcjIyNDkzMjky",
        "avatar_url": "https://avatars.githubusercontent.com/u/22493292?v=4",
        "gravatar_id": "",
        "url": "https://api.github.com/users/aureleoules",
        "html_url": "https://github.com/aureleoules",
        "followers_url": "https://api.github.com/users/aureleoules/followers",
        "following_url": "https://api.github.com/users/aureleoules/following%7B/other_user%7D",
        "gists_url": "https://api.github.com/users/aureleoules/gists%7B/gist_id%7D",
        "starred_url": "https://api.github.com/users/aureleoules/starred%7B/owner%7D%7B/repo%7D",
        "subscriptions_url": "https://api.github.com/users/aureleoules/subscriptions",
        "organizations_url": "https://api.github.com/users/aureleoules/orgs",
        "repos_url": "https://api.github.com/users/aureleoules/repos",
        "events_url": "https://api.github.com/users/aureleoules/events%7B/privacy%7D",
        "received_events_url": "https://api.github.com/users/aureleoules/received_events",
        "type": "User",
        "site_admin": false
      },
      "commit_id": null,
      "commit_url": null,
      "created_at": "2022-12-02T18:27:11Z",
      "updated_at": "2022-12-02T18:27:11Z",
      "author_association": "MEMBER",
      "body": "> Maybe a feature to consider for your mutation testing: Pushing a failed mutation diff to a branch somewhere. Allows to quickly cherry-pick the fix on top and test that it's fixed.\r\n\r\nThanks, will look into it.",
      "user": {
        "login": "aureleoules",
        "id": 22493292,
        "node_id": "MDQ6VXNlcjIyNDkzMjky",
        "avatar_url": "https://avatars.githubusercontent.com/u/22493292?v=4",
        "gravatar_id": "",
        "url": "https://api.github.com/users/aureleoules",
        "html_url": "https://github.com/aureleoules",
        "followers_url": "https://api.github.com/users/aureleoules/followers",
        "following_url": "https://api.github.com/users/aureleoules/following%7B/other_user%7D",
        "gists_url": "https://api.github.com/users/aureleoules/gists%7B/gist_id%7D",
        "starred_url": "https://api.github.com/users/aureleoules/starred%7B/owner%7D%7B/repo%7D",
        "subscriptions_url": "https://api.github.com/users/aureleoules/subscriptions",
        "organizations_url": "https://api.github.com/users/aureleoules/orgs",
        "repos_url": "https://api.github.com/users/aureleoules/repos",
        "events_url": "https://api.github.com/users/aureleoules/events%7B/privacy%7D",
        "received_events_url": "https://api.github.com/users/aureleoules/received_events",
        "type": "User",
        "site_admin": false
      },
      "html_url": "https://github.com/bitcoin/bitcoin/pull/26622#issuecomment-1335654243",
      "issue_url": "https://api.github.com/repos/bitcoin/bitcoin/issues/26622"
    },
    {
      "event": "commented",
      "id": 1335881861,
      "node_id": "IC_kwDOABII585Pn_CF",
      "url": "https://api.github.com/repos/bitcoin/bitcoin/issues/comments/1335881861",
      "actor": {
        "login": "ishaanam",
        "id": 75942586,
        "node_id": "MDQ6VXNlcjc1OTQyNTg2",
        "avatar_url": "https://avatars.githubusercontent.com/u/75942586?v=4",
        "gravatar_id": "",
        "url": "https://api.github.com/users/ishaanam",
        "html_url": "https://github.com/ishaanam",
        "followers_url": "https://api.github.com/users/ishaanam/followers",
        "following_url": "https://api.github.com/users/ishaanam/following%7B/other_user%7D",
        "gists_url": "https://api.github.com/users/ishaanam/gists%7B/gist_id%7D",
        "starred_url": "https://api.github.com/users/ishaanam/starred%7B/owner%7D%7B/repo%7D",
        "subscriptions_url": "https://api.github.com/users/ishaanam/subscriptions",
        "organizations_url": "https://api.github.com/users/ishaanam/orgs",
        "repos_url": "https://api.github.com/users/ishaanam/repos",
        "events_url": "https://api.github.com/users/ishaanam/events%7B/privacy%7D",
        "received_events_url": "https://api.github.com/users/ishaanam/received_events",
        "type": "User",
        "site_admin": false
      },
      "commit_id": null,
      "commit_url": null,
      "created_at": "2022-12-02T21:55:02Z",
      "updated_at": "2022-12-02T21:55:02Z",
      "author_association": "CONTRIBUTOR",
      "body": "ACK cb44c5923a7c0ba15400d2b420faedd39cdce128",
      "user": {
        "login": "ishaanam",
        "id": 75942586,
        "node_id": "MDQ6VXNlcjc1OTQyNTg2",
        "avatar_url": "https://avatars.githubusercontent.com/u/75942586?v=4",
        "gravatar_id": "",
        "url": "https://api.github.com/users/ishaanam",
        "html_url": "https://github.com/ishaanam",
        "followers_url": "https://api.github.com/users/ishaanam/followers",
        "following_url": "https://api.github.com/users/ishaanam/following%7B/other_user%7D",
        "gists_url": "https://api.github.com/users/ishaanam/gists%7B/gist_id%7D",
        "starred_url": "https://api.github.com/users/ishaanam/starred%7B/owner%7D%7B/repo%7D",
        "subscriptions_url": "https://api.github.com/users/ishaanam/subscriptions",
        "organizations_url": "https://api.github.com/users/ishaanam/orgs",
        "repos_url": "https://api.github.com/users/ishaanam/repos",
        "events_url": "https://api.github.com/users/ishaanam/events%7B/privacy%7D",
        "received_events_url": "https://api.github.com/users/ishaanam/received_events",
        "type": "User",
        "site_admin": false
      },
      "html_url": "https://github.com/bitcoin/bitcoin/pull/26622#issuecomment-1335881861",
      "issue_url": "https://api.github.com/repos/bitcoin/bitcoin/issues/26622"
    },
    {
      "event": "merged",
      "id": 7946050366,
      "node_id": "ME_lADOABII585XuoLKzwAAAAHZnxs-",
      "url": "https://api.github.com/repos/bitcoin/bitcoin/issues/events/7946050366",
      "actor": {
        "login": "MarcoFalke",
        "id": 6399679,
        "node_id": "MDQ6VXNlcjYzOTk2Nzk=",
        "avatar_url": "https://avatars.githubusercontent.com/u/6399679?v=4",
        "gravatar_id": "",
        "url": "https://api.github.com/users/MarcoFalke",
        "html_url": "https://github.com/MarcoFalke",
        "followers_url": "https://api.github.com/users/MarcoFalke/followers",
        "following_url": "https://api.github.com/users/MarcoFalke/following%7B/other_user%7D",
        "gists_url": "https://api.github.com/users/MarcoFalke/gists%7B/gist_id%7D",
        "starred_url": "https://api.github.com/users/MarcoFalke/starred%7B/owner%7D%7B/repo%7D",
        "subscriptions_url": "https://api.github.com/users/MarcoFalke/subscriptions",
        "organizations_url": "https://api.github.com/users/MarcoFalke/orgs",
        "repos_url": "https://api.github.com/users/MarcoFalke/repos",
        "events_url": "https://api.github.com/users/MarcoFalke/events%7B/privacy%7D",
        "received_events_url": "https://api.github.com/users/MarcoFalke/received_events",
        "type": "User",
        "site_admin": false
      },
      "commit_id": "cac29f5cd66f005ce65edd697990d495a904a1f1",
      "commit_url": "https://api.github.com/repos/bitcoin/bitcoin/commits/cac29f5cd66f005ce65edd697990d495a904a1f1",
      "created_at": "2022-12-03T11:30:31Z"
    },
    {
      "event": "closed",
      "id": 7946050380,
      "node_id": "CE_lADOABII585XuoLKzwAAAAHZnxtM",
      "url": "https://api.github.com/repos/bitcoin/bitcoin/issues/events/7946050380",
      "actor": {
        "login": "MarcoFalke",
        "id": 6399679,
        "node_id": "MDQ6VXNlcjYzOTk2Nzk=",
        "avatar_url": "https://avatars.githubusercontent.com/u/6399679?v=4",
        "gravatar_id": "",
        "url": "https://api.github.com/users/MarcoFalke",
        "html_url": "https://github.com/MarcoFalke",
        "followers_url": "https://api.github.com/users/MarcoFalke/followers",
        "following_url": "https://api.github.com/users/MarcoFalke/following%7B/other_user%7D",
        "gists_url": "https://api.github.com/users/MarcoFalke/gists%7B/gist_id%7D",
        "starred_url": "https://api.github.com/users/MarcoFalke/starred%7B/owner%7D%7B/repo%7D",
        "subscriptions_url": "https://api.github.com/users/MarcoFalke/subscriptions",
        "organizations_url": "https://api.github.com/users/MarcoFalke/orgs",
        "repos_url": "https://api.github.com/users/MarcoFalke/repos",
        "events_url": "https://api.github.com/users/MarcoFalke/events%7B/privacy%7D",
        "received_events_url": "https://api.github.com/users/MarcoFalke/received_events",
        "type": "User",
        "site_admin": false
      },
      "commit_id": null,
      "commit_url": null,
      "created_at": "2022-12-03T11:30:31Z"
    },
    {
      "event": "referenced",
      "id": 7947264973,
      "node_id": "REFE_lADOABII585XuoLKzwAAAAHZsaPN",
      "url": "https://api.github.com/repos/bitcoin/bitcoin/issues/events/7947264973",
      "actor": {
        "login": "sidhujag",
        "id": 6238042,
        "node_id": "MDQ6VXNlcjYyMzgwNDI=",
        "avatar_url": "https://avatars.githubusercontent.com/u/6238042?v=4",
        "gravatar_id": "",
        "url": "https://api.github.com/users/sidhujag",
        "html_url": "https://github.com/sidhujag",
        "followers_url": "https://api.github.com/users/sidhujag/followers",
        "following_url": "https://api.github.com/users/sidhujag/following%7B/other_user%7D",
        "gists_url": "https://api.github.com/users/sidhujag/gists%7B/gist_id%7D",
        "starred_url": "https://api.github.com/users/sidhujag/starred%7B/owner%7D%7B/repo%7D",
        "subscriptions_url": "https://api.github.com/users/sidhujag/subscriptions",
        "organizations_url": "https://api.github.com/users/sidhujag/orgs",
        "repos_url": "https://api.github.com/users/sidhujag/repos",
        "events_url": "https://api.github.com/users/sidhujag/events%7B/privacy%7D",
        "received_events_url": "https://api.github.com/users/sidhujag/received_events",
        "type": "User",
        "site_admin": false
      },
      "commit_id": "5ec826c869d398cf7e5635bb8bd01da75277dac4",
      "commit_url": "https://api.github.com/repos/syscoin/syscoin/commits/5ec826c869d398cf7e5635bb8bd01da75277dac4",
      "created_at": "2022-12-04T00:33:14Z"
    },
    {
      "event": "head_ref_deleted",
      "id": 8210566686,
      "node_id": "HRDE_lADOABII585XuoLKzwAAAAHpY04e",
      "url": "https://api.github.com/repos/bitcoin/bitcoin/issues/events/8210566686",
      "actor": {
        "login": "aureleoules",
        "id": 22493292,
        "node_id": "MDQ6VXNlcjIyNDkzMjky",
        "avatar_url": "https://avatars.githubusercontent.com/u/22493292?v=4",
        "gravatar_id": "",
        "url": "https://api.github.com/users/aureleoules",
        "html_url": "https://github.com/aureleoules",
        "followers_url": "https://api.github.com/users/aureleoules/followers",
        "following_url": "https://api.github.com/users/aureleoules/following%7B/other_user%7D",
        "gists_url": "https://api.github.com/users/aureleoules/gists%7B/gist_id%7D",
        "starred_url": "https://api.github.com/users/aureleoules/starred%7B/owner%7D%7B/repo%7D",
        "subscriptions_url": "https://api.github.com/users/aureleoules/subscriptions",
        "organizations_url": "https://api.github.com/users/aureleoules/orgs",
        "repos_url": "https://api.github.com/users/aureleoules/repos",
        "events_url": "https://api.github.com/users/aureleoules/events%7B/privacy%7D",
        "received_events_url": "https://api.github.com/users/aureleoules/received_events",
        "type": "User",
        "site_admin": false
      },
      "commit_id": null,
      "commit_url": null,
      "created_at": "2023-01-12T11:51:43Z"
    }
  ],
  "comments": [
    {
      "url": "https://api.github.com/repos/bitcoin/bitcoin/pulls/comments/1038028770",
      "pull_request_review_id": 1202330289,
      "id": 1038028770,
      "node_id": "PRRC_kwDOABII58493w_i",
      "diff_hunk": "@@ -325,6 +330,7 @@ def sendall_fails_with_transaction_too_large(self):\n                 self.wallet.sendall,\n                 recipients=[self.remainder_target])\n \n+",
      "path": "test/functional/wallet_sendall.py",
      "position": null,
      "original_position": 16,
      "commit_id": "cb44c5923a7c0ba15400d2b420faedd39cdce128",
      "original_commit_id": "705a03cdc7a6e0feee24a0522162c53cc9b9ff00",
      "in_reply_to_id": null,
      "user": {
        "login": "stickies-v",
        "id": 69010457,
        "node_id": "MDQ6VXNlcjY5MDEwNDU3",
        "avatar_url": "https://avatars.githubusercontent.com/u/69010457?v=4",
        "gravatar_id": "",
        "url": "https://api.github.com/users/stickies-v",
        "html_url": "https://github.com/stickies-v",
        "followers_url": "https://api.github.com/users/stickies-v/followers",
        "following_url": "https://api.github.com/users/stickies-v/following%7B/other_user%7D",
        "gists_url": "https://api.github.com/users/stickies-v/gists%7B/gist_id%7D",
        "starred_url": "https://api.github.com/users/stickies-v/starred%7B/owner%7D%7B/repo%7D",
        "subscriptions_url": "https://api.github.com/users/stickies-v/subscriptions",
        "organizations_url": "https://api.github.com/users/stickies-v/orgs",
        "repos_url": "https://api.github.com/users/stickies-v/repos",
        "events_url": "https://api.github.com/users/stickies-v/events%7B/privacy%7D",
        "received_events_url": "https://api.github.com/users/stickies-v/received_events",
        "type": "User",
        "site_admin": false
      },
      "body": "nit: this newline is not in line with PEP8",
      "created_at": "2022-12-02T10:59:55Z",
      "updated_at": "2022-12-02T11:01:54Z",
      "html_url": "https://github.com/bitcoin/bitcoin/pull/26622#discussion_r1038028770",
      "author_association": "CONTRIBUTOR",
      "_links": {
        "self": {
          "href": "https://api.github.com/repos/bitcoin/bitcoin/pulls/comments/1038028770"
        },
        "pull_request": {
          "href": "https://api.github.com/repos/bitcoin/bitcoin/pulls/26622"
        }
      },
      "start_line": null,
      "original_start_line": null,
      "start_side": null,
      "line": null,
      "original_line": 333,
      "side": "RIGHT"
    },
    {
      "url": "https://api.github.com/repos/bitcoin/bitcoin/pulls/comments/1038029165",
      "pull_request_review_id": 1202330289,
      "id": 1038029165,
      "node_id": "PRRC_kwDOABII58493xFt",
      "diff_hunk": "@@ -379,6 +385,9 @@ def run_test(self):\n         # Sendall succeeds with watchonly wallets spending specific UTXOs\n         self.sendall_watchonly_specific_inputs()\n \n+        # Sendall fails when fee rate is lower than minimum\n+        self.sendall_fails_on_low_fee()",
      "path": "test/functional/wallet_sendall.py",
      "position": 18,
      "original_position": 25,
      "commit_id": "cb44c5923a7c0ba15400d2b420faedd39cdce128",
      "original_commit_id": "705a03cdc7a6e0feee24a0522162c53cc9b9ff00",
      "in_reply_to_id": null,
      "user": {
        "login": "stickies-v",
        "id": 69010457,
        "node_id": "MDQ6VXNlcjY5MDEwNDU3",
        "avatar_url": "https://avatars.githubusercontent.com/u/69010457?v=4",
        "gravatar_id": "",
        "url": "https://api.github.com/users/stickies-v",
        "html_url": "https://github.com/stickies-v",
        "followers_url": "https://api.github.com/users/stickies-v/followers",
        "following_url": "https://api.github.com/users/stickies-v/following%7B/other_user%7D",
        "gists_url": "https://api.github.com/users/stickies-v/gists%7B/gist_id%7D",
        "starred_url": "https://api.github.com/users/stickies-v/starred%7B/owner%7D%7B/repo%7D",
        "subscriptions_url": "https://api.github.com/users/stickies-v/subscriptions",
        "organizations_url": "https://api.github.com/users/stickies-v/orgs",
        "repos_url": "https://api.github.com/users/stickies-v/repos",
        "events_url": "https://api.github.com/users/stickies-v/events%7B/privacy%7D",
        "received_events_url": "https://api.github.com/users/stickies-v/received_events",
        "type": "User",
        "site_admin": false
      },
      "body": "nit: would be more logical to put this right before/after the high fees test?",
      "created_at": "2022-12-02T11:00:24Z",
      "updated_at": "2022-12-02T11:01:54Z",
      "html_url": "https://github.com/bitcoin/bitcoin/pull/26622#discussion_r1038029165",
      "author_association": "CONTRIBUTOR",
      "_links": {
        "self": {
          "href": "https://api.github.com/repos/bitcoin/bitcoin/pulls/comments/1038029165"
        },
        "pull_request": {
          "href": "https://api.github.com/repos/bitcoin/bitcoin/pulls/26622"
        }
      },
      "start_line": null,
      "original_start_line": null,
      "start_side": null,
      "line": 386,
      "original_line": 386,
      "side": "RIGHT"
    },
    {
      "url": "https://api.github.com/repos/bitcoin/bitcoin/pulls/comments/1038029457",
      "pull_request_review_id": 1202330289,
      "id": 1038029457,
      "node_id": "PRRC_kwDOABII58493xKR",
      "diff_hunk": "@@ -311,6 +311,11 @@ def sendall_watchonly_specific_inputs(self):\n         assert_equal(decoded[\"tx\"][\"vin\"][0][\"vout\"], utxo[\"vout\"])\n         assert_equal(decoded[\"tx\"][\"vout\"][0][\"scriptPubKey\"][\"address\"], self.remainder_target)\n \n+    @cleanup\n+    def sendall_fails_on_low_fee(self):\n+        assert_raises_rpc_error(-8, \"Fee rate (0.999 sat/vB) is lower than the minimum fee rate setting (1.000 sat/vB)\",",
      "path": "test/functional/wallet_sendall.py",
      "position": null,
      "original_position": 6,
      "commit_id": "cb44c5923a7c0ba15400d2b420faedd39cdce128",
      "original_commit_id": "705a03cdc7a6e0feee24a0522162c53cc9b9ff00",
      "in_reply_to_id": null,
      "user": {
        "login": "stickies-v",
        "id": 69010457,
        "node_id": "MDQ6VXNlcjY5MDEwNDU3",
        "avatar_url": "https://avatars.githubusercontent.com/u/69010457?v=4",
        "gravatar_id": "",
        "url": "https://api.github.com/users/stickies-v",
        "html_url": "https://github.com/stickies-v",
        "followers_url": "https://api.github.com/users/stickies-v/followers",
        "following_url": "https://api.github.com/users/stickies-v/following%7B/other_user%7D",
        "gists_url": "https://api.github.com/users/stickies-v/gists%7B/gist_id%7D",
        "starred_url": "https://api.github.com/users/stickies-v/starred%7B/owner%7D%7B/repo%7D",
        "subscriptions_url": "https://api.github.com/users/stickies-v/subscriptions",
        "organizations_url": "https://api.github.com/users/stickies-v/orgs",
        "repos_url": "https://api.github.com/users/stickies-v/repos",
        "events_url": "https://api.github.com/users/stickies-v/events%7B/privacy%7D",
        "received_events_url": "https://api.github.com/users/stickies-v/received_events",
        "type": "User",
        "site_admin": false
      },
      "body": "every other test starts with a `self.log.info`, probably best to be consistent?",
      "created_at": "2022-12-02T11:00:51Z",
      "updated_at": "2022-12-02T11:01:54Z",
      "html_url": "https://github.com/bitcoin/bitcoin/pull/26622#discussion_r1038029457",
      "author_association": "CONTRIBUTOR",
      "_links": {
        "self": {
          "href": "https://api.github.com/repos/bitcoin/bitcoin/pulls/comments/1038029457"
        },
        "pull_request": {
          "href": "https://api.github.com/repos/bitcoin/bitcoin/pulls/26622"
        }
      },
      "start_line": null,
      "original_start_line": null,
      "start_side": null,
      "line": null,
      "original_line": 316,
      "side": "RIGHT"
    },
    {
      "url": "https://api.github.com/repos/bitcoin/bitcoin/pulls/comments/1038074999",
      "pull_request_review_id": 1202397292,
      "id": 1038074999,
      "node_id": "PRRC_kwDOABII584938R3",
      "diff_hunk": "@@ -325,6 +330,7 @@ def sendall_fails_with_transaction_too_large(self):\n                 self.wallet.sendall,\n                 recipients=[self.remainder_target])\n \n+",
      "path": "test/functional/wallet_sendall.py",
      "position": null,
      "original_position": 16,
      "commit_id": "cb44c5923a7c0ba15400d2b420faedd39cdce128",
      "original_commit_id": "705a03cdc7a6e0feee24a0522162c53cc9b9ff00",
      "in_reply_to_id": 1038028770,
      "user": {
        "login": "aureleoules",
        "id": 22493292,
        "node_id": "MDQ6VXNlcjIyNDkzMjky",
        "avatar_url": "https://avatars.githubusercontent.com/u/22493292?v=4",
        "gravatar_id": "",
        "url": "https://api.github.com/users/aureleoules",
        "html_url": "https://github.com/aureleoules",
        "followers_url": "https://api.github.com/users/aureleoules/followers",
        "following_url": "https://api.github.com/users/aureleoules/following%7B/other_user%7D",
        "gists_url": "https://api.github.com/users/aureleoules/gists%7B/gist_id%7D",
        "starred_url": "https://api.github.com/users/aureleoules/starred%7B/owner%7D%7B/repo%7D",
        "subscriptions_url": "https://api.github.com/users/aureleoules/subscriptions",
        "organizations_url": "https://api.github.com/users/aureleoules/orgs",
        "repos_url": "https://api.github.com/users/aureleoules/repos",
        "events_url": "https://api.github.com/users/aureleoules/events%7B/privacy%7D",
        "received_events_url": "https://api.github.com/users/aureleoules/received_events",
        "type": "User",
        "site_admin": false
      },
      "body": "Whoops missed this thanks",
      "created_at": "2022-12-02T11:59:57Z",
      "updated_at": "2022-12-02T11:59:57Z",
      "html_url": "https://github.com/bitcoin/bitcoin/pull/26622#discussion_r1038074999",
      "author_association": "MEMBER",
      "_links": {
        "self": {
          "href": "https://api.github.com/repos/bitcoin/bitcoin/pulls/comments/1038074999"
        },
        "pull_request": {
          "href": "https://api.github.com/repos/bitcoin/bitcoin/pulls/26622"
        }
      },
      "start_line": null,
      "original_start_line": null,
      "start_side": null,
      "line": null,
      "original_line": 333,
      "side": "RIGHT"
    },
    {
      "url": "https://api.github.com/repos/bitcoin/bitcoin/pulls/comments/1038085172",
      "pull_request_review_id": 1202412751,
      "id": 1038085172,
      "node_id": "PRRC_kwDOABII58493-w0",
      "diff_hunk": "@@ -284,6 +284,12 @@ def sendall_fails_on_high_fee(self):\n                 recipients=[self.remainder_target],\n                 fee_rate=100000)\n \n+    @cleanup\n+    def sendall_fails_on_low_fee(self):\n+        self.log.info(\"Test sendall fails if the transaction fee is too low\")",
      "path": "test/functional/wallet_sendall.py",
      "position": null,
      "original_position": 6,
      "commit_id": "cb44c5923a7c0ba15400d2b420faedd39cdce128",
      "original_commit_id": "1bfa0de5f44316ebe9d19a8aea7bcf46211ced99",
      "in_reply_to_id": null,
      "user": {
        "login": "stickies-v",
        "id": 69010457,
        "node_id": "MDQ6VXNlcjY5MDEwNDU3",
        "avatar_url": "https://avatars.githubusercontent.com/u/69010457?v=4",
        "gravatar_id": "",
        "url": "https://api.github.com/users/stickies-v",
        "html_url": "https://github.com/stickies-v",
        "followers_url": "https://api.github.com/users/stickies-v/followers",
        "following_url": "https://api.github.com/users/stickies-v/following%7B/other_user%7D",
        "gists_url": "https://api.github.com/users/stickies-v/gists%7B/gist_id%7D",
        "starred_url": "https://api.github.com/users/stickies-v/starred%7B/owner%7D%7B/repo%7D",
        "subscriptions_url": "https://api.github.com/users/stickies-v/subscriptions",
        "organizations_url": "https://api.github.com/users/stickies-v/orgs",
        "repos_url": "https://api.github.com/users/stickies-v/repos",
        "events_url": "https://api.github.com/users/stickies-v/events%7B/privacy%7D",
        "received_events_url": "https://api.github.com/users/stickies-v/received_events",
        "type": "User",
        "site_admin": false
      },
      "body": "nit: would prefer to be precise\r\n```suggestion\r\n        self.log.info(\"Test sendall fails if the transaction fee is lower than the minimum fee rate setting\")\r\n```",
      "created_at": "2022-12-02T12:13:39Z",
      "updated_at": "2022-12-02T12:26:16Z",
      "html_url": "https://github.com/bitcoin/bitcoin/pull/26622#discussion_r1038085172",
      "author_association": "CONTRIBUTOR",
      "_links": {
        "self": {
          "href": "https://api.github.com/repos/bitcoin/bitcoin/pulls/comments/1038085172"
        },
        "pull_request": {
          "href": "https://api.github.com/repos/bitcoin/bitcoin/pulls/26622"
        }
      },
      "start_line": null,
      "original_start_line": null,
      "start_side": null,
      "line": null,
      "original_line": 289,
      "side": "RIGHT"
    },
    {
      "url": "https://api.github.com/repos/bitcoin/bitcoin/pulls/comments/1038091028",
      "pull_request_review_id": 1202412751,
      "id": 1038091028,
      "node_id": "PRRC_kwDOABII58494AMU",
      "diff_hunk": "@@ -284,6 +284,12 @@ def sendall_fails_on_high_fee(self):\n                 recipients=[self.remainder_target],\n                 fee_rate=100000)\n \n+    @cleanup\n+    def sendall_fails_on_low_fee(self):\n+        self.log.info(\"Test sendall fails if the transaction fee is too low\")\n+        assert_raises_rpc_error(-8, \"Fee rate (0.999 sat/vB) is lower than the minimum fee rate setting (1.000 sat/vB)\",\n+        self.wallet.sendall, recipients=[self.recipient], options={\"fee_rate\": 0.999})",
      "path": "test/functional/wallet_sendall.py",
      "position": null,
      "original_position": 8,
      "commit_id": "cb44c5923a7c0ba15400d2b420faedd39cdce128",
      "original_commit_id": "1bfa0de5f44316ebe9d19a8aea7bcf46211ced99",
      "in_reply_to_id": null,
      "user": {
        "login": "stickies-v",
        "id": 69010457,
        "node_id": "MDQ6VXNlcjY5MDEwNDU3",
        "avatar_url": "https://avatars.githubusercontent.com/u/69010457?v=4",
        "gravatar_id": "",
        "url": "https://api.github.com/users/stickies-v",
        "html_url": "https://github.com/stickies-v",
        "followers_url": "https://api.github.com/users/stickies-v/followers",
        "following_url": "https://api.github.com/users/stickies-v/following%7B/other_user%7D",
        "gists_url": "https://api.github.com/users/stickies-v/gists%7B/gist_id%7D",
        "starred_url": "https://api.github.com/users/stickies-v/starred%7B/owner%7D%7B/repo%7D",
        "subscriptions_url": "https://api.github.com/users/stickies-v/subscriptions",
        "organizations_url": "https://api.github.com/users/stickies-v/orgs",
        "repos_url": "https://api.github.com/users/stickies-v/repos",
        "events_url": "https://api.github.com/users/stickies-v/events%7B/privacy%7D",
        "received_events_url": "https://api.github.com/users/stickies-v/received_events",
        "type": "User",
        "site_admin": false
      },
      "body": "nit: `fee_rate` is also defined as a regular argument, so no need to use `options`\r\n```suggestion\r\n        self.wallet.sendall, recipients=[self.recipient], fee_rate=0.999)\r\n```",
      "created_at": "2022-12-02T12:21:36Z",
      "updated_at": "2022-12-02T12:26:16Z",
      "html_url": "https://github.com/bitcoin/bitcoin/pull/26622#discussion_r1038091028",
      "author_association": "CONTRIBUTOR",
      "_links": {
        "self": {
          "href": "https://api.github.com/repos/bitcoin/bitcoin/pulls/comments/1038091028"
        },
        "pull_request": {
          "href": "https://api.github.com/repos/bitcoin/bitcoin/pulls/26622"
        }
      },
      "start_line": null,
      "original_start_line": null,
      "start_side": null,
      "line": null,
      "original_line": 291,
      "side": "RIGHT"
    },
    {
      "url": "https://api.github.com/repos/bitcoin/bitcoin/pulls/comments/1038098116",
      "pull_request_review_id": 1202432295,
      "id": 1038098116,
      "node_id": "PRRC_kwDOABII58494B7E",
      "diff_hunk": "@@ -284,6 +284,12 @@ def sendall_fails_on_high_fee(self):\n                 recipients=[self.remainder_target],\n                 fee_rate=100000)\n \n+    @cleanup\n+    def sendall_fails_on_low_fee(self):\n+        self.log.info(\"Test sendall fails if the transaction fee is too low\")",
      "path": "test/functional/wallet_sendall.py",
      "position": null,
      "original_position": 6,
      "commit_id": "cb44c5923a7c0ba15400d2b420faedd39cdce128",
      "original_commit_id": "1bfa0de5f44316ebe9d19a8aea7bcf46211ced99",
      "in_reply_to_id": 1038085172,
      "user": {
        "login": "aureleoules",
        "id": 22493292,
        "node_id": "MDQ6VXNlcjIyNDkzMjky",
        "avatar_url": "https://avatars.githubusercontent.com/u/22493292?v=4",
        "gravatar_id": "",
        "url": "https://api.github.com/users/aureleoules",
        "html_url": "https://github.com/aureleoules",
        "followers_url": "https://api.github.com/users/aureleoules/followers",
        "following_url": "https://api.github.com/users/aureleoules/following%7B/other_user%7D",
        "gists_url": "https://api.github.com/users/aureleoules/gists%7B/gist_id%7D",
        "starred_url": "https://api.github.com/users/aureleoules/starred%7B/owner%7D%7B/repo%7D",
        "subscriptions_url": "https://api.github.com/users/aureleoules/subscriptions",
        "organizations_url": "https://api.github.com/users/aureleoules/orgs",
        "repos_url": "https://api.github.com/users/aureleoules/repos",
        "events_url": "https://api.github.com/users/aureleoules/events%7B/privacy%7D",
        "received_events_url": "https://api.github.com/users/aureleoules/received_events",
        "type": "User",
        "site_admin": false
      },
      "body": "Done",
      "created_at": "2022-12-02T12:30:51Z",
      "updated_at": "2022-12-02T12:30:52Z",
      "html_url": "https://github.com/bitcoin/bitcoin/pull/26622#discussion_r1038098116",
      "author_association": "MEMBER",
      "_links": {
        "self": {
          "href": "https://api.github.com/repos/bitcoin/bitcoin/pulls/comments/1038098116"
        },
        "pull_request": {
          "href": "https://api.github.com/repos/bitcoin/bitcoin/pulls/26622"
        }
      },
      "start_line": null,
      "original_start_line": null,
      "start_side": null,
      "line": null,
      "original_line": 289,
      "side": "RIGHT"
    },
    {
      "url": "https://api.github.com/repos/bitcoin/bitcoin/pulls/comments/1038098136",
      "pull_request_review_id": 1202432308,
      "id": 1038098136,
      "node_id": "PRRC_kwDOABII58494B7Y",
      "diff_hunk": "@@ -284,6 +284,12 @@ def sendall_fails_on_high_fee(self):\n                 recipients=[self.remainder_target],\n                 fee_rate=100000)\n \n+    @cleanup\n+    def sendall_fails_on_low_fee(self):\n+        self.log.info(\"Test sendall fails if the transaction fee is too low\")\n+        assert_raises_rpc_error(-8, \"Fee rate (0.999 sat/vB) is lower than the minimum fee rate setting (1.000 sat/vB)\",\n+        self.wallet.sendall, recipients=[self.recipient], options={\"fee_rate\": 0.999})",
      "path": "test/functional/wallet_sendall.py",
      "position": null,
      "original_position": 8,
      "commit_id": "cb44c5923a7c0ba15400d2b420faedd39cdce128",
      "original_commit_id": "1bfa0de5f44316ebe9d19a8aea7bcf46211ced99",
      "in_reply_to_id": 1038091028,
      "user": {
        "login": "aureleoules",
        "id": 22493292,
        "node_id": "MDQ6VXNlcjIyNDkzMjky",
        "avatar_url": "https://avatars.githubusercontent.com/u/22493292?v=4",
        "gravatar_id": "",
        "url": "https://api.github.com/users/aureleoules",
        "html_url": "https://github.com/aureleoules",
        "followers_url": "https://api.github.com/users/aureleoules/followers",
        "following_url": "https://api.github.com/users/aureleoules/following%7B/other_user%7D",
        "gists_url": "https://api.github.com/users/aureleoules/gists%7B/gist_id%7D",
        "starred_url": "https://api.github.com/users/aureleoules/starred%7B/owner%7D%7B/repo%7D",
        "subscriptions_url": "https://api.github.com/users/aureleoules/subscriptions",
        "organizations_url": "https://api.github.com/users/aureleoules/orgs",
        "repos_url": "https://api.github.com/users/aureleoules/repos",
        "events_url": "https://api.github.com/users/aureleoules/events%7B/privacy%7D",
        "received_events_url": "https://api.github.com/users/aureleoules/received_events",
        "type": "User",
        "site_admin": false
      },
      "body": "Done",
      "created_at": "2022-12-02T12:30:52Z",
      "updated_at": "2022-12-02T12:30:53Z",
      "html_url": "https://github.com/bitcoin/bitcoin/pull/26622#discussion_r1038098136",
      "author_association": "MEMBER",
      "_links": {
        "self": {
          "href": "https://api.github.com/repos/bitcoin/bitcoin/pulls/comments/1038098136"
        },
        "pull_request": {
          "href": "https://api.github.com/repos/bitcoin/bitcoin/pulls/26622"
        }
      },
      "start_line": null,
      "original_start_line": null,
      "start_side": null,
      "line": null,
      "original_line": 291,
      "side": "RIGHT"
    }
  ]
}