{
  "type": "pull",
  "pull": {
    "url": "https://api.github.com/repos/bitcoin/bitcoin/pulls/26638",
    "id": 1146134416,
    "node_id": "PR_kwDOABII585EUJ-Q",
    "html_url": "https://github.com/bitcoin/bitcoin/pull/26638",
    "diff_url": "https://github.com/bitcoin/bitcoin/pull/26638.diff",
    "patch_url": "https://github.com/bitcoin/bitcoin/pull/26638.patch",
    "issue_url": "https://api.github.com/repos/bitcoin/bitcoin/issues/26638",
    "commits_url": "https://api.github.com/repos/bitcoin/bitcoin/pulls/26638/commits",
    "review_comments_url": "https://api.github.com/repos/bitcoin/bitcoin/pulls/26638/comments",
    "review_comment_url": "https://api.github.com/repos/bitcoin/bitcoin/pulls/comments%7B/number%7D",
    "comments_url": "https://api.github.com/repos/bitcoin/bitcoin/issues/26638/comments",
    "statuses_url": "https://api.github.com/repos/bitcoin/bitcoin/statuses/17554efb6095f6ec273e52568efe1678253cb7c0",
    "number": 26638,
    "state": "closed",
    "locked": false,
    "maintainer_can_modify": false,
    "title": "test: prefer sqlite for wallet tests",
    "user": {
      "login": "S3RK",
      "id": 1466284,
      "node_id": "MDQ6VXNlcjE0NjYyODQ=",
      "avatar_url": "https://avatars.githubusercontent.com/u/1466284?v=4",
      "gravatar_id": "",
      "url": "https://api.github.com/users/S3RK",
      "html_url": "https://github.com/S3RK",
      "followers_url": "https://api.github.com/users/S3RK/followers",
      "following_url": "https://api.github.com/users/S3RK/following%7B/other_user%7D",
      "gists_url": "https://api.github.com/users/S3RK/gists%7B/gist_id%7D",
      "starred_url": "https://api.github.com/users/S3RK/starred%7B/owner%7D%7B/repo%7D",
      "subscriptions_url": "https://api.github.com/users/S3RK/subscriptions",
      "organizations_url": "https://api.github.com/users/S3RK/orgs",
      "repos_url": "https://api.github.com/users/S3RK/repos",
      "events_url": "https://api.github.com/users/S3RK/events%7B/privacy%7D",
      "received_events_url": "https://api.github.com/users/S3RK/received_events",
      "type": "User",
      "site_admin": false
    },
    "body": "Fixes #26511",
    "labels": [
      {
        "id": 62963516,
        "node_id": "MDU6TGFiZWw2Mjk2MzUxNg==",
        "url": "https://api.github.com/repos/bitcoin/bitcoin/labels/Tests",
        "name": "Tests",
        "color": "d4c5f9",
        "default": false
      },
      {
        "id": 955867938,
        "node_id": "MDU6TGFiZWw5NTU4Njc5Mzg=",
        "url": "https://api.github.com/repos/bitcoin/bitcoin/labels/Needs%20rebase",
        "name": "Needs rebase",
        "description": "",
        "color": "cccccc",
        "default": false
      }
    ],
    "created_at": "2022-12-05T08:56:08Z",
    "updated_at": "2022-12-20T23:35:13Z",
    "closed_at": "2022-12-20T23:35:12Z",
    "mergeable": false,
    "mergeable_state": "dirty",
    "merge_commit_sha": "49c8137bf4bd071794914a1b5f092e758dbbc3e3",
    "assignees": [],
    "requested_reviewers": [
      {
        "login": "achow101",
        "id": 3782274,
        "node_id": "MDQ6VXNlcjM3ODIyNzQ=",
        "avatar_url": "https://avatars.githubusercontent.com/u/3782274?v=4",
        "gravatar_id": "",
        "url": "https://api.github.com/users/achow101",
        "html_url": "https://github.com/achow101",
        "followers_url": "https://api.github.com/users/achow101/followers",
        "following_url": "https://api.github.com/users/achow101/following%7B/other_user%7D",
        "gists_url": "https://api.github.com/users/achow101/gists%7B/gist_id%7D",
        "starred_url": "https://api.github.com/users/achow101/starred%7B/owner%7D%7B/repo%7D",
        "subscriptions_url": "https://api.github.com/users/achow101/subscriptions",
        "organizations_url": "https://api.github.com/users/achow101/orgs",
        "repos_url": "https://api.github.com/users/achow101/repos",
        "events_url": "https://api.github.com/users/achow101/events%7B/privacy%7D",
        "received_events_url": "https://api.github.com/users/achow101/received_events",
        "type": "User",
        "site_admin": false
      }
    ],
    "requested_teams": [],
    "rebaseable": false,
    "head": {
      "label": "S3RK:wallet_test_prefer_sqlite",
      "ref": "wallet_test_prefer_sqlite",
      "sha": "17554efb6095f6ec273e52568efe1678253cb7c0",
      "user": {
        "login": "S3RK",
        "id": 1466284,
        "node_id": "MDQ6VXNlcjE0NjYyODQ=",
        "avatar_url": "https://avatars.githubusercontent.com/u/1466284?v=4",
        "gravatar_id": "",
        "url": "https://api.github.com/users/S3RK",
        "html_url": "https://github.com/S3RK",
        "followers_url": "https://api.github.com/users/S3RK/followers",
        "following_url": "https://api.github.com/users/S3RK/following%7B/other_user%7D",
        "gists_url": "https://api.github.com/users/S3RK/gists%7B/gist_id%7D",
        "starred_url": "https://api.github.com/users/S3RK/starred%7B/owner%7D%7B/repo%7D",
        "subscriptions_url": "https://api.github.com/users/S3RK/subscriptions",
        "organizations_url": "https://api.github.com/users/S3RK/orgs",
        "repos_url": "https://api.github.com/users/S3RK/repos",
        "events_url": "https://api.github.com/users/S3RK/events%7B/privacy%7D",
        "received_events_url": "https://api.github.com/users/S3RK/received_events",
        "type": "User",
        "site_admin": false
      },
      "repo": {
        "id": 268426115,
        "node_id": "MDEwOlJlcG9zaXRvcnkyNjg0MjYxMTU=",
        "name": "bitcoin",
        "full_name": "S3RK/bitcoin",
        "owner": {
          "login": "S3RK",
          "id": 1466284,
          "node_id": "MDQ6VXNlcjE0NjYyODQ=",
          "avatar_url": "https://avatars.githubusercontent.com/u/1466284?v=4",
          "gravatar_id": "",
          "url": "https://api.github.com/users/S3RK",
          "html_url": "https://github.com/S3RK",
          "followers_url": "https://api.github.com/users/S3RK/followers",
          "following_url": "https://api.github.com/users/S3RK/following%7B/other_user%7D",
          "gists_url": "https://api.github.com/users/S3RK/gists%7B/gist_id%7D",
          "starred_url": "https://api.github.com/users/S3RK/starred%7B/owner%7D%7B/repo%7D",
          "subscriptions_url": "https://api.github.com/users/S3RK/subscriptions",
          "organizations_url": "https://api.github.com/users/S3RK/orgs",
          "repos_url": "https://api.github.com/users/S3RK/repos",
          "events_url": "https://api.github.com/users/S3RK/events%7B/privacy%7D",
          "received_events_url": "https://api.github.com/users/S3RK/received_events",
          "type": "User",
          "site_admin": false
        },
        "private": false,
        "html_url": "https://github.com/S3RK/bitcoin",
        "description": "Bitcoin Core integration/staging tree",
        "fork": true,
        "url": "https://api.github.com/repos/S3RK/bitcoin",
        "archive_url": "https://api.github.com/repos/S3RK/bitcoin/%7Barchive_format%7D%7B/ref%7D",
        "assignees_url": "https://api.github.com/repos/S3RK/bitcoin/assignees%7B/user%7D",
        "blobs_url": "https://api.github.com/repos/S3RK/bitcoin/git/blobs%7B/sha%7D",
        "branches_url": "https://api.github.com/repos/S3RK/bitcoin/branches%7B/branch%7D",
        "collaborators_url": "https://api.github.com/repos/S3RK/bitcoin/collaborators%7B/collaborator%7D",
        "comments_url": "https://api.github.com/repos/S3RK/bitcoin/comments%7B/number%7D",
        "commits_url": "https://api.github.com/repos/S3RK/bitcoin/commits%7B/sha%7D",
        "compare_url": "https://api.github.com/repos/S3RK/bitcoin/compare/%7Bbase%7D...%7Bhead%7D",
        "contents_url": "https://api.github.com/repos/S3RK/bitcoin/contents/%7B+path%7D",
        "contributors_url": "https://api.github.com/repos/S3RK/bitcoin/contributors",
        "deployments_url": "https://api.github.com/repos/S3RK/bitcoin/deployments",
        "downloads_url": "https://api.github.com/repos/S3RK/bitcoin/downloads",
        "events_url": "https://api.github.com/repos/S3RK/bitcoin/events",
        "forks_url": "https://api.github.com/repos/S3RK/bitcoin/forks",
        "git_commits_url": "https://api.github.com/repos/S3RK/bitcoin/git/commits%7B/sha%7D",
        "git_refs_url": "https://api.github.com/repos/S3RK/bitcoin/git/refs%7B/sha%7D",
        "git_tags_url": "https://api.github.com/repos/S3RK/bitcoin/git/tags%7B/sha%7D",
        "git_url": "git://github.com/S3RK/bitcoin.git",
        "issue_comment_url": "https://api.github.com/repos/S3RK/bitcoin/issues/comments%7B/number%7D",
        "issue_events_url": "https://api.github.com/repos/S3RK/bitcoin/issues/events%7B/number%7D",
        "issues_url": "https://api.github.com/repos/S3RK/bitcoin/issues%7B/number%7D",
        "keys_url": "https://api.github.com/repos/S3RK/bitcoin/keys%7B/key_id%7D",
        "labels_url": "https://api.github.com/repos/S3RK/bitcoin/labels%7B/name%7D",
        "languages_url": "https://api.github.com/repos/S3RK/bitcoin/languages",
        "merges_url": "https://api.github.com/repos/S3RK/bitcoin/merges",
        "milestones_url": "https://api.github.com/repos/S3RK/bitcoin/milestones%7B/number%7D",
        "notifications_url": "https://api.github.com/repos/S3RK/bitcoin/notifications%7B?since,all,participating}",
        "pulls_url": "https://api.github.com/repos/S3RK/bitcoin/pulls%7B/number%7D",
        "releases_url": "https://api.github.com/repos/S3RK/bitcoin/releases%7B/id%7D",
        "ssh_url": "git@github.com:S3RK/bitcoin.git",
        "stargazers_url": "https://api.github.com/repos/S3RK/bitcoin/stargazers",
        "statuses_url": "https://api.github.com/repos/S3RK/bitcoin/statuses/%7Bsha%7D",
        "subscribers_url": "https://api.github.com/repos/S3RK/bitcoin/subscribers",
        "subscription_url": "https://api.github.com/repos/S3RK/bitcoin/subscription",
        "tags_url": "https://api.github.com/repos/S3RK/bitcoin/tags",
        "teams_url": "https://api.github.com/repos/S3RK/bitcoin/teams",
        "trees_url": "https://api.github.com/repos/S3RK/bitcoin/git/trees%7B/sha%7D",
        "clone_url": "https://github.com/S3RK/bitcoin.git",
        "hooks_url": "https://api.github.com/repos/S3RK/bitcoin/hooks",
        "svn_url": "https://github.com/S3RK/bitcoin",
        "homepage": "https://bitcoincore.org/en/download",
        "language": "C++",
        "forks_count": 0,
        "stargazers_count": 1,
        "watchers_count": 1,
        "size": 213012,
        "default_branch": "master",
        "open_issues_count": 0,
        "is_template": false,
        "topics": [],
        "has_issues": false,
        "has_projects": true,
        "has_wiki": false,
        "has_pages": false,
        "has_downloads": false,
        "archived": false,
        "disabled": false,
        "visibility": "public",
        "pushed_at": "2023-02-15T08:37:12Z",
        "created_at": "2020-06-01T04:37:33Z",
        "updated_at": "2022-11-28T07:47:20Z",
        "license": {
          "key": "mit",
          "name": "MIT License",
          "node_id": "MDc6TGljZW5zZTEz",
          "spdx_id": "MIT",
          "url": "https://api.github.com/licenses/mit",
          "html_url": null,
          "description": null,
          "implementation": null,
          "permissions": null,
          "conditions": null,
          "limitations": null,
          "body": null,
          "featured": null
        }
      }
    },
    "base": {
      "label": "bitcoin:master",
      "ref": "master",
      "sha": "5d9b5305af4aaf9d4903d9d2996c5eea613b51a1",
      "user": {
        "login": "bitcoin",
        "id": 528860,
        "node_id": "MDEyOk9yZ2FuaXphdGlvbjUyODg2MA==",
        "avatar_url": "https://avatars.githubusercontent.com/u/528860?v=4",
        "gravatar_id": "",
        "url": "https://api.github.com/users/bitcoin",
        "html_url": "https://github.com/bitcoin",
        "followers_url": "https://api.github.com/users/bitcoin/followers",
        "following_url": "https://api.github.com/users/bitcoin/following%7B/other_user%7D",
        "gists_url": "https://api.github.com/users/bitcoin/gists%7B/gist_id%7D",
        "starred_url": "https://api.github.com/users/bitcoin/starred%7B/owner%7D%7B/repo%7D",
        "subscriptions_url": "https://api.github.com/users/bitcoin/subscriptions",
        "organizations_url": "https://api.github.com/users/bitcoin/orgs",
        "repos_url": "https://api.github.com/users/bitcoin/repos",
        "events_url": "https://api.github.com/users/bitcoin/events%7B/privacy%7D",
        "received_events_url": "https://api.github.com/users/bitcoin/received_events",
        "type": "Organization",
        "site_admin": false
      },
      "repo": {
        "id": 1181927,
        "node_id": "MDEwOlJlcG9zaXRvcnkxMTgxOTI3",
        "name": "bitcoin",
        "full_name": "bitcoin/bitcoin",
        "owner": {
          "login": "bitcoin",
          "id": 528860,
          "node_id": "MDEyOk9yZ2FuaXphdGlvbjUyODg2MA==",
          "avatar_url": "https://avatars.githubusercontent.com/u/528860?v=4",
          "gravatar_id": "",
          "url": "https://api.github.com/users/bitcoin",
          "html_url": "https://github.com/bitcoin",
          "followers_url": "https://api.github.com/users/bitcoin/followers",
          "following_url": "https://api.github.com/users/bitcoin/following%7B/other_user%7D",
          "gists_url": "https://api.github.com/users/bitcoin/gists%7B/gist_id%7D",
          "starred_url": "https://api.github.com/users/bitcoin/starred%7B/owner%7D%7B/repo%7D",
          "subscriptions_url": "https://api.github.com/users/bitcoin/subscriptions",
          "organizations_url": "https://api.github.com/users/bitcoin/orgs",
          "repos_url": "https://api.github.com/users/bitcoin/repos",
          "events_url": "https://api.github.com/users/bitcoin/events%7B/privacy%7D",
          "received_events_url": "https://api.github.com/users/bitcoin/received_events",
          "type": "Organization",
          "site_admin": false
        },
        "private": false,
        "html_url": "https://github.com/bitcoin/bitcoin",
        "description": "Bitcoin Core integration/staging tree",
        "fork": false,
        "url": "https://api.github.com/repos/bitcoin/bitcoin",
        "archive_url": "https://api.github.com/repos/bitcoin/bitcoin/%7Barchive_format%7D%7B/ref%7D",
        "assignees_url": "https://api.github.com/repos/bitcoin/bitcoin/assignees%7B/user%7D",
        "blobs_url": "https://api.github.com/repos/bitcoin/bitcoin/git/blobs%7B/sha%7D",
        "branches_url": "https://api.github.com/repos/bitcoin/bitcoin/branches%7B/branch%7D",
        "collaborators_url": "https://api.github.com/repos/bitcoin/bitcoin/collaborators%7B/collaborator%7D",
        "comments_url": "https://api.github.com/repos/bitcoin/bitcoin/comments%7B/number%7D",
        "commits_url": "https://api.github.com/repos/bitcoin/bitcoin/commits%7B/sha%7D",
        "compare_url": "https://api.github.com/repos/bitcoin/bitcoin/compare/%7Bbase%7D...%7Bhead%7D",
        "contents_url": "https://api.github.com/repos/bitcoin/bitcoin/contents/%7B+path%7D",
        "contributors_url": "https://api.github.com/repos/bitcoin/bitcoin/contributors",
        "deployments_url": "https://api.github.com/repos/bitcoin/bitcoin/deployments",
        "downloads_url": "https://api.github.com/repos/bitcoin/bitcoin/downloads",
        "events_url": "https://api.github.com/repos/bitcoin/bitcoin/events",
        "forks_url": "https://api.github.com/repos/bitcoin/bitcoin/forks",
        "git_commits_url": "https://api.github.com/repos/bitcoin/bitcoin/git/commits%7B/sha%7D",
        "git_refs_url": "https://api.github.com/repos/bitcoin/bitcoin/git/refs%7B/sha%7D",
        "git_tags_url": "https://api.github.com/repos/bitcoin/bitcoin/git/tags%7B/sha%7D",
        "git_url": "git://github.com/bitcoin/bitcoin.git",
        "issue_comment_url": "https://api.github.com/repos/bitcoin/bitcoin/issues/comments%7B/number%7D",
        "issue_events_url": "https://api.github.com/repos/bitcoin/bitcoin/issues/events%7B/number%7D",
        "issues_url": "https://api.github.com/repos/bitcoin/bitcoin/issues%7B/number%7D",
        "keys_url": "https://api.github.com/repos/bitcoin/bitcoin/keys%7B/key_id%7D",
        "labels_url": "https://api.github.com/repos/bitcoin/bitcoin/labels%7B/name%7D",
        "languages_url": "https://api.github.com/repos/bitcoin/bitcoin/languages",
        "merges_url": "https://api.github.com/repos/bitcoin/bitcoin/merges",
        "milestones_url": "https://api.github.com/repos/bitcoin/bitcoin/milestones%7B/number%7D",
        "notifications_url": "https://api.github.com/repos/bitcoin/bitcoin/notifications%7B?since,all,participating}",
        "pulls_url": "https://api.github.com/repos/bitcoin/bitcoin/pulls%7B/number%7D",
        "releases_url": "https://api.github.com/repos/bitcoin/bitcoin/releases%7B/id%7D",
        "ssh_url": "git@github.com:bitcoin/bitcoin.git",
        "stargazers_url": "https://api.github.com/repos/bitcoin/bitcoin/stargazers",
        "statuses_url": "https://api.github.com/repos/bitcoin/bitcoin/statuses/%7Bsha%7D",
        "subscribers_url": "https://api.github.com/repos/bitcoin/bitcoin/subscribers",
        "subscription_url": "https://api.github.com/repos/bitcoin/bitcoin/subscription",
        "tags_url": "https://api.github.com/repos/bitcoin/bitcoin/tags",
        "teams_url": "https://api.github.com/repos/bitcoin/bitcoin/teams",
        "trees_url": "https://api.github.com/repos/bitcoin/bitcoin/git/trees%7B/sha%7D",
        "clone_url": "https://github.com/bitcoin/bitcoin.git",
        "hooks_url": "https://api.github.com/repos/bitcoin/bitcoin/hooks",
        "svn_url": "https://github.com/bitcoin/bitcoin",
        "homepage": "https://bitcoincore.org/en/download",
        "language": "C++",
        "forks_count": 35476,
        "stargazers_count": 70608,
        "watchers_count": 70608,
        "size": 236222,
        "default_branch": "master",
        "open_issues_count": 673,
        "is_template": false,
        "topics": [
          "bitcoin",
          "c-plus-plus",
          "cryptocurrency",
          "cryptography",
          "p2p"
        ],
        "has_issues": true,
        "has_projects": true,
        "has_wiki": false,
        "has_pages": false,
        "has_downloads": false,
        "archived": false,
        "disabled": false,
        "visibility": "public",
        "pushed_at": "2023-08-03T00:03:27Z",
        "created_at": "2010-12-19T15:16:43Z",
        "updated_at": "2023-08-02T18:21:18Z",
        "license": {
          "key": "mit",
          "name": "MIT License",
          "node_id": "MDc6TGljZW5zZTEz",
          "spdx_id": "MIT",
          "url": "https://api.github.com/licenses/mit",
          "html_url": null,
          "description": null,
          "implementation": null,
          "permissions": null,
          "conditions": null,
          "limitations": null,
          "body": null,
          "featured": null
        }
      }
    },
    "_links": {
      "self": {
        "href": "https://api.github.com/repos/bitcoin/bitcoin/pulls/26638"
      }
    },
    "author_association": "CONTRIBUTOR",
    "draft": false,
    "additions": 14,
    "deletions": 24,
    "changed_files": 2,
    "commits": 2,
    "review_comments": 0,
    "comments": 7
  },
  "events": [
    {
      "event": "commented",
      "id": 1336977713,
      "node_id": "IC_kwDOABII585PsKkx",
      "url": "https://api.github.com/repos/bitcoin/bitcoin/issues/comments/1336977713",
      "actor": {
        "login": "DrahtBot",
        "id": 39886733,
        "node_id": "MDQ6VXNlcjM5ODg2NzMz",
        "avatar_url": "https://avatars.githubusercontent.com/u/39886733?v=4",
        "gravatar_id": "",
        "url": "https://api.github.com/users/DrahtBot",
        "html_url": "https://github.com/DrahtBot",
        "followers_url": "https://api.github.com/users/DrahtBot/followers",
        "following_url": "https://api.github.com/users/DrahtBot/following%7B/other_user%7D",
        "gists_url": "https://api.github.com/users/DrahtBot/gists%7B/gist_id%7D",
        "starred_url": "https://api.github.com/users/DrahtBot/starred%7B/owner%7D%7B/repo%7D",
        "subscriptions_url": "https://api.github.com/users/DrahtBot/subscriptions",
        "organizations_url": "https://api.github.com/users/DrahtBot/orgs",
        "repos_url": "https://api.github.com/users/DrahtBot/repos",
        "events_url": "https://api.github.com/users/DrahtBot/events%7B/privacy%7D",
        "received_events_url": "https://api.github.com/users/DrahtBot/received_events",
        "type": "User",
        "site_admin": false
      },
      "commit_id": null,
      "commit_url": null,
      "created_at": "2022-12-05T08:56:10Z",
      "updated_at": "2022-12-20T23:05:46Z",
      "author_association": "CONTRIBUTOR",
      "body": "<!--e57a25ab6845829454e8d69fc972939a-->\n\nThe following sections might be updated with supplementary metadata relevant to reviewers and maintainers.\n\n<!--021abf342d371248e50ceaed478a90ca-->\n### Reviews\nSee [the guideline](https://github.com/bitcoin/bitcoin/blob/master/CONTRIBUTING.md#code-review) for information on the review process.\n| Type | Reviewers |\n| ---- | --------- |\n| ACK | [MarcoFalke](https://github.com/bitcoin/bitcoin/pull/26638#issuecomment-1338951985), [achow101](https://github.com/bitcoin/bitcoin/pull/26638#issuecomment-1360427418) |\n\nIf your review is incorrectly listed, please react with 👎 to this comment and the bot will ignore it on the next update.\n<!--174a7506f384e20aa4161008e828411d-->\n### Conflicts\nReviewers, this pull request conflicts with the following ones:\n\n* [#20892](https://github.com/bitcoin/bitcoin/pull/20892) (tests: Run both descriptor and legacy tests within a single test invocation by achow101)\n\nIf you consider this pull request important, please also help to review the conflicting pull requests. Ideally, start with the one that should be merged first.\n",
      "user": {
        "login": "DrahtBot",
        "id": 39886733,
        "node_id": "MDQ6VXNlcjM5ODg2NzMz",
        "avatar_url": "https://avatars.githubusercontent.com/u/39886733?v=4",
        "gravatar_id": "",
        "url": "https://api.github.com/users/DrahtBot",
        "html_url": "https://github.com/DrahtBot",
        "followers_url": "https://api.github.com/users/DrahtBot/followers",
        "following_url": "https://api.github.com/users/DrahtBot/following%7B/other_user%7D",
        "gists_url": "https://api.github.com/users/DrahtBot/gists%7B/gist_id%7D",
        "starred_url": "https://api.github.com/users/DrahtBot/starred%7B/owner%7D%7B/repo%7D",
        "subscriptions_url": "https://api.github.com/users/DrahtBot/subscriptions",
        "organizations_url": "https://api.github.com/users/DrahtBot/orgs",
        "repos_url": "https://api.github.com/users/DrahtBot/repos",
        "events_url": "https://api.github.com/users/DrahtBot/events%7B/privacy%7D",
        "received_events_url": "https://api.github.com/users/DrahtBot/received_events",
        "type": "User",
        "site_admin": false
      },
      "html_url": "https://github.com/bitcoin/bitcoin/pull/26638#issuecomment-1336977713",
      "issue_url": "https://api.github.com/repos/bitcoin/bitcoin/issues/26638"
    },
    {
      "event": "labeled",
      "id": 7952457184,
      "node_id": "LE_lADOABII585X-rGxzwAAAAHaAN3g",
      "url": "https://api.github.com/repos/bitcoin/bitcoin/issues/events/7952457184",
      "actor": {
        "login": "DrahtBot",
        "id": 39886733,
        "node_id": "MDQ6VXNlcjM5ODg2NzMz",
        "avatar_url": "https://avatars.githubusercontent.com/u/39886733?v=4",
        "gravatar_id": "",
        "url": "https://api.github.com/users/DrahtBot",
        "html_url": "https://github.com/DrahtBot",
        "followers_url": "https://api.github.com/users/DrahtBot/followers",
        "following_url": "https://api.github.com/users/DrahtBot/following%7B/other_user%7D",
        "gists_url": "https://api.github.com/users/DrahtBot/gists%7B/gist_id%7D",
        "starred_url": "https://api.github.com/users/DrahtBot/starred%7B/owner%7D%7B/repo%7D",
        "subscriptions_url": "https://api.github.com/users/DrahtBot/subscriptions",
        "organizations_url": "https://api.github.com/users/DrahtBot/orgs",
        "repos_url": "https://api.github.com/users/DrahtBot/repos",
        "events_url": "https://api.github.com/users/DrahtBot/events%7B/privacy%7D",
        "received_events_url": "https://api.github.com/users/DrahtBot/received_events",
        "type": "User",
        "site_admin": false
      },
      "commit_id": null,
      "commit_url": null,
      "created_at": "2022-12-05T08:56:12Z",
      "label": {
        "name": "Tests",
        "color": "d4c5f9"
      }
    },
    {
      "event": "commented",
      "id": 1337103328,
      "node_id": "IC_kwDOABII585PspPg",
      "url": "https://api.github.com/repos/bitcoin/bitcoin/issues/comments/1337103328",
      "actor": {
        "login": "MarcoFalke",
        "id": 6399679,
        "node_id": "MDQ6VXNlcjYzOTk2Nzk=",
        "avatar_url": "https://avatars.githubusercontent.com/u/6399679?v=4",
        "gravatar_id": "",
        "url": "https://api.github.com/users/MarcoFalke",
        "html_url": "https://github.com/MarcoFalke",
        "followers_url": "https://api.github.com/users/MarcoFalke/followers",
        "following_url": "https://api.github.com/users/MarcoFalke/following%7B/other_user%7D",
        "gists_url": "https://api.github.com/users/MarcoFalke/gists%7B/gist_id%7D",
        "starred_url": "https://api.github.com/users/MarcoFalke/starred%7B/owner%7D%7B/repo%7D",
        "subscriptions_url": "https://api.github.com/users/MarcoFalke/subscriptions",
        "organizations_url": "https://api.github.com/users/MarcoFalke/orgs",
        "repos_url": "https://api.github.com/users/MarcoFalke/repos",
        "events_url": "https://api.github.com/users/MarcoFalke/events%7B/privacy%7D",
        "received_events_url": "https://api.github.com/users/MarcoFalke/received_events",
        "type": "User",
        "site_admin": false
      },
      "commit_id": null,
      "commit_url": null,
      "created_at": "2022-12-05T10:31:30Z",
      "updated_at": "2022-12-05T10:31:30Z",
      "author_association": "MEMBER",
      "body": "Looks like you'll need to add a missing --legacy-wallet to the failing test?",
      "user": {
        "login": "MarcoFalke",
        "id": 6399679,
        "node_id": "MDQ6VXNlcjYzOTk2Nzk=",
        "avatar_url": "https://avatars.githubusercontent.com/u/6399679?v=4",
        "gravatar_id": "",
        "url": "https://api.github.com/users/MarcoFalke",
        "html_url": "https://github.com/MarcoFalke",
        "followers_url": "https://api.github.com/users/MarcoFalke/followers",
        "following_url": "https://api.github.com/users/MarcoFalke/following%7B/other_user%7D",
        "gists_url": "https://api.github.com/users/MarcoFalke/gists%7B/gist_id%7D",
        "starred_url": "https://api.github.com/users/MarcoFalke/starred%7B/owner%7D%7B/repo%7D",
        "subscriptions_url": "https://api.github.com/users/MarcoFalke/subscriptions",
        "organizations_url": "https://api.github.com/users/MarcoFalke/orgs",
        "repos_url": "https://api.github.com/users/MarcoFalke/repos",
        "events_url": "https://api.github.com/users/MarcoFalke/events%7B/privacy%7D",
        "received_events_url": "https://api.github.com/users/MarcoFalke/received_events",
        "type": "User",
        "site_admin": false
      },
      "html_url": "https://github.com/bitcoin/bitcoin/pull/26638#issuecomment-1337103328",
      "issue_url": "https://api.github.com/repos/bitcoin/bitcoin/issues/26638"
    },
    {
      "event": "cross-referenced",
      "id": null,
      "node_id": null,
      "url": null,
      "actor": {
        "login": "DrahtBot",
        "id": 39886733,
        "node_id": "MDQ6VXNlcjM5ODg2NzMz",
        "avatar_url": "https://avatars.githubusercontent.com/u/39886733?v=4",
        "gravatar_id": "",
        "url": "https://api.github.com/users/DrahtBot",
        "html_url": "https://github.com/DrahtBot",
        "followers_url": "https://api.github.com/users/DrahtBot/followers",
        "following_url": "https://api.github.com/users/DrahtBot/following%7B/other_user%7D",
        "gists_url": "https://api.github.com/users/DrahtBot/gists%7B/gist_id%7D",
        "starred_url": "https://api.github.com/users/DrahtBot/starred%7B/owner%7D%7B/repo%7D",
        "subscriptions_url": "https://api.github.com/users/DrahtBot/subscriptions",
        "organizations_url": "https://api.github.com/users/DrahtBot/orgs",
        "repos_url": "https://api.github.com/users/DrahtBot/repos",
        "events_url": "https://api.github.com/users/DrahtBot/events%7B/privacy%7D",
        "received_events_url": "https://api.github.com/users/DrahtBot/received_events",
        "type": "User",
        "site_admin": false
      },
      "commit_id": null,
      "commit_url": null,
      "created_at": "2022-12-05T20:00:26Z",
      "updated_at": "2022-12-05T20:00:26Z",
      "source": {
        "issue": {
          "id": 782505298,
          "node_id": "MDExOlB1bGxSZXF1ZXN0NTUyMDQ5MjI1",
          "url": "https://api.github.com/repos/bitcoin/bitcoin/issues/20892",
          "repository_url": "https://api.github.com/repos/bitcoin/bitcoin",
          "labels_url": "https://api.github.com/repos/bitcoin/bitcoin/issues/20892/labels%7B/name%7D",
          "comments_url": "https://api.github.com/repos/bitcoin/bitcoin/issues/20892/comments",
          "events_url": "https://api.github.com/repos/bitcoin/bitcoin/issues/20892/events",
          "html_url": "https://github.com/bitcoin/bitcoin/pull/20892",
          "number": 20892,
          "state": "open",
          "state_reason": null,
          "title": "tests: Run both descriptor and legacy tests within a single test invocation",
          "body": "Instead of having the tests only do one type or the other, depending on command line arguments, these tests should be running with both types of wallets. Any test that calls `add_wallet_options` will be run for each wallet type that it specifies a wallet option for if none are give in the command line. If a particular wallet is specified with `--legacy-wallet` or `--descriptors`, the options are still respected.",
          "user": {
            "login": "achow101",
            "id": 3782274,
            "node_id": "MDQ6VXNlcjM3ODIyNzQ=",
            "avatar_url": "https://avatars.githubusercontent.com/u/3782274?v=4",
            "gravatar_id": "",
            "url": "https://api.github.com/users/achow101",
            "html_url": "https://github.com/achow101",
            "followers_url": "https://api.github.com/users/achow101/followers",
            "following_url": "https://api.github.com/users/achow101/following%7B/other_user%7D",
            "gists_url": "https://api.github.com/users/achow101/gists%7B/gist_id%7D",
            "starred_url": "https://api.github.com/users/achow101/starred%7B/owner%7D%7B/repo%7D",
            "subscriptions_url": "https://api.github.com/users/achow101/subscriptions",
            "organizations_url": "https://api.github.com/users/achow101/orgs",
            "repos_url": "https://api.github.com/users/achow101/repos",
            "events_url": "https://api.github.com/users/achow101/events%7B/privacy%7D",
            "received_events_url": "https://api.github.com/users/achow101/received_events",
            "type": "User",
            "site_admin": false
          },
          "labels": [
            {
              "id": 62963516,
              "node_id": "MDU6TGFiZWw2Mjk2MzUxNg==",
              "url": "https://api.github.com/repos/bitcoin/bitcoin/labels/Tests",
              "name": "Tests",
              "color": "d4c5f9",
              "default": false
            },
            {
              "id": 5334691551,
              "node_id": "LA_kwDOABII588AAAABPfju3w",
              "url": "https://api.github.com/repos/bitcoin/bitcoin/labels/CI%20failed",
              "name": "CI failed",
              "description": "",
              "color": "cccccc",
              "default": false
            }
          ],
          "assignees": [],
          "author_association": "MEMBER",
          "locked": false,
          "comments": 16,
          "pull_request": {
            "url": "https://api.github.com/repos/bitcoin/bitcoin/pulls/20892",
            "html_url": "https://github.com/bitcoin/bitcoin/pull/20892",
            "diff_url": "https://github.com/bitcoin/bitcoin/pull/20892.diff",
            "patch_url": "https://github.com/bitcoin/bitcoin/pull/20892.patch"
          },
          "created_at": "2021-01-09T03:50:55Z",
          "updated_at": "2023-08-02T17:47:04Z"
        },
        "type": "issue"
      }
    },
    {
      "event": "committed",
      "id": null,
      "node_id": "C_kwDOABII59oAKDhlMGZhYmFhYmY4ZjQ1YjgyMjU2YzE5MzRjMjUwN2QwMzM1MWFjYWE",
      "url": "https://api.github.com/repos/bitcoin/bitcoin/git/commits/8e0fabaabf8f45b82256c1934c2507d03351acaa",
      "actor": null,
      "commit_id": null,
      "commit_url": null,
      "created_at": null,
      "html_url": "https://github.com/bitcoin/bitcoin/commit/8e0fabaabf8f45b82256c1934c2507d03351acaa",
      "tree": {
        "sha": "5ca180642657dd3bfc22e26573ce46038df445bc",
        "url": "https://api.github.com/repos/bitcoin/bitcoin/git/trees/5ca180642657dd3bfc22e26573ce46038df445bc"
      },
      "verification": {
        "verified": false,
        "reason": "unsigned",
        "payload": null,
        "signature": null
      },
      "parents": [
        {
          "url": "https://api.github.com/repos/bitcoin/bitcoin/git/commits/fe8d15c907d0ca170ce171e7655f9c7cd4a0194f",
          "sha": "fe8d15c907d0ca170ce171e7655f9c7cd4a0194f",
          "html_url": "https://github.com/bitcoin/bitcoin/commit/fe8d15c907d0ca170ce171e7655f9c7cd4a0194f"
        }
      ],
      "message": "test: make wallet_migration.py pass with both wallet flags",
      "committer": {
        "name": "S3RK",
        "email": "1466284+S3RK@users.noreply.github.com",
        "date": "2022-12-06T08:17:24Z"
      },
      "author": {
        "name": "S3RK",
        "email": "1466284+S3RK@users.noreply.github.com",
        "date": "2022-12-06T08:17:09Z"
      },
      "sha": "8e0fabaabf8f45b82256c1934c2507d03351acaa"
    },
    {
      "event": "committed",
      "id": null,
      "node_id": "C_kwDOABII59oAKDE3NTU0ZWZiNjA5NWY2ZWMyNzNlNTI1NjhlZmUxNjc4MjUzY2I3YzA",
      "url": "https://api.github.com/repos/bitcoin/bitcoin/git/commits/17554efb6095f6ec273e52568efe1678253cb7c0",
      "actor": null,
      "commit_id": null,
      "commit_url": null,
      "created_at": null,
      "html_url": "https://github.com/bitcoin/bitcoin/commit/17554efb6095f6ec273e52568efe1678253cb7c0",
      "tree": {
        "sha": "d9a6bb9bbbc2b8a013e7036a029feec05bfe0630",
        "url": "https://api.github.com/repos/bitcoin/bitcoin/git/trees/d9a6bb9bbbc2b8a013e7036a029feec05bfe0630"
      },
      "verification": {
        "verified": false,
        "reason": "unsigned",
        "payload": null,
        "signature": null
      },
      "parents": [
        {
          "url": "https://api.github.com/repos/bitcoin/bitcoin/git/commits/8e0fabaabf8f45b82256c1934c2507d03351acaa",
          "sha": "8e0fabaabf8f45b82256c1934c2507d03351acaa",
          "html_url": "https://github.com/bitcoin/bitcoin/commit/8e0fabaabf8f45b82256c1934c2507d03351acaa"
        }
      ],
      "message": "test: prefer sqlite for wallet tests",
      "committer": {
        "name": "S3RK",
        "email": "1466284+S3RK@users.noreply.github.com",
        "date": "2022-12-06T08:17:25Z"
      },
      "author": {
        "name": "S3RK",
        "email": "1466284+S3RK@users.noreply.github.com",
        "date": "2022-12-05T08:54:38Z"
      },
      "sha": "17554efb6095f6ec273e52568efe1678253cb7c0"
    },
    {
      "event": "head_ref_force_pushed",
      "id": 7963758591,
      "node_id": "HRFPE_lADOABII585X-rGxzwAAAAHarU__",
      "url": "https://api.github.com/repos/bitcoin/bitcoin/issues/events/7963758591",
      "actor": {
        "login": "S3RK",
        "id": 1466284,
        "node_id": "MDQ6VXNlcjE0NjYyODQ=",
        "avatar_url": "https://avatars.githubusercontent.com/u/1466284?v=4",
        "gravatar_id": "",
        "url": "https://api.github.com/users/S3RK",
        "html_url": "https://github.com/S3RK",
        "followers_url": "https://api.github.com/users/S3RK/followers",
        "following_url": "https://api.github.com/users/S3RK/following%7B/other_user%7D",
        "gists_url": "https://api.github.com/users/S3RK/gists%7B/gist_id%7D",
        "starred_url": "https://api.github.com/users/S3RK/starred%7B/owner%7D%7B/repo%7D",
        "subscriptions_url": "https://api.github.com/users/S3RK/subscriptions",
        "organizations_url": "https://api.github.com/users/S3RK/orgs",
        "repos_url": "https://api.github.com/users/S3RK/repos",
        "events_url": "https://api.github.com/users/S3RK/events%7B/privacy%7D",
        "received_events_url": "https://api.github.com/users/S3RK/received_events",
        "type": "User",
        "site_admin": false
      },
      "commit_id": null,
      "commit_url": null,
      "created_at": "2022-12-06T08:17:44Z"
    },
    {
      "event": "commented",
      "id": 1338946758,
      "node_id": "IC_kwDOABII585PzrTG",
      "url": "https://api.github.com/repos/bitcoin/bitcoin/issues/comments/1338946758",
      "actor": {
        "login": "S3RK",
        "id": 1466284,
        "node_id": "MDQ6VXNlcjE0NjYyODQ=",
        "avatar_url": "https://avatars.githubusercontent.com/u/1466284?v=4",
        "gravatar_id": "",
        "url": "https://api.github.com/users/S3RK",
        "html_url": "https://github.com/S3RK",
        "followers_url": "https://api.github.com/users/S3RK/followers",
        "following_url": "https://api.github.com/users/S3RK/following%7B/other_user%7D",
        "gists_url": "https://api.github.com/users/S3RK/gists%7B/gist_id%7D",
        "starred_url": "https://api.github.com/users/S3RK/starred%7B/owner%7D%7B/repo%7D",
        "subscriptions_url": "https://api.github.com/users/S3RK/subscriptions",
        "organizations_url": "https://api.github.com/users/S3RK/orgs",
        "repos_url": "https://api.github.com/users/S3RK/repos",
        "events_url": "https://api.github.com/users/S3RK/events%7B/privacy%7D",
        "received_events_url": "https://api.github.com/users/S3RK/received_events",
        "type": "User",
        "site_admin": false
      },
      "commit_id": null,
      "commit_url": null,
      "created_at": "2022-12-06T08:19:06Z",
      "updated_at": "2022-12-06T08:19:06Z",
      "author_association": "CONTRIBUTOR",
      "body": "> Looks like you'll need to add a missing --legacy-wallet to the failing test?\r\n\r\nAddressed this in a different (hopefully better way) by making `wallet_migration.py` pass with both wallet flags ",
      "user": {
        "login": "S3RK",
        "id": 1466284,
        "node_id": "MDQ6VXNlcjE0NjYyODQ=",
        "avatar_url": "https://avatars.githubusercontent.com/u/1466284?v=4",
        "gravatar_id": "",
        "url": "https://api.github.com/users/S3RK",
        "html_url": "https://github.com/S3RK",
        "followers_url": "https://api.github.com/users/S3RK/followers",
        "following_url": "https://api.github.com/users/S3RK/following%7B/other_user%7D",
        "gists_url": "https://api.github.com/users/S3RK/gists%7B/gist_id%7D",
        "starred_url": "https://api.github.com/users/S3RK/starred%7B/owner%7D%7B/repo%7D",
        "subscriptions_url": "https://api.github.com/users/S3RK/subscriptions",
        "organizations_url": "https://api.github.com/users/S3RK/orgs",
        "repos_url": "https://api.github.com/users/S3RK/repos",
        "events_url": "https://api.github.com/users/S3RK/events%7B/privacy%7D",
        "received_events_url": "https://api.github.com/users/S3RK/received_events",
        "type": "User",
        "site_admin": false
      },
      "html_url": "https://github.com/bitcoin/bitcoin/pull/26638#issuecomment-1338946758",
      "issue_url": "https://api.github.com/repos/bitcoin/bitcoin/issues/26638"
    },
    {
      "event": "commented",
      "id": 1338951985,
      "node_id": "IC_kwDOABII585Pzskx",
      "url": "https://api.github.com/repos/bitcoin/bitcoin/issues/comments/1338951985",
      "actor": {
        "login": "MarcoFalke",
        "id": 6399679,
        "node_id": "MDQ6VXNlcjYzOTk2Nzk=",
        "avatar_url": "https://avatars.githubusercontent.com/u/6399679?v=4",
        "gravatar_id": "",
        "url": "https://api.github.com/users/MarcoFalke",
        "html_url": "https://github.com/MarcoFalke",
        "followers_url": "https://api.github.com/users/MarcoFalke/followers",
        "following_url": "https://api.github.com/users/MarcoFalke/following%7B/other_user%7D",
        "gists_url": "https://api.github.com/users/MarcoFalke/gists%7B/gist_id%7D",
        "starred_url": "https://api.github.com/users/MarcoFalke/starred%7B/owner%7D%7B/repo%7D",
        "subscriptions_url": "https://api.github.com/users/MarcoFalke/subscriptions",
        "organizations_url": "https://api.github.com/users/MarcoFalke/orgs",
        "repos_url": "https://api.github.com/users/MarcoFalke/repos",
        "events_url": "https://api.github.com/users/MarcoFalke/events%7B/privacy%7D",
        "received_events_url": "https://api.github.com/users/MarcoFalke/received_events",
        "type": "User",
        "site_admin": false
      },
      "commit_id": null,
      "commit_url": null,
      "created_at": "2022-12-06T08:24:23Z",
      "updated_at": "2022-12-06T08:24:23Z",
      "author_association": "MEMBER",
      "body": "review ACK 17554efb6095f6ec273e52568efe1678253cb7c0",
      "user": {
        "login": "MarcoFalke",
        "id": 6399679,
        "node_id": "MDQ6VXNlcjYzOTk2Nzk=",
        "avatar_url": "https://avatars.githubusercontent.com/u/6399679?v=4",
        "gravatar_id": "",
        "url": "https://api.github.com/users/MarcoFalke",
        "html_url": "https://github.com/MarcoFalke",
        "followers_url": "https://api.github.com/users/MarcoFalke/followers",
        "following_url": "https://api.github.com/users/MarcoFalke/following%7B/other_user%7D",
        "gists_url": "https://api.github.com/users/MarcoFalke/gists%7B/gist_id%7D",
        "starred_url": "https://api.github.com/users/MarcoFalke/starred%7B/owner%7D%7B/repo%7D",
        "subscriptions_url": "https://api.github.com/users/MarcoFalke/subscriptions",
        "organizations_url": "https://api.github.com/users/MarcoFalke/orgs",
        "repos_url": "https://api.github.com/users/MarcoFalke/repos",
        "events_url": "https://api.github.com/users/MarcoFalke/events%7B/privacy%7D",
        "received_events_url": "https://api.github.com/users/MarcoFalke/received_events",
        "type": "User",
        "site_admin": false
      },
      "html_url": "https://github.com/bitcoin/bitcoin/pull/26638#issuecomment-1338951985",
      "issue_url": "https://api.github.com/repos/bitcoin/bitcoin/issues/26638"
    },
    {
      "event": "review_requested",
      "id": 7964231400,
      "node_id": "RRE_lADOABII585X-rGxzwAAAAHatIbo",
      "url": "https://api.github.com/repos/bitcoin/bitcoin/issues/events/7964231400",
      "actor": {
        "login": "fanquake",
        "id": 863730,
        "node_id": "MDQ6VXNlcjg2MzczMA==",
        "avatar_url": "https://avatars.githubusercontent.com/u/863730?v=4",
        "gravatar_id": "",
        "url": "https://api.github.com/users/fanquake",
        "html_url": "https://github.com/fanquake",
        "followers_url": "https://api.github.com/users/fanquake/followers",
        "following_url": "https://api.github.com/users/fanquake/following%7B/other_user%7D",
        "gists_url": "https://api.github.com/users/fanquake/gists%7B/gist_id%7D",
        "starred_url": "https://api.github.com/users/fanquake/starred%7B/owner%7D%7B/repo%7D",
        "subscriptions_url": "https://api.github.com/users/fanquake/subscriptions",
        "organizations_url": "https://api.github.com/users/fanquake/orgs",
        "repos_url": "https://api.github.com/users/fanquake/repos",
        "events_url": "https://api.github.com/users/fanquake/events%7B/privacy%7D",
        "received_events_url": "https://api.github.com/users/fanquake/received_events",
        "type": "User",
        "site_admin": false
      },
      "commit_id": null,
      "commit_url": null,
      "created_at": "2022-12-06T09:13:23Z",
      "requested_reviewer": {
        "login": "achow101",
        "id": 3782274,
        "node_id": "MDQ6VXNlcjM3ODIyNzQ=",
        "avatar_url": "https://avatars.githubusercontent.com/u/3782274?v=4",
        "gravatar_id": "",
        "url": "https://api.github.com/users/achow101",
        "html_url": "https://github.com/achow101",
        "followers_url": "https://api.github.com/users/achow101/followers",
        "following_url": "https://api.github.com/users/achow101/following%7B/other_user%7D",
        "gists_url": "https://api.github.com/users/achow101/gists%7B/gist_id%7D",
        "starred_url": "https://api.github.com/users/achow101/starred%7B/owner%7D%7B/repo%7D",
        "subscriptions_url": "https://api.github.com/users/achow101/subscriptions",
        "organizations_url": "https://api.github.com/users/achow101/orgs",
        "repos_url": "https://api.github.com/users/achow101/repos",
        "events_url": "https://api.github.com/users/achow101/events%7B/privacy%7D",
        "received_events_url": "https://api.github.com/users/achow101/received_events",
        "type": "User",
        "site_admin": false
      },
      "review_requester": {
        "login": "fanquake",
        "id": 863730,
        "node_id": "MDQ6VXNlcjg2MzczMA==",
        "avatar_url": "https://avatars.githubusercontent.com/u/863730?v=4",
        "gravatar_id": "",
        "url": "https://api.github.com/users/fanquake",
        "html_url": "https://github.com/fanquake",
        "followers_url": "https://api.github.com/users/fanquake/followers",
        "following_url": "https://api.github.com/users/fanquake/following%7B/other_user%7D",
        "gists_url": "https://api.github.com/users/fanquake/gists%7B/gist_id%7D",
        "starred_url": "https://api.github.com/users/fanquake/starred%7B/owner%7D%7B/repo%7D",
        "subscriptions_url": "https://api.github.com/users/fanquake/subscriptions",
        "organizations_url": "https://api.github.com/users/fanquake/orgs",
        "repos_url": "https://api.github.com/users/fanquake/repos",
        "events_url": "https://api.github.com/users/fanquake/events%7B/privacy%7D",
        "received_events_url": "https://api.github.com/users/fanquake/received_events",
        "type": "User",
        "site_admin": false
      }
    },
    {
      "event": "commented",
      "id": 1360427418,
      "node_id": "IC_kwDOABII585RFnma",
      "url": "https://api.github.com/repos/bitcoin/bitcoin/issues/comments/1360427418",
      "actor": {
        "login": "achow101",
        "id": 3782274,
        "node_id": "MDQ6VXNlcjM3ODIyNzQ=",
        "avatar_url": "https://avatars.githubusercontent.com/u/3782274?v=4",
        "gravatar_id": "",
        "url": "https://api.github.com/users/achow101",
        "html_url": "https://github.com/achow101",
        "followers_url": "https://api.github.com/users/achow101/followers",
        "following_url": "https://api.github.com/users/achow101/following%7B/other_user%7D",
        "gists_url": "https://api.github.com/users/achow101/gists%7B/gist_id%7D",
        "starred_url": "https://api.github.com/users/achow101/starred%7B/owner%7D%7B/repo%7D",
        "subscriptions_url": "https://api.github.com/users/achow101/subscriptions",
        "organizations_url": "https://api.github.com/users/achow101/orgs",
        "repos_url": "https://api.github.com/users/achow101/repos",
        "events_url": "https://api.github.com/users/achow101/events%7B/privacy%7D",
        "received_events_url": "https://api.github.com/users/achow101/received_events",
        "type": "User",
        "site_admin": false
      },
      "commit_id": null,
      "commit_url": null,
      "created_at": "2022-12-20T23:05:44Z",
      "updated_at": "2022-12-20T23:05:44Z",
      "author_association": "MEMBER",
      "body": "ACK 17554efb6095f6ec273e52568efe1678253cb7c0",
      "user": {
        "login": "achow101",
        "id": 3782274,
        "node_id": "MDQ6VXNlcjM3ODIyNzQ=",
        "avatar_url": "https://avatars.githubusercontent.com/u/3782274?v=4",
        "gravatar_id": "",
        "url": "https://api.github.com/users/achow101",
        "html_url": "https://github.com/achow101",
        "followers_url": "https://api.github.com/users/achow101/followers",
        "following_url": "https://api.github.com/users/achow101/following%7B/other_user%7D",
        "gists_url": "https://api.github.com/users/achow101/gists%7B/gist_id%7D",
        "starred_url": "https://api.github.com/users/achow101/starred%7B/owner%7D%7B/repo%7D",
        "subscriptions_url": "https://api.github.com/users/achow101/subscriptions",
        "organizations_url": "https://api.github.com/users/achow101/orgs",
        "repos_url": "https://api.github.com/users/achow101/repos",
        "events_url": "https://api.github.com/users/achow101/events%7B/privacy%7D",
        "received_events_url": "https://api.github.com/users/achow101/received_events",
        "type": "User",
        "site_admin": false
      },
      "html_url": "https://github.com/bitcoin/bitcoin/pull/26638#issuecomment-1360427418",
      "issue_url": "https://api.github.com/repos/bitcoin/bitcoin/issues/26638"
    },
    {
      "event": "referenced",
      "id": 8082499827,
      "node_id": "REFE_lADOABII585X-rGxzwAAAAHhwSjz",
      "url": "https://api.github.com/repos/bitcoin/bitcoin/issues/events/8082499827",
      "actor": {
        "login": "achow101",
        "id": 3782274,
        "node_id": "MDQ6VXNlcjM3ODIyNzQ=",
        "avatar_url": "https://avatars.githubusercontent.com/u/3782274?v=4",
        "gravatar_id": "",
        "url": "https://api.github.com/users/achow101",
        "html_url": "https://github.com/achow101",
        "followers_url": "https://api.github.com/users/achow101/followers",
        "following_url": "https://api.github.com/users/achow101/following%7B/other_user%7D",
        "gists_url": "https://api.github.com/users/achow101/gists%7B/gist_id%7D",
        "starred_url": "https://api.github.com/users/achow101/starred%7B/owner%7D%7B/repo%7D",
        "subscriptions_url": "https://api.github.com/users/achow101/subscriptions",
        "organizations_url": "https://api.github.com/users/achow101/orgs",
        "repos_url": "https://api.github.com/users/achow101/repos",
        "events_url": "https://api.github.com/users/achow101/events%7B/privacy%7D",
        "received_events_url": "https://api.github.com/users/achow101/received_events",
        "type": "User",
        "site_admin": false
      },
      "commit_id": "8456bfac6ba2dcca42a03d3374c12e1a3f009106",
      "commit_url": "https://api.github.com/repos/bitcoin-core/gui/commits/8456bfac6ba2dcca42a03d3374c12e1a3f009106",
      "created_at": "2022-12-20T23:12:17Z"
    },
    {
      "event": "labeled",
      "id": 8082575357,
      "node_id": "LE_lADOABII585X-rGxzwAAAAHhwk_9",
      "url": "https://api.github.com/repos/bitcoin/bitcoin/issues/events/8082575357",
      "actor": {
        "login": "DrahtBot",
        "id": 39886733,
        "node_id": "MDQ6VXNlcjM5ODg2NzMz",
        "avatar_url": "https://avatars.githubusercontent.com/u/39886733?v=4",
        "gravatar_id": "",
        "url": "https://api.github.com/users/DrahtBot",
        "html_url": "https://github.com/DrahtBot",
        "followers_url": "https://api.github.com/users/DrahtBot/followers",
        "following_url": "https://api.github.com/users/DrahtBot/following%7B/other_user%7D",
        "gists_url": "https://api.github.com/users/DrahtBot/gists%7B/gist_id%7D",
        "starred_url": "https://api.github.com/users/DrahtBot/starred%7B/owner%7D%7B/repo%7D",
        "subscriptions_url": "https://api.github.com/users/DrahtBot/subscriptions",
        "organizations_url": "https://api.github.com/users/DrahtBot/orgs",
        "repos_url": "https://api.github.com/users/DrahtBot/repos",
        "events_url": "https://api.github.com/users/DrahtBot/events%7B/privacy%7D",
        "received_events_url": "https://api.github.com/users/DrahtBot/received_events",
        "type": "User",
        "site_admin": false
      },
      "commit_id": null,
      "commit_url": null,
      "created_at": "2022-12-20T23:33:23Z",
      "label": {
        "name": "Needs rebase",
        "color": "cccccc"
      }
    },
    {
      "event": "commented",
      "id": 1360471163,
      "node_id": "IC_kwDOABII585RFyR7",
      "url": "https://api.github.com/repos/bitcoin/bitcoin/issues/comments/1360471163",
      "actor": {
        "login": "DrahtBot",
        "id": 39886733,
        "node_id": "MDQ6VXNlcjM5ODg2NzMz",
        "avatar_url": "https://avatars.githubusercontent.com/u/39886733?v=4",
        "gravatar_id": "",
        "url": "https://api.github.com/users/DrahtBot",
        "html_url": "https://github.com/DrahtBot",
        "followers_url": "https://api.github.com/users/DrahtBot/followers",
        "following_url": "https://api.github.com/users/DrahtBot/following%7B/other_user%7D",
        "gists_url": "https://api.github.com/users/DrahtBot/gists%7B/gist_id%7D",
        "starred_url": "https://api.github.com/users/DrahtBot/starred%7B/owner%7D%7B/repo%7D",
        "subscriptions_url": "https://api.github.com/users/DrahtBot/subscriptions",
        "organizations_url": "https://api.github.com/users/DrahtBot/orgs",
        "repos_url": "https://api.github.com/users/DrahtBot/repos",
        "events_url": "https://api.github.com/users/DrahtBot/events%7B/privacy%7D",
        "received_events_url": "https://api.github.com/users/DrahtBot/received_events",
        "type": "User",
        "site_admin": false
      },
      "commit_id": null,
      "commit_url": null,
      "created_at": "2022-12-20T23:33:24Z",
      "updated_at": "2022-12-20T23:33:24Z",
      "author_association": "CONTRIBUTOR",
      "body": "<!--cf906140f33d8803c4a75a2196329ecb-->\n🐙 This pull request conflicts with the target branch and [needs rebase](https://github.com/bitcoin/bitcoin/blob/master/CONTRIBUTING.md#rebasing-changes).\n",
      "user": {
        "login": "DrahtBot",
        "id": 39886733,
        "node_id": "MDQ6VXNlcjM5ODg2NzMz",
        "avatar_url": "https://avatars.githubusercontent.com/u/39886733?v=4",
        "gravatar_id": "",
        "url": "https://api.github.com/users/DrahtBot",
        "html_url": "https://github.com/DrahtBot",
        "followers_url": "https://api.github.com/users/DrahtBot/followers",
        "following_url": "https://api.github.com/users/DrahtBot/following%7B/other_user%7D",
        "gists_url": "https://api.github.com/users/DrahtBot/gists%7B/gist_id%7D",
        "starred_url": "https://api.github.com/users/DrahtBot/starred%7B/owner%7D%7B/repo%7D",
        "subscriptions_url": "https://api.github.com/users/DrahtBot/subscriptions",
        "organizations_url": "https://api.github.com/users/DrahtBot/orgs",
        "repos_url": "https://api.github.com/users/DrahtBot/repos",
        "events_url": "https://api.github.com/users/DrahtBot/events%7B/privacy%7D",
        "received_events_url": "https://api.github.com/users/DrahtBot/received_events",
        "type": "User",
        "site_admin": false
      },
      "html_url": "https://github.com/bitcoin/bitcoin/pull/26638#issuecomment-1360471163",
      "issue_url": "https://api.github.com/repos/bitcoin/bitcoin/issues/26638"
    },
    {
      "event": "commented",
      "id": 1360473776,
      "node_id": "IC_kwDOABII585RFy6w",
      "url": "https://api.github.com/repos/bitcoin/bitcoin/issues/comments/1360473776",
      "actor": {
        "login": "achow101",
        "id": 3782274,
        "node_id": "MDQ6VXNlcjM3ODIyNzQ=",
        "avatar_url": "https://avatars.githubusercontent.com/u/3782274?v=4",
        "gravatar_id": "",
        "url": "https://api.github.com/users/achow101",
        "html_url": "https://github.com/achow101",
        "followers_url": "https://api.github.com/users/achow101/followers",
        "following_url": "https://api.github.com/users/achow101/following%7B/other_user%7D",
        "gists_url": "https://api.github.com/users/achow101/gists%7B/gist_id%7D",
        "starred_url": "https://api.github.com/users/achow101/starred%7B/owner%7D%7B/repo%7D",
        "subscriptions_url": "https://api.github.com/users/achow101/subscriptions",
        "organizations_url": "https://api.github.com/users/achow101/orgs",
        "repos_url": "https://api.github.com/users/achow101/repos",
        "events_url": "https://api.github.com/users/achow101/events%7B/privacy%7D",
        "received_events_url": "https://api.github.com/users/achow101/received_events",
        "type": "User",
        "site_admin": false
      },
      "commit_id": null,
      "commit_url": null,
      "created_at": "2022-12-20T23:35:12Z",
      "updated_at": "2022-12-20T23:35:12Z",
      "author_association": "MEMBER",
      "body": "Github isn't detecting this as merged for some reason.",
      "user": {
        "login": "achow101",
        "id": 3782274,
        "node_id": "MDQ6VXNlcjM3ODIyNzQ=",
        "avatar_url": "https://avatars.githubusercontent.com/u/3782274?v=4",
        "gravatar_id": "",
        "url": "https://api.github.com/users/achow101",
        "html_url": "https://github.com/achow101",
        "followers_url": "https://api.github.com/users/achow101/followers",
        "following_url": "https://api.github.com/users/achow101/following%7B/other_user%7D",
        "gists_url": "https://api.github.com/users/achow101/gists%7B/gist_id%7D",
        "starred_url": "https://api.github.com/users/achow101/starred%7B/owner%7D%7B/repo%7D",
        "subscriptions_url": "https://api.github.com/users/achow101/subscriptions",
        "organizations_url": "https://api.github.com/users/achow101/orgs",
        "repos_url": "https://api.github.com/users/achow101/repos",
        "events_url": "https://api.github.com/users/achow101/events%7B/privacy%7D",
        "received_events_url": "https://api.github.com/users/achow101/received_events",
        "type": "User",
        "site_admin": false
      },
      "html_url": "https://github.com/bitcoin/bitcoin/pull/26638#issuecomment-1360473776",
      "issue_url": "https://api.github.com/repos/bitcoin/bitcoin/issues/26638"
    },
    {
      "event": "closed",
      "id": 8082581037,
      "node_id": "CE_lADOABII585X-rGxzwAAAAHhwmYt",
      "url": "https://api.github.com/repos/bitcoin/bitcoin/issues/events/8082581037",
      "actor": {
        "login": "achow101",
        "id": 3782274,
        "node_id": "MDQ6VXNlcjM3ODIyNzQ=",
        "avatar_url": "https://avatars.githubusercontent.com/u/3782274?v=4",
        "gravatar_id": "",
        "url": "https://api.github.com/users/achow101",
        "html_url": "https://github.com/achow101",
        "followers_url": "https://api.github.com/users/achow101/followers",
        "following_url": "https://api.github.com/users/achow101/following%7B/other_user%7D",
        "gists_url": "https://api.github.com/users/achow101/gists%7B/gist_id%7D",
        "starred_url": "https://api.github.com/users/achow101/starred%7B/owner%7D%7B/repo%7D",
        "subscriptions_url": "https://api.github.com/users/achow101/subscriptions",
        "organizations_url": "https://api.github.com/users/achow101/orgs",
        "repos_url": "https://api.github.com/users/achow101/repos",
        "events_url": "https://api.github.com/users/achow101/events%7B/privacy%7D",
        "received_events_url": "https://api.github.com/users/achow101/received_events",
        "type": "User",
        "site_admin": false
      },
      "commit_id": null,
      "commit_url": null,
      "created_at": "2022-12-20T23:35:13Z"
    },
    {
      "event": "referenced",
      "id": 8082901239,
      "node_id": "REFE_lADOABII585X-rGxzwAAAAHhx0j3",
      "url": "https://api.github.com/repos/bitcoin/bitcoin/issues/events/8082901239",
      "actor": {
        "login": "sidhujag",
        "id": 6238042,
        "node_id": "MDQ6VXNlcjYyMzgwNDI=",
        "avatar_url": "https://avatars.githubusercontent.com/u/6238042?v=4",
        "gravatar_id": "",
        "url": "https://api.github.com/users/sidhujag",
        "html_url": "https://github.com/sidhujag",
        "followers_url": "https://api.github.com/users/sidhujag/followers",
        "following_url": "https://api.github.com/users/sidhujag/following%7B/other_user%7D",
        "gists_url": "https://api.github.com/users/sidhujag/gists%7B/gist_id%7D",
        "starred_url": "https://api.github.com/users/sidhujag/starred%7B/owner%7D%7B/repo%7D",
        "subscriptions_url": "https://api.github.com/users/sidhujag/subscriptions",
        "organizations_url": "https://api.github.com/users/sidhujag/orgs",
        "repos_url": "https://api.github.com/users/sidhujag/repos",
        "events_url": "https://api.github.com/users/sidhujag/events%7B/privacy%7D",
        "received_events_url": "https://api.github.com/users/sidhujag/received_events",
        "type": "User",
        "site_admin": false
      },
      "commit_id": "8e3fb5a930d87b47e0f20eaf42cd0146dbfd3f4b",
      "commit_url": "https://api.github.com/repos/syscoin/syscoin/commits/8e3fb5a930d87b47e0f20eaf42cd0146dbfd3f4b",
      "created_at": "2022-12-21T00:58:47Z"
    }
  ],
  "comments": []
}