{
  "type": "pull",
  "pull": {
    "url": "https://api.github.com/repos/bitcoin/bitcoin/pulls/26659",
    "id": 1154062272,
    "node_id": "PR_kwDOABII585EyZfA",
    "html_url": "https://github.com/bitcoin/bitcoin/pull/26659",
    "diff_url": "https://github.com/bitcoin/bitcoin/pull/26659.diff",
    "patch_url": "https://github.com/bitcoin/bitcoin/pull/26659.patch",
    "issue_url": "https://api.github.com/repos/bitcoin/bitcoin/issues/26659",
    "commits_url": "https://api.github.com/repos/bitcoin/bitcoin/pulls/26659/commits",
    "review_comments_url": "https://api.github.com/repos/bitcoin/bitcoin/pulls/26659/comments",
    "review_comment_url": "https://api.github.com/repos/bitcoin/bitcoin/pulls/comments%7B/number%7D",
    "comments_url": "https://api.github.com/repos/bitcoin/bitcoin/issues/26659/comments",
    "statuses_url": "https://api.github.com/repos/bitcoin/bitcoin/statuses/8a16391c91acd1ab7c49370b7b5fd979375c94c7",
    "number": 26659,
    "state": "closed",
    "locked": false,
    "maintainer_can_modify": false,
    "title": "[23.x] bump version to v23.1",
    "user": {
      "login": "fanquake",
      "id": 863730,
      "node_id": "MDQ6VXNlcjg2MzczMA==",
      "avatar_url": "https://avatars.githubusercontent.com/u/863730?v=4",
      "gravatar_id": "",
      "url": "https://api.github.com/users/fanquake",
      "html_url": "https://github.com/fanquake",
      "followers_url": "https://api.github.com/users/fanquake/followers",
      "following_url": "https://api.github.com/users/fanquake/following%7B/other_user%7D",
      "gists_url": "https://api.github.com/users/fanquake/gists%7B/gist_id%7D",
      "starred_url": "https://api.github.com/users/fanquake/starred%7B/owner%7D%7B/repo%7D",
      "subscriptions_url": "https://api.github.com/users/fanquake/subscriptions",
      "organizations_url": "https://api.github.com/users/fanquake/orgs",
      "repos_url": "https://api.github.com/users/fanquake/repos",
      "events_url": "https://api.github.com/users/fanquake/events%7B/privacy%7D",
      "received_events_url": "https://api.github.com/users/fanquake/received_events",
      "type": "User",
      "site_admin": false
    },
    "body": "Bump version to v23.1.\r\nRegenerate manpages.\r\nFinalize release notes.",
    "labels": [
      {
        "id": 390024790,
        "node_id": "MDU6TGFiZWwzOTAwMjQ3OTA=",
        "url": "https://api.github.com/repos/bitcoin/bitcoin/labels/Backport",
        "name": "Backport",
        "description": "",
        "color": "dd7200",
        "default": false
      }
    ],
    "milestone": {
      "url": "https://api.github.com/repos/bitcoin/bitcoin/milestones/57",
      "html_url": "https://github.com/bitcoin/bitcoin/milestone/57",
      "labels_url": "https://api.github.com/repos/bitcoin/bitcoin/milestones/57/labels",
      "id": 7754034,
      "node_id": "MI_kwDOABII584AdlEy",
      "number": 57,
      "state": "closed",
      "title": "23.1",
      "description": "",
      "creator": {
        "login": "laanwj",
        "id": 126646,
        "node_id": "MDQ6VXNlcjEyNjY0Ng==",
        "avatar_url": "https://avatars.githubusercontent.com/u/126646?v=4",
        "gravatar_id": "",
        "url": "https://api.github.com/users/laanwj",
        "html_url": "https://github.com/laanwj",
        "followers_url": "https://api.github.com/users/laanwj/followers",
        "following_url": "https://api.github.com/users/laanwj/following%7B/other_user%7D",
        "gists_url": "https://api.github.com/users/laanwj/gists%7B/gist_id%7D",
        "starred_url": "https://api.github.com/users/laanwj/starred%7B/owner%7D%7B/repo%7D",
        "subscriptions_url": "https://api.github.com/users/laanwj/subscriptions",
        "organizations_url": "https://api.github.com/users/laanwj/orgs",
        "repos_url": "https://api.github.com/users/laanwj/repos",
        "events_url": "https://api.github.com/users/laanwj/events%7B/privacy%7D",
        "received_events_url": "https://api.github.com/users/laanwj/received_events",
        "type": "User",
        "site_admin": false
      },
      "open_issues": 0,
      "closed_issues": 16,
      "created_at": "2022-03-10T11:27:28Z",
      "updated_at": "2023-01-11T16:43:36Z",
      "closed_at": "2023-01-11T16:43:36Z"
    },
    "created_at": "2022-12-08T13:00:42Z",
    "updated_at": "2022-12-14T13:36:10Z",
    "closed_at": "2022-12-14T11:28:03Z",
    "mergeable_state": "unknown",
    "merged_at": "2022-12-14T11:28:03Z",
    "merge_commit_sha": "ffef91a5c18a6c369cf2deb70dd490d23ee62099",
    "assignees": [],
    "requested_reviewers": [],
    "requested_teams": [],
    "head": {
      "label": "fanquake:23_1_final",
      "ref": "23_1_final",
      "sha": "8a16391c91acd1ab7c49370b7b5fd979375c94c7",
      "user": {
        "login": "fanquake",
        "id": 863730,
        "node_id": "MDQ6VXNlcjg2MzczMA==",
        "avatar_url": "https://avatars.githubusercontent.com/u/863730?v=4",
        "gravatar_id": "",
        "url": "https://api.github.com/users/fanquake",
        "html_url": "https://github.com/fanquake",
        "followers_url": "https://api.github.com/users/fanquake/followers",
        "following_url": "https://api.github.com/users/fanquake/following%7B/other_user%7D",
        "gists_url": "https://api.github.com/users/fanquake/gists%7B/gist_id%7D",
        "starred_url": "https://api.github.com/users/fanquake/starred%7B/owner%7D%7B/repo%7D",
        "subscriptions_url": "https://api.github.com/users/fanquake/subscriptions",
        "organizations_url": "https://api.github.com/users/fanquake/orgs",
        "repos_url": "https://api.github.com/users/fanquake/repos",
        "events_url": "https://api.github.com/users/fanquake/events%7B/privacy%7D",
        "received_events_url": "https://api.github.com/users/fanquake/received_events",
        "type": "User",
        "site_admin": false
      },
      "repo": {
        "id": 5910539,
        "node_id": "MDEwOlJlcG9zaXRvcnk1OTEwNTM5",
        "name": "bitcoin",
        "full_name": "fanquake/bitcoin",
        "owner": {
          "login": "fanquake",
          "id": 863730,
          "node_id": "MDQ6VXNlcjg2MzczMA==",
          "avatar_url": "https://avatars.githubusercontent.com/u/863730?v=4",
          "gravatar_id": "",
          "url": "https://api.github.com/users/fanquake",
          "html_url": "https://github.com/fanquake",
          "followers_url": "https://api.github.com/users/fanquake/followers",
          "following_url": "https://api.github.com/users/fanquake/following%7B/other_user%7D",
          "gists_url": "https://api.github.com/users/fanquake/gists%7B/gist_id%7D",
          "starred_url": "https://api.github.com/users/fanquake/starred%7B/owner%7D%7B/repo%7D",
          "subscriptions_url": "https://api.github.com/users/fanquake/subscriptions",
          "organizations_url": "https://api.github.com/users/fanquake/orgs",
          "repos_url": "https://api.github.com/users/fanquake/repos",
          "events_url": "https://api.github.com/users/fanquake/events%7B/privacy%7D",
          "received_events_url": "https://api.github.com/users/fanquake/received_events",
          "type": "User",
          "site_admin": false
        },
        "private": false,
        "html_url": "https://github.com/fanquake/bitcoin",
        "description": "Bitcoin integration/staging tree",
        "fork": true,
        "url": "https://api.github.com/repos/fanquake/bitcoin",
        "archive_url": "https://api.github.com/repos/fanquake/bitcoin/%7Barchive_format%7D%7B/ref%7D",
        "assignees_url": "https://api.github.com/repos/fanquake/bitcoin/assignees%7B/user%7D",
        "blobs_url": "https://api.github.com/repos/fanquake/bitcoin/git/blobs%7B/sha%7D",
        "branches_url": "https://api.github.com/repos/fanquake/bitcoin/branches%7B/branch%7D",
        "collaborators_url": "https://api.github.com/repos/fanquake/bitcoin/collaborators%7B/collaborator%7D",
        "comments_url": "https://api.github.com/repos/fanquake/bitcoin/comments%7B/number%7D",
        "commits_url": "https://api.github.com/repos/fanquake/bitcoin/commits%7B/sha%7D",
        "compare_url": "https://api.github.com/repos/fanquake/bitcoin/compare/%7Bbase%7D...%7Bhead%7D",
        "contents_url": "https://api.github.com/repos/fanquake/bitcoin/contents/%7B+path%7D",
        "contributors_url": "https://api.github.com/repos/fanquake/bitcoin/contributors",
        "deployments_url": "https://api.github.com/repos/fanquake/bitcoin/deployments",
        "downloads_url": "https://api.github.com/repos/fanquake/bitcoin/downloads",
        "events_url": "https://api.github.com/repos/fanquake/bitcoin/events",
        "forks_url": "https://api.github.com/repos/fanquake/bitcoin/forks",
        "git_commits_url": "https://api.github.com/repos/fanquake/bitcoin/git/commits%7B/sha%7D",
        "git_refs_url": "https://api.github.com/repos/fanquake/bitcoin/git/refs%7B/sha%7D",
        "git_tags_url": "https://api.github.com/repos/fanquake/bitcoin/git/tags%7B/sha%7D",
        "git_url": "git://github.com/fanquake/bitcoin.git",
        "issue_comment_url": "https://api.github.com/repos/fanquake/bitcoin/issues/comments%7B/number%7D",
        "issue_events_url": "https://api.github.com/repos/fanquake/bitcoin/issues/events%7B/number%7D",
        "issues_url": "https://api.github.com/repos/fanquake/bitcoin/issues%7B/number%7D",
        "keys_url": "https://api.github.com/repos/fanquake/bitcoin/keys%7B/key_id%7D",
        "labels_url": "https://api.github.com/repos/fanquake/bitcoin/labels%7B/name%7D",
        "languages_url": "https://api.github.com/repos/fanquake/bitcoin/languages",
        "merges_url": "https://api.github.com/repos/fanquake/bitcoin/merges",
        "milestones_url": "https://api.github.com/repos/fanquake/bitcoin/milestones%7B/number%7D",
        "notifications_url": "https://api.github.com/repos/fanquake/bitcoin/notifications%7B?since,all,participating}",
        "pulls_url": "https://api.github.com/repos/fanquake/bitcoin/pulls%7B/number%7D",
        "releases_url": "https://api.github.com/repos/fanquake/bitcoin/releases%7B/id%7D",
        "ssh_url": "git@github.com:fanquake/bitcoin.git",
        "stargazers_url": "https://api.github.com/repos/fanquake/bitcoin/stargazers",
        "statuses_url": "https://api.github.com/repos/fanquake/bitcoin/statuses/%7Bsha%7D",
        "subscribers_url": "https://api.github.com/repos/fanquake/bitcoin/subscribers",
        "subscription_url": "https://api.github.com/repos/fanquake/bitcoin/subscription",
        "tags_url": "https://api.github.com/repos/fanquake/bitcoin/tags",
        "teams_url": "https://api.github.com/repos/fanquake/bitcoin/teams",
        "trees_url": "https://api.github.com/repos/fanquake/bitcoin/git/trees%7B/sha%7D",
        "clone_url": "https://github.com/fanquake/bitcoin.git",
        "hooks_url": "https://api.github.com/repos/fanquake/bitcoin/hooks",
        "svn_url": "https://github.com/fanquake/bitcoin",
        "homepage": "http://www.bitcoincore.org",
        "language": "C++",
        "forks_count": 5,
        "stargazers_count": 13,
        "watchers_count": 13,
        "size": 215355,
        "default_branch": "master",
        "open_issues_count": 0,
        "is_template": false,
        "topics": [],
        "has_issues": false,
        "has_projects": false,
        "has_wiki": false,
        "has_pages": false,
        "has_downloads": false,
        "archived": false,
        "disabled": false,
        "visibility": "public",
        "pushed_at": "2023-08-02T12:28:14Z",
        "created_at": "2012-09-22T05:28:42Z",
        "updated_at": "2023-04-27T19:34:01Z",
        "license": {
          "key": "mit",
          "name": "MIT License",
          "node_id": "MDc6TGljZW5zZTEz",
          "spdx_id": "MIT",
          "url": "https://api.github.com/licenses/mit",
          "html_url": null,
          "description": null,
          "implementation": null,
          "permissions": null,
          "conditions": null,
          "limitations": null,
          "body": null,
          "featured": null
        }
      }
    },
    "base": {
      "label": "bitcoin:23.x",
      "ref": "23.x",
      "sha": "ea9aa3f02f7005a35a3b0e6c31d00513232948d8",
      "user": {
        "login": "bitcoin",
        "id": 528860,
        "node_id": "MDEyOk9yZ2FuaXphdGlvbjUyODg2MA==",
        "avatar_url": "https://avatars.githubusercontent.com/u/528860?v=4",
        "gravatar_id": "",
        "url": "https://api.github.com/users/bitcoin",
        "html_url": "https://github.com/bitcoin",
        "followers_url": "https://api.github.com/users/bitcoin/followers",
        "following_url": "https://api.github.com/users/bitcoin/following%7B/other_user%7D",
        "gists_url": "https://api.github.com/users/bitcoin/gists%7B/gist_id%7D",
        "starred_url": "https://api.github.com/users/bitcoin/starred%7B/owner%7D%7B/repo%7D",
        "subscriptions_url": "https://api.github.com/users/bitcoin/subscriptions",
        "organizations_url": "https://api.github.com/users/bitcoin/orgs",
        "repos_url": "https://api.github.com/users/bitcoin/repos",
        "events_url": "https://api.github.com/users/bitcoin/events%7B/privacy%7D",
        "received_events_url": "https://api.github.com/users/bitcoin/received_events",
        "type": "Organization",
        "site_admin": false
      },
      "repo": {
        "id": 1181927,
        "node_id": "MDEwOlJlcG9zaXRvcnkxMTgxOTI3",
        "name": "bitcoin",
        "full_name": "bitcoin/bitcoin",
        "owner": {
          "login": "bitcoin",
          "id": 528860,
          "node_id": "MDEyOk9yZ2FuaXphdGlvbjUyODg2MA==",
          "avatar_url": "https://avatars.githubusercontent.com/u/528860?v=4",
          "gravatar_id": "",
          "url": "https://api.github.com/users/bitcoin",
          "html_url": "https://github.com/bitcoin",
          "followers_url": "https://api.github.com/users/bitcoin/followers",
          "following_url": "https://api.github.com/users/bitcoin/following%7B/other_user%7D",
          "gists_url": "https://api.github.com/users/bitcoin/gists%7B/gist_id%7D",
          "starred_url": "https://api.github.com/users/bitcoin/starred%7B/owner%7D%7B/repo%7D",
          "subscriptions_url": "https://api.github.com/users/bitcoin/subscriptions",
          "organizations_url": "https://api.github.com/users/bitcoin/orgs",
          "repos_url": "https://api.github.com/users/bitcoin/repos",
          "events_url": "https://api.github.com/users/bitcoin/events%7B/privacy%7D",
          "received_events_url": "https://api.github.com/users/bitcoin/received_events",
          "type": "Organization",
          "site_admin": false
        },
        "private": false,
        "html_url": "https://github.com/bitcoin/bitcoin",
        "description": "Bitcoin Core integration/staging tree",
        "fork": false,
        "url": "https://api.github.com/repos/bitcoin/bitcoin",
        "archive_url": "https://api.github.com/repos/bitcoin/bitcoin/%7Barchive_format%7D%7B/ref%7D",
        "assignees_url": "https://api.github.com/repos/bitcoin/bitcoin/assignees%7B/user%7D",
        "blobs_url": "https://api.github.com/repos/bitcoin/bitcoin/git/blobs%7B/sha%7D",
        "branches_url": "https://api.github.com/repos/bitcoin/bitcoin/branches%7B/branch%7D",
        "collaborators_url": "https://api.github.com/repos/bitcoin/bitcoin/collaborators%7B/collaborator%7D",
        "comments_url": "https://api.github.com/repos/bitcoin/bitcoin/comments%7B/number%7D",
        "commits_url": "https://api.github.com/repos/bitcoin/bitcoin/commits%7B/sha%7D",
        "compare_url": "https://api.github.com/repos/bitcoin/bitcoin/compare/%7Bbase%7D...%7Bhead%7D",
        "contents_url": "https://api.github.com/repos/bitcoin/bitcoin/contents/%7B+path%7D",
        "contributors_url": "https://api.github.com/repos/bitcoin/bitcoin/contributors",
        "deployments_url": "https://api.github.com/repos/bitcoin/bitcoin/deployments",
        "downloads_url": "https://api.github.com/repos/bitcoin/bitcoin/downloads",
        "events_url": "https://api.github.com/repos/bitcoin/bitcoin/events",
        "forks_url": "https://api.github.com/repos/bitcoin/bitcoin/forks",
        "git_commits_url": "https://api.github.com/repos/bitcoin/bitcoin/git/commits%7B/sha%7D",
        "git_refs_url": "https://api.github.com/repos/bitcoin/bitcoin/git/refs%7B/sha%7D",
        "git_tags_url": "https://api.github.com/repos/bitcoin/bitcoin/git/tags%7B/sha%7D",
        "git_url": "git://github.com/bitcoin/bitcoin.git",
        "issue_comment_url": "https://api.github.com/repos/bitcoin/bitcoin/issues/comments%7B/number%7D",
        "issue_events_url": "https://api.github.com/repos/bitcoin/bitcoin/issues/events%7B/number%7D",
        "issues_url": "https://api.github.com/repos/bitcoin/bitcoin/issues%7B/number%7D",
        "keys_url": "https://api.github.com/repos/bitcoin/bitcoin/keys%7B/key_id%7D",
        "labels_url": "https://api.github.com/repos/bitcoin/bitcoin/labels%7B/name%7D",
        "languages_url": "https://api.github.com/repos/bitcoin/bitcoin/languages",
        "merges_url": "https://api.github.com/repos/bitcoin/bitcoin/merges",
        "milestones_url": "https://api.github.com/repos/bitcoin/bitcoin/milestones%7B/number%7D",
        "notifications_url": "https://api.github.com/repos/bitcoin/bitcoin/notifications%7B?since,all,participating}",
        "pulls_url": "https://api.github.com/repos/bitcoin/bitcoin/pulls%7B/number%7D",
        "releases_url": "https://api.github.com/repos/bitcoin/bitcoin/releases%7B/id%7D",
        "ssh_url": "git@github.com:bitcoin/bitcoin.git",
        "stargazers_url": "https://api.github.com/repos/bitcoin/bitcoin/stargazers",
        "statuses_url": "https://api.github.com/repos/bitcoin/bitcoin/statuses/%7Bsha%7D",
        "subscribers_url": "https://api.github.com/repos/bitcoin/bitcoin/subscribers",
        "subscription_url": "https://api.github.com/repos/bitcoin/bitcoin/subscription",
        "tags_url": "https://api.github.com/repos/bitcoin/bitcoin/tags",
        "teams_url": "https://api.github.com/repos/bitcoin/bitcoin/teams",
        "trees_url": "https://api.github.com/repos/bitcoin/bitcoin/git/trees%7B/sha%7D",
        "clone_url": "https://github.com/bitcoin/bitcoin.git",
        "hooks_url": "https://api.github.com/repos/bitcoin/bitcoin/hooks",
        "svn_url": "https://github.com/bitcoin/bitcoin",
        "homepage": "https://bitcoincore.org/en/download",
        "language": "C++",
        "forks_count": 35476,
        "stargazers_count": 70608,
        "watchers_count": 70608,
        "size": 236222,
        "default_branch": "master",
        "open_issues_count": 673,
        "is_template": false,
        "topics": [
          "bitcoin",
          "c-plus-plus",
          "cryptocurrency",
          "cryptography",
          "p2p"
        ],
        "has_issues": true,
        "has_projects": true,
        "has_wiki": false,
        "has_pages": false,
        "has_downloads": false,
        "archived": false,
        "disabled": false,
        "visibility": "public",
        "pushed_at": "2023-08-03T00:03:27Z",
        "created_at": "2010-12-19T15:16:43Z",
        "updated_at": "2023-08-02T18:21:18Z",
        "license": {
          "key": "mit",
          "name": "MIT License",
          "node_id": "MDc6TGljZW5zZTEz",
          "spdx_id": "MIT",
          "url": "https://api.github.com/licenses/mit",
          "html_url": null,
          "description": null,
          "implementation": null,
          "permissions": null,
          "conditions": null,
          "limitations": null,
          "body": null,
          "featured": null
        }
      }
    },
    "_links": {
      "self": {
        "href": "https://api.github.com/repos/bitcoin/bitcoin/pulls/26659"
      }
    },
    "author_association": "MEMBER",
    "draft": false,
    "additions": 33,
    "deletions": 33,
    "changed_files": 8,
    "commits": 3,
    "review_comments": 0,
    "comments": 1
  },
  "events": [
    {
      "event": "committed",
      "id": null,
      "node_id": "C_kwDOABII59oAKDkzNzEzNjU0ZWY2NWIzMzUzMzk0YjBlZmQ2NTNiZWJhMTgyNmEwZjg",
      "url": "https://api.github.com/repos/bitcoin/bitcoin/git/commits/93713654ef65b3353394b0efd653beba1826a0f8",
      "actor": null,
      "commit_id": null,
      "commit_url": null,
      "created_at": null,
      "html_url": "https://github.com/bitcoin/bitcoin/commit/93713654ef65b3353394b0efd653beba1826a0f8",
      "tree": {
        "sha": "6f676c1e69bff7d01384d357f74340357968b7ba",
        "url": "https://api.github.com/repos/bitcoin/bitcoin/git/trees/6f676c1e69bff7d01384d357f74340357968b7ba"
      },
      "verification": {
        "verified": true,
        "reason": "valid",
        "payload": "tree 6f676c1e69bff7d01384d357f74340357968b7ba\nparent ea9aa3f02f7005a35a3b0e6c31d00513232948d8\nauthor fanquake <fanquake@gmail.com> 1670502742 +0000\ncommitter fanquake <fanquake@gmail.com> 1670502742 +0000\n\nbuild: bump version to 23.1 final\n",
        "signature": "-----BEGIN PGP SIGNATURE-----\n\niQIzBAABCAAdFiEEz7FuIclQ9n+pXlWPLuufXMCVJsEFAmOR2V0ACgkQLuufXMCV\nJsGB5g/9GS0U7gMn2ppblRQlt1XvVi86ICC4ExNuIEfgD54Wp1OpoBemwJB3W7CW\n862XJD5FqJKpDlxzHpiGZepeVcjMpDIivbaJQHCJhpU024i888XMRF4HX5qFLTP9\nSTCmeALaSn3sXztJdh1WLbnqWj4n4WgqJ9MwMlFkuPab49+StxALYmYp3iA/3C1M\ncMN6xtqPvH8E1wM6aQc0VFkYN2UYqWquCAoHPTUdu0SPUvUWFTkeJouOKZglNRUo\nWx6LTFPfzpOdDVIO3PQx4S9PiQS7/OPO8E+yKItKjy5gyFz7V0rgYnr9xiYonY50\ncX9kcrurns2xRzQgy43m1g7myt4bLnG7lv3CUfuN8Wb2xKds3w+bO4ZB8hLSbKLw\nSbovTNC8eN0Z4otGTx55yHDUEXDqSmOkLueRHfstE97yz7Mmfs58Tz4zfg/YBx5B\nZsGnrd9lDaz06p4UCCEV1CFWHDMpIUdBDNa3CQ+B4MmQW4G5fg6j8XUMjt4LhRpo\nIozVmOuq5Gob5fIT9INxyHfBxxaiatGY3Y3ge80EFCSXbOWE2+UYVeCMOdTbewQI\n6FkTzERB3amFxh/AOXenKQ7u1hlr+SeHQSYPculJXNW15ffUYJ1qmTZgxqePvX2d\nt0NYGliwYadn6nMbRsGgHyIMrxgzE7dy9QBSzqXlrRU6BWWvIrI=\n=lJ1G\n-----END PGP SIGNATURE-----"
      },
      "parents": [
        {
          "url": "https://api.github.com/repos/bitcoin/bitcoin/git/commits/ea9aa3f02f7005a35a3b0e6c31d00513232948d8",
          "sha": "ea9aa3f02f7005a35a3b0e6c31d00513232948d8",
          "html_url": "https://github.com/bitcoin/bitcoin/commit/ea9aa3f02f7005a35a3b0e6c31d00513232948d8"
        }
      ],
      "message": "build: bump version to 23.1 final",
      "committer": {
        "name": "fanquake",
        "email": "fanquake@gmail.com",
        "date": "2022-12-08T12:32:22Z"
      },
      "author": {
        "name": "fanquake",
        "email": "fanquake@gmail.com",
        "date": "2022-12-08T12:32:22Z"
      },
      "sha": "93713654ef65b3353394b0efd653beba1826a0f8"
    },
    {
      "event": "committed",
      "id": null,
      "node_id": "C_kwDOABII59oAKDU4NDc4MjYxZGU3NzAzNWY5MGI3NThlNGYwM2E2ZDJmZGMwZmE1MTY",
      "url": "https://api.github.com/repos/bitcoin/bitcoin/git/commits/58478261de77035f90b758e4f03a6d2fdc0fa516",
      "actor": null,
      "commit_id": null,
      "commit_url": null,
      "created_at": null,
      "html_url": "https://github.com/bitcoin/bitcoin/commit/58478261de77035f90b758e4f03a6d2fdc0fa516",
      "tree": {
        "sha": "55e7846ee3c6512b0720b567d4332a96b0cd4bda",
        "url": "https://api.github.com/repos/bitcoin/bitcoin/git/trees/55e7846ee3c6512b0720b567d4332a96b0cd4bda"
      },
      "verification": {
        "verified": true,
        "reason": "valid",
        "payload": "tree 55e7846ee3c6512b0720b567d4332a96b0cd4bda\nparent 93713654ef65b3353394b0efd653beba1826a0f8\nauthor fanquake <fanquake@gmail.com> 1670502964 +0000\ncommitter fanquake <fanquake@gmail.com> 1670502964 +0000\n\ndoc: update manual pages for 23.1\n",
        "signature": "-----BEGIN PGP SIGNATURE-----\n\niQIzBAABCAAdFiEEz7FuIclQ9n+pXlWPLuufXMCVJsEFAmOR2jwACgkQLuufXMCV\nJsEcLw//VCAfGYmsQ3eMKQQwqcOlAQA/NirF8EeAVJ/4zLFe01VXo99EAjU0uBEI\nGRjiqsRmX3NS21ymqXsyti60SwrjbCnb9xQOhgZstWNRsUv/FKvM6r4+e//KdcTc\nMG1otlu6Snegxpi05yZ7pWlsYX3Skk86IzcvTX5NSRXoipobHSXGKSxk/nEh/Mmz\nAUdeWcQtTaCrvqlbW/vb1z8iPexj1Da0PbTV3TOAR5EWeZgru7uREyvlQKrwM90m\nfdabAcUWzwdTrsVpTgREL9ZjGRKIqfqqQHy5HTCTy4AguIArBErzvKHOZgo5TcdM\nsjPkUzdUH0J+VJIeI9o1PFGK6WAQ1O6zlQ9662db/5hETf73ig72dSjUPRS4PIm8\nFM6T17wgNCeC+D+W8ZmxsG1+oBCBJbSK8OJPNSwSkxJZaWwIjbBMkPCgnMD5O4cN\ngMl3XqlgsXBOWBLRxPWaXIwPAOAH/a0D91swbk5bzS5ObXzaD+IbdJvWqFC3v24z\nnZp/bn7vFCpvUZAELUm2/0FIxN0V/UVpvRnN5w56CHA2p8kDvDx1ASZ2hK6F3uUY\n3z6XPAckjTl6w2z+nXuHLdKk21L9sPVpK5WxV129bUH0DN4JKYFe0uneoWColviF\nFAJPxwjYYU22jod0JLshdn1b64SU9l1XjDxaRv3hwbYCoSLY9YA=\n=LBFQ\n-----END PGP SIGNATURE-----"
      },
      "parents": [
        {
          "url": "https://api.github.com/repos/bitcoin/bitcoin/git/commits/93713654ef65b3353394b0efd653beba1826a0f8",
          "sha": "93713654ef65b3353394b0efd653beba1826a0f8",
          "html_url": "https://github.com/bitcoin/bitcoin/commit/93713654ef65b3353394b0efd653beba1826a0f8"
        }
      ],
      "message": "doc: update manual pages for 23.1",
      "committer": {
        "name": "fanquake",
        "email": "fanquake@gmail.com",
        "date": "2022-12-08T12:36:04Z"
      },
      "author": {
        "name": "fanquake",
        "email": "fanquake@gmail.com",
        "date": "2022-12-08T12:36:04Z"
      },
      "sha": "58478261de77035f90b758e4f03a6d2fdc0fa516"
    },
    {
      "event": "committed",
      "id": null,
      "node_id": "C_kwDOABII59oAKDhhMTYzOTFjOTFhY2QxYWI3YzQ5MzcwYjdiNWZkOTc5Mzc1Yzk0Yzc",
      "url": "https://api.github.com/repos/bitcoin/bitcoin/git/commits/8a16391c91acd1ab7c49370b7b5fd979375c94c7",
      "actor": null,
      "commit_id": null,
      "commit_url": null,
      "created_at": null,
      "html_url": "https://github.com/bitcoin/bitcoin/commit/8a16391c91acd1ab7c49370b7b5fd979375c94c7",
      "tree": {
        "sha": "d14efb2a1e8049ca0df84d78cbcbeb9ccabac642",
        "url": "https://api.github.com/repos/bitcoin/bitcoin/git/trees/d14efb2a1e8049ca0df84d78cbcbeb9ccabac642"
      },
      "verification": {
        "verified": true,
        "reason": "valid",
        "payload": "tree d14efb2a1e8049ca0df84d78cbcbeb9ccabac642\nparent 58478261de77035f90b758e4f03a6d2fdc0fa516\nauthor fanquake <fanquake@gmail.com> 1670503043 +0000\ncommitter fanquake <fanquake@gmail.com> 1670503043 +0000\n\ndoc: update release notes for 23.1\n",
        "signature": "-----BEGIN PGP SIGNATURE-----\n\niQIzBAABCAAdFiEEz7FuIclQ9n+pXlWPLuufXMCVJsEFAmOR2okACgkQLuufXMCV\nJsEwFQ/9Gd8GzdqdhB1YENr15NvPge9VNbwluiJbqrGbn55oyoWvnQ3IcwmWnU61\nWBoDncdrFtq+gcjQ2tg+Pb4hyvyDa/ba0kJ66L/sn9h+tllkVG6TCtiuRm2MI6YK\n19K/bqff/fm9SGWarHhLqYcP4H8/qfYsrjM/kcbkgDW6wa5D363FIUmKqRyltISY\n8oaa9VWiwO1A45yM4AjRVjJVC8vPylSBI5j+85ilHrwP166J8jV+iiYHqmw9Xz5W\n/+by5/TGS+zfbmptw8N//98xiorvrd1y8Y217EpnC+mdIiL7nPDvuWhMzYpVS4wQ\n6qfKavv+U5dC6Cq+AUa9IrEig4uOXX3fgW4qir/awbXL3ITj2ou+Py3LuPzhRHFw\no7zjRqp+DN7JmPFWLGm3gn4u1Fczf1aAEWUFHxLG/uTIdzOUAY0jdS8L7RiBRDOZ\n1Tbmsm4PuGghMlv2CbQkD9QZ0QsCGe5RalduphsWIiYdcrtZhIF9jpsjIIygChqy\nuBK0Pz2TnQik7XlpWb5qLWkjU+KL1uD7kAAHOiQqdbJxbJ2A+dMBErVQawYbSfBi\npjJm+/V0I0bNhbTPxD9R5/BIvNgn3U97+sSYLMyiV/fl/4ZfvSP3V6R4DY0GuG9i\nmk5HaKXnommo/ocqNecgvKeUQpw5YFaJ8EnYS996fjHuNddSsLM=\n=bcv5\n-----END PGP SIGNATURE-----"
      },
      "parents": [
        {
          "url": "https://api.github.com/repos/bitcoin/bitcoin/git/commits/58478261de77035f90b758e4f03a6d2fdc0fa516",
          "sha": "58478261de77035f90b758e4f03a6d2fdc0fa516",
          "html_url": "https://github.com/bitcoin/bitcoin/commit/58478261de77035f90b758e4f03a6d2fdc0fa516"
        }
      ],
      "message": "doc: update release notes for 23.1",
      "committer": {
        "name": "fanquake",
        "email": "fanquake@gmail.com",
        "date": "2022-12-08T12:37:23Z"
      },
      "author": {
        "name": "fanquake",
        "email": "fanquake@gmail.com",
        "date": "2022-12-08T12:37:23Z"
      },
      "sha": "8a16391c91acd1ab7c49370b7b5fd979375c94c7"
    },
    {
      "event": "milestoned",
      "id": 7988818268,
      "node_id": "MIE_lADOABII585YfRO8zwAAAAHcK7Fc",
      "url": "https://api.github.com/repos/bitcoin/bitcoin/issues/events/7988818268",
      "actor": {
        "login": "fanquake",
        "id": 863730,
        "node_id": "MDQ6VXNlcjg2MzczMA==",
        "avatar_url": "https://avatars.githubusercontent.com/u/863730?v=4",
        "gravatar_id": "",
        "url": "https://api.github.com/users/fanquake",
        "html_url": "https://github.com/fanquake",
        "followers_url": "https://api.github.com/users/fanquake/followers",
        "following_url": "https://api.github.com/users/fanquake/following%7B/other_user%7D",
        "gists_url": "https://api.github.com/users/fanquake/gists%7B/gist_id%7D",
        "starred_url": "https://api.github.com/users/fanquake/starred%7B/owner%7D%7B/repo%7D",
        "subscriptions_url": "https://api.github.com/users/fanquake/subscriptions",
        "organizations_url": "https://api.github.com/users/fanquake/orgs",
        "repos_url": "https://api.github.com/users/fanquake/repos",
        "events_url": "https://api.github.com/users/fanquake/events%7B/privacy%7D",
        "received_events_url": "https://api.github.com/users/fanquake/received_events",
        "type": "User",
        "site_admin": false
      },
      "commit_id": null,
      "commit_url": null,
      "created_at": "2022-12-08T13:00:43Z",
      "milestone": {
        "title": "23.1"
      }
    },
    {
      "event": "commented",
      "id": 1342699585,
      "node_id": "IC_kwDOABII585QB_hB",
      "url": "https://api.github.com/repos/bitcoin/bitcoin/issues/comments/1342699585",
      "actor": {
        "login": "DrahtBot",
        "id": 39886733,
        "node_id": "MDQ6VXNlcjM5ODg2NzMz",
        "avatar_url": "https://avatars.githubusercontent.com/u/39886733?v=4",
        "gravatar_id": "",
        "url": "https://api.github.com/users/DrahtBot",
        "html_url": "https://github.com/DrahtBot",
        "followers_url": "https://api.github.com/users/DrahtBot/followers",
        "following_url": "https://api.github.com/users/DrahtBot/following%7B/other_user%7D",
        "gists_url": "https://api.github.com/users/DrahtBot/gists%7B/gist_id%7D",
        "starred_url": "https://api.github.com/users/DrahtBot/starred%7B/owner%7D%7B/repo%7D",
        "subscriptions_url": "https://api.github.com/users/DrahtBot/subscriptions",
        "organizations_url": "https://api.github.com/users/DrahtBot/orgs",
        "repos_url": "https://api.github.com/users/DrahtBot/repos",
        "events_url": "https://api.github.com/users/DrahtBot/events%7B/privacy%7D",
        "received_events_url": "https://api.github.com/users/DrahtBot/received_events",
        "type": "User",
        "site_admin": false
      },
      "commit_id": null,
      "commit_url": null,
      "created_at": "2022-12-08T13:00:45Z",
      "updated_at": "2022-12-09T09:30:22Z",
      "author_association": "CONTRIBUTOR",
      "body": "<!--e57a25ab6845829454e8d69fc972939a-->\n\nThe following sections might be updated with supplementary metadata relevant to reviewers and maintainers.\n\n<!--021abf342d371248e50ceaed478a90ca-->\n### Reviews\nSee [the guideline](https://github.com/bitcoin/bitcoin/blob/master/CONTRIBUTING.md#code-review) for information on the review process.\n| Type | Reviewers |\n| ---- | --------- |\n| ACK | [hebasto](https://github.com/bitcoin/bitcoin/pull/26659#pullrequestreview-1211372528) |\n\nIf your review is incorrectly listed, please react with 👎 to this comment and the bot will ignore it on the next update.\n",
      "user": {
        "login": "DrahtBot",
        "id": 39886733,
        "node_id": "MDQ6VXNlcjM5ODg2NzMz",
        "avatar_url": "https://avatars.githubusercontent.com/u/39886733?v=4",
        "gravatar_id": "",
        "url": "https://api.github.com/users/DrahtBot",
        "html_url": "https://github.com/DrahtBot",
        "followers_url": "https://api.github.com/users/DrahtBot/followers",
        "following_url": "https://api.github.com/users/DrahtBot/following%7B/other_user%7D",
        "gists_url": "https://api.github.com/users/DrahtBot/gists%7B/gist_id%7D",
        "starred_url": "https://api.github.com/users/DrahtBot/starred%7B/owner%7D%7B/repo%7D",
        "subscriptions_url": "https://api.github.com/users/DrahtBot/subscriptions",
        "organizations_url": "https://api.github.com/users/DrahtBot/orgs",
        "repos_url": "https://api.github.com/users/DrahtBot/repos",
        "events_url": "https://api.github.com/users/DrahtBot/events%7B/privacy%7D",
        "received_events_url": "https://api.github.com/users/DrahtBot/received_events",
        "type": "User",
        "site_admin": false
      },
      "html_url": "https://github.com/bitcoin/bitcoin/pull/26659#issuecomment-1342699585",
      "issue_url": "https://api.github.com/repos/bitcoin/bitcoin/issues/26659"
    },
    {
      "event": "labeled",
      "id": 7988818898,
      "node_id": "LE_lADOABII585YfRO8zwAAAAHcK7PS",
      "url": "https://api.github.com/repos/bitcoin/bitcoin/issues/events/7988818898",
      "actor": {
        "login": "DrahtBot",
        "id": 39886733,
        "node_id": "MDQ6VXNlcjM5ODg2NzMz",
        "avatar_url": "https://avatars.githubusercontent.com/u/39886733?v=4",
        "gravatar_id": "",
        "url": "https://api.github.com/users/DrahtBot",
        "html_url": "https://github.com/DrahtBot",
        "followers_url": "https://api.github.com/users/DrahtBot/followers",
        "following_url": "https://api.github.com/users/DrahtBot/following%7B/other_user%7D",
        "gists_url": "https://api.github.com/users/DrahtBot/gists%7B/gist_id%7D",
        "starred_url": "https://api.github.com/users/DrahtBot/starred%7B/owner%7D%7B/repo%7D",
        "subscriptions_url": "https://api.github.com/users/DrahtBot/subscriptions",
        "organizations_url": "https://api.github.com/users/DrahtBot/orgs",
        "repos_url": "https://api.github.com/users/DrahtBot/repos",
        "events_url": "https://api.github.com/users/DrahtBot/events%7B/privacy%7D",
        "received_events_url": "https://api.github.com/users/DrahtBot/received_events",
        "type": "User",
        "site_admin": false
      },
      "commit_id": null,
      "commit_url": null,
      "created_at": "2022-12-08T13:00:47Z",
      "label": {
        "name": "Backport",
        "color": "dd7200"
      }
    },
    {
      "event": "reviewed",
      "id": 1211372528,
      "node_id": "PRR_kwDOABII585INBPw",
      "url": null,
      "actor": null,
      "commit_id": "8a16391c91acd1ab7c49370b7b5fd979375c94c7",
      "commit_url": null,
      "created_at": null,
      "author_association": "MEMBER",
      "body": "ACK 8a16391c91acd1ab7c49370b7b5fd979375c94c7, I have reviewed the changes and they look OK.",
      "user": {
        "login": "hebasto",
        "id": 32963518,
        "node_id": "MDQ6VXNlcjMyOTYzNTE4",
        "avatar_url": "https://avatars.githubusercontent.com/u/32963518?v=4",
        "gravatar_id": "",
        "url": "https://api.github.com/users/hebasto",
        "html_url": "https://github.com/hebasto",
        "followers_url": "https://api.github.com/users/hebasto/followers",
        "following_url": "https://api.github.com/users/hebasto/following%7B/other_user%7D",
        "gists_url": "https://api.github.com/users/hebasto/gists%7B/gist_id%7D",
        "starred_url": "https://api.github.com/users/hebasto/starred%7B/owner%7D%7B/repo%7D",
        "subscriptions_url": "https://api.github.com/users/hebasto/subscriptions",
        "organizations_url": "https://api.github.com/users/hebasto/orgs",
        "repos_url": "https://api.github.com/users/hebasto/repos",
        "events_url": "https://api.github.com/users/hebasto/events%7B/privacy%7D",
        "received_events_url": "https://api.github.com/users/hebasto/received_events",
        "type": "User",
        "site_admin": false
      },
      "html_url": "https://github.com/bitcoin/bitcoin/pull/26659#pullrequestreview-1211372528",
      "submitted_at": "2022-12-09T09:30:19Z",
      "state": "APPROVED",
      "pull_request_url": "https://api.github.com/repos/bitcoin/bitcoin/pulls/26659"
    },
    {
      "event": "merged",
      "id": 8036152953,
      "node_id": "ME_lADOABII585YfRO8zwAAAAHe_fZ5",
      "url": "https://api.github.com/repos/bitcoin/bitcoin/issues/events/8036152953",
      "actor": {
        "login": "MarcoFalke",
        "id": 6399679,
        "node_id": "MDQ6VXNlcjYzOTk2Nzk=",
        "avatar_url": "https://avatars.githubusercontent.com/u/6399679?v=4",
        "gravatar_id": "",
        "url": "https://api.github.com/users/MarcoFalke",
        "html_url": "https://github.com/MarcoFalke",
        "followers_url": "https://api.github.com/users/MarcoFalke/followers",
        "following_url": "https://api.github.com/users/MarcoFalke/following%7B/other_user%7D",
        "gists_url": "https://api.github.com/users/MarcoFalke/gists%7B/gist_id%7D",
        "starred_url": "https://api.github.com/users/MarcoFalke/starred%7B/owner%7D%7B/repo%7D",
        "subscriptions_url": "https://api.github.com/users/MarcoFalke/subscriptions",
        "organizations_url": "https://api.github.com/users/MarcoFalke/orgs",
        "repos_url": "https://api.github.com/users/MarcoFalke/repos",
        "events_url": "https://api.github.com/users/MarcoFalke/events%7B/privacy%7D",
        "received_events_url": "https://api.github.com/users/MarcoFalke/received_events",
        "type": "User",
        "site_admin": false
      },
      "commit_id": "ffef91a5c18a6c369cf2deb70dd490d23ee62099",
      "commit_url": "https://api.github.com/repos/bitcoin/bitcoin/commits/ffef91a5c18a6c369cf2deb70dd490d23ee62099",
      "created_at": "2022-12-14T11:28:03Z"
    },
    {
      "event": "closed",
      "id": 8036153019,
      "node_id": "CE_lADOABII585YfRO8zwAAAAHe_fa7",
      "url": "https://api.github.com/repos/bitcoin/bitcoin/issues/events/8036153019",
      "actor": {
        "login": "MarcoFalke",
        "id": 6399679,
        "node_id": "MDQ6VXNlcjYzOTk2Nzk=",
        "avatar_url": "https://avatars.githubusercontent.com/u/6399679?v=4",
        "gravatar_id": "",
        "url": "https://api.github.com/users/MarcoFalke",
        "html_url": "https://github.com/MarcoFalke",
        "followers_url": "https://api.github.com/users/MarcoFalke/followers",
        "following_url": "https://api.github.com/users/MarcoFalke/following%7B/other_user%7D",
        "gists_url": "https://api.github.com/users/MarcoFalke/gists%7B/gist_id%7D",
        "starred_url": "https://api.github.com/users/MarcoFalke/starred%7B/owner%7D%7B/repo%7D",
        "subscriptions_url": "https://api.github.com/users/MarcoFalke/subscriptions",
        "organizations_url": "https://api.github.com/users/MarcoFalke/orgs",
        "repos_url": "https://api.github.com/users/MarcoFalke/repos",
        "events_url": "https://api.github.com/users/MarcoFalke/events%7B/privacy%7D",
        "received_events_url": "https://api.github.com/users/MarcoFalke/received_events",
        "type": "User",
        "site_admin": false
      },
      "commit_id": null,
      "commit_url": null,
      "created_at": "2022-12-14T11:28:04Z"
    },
    {
      "event": "head_ref_deleted",
      "id": 8037328051,
      "node_id": "HRDE_lADOABII585YfRO8zwAAAAHfD-Sz",
      "url": "https://api.github.com/repos/bitcoin/bitcoin/issues/events/8037328051",
      "actor": {
        "login": "fanquake",
        "id": 863730,
        "node_id": "MDQ6VXNlcjg2MzczMA==",
        "avatar_url": "https://avatars.githubusercontent.com/u/863730?v=4",
        "gravatar_id": "",
        "url": "https://api.github.com/users/fanquake",
        "html_url": "https://github.com/fanquake",
        "followers_url": "https://api.github.com/users/fanquake/followers",
        "following_url": "https://api.github.com/users/fanquake/following%7B/other_user%7D",
        "gists_url": "https://api.github.com/users/fanquake/gists%7B/gist_id%7D",
        "starred_url": "https://api.github.com/users/fanquake/starred%7B/owner%7D%7B/repo%7D",
        "subscriptions_url": "https://api.github.com/users/fanquake/subscriptions",
        "organizations_url": "https://api.github.com/users/fanquake/orgs",
        "repos_url": "https://api.github.com/users/fanquake/repos",
        "events_url": "https://api.github.com/users/fanquake/events%7B/privacy%7D",
        "received_events_url": "https://api.github.com/users/fanquake/received_events",
        "type": "User",
        "site_admin": false
      },
      "commit_id": null,
      "commit_url": null,
      "created_at": "2022-12-14T13:36:10Z"
    }
  ],
  "comments": []
}