{
  "type": "pull",
  "pull": {
    "url": "https://api.github.com/repos/bitcoin/bitcoin/pulls/26668",
    "id": 1154734686,
    "node_id": "PR_kwDOABII585E09pe",
    "html_url": "https://github.com/bitcoin/bitcoin/pull/26668",
    "diff_url": "https://github.com/bitcoin/bitcoin/pull/26668.diff",
    "patch_url": "https://github.com/bitcoin/bitcoin/pull/26668.patch",
    "issue_url": "https://api.github.com/repos/bitcoin/bitcoin/issues/26668",
    "commits_url": "https://api.github.com/repos/bitcoin/bitcoin/pulls/26668/commits",
    "review_comments_url": "https://api.github.com/repos/bitcoin/bitcoin/pulls/26668/comments",
    "review_comment_url": "https://api.github.com/repos/bitcoin/bitcoin/pulls/comments%7B/number%7D",
    "comments_url": "https://api.github.com/repos/bitcoin/bitcoin/issues/26668/comments",
    "statuses_url": "https://api.github.com/repos/bitcoin/bitcoin/statuses/89c1491d35389eac0c1fecc59333cdfae3b1bd2c",
    "number": 26668,
    "state": "closed",
    "locked": false,
    "maintainer_can_modify": false,
    "title": "wallet: if only have one output type, don't perform \"mixed\" coin selection",
    "user": {
      "login": "furszy",
      "id": 5377650,
      "node_id": "MDQ6VXNlcjUzNzc2NTA=",
      "avatar_url": "https://avatars.githubusercontent.com/u/5377650?v=4",
      "gravatar_id": "",
      "url": "https://api.github.com/users/furszy",
      "html_url": "https://github.com/furszy",
      "followers_url": "https://api.github.com/users/furszy/followers",
      "following_url": "https://api.github.com/users/furszy/following%7B/other_user%7D",
      "gists_url": "https://api.github.com/users/furszy/gists%7B/gist_id%7D",
      "starred_url": "https://api.github.com/users/furszy/starred%7B/owner%7D%7B/repo%7D",
      "subscriptions_url": "https://api.github.com/users/furszy/subscriptions",
      "organizations_url": "https://api.github.com/users/furszy/orgs",
      "repos_url": "https://api.github.com/users/furszy/repos",
      "events_url": "https://api.github.com/users/furszy/events%7B/privacy%7D",
      "received_events_url": "https://api.github.com/users/furszy/received_events",
      "type": "User",
      "site_admin": false
    },
    "body": "For wallets that only have one output type, we are currently performing the same\r\nselection process over the same coins twice.\r\n\r\nThe \"mixed coin selection\" doesn't add any value to the result\r\n(there is nothing to mix if the available coins struct has only one type).",
    "labels": [
      {
        "id": 149424,
        "node_id": "MDU6TGFiZWwxNDk0MjQ=",
        "url": "https://api.github.com/repos/bitcoin/bitcoin/labels/Wallet",
        "name": "Wallet",
        "color": "08a781",
        "default": false
      }
    ],
    "created_at": "2022-12-08T20:06:14Z",
    "updated_at": "2023-05-27T01:46:34Z",
    "closed_at": "2022-12-14T21:17:08Z",
    "mergeable_state": "unknown",
    "merged_at": "2022-12-14T21:17:08Z",
    "merge_commit_sha": "ba47a4ba97e924fb628849754c78d9cd10841c31",
    "assignees": [],
    "requested_reviewers": [],
    "requested_teams": [],
    "head": {
      "label": "furszy:2022_wallet_double_coin_selection",
      "ref": "2022_wallet_double_coin_selection",
      "sha": "89c1491d35389eac0c1fecc59333cdfae3b1bd2c",
      "user": {
        "login": "furszy",
        "id": 5377650,
        "node_id": "MDQ6VXNlcjUzNzc2NTA=",
        "avatar_url": "https://avatars.githubusercontent.com/u/5377650?v=4",
        "gravatar_id": "",
        "url": "https://api.github.com/users/furszy",
        "html_url": "https://github.com/furszy",
        "followers_url": "https://api.github.com/users/furszy/followers",
        "following_url": "https://api.github.com/users/furszy/following%7B/other_user%7D",
        "gists_url": "https://api.github.com/users/furszy/gists%7B/gist_id%7D",
        "starred_url": "https://api.github.com/users/furszy/starred%7B/owner%7D%7B/repo%7D",
        "subscriptions_url": "https://api.github.com/users/furszy/subscriptions",
        "organizations_url": "https://api.github.com/users/furszy/orgs",
        "repos_url": "https://api.github.com/users/furszy/repos",
        "events_url": "https://api.github.com/users/furszy/events%7B/privacy%7D",
        "received_events_url": "https://api.github.com/users/furszy/received_events",
        "type": "User",
        "site_admin": false
      },
      "repo": {
        "id": 143624913,
        "node_id": "MDEwOlJlcG9zaXRvcnkxNDM2MjQ5MTM=",
        "name": "bitcoin-core",
        "full_name": "furszy/bitcoin-core",
        "owner": {
          "login": "furszy",
          "id": 5377650,
          "node_id": "MDQ6VXNlcjUzNzc2NTA=",
          "avatar_url": "https://avatars.githubusercontent.com/u/5377650?v=4",
          "gravatar_id": "",
          "url": "https://api.github.com/users/furszy",
          "html_url": "https://github.com/furszy",
          "followers_url": "https://api.github.com/users/furszy/followers",
          "following_url": "https://api.github.com/users/furszy/following%7B/other_user%7D",
          "gists_url": "https://api.github.com/users/furszy/gists%7B/gist_id%7D",
          "starred_url": "https://api.github.com/users/furszy/starred%7B/owner%7D%7B/repo%7D",
          "subscriptions_url": "https://api.github.com/users/furszy/subscriptions",
          "organizations_url": "https://api.github.com/users/furszy/orgs",
          "repos_url": "https://api.github.com/users/furszy/repos",
          "events_url": "https://api.github.com/users/furszy/events%7B/privacy%7D",
          "received_events_url": "https://api.github.com/users/furszy/received_events",
          "type": "User",
          "site_admin": false
        },
        "private": false,
        "html_url": "https://github.com/furszy/bitcoin-core",
        "description": "Bitcoin-Core",
        "fork": true,
        "url": "https://api.github.com/repos/furszy/bitcoin-core",
        "archive_url": "https://api.github.com/repos/furszy/bitcoin-core/%7Barchive_format%7D%7B/ref%7D",
        "assignees_url": "https://api.github.com/repos/furszy/bitcoin-core/assignees%7B/user%7D",
        "blobs_url": "https://api.github.com/repos/furszy/bitcoin-core/git/blobs%7B/sha%7D",
        "branches_url": "https://api.github.com/repos/furszy/bitcoin-core/branches%7B/branch%7D",
        "collaborators_url": "https://api.github.com/repos/furszy/bitcoin-core/collaborators%7B/collaborator%7D",
        "comments_url": "https://api.github.com/repos/furszy/bitcoin-core/comments%7B/number%7D",
        "commits_url": "https://api.github.com/repos/furszy/bitcoin-core/commits%7B/sha%7D",
        "compare_url": "https://api.github.com/repos/furszy/bitcoin-core/compare/%7Bbase%7D...%7Bhead%7D",
        "contents_url": "https://api.github.com/repos/furszy/bitcoin-core/contents/%7B+path%7D",
        "contributors_url": "https://api.github.com/repos/furszy/bitcoin-core/contributors",
        "deployments_url": "https://api.github.com/repos/furszy/bitcoin-core/deployments",
        "downloads_url": "https://api.github.com/repos/furszy/bitcoin-core/downloads",
        "events_url": "https://api.github.com/repos/furszy/bitcoin-core/events",
        "forks_url": "https://api.github.com/repos/furszy/bitcoin-core/forks",
        "git_commits_url": "https://api.github.com/repos/furszy/bitcoin-core/git/commits%7B/sha%7D",
        "git_refs_url": "https://api.github.com/repos/furszy/bitcoin-core/git/refs%7B/sha%7D",
        "git_tags_url": "https://api.github.com/repos/furszy/bitcoin-core/git/tags%7B/sha%7D",
        "git_url": "git://github.com/furszy/bitcoin-core.git",
        "issue_comment_url": "https://api.github.com/repos/furszy/bitcoin-core/issues/comments%7B/number%7D",
        "issue_events_url": "https://api.github.com/repos/furszy/bitcoin-core/issues/events%7B/number%7D",
        "issues_url": "https://api.github.com/repos/furszy/bitcoin-core/issues%7B/number%7D",
        "keys_url": "https://api.github.com/repos/furszy/bitcoin-core/keys%7B/key_id%7D",
        "labels_url": "https://api.github.com/repos/furszy/bitcoin-core/labels%7B/name%7D",
        "languages_url": "https://api.github.com/repos/furszy/bitcoin-core/languages",
        "merges_url": "https://api.github.com/repos/furszy/bitcoin-core/merges",
        "milestones_url": "https://api.github.com/repos/furszy/bitcoin-core/milestones%7B/number%7D",
        "notifications_url": "https://api.github.com/repos/furszy/bitcoin-core/notifications%7B?since,all,participating}",
        "pulls_url": "https://api.github.com/repos/furszy/bitcoin-core/pulls%7B/number%7D",
        "releases_url": "https://api.github.com/repos/furszy/bitcoin-core/releases%7B/id%7D",
        "ssh_url": "git@github.com:furszy/bitcoin-core.git",
        "stargazers_url": "https://api.github.com/repos/furszy/bitcoin-core/stargazers",
        "statuses_url": "https://api.github.com/repos/furszy/bitcoin-core/statuses/%7Bsha%7D",
        "subscribers_url": "https://api.github.com/repos/furszy/bitcoin-core/subscribers",
        "subscription_url": "https://api.github.com/repos/furszy/bitcoin-core/subscription",
        "tags_url": "https://api.github.com/repos/furszy/bitcoin-core/tags",
        "teams_url": "https://api.github.com/repos/furszy/bitcoin-core/teams",
        "trees_url": "https://api.github.com/repos/furszy/bitcoin-core/git/trees%7B/sha%7D",
        "clone_url": "https://github.com/furszy/bitcoin-core.git",
        "hooks_url": "https://api.github.com/repos/furszy/bitcoin-core/hooks",
        "svn_url": "https://github.com/furszy/bitcoin-core",
        "homepage": "",
        "language": "C++",
        "forks_count": 2,
        "stargazers_count": 1,
        "watchers_count": 1,
        "size": 381574,
        "default_branch": "master",
        "open_issues_count": 0,
        "is_template": false,
        "topics": [],
        "has_issues": false,
        "has_projects": true,
        "has_wiki": true,
        "has_pages": false,
        "has_downloads": false,
        "archived": false,
        "disabled": false,
        "visibility": "public",
        "pushed_at": "2023-08-02T20:22:00Z",
        "created_at": "2018-08-05T15:28:43Z",
        "updated_at": "2023-02-27T18:01:49Z",
        "license": {
          "key": "mit",
          "name": "MIT License",
          "node_id": "MDc6TGljZW5zZTEz",
          "spdx_id": "MIT",
          "url": "https://api.github.com/licenses/mit",
          "html_url": null,
          "description": null,
          "implementation": null,
          "permissions": null,
          "conditions": null,
          "limitations": null,
          "body": null,
          "featured": null
        }
      }
    },
    "base": {
      "label": "bitcoin:master",
      "ref": "master",
      "sha": "3eaf7be6ade22c99f3c0000122e49b94de868d74",
      "user": {
        "login": "bitcoin",
        "id": 528860,
        "node_id": "MDEyOk9yZ2FuaXphdGlvbjUyODg2MA==",
        "avatar_url": "https://avatars.githubusercontent.com/u/528860?v=4",
        "gravatar_id": "",
        "url": "https://api.github.com/users/bitcoin",
        "html_url": "https://github.com/bitcoin",
        "followers_url": "https://api.github.com/users/bitcoin/followers",
        "following_url": "https://api.github.com/users/bitcoin/following%7B/other_user%7D",
        "gists_url": "https://api.github.com/users/bitcoin/gists%7B/gist_id%7D",
        "starred_url": "https://api.github.com/users/bitcoin/starred%7B/owner%7D%7B/repo%7D",
        "subscriptions_url": "https://api.github.com/users/bitcoin/subscriptions",
        "organizations_url": "https://api.github.com/users/bitcoin/orgs",
        "repos_url": "https://api.github.com/users/bitcoin/repos",
        "events_url": "https://api.github.com/users/bitcoin/events%7B/privacy%7D",
        "received_events_url": "https://api.github.com/users/bitcoin/received_events",
        "type": "Organization",
        "site_admin": false
      },
      "repo": {
        "id": 1181927,
        "node_id": "MDEwOlJlcG9zaXRvcnkxMTgxOTI3",
        "name": "bitcoin",
        "full_name": "bitcoin/bitcoin",
        "owner": {
          "login": "bitcoin",
          "id": 528860,
          "node_id": "MDEyOk9yZ2FuaXphdGlvbjUyODg2MA==",
          "avatar_url": "https://avatars.githubusercontent.com/u/528860?v=4",
          "gravatar_id": "",
          "url": "https://api.github.com/users/bitcoin",
          "html_url": "https://github.com/bitcoin",
          "followers_url": "https://api.github.com/users/bitcoin/followers",
          "following_url": "https://api.github.com/users/bitcoin/following%7B/other_user%7D",
          "gists_url": "https://api.github.com/users/bitcoin/gists%7B/gist_id%7D",
          "starred_url": "https://api.github.com/users/bitcoin/starred%7B/owner%7D%7B/repo%7D",
          "subscriptions_url": "https://api.github.com/users/bitcoin/subscriptions",
          "organizations_url": "https://api.github.com/users/bitcoin/orgs",
          "repos_url": "https://api.github.com/users/bitcoin/repos",
          "events_url": "https://api.github.com/users/bitcoin/events%7B/privacy%7D",
          "received_events_url": "https://api.github.com/users/bitcoin/received_events",
          "type": "Organization",
          "site_admin": false
        },
        "private": false,
        "html_url": "https://github.com/bitcoin/bitcoin",
        "description": "Bitcoin Core integration/staging tree",
        "fork": false,
        "url": "https://api.github.com/repos/bitcoin/bitcoin",
        "archive_url": "https://api.github.com/repos/bitcoin/bitcoin/%7Barchive_format%7D%7B/ref%7D",
        "assignees_url": "https://api.github.com/repos/bitcoin/bitcoin/assignees%7B/user%7D",
        "blobs_url": "https://api.github.com/repos/bitcoin/bitcoin/git/blobs%7B/sha%7D",
        "branches_url": "https://api.github.com/repos/bitcoin/bitcoin/branches%7B/branch%7D",
        "collaborators_url": "https://api.github.com/repos/bitcoin/bitcoin/collaborators%7B/collaborator%7D",
        "comments_url": "https://api.github.com/repos/bitcoin/bitcoin/comments%7B/number%7D",
        "commits_url": "https://api.github.com/repos/bitcoin/bitcoin/commits%7B/sha%7D",
        "compare_url": "https://api.github.com/repos/bitcoin/bitcoin/compare/%7Bbase%7D...%7Bhead%7D",
        "contents_url": "https://api.github.com/repos/bitcoin/bitcoin/contents/%7B+path%7D",
        "contributors_url": "https://api.github.com/repos/bitcoin/bitcoin/contributors",
        "deployments_url": "https://api.github.com/repos/bitcoin/bitcoin/deployments",
        "downloads_url": "https://api.github.com/repos/bitcoin/bitcoin/downloads",
        "events_url": "https://api.github.com/repos/bitcoin/bitcoin/events",
        "forks_url": "https://api.github.com/repos/bitcoin/bitcoin/forks",
        "git_commits_url": "https://api.github.com/repos/bitcoin/bitcoin/git/commits%7B/sha%7D",
        "git_refs_url": "https://api.github.com/repos/bitcoin/bitcoin/git/refs%7B/sha%7D",
        "git_tags_url": "https://api.github.com/repos/bitcoin/bitcoin/git/tags%7B/sha%7D",
        "git_url": "git://github.com/bitcoin/bitcoin.git",
        "issue_comment_url": "https://api.github.com/repos/bitcoin/bitcoin/issues/comments%7B/number%7D",
        "issue_events_url": "https://api.github.com/repos/bitcoin/bitcoin/issues/events%7B/number%7D",
        "issues_url": "https://api.github.com/repos/bitcoin/bitcoin/issues%7B/number%7D",
        "keys_url": "https://api.github.com/repos/bitcoin/bitcoin/keys%7B/key_id%7D",
        "labels_url": "https://api.github.com/repos/bitcoin/bitcoin/labels%7B/name%7D",
        "languages_url": "https://api.github.com/repos/bitcoin/bitcoin/languages",
        "merges_url": "https://api.github.com/repos/bitcoin/bitcoin/merges",
        "milestones_url": "https://api.github.com/repos/bitcoin/bitcoin/milestones%7B/number%7D",
        "notifications_url": "https://api.github.com/repos/bitcoin/bitcoin/notifications%7B?since,all,participating}",
        "pulls_url": "https://api.github.com/repos/bitcoin/bitcoin/pulls%7B/number%7D",
        "releases_url": "https://api.github.com/repos/bitcoin/bitcoin/releases%7B/id%7D",
        "ssh_url": "git@github.com:bitcoin/bitcoin.git",
        "stargazers_url": "https://api.github.com/repos/bitcoin/bitcoin/stargazers",
        "statuses_url": "https://api.github.com/repos/bitcoin/bitcoin/statuses/%7Bsha%7D",
        "subscribers_url": "https://api.github.com/repos/bitcoin/bitcoin/subscribers",
        "subscription_url": "https://api.github.com/repos/bitcoin/bitcoin/subscription",
        "tags_url": "https://api.github.com/repos/bitcoin/bitcoin/tags",
        "teams_url": "https://api.github.com/repos/bitcoin/bitcoin/teams",
        "trees_url": "https://api.github.com/repos/bitcoin/bitcoin/git/trees%7B/sha%7D",
        "clone_url": "https://github.com/bitcoin/bitcoin.git",
        "hooks_url": "https://api.github.com/repos/bitcoin/bitcoin/hooks",
        "svn_url": "https://github.com/bitcoin/bitcoin",
        "homepage": "https://bitcoincore.org/en/download",
        "language": "C++",
        "forks_count": 35476,
        "stargazers_count": 70608,
        "watchers_count": 70608,
        "size": 236222,
        "default_branch": "master",
        "open_issues_count": 673,
        "is_template": false,
        "topics": [
          "bitcoin",
          "c-plus-plus",
          "cryptocurrency",
          "cryptography",
          "p2p"
        ],
        "has_issues": true,
        "has_projects": true,
        "has_wiki": false,
        "has_pages": false,
        "has_downloads": false,
        "archived": false,
        "disabled": false,
        "visibility": "public",
        "pushed_at": "2023-08-03T00:03:27Z",
        "created_at": "2010-12-19T15:16:43Z",
        "updated_at": "2023-08-02T18:21:18Z",
        "license": {
          "key": "mit",
          "name": "MIT License",
          "node_id": "MDc6TGljZW5zZTEz",
          "spdx_id": "MIT",
          "url": "https://api.github.com/licenses/mit",
          "html_url": null,
          "description": null,
          "implementation": null,
          "permissions": null,
          "conditions": null,
          "limitations": null,
          "body": null,
          "featured": null
        }
      }
    },
    "_links": {
      "self": {
        "href": "https://api.github.com/repos/bitcoin/bitcoin/pulls/26668"
      }
    },
    "author_association": "MEMBER",
    "draft": false,
    "additions": 5,
    "deletions": 2,
    "changed_files": 2,
    "commits": 1,
    "review_comments": 0,
    "comments": 3
  },
  "events": [
    {
      "event": "committed",
      "id": null,
      "node_id": "C_kwDOABII59oAKDg5YzE0OTFkMzUzODllYWMwYzFmZWNjNTkzMzNjZGZhZTNiMWJkMmM",
      "url": "https://api.github.com/repos/bitcoin/bitcoin/git/commits/89c1491d35389eac0c1fecc59333cdfae3b1bd2c",
      "actor": null,
      "commit_id": null,
      "commit_url": null,
      "created_at": null,
      "html_url": "https://github.com/bitcoin/bitcoin/commit/89c1491d35389eac0c1fecc59333cdfae3b1bd2c",
      "tree": {
        "sha": "24f4081c6ed4ccf1bdfacd0e1480316be9eea8e4",
        "url": "https://api.github.com/repos/bitcoin/bitcoin/git/trees/24f4081c6ed4ccf1bdfacd0e1480316be9eea8e4"
      },
      "verification": {
        "verified": true,
        "reason": "valid",
        "payload": "tree 24f4081c6ed4ccf1bdfacd0e1480316be9eea8e4\nparent 3eaf7be6ade22c99f3c0000122e49b94de868d74\nauthor furszy <matiasfurszyfer@protonmail.com> 1670525741 -0300\ncommitter furszy <matiasfurszyfer@protonmail.com> 1670525796 -0300\n\nwallet: if only have one output type, don't perform \"mixed\" coin selection\n\nthere is nothing to mix.\n",
        "signature": "-----BEGIN PGP SIGNATURE-----\n\niQIzBAABCAAdFiEEA++0fqwRHQpmlZfQXdI8zGhqpiMFAmOSM2QACgkQXdI8zGhq\npiOmgBAAv26T/QJ/3yGcPhoHXL0MEv7S6bGe7cFh3kPLdB1W9B1ruGUaTMF4l5GD\nypctnILAaPG/SciByPxhGsu/klnC1AqySsdwCZICNsLJYjpWqPUOUC+dtRJapbu1\ni0oyRaHUxxTRoZCXtG6ejS3eIderKYrgeUzSk9QI0KJ0nD4CcqTB8UAzhn8ouqdG\nWtmiPKbReLhOSL3Ff5jWVd4ebEkiWmmlUvG0RTed7GFp61B8c5+XdoP4drbY0tXl\nAsDk9cfzBM80e4BRvVMsqAJHh/43Ag6xA5rAFj6TPOssTM683ZY0AP5LMGdQ0sy5\nxTi5U7HDvoNU16y3JlPkL/AZfQYg2oiqjPX5VWHMwwQ+gJ96hKGKpNiVFR6w8nIu\n0vAStTPFABhNOC6R/fX6jNH1oj15ZY76IHFBNaTTTq1LalV4raCh3EEJr0h4Nkks\nNIo8KG827s2fITuPOPa/6d8vvjMxC7KoDBH2kSasgopeCwhCUhBietM41sYmpWxx\nyLJzJBq3F5ec3XwmXmlf/H1Au/Iu6gQhMxTGKUq80QpreMknF6B94TV3+Vc0dUv0\nxwuzTV6zCksrw1jp7bgZvsERH7i1+58CPh+tVPViO2l29GDQa+/qWR/Ewi2B3AuW\nEHmMLOwCkbMsCBF2DkFO1nlNTQ4Sipi9wkvwtl0yySjxtIlpKAk=\n=sxAk\n-----END PGP SIGNATURE-----"
      },
      "parents": [
        {
          "url": "https://api.github.com/repos/bitcoin/bitcoin/git/commits/3eaf7be6ade22c99f3c0000122e49b94de868d74",
          "sha": "3eaf7be6ade22c99f3c0000122e49b94de868d74",
          "html_url": "https://github.com/bitcoin/bitcoin/commit/3eaf7be6ade22c99f3c0000122e49b94de868d74"
        }
      ],
      "message": "wallet: if only have one output type, don't perform \"mixed\" coin selection\n\nthere is nothing to mix.",
      "committer": {
        "name": "furszy",
        "email": "matiasfurszyfer@protonmail.com",
        "date": "2022-12-08T18:56:36Z"
      },
      "author": {
        "name": "furszy",
        "email": "matiasfurszyfer@protonmail.com",
        "date": "2022-12-08T18:55:41Z"
      },
      "sha": "89c1491d35389eac0c1fecc59333cdfae3b1bd2c"
    },
    {
      "event": "commented",
      "id": 1343292245,
      "node_id": "IC_kwDOABII585QEQNV",
      "url": "https://api.github.com/repos/bitcoin/bitcoin/issues/comments/1343292245",
      "actor": {
        "login": "DrahtBot",
        "id": 39886733,
        "node_id": "MDQ6VXNlcjM5ODg2NzMz",
        "avatar_url": "https://avatars.githubusercontent.com/u/39886733?v=4",
        "gravatar_id": "",
        "url": "https://api.github.com/users/DrahtBot",
        "html_url": "https://github.com/DrahtBot",
        "followers_url": "https://api.github.com/users/DrahtBot/followers",
        "following_url": "https://api.github.com/users/DrahtBot/following%7B/other_user%7D",
        "gists_url": "https://api.github.com/users/DrahtBot/gists%7B/gist_id%7D",
        "starred_url": "https://api.github.com/users/DrahtBot/starred%7B/owner%7D%7B/repo%7D",
        "subscriptions_url": "https://api.github.com/users/DrahtBot/subscriptions",
        "organizations_url": "https://api.github.com/users/DrahtBot/orgs",
        "repos_url": "https://api.github.com/users/DrahtBot/repos",
        "events_url": "https://api.github.com/users/DrahtBot/events%7B/privacy%7D",
        "received_events_url": "https://api.github.com/users/DrahtBot/received_events",
        "type": "User",
        "site_admin": false
      },
      "commit_id": null,
      "commit_url": null,
      "created_at": "2022-12-08T20:06:17Z",
      "updated_at": "2022-12-14T12:18:16Z",
      "author_association": "CONTRIBUTOR",
      "body": "<!--e57a25ab6845829454e8d69fc972939a-->\n\nThe following sections might be updated with supplementary metadata relevant to reviewers and maintainers.\n\n<!--021abf342d371248e50ceaed478a90ca-->\n### Reviews\nSee [the guideline](https://github.com/bitcoin/bitcoin/blob/master/CONTRIBUTING.md#code-review) for information on the review process.\n| Type | Reviewers |\n| ---- | --------- |\n| ACK | [john-moffett](https://github.com/bitcoin/bitcoin/pull/26668#pullrequestreview-1214075860), [achow101](https://github.com/bitcoin/bitcoin/pull/26668#issuecomment-1349666610), [kristapsk](https://github.com/bitcoin/bitcoin/pull/26668#pullrequestreview-1216399324) |\n\nIf your review is incorrectly listed, please react with 👎 to this comment and the bot will ignore it on the next update.\n<!--174a7506f384e20aa4161008e828411d-->\n### Conflicts\nReviewers, this pull request conflicts with the following ones:\n\n* [#26661](https://github.com/bitcoin/bitcoin/pull/26661) (wallet: Coin Selection, return accurate error messages by furszy)\n\nIf you consider this pull request important, please also help to review the conflicting pull requests. Ideally, start with the one that should be merged first.\n",
      "user": {
        "login": "DrahtBot",
        "id": 39886733,
        "node_id": "MDQ6VXNlcjM5ODg2NzMz",
        "avatar_url": "https://avatars.githubusercontent.com/u/39886733?v=4",
        "gravatar_id": "",
        "url": "https://api.github.com/users/DrahtBot",
        "html_url": "https://github.com/DrahtBot",
        "followers_url": "https://api.github.com/users/DrahtBot/followers",
        "following_url": "https://api.github.com/users/DrahtBot/following%7B/other_user%7D",
        "gists_url": "https://api.github.com/users/DrahtBot/gists%7B/gist_id%7D",
        "starred_url": "https://api.github.com/users/DrahtBot/starred%7B/owner%7D%7B/repo%7D",
        "subscriptions_url": "https://api.github.com/users/DrahtBot/subscriptions",
        "organizations_url": "https://api.github.com/users/DrahtBot/orgs",
        "repos_url": "https://api.github.com/users/DrahtBot/repos",
        "events_url": "https://api.github.com/users/DrahtBot/events%7B/privacy%7D",
        "received_events_url": "https://api.github.com/users/DrahtBot/received_events",
        "type": "User",
        "site_admin": false
      },
      "html_url": "https://github.com/bitcoin/bitcoin/pull/26668#issuecomment-1343292245",
      "issue_url": "https://api.github.com/repos/bitcoin/bitcoin/issues/26668"
    },
    {
      "event": "labeled",
      "id": 7992575724,
      "node_id": "LE_lADOABII585YiEQXzwAAAAHcZQbs",
      "url": "https://api.github.com/repos/bitcoin/bitcoin/issues/events/7992575724",
      "actor": {
        "login": "DrahtBot",
        "id": 39886733,
        "node_id": "MDQ6VXNlcjM5ODg2NzMz",
        "avatar_url": "https://avatars.githubusercontent.com/u/39886733?v=4",
        "gravatar_id": "",
        "url": "https://api.github.com/users/DrahtBot",
        "html_url": "https://github.com/DrahtBot",
        "followers_url": "https://api.github.com/users/DrahtBot/followers",
        "following_url": "https://api.github.com/users/DrahtBot/following%7B/other_user%7D",
        "gists_url": "https://api.github.com/users/DrahtBot/gists%7B/gist_id%7D",
        "starred_url": "https://api.github.com/users/DrahtBot/starred%7B/owner%7D%7B/repo%7D",
        "subscriptions_url": "https://api.github.com/users/DrahtBot/subscriptions",
        "organizations_url": "https://api.github.com/users/DrahtBot/orgs",
        "repos_url": "https://api.github.com/users/DrahtBot/repos",
        "events_url": "https://api.github.com/users/DrahtBot/events%7B/privacy%7D",
        "received_events_url": "https://api.github.com/users/DrahtBot/received_events",
        "type": "User",
        "site_admin": false
      },
      "commit_id": null,
      "commit_url": null,
      "created_at": "2022-12-08T20:06:19Z",
      "label": {
        "name": "Wallet",
        "color": "08a781"
      }
    },
    {
      "event": "cross-referenced",
      "id": null,
      "node_id": null,
      "url": null,
      "actor": {
        "login": "DrahtBot",
        "id": 39886733,
        "node_id": "MDQ6VXNlcjM5ODg2NzMz",
        "avatar_url": "https://avatars.githubusercontent.com/u/39886733?v=4",
        "gravatar_id": "",
        "url": "https://api.github.com/users/DrahtBot",
        "html_url": "https://github.com/DrahtBot",
        "followers_url": "https://api.github.com/users/DrahtBot/followers",
        "following_url": "https://api.github.com/users/DrahtBot/following%7B/other_user%7D",
        "gists_url": "https://api.github.com/users/DrahtBot/gists%7B/gist_id%7D",
        "starred_url": "https://api.github.com/users/DrahtBot/starred%7B/owner%7D%7B/repo%7D",
        "subscriptions_url": "https://api.github.com/users/DrahtBot/subscriptions",
        "organizations_url": "https://api.github.com/users/DrahtBot/orgs",
        "repos_url": "https://api.github.com/users/DrahtBot/repos",
        "events_url": "https://api.github.com/users/DrahtBot/events%7B/privacy%7D",
        "received_events_url": "https://api.github.com/users/DrahtBot/received_events",
        "type": "User",
        "site_admin": false
      },
      "commit_id": null,
      "commit_url": null,
      "created_at": "2022-12-08T22:13:35Z",
      "updated_at": "2022-12-08T22:13:35Z",
      "source": {
        "issue": {
          "id": 1484730364,
          "node_id": "PR_kwDOABII585Ey4qu",
          "url": "https://api.github.com/repos/bitcoin/bitcoin/issues/26661",
          "repository_url": "https://api.github.com/repos/bitcoin/bitcoin",
          "labels_url": "https://api.github.com/repos/bitcoin/bitcoin/issues/26661/labels%7B/name%7D",
          "comments_url": "https://api.github.com/repos/bitcoin/bitcoin/issues/26661/comments",
          "events_url": "https://api.github.com/repos/bitcoin/bitcoin/issues/26661/events",
          "html_url": "https://github.com/bitcoin/bitcoin/pull/26661",
          "number": 26661,
          "state": "closed",
          "state_reason": null,
          "title": "wallet: Coin Selection, return accurate error messages",
          "body": "Work decoupled from #25806, which cleanup and improves the Coin Selection flow further.\r\n\r\nAdding the capability to propagate specific error messages from the Coin Selection process to the user.\r\nInstead of always returning the general \"Insufficient funds\" message which is not always accurate to what happened internally.\r\nLetting us instruct the user how to proceed under certain circumstances.\r\n\r\nThe following error messages were added:\r\n\r\n1) If the selection result exceeds the maximum transaction weight,\r\n   we now will return: \r\n-> \"The inputs size exceeds the maximum weight. Please try sending\r\na smaller amount or manually consolidating your wallet's UTXOs\".\r\n\r\n2) If the user pre-selected inputs and disallowed the automatic coin\r\n   selection process (no other inputs are allowed), we now will\r\n   return: \r\n-> \"The preselected coins total amount does not cover the transaction\r\ntarget. Please allow other inputs to be automatically selected or include\r\nmore coins manually\".\r\n\r\n3) The double-counted preset inputs during Coin Selection error will now\r\nthrow an \"internal bug detected\" message instead of crashing the node.\r\n\r\nThe essence of this work comes from several comments:\r\n1. https://github.com/bitcoin/bitcoin/pull/26560#discussion_r1037395665\r\n2. https://github.com/bitcoin/bitcoin/pull/25729#discussion_r940619491\r\n3. https://github.com/bitcoin/bitcoin/pull/25269#pullrequestreview-1135240825\r\n4. https://github.com/bitcoin/bitcoin/issues/23144 (which is connected to #24845)",
          "user": {
            "login": "furszy",
            "id": 5377650,
            "node_id": "MDQ6VXNlcjUzNzc2NTA=",
            "avatar_url": "https://avatars.githubusercontent.com/u/5377650?v=4",
            "gravatar_id": "",
            "url": "https://api.github.com/users/furszy",
            "html_url": "https://github.com/furszy",
            "followers_url": "https://api.github.com/users/furszy/followers",
            "following_url": "https://api.github.com/users/furszy/following%7B/other_user%7D",
            "gists_url": "https://api.github.com/users/furszy/gists%7B/gist_id%7D",
            "starred_url": "https://api.github.com/users/furszy/starred%7B/owner%7D%7B/repo%7D",
            "subscriptions_url": "https://api.github.com/users/furszy/subscriptions",
            "organizations_url": "https://api.github.com/users/furszy/orgs",
            "repos_url": "https://api.github.com/users/furszy/repos",
            "events_url": "https://api.github.com/users/furszy/events%7B/privacy%7D",
            "received_events_url": "https://api.github.com/users/furszy/received_events",
            "type": "User",
            "site_admin": false
          },
          "labels": [
            {
              "id": 149424,
              "node_id": "MDU6TGFiZWwxNDk0MjQ=",
              "url": "https://api.github.com/repos/bitcoin/bitcoin/labels/Wallet",
              "name": "Wallet",
              "color": "08a781",
              "default": false
            }
          ],
          "assignees": [],
          "author_association": "MEMBER",
          "locked": false,
          "comments": 9,
          "pull_request": {
            "url": "https://api.github.com/repos/bitcoin/bitcoin/pulls/26661",
            "html_url": "https://github.com/bitcoin/bitcoin/pull/26661",
            "diff_url": "https://github.com/bitcoin/bitcoin/pull/26661.diff",
            "patch_url": "https://github.com/bitcoin/bitcoin/pull/26661.patch"
          },
          "closed_at": "2023-01-03T23:54:02Z",
          "created_at": "2022-12-08T14:13:27Z",
          "updated_at": "2023-05-27T01:46:39Z"
        },
        "type": "issue"
      }
    },
    {
      "event": "subscribed",
      "id": 8003783753,
      "node_id": "SE_lADOABII585YiEQXzwAAAAHdEAxJ",
      "url": "https://api.github.com/repos/bitcoin/bitcoin/issues/events/8003783753",
      "actor": {
        "login": "ishaanam",
        "id": 75942586,
        "node_id": "MDQ6VXNlcjc1OTQyNTg2",
        "avatar_url": "https://avatars.githubusercontent.com/u/75942586?v=4",
        "gravatar_id": "",
        "url": "https://api.github.com/users/ishaanam",
        "html_url": "https://github.com/ishaanam",
        "followers_url": "https://api.github.com/users/ishaanam/followers",
        "following_url": "https://api.github.com/users/ishaanam/following%7B/other_user%7D",
        "gists_url": "https://api.github.com/users/ishaanam/gists%7B/gist_id%7D",
        "starred_url": "https://api.github.com/users/ishaanam/starred%7B/owner%7D%7B/repo%7D",
        "subscriptions_url": "https://api.github.com/users/ishaanam/subscriptions",
        "organizations_url": "https://api.github.com/users/ishaanam/orgs",
        "repos_url": "https://api.github.com/users/ishaanam/repos",
        "events_url": "https://api.github.com/users/ishaanam/events%7B/privacy%7D",
        "received_events_url": "https://api.github.com/users/ishaanam/received_events",
        "type": "User",
        "site_admin": false
      },
      "commit_id": null,
      "commit_url": null,
      "created_at": "2022-12-10T06:44:35Z"
    },
    {
      "event": "reviewed",
      "id": 1214075860,
      "node_id": "PRR_kwDOABII585IXVPU",
      "url": null,
      "actor": null,
      "commit_id": "89c1491d35389eac0c1fecc59333cdfae3b1bd2c",
      "commit_url": null,
      "created_at": null,
      "author_association": "CONTRIBUTOR",
      "body": "ACK 89c1491d35389eac0c1fecc59333cdfae3b1bd2c\r\n\r\nIt's not important to this code, but this comment:\r\n\r\n`// If TypesCount() <= 1, there is nothing to mix.` \r\n\r\ngot me wondering whether you could get to here with `TypesCount() == 0`, and I don't think you can, due to https://github.com/bitcoin/bitcoin/blob/6061eb6564105ad54703a7cf3282590d0e1a7f28/src/wallet/spend.cpp#L599-L605",
      "user": {
        "login": "john-moffett",
        "id": 116917595,
        "node_id": "U_kgDOBvgFWw",
        "avatar_url": "https://avatars.githubusercontent.com/u/116917595?v=4",
        "gravatar_id": "",
        "url": "https://api.github.com/users/john-moffett",
        "html_url": "https://github.com/john-moffett",
        "followers_url": "https://api.github.com/users/john-moffett/followers",
        "following_url": "https://api.github.com/users/john-moffett/following%7B/other_user%7D",
        "gists_url": "https://api.github.com/users/john-moffett/gists%7B/gist_id%7D",
        "starred_url": "https://api.github.com/users/john-moffett/starred%7B/owner%7D%7B/repo%7D",
        "subscriptions_url": "https://api.github.com/users/john-moffett/subscriptions",
        "organizations_url": "https://api.github.com/users/john-moffett/orgs",
        "repos_url": "https://api.github.com/users/john-moffett/repos",
        "events_url": "https://api.github.com/users/john-moffett/events%7B/privacy%7D",
        "received_events_url": "https://api.github.com/users/john-moffett/received_events",
        "type": "User",
        "site_admin": false
      },
      "html_url": "https://github.com/bitcoin/bitcoin/pull/26668#pullrequestreview-1214075860",
      "submitted_at": "2022-12-12T18:16:14Z",
      "state": "APPROVED",
      "pull_request_url": "https://api.github.com/repos/bitcoin/bitcoin/pulls/26668"
    },
    {
      "event": "commented",
      "id": 1347258007,
      "node_id": "IC_kwDOABII585QTYaX",
      "url": "https://api.github.com/repos/bitcoin/bitcoin/issues/comments/1347258007",
      "actor": {
        "login": "furszy",
        "id": 5377650,
        "node_id": "MDQ6VXNlcjUzNzc2NTA=",
        "avatar_url": "https://avatars.githubusercontent.com/u/5377650?v=4",
        "gravatar_id": "",
        "url": "https://api.github.com/users/furszy",
        "html_url": "https://github.com/furszy",
        "followers_url": "https://api.github.com/users/furszy/followers",
        "following_url": "https://api.github.com/users/furszy/following%7B/other_user%7D",
        "gists_url": "https://api.github.com/users/furszy/gists%7B/gist_id%7D",
        "starred_url": "https://api.github.com/users/furszy/starred%7B/owner%7D%7B/repo%7D",
        "subscriptions_url": "https://api.github.com/users/furszy/subscriptions",
        "organizations_url": "https://api.github.com/users/furszy/orgs",
        "repos_url": "https://api.github.com/users/furszy/repos",
        "events_url": "https://api.github.com/users/furszy/events%7B/privacy%7D",
        "received_events_url": "https://api.github.com/users/furszy/received_events",
        "type": "User",
        "site_admin": false
      },
      "commit_id": null,
      "commit_url": null,
      "created_at": "2022-12-12T20:27:32Z",
      "updated_at": "2022-12-12T20:27:32Z",
      "author_association": "MEMBER",
      "body": "Yes @john-moffett, if `TypesCount() == 0` then we have no coins, so we never perform coin selection.",
      "user": {
        "login": "furszy",
        "id": 5377650,
        "node_id": "MDQ6VXNlcjUzNzc2NTA=",
        "avatar_url": "https://avatars.githubusercontent.com/u/5377650?v=4",
        "gravatar_id": "",
        "url": "https://api.github.com/users/furszy",
        "html_url": "https://github.com/furszy",
        "followers_url": "https://api.github.com/users/furszy/followers",
        "following_url": "https://api.github.com/users/furszy/following%7B/other_user%7D",
        "gists_url": "https://api.github.com/users/furszy/gists%7B/gist_id%7D",
        "starred_url": "https://api.github.com/users/furszy/starred%7B/owner%7D%7B/repo%7D",
        "subscriptions_url": "https://api.github.com/users/furszy/subscriptions",
        "organizations_url": "https://api.github.com/users/furszy/orgs",
        "repos_url": "https://api.github.com/users/furszy/repos",
        "events_url": "https://api.github.com/users/furszy/events%7B/privacy%7D",
        "received_events_url": "https://api.github.com/users/furszy/received_events",
        "type": "User",
        "site_admin": false
      },
      "html_url": "https://github.com/bitcoin/bitcoin/pull/26668#issuecomment-1347258007",
      "issue_url": "https://api.github.com/repos/bitcoin/bitcoin/issues/26668"
    },
    {
      "event": "mentioned",
      "id": 8018189507,
      "node_id": "MEE_lADOABII585YiEQXzwAAAAHd69zD",
      "url": "https://api.github.com/repos/bitcoin/bitcoin/issues/events/8018189507",
      "actor": {
        "login": "john-moffett",
        "id": 116917595,
        "node_id": "U_kgDOBvgFWw",
        "avatar_url": "https://avatars.githubusercontent.com/u/116917595?v=4",
        "gravatar_id": "",
        "url": "https://api.github.com/users/john-moffett",
        "html_url": "https://github.com/john-moffett",
        "followers_url": "https://api.github.com/users/john-moffett/followers",
        "following_url": "https://api.github.com/users/john-moffett/following%7B/other_user%7D",
        "gists_url": "https://api.github.com/users/john-moffett/gists%7B/gist_id%7D",
        "starred_url": "https://api.github.com/users/john-moffett/starred%7B/owner%7D%7B/repo%7D",
        "subscriptions_url": "https://api.github.com/users/john-moffett/subscriptions",
        "organizations_url": "https://api.github.com/users/john-moffett/orgs",
        "repos_url": "https://api.github.com/users/john-moffett/repos",
        "events_url": "https://api.github.com/users/john-moffett/events%7B/privacy%7D",
        "received_events_url": "https://api.github.com/users/john-moffett/received_events",
        "type": "User",
        "site_admin": false
      },
      "commit_id": null,
      "commit_url": null,
      "created_at": "2022-12-12T20:27:32Z"
    },
    {
      "event": "subscribed",
      "id": 8018189519,
      "node_id": "SE_lADOABII585YiEQXzwAAAAHd69zP",
      "url": "https://api.github.com/repos/bitcoin/bitcoin/issues/events/8018189519",
      "actor": {
        "login": "john-moffett",
        "id": 116917595,
        "node_id": "U_kgDOBvgFWw",
        "avatar_url": "https://avatars.githubusercontent.com/u/116917595?v=4",
        "gravatar_id": "",
        "url": "https://api.github.com/users/john-moffett",
        "html_url": "https://github.com/john-moffett",
        "followers_url": "https://api.github.com/users/john-moffett/followers",
        "following_url": "https://api.github.com/users/john-moffett/following%7B/other_user%7D",
        "gists_url": "https://api.github.com/users/john-moffett/gists%7B/gist_id%7D",
        "starred_url": "https://api.github.com/users/john-moffett/starred%7B/owner%7D%7B/repo%7D",
        "subscriptions_url": "https://api.github.com/users/john-moffett/subscriptions",
        "organizations_url": "https://api.github.com/users/john-moffett/orgs",
        "repos_url": "https://api.github.com/users/john-moffett/repos",
        "events_url": "https://api.github.com/users/john-moffett/events%7B/privacy%7D",
        "received_events_url": "https://api.github.com/users/john-moffett/received_events",
        "type": "User",
        "site_admin": false
      },
      "commit_id": null,
      "commit_url": null,
      "created_at": "2022-12-12T20:27:32Z"
    },
    {
      "event": "commented",
      "id": 1349666610,
      "node_id": "IC_kwDOABII585Qckcy",
      "url": "https://api.github.com/repos/bitcoin/bitcoin/issues/comments/1349666610",
      "actor": {
        "login": "achow101",
        "id": 3782274,
        "node_id": "MDQ6VXNlcjM3ODIyNzQ=",
        "avatar_url": "https://avatars.githubusercontent.com/u/3782274?v=4",
        "gravatar_id": "",
        "url": "https://api.github.com/users/achow101",
        "html_url": "https://github.com/achow101",
        "followers_url": "https://api.github.com/users/achow101/followers",
        "following_url": "https://api.github.com/users/achow101/following%7B/other_user%7D",
        "gists_url": "https://api.github.com/users/achow101/gists%7B/gist_id%7D",
        "starred_url": "https://api.github.com/users/achow101/starred%7B/owner%7D%7B/repo%7D",
        "subscriptions_url": "https://api.github.com/users/achow101/subscriptions",
        "organizations_url": "https://api.github.com/users/achow101/orgs",
        "repos_url": "https://api.github.com/users/achow101/repos",
        "events_url": "https://api.github.com/users/achow101/events%7B/privacy%7D",
        "received_events_url": "https://api.github.com/users/achow101/received_events",
        "type": "User",
        "site_admin": false
      },
      "commit_id": null,
      "commit_url": null,
      "created_at": "2022-12-13T20:44:30Z",
      "updated_at": "2022-12-13T20:44:30Z",
      "author_association": "MEMBER",
      "body": "ACK 89c1491d35389eac0c1fecc59333cdfae3b1bd2c",
      "user": {
        "login": "achow101",
        "id": 3782274,
        "node_id": "MDQ6VXNlcjM3ODIyNzQ=",
        "avatar_url": "https://avatars.githubusercontent.com/u/3782274?v=4",
        "gravatar_id": "",
        "url": "https://api.github.com/users/achow101",
        "html_url": "https://github.com/achow101",
        "followers_url": "https://api.github.com/users/achow101/followers",
        "following_url": "https://api.github.com/users/achow101/following%7B/other_user%7D",
        "gists_url": "https://api.github.com/users/achow101/gists%7B/gist_id%7D",
        "starred_url": "https://api.github.com/users/achow101/starred%7B/owner%7D%7B/repo%7D",
        "subscriptions_url": "https://api.github.com/users/achow101/subscriptions",
        "organizations_url": "https://api.github.com/users/achow101/orgs",
        "repos_url": "https://api.github.com/users/achow101/repos",
        "events_url": "https://api.github.com/users/achow101/events%7B/privacy%7D",
        "received_events_url": "https://api.github.com/users/achow101/received_events",
        "type": "User",
        "site_admin": false
      },
      "html_url": "https://github.com/bitcoin/bitcoin/pull/26668#issuecomment-1349666610",
      "issue_url": "https://api.github.com/repos/bitcoin/bitcoin/issues/26668"
    },
    {
      "event": "reviewed",
      "id": 1216399324,
      "node_id": "PRR_kwDOABII585IgMfc",
      "url": null,
      "actor": null,
      "commit_id": "89c1491d35389eac0c1fecc59333cdfae3b1bd2c",
      "commit_url": null,
      "created_at": null,
      "author_association": "CONTRIBUTOR",
      "body": "cr utACK 89c1491d35389eac0c1fecc59333cdfae3b1bd2c",
      "user": {
        "login": "kristapsk",
        "id": 4500994,
        "node_id": "MDQ6VXNlcjQ1MDA5OTQ=",
        "avatar_url": "https://avatars.githubusercontent.com/u/4500994?v=4",
        "gravatar_id": "",
        "url": "https://api.github.com/users/kristapsk",
        "html_url": "https://github.com/kristapsk",
        "followers_url": "https://api.github.com/users/kristapsk/followers",
        "following_url": "https://api.github.com/users/kristapsk/following%7B/other_user%7D",
        "gists_url": "https://api.github.com/users/kristapsk/gists%7B/gist_id%7D",
        "starred_url": "https://api.github.com/users/kristapsk/starred%7B/owner%7D%7B/repo%7D",
        "subscriptions_url": "https://api.github.com/users/kristapsk/subscriptions",
        "organizations_url": "https://api.github.com/users/kristapsk/orgs",
        "repos_url": "https://api.github.com/users/kristapsk/repos",
        "events_url": "https://api.github.com/users/kristapsk/events%7B/privacy%7D",
        "received_events_url": "https://api.github.com/users/kristapsk/received_events",
        "type": "User",
        "site_admin": false
      },
      "html_url": "https://github.com/bitcoin/bitcoin/pull/26668#pullrequestreview-1216399324",
      "submitted_at": "2022-12-13T20:48:16Z",
      "state": "APPROVED",
      "pull_request_url": "https://api.github.com/repos/bitcoin/bitcoin/pulls/26668"
    },
    {
      "event": "merged",
      "id": 8041610416,
      "node_id": "ME_lADOABII585YiEQXzwAAAAHfUTyw",
      "url": "https://api.github.com/repos/bitcoin/bitcoin/issues/events/8041610416",
      "actor": {
        "login": "achow101",
        "id": 3782274,
        "node_id": "MDQ6VXNlcjM3ODIyNzQ=",
        "avatar_url": "https://avatars.githubusercontent.com/u/3782274?v=4",
        "gravatar_id": "",
        "url": "https://api.github.com/users/achow101",
        "html_url": "https://github.com/achow101",
        "followers_url": "https://api.github.com/users/achow101/followers",
        "following_url": "https://api.github.com/users/achow101/following%7B/other_user%7D",
        "gists_url": "https://api.github.com/users/achow101/gists%7B/gist_id%7D",
        "starred_url": "https://api.github.com/users/achow101/starred%7B/owner%7D%7B/repo%7D",
        "subscriptions_url": "https://api.github.com/users/achow101/subscriptions",
        "organizations_url": "https://api.github.com/users/achow101/orgs",
        "repos_url": "https://api.github.com/users/achow101/repos",
        "events_url": "https://api.github.com/users/achow101/events%7B/privacy%7D",
        "received_events_url": "https://api.github.com/users/achow101/received_events",
        "type": "User",
        "site_admin": false
      },
      "commit_id": "ba47a4ba97e924fb628849754c78d9cd10841c31",
      "commit_url": "https://api.github.com/repos/bitcoin/bitcoin/commits/ba47a4ba97e924fb628849754c78d9cd10841c31",
      "created_at": "2022-12-14T21:17:08Z"
    },
    {
      "event": "closed",
      "id": 8041610436,
      "node_id": "CE_lADOABII585YiEQXzwAAAAHfUTzE",
      "url": "https://api.github.com/repos/bitcoin/bitcoin/issues/events/8041610436",
      "actor": {
        "login": "achow101",
        "id": 3782274,
        "node_id": "MDQ6VXNlcjM3ODIyNzQ=",
        "avatar_url": "https://avatars.githubusercontent.com/u/3782274?v=4",
        "gravatar_id": "",
        "url": "https://api.github.com/users/achow101",
        "html_url": "https://github.com/achow101",
        "followers_url": "https://api.github.com/users/achow101/followers",
        "following_url": "https://api.github.com/users/achow101/following%7B/other_user%7D",
        "gists_url": "https://api.github.com/users/achow101/gists%7B/gist_id%7D",
        "starred_url": "https://api.github.com/users/achow101/starred%7B/owner%7D%7B/repo%7D",
        "subscriptions_url": "https://api.github.com/users/achow101/subscriptions",
        "organizations_url": "https://api.github.com/users/achow101/orgs",
        "repos_url": "https://api.github.com/users/achow101/repos",
        "events_url": "https://api.github.com/users/achow101/events%7B/privacy%7D",
        "received_events_url": "https://api.github.com/users/achow101/received_events",
        "type": "User",
        "site_admin": false
      },
      "commit_id": null,
      "commit_url": null,
      "created_at": "2022-12-14T21:17:08Z"
    },
    {
      "event": "referenced",
      "id": 8049043565,
      "node_id": "REFE_lADOABII585YiEQXzwAAAAHfwqht",
      "url": "https://api.github.com/repos/bitcoin/bitcoin/issues/events/8049043565",
      "actor": {
        "login": "sidhujag",
        "id": 6238042,
        "node_id": "MDQ6VXNlcjYyMzgwNDI=",
        "avatar_url": "https://avatars.githubusercontent.com/u/6238042?v=4",
        "gravatar_id": "",
        "url": "https://api.github.com/users/sidhujag",
        "html_url": "https://github.com/sidhujag",
        "followers_url": "https://api.github.com/users/sidhujag/followers",
        "following_url": "https://api.github.com/users/sidhujag/following%7B/other_user%7D",
        "gists_url": "https://api.github.com/users/sidhujag/gists%7B/gist_id%7D",
        "starred_url": "https://api.github.com/users/sidhujag/starred%7B/owner%7D%7B/repo%7D",
        "subscriptions_url": "https://api.github.com/users/sidhujag/subscriptions",
        "organizations_url": "https://api.github.com/users/sidhujag/orgs",
        "repos_url": "https://api.github.com/users/sidhujag/repos",
        "events_url": "https://api.github.com/users/sidhujag/events%7B/privacy%7D",
        "received_events_url": "https://api.github.com/users/sidhujag/received_events",
        "type": "User",
        "site_admin": false
      },
      "commit_id": "e65025357d2f6747e9dc615eb058b2e70ccf2a7b",
      "commit_url": "https://api.github.com/repos/syscoin/syscoin/commits/e65025357d2f6747e9dc615eb058b2e70ccf2a7b",
      "created_at": "2022-12-15T16:34:15Z"
    },
    {
      "event": "head_ref_deleted",
      "id": 9355561314,
      "node_id": "HRDE_lADOABII585YiEQXzwAAAAItooli",
      "url": "https://api.github.com/repos/bitcoin/bitcoin/issues/events/9355561314",
      "actor": {
        "login": "furszy",
        "id": 5377650,
        "node_id": "MDQ6VXNlcjUzNzc2NTA=",
        "avatar_url": "https://avatars.githubusercontent.com/u/5377650?v=4",
        "gravatar_id": "",
        "url": "https://api.github.com/users/furszy",
        "html_url": "https://github.com/furszy",
        "followers_url": "https://api.github.com/users/furszy/followers",
        "following_url": "https://api.github.com/users/furszy/following%7B/other_user%7D",
        "gists_url": "https://api.github.com/users/furszy/gists%7B/gist_id%7D",
        "starred_url": "https://api.github.com/users/furszy/starred%7B/owner%7D%7B/repo%7D",
        "subscriptions_url": "https://api.github.com/users/furszy/subscriptions",
        "organizations_url": "https://api.github.com/users/furszy/orgs",
        "repos_url": "https://api.github.com/users/furszy/repos",
        "events_url": "https://api.github.com/users/furszy/events%7B/privacy%7D",
        "received_events_url": "https://api.github.com/users/furszy/received_events",
        "type": "User",
        "site_admin": false
      },
      "commit_id": null,
      "commit_url": null,
      "created_at": "2023-05-27T01:46:34Z"
    }
  ],
  "comments": []
}