{
  "type": "pull",
  "pull": {
    "url": "https://api.github.com/repos/bitcoin/bitcoin/pulls/26672",
    "id": 1156183649,
    "node_id": "PR_kwDOABII585E6fZh",
    "html_url": "https://github.com/bitcoin/bitcoin/pull/26672",
    "diff_url": "https://github.com/bitcoin/bitcoin/pull/26672.diff",
    "patch_url": "https://github.com/bitcoin/bitcoin/pull/26672.patch",
    "issue_url": "https://api.github.com/repos/bitcoin/bitcoin/issues/26672",
    "commits_url": "https://api.github.com/repos/bitcoin/bitcoin/pulls/26672/commits",
    "review_comments_url": "https://api.github.com/repos/bitcoin/bitcoin/pulls/26672/comments",
    "review_comment_url": "https://api.github.com/repos/bitcoin/bitcoin/pulls/comments%7B/number%7D",
    "comments_url": "https://api.github.com/repos/bitcoin/bitcoin/issues/26672/comments",
    "statuses_url": "https://api.github.com/repos/bitcoin/bitcoin/statuses/1986f129c6af7644d238c76f032713731d7afcac",
    "number": 26672,
    "state": "closed",
    "locked": false,
    "maintainer_can_modify": false,
    "title": "build: Update libmultiprocess library",
    "user": {
      "login": "hebasto",
      "id": 32963518,
      "node_id": "MDQ6VXNlcjMyOTYzNTE4",
      "avatar_url": "https://avatars.githubusercontent.com/u/32963518?v=4",
      "gravatar_id": "",
      "url": "https://api.github.com/users/hebasto",
      "html_url": "https://github.com/hebasto",
      "followers_url": "https://api.github.com/users/hebasto/followers",
      "following_url": "https://api.github.com/users/hebasto/following%7B/other_user%7D",
      "gists_url": "https://api.github.com/users/hebasto/gists%7B/gist_id%7D",
      "starred_url": "https://api.github.com/users/hebasto/starred%7B/owner%7D%7B/repo%7D",
      "subscriptions_url": "https://api.github.com/users/hebasto/subscriptions",
      "organizations_url": "https://api.github.com/users/hebasto/orgs",
      "repos_url": "https://api.github.com/users/hebasto/repos",
      "events_url": "https://api.github.com/users/hebasto/events%7B/privacy%7D",
      "received_events_url": "https://api.github.com/users/hebasto/received_events",
      "type": "User",
      "site_admin": false
    },
    "body": "This update in particular includes:\r\n- https://github.com/chaincodelabs/libmultiprocess/pull/78 which is [required](https://github.com/bitcoin/bitcoin/pull/25972#issuecomment-1246812573) for https://github.com/bitcoin/bitcoin/pull/25972\r\n- https://github.com/chaincodelabs/libmultiprocess/pull/74\r\n- https://github.com/chaincodelabs/libmultiprocess/pull/70",
    "labels": [
      {
        "id": 61889416,
        "node_id": "MDU6TGFiZWw2MTg4OTQxNg==",
        "url": "https://api.github.com/repos/bitcoin/bitcoin/labels/Build%20system",
        "name": "Build system",
        "color": "5319e7",
        "default": false
      }
    ],
    "created_at": "2022-12-09T14:59:25Z",
    "updated_at": "2022-12-10T10:58:04Z",
    "closed_at": "2022-12-10T10:40:48Z",
    "mergeable": false,
    "mergeable_state": "dirty",
    "merged_at": "2022-12-10T10:40:48Z",
    "merge_commit_sha": "e1fb7381be89fefe5118efc922afe2af466046a5",
    "assignees": [],
    "requested_reviewers": [],
    "requested_teams": [],
    "rebaseable": false,
    "head": {
      "label": "hebasto:221209-mp",
      "ref": "221209-mp",
      "sha": "1986f129c6af7644d238c76f032713731d7afcac",
      "user": {
        "login": "hebasto",
        "id": 32963518,
        "node_id": "MDQ6VXNlcjMyOTYzNTE4",
        "avatar_url": "https://avatars.githubusercontent.com/u/32963518?v=4",
        "gravatar_id": "",
        "url": "https://api.github.com/users/hebasto",
        "html_url": "https://github.com/hebasto",
        "followers_url": "https://api.github.com/users/hebasto/followers",
        "following_url": "https://api.github.com/users/hebasto/following%7B/other_user%7D",
        "gists_url": "https://api.github.com/users/hebasto/gists%7B/gist_id%7D",
        "starred_url": "https://api.github.com/users/hebasto/starred%7B/owner%7D%7B/repo%7D",
        "subscriptions_url": "https://api.github.com/users/hebasto/subscriptions",
        "organizations_url": "https://api.github.com/users/hebasto/orgs",
        "repos_url": "https://api.github.com/users/hebasto/repos",
        "events_url": "https://api.github.com/users/hebasto/events%7B/privacy%7D",
        "received_events_url": "https://api.github.com/users/hebasto/received_events",
        "type": "User",
        "site_admin": false
      },
      "repo": {
        "id": 143212778,
        "node_id": "MDEwOlJlcG9zaXRvcnkxNDMyMTI3Nzg=",
        "name": "bitcoin",
        "full_name": "hebasto/bitcoin",
        "owner": {
          "login": "hebasto",
          "id": 32963518,
          "node_id": "MDQ6VXNlcjMyOTYzNTE4",
          "avatar_url": "https://avatars.githubusercontent.com/u/32963518?v=4",
          "gravatar_id": "",
          "url": "https://api.github.com/users/hebasto",
          "html_url": "https://github.com/hebasto",
          "followers_url": "https://api.github.com/users/hebasto/followers",
          "following_url": "https://api.github.com/users/hebasto/following%7B/other_user%7D",
          "gists_url": "https://api.github.com/users/hebasto/gists%7B/gist_id%7D",
          "starred_url": "https://api.github.com/users/hebasto/starred%7B/owner%7D%7B/repo%7D",
          "subscriptions_url": "https://api.github.com/users/hebasto/subscriptions",
          "organizations_url": "https://api.github.com/users/hebasto/orgs",
          "repos_url": "https://api.github.com/users/hebasto/repos",
          "events_url": "https://api.github.com/users/hebasto/events%7B/privacy%7D",
          "received_events_url": "https://api.github.com/users/hebasto/received_events",
          "type": "User",
          "site_admin": false
        },
        "private": false,
        "html_url": "https://github.com/hebasto/bitcoin",
        "description": "Bitcoin Core integration/staging tree",
        "fork": true,
        "url": "https://api.github.com/repos/hebasto/bitcoin",
        "archive_url": "https://api.github.com/repos/hebasto/bitcoin/%7Barchive_format%7D%7B/ref%7D",
        "assignees_url": "https://api.github.com/repos/hebasto/bitcoin/assignees%7B/user%7D",
        "blobs_url": "https://api.github.com/repos/hebasto/bitcoin/git/blobs%7B/sha%7D",
        "branches_url": "https://api.github.com/repos/hebasto/bitcoin/branches%7B/branch%7D",
        "collaborators_url": "https://api.github.com/repos/hebasto/bitcoin/collaborators%7B/collaborator%7D",
        "comments_url": "https://api.github.com/repos/hebasto/bitcoin/comments%7B/number%7D",
        "commits_url": "https://api.github.com/repos/hebasto/bitcoin/commits%7B/sha%7D",
        "compare_url": "https://api.github.com/repos/hebasto/bitcoin/compare/%7Bbase%7D...%7Bhead%7D",
        "contents_url": "https://api.github.com/repos/hebasto/bitcoin/contents/%7B+path%7D",
        "contributors_url": "https://api.github.com/repos/hebasto/bitcoin/contributors",
        "deployments_url": "https://api.github.com/repos/hebasto/bitcoin/deployments",
        "downloads_url": "https://api.github.com/repos/hebasto/bitcoin/downloads",
        "events_url": "https://api.github.com/repos/hebasto/bitcoin/events",
        "forks_url": "https://api.github.com/repos/hebasto/bitcoin/forks",
        "git_commits_url": "https://api.github.com/repos/hebasto/bitcoin/git/commits%7B/sha%7D",
        "git_refs_url": "https://api.github.com/repos/hebasto/bitcoin/git/refs%7B/sha%7D",
        "git_tags_url": "https://api.github.com/repos/hebasto/bitcoin/git/tags%7B/sha%7D",
        "git_url": "git://github.com/hebasto/bitcoin.git",
        "issue_comment_url": "https://api.github.com/repos/hebasto/bitcoin/issues/comments%7B/number%7D",
        "issue_events_url": "https://api.github.com/repos/hebasto/bitcoin/issues/events%7B/number%7D",
        "issues_url": "https://api.github.com/repos/hebasto/bitcoin/issues%7B/number%7D",
        "keys_url": "https://api.github.com/repos/hebasto/bitcoin/keys%7B/key_id%7D",
        "labels_url": "https://api.github.com/repos/hebasto/bitcoin/labels%7B/name%7D",
        "languages_url": "https://api.github.com/repos/hebasto/bitcoin/languages",
        "merges_url": "https://api.github.com/repos/hebasto/bitcoin/merges",
        "milestones_url": "https://api.github.com/repos/hebasto/bitcoin/milestones%7B/number%7D",
        "notifications_url": "https://api.github.com/repos/hebasto/bitcoin/notifications%7B?since,all,participating}",
        "pulls_url": "https://api.github.com/repos/hebasto/bitcoin/pulls%7B/number%7D",
        "releases_url": "https://api.github.com/repos/hebasto/bitcoin/releases%7B/id%7D",
        "ssh_url": "git@github.com:hebasto/bitcoin.git",
        "stargazers_url": "https://api.github.com/repos/hebasto/bitcoin/stargazers",
        "statuses_url": "https://api.github.com/repos/hebasto/bitcoin/statuses/%7Bsha%7D",
        "subscribers_url": "https://api.github.com/repos/hebasto/bitcoin/subscribers",
        "subscription_url": "https://api.github.com/repos/hebasto/bitcoin/subscription",
        "tags_url": "https://api.github.com/repos/hebasto/bitcoin/tags",
        "teams_url": "https://api.github.com/repos/hebasto/bitcoin/teams",
        "trees_url": "https://api.github.com/repos/hebasto/bitcoin/git/trees%7B/sha%7D",
        "clone_url": "https://github.com/hebasto/bitcoin.git",
        "hooks_url": "https://api.github.com/repos/hebasto/bitcoin/hooks",
        "svn_url": "https://github.com/hebasto/bitcoin",
        "homepage": "https://bitcoincore.org/en/download",
        "language": "C++",
        "forks_count": 3,
        "stargazers_count": 13,
        "watchers_count": 13,
        "size": 251607,
        "default_branch": "master",
        "open_issues_count": 3,
        "is_template": false,
        "topics": [
          "bitcoin-core"
        ],
        "has_issues": true,
        "has_projects": false,
        "has_wiki": false,
        "has_pages": false,
        "has_downloads": false,
        "archived": false,
        "disabled": false,
        "visibility": "public",
        "pushed_at": "2023-08-02T18:38:17Z",
        "created_at": "2018-08-01T21:59:57Z",
        "updated_at": "2023-07-25T14:18:54Z",
        "license": {
          "key": "mit",
          "name": "MIT License",
          "node_id": "MDc6TGljZW5zZTEz",
          "spdx_id": "MIT",
          "url": "https://api.github.com/licenses/mit",
          "html_url": null,
          "description": null,
          "implementation": null,
          "permissions": null,
          "conditions": null,
          "limitations": null,
          "body": null,
          "featured": null
        }
      }
    },
    "base": {
      "label": "bitcoin:master",
      "ref": "master",
      "sha": "16624e6ff3af4429e571f7a606bbbcac336e067a",
      "user": {
        "login": "bitcoin",
        "id": 528860,
        "node_id": "MDEyOk9yZ2FuaXphdGlvbjUyODg2MA==",
        "avatar_url": "https://avatars.githubusercontent.com/u/528860?v=4",
        "gravatar_id": "",
        "url": "https://api.github.com/users/bitcoin",
        "html_url": "https://github.com/bitcoin",
        "followers_url": "https://api.github.com/users/bitcoin/followers",
        "following_url": "https://api.github.com/users/bitcoin/following%7B/other_user%7D",
        "gists_url": "https://api.github.com/users/bitcoin/gists%7B/gist_id%7D",
        "starred_url": "https://api.github.com/users/bitcoin/starred%7B/owner%7D%7B/repo%7D",
        "subscriptions_url": "https://api.github.com/users/bitcoin/subscriptions",
        "organizations_url": "https://api.github.com/users/bitcoin/orgs",
        "repos_url": "https://api.github.com/users/bitcoin/repos",
        "events_url": "https://api.github.com/users/bitcoin/events%7B/privacy%7D",
        "received_events_url": "https://api.github.com/users/bitcoin/received_events",
        "type": "Organization",
        "site_admin": false
      },
      "repo": {
        "id": 1181927,
        "node_id": "MDEwOlJlcG9zaXRvcnkxMTgxOTI3",
        "name": "bitcoin",
        "full_name": "bitcoin/bitcoin",
        "owner": {
          "login": "bitcoin",
          "id": 528860,
          "node_id": "MDEyOk9yZ2FuaXphdGlvbjUyODg2MA==",
          "avatar_url": "https://avatars.githubusercontent.com/u/528860?v=4",
          "gravatar_id": "",
          "url": "https://api.github.com/users/bitcoin",
          "html_url": "https://github.com/bitcoin",
          "followers_url": "https://api.github.com/users/bitcoin/followers",
          "following_url": "https://api.github.com/users/bitcoin/following%7B/other_user%7D",
          "gists_url": "https://api.github.com/users/bitcoin/gists%7B/gist_id%7D",
          "starred_url": "https://api.github.com/users/bitcoin/starred%7B/owner%7D%7B/repo%7D",
          "subscriptions_url": "https://api.github.com/users/bitcoin/subscriptions",
          "organizations_url": "https://api.github.com/users/bitcoin/orgs",
          "repos_url": "https://api.github.com/users/bitcoin/repos",
          "events_url": "https://api.github.com/users/bitcoin/events%7B/privacy%7D",
          "received_events_url": "https://api.github.com/users/bitcoin/received_events",
          "type": "Organization",
          "site_admin": false
        },
        "private": false,
        "html_url": "https://github.com/bitcoin/bitcoin",
        "description": "Bitcoin Core integration/staging tree",
        "fork": false,
        "url": "https://api.github.com/repos/bitcoin/bitcoin",
        "archive_url": "https://api.github.com/repos/bitcoin/bitcoin/%7Barchive_format%7D%7B/ref%7D",
        "assignees_url": "https://api.github.com/repos/bitcoin/bitcoin/assignees%7B/user%7D",
        "blobs_url": "https://api.github.com/repos/bitcoin/bitcoin/git/blobs%7B/sha%7D",
        "branches_url": "https://api.github.com/repos/bitcoin/bitcoin/branches%7B/branch%7D",
        "collaborators_url": "https://api.github.com/repos/bitcoin/bitcoin/collaborators%7B/collaborator%7D",
        "comments_url": "https://api.github.com/repos/bitcoin/bitcoin/comments%7B/number%7D",
        "commits_url": "https://api.github.com/repos/bitcoin/bitcoin/commits%7B/sha%7D",
        "compare_url": "https://api.github.com/repos/bitcoin/bitcoin/compare/%7Bbase%7D...%7Bhead%7D",
        "contents_url": "https://api.github.com/repos/bitcoin/bitcoin/contents/%7B+path%7D",
        "contributors_url": "https://api.github.com/repos/bitcoin/bitcoin/contributors",
        "deployments_url": "https://api.github.com/repos/bitcoin/bitcoin/deployments",
        "downloads_url": "https://api.github.com/repos/bitcoin/bitcoin/downloads",
        "events_url": "https://api.github.com/repos/bitcoin/bitcoin/events",
        "forks_url": "https://api.github.com/repos/bitcoin/bitcoin/forks",
        "git_commits_url": "https://api.github.com/repos/bitcoin/bitcoin/git/commits%7B/sha%7D",
        "git_refs_url": "https://api.github.com/repos/bitcoin/bitcoin/git/refs%7B/sha%7D",
        "git_tags_url": "https://api.github.com/repos/bitcoin/bitcoin/git/tags%7B/sha%7D",
        "git_url": "git://github.com/bitcoin/bitcoin.git",
        "issue_comment_url": "https://api.github.com/repos/bitcoin/bitcoin/issues/comments%7B/number%7D",
        "issue_events_url": "https://api.github.com/repos/bitcoin/bitcoin/issues/events%7B/number%7D",
        "issues_url": "https://api.github.com/repos/bitcoin/bitcoin/issues%7B/number%7D",
        "keys_url": "https://api.github.com/repos/bitcoin/bitcoin/keys%7B/key_id%7D",
        "labels_url": "https://api.github.com/repos/bitcoin/bitcoin/labels%7B/name%7D",
        "languages_url": "https://api.github.com/repos/bitcoin/bitcoin/languages",
        "merges_url": "https://api.github.com/repos/bitcoin/bitcoin/merges",
        "milestones_url": "https://api.github.com/repos/bitcoin/bitcoin/milestones%7B/number%7D",
        "notifications_url": "https://api.github.com/repos/bitcoin/bitcoin/notifications%7B?since,all,participating}",
        "pulls_url": "https://api.github.com/repos/bitcoin/bitcoin/pulls%7B/number%7D",
        "releases_url": "https://api.github.com/repos/bitcoin/bitcoin/releases%7B/id%7D",
        "ssh_url": "git@github.com:bitcoin/bitcoin.git",
        "stargazers_url": "https://api.github.com/repos/bitcoin/bitcoin/stargazers",
        "statuses_url": "https://api.github.com/repos/bitcoin/bitcoin/statuses/%7Bsha%7D",
        "subscribers_url": "https://api.github.com/repos/bitcoin/bitcoin/subscribers",
        "subscription_url": "https://api.github.com/repos/bitcoin/bitcoin/subscription",
        "tags_url": "https://api.github.com/repos/bitcoin/bitcoin/tags",
        "teams_url": "https://api.github.com/repos/bitcoin/bitcoin/teams",
        "trees_url": "https://api.github.com/repos/bitcoin/bitcoin/git/trees%7B/sha%7D",
        "clone_url": "https://github.com/bitcoin/bitcoin.git",
        "hooks_url": "https://api.github.com/repos/bitcoin/bitcoin/hooks",
        "svn_url": "https://github.com/bitcoin/bitcoin",
        "homepage": "https://bitcoincore.org/en/download",
        "language": "C++",
        "forks_count": 35476,
        "stargazers_count": 70608,
        "watchers_count": 70608,
        "size": 236222,
        "default_branch": "master",
        "open_issues_count": 673,
        "is_template": false,
        "topics": [
          "bitcoin",
          "c-plus-plus",
          "cryptocurrency",
          "cryptography",
          "p2p"
        ],
        "has_issues": true,
        "has_projects": true,
        "has_wiki": false,
        "has_pages": false,
        "has_downloads": false,
        "archived": false,
        "disabled": false,
        "visibility": "public",
        "pushed_at": "2023-08-03T00:03:27Z",
        "created_at": "2010-12-19T15:16:43Z",
        "updated_at": "2023-08-02T18:21:18Z",
        "license": {
          "key": "mit",
          "name": "MIT License",
          "node_id": "MDc6TGljZW5zZTEz",
          "spdx_id": "MIT",
          "url": "https://api.github.com/licenses/mit",
          "html_url": null,
          "description": null,
          "implementation": null,
          "permissions": null,
          "conditions": null,
          "limitations": null,
          "body": null,
          "featured": null
        }
      }
    },
    "_links": {
      "self": {
        "href": "https://api.github.com/repos/bitcoin/bitcoin/pulls/26672"
      }
    },
    "author_association": "MEMBER",
    "draft": false,
    "additions": 4,
    "deletions": 4,
    "changed_files": 2,
    "commits": 1,
    "review_comments": 2,
    "comments": 2
  },
  "events": [
    {
      "event": "commented",
      "id": 1344409659,
      "node_id": "IC_kwDOABII585QIhA7",
      "url": "https://api.github.com/repos/bitcoin/bitcoin/issues/comments/1344409659",
      "actor": {
        "login": "DrahtBot",
        "id": 39886733,
        "node_id": "MDQ6VXNlcjM5ODg2NzMz",
        "avatar_url": "https://avatars.githubusercontent.com/u/39886733?v=4",
        "gravatar_id": "",
        "url": "https://api.github.com/users/DrahtBot",
        "html_url": "https://github.com/DrahtBot",
        "followers_url": "https://api.github.com/users/DrahtBot/followers",
        "following_url": "https://api.github.com/users/DrahtBot/following%7B/other_user%7D",
        "gists_url": "https://api.github.com/users/DrahtBot/gists%7B/gist_id%7D",
        "starred_url": "https://api.github.com/users/DrahtBot/starred%7B/owner%7D%7B/repo%7D",
        "subscriptions_url": "https://api.github.com/users/DrahtBot/subscriptions",
        "organizations_url": "https://api.github.com/users/DrahtBot/orgs",
        "repos_url": "https://api.github.com/users/DrahtBot/repos",
        "events_url": "https://api.github.com/users/DrahtBot/events%7B/privacy%7D",
        "received_events_url": "https://api.github.com/users/DrahtBot/received_events",
        "type": "User",
        "site_admin": false
      },
      "commit_id": null,
      "commit_url": null,
      "created_at": "2022-12-09T14:59:29Z",
      "updated_at": "2022-12-09T17:43:48Z",
      "author_association": "CONTRIBUTOR",
      "body": "<!--e57a25ab6845829454e8d69fc972939a-->\n\nThe following sections might be updated with supplementary metadata relevant to reviewers and maintainers.\n\n<!--021abf342d371248e50ceaed478a90ca-->\n### Reviews\nSee [the guideline](https://github.com/bitcoin/bitcoin/blob/master/CONTRIBUTING.md#code-review) for information on the review process.\n| Type | Reviewers |\n| ---- | --------- |\n| ACK | [ryanofsky](https://github.com/bitcoin/bitcoin/pull/26672#pullrequestreview-1212002378) |\n\nIf your review is incorrectly listed, please react with 👎 to this comment and the bot will ignore it on the next update.\n",
      "user": {
        "login": "DrahtBot",
        "id": 39886733,
        "node_id": "MDQ6VXNlcjM5ODg2NzMz",
        "avatar_url": "https://avatars.githubusercontent.com/u/39886733?v=4",
        "gravatar_id": "",
        "url": "https://api.github.com/users/DrahtBot",
        "html_url": "https://github.com/DrahtBot",
        "followers_url": "https://api.github.com/users/DrahtBot/followers",
        "following_url": "https://api.github.com/users/DrahtBot/following%7B/other_user%7D",
        "gists_url": "https://api.github.com/users/DrahtBot/gists%7B/gist_id%7D",
        "starred_url": "https://api.github.com/users/DrahtBot/starred%7B/owner%7D%7B/repo%7D",
        "subscriptions_url": "https://api.github.com/users/DrahtBot/subscriptions",
        "organizations_url": "https://api.github.com/users/DrahtBot/orgs",
        "repos_url": "https://api.github.com/users/DrahtBot/repos",
        "events_url": "https://api.github.com/users/DrahtBot/events%7B/privacy%7D",
        "received_events_url": "https://api.github.com/users/DrahtBot/received_events",
        "type": "User",
        "site_admin": false
      },
      "html_url": "https://github.com/bitcoin/bitcoin/pull/26672#issuecomment-1344409659",
      "issue_url": "https://api.github.com/repos/bitcoin/bitcoin/issues/26672"
    },
    {
      "event": "labeled",
      "id": 7999433336,
      "node_id": "LE_lADOABII585YoFN0zwAAAAHczap4",
      "url": "https://api.github.com/repos/bitcoin/bitcoin/issues/events/7999433336",
      "actor": {
        "login": "DrahtBot",
        "id": 39886733,
        "node_id": "MDQ6VXNlcjM5ODg2NzMz",
        "avatar_url": "https://avatars.githubusercontent.com/u/39886733?v=4",
        "gravatar_id": "",
        "url": "https://api.github.com/users/DrahtBot",
        "html_url": "https://github.com/DrahtBot",
        "followers_url": "https://api.github.com/users/DrahtBot/followers",
        "following_url": "https://api.github.com/users/DrahtBot/following%7B/other_user%7D",
        "gists_url": "https://api.github.com/users/DrahtBot/gists%7B/gist_id%7D",
        "starred_url": "https://api.github.com/users/DrahtBot/starred%7B/owner%7D%7B/repo%7D",
        "subscriptions_url": "https://api.github.com/users/DrahtBot/subscriptions",
        "organizations_url": "https://api.github.com/users/DrahtBot/orgs",
        "repos_url": "https://api.github.com/users/DrahtBot/repos",
        "events_url": "https://api.github.com/users/DrahtBot/events%7B/privacy%7D",
        "received_events_url": "https://api.github.com/users/DrahtBot/received_events",
        "type": "User",
        "site_admin": false
      },
      "commit_id": null,
      "commit_url": null,
      "created_at": "2022-12-09T14:59:30Z",
      "label": {
        "name": "Build system",
        "color": "5319e7"
      }
    },
    {
      "event": "reviewed",
      "id": 1211821227,
      "node_id": "PRR_kwDOABII585IOuyr",
      "url": null,
      "actor": null,
      "commit_id": "2a2dd0a80c61792ad30a7814dff55a9d46391d91",
      "commit_url": null,
      "created_at": null,
      "author_association": "CONTRIBUTOR",
      "body": "Code review ACK 2a2dd0a80c61792ad30a7814dff55a9d46391d91.\r\n\r\nThanks for the version update. I do want to look into converting the library into a subtree so this step isn't necessary in the future.",
      "user": {
        "login": "ryanofsky",
        "id": 7133040,
        "node_id": "MDQ6VXNlcjcxMzMwNDA=",
        "avatar_url": "https://avatars.githubusercontent.com/u/7133040?v=4",
        "gravatar_id": "",
        "url": "https://api.github.com/users/ryanofsky",
        "html_url": "https://github.com/ryanofsky",
        "followers_url": "https://api.github.com/users/ryanofsky/followers",
        "following_url": "https://api.github.com/users/ryanofsky/following%7B/other_user%7D",
        "gists_url": "https://api.github.com/users/ryanofsky/gists%7B/gist_id%7D",
        "starred_url": "https://api.github.com/users/ryanofsky/starred%7B/owner%7D%7B/repo%7D",
        "subscriptions_url": "https://api.github.com/users/ryanofsky/subscriptions",
        "organizations_url": "https://api.github.com/users/ryanofsky/orgs",
        "repos_url": "https://api.github.com/users/ryanofsky/repos",
        "events_url": "https://api.github.com/users/ryanofsky/events%7B/privacy%7D",
        "received_events_url": "https://api.github.com/users/ryanofsky/received_events",
        "type": "User",
        "site_admin": false
      },
      "html_url": "https://github.com/bitcoin/bitcoin/pull/26672#pullrequestreview-1211821227",
      "submitted_at": "2022-12-09T15:22:32Z",
      "state": "APPROVED",
      "pull_request_url": "https://api.github.com/repos/bitcoin/bitcoin/pulls/26672"
    },
    {
      "event": "committed",
      "id": null,
      "node_id": "C_kwDOABII59oAKDE5ODZmMTI5YzZhZjc2NDRkMjM4Yzc2ZjAzMjcxMzczMWQ3YWZjYWM",
      "url": "https://api.github.com/repos/bitcoin/bitcoin/git/commits/1986f129c6af7644d238c76f032713731d7afcac",
      "actor": null,
      "commit_id": null,
      "commit_url": null,
      "created_at": null,
      "html_url": "https://github.com/bitcoin/bitcoin/commit/1986f129c6af7644d238c76f032713731d7afcac",
      "tree": {
        "sha": "10b5a706289c3c259f8f0a40fd783af67e520ef8",
        "url": "https://api.github.com/repos/bitcoin/bitcoin/git/trees/10b5a706289c3c259f8f0a40fd783af67e520ef8"
      },
      "verification": {
        "verified": true,
        "reason": "valid",
        "payload": "tree 10b5a706289c3c259f8f0a40fd783af67e520ef8\nparent 16624e6ff3af4429e571f7a606bbbcac336e067a\nauthor Hennadii Stepanov <32963518+hebasto@users.noreply.github.com> 1670596159 +0000\ncommitter Hennadii Stepanov <32963518+hebasto@users.noreply.github.com> 1670599618 +0000\n\nbuild: Update `libmultiprocess` library\n\nReplacing `install` with `install-lib` and `install-bin` is not strictly\nnecessary just to update the library, but it takes advantage of recent\nchanges in the new version, and makes the build more minimal.\n",
        "signature": "-----BEGIN PGP SIGNATURE-----\n\niQIzBAABCgAdFiEE0dvyxLlvLev0wWZUQQEIES5+qB8FAmOTU8IACgkQQQEIES5+\nqB8H3A//RITqESZixVXqyydd8MY8tqwpdtvmNzcA0EWn5MAGT/kyPWG7S6lYrah1\nCRSujtUHrU6847jORylDxThHIktbvPG3Y8TfD9Jew6IjmRMVHiDeIP5TZE2/EKCe\nrwOWziC6GNhWLKTkcVavssWpxgwemFOK1cDsjIcsA8h4zdIrd6O1tSAuXGeptu9b\nKjMadV7Aw2qJQX7YGyb/fK7kzObV9Mgm3OTSQLeseX6o8rrsL7+l1gJZJLIrU77i\n64fDMlx/99VDUUL9OnF4eg2zNWgpHgMmuFYvbwfsyfV6MFcU26fpqW1gkPYT9FVB\nez7gXKQ2vqIFXAQRcv10gDYcyc94GhVNZBxQrg3My8siIYIGSZ0dUWgwptkpLHQv\nXKkysP+MKxTM0aDv2/Y3+JdPezPJySwInM/p6D8cZOkvHHNo5QjtGBQrgSockeKY\n14rscn3r59AjHh7BR3zg903lSbS0ADx1ZLsGFyUZ5xVqxplpiFvRyD3wmwVxg25b\nhgP0AMRKNYDsVV8TAeAVKCToOKVqpUrbxgT6iZeFPluSRadlv6gmK5Td2GSX8meu\nptgliA+GmBBTC/2Xbs8ZVfj8i6+v1ynTrbZSPjDVR4c9JVHyfEC0af2udW+abyUT\nSfzfCbdG2jKo2WBaH6DtDBUKrD3Ae+wrNCb+ncTzAlgE8BPnex4=\n=Cm55\n-----END PGP SIGNATURE-----"
      },
      "parents": [
        {
          "url": "https://api.github.com/repos/bitcoin/bitcoin/git/commits/16624e6ff3af4429e571f7a606bbbcac336e067a",
          "sha": "16624e6ff3af4429e571f7a606bbbcac336e067a",
          "html_url": "https://github.com/bitcoin/bitcoin/commit/16624e6ff3af4429e571f7a606bbbcac336e067a"
        }
      ],
      "message": "build: Update `libmultiprocess` library\n\nReplacing `install` with `install-lib` and `install-bin` is not strictly\nnecessary just to update the library, but it takes advantage of recent\nchanges in the new version, and makes the build more minimal.",
      "committer": {
        "name": "Hennadii Stepanov",
        "email": "32963518+hebasto@users.noreply.github.com",
        "date": "2022-12-09T15:26:58Z"
      },
      "author": {
        "name": "Hennadii Stepanov",
        "email": "32963518+hebasto@users.noreply.github.com",
        "date": "2022-12-09T14:29:19Z"
      },
      "sha": "1986f129c6af7644d238c76f032713731d7afcac"
    },
    {
      "event": "head_ref_force_pushed",
      "id": 7999672897,
      "node_id": "HRFPE_lADOABII585YoFN0zwAAAAHc0VJB",
      "url": "https://api.github.com/repos/bitcoin/bitcoin/issues/events/7999672897",
      "actor": {
        "login": "hebasto",
        "id": 32963518,
        "node_id": "MDQ6VXNlcjMyOTYzNTE4",
        "avatar_url": "https://avatars.githubusercontent.com/u/32963518?v=4",
        "gravatar_id": "",
        "url": "https://api.github.com/users/hebasto",
        "html_url": "https://github.com/hebasto",
        "followers_url": "https://api.github.com/users/hebasto/followers",
        "following_url": "https://api.github.com/users/hebasto/following%7B/other_user%7D",
        "gists_url": "https://api.github.com/users/hebasto/gists%7B/gist_id%7D",
        "starred_url": "https://api.github.com/users/hebasto/starred%7B/owner%7D%7B/repo%7D",
        "subscriptions_url": "https://api.github.com/users/hebasto/subscriptions",
        "organizations_url": "https://api.github.com/users/hebasto/orgs",
        "repos_url": "https://api.github.com/users/hebasto/repos",
        "events_url": "https://api.github.com/users/hebasto/events%7B/privacy%7D",
        "received_events_url": "https://api.github.com/users/hebasto/received_events",
        "type": "User",
        "site_admin": false
      },
      "commit_id": null,
      "commit_url": null,
      "created_at": "2022-12-09T15:27:28Z"
    },
    {
      "event": "commented",
      "id": 1344448004,
      "node_id": "IC_kwDOABII585QIqYE",
      "url": "https://api.github.com/repos/bitcoin/bitcoin/issues/comments/1344448004",
      "actor": {
        "login": "hebasto",
        "id": 32963518,
        "node_id": "MDQ6VXNlcjMyOTYzNTE4",
        "avatar_url": "https://avatars.githubusercontent.com/u/32963518?v=4",
        "gravatar_id": "",
        "url": "https://api.github.com/users/hebasto",
        "html_url": "https://github.com/hebasto",
        "followers_url": "https://api.github.com/users/hebasto/followers",
        "following_url": "https://api.github.com/users/hebasto/following%7B/other_user%7D",
        "gists_url": "https://api.github.com/users/hebasto/gists%7B/gist_id%7D",
        "starred_url": "https://api.github.com/users/hebasto/starred%7B/owner%7D%7B/repo%7D",
        "subscriptions_url": "https://api.github.com/users/hebasto/subscriptions",
        "organizations_url": "https://api.github.com/users/hebasto/orgs",
        "repos_url": "https://api.github.com/users/hebasto/repos",
        "events_url": "https://api.github.com/users/hebasto/events%7B/privacy%7D",
        "received_events_url": "https://api.github.com/users/hebasto/received_events",
        "type": "User",
        "site_admin": false
      },
      "commit_id": null,
      "commit_url": null,
      "created_at": "2022-12-09T15:30:36Z",
      "updated_at": "2022-12-09T15:30:36Z",
      "author_association": "MEMBER",
      "body": "Updated 2a2dd0a80c61792ad30a7814dff55a9d46391d91 -> 1986f129c6af7644d238c76f032713731d7afcac ([pr26672.01](https://github.com/hebasto/bitcoin/commits/pr26672.01) -> [pr26672.02](https://github.com/hebasto/bitcoin/commits/pr26672.02), [diff](https://github.com/hebasto/bitcoin/compare/pr26672.01..pr26672.02)):\r\n\r\n- addressed @ryanofsky's [comment](https://github.com/bitcoin/bitcoin/pull/26672#discussion_r1044558944)",
      "user": {
        "login": "hebasto",
        "id": 32963518,
        "node_id": "MDQ6VXNlcjMyOTYzNTE4",
        "avatar_url": "https://avatars.githubusercontent.com/u/32963518?v=4",
        "gravatar_id": "",
        "url": "https://api.github.com/users/hebasto",
        "html_url": "https://github.com/hebasto",
        "followers_url": "https://api.github.com/users/hebasto/followers",
        "following_url": "https://api.github.com/users/hebasto/following%7B/other_user%7D",
        "gists_url": "https://api.github.com/users/hebasto/gists%7B/gist_id%7D",
        "starred_url": "https://api.github.com/users/hebasto/starred%7B/owner%7D%7B/repo%7D",
        "subscriptions_url": "https://api.github.com/users/hebasto/subscriptions",
        "organizations_url": "https://api.github.com/users/hebasto/orgs",
        "repos_url": "https://api.github.com/users/hebasto/repos",
        "events_url": "https://api.github.com/users/hebasto/events%7B/privacy%7D",
        "received_events_url": "https://api.github.com/users/hebasto/received_events",
        "type": "User",
        "site_admin": false
      },
      "html_url": "https://github.com/bitcoin/bitcoin/pull/26672#issuecomment-1344448004",
      "issue_url": "https://api.github.com/repos/bitcoin/bitcoin/issues/26672"
    },
    {
      "event": "mentioned",
      "id": 7999697779,
      "node_id": "MEE_lADOABII585YoFN0zwAAAAHc0bNz",
      "url": "https://api.github.com/repos/bitcoin/bitcoin/issues/events/7999697779",
      "actor": {
        "login": "ryanofsky",
        "id": 7133040,
        "node_id": "MDQ6VXNlcjcxMzMwNDA=",
        "avatar_url": "https://avatars.githubusercontent.com/u/7133040?v=4",
        "gravatar_id": "",
        "url": "https://api.github.com/users/ryanofsky",
        "html_url": "https://github.com/ryanofsky",
        "followers_url": "https://api.github.com/users/ryanofsky/followers",
        "following_url": "https://api.github.com/users/ryanofsky/following%7B/other_user%7D",
        "gists_url": "https://api.github.com/users/ryanofsky/gists%7B/gist_id%7D",
        "starred_url": "https://api.github.com/users/ryanofsky/starred%7B/owner%7D%7B/repo%7D",
        "subscriptions_url": "https://api.github.com/users/ryanofsky/subscriptions",
        "organizations_url": "https://api.github.com/users/ryanofsky/orgs",
        "repos_url": "https://api.github.com/users/ryanofsky/repos",
        "events_url": "https://api.github.com/users/ryanofsky/events%7B/privacy%7D",
        "received_events_url": "https://api.github.com/users/ryanofsky/received_events",
        "type": "User",
        "site_admin": false
      },
      "commit_id": null,
      "commit_url": null,
      "created_at": "2022-12-09T15:30:36Z"
    },
    {
      "event": "subscribed",
      "id": 7999697796,
      "node_id": "SE_lADOABII585YoFN0zwAAAAHc0bOE",
      "url": "https://api.github.com/repos/bitcoin/bitcoin/issues/events/7999697796",
      "actor": {
        "login": "ryanofsky",
        "id": 7133040,
        "node_id": "MDQ6VXNlcjcxMzMwNDA=",
        "avatar_url": "https://avatars.githubusercontent.com/u/7133040?v=4",
        "gravatar_id": "",
        "url": "https://api.github.com/users/ryanofsky",
        "html_url": "https://github.com/ryanofsky",
        "followers_url": "https://api.github.com/users/ryanofsky/followers",
        "following_url": "https://api.github.com/users/ryanofsky/following%7B/other_user%7D",
        "gists_url": "https://api.github.com/users/ryanofsky/gists%7B/gist_id%7D",
        "starred_url": "https://api.github.com/users/ryanofsky/starred%7B/owner%7D%7B/repo%7D",
        "subscriptions_url": "https://api.github.com/users/ryanofsky/subscriptions",
        "organizations_url": "https://api.github.com/users/ryanofsky/orgs",
        "repos_url": "https://api.github.com/users/ryanofsky/repos",
        "events_url": "https://api.github.com/users/ryanofsky/events%7B/privacy%7D",
        "received_events_url": "https://api.github.com/users/ryanofsky/received_events",
        "type": "User",
        "site_admin": false
      },
      "commit_id": null,
      "commit_url": null,
      "created_at": "2022-12-09T15:30:36Z"
    },
    {
      "event": "reviewed",
      "id": 1212002378,
      "node_id": "PRR_kwDOABII585IPbBK",
      "url": null,
      "actor": null,
      "commit_id": "1986f129c6af7644d238c76f032713731d7afcac",
      "commit_url": null,
      "created_at": null,
      "author_association": "CONTRIBUTOR",
      "body": "Code review ACK 1986f129c6af7644d238c76f032713731d7afcac\r\n\r\nJust updated commit message since last review (thanks!)",
      "user": {
        "login": "ryanofsky",
        "id": 7133040,
        "node_id": "MDQ6VXNlcjcxMzMwNDA=",
        "avatar_url": "https://avatars.githubusercontent.com/u/7133040?v=4",
        "gravatar_id": "",
        "url": "https://api.github.com/users/ryanofsky",
        "html_url": "https://github.com/ryanofsky",
        "followers_url": "https://api.github.com/users/ryanofsky/followers",
        "following_url": "https://api.github.com/users/ryanofsky/following%7B/other_user%7D",
        "gists_url": "https://api.github.com/users/ryanofsky/gists%7B/gist_id%7D",
        "starred_url": "https://api.github.com/users/ryanofsky/starred%7B/owner%7D%7B/repo%7D",
        "subscriptions_url": "https://api.github.com/users/ryanofsky/subscriptions",
        "organizations_url": "https://api.github.com/users/ryanofsky/orgs",
        "repos_url": "https://api.github.com/users/ryanofsky/repos",
        "events_url": "https://api.github.com/users/ryanofsky/events%7B/privacy%7D",
        "received_events_url": "https://api.github.com/users/ryanofsky/received_events",
        "type": "User",
        "site_admin": false
      },
      "html_url": "https://github.com/bitcoin/bitcoin/pull/26672#pullrequestreview-1212002378",
      "submitted_at": "2022-12-09T17:43:45Z",
      "state": "APPROVED",
      "pull_request_url": "https://api.github.com/repos/bitcoin/bitcoin/pulls/26672"
    },
    {
      "event": "merged",
      "id": 8004496568,
      "node_id": "ME_lADOABII585YoFN0zwAAAAHdGuy4",
      "url": "https://api.github.com/repos/bitcoin/bitcoin/issues/events/8004496568",
      "actor": {
        "login": "fanquake",
        "id": 863730,
        "node_id": "MDQ6VXNlcjg2MzczMA==",
        "avatar_url": "https://avatars.githubusercontent.com/u/863730?v=4",
        "gravatar_id": "",
        "url": "https://api.github.com/users/fanquake",
        "html_url": "https://github.com/fanquake",
        "followers_url": "https://api.github.com/users/fanquake/followers",
        "following_url": "https://api.github.com/users/fanquake/following%7B/other_user%7D",
        "gists_url": "https://api.github.com/users/fanquake/gists%7B/gist_id%7D",
        "starred_url": "https://api.github.com/users/fanquake/starred%7B/owner%7D%7B/repo%7D",
        "subscriptions_url": "https://api.github.com/users/fanquake/subscriptions",
        "organizations_url": "https://api.github.com/users/fanquake/orgs",
        "repos_url": "https://api.github.com/users/fanquake/repos",
        "events_url": "https://api.github.com/users/fanquake/events%7B/privacy%7D",
        "received_events_url": "https://api.github.com/users/fanquake/received_events",
        "type": "User",
        "site_admin": false
      },
      "commit_id": "e1fb7381be89fefe5118efc922afe2af466046a5",
      "commit_url": "https://api.github.com/repos/bitcoin/bitcoin/commits/e1fb7381be89fefe5118efc922afe2af466046a5",
      "created_at": "2022-12-10T10:40:48Z"
    },
    {
      "event": "closed",
      "id": 8004496582,
      "node_id": "CE_lADOABII585YoFN0zwAAAAHdGuzG",
      "url": "https://api.github.com/repos/bitcoin/bitcoin/issues/events/8004496582",
      "actor": {
        "login": "fanquake",
        "id": 863730,
        "node_id": "MDQ6VXNlcjg2MzczMA==",
        "avatar_url": "https://avatars.githubusercontent.com/u/863730?v=4",
        "gravatar_id": "",
        "url": "https://api.github.com/users/fanquake",
        "html_url": "https://github.com/fanquake",
        "followers_url": "https://api.github.com/users/fanquake/followers",
        "following_url": "https://api.github.com/users/fanquake/following%7B/other_user%7D",
        "gists_url": "https://api.github.com/users/fanquake/gists%7B/gist_id%7D",
        "starred_url": "https://api.github.com/users/fanquake/starred%7B/owner%7D%7B/repo%7D",
        "subscriptions_url": "https://api.github.com/users/fanquake/subscriptions",
        "organizations_url": "https://api.github.com/users/fanquake/orgs",
        "repos_url": "https://api.github.com/users/fanquake/repos",
        "events_url": "https://api.github.com/users/fanquake/events%7B/privacy%7D",
        "received_events_url": "https://api.github.com/users/fanquake/received_events",
        "type": "User",
        "site_admin": false
      },
      "commit_id": null,
      "commit_url": null,
      "created_at": "2022-12-10T10:40:49Z"
    },
    {
      "event": "head_ref_deleted",
      "id": 8004528319,
      "node_id": "HRDE_lADOABII585YoFN0zwAAAAHdG2i_",
      "url": "https://api.github.com/repos/bitcoin/bitcoin/issues/events/8004528319",
      "actor": {
        "login": "hebasto",
        "id": 32963518,
        "node_id": "MDQ6VXNlcjMyOTYzNTE4",
        "avatar_url": "https://avatars.githubusercontent.com/u/32963518?v=4",
        "gravatar_id": "",
        "url": "https://api.github.com/users/hebasto",
        "html_url": "https://github.com/hebasto",
        "followers_url": "https://api.github.com/users/hebasto/followers",
        "following_url": "https://api.github.com/users/hebasto/following%7B/other_user%7D",
        "gists_url": "https://api.github.com/users/hebasto/gists%7B/gist_id%7D",
        "starred_url": "https://api.github.com/users/hebasto/starred%7B/owner%7D%7B/repo%7D",
        "subscriptions_url": "https://api.github.com/users/hebasto/subscriptions",
        "organizations_url": "https://api.github.com/users/hebasto/orgs",
        "repos_url": "https://api.github.com/users/hebasto/repos",
        "events_url": "https://api.github.com/users/hebasto/events%7B/privacy%7D",
        "received_events_url": "https://api.github.com/users/hebasto/received_events",
        "type": "User",
        "site_admin": false
      },
      "commit_id": null,
      "commit_url": null,
      "created_at": "2022-12-10T10:58:04Z"
    },
    {
      "event": "referenced",
      "id": 8005522394,
      "node_id": "REFE_lADOABII585YoFN0zwAAAAHdKpPa",
      "url": "https://api.github.com/repos/bitcoin/bitcoin/issues/events/8005522394",
      "actor": {
        "login": "sidhujag",
        "id": 6238042,
        "node_id": "MDQ6VXNlcjYyMzgwNDI=",
        "avatar_url": "https://avatars.githubusercontent.com/u/6238042?v=4",
        "gravatar_id": "",
        "url": "https://api.github.com/users/sidhujag",
        "html_url": "https://github.com/sidhujag",
        "followers_url": "https://api.github.com/users/sidhujag/followers",
        "following_url": "https://api.github.com/users/sidhujag/following%7B/other_user%7D",
        "gists_url": "https://api.github.com/users/sidhujag/gists%7B/gist_id%7D",
        "starred_url": "https://api.github.com/users/sidhujag/starred%7B/owner%7D%7B/repo%7D",
        "subscriptions_url": "https://api.github.com/users/sidhujag/subscriptions",
        "organizations_url": "https://api.github.com/users/sidhujag/orgs",
        "repos_url": "https://api.github.com/users/sidhujag/repos",
        "events_url": "https://api.github.com/users/sidhujag/events%7B/privacy%7D",
        "received_events_url": "https://api.github.com/users/sidhujag/received_events",
        "type": "User",
        "site_admin": false
      },
      "commit_id": "e603e70e7a9d2bd224211542e5f9e7f630e85e44",
      "commit_url": "https://api.github.com/repos/syscoin/syscoin/commits/e603e70e7a9d2bd224211542e5f9e7f630e85e44",
      "created_at": "2022-12-10T19:06:35Z"
    },
    {
      "event": "cross-referenced",
      "id": null,
      "node_id": null,
      "url": null,
      "actor": {
        "login": "fanquake",
        "id": 863730,
        "node_id": "MDQ6VXNlcjg2MzczMA==",
        "avatar_url": "https://avatars.githubusercontent.com/u/863730?v=4",
        "gravatar_id": "",
        "url": "https://api.github.com/users/fanquake",
        "html_url": "https://github.com/fanquake",
        "followers_url": "https://api.github.com/users/fanquake/followers",
        "following_url": "https://api.github.com/users/fanquake/following%7B/other_user%7D",
        "gists_url": "https://api.github.com/users/fanquake/gists%7B/gist_id%7D",
        "starred_url": "https://api.github.com/users/fanquake/starred%7B/owner%7D%7B/repo%7D",
        "subscriptions_url": "https://api.github.com/users/fanquake/subscriptions",
        "organizations_url": "https://api.github.com/users/fanquake/orgs",
        "repos_url": "https://api.github.com/users/fanquake/repos",
        "events_url": "https://api.github.com/users/fanquake/events%7B/privacy%7D",
        "received_events_url": "https://api.github.com/users/fanquake/received_events",
        "type": "User",
        "site_admin": false
      },
      "commit_id": null,
      "commit_url": null,
      "created_at": "2022-12-12T12:16:59Z",
      "updated_at": "2022-12-12T12:16:59Z",
      "source": {
        "issue": {
          "id": 1358933376,
          "node_id": "PR_kwDOABII584-N0SU",
          "url": "https://api.github.com/repos/bitcoin/bitcoin/issues/25972",
          "repository_url": "https://api.github.com/repos/bitcoin/bitcoin",
          "labels_url": "https://api.github.com/repos/bitcoin/bitcoin/issues/25972/labels%7B/name%7D",
          "comments_url": "https://api.github.com/repos/bitcoin/bitcoin/issues/25972/comments",
          "events_url": "https://api.github.com/repos/bitcoin/bitcoin/issues/25972/events",
          "html_url": "https://github.com/bitcoin/bitcoin/pull/25972",
          "number": 25972,
          "state": "open",
          "state_reason": null,
          "title": "build: no-longer disable WARN_CXXFLAGS when CXXFLAGS is set",
          "body": "Now that `CXXFLAGS` are [back in user control](https://github.com/bitcoin/bitcoin/pull/24391), I don't think there's a\r\nreason to no-longer use our warning flags when `CXXFLAGS` has been\r\noverriden (this includes, by default, when building from depends).\r\n\r\nAnyone can suppress warnings from third-party code by\r\npassing the relevant `-Wno-` options in `CXXFLAGS`.\r\n\r\nCloses: #18092.",
          "user": {
            "login": "fanquake",
            "id": 863730,
            "node_id": "MDQ6VXNlcjg2MzczMA==",
            "avatar_url": "https://avatars.githubusercontent.com/u/863730?v=4",
            "gravatar_id": "",
            "url": "https://api.github.com/users/fanquake",
            "html_url": "https://github.com/fanquake",
            "followers_url": "https://api.github.com/users/fanquake/followers",
            "following_url": "https://api.github.com/users/fanquake/following%7B/other_user%7D",
            "gists_url": "https://api.github.com/users/fanquake/gists%7B/gist_id%7D",
            "starred_url": "https://api.github.com/users/fanquake/starred%7B/owner%7D%7B/repo%7D",
            "subscriptions_url": "https://api.github.com/users/fanquake/subscriptions",
            "organizations_url": "https://api.github.com/users/fanquake/orgs",
            "repos_url": "https://api.github.com/users/fanquake/repos",
            "events_url": "https://api.github.com/users/fanquake/events%7B/privacy%7D",
            "received_events_url": "https://api.github.com/users/fanquake/received_events",
            "type": "User",
            "site_admin": false
          },
          "labels": [
            {
              "id": 61889416,
              "node_id": "MDU6TGFiZWw2MTg4OTQxNg==",
              "url": "https://api.github.com/repos/bitcoin/bitcoin/labels/Build%20system",
              "name": "Build system",
              "color": "5319e7",
              "default": false
            },
            {
              "id": 5334691551,
              "node_id": "LA_kwDOABII588AAAABPfju3w",
              "url": "https://api.github.com/repos/bitcoin/bitcoin/labels/CI%20failed",
              "name": "CI failed",
              "description": "",
              "color": "cccccc",
              "default": false
            }
          ],
          "assignees": [],
          "author_association": "MEMBER",
          "locked": false,
          "comments": 40,
          "pull_request": {
            "url": "https://api.github.com/repos/bitcoin/bitcoin/pulls/25972",
            "html_url": "https://github.com/bitcoin/bitcoin/pull/25972",
            "diff_url": "https://github.com/bitcoin/bitcoin/pull/25972.diff",
            "patch_url": "https://github.com/bitcoin/bitcoin/pull/25972.patch"
          },
          "created_at": "2022-09-01T14:22:28Z",
          "updated_at": "2023-07-27T23:40:59Z"
        },
        "type": "issue"
      }
    },
    {
      "event": "cross-referenced",
      "id": null,
      "node_id": null,
      "url": null,
      "actor": {
        "login": "ryanofsky",
        "id": 7133040,
        "node_id": "MDQ6VXNlcjcxMzMwNDA=",
        "avatar_url": "https://avatars.githubusercontent.com/u/7133040?v=4",
        "gravatar_id": "",
        "url": "https://api.github.com/users/ryanofsky",
        "html_url": "https://github.com/ryanofsky",
        "followers_url": "https://api.github.com/users/ryanofsky/followers",
        "following_url": "https://api.github.com/users/ryanofsky/following%7B/other_user%7D",
        "gists_url": "https://api.github.com/users/ryanofsky/gists%7B/gist_id%7D",
        "starred_url": "https://api.github.com/users/ryanofsky/starred%7B/owner%7D%7B/repo%7D",
        "subscriptions_url": "https://api.github.com/users/ryanofsky/subscriptions",
        "organizations_url": "https://api.github.com/users/ryanofsky/orgs",
        "repos_url": "https://api.github.com/users/ryanofsky/repos",
        "events_url": "https://api.github.com/users/ryanofsky/events%7B/privacy%7D",
        "received_events_url": "https://api.github.com/users/ryanofsky/received_events",
        "type": "User",
        "site_admin": false
      },
      "commit_id": null,
      "commit_url": null,
      "created_at": "2023-02-13T18:24:29Z",
      "updated_at": "2023-02-13T18:24:29Z",
      "source": {
        "issue": {
          "id": 217385623,
          "node_id": "MDExOlB1bGxSZXF1ZXN0MTEyODQ2NDMx",
          "url": "https://api.github.com/repos/bitcoin/bitcoin/issues/10102",
          "repository_url": "https://api.github.com/repos/bitcoin/bitcoin",
          "labels_url": "https://api.github.com/repos/bitcoin/bitcoin/issues/10102/labels%7B/name%7D",
          "comments_url": "https://api.github.com/repos/bitcoin/bitcoin/issues/10102/comments",
          "events_url": "https://api.github.com/repos/bitcoin/bitcoin/issues/10102/events",
          "html_url": "https://github.com/bitcoin/bitcoin/pull/10102",
          "number": 10102,
          "state": "open",
          "state_reason": null,
          "title": "Multiprocess bitcoin",
          "body": "This PR is part of the [process separation project](https://github.com/bitcoin/bitcoin/projects/10).\r\n\r\n---\r\n\r\nThis PR adds an `--enable-multiprocess` configure option which builds new `bitcoin-node`, `bitcoin-wallet`, and `bitcoin-gui` executables with relevant functionality isolated into different processes. See [doc/design/multiprocess.md](https://github.com/ryanofsky/bitcoin/tree/pr/ipc/doc/design/multiprocess.md) for usage details and future plans.\r\n\r\nThe change is implemented by adding a new [`Init`](https://github.com/ryanofsky/bitcoin/blob/pr/ipc/src/interfaces/init.h) interface that spawns new wallet and node subprocesses that can be controlled over a [socketpair](http://man7.org/linux/man-pages/man2/socketpair.2.html) by calling [`Node`](https://github.com/ryanofsky/bitcoin/blob/pr/ipc/src/interfaces/node.h), [`Wallet`](https://github.com/ryanofsky/bitcoin/blob/pr/ipc/src/interfaces/wallet.h), and [`ChainClient`](https://github.com/ryanofsky/bitcoin/blob/pr/ipc/src/interfaces/chain.h) methods. When running with split processes, you can see the IPC messages going back and forth in `-debug=1` output. Followup PR's #19460 and #19461 add `-ipcbind` and `-ipcconnect` options that allow more flexibility in how processes are connected.\r\n\r\nThe IPC protocol used is Cap'n Proto, but this could be swapped out for another protocol. Cap'n Proto types and libraries are only accessed in the [src/ipc/capnp/](https://github.com/ryanofsky/bitcoin/tree/pr/ipc/src/ipc/capnp) directory, and not in any public headers or other parts of bitcoin code.\r\n\r\n---\r\n\r\nSlides from a presentation describing this change are available on [google drive](https://docs.google.com/presentation/d/1AeJ-7gD-dItUgs5yH-HoEzLvXaEWe_2ZiGUUxYIXcws/edit). Demo code used in the presentation was from an older version this PR (tag [ipc.21](https://github.com/ryanofsky/bitcoin/releases/tag/pr%2Fipc.21), [commits](https://github.com/ryanofsky/bitcoin/compare/master...pr/ipc.21)).\r\n",
          "user": {
            "login": "ryanofsky",
            "id": 7133040,
            "node_id": "MDQ6VXNlcjcxMzMwNDA=",
            "avatar_url": "https://avatars.githubusercontent.com/u/7133040?v=4",
            "gravatar_id": "",
            "url": "https://api.github.com/users/ryanofsky",
            "html_url": "https://github.com/ryanofsky",
            "followers_url": "https://api.github.com/users/ryanofsky/followers",
            "following_url": "https://api.github.com/users/ryanofsky/following%7B/other_user%7D",
            "gists_url": "https://api.github.com/users/ryanofsky/gists%7B/gist_id%7D",
            "starred_url": "https://api.github.com/users/ryanofsky/starred%7B/owner%7D%7B/repo%7D",
            "subscriptions_url": "https://api.github.com/users/ryanofsky/subscriptions",
            "organizations_url": "https://api.github.com/users/ryanofsky/orgs",
            "repos_url": "https://api.github.com/users/ryanofsky/repos",
            "events_url": "https://api.github.com/users/ryanofsky/events%7B/privacy%7D",
            "received_events_url": "https://api.github.com/users/ryanofsky/received_events",
            "type": "User",
            "site_admin": false
          },
          "labels": [
            {
              "id": 135946,
              "node_id": "MDU6TGFiZWwxMzU5NDY=",
              "url": "https://api.github.com/repos/bitcoin/bitcoin/labels/GUI",
              "name": "GUI",
              "color": "02d7e1",
              "default": false
            },
            {
              "id": 98279177,
              "node_id": "MDU6TGFiZWw5ODI3OTE3Nw==",
              "url": "https://api.github.com/repos/bitcoin/bitcoin/labels/RPC/REST/ZMQ",
              "name": "RPC/REST/ZMQ",
              "color": "0052cc",
              "default": false
            },
            {
              "id": 955867938,
              "node_id": "MDU6TGFiZWw5NTU4Njc5Mzg=",
              "url": "https://api.github.com/repos/bitcoin/bitcoin/labels/Needs%20rebase",
              "name": "Needs rebase",
              "description": "",
              "color": "cccccc",
              "default": false
            }
          ],
          "assignees": [],
          "author_association": "CONTRIBUTOR",
          "locked": false,
          "comments": 78,
          "pull_request": {
            "url": "https://api.github.com/repos/bitcoin/bitcoin/pulls/10102",
            "html_url": "https://github.com/bitcoin/bitcoin/pull/10102",
            "diff_url": "https://github.com/bitcoin/bitcoin/pull/10102.diff",
            "patch_url": "https://github.com/bitcoin/bitcoin/pull/10102.patch"
          },
          "created_at": "2017-03-27T21:48:26Z",
          "updated_at": "2023-06-21T07:40:44Z"
        },
        "type": "issue"
      }
    }
  ],
  "comments": [
    {
      "url": "https://api.github.com/repos/bitcoin/bitcoin/pulls/comments/1044558944",
      "pull_request_review_id": 1211821227,
      "id": 1044558944,
      "node_id": "PRRC_kwDOABII584-QrRg",
      "diff_hunk": "@@ -24,5 +24,5 @@ define $(package)_build_cmds\n endef\n \n define $(package)_stage_cmds\n-  $(MAKE) DESTDIR=$($(package)_staging_dir) install\n+  $(MAKE) DESTDIR=$($(package)_staging_dir) install-lib",
      "path": "depends/packages/libmultiprocess.mk",
      "position": 5,
      "original_position": 5,
      "commit_id": "1986f129c6af7644d238c76f032713731d7afcac",
      "original_commit_id": "2a2dd0a80c61792ad30a7814dff55a9d46391d91",
      "in_reply_to_id": null,
      "user": {
        "login": "ryanofsky",
        "id": 7133040,
        "node_id": "MDQ6VXNlcjcxMzMwNDA=",
        "avatar_url": "https://avatars.githubusercontent.com/u/7133040?v=4",
        "gravatar_id": "",
        "url": "https://api.github.com/users/ryanofsky",
        "html_url": "https://github.com/ryanofsky",
        "followers_url": "https://api.github.com/users/ryanofsky/followers",
        "following_url": "https://api.github.com/users/ryanofsky/following%7B/other_user%7D",
        "gists_url": "https://api.github.com/users/ryanofsky/gists%7B/gist_id%7D",
        "starred_url": "https://api.github.com/users/ryanofsky/starred%7B/owner%7D%7B/repo%7D",
        "subscriptions_url": "https://api.github.com/users/ryanofsky/subscriptions",
        "organizations_url": "https://api.github.com/users/ryanofsky/orgs",
        "repos_url": "https://api.github.com/users/ryanofsky/repos",
        "events_url": "https://api.github.com/users/ryanofsky/events%7B/privacy%7D",
        "received_events_url": "https://api.github.com/users/ryanofsky/received_events",
        "type": "User",
        "site_admin": false
      },
      "body": "In commit \"build: Update libmultiprocess library\" (2a2dd0a80c61792ad30a7814dff55a9d46391d91)\r\n\r\nNote for reviewers: replacing `install` with `install-lib` and `install-bin` here isn't strictly necessary just to update the library, but it takes advantage of recent changes in the new version, and makes the build more minimal.\r\n\r\n(This could be noted in the commit message, too.)",
      "created_at": "2022-12-09T15:19:07Z",
      "updated_at": "2022-12-09T15:23:27Z",
      "html_url": "https://github.com/bitcoin/bitcoin/pull/26672#discussion_r1044558944",
      "author_association": "CONTRIBUTOR",
      "_links": {
        "self": {
          "href": "https://api.github.com/repos/bitcoin/bitcoin/pulls/comments/1044558944"
        },
        "pull_request": {
          "href": "https://api.github.com/repos/bitcoin/bitcoin/pulls/26672"
        }
      },
      "start_line": null,
      "original_start_line": null,
      "start_side": null,
      "line": 27,
      "original_line": 27,
      "side": "RIGHT"
    },
    {
      "url": "https://api.github.com/repos/bitcoin/bitcoin/pulls/comments/1044566886",
      "pull_request_review_id": 1211832891,
      "id": 1044566886,
      "node_id": "PRRC_kwDOABII584-QtNm",
      "diff_hunk": "@@ -24,5 +24,5 @@ define $(package)_build_cmds\n endef\n \n define $(package)_stage_cmds\n-  $(MAKE) DESTDIR=$($(package)_staging_dir) install\n+  $(MAKE) DESTDIR=$($(package)_staging_dir) install-lib",
      "path": "depends/packages/libmultiprocess.mk",
      "position": 5,
      "original_position": 5,
      "commit_id": "1986f129c6af7644d238c76f032713731d7afcac",
      "original_commit_id": "2a2dd0a80c61792ad30a7814dff55a9d46391d91",
      "in_reply_to_id": 1044558944,
      "user": {
        "login": "hebasto",
        "id": 32963518,
        "node_id": "MDQ6VXNlcjMyOTYzNTE4",
        "avatar_url": "https://avatars.githubusercontent.com/u/32963518?v=4",
        "gravatar_id": "",
        "url": "https://api.github.com/users/hebasto",
        "html_url": "https://github.com/hebasto",
        "followers_url": "https://api.github.com/users/hebasto/followers",
        "following_url": "https://api.github.com/users/hebasto/following%7B/other_user%7D",
        "gists_url": "https://api.github.com/users/hebasto/gists%7B/gist_id%7D",
        "starred_url": "https://api.github.com/users/hebasto/starred%7B/owner%7D%7B/repo%7D",
        "subscriptions_url": "https://api.github.com/users/hebasto/subscriptions",
        "organizations_url": "https://api.github.com/users/hebasto/orgs",
        "repos_url": "https://api.github.com/users/hebasto/repos",
        "events_url": "https://api.github.com/users/hebasto/events%7B/privacy%7D",
        "received_events_url": "https://api.github.com/users/hebasto/received_events",
        "type": "User",
        "site_admin": false
      },
      "body": "> This could be noted in the commit message, too.\r\n\r\nThanks! The commit message has been [updated](https://github.com/bitcoin/bitcoin/pull/26672#issuecomment-1344448004).",
      "created_at": "2022-12-09T15:27:45Z",
      "updated_at": "2022-12-09T15:30:47Z",
      "html_url": "https://github.com/bitcoin/bitcoin/pull/26672#discussion_r1044566886",
      "author_association": "MEMBER",
      "_links": {
        "self": {
          "href": "https://api.github.com/repos/bitcoin/bitcoin/pulls/comments/1044566886"
        },
        "pull_request": {
          "href": "https://api.github.com/repos/bitcoin/bitcoin/pulls/26672"
        }
      },
      "start_line": null,
      "original_start_line": null,
      "start_side": null,
      "line": 27,
      "original_line": 27,
      "side": "RIGHT"
    }
  ]
}