{
  "type": "pull",
  "pull": {
    "url": "https://api.github.com/repos/bitcoin/bitcoin/pulls/26686",
    "id": 1160631973,
    "node_id": "PR_kwDOABII585FLdal",
    "html_url": "https://github.com/bitcoin/bitcoin/pull/26686",
    "diff_url": "https://github.com/bitcoin/bitcoin/pull/26686.diff",
    "patch_url": "https://github.com/bitcoin/bitcoin/pull/26686.patch",
    "issue_url": "https://api.github.com/repos/bitcoin/bitcoin/issues/26686",
    "commits_url": "https://api.github.com/repos/bitcoin/bitcoin/pulls/26686/commits",
    "review_comments_url": "https://api.github.com/repos/bitcoin/bitcoin/pulls/26686/comments",
    "review_comment_url": "https://api.github.com/repos/bitcoin/bitcoin/pulls/comments%7B/number%7D",
    "comments_url": "https://api.github.com/repos/bitcoin/bitcoin/issues/26686/comments",
    "statuses_url": "https://api.github.com/repos/bitcoin/bitcoin/statuses/58c2bbdb55b97e350baf51cfd7f4692b681a8acb",
    "number": 26686,
    "state": "closed",
    "locked": false,
    "maintainer_can_modify": false,
    "title": "fuzz: Enable erlay setting in process_message(s) targets",
    "user": {
      "login": "dergoegge",
      "id": 8077169,
      "node_id": "MDQ6VXNlcjgwNzcxNjk=",
      "avatar_url": "https://avatars.githubusercontent.com/u/8077169?v=4",
      "gravatar_id": "",
      "url": "https://api.github.com/users/dergoegge",
      "html_url": "https://github.com/dergoegge",
      "followers_url": "https://api.github.com/users/dergoegge/followers",
      "following_url": "https://api.github.com/users/dergoegge/following%7B/other_user%7D",
      "gists_url": "https://api.github.com/users/dergoegge/gists%7B/gist_id%7D",
      "starred_url": "https://api.github.com/users/dergoegge/starred%7B/owner%7D%7B/repo%7D",
      "subscriptions_url": "https://api.github.com/users/dergoegge/subscriptions",
      "organizations_url": "https://api.github.com/users/dergoegge/orgs",
      "repos_url": "https://api.github.com/users/dergoegge/repos",
      "events_url": "https://api.github.com/users/dergoegge/events%7B/privacy%7D",
      "received_events_url": "https://api.github.com/users/dergoegge/received_events",
      "type": "User",
      "site_admin": false
    },
    "body": "The process_message(s) targets can't exercise the Erlay logic at the moment as the config setting is off by default and not switched on in the fuzz targets.\r\n\r\nThis PR enables the `-txreconciliation` setting in both targets.",
    "labels": [
      {
        "id": 62963516,
        "node_id": "MDU6TGFiZWw2Mjk2MzUxNg==",
        "url": "https://api.github.com/repos/bitcoin/bitcoin/labels/Tests",
        "name": "Tests",
        "color": "d4c5f9",
        "default": false
      }
    ],
    "created_at": "2022-12-12T11:28:56Z",
    "updated_at": "2023-01-19T14:59:29Z",
    "closed_at": "2023-01-19T14:59:29Z",
    "mergeable_state": "unknown",
    "merged_at": "2023-01-19T14:59:29Z",
    "merge_commit_sha": "05e3468fb3c084840a93aed31c67f062ef30ef58",
    "assignees": [],
    "requested_reviewers": [
      {
        "login": "naumenkogs",
        "id": 7975071,
        "node_id": "MDQ6VXNlcjc5NzUwNzE=",
        "avatar_url": "https://avatars.githubusercontent.com/u/7975071?v=4",
        "gravatar_id": "",
        "url": "https://api.github.com/users/naumenkogs",
        "html_url": "https://github.com/naumenkogs",
        "followers_url": "https://api.github.com/users/naumenkogs/followers",
        "following_url": "https://api.github.com/users/naumenkogs/following%7B/other_user%7D",
        "gists_url": "https://api.github.com/users/naumenkogs/gists%7B/gist_id%7D",
        "starred_url": "https://api.github.com/users/naumenkogs/starred%7B/owner%7D%7B/repo%7D",
        "subscriptions_url": "https://api.github.com/users/naumenkogs/subscriptions",
        "organizations_url": "https://api.github.com/users/naumenkogs/orgs",
        "repos_url": "https://api.github.com/users/naumenkogs/repos",
        "events_url": "https://api.github.com/users/naumenkogs/events%7B/privacy%7D",
        "received_events_url": "https://api.github.com/users/naumenkogs/received_events",
        "type": "User",
        "site_admin": false
      }
    ],
    "requested_teams": [],
    "head": {
      "label": "dergoegge:2022-11-fuzz-enable-txrecon",
      "ref": "2022-11-fuzz-enable-txrecon",
      "sha": "58c2bbdb55b97e350baf51cfd7f4692b681a8acb",
      "user": {
        "login": "dergoegge",
        "id": 8077169,
        "node_id": "MDQ6VXNlcjgwNzcxNjk=",
        "avatar_url": "https://avatars.githubusercontent.com/u/8077169?v=4",
        "gravatar_id": "",
        "url": "https://api.github.com/users/dergoegge",
        "html_url": "https://github.com/dergoegge",
        "followers_url": "https://api.github.com/users/dergoegge/followers",
        "following_url": "https://api.github.com/users/dergoegge/following%7B/other_user%7D",
        "gists_url": "https://api.github.com/users/dergoegge/gists%7B/gist_id%7D",
        "starred_url": "https://api.github.com/users/dergoegge/starred%7B/owner%7D%7B/repo%7D",
        "subscriptions_url": "https://api.github.com/users/dergoegge/subscriptions",
        "organizations_url": "https://api.github.com/users/dergoegge/orgs",
        "repos_url": "https://api.github.com/users/dergoegge/repos",
        "events_url": "https://api.github.com/users/dergoegge/events%7B/privacy%7D",
        "received_events_url": "https://api.github.com/users/dergoegge/received_events",
        "type": "User",
        "site_admin": false
      },
      "repo": {
        "id": 315023492,
        "node_id": "MDEwOlJlcG9zaXRvcnkzMTUwMjM0OTI=",
        "name": "bitcoin",
        "full_name": "dergoegge/bitcoin",
        "owner": {
          "login": "dergoegge",
          "id": 8077169,
          "node_id": "MDQ6VXNlcjgwNzcxNjk=",
          "avatar_url": "https://avatars.githubusercontent.com/u/8077169?v=4",
          "gravatar_id": "",
          "url": "https://api.github.com/users/dergoegge",
          "html_url": "https://github.com/dergoegge",
          "followers_url": "https://api.github.com/users/dergoegge/followers",
          "following_url": "https://api.github.com/users/dergoegge/following%7B/other_user%7D",
          "gists_url": "https://api.github.com/users/dergoegge/gists%7B/gist_id%7D",
          "starred_url": "https://api.github.com/users/dergoegge/starred%7B/owner%7D%7B/repo%7D",
          "subscriptions_url": "https://api.github.com/users/dergoegge/subscriptions",
          "organizations_url": "https://api.github.com/users/dergoegge/orgs",
          "repos_url": "https://api.github.com/users/dergoegge/repos",
          "events_url": "https://api.github.com/users/dergoegge/events%7B/privacy%7D",
          "received_events_url": "https://api.github.com/users/dergoegge/received_events",
          "type": "User",
          "site_admin": false
        },
        "private": false,
        "html_url": "https://github.com/dergoegge/bitcoin",
        "description": "Bitcoin Core integration/staging tree",
        "fork": true,
        "url": "https://api.github.com/repos/dergoegge/bitcoin",
        "archive_url": "https://api.github.com/repos/dergoegge/bitcoin/%7Barchive_format%7D%7B/ref%7D",
        "assignees_url": "https://api.github.com/repos/dergoegge/bitcoin/assignees%7B/user%7D",
        "blobs_url": "https://api.github.com/repos/dergoegge/bitcoin/git/blobs%7B/sha%7D",
        "branches_url": "https://api.github.com/repos/dergoegge/bitcoin/branches%7B/branch%7D",
        "collaborators_url": "https://api.github.com/repos/dergoegge/bitcoin/collaborators%7B/collaborator%7D",
        "comments_url": "https://api.github.com/repos/dergoegge/bitcoin/comments%7B/number%7D",
        "commits_url": "https://api.github.com/repos/dergoegge/bitcoin/commits%7B/sha%7D",
        "compare_url": "https://api.github.com/repos/dergoegge/bitcoin/compare/%7Bbase%7D...%7Bhead%7D",
        "contents_url": "https://api.github.com/repos/dergoegge/bitcoin/contents/%7B+path%7D",
        "contributors_url": "https://api.github.com/repos/dergoegge/bitcoin/contributors",
        "deployments_url": "https://api.github.com/repos/dergoegge/bitcoin/deployments",
        "downloads_url": "https://api.github.com/repos/dergoegge/bitcoin/downloads",
        "events_url": "https://api.github.com/repos/dergoegge/bitcoin/events",
        "forks_url": "https://api.github.com/repos/dergoegge/bitcoin/forks",
        "git_commits_url": "https://api.github.com/repos/dergoegge/bitcoin/git/commits%7B/sha%7D",
        "git_refs_url": "https://api.github.com/repos/dergoegge/bitcoin/git/refs%7B/sha%7D",
        "git_tags_url": "https://api.github.com/repos/dergoegge/bitcoin/git/tags%7B/sha%7D",
        "git_url": "git://github.com/dergoegge/bitcoin.git",
        "issue_comment_url": "https://api.github.com/repos/dergoegge/bitcoin/issues/comments%7B/number%7D",
        "issue_events_url": "https://api.github.com/repos/dergoegge/bitcoin/issues/events%7B/number%7D",
        "issues_url": "https://api.github.com/repos/dergoegge/bitcoin/issues%7B/number%7D",
        "keys_url": "https://api.github.com/repos/dergoegge/bitcoin/keys%7B/key_id%7D",
        "labels_url": "https://api.github.com/repos/dergoegge/bitcoin/labels%7B/name%7D",
        "languages_url": "https://api.github.com/repos/dergoegge/bitcoin/languages",
        "merges_url": "https://api.github.com/repos/dergoegge/bitcoin/merges",
        "milestones_url": "https://api.github.com/repos/dergoegge/bitcoin/milestones%7B/number%7D",
        "notifications_url": "https://api.github.com/repos/dergoegge/bitcoin/notifications%7B?since,all,participating}",
        "pulls_url": "https://api.github.com/repos/dergoegge/bitcoin/pulls%7B/number%7D",
        "releases_url": "https://api.github.com/repos/dergoegge/bitcoin/releases%7B/id%7D",
        "ssh_url": "git@github.com:dergoegge/bitcoin.git",
        "stargazers_url": "https://api.github.com/repos/dergoegge/bitcoin/stargazers",
        "statuses_url": "https://api.github.com/repos/dergoegge/bitcoin/statuses/%7Bsha%7D",
        "subscribers_url": "https://api.github.com/repos/dergoegge/bitcoin/subscribers",
        "subscription_url": "https://api.github.com/repos/dergoegge/bitcoin/subscription",
        "tags_url": "https://api.github.com/repos/dergoegge/bitcoin/tags",
        "teams_url": "https://api.github.com/repos/dergoegge/bitcoin/teams",
        "trees_url": "https://api.github.com/repos/dergoegge/bitcoin/git/trees%7B/sha%7D",
        "clone_url": "https://github.com/dergoegge/bitcoin.git",
        "hooks_url": "https://api.github.com/repos/dergoegge/bitcoin/hooks",
        "svn_url": "https://github.com/dergoegge/bitcoin",
        "homepage": "https://bitcoincore.org/en/download",
        "language": "C++",
        "forks_count": 0,
        "stargazers_count": 1,
        "watchers_count": 1,
        "size": 224628,
        "default_branch": "master",
        "open_issues_count": 0,
        "is_template": false,
        "topics": [],
        "has_issues": true,
        "has_projects": true,
        "has_wiki": false,
        "has_pages": false,
        "has_downloads": false,
        "archived": false,
        "disabled": false,
        "visibility": "public",
        "pushed_at": "2023-08-02T12:43:06Z",
        "created_at": "2020-11-22T11:41:30Z",
        "updated_at": "2023-05-05T12:10:28Z",
        "license": {
          "key": "mit",
          "name": "MIT License",
          "node_id": "MDc6TGljZW5zZTEz",
          "spdx_id": "MIT",
          "url": "https://api.github.com/licenses/mit",
          "html_url": null,
          "description": null,
          "implementation": null,
          "permissions": null,
          "conditions": null,
          "limitations": null,
          "body": null,
          "featured": null
        }
      }
    },
    "base": {
      "label": "bitcoin:master",
      "ref": "master",
      "sha": "6061eb6564105ad54703a7cf3282590d0e1a7f28",
      "user": {
        "login": "bitcoin",
        "id": 528860,
        "node_id": "MDEyOk9yZ2FuaXphdGlvbjUyODg2MA==",
        "avatar_url": "https://avatars.githubusercontent.com/u/528860?v=4",
        "gravatar_id": "",
        "url": "https://api.github.com/users/bitcoin",
        "html_url": "https://github.com/bitcoin",
        "followers_url": "https://api.github.com/users/bitcoin/followers",
        "following_url": "https://api.github.com/users/bitcoin/following%7B/other_user%7D",
        "gists_url": "https://api.github.com/users/bitcoin/gists%7B/gist_id%7D",
        "starred_url": "https://api.github.com/users/bitcoin/starred%7B/owner%7D%7B/repo%7D",
        "subscriptions_url": "https://api.github.com/users/bitcoin/subscriptions",
        "organizations_url": "https://api.github.com/users/bitcoin/orgs",
        "repos_url": "https://api.github.com/users/bitcoin/repos",
        "events_url": "https://api.github.com/users/bitcoin/events%7B/privacy%7D",
        "received_events_url": "https://api.github.com/users/bitcoin/received_events",
        "type": "Organization",
        "site_admin": false
      },
      "repo": {
        "id": 1181927,
        "node_id": "MDEwOlJlcG9zaXRvcnkxMTgxOTI3",
        "name": "bitcoin",
        "full_name": "bitcoin/bitcoin",
        "owner": {
          "login": "bitcoin",
          "id": 528860,
          "node_id": "MDEyOk9yZ2FuaXphdGlvbjUyODg2MA==",
          "avatar_url": "https://avatars.githubusercontent.com/u/528860?v=4",
          "gravatar_id": "",
          "url": "https://api.github.com/users/bitcoin",
          "html_url": "https://github.com/bitcoin",
          "followers_url": "https://api.github.com/users/bitcoin/followers",
          "following_url": "https://api.github.com/users/bitcoin/following%7B/other_user%7D",
          "gists_url": "https://api.github.com/users/bitcoin/gists%7B/gist_id%7D",
          "starred_url": "https://api.github.com/users/bitcoin/starred%7B/owner%7D%7B/repo%7D",
          "subscriptions_url": "https://api.github.com/users/bitcoin/subscriptions",
          "organizations_url": "https://api.github.com/users/bitcoin/orgs",
          "repos_url": "https://api.github.com/users/bitcoin/repos",
          "events_url": "https://api.github.com/users/bitcoin/events%7B/privacy%7D",
          "received_events_url": "https://api.github.com/users/bitcoin/received_events",
          "type": "Organization",
          "site_admin": false
        },
        "private": false,
        "html_url": "https://github.com/bitcoin/bitcoin",
        "description": "Bitcoin Core integration/staging tree",
        "fork": false,
        "url": "https://api.github.com/repos/bitcoin/bitcoin",
        "archive_url": "https://api.github.com/repos/bitcoin/bitcoin/%7Barchive_format%7D%7B/ref%7D",
        "assignees_url": "https://api.github.com/repos/bitcoin/bitcoin/assignees%7B/user%7D",
        "blobs_url": "https://api.github.com/repos/bitcoin/bitcoin/git/blobs%7B/sha%7D",
        "branches_url": "https://api.github.com/repos/bitcoin/bitcoin/branches%7B/branch%7D",
        "collaborators_url": "https://api.github.com/repos/bitcoin/bitcoin/collaborators%7B/collaborator%7D",
        "comments_url": "https://api.github.com/repos/bitcoin/bitcoin/comments%7B/number%7D",
        "commits_url": "https://api.github.com/repos/bitcoin/bitcoin/commits%7B/sha%7D",
        "compare_url": "https://api.github.com/repos/bitcoin/bitcoin/compare/%7Bbase%7D...%7Bhead%7D",
        "contents_url": "https://api.github.com/repos/bitcoin/bitcoin/contents/%7B+path%7D",
        "contributors_url": "https://api.github.com/repos/bitcoin/bitcoin/contributors",
        "deployments_url": "https://api.github.com/repos/bitcoin/bitcoin/deployments",
        "downloads_url": "https://api.github.com/repos/bitcoin/bitcoin/downloads",
        "events_url": "https://api.github.com/repos/bitcoin/bitcoin/events",
        "forks_url": "https://api.github.com/repos/bitcoin/bitcoin/forks",
        "git_commits_url": "https://api.github.com/repos/bitcoin/bitcoin/git/commits%7B/sha%7D",
        "git_refs_url": "https://api.github.com/repos/bitcoin/bitcoin/git/refs%7B/sha%7D",
        "git_tags_url": "https://api.github.com/repos/bitcoin/bitcoin/git/tags%7B/sha%7D",
        "git_url": "git://github.com/bitcoin/bitcoin.git",
        "issue_comment_url": "https://api.github.com/repos/bitcoin/bitcoin/issues/comments%7B/number%7D",
        "issue_events_url": "https://api.github.com/repos/bitcoin/bitcoin/issues/events%7B/number%7D",
        "issues_url": "https://api.github.com/repos/bitcoin/bitcoin/issues%7B/number%7D",
        "keys_url": "https://api.github.com/repos/bitcoin/bitcoin/keys%7B/key_id%7D",
        "labels_url": "https://api.github.com/repos/bitcoin/bitcoin/labels%7B/name%7D",
        "languages_url": "https://api.github.com/repos/bitcoin/bitcoin/languages",
        "merges_url": "https://api.github.com/repos/bitcoin/bitcoin/merges",
        "milestones_url": "https://api.github.com/repos/bitcoin/bitcoin/milestones%7B/number%7D",
        "notifications_url": "https://api.github.com/repos/bitcoin/bitcoin/notifications%7B?since,all,participating}",
        "pulls_url": "https://api.github.com/repos/bitcoin/bitcoin/pulls%7B/number%7D",
        "releases_url": "https://api.github.com/repos/bitcoin/bitcoin/releases%7B/id%7D",
        "ssh_url": "git@github.com:bitcoin/bitcoin.git",
        "stargazers_url": "https://api.github.com/repos/bitcoin/bitcoin/stargazers",
        "statuses_url": "https://api.github.com/repos/bitcoin/bitcoin/statuses/%7Bsha%7D",
        "subscribers_url": "https://api.github.com/repos/bitcoin/bitcoin/subscribers",
        "subscription_url": "https://api.github.com/repos/bitcoin/bitcoin/subscription",
        "tags_url": "https://api.github.com/repos/bitcoin/bitcoin/tags",
        "teams_url": "https://api.github.com/repos/bitcoin/bitcoin/teams",
        "trees_url": "https://api.github.com/repos/bitcoin/bitcoin/git/trees%7B/sha%7D",
        "clone_url": "https://github.com/bitcoin/bitcoin.git",
        "hooks_url": "https://api.github.com/repos/bitcoin/bitcoin/hooks",
        "svn_url": "https://github.com/bitcoin/bitcoin",
        "homepage": "https://bitcoincore.org/en/download",
        "language": "C++",
        "forks_count": 35476,
        "stargazers_count": 70608,
        "watchers_count": 70608,
        "size": 236222,
        "default_branch": "master",
        "open_issues_count": 673,
        "is_template": false,
        "topics": [
          "bitcoin",
          "c-plus-plus",
          "cryptocurrency",
          "cryptography",
          "p2p"
        ],
        "has_issues": true,
        "has_projects": true,
        "has_wiki": false,
        "has_pages": false,
        "has_downloads": false,
        "archived": false,
        "disabled": false,
        "visibility": "public",
        "pushed_at": "2023-08-03T00:03:27Z",
        "created_at": "2010-12-19T15:16:43Z",
        "updated_at": "2023-08-02T18:21:18Z",
        "license": {
          "key": "mit",
          "name": "MIT License",
          "node_id": "MDc6TGljZW5zZTEz",
          "spdx_id": "MIT",
          "url": "https://api.github.com/licenses/mit",
          "html_url": null,
          "description": null,
          "implementation": null,
          "permissions": null,
          "conditions": null,
          "limitations": null,
          "body": null,
          "featured": null
        }
      }
    },
    "_links": {
      "self": {
        "href": "https://api.github.com/repos/bitcoin/bitcoin/pulls/26686"
      }
    },
    "author_association": "MEMBER",
    "draft": false,
    "additions": 6,
    "deletions": 2,
    "changed_files": 2,
    "commits": 1,
    "review_comments": 0,
    "comments": 5
  },
  "events": [
    {
      "event": "committed",
      "id": null,
      "node_id": "C_kwDOABII59oAKDU4YzJiYmRiNTViOTdlMzUwYmFmNTFjZmQ3ZjQ2OTJiNjgxYThhY2I",
      "url": "https://api.github.com/repos/bitcoin/bitcoin/git/commits/58c2bbdb55b97e350baf51cfd7f4692b681a8acb",
      "actor": null,
      "commit_id": null,
      "commit_url": null,
      "created_at": null,
      "html_url": "https://github.com/bitcoin/bitcoin/commit/58c2bbdb55b97e350baf51cfd7f4692b681a8acb",
      "tree": {
        "sha": "b2f91087751208c595ba13492d18389560d1b49d",
        "url": "https://api.github.com/repos/bitcoin/bitcoin/git/trees/b2f91087751208c595ba13492d18389560d1b49d"
      },
      "verification": {
        "verified": false,
        "reason": "unsigned",
        "payload": null,
        "signature": null
      },
      "parents": [
        {
          "url": "https://api.github.com/repos/bitcoin/bitcoin/git/commits/5b3f05b7eb76f4c973149649d94c5e91d5cb4c1b",
          "sha": "5b3f05b7eb76f4c973149649d94c5e91d5cb4c1b",
          "html_url": "https://github.com/bitcoin/bitcoin/commit/5b3f05b7eb76f4c973149649d94c5e91d5cb4c1b"
        }
      ],
      "message": "[fuzz] Enable erlay in process_message(s) targets",
      "committer": {
        "name": "dergoegge",
        "email": "n.goeggi@gmail.com",
        "date": "2022-12-12T11:19:02Z"
      },
      "author": {
        "name": "dergoegge",
        "email": "n.goeggi@gmail.com",
        "date": "2022-12-12T11:19:02Z"
      },
      "sha": "58c2bbdb55b97e350baf51cfd7f4692b681a8acb"
    },
    {
      "event": "commented",
      "id": 1346317102,
      "node_id": "IC_kwDOABII585QPysu",
      "url": "https://api.github.com/repos/bitcoin/bitcoin/issues/comments/1346317102",
      "actor": {
        "login": "DrahtBot",
        "id": 39886733,
        "node_id": "MDQ6VXNlcjM5ODg2NzMz",
        "avatar_url": "https://avatars.githubusercontent.com/u/39886733?v=4",
        "gravatar_id": "",
        "url": "https://api.github.com/users/DrahtBot",
        "html_url": "https://github.com/DrahtBot",
        "followers_url": "https://api.github.com/users/DrahtBot/followers",
        "following_url": "https://api.github.com/users/DrahtBot/following%7B/other_user%7D",
        "gists_url": "https://api.github.com/users/DrahtBot/gists%7B/gist_id%7D",
        "starred_url": "https://api.github.com/users/DrahtBot/starred%7B/owner%7D%7B/repo%7D",
        "subscriptions_url": "https://api.github.com/users/DrahtBot/subscriptions",
        "organizations_url": "https://api.github.com/users/DrahtBot/orgs",
        "repos_url": "https://api.github.com/users/DrahtBot/repos",
        "events_url": "https://api.github.com/users/DrahtBot/events%7B/privacy%7D",
        "received_events_url": "https://api.github.com/users/DrahtBot/received_events",
        "type": "User",
        "site_admin": false
      },
      "commit_id": null,
      "commit_url": null,
      "created_at": "2022-12-12T11:28:59Z",
      "updated_at": "2023-01-19T14:03:13Z",
      "author_association": "CONTRIBUTOR",
      "body": "<!--e57a25ab6845829454e8d69fc972939a-->\n\nThe following sections might be updated with supplementary metadata relevant to reviewers and maintainers.\n\n<!--021abf342d371248e50ceaed478a90ca-->\n### Reviews\nSee [the guideline](https://github.com/bitcoin/bitcoin/blob/master/CONTRIBUTING.md#code-review) for information on the review process.\n| Type | Reviewers |\n| ---- | --------- |\n| ACK | [fanquake](https://github.com/bitcoin/bitcoin/pull/26686#pullrequestreview-1261858761) |\n| Concept ACK | [glozow](https://github.com/bitcoin/bitcoin/pull/26686#issuecomment-1348283586), [naumenkogs](https://github.com/bitcoin/bitcoin/pull/26686#issuecomment-1357234867) |\n\nIf your review is incorrectly listed, please react with 👎 to this comment and the bot will ignore it on the next update.\n",
      "user": {
        "login": "DrahtBot",
        "id": 39886733,
        "node_id": "MDQ6VXNlcjM5ODg2NzMz",
        "avatar_url": "https://avatars.githubusercontent.com/u/39886733?v=4",
        "gravatar_id": "",
        "url": "https://api.github.com/users/DrahtBot",
        "html_url": "https://github.com/DrahtBot",
        "followers_url": "https://api.github.com/users/DrahtBot/followers",
        "following_url": "https://api.github.com/users/DrahtBot/following%7B/other_user%7D",
        "gists_url": "https://api.github.com/users/DrahtBot/gists%7B/gist_id%7D",
        "starred_url": "https://api.github.com/users/DrahtBot/starred%7B/owner%7D%7B/repo%7D",
        "subscriptions_url": "https://api.github.com/users/DrahtBot/subscriptions",
        "organizations_url": "https://api.github.com/users/DrahtBot/orgs",
        "repos_url": "https://api.github.com/users/DrahtBot/repos",
        "events_url": "https://api.github.com/users/DrahtBot/events%7B/privacy%7D",
        "received_events_url": "https://api.github.com/users/DrahtBot/received_events",
        "type": "User",
        "site_admin": false
      },
      "html_url": "https://github.com/bitcoin/bitcoin/pull/26686#issuecomment-1346317102",
      "issue_url": "https://api.github.com/repos/bitcoin/bitcoin/issues/26686"
    },
    {
      "event": "labeled",
      "id": 8013195243,
      "node_id": "LE_lADOABII585Y6KZ6zwAAAAHdn6fr",
      "url": "https://api.github.com/repos/bitcoin/bitcoin/issues/events/8013195243",
      "actor": {
        "login": "DrahtBot",
        "id": 39886733,
        "node_id": "MDQ6VXNlcjM5ODg2NzMz",
        "avatar_url": "https://avatars.githubusercontent.com/u/39886733?v=4",
        "gravatar_id": "",
        "url": "https://api.github.com/users/DrahtBot",
        "html_url": "https://github.com/DrahtBot",
        "followers_url": "https://api.github.com/users/DrahtBot/followers",
        "following_url": "https://api.github.com/users/DrahtBot/following%7B/other_user%7D",
        "gists_url": "https://api.github.com/users/DrahtBot/gists%7B/gist_id%7D",
        "starred_url": "https://api.github.com/users/DrahtBot/starred%7B/owner%7D%7B/repo%7D",
        "subscriptions_url": "https://api.github.com/users/DrahtBot/subscriptions",
        "organizations_url": "https://api.github.com/users/DrahtBot/orgs",
        "repos_url": "https://api.github.com/users/DrahtBot/repos",
        "events_url": "https://api.github.com/users/DrahtBot/events%7B/privacy%7D",
        "received_events_url": "https://api.github.com/users/DrahtBot/received_events",
        "type": "User",
        "site_admin": false
      },
      "commit_id": null,
      "commit_url": null,
      "created_at": "2022-12-12T11:29:00Z",
      "label": {
        "name": "Tests",
        "color": "d4c5f9"
      }
    },
    {
      "event": "review_requested",
      "id": 8024428201,
      "node_id": "RRE_lADOABII585Y6KZ6zwAAAAHeSw6p",
      "url": "https://api.github.com/repos/bitcoin/bitcoin/issues/events/8024428201",
      "actor": {
        "login": "glozow",
        "id": 25183001,
        "node_id": "MDQ6VXNlcjI1MTgzMDAx",
        "avatar_url": "https://avatars.githubusercontent.com/u/25183001?v=4",
        "gravatar_id": "",
        "url": "https://api.github.com/users/glozow",
        "html_url": "https://github.com/glozow",
        "followers_url": "https://api.github.com/users/glozow/followers",
        "following_url": "https://api.github.com/users/glozow/following%7B/other_user%7D",
        "gists_url": "https://api.github.com/users/glozow/gists%7B/gist_id%7D",
        "starred_url": "https://api.github.com/users/glozow/starred%7B/owner%7D%7B/repo%7D",
        "subscriptions_url": "https://api.github.com/users/glozow/subscriptions",
        "organizations_url": "https://api.github.com/users/glozow/orgs",
        "repos_url": "https://api.github.com/users/glozow/repos",
        "events_url": "https://api.github.com/users/glozow/events%7B/privacy%7D",
        "received_events_url": "https://api.github.com/users/glozow/received_events",
        "type": "User",
        "site_admin": false
      },
      "commit_id": null,
      "commit_url": null,
      "created_at": "2022-12-13T11:27:20Z",
      "requested_reviewer": {
        "login": "naumenkogs",
        "id": 7975071,
        "node_id": "MDQ6VXNlcjc5NzUwNzE=",
        "avatar_url": "https://avatars.githubusercontent.com/u/7975071?v=4",
        "gravatar_id": "",
        "url": "https://api.github.com/users/naumenkogs",
        "html_url": "https://github.com/naumenkogs",
        "followers_url": "https://api.github.com/users/naumenkogs/followers",
        "following_url": "https://api.github.com/users/naumenkogs/following%7B/other_user%7D",
        "gists_url": "https://api.github.com/users/naumenkogs/gists%7B/gist_id%7D",
        "starred_url": "https://api.github.com/users/naumenkogs/starred%7B/owner%7D%7B/repo%7D",
        "subscriptions_url": "https://api.github.com/users/naumenkogs/subscriptions",
        "organizations_url": "https://api.github.com/users/naumenkogs/orgs",
        "repos_url": "https://api.github.com/users/naumenkogs/repos",
        "events_url": "https://api.github.com/users/naumenkogs/events%7B/privacy%7D",
        "received_events_url": "https://api.github.com/users/naumenkogs/received_events",
        "type": "User",
        "site_admin": false
      },
      "review_requester": {
        "login": "glozow",
        "id": 25183001,
        "node_id": "MDQ6VXNlcjI1MTgzMDAx",
        "avatar_url": "https://avatars.githubusercontent.com/u/25183001?v=4",
        "gravatar_id": "",
        "url": "https://api.github.com/users/glozow",
        "html_url": "https://github.com/glozow",
        "followers_url": "https://api.github.com/users/glozow/followers",
        "following_url": "https://api.github.com/users/glozow/following%7B/other_user%7D",
        "gists_url": "https://api.github.com/users/glozow/gists%7B/gist_id%7D",
        "starred_url": "https://api.github.com/users/glozow/starred%7B/owner%7D%7B/repo%7D",
        "subscriptions_url": "https://api.github.com/users/glozow/subscriptions",
        "organizations_url": "https://api.github.com/users/glozow/orgs",
        "repos_url": "https://api.github.com/users/glozow/repos",
        "events_url": "https://api.github.com/users/glozow/events%7B/privacy%7D",
        "received_events_url": "https://api.github.com/users/glozow/received_events",
        "type": "User",
        "site_admin": false
      }
    },
    {
      "event": "commented",
      "id": 1348283586,
      "node_id": "IC_kwDOABII585QXSzC",
      "url": "https://api.github.com/repos/bitcoin/bitcoin/issues/comments/1348283586",
      "actor": {
        "login": "glozow",
        "id": 25183001,
        "node_id": "MDQ6VXNlcjI1MTgzMDAx",
        "avatar_url": "https://avatars.githubusercontent.com/u/25183001?v=4",
        "gravatar_id": "",
        "url": "https://api.github.com/users/glozow",
        "html_url": "https://github.com/glozow",
        "followers_url": "https://api.github.com/users/glozow/followers",
        "following_url": "https://api.github.com/users/glozow/following%7B/other_user%7D",
        "gists_url": "https://api.github.com/users/glozow/gists%7B/gist_id%7D",
        "starred_url": "https://api.github.com/users/glozow/starred%7B/owner%7D%7B/repo%7D",
        "subscriptions_url": "https://api.github.com/users/glozow/subscriptions",
        "organizations_url": "https://api.github.com/users/glozow/orgs",
        "repos_url": "https://api.github.com/users/glozow/repos",
        "events_url": "https://api.github.com/users/glozow/events%7B/privacy%7D",
        "received_events_url": "https://api.github.com/users/glozow/received_events",
        "type": "User",
        "site_admin": false
      },
      "commit_id": null,
      "commit_url": null,
      "created_at": "2022-12-13T11:27:48Z",
      "updated_at": "2022-12-13T11:27:48Z",
      "author_association": "MEMBER",
      "body": "Concept ACK based on description",
      "user": {
        "login": "glozow",
        "id": 25183001,
        "node_id": "MDQ6VXNlcjI1MTgzMDAx",
        "avatar_url": "https://avatars.githubusercontent.com/u/25183001?v=4",
        "gravatar_id": "",
        "url": "https://api.github.com/users/glozow",
        "html_url": "https://github.com/glozow",
        "followers_url": "https://api.github.com/users/glozow/followers",
        "following_url": "https://api.github.com/users/glozow/following%7B/other_user%7D",
        "gists_url": "https://api.github.com/users/glozow/gists%7B/gist_id%7D",
        "starred_url": "https://api.github.com/users/glozow/starred%7B/owner%7D%7B/repo%7D",
        "subscriptions_url": "https://api.github.com/users/glozow/subscriptions",
        "organizations_url": "https://api.github.com/users/glozow/orgs",
        "repos_url": "https://api.github.com/users/glozow/repos",
        "events_url": "https://api.github.com/users/glozow/events%7B/privacy%7D",
        "received_events_url": "https://api.github.com/users/glozow/received_events",
        "type": "User",
        "site_admin": false
      },
      "html_url": "https://github.com/bitcoin/bitcoin/pull/26686#issuecomment-1348283586",
      "issue_url": "https://api.github.com/repos/bitcoin/bitcoin/issues/26686"
    },
    {
      "event": "commented",
      "id": 1354875115,
      "node_id": "IC_kwDOABII585QwcDr",
      "url": "https://api.github.com/repos/bitcoin/bitcoin/issues/comments/1354875115",
      "actor": {
        "login": "dergoegge",
        "id": 8077169,
        "node_id": "MDQ6VXNlcjgwNzcxNjk=",
        "avatar_url": "https://avatars.githubusercontent.com/u/8077169?v=4",
        "gravatar_id": "",
        "url": "https://api.github.com/users/dergoegge",
        "html_url": "https://github.com/dergoegge",
        "followers_url": "https://api.github.com/users/dergoegge/followers",
        "following_url": "https://api.github.com/users/dergoegge/following%7B/other_user%7D",
        "gists_url": "https://api.github.com/users/dergoegge/gists%7B/gist_id%7D",
        "starred_url": "https://api.github.com/users/dergoegge/starred%7B/owner%7D%7B/repo%7D",
        "subscriptions_url": "https://api.github.com/users/dergoegge/subscriptions",
        "organizations_url": "https://api.github.com/users/dergoegge/orgs",
        "repos_url": "https://api.github.com/users/dergoegge/repos",
        "events_url": "https://api.github.com/users/dergoegge/events%7B/privacy%7D",
        "received_events_url": "https://api.github.com/users/dergoegge/received_events",
        "type": "User",
        "site_admin": false
      },
      "commit_id": null,
      "commit_url": null,
      "created_at": "2022-12-16T14:04:43Z",
      "updated_at": "2022-12-16T14:04:43Z",
      "author_association": "MEMBER",
      "body": "I think the addition in `process_messages` might be not doing much right now, as the version handshake is hard coded (without `sendtxrcncl`) but the next Erlay PR is adding more messages so might as well flip the option on here.",
      "user": {
        "login": "dergoegge",
        "id": 8077169,
        "node_id": "MDQ6VXNlcjgwNzcxNjk=",
        "avatar_url": "https://avatars.githubusercontent.com/u/8077169?v=4",
        "gravatar_id": "",
        "url": "https://api.github.com/users/dergoegge",
        "html_url": "https://github.com/dergoegge",
        "followers_url": "https://api.github.com/users/dergoegge/followers",
        "following_url": "https://api.github.com/users/dergoegge/following%7B/other_user%7D",
        "gists_url": "https://api.github.com/users/dergoegge/gists%7B/gist_id%7D",
        "starred_url": "https://api.github.com/users/dergoegge/starred%7B/owner%7D%7B/repo%7D",
        "subscriptions_url": "https://api.github.com/users/dergoegge/subscriptions",
        "organizations_url": "https://api.github.com/users/dergoegge/orgs",
        "repos_url": "https://api.github.com/users/dergoegge/repos",
        "events_url": "https://api.github.com/users/dergoegge/events%7B/privacy%7D",
        "received_events_url": "https://api.github.com/users/dergoegge/received_events",
        "type": "User",
        "site_admin": false
      },
      "html_url": "https://github.com/bitcoin/bitcoin/pull/26686#issuecomment-1354875115",
      "issue_url": "https://api.github.com/repos/bitcoin/bitcoin/issues/26686"
    },
    {
      "event": "commented",
      "id": 1357234867,
      "node_id": "IC_kwDOABII585Q5cKz",
      "url": "https://api.github.com/repos/bitcoin/bitcoin/issues/comments/1357234867",
      "actor": {
        "login": "naumenkogs",
        "id": 7975071,
        "node_id": "MDQ6VXNlcjc5NzUwNzE=",
        "avatar_url": "https://avatars.githubusercontent.com/u/7975071?v=4",
        "gravatar_id": "",
        "url": "https://api.github.com/users/naumenkogs",
        "html_url": "https://github.com/naumenkogs",
        "followers_url": "https://api.github.com/users/naumenkogs/followers",
        "following_url": "https://api.github.com/users/naumenkogs/following%7B/other_user%7D",
        "gists_url": "https://api.github.com/users/naumenkogs/gists%7B/gist_id%7D",
        "starred_url": "https://api.github.com/users/naumenkogs/starred%7B/owner%7D%7B/repo%7D",
        "subscriptions_url": "https://api.github.com/users/naumenkogs/subscriptions",
        "organizations_url": "https://api.github.com/users/naumenkogs/orgs",
        "repos_url": "https://api.github.com/users/naumenkogs/repos",
        "events_url": "https://api.github.com/users/naumenkogs/events%7B/privacy%7D",
        "received_events_url": "https://api.github.com/users/naumenkogs/received_events",
        "type": "User",
        "site_admin": false
      },
      "commit_id": null,
      "commit_url": null,
      "created_at": "2022-12-19T08:01:27Z",
      "updated_at": "2022-12-19T08:01:27Z",
      "author_association": "MEMBER",
      "body": "Concept ACK",
      "user": {
        "login": "naumenkogs",
        "id": 7975071,
        "node_id": "MDQ6VXNlcjc5NzUwNzE=",
        "avatar_url": "https://avatars.githubusercontent.com/u/7975071?v=4",
        "gravatar_id": "",
        "url": "https://api.github.com/users/naumenkogs",
        "html_url": "https://github.com/naumenkogs",
        "followers_url": "https://api.github.com/users/naumenkogs/followers",
        "following_url": "https://api.github.com/users/naumenkogs/following%7B/other_user%7D",
        "gists_url": "https://api.github.com/users/naumenkogs/gists%7B/gist_id%7D",
        "starred_url": "https://api.github.com/users/naumenkogs/starred%7B/owner%7D%7B/repo%7D",
        "subscriptions_url": "https://api.github.com/users/naumenkogs/subscriptions",
        "organizations_url": "https://api.github.com/users/naumenkogs/orgs",
        "repos_url": "https://api.github.com/users/naumenkogs/repos",
        "events_url": "https://api.github.com/users/naumenkogs/events%7B/privacy%7D",
        "received_events_url": "https://api.github.com/users/naumenkogs/received_events",
        "type": "User",
        "site_admin": false
      },
      "html_url": "https://github.com/bitcoin/bitcoin/pull/26686#issuecomment-1357234867",
      "issue_url": "https://api.github.com/repos/bitcoin/bitcoin/issues/26686"
    },
    {
      "event": "reviewed",
      "id": 1261858761,
      "node_id": "PRR_kwDOABII585LNm_J",
      "url": null,
      "actor": null,
      "commit_id": "58c2bbdb55b97e350baf51cfd7f4692b681a8acb",
      "commit_url": null,
      "created_at": null,
      "author_association": "MEMBER",
      "body": "ACK 58c2bbdb55b97e350baf51cfd7f4692b681a8acb",
      "user": {
        "login": "fanquake",
        "id": 863730,
        "node_id": "MDQ6VXNlcjg2MzczMA==",
        "avatar_url": "https://avatars.githubusercontent.com/u/863730?v=4",
        "gravatar_id": "",
        "url": "https://api.github.com/users/fanquake",
        "html_url": "https://github.com/fanquake",
        "followers_url": "https://api.github.com/users/fanquake/followers",
        "following_url": "https://api.github.com/users/fanquake/following%7B/other_user%7D",
        "gists_url": "https://api.github.com/users/fanquake/gists%7B/gist_id%7D",
        "starred_url": "https://api.github.com/users/fanquake/starred%7B/owner%7D%7B/repo%7D",
        "subscriptions_url": "https://api.github.com/users/fanquake/subscriptions",
        "organizations_url": "https://api.github.com/users/fanquake/orgs",
        "repos_url": "https://api.github.com/users/fanquake/repos",
        "events_url": "https://api.github.com/users/fanquake/events%7B/privacy%7D",
        "received_events_url": "https://api.github.com/users/fanquake/received_events",
        "type": "User",
        "site_admin": false
      },
      "html_url": "https://github.com/bitcoin/bitcoin/pull/26686#pullrequestreview-1261858761",
      "submitted_at": "2023-01-19T14:03:08Z",
      "state": "APPROVED",
      "pull_request_url": "https://api.github.com/repos/bitcoin/bitcoin/pulls/26686"
    },
    {
      "event": "commented",
      "id": 1397029387,
      "node_id": "IC_kwDOABII585TRPoL",
      "url": "https://api.github.com/repos/bitcoin/bitcoin/issues/comments/1397029387",
      "actor": {
        "login": "fanquake",
        "id": 863730,
        "node_id": "MDQ6VXNlcjg2MzczMA==",
        "avatar_url": "https://avatars.githubusercontent.com/u/863730?v=4",
        "gravatar_id": "",
        "url": "https://api.github.com/users/fanquake",
        "html_url": "https://github.com/fanquake",
        "followers_url": "https://api.github.com/users/fanquake/followers",
        "following_url": "https://api.github.com/users/fanquake/following%7B/other_user%7D",
        "gists_url": "https://api.github.com/users/fanquake/gists%7B/gist_id%7D",
        "starred_url": "https://api.github.com/users/fanquake/starred%7B/owner%7D%7B/repo%7D",
        "subscriptions_url": "https://api.github.com/users/fanquake/subscriptions",
        "organizations_url": "https://api.github.com/users/fanquake/orgs",
        "repos_url": "https://api.github.com/users/fanquake/repos",
        "events_url": "https://api.github.com/users/fanquake/events%7B/privacy%7D",
        "received_events_url": "https://api.github.com/users/fanquake/received_events",
        "type": "User",
        "site_admin": false
      },
      "commit_id": null,
      "commit_url": null,
      "created_at": "2023-01-19T14:03:22Z",
      "updated_at": "2023-01-19T14:03:22Z",
      "author_association": "MEMBER",
      "body": " Seems ok todo @MarcoFalke?",
      "user": {
        "login": "fanquake",
        "id": 863730,
        "node_id": "MDQ6VXNlcjg2MzczMA==",
        "avatar_url": "https://avatars.githubusercontent.com/u/863730?v=4",
        "gravatar_id": "",
        "url": "https://api.github.com/users/fanquake",
        "html_url": "https://github.com/fanquake",
        "followers_url": "https://api.github.com/users/fanquake/followers",
        "following_url": "https://api.github.com/users/fanquake/following%7B/other_user%7D",
        "gists_url": "https://api.github.com/users/fanquake/gists%7B/gist_id%7D",
        "starred_url": "https://api.github.com/users/fanquake/starred%7B/owner%7D%7B/repo%7D",
        "subscriptions_url": "https://api.github.com/users/fanquake/subscriptions",
        "organizations_url": "https://api.github.com/users/fanquake/orgs",
        "repos_url": "https://api.github.com/users/fanquake/repos",
        "events_url": "https://api.github.com/users/fanquake/events%7B/privacy%7D",
        "received_events_url": "https://api.github.com/users/fanquake/received_events",
        "type": "User",
        "site_admin": false
      },
      "html_url": "https://github.com/bitcoin/bitcoin/pull/26686#issuecomment-1397029387",
      "issue_url": "https://api.github.com/repos/bitcoin/bitcoin/issues/26686"
    },
    {
      "event": "mentioned",
      "id": 8312347641,
      "node_id": "MEE_lADOABII585Y6KZ6zwAAAAHvdFv5",
      "url": "https://api.github.com/repos/bitcoin/bitcoin/issues/events/8312347641",
      "actor": {
        "login": "MarcoFalke",
        "id": 6399679,
        "node_id": "MDQ6VXNlcjYzOTk2Nzk=",
        "avatar_url": "https://avatars.githubusercontent.com/u/6399679?v=4",
        "gravatar_id": "",
        "url": "https://api.github.com/users/MarcoFalke",
        "html_url": "https://github.com/MarcoFalke",
        "followers_url": "https://api.github.com/users/MarcoFalke/followers",
        "following_url": "https://api.github.com/users/MarcoFalke/following%7B/other_user%7D",
        "gists_url": "https://api.github.com/users/MarcoFalke/gists%7B/gist_id%7D",
        "starred_url": "https://api.github.com/users/MarcoFalke/starred%7B/owner%7D%7B/repo%7D",
        "subscriptions_url": "https://api.github.com/users/MarcoFalke/subscriptions",
        "organizations_url": "https://api.github.com/users/MarcoFalke/orgs",
        "repos_url": "https://api.github.com/users/MarcoFalke/repos",
        "events_url": "https://api.github.com/users/MarcoFalke/events%7B/privacy%7D",
        "received_events_url": "https://api.github.com/users/MarcoFalke/received_events",
        "type": "User",
        "site_admin": false
      },
      "commit_id": null,
      "commit_url": null,
      "created_at": "2023-01-19T14:03:22Z"
    },
    {
      "event": "subscribed",
      "id": 8312347658,
      "node_id": "SE_lADOABII585Y6KZ6zwAAAAHvdFwK",
      "url": "https://api.github.com/repos/bitcoin/bitcoin/issues/events/8312347658",
      "actor": {
        "login": "MarcoFalke",
        "id": 6399679,
        "node_id": "MDQ6VXNlcjYzOTk2Nzk=",
        "avatar_url": "https://avatars.githubusercontent.com/u/6399679?v=4",
        "gravatar_id": "",
        "url": "https://api.github.com/users/MarcoFalke",
        "html_url": "https://github.com/MarcoFalke",
        "followers_url": "https://api.github.com/users/MarcoFalke/followers",
        "following_url": "https://api.github.com/users/MarcoFalke/following%7B/other_user%7D",
        "gists_url": "https://api.github.com/users/MarcoFalke/gists%7B/gist_id%7D",
        "starred_url": "https://api.github.com/users/MarcoFalke/starred%7B/owner%7D%7B/repo%7D",
        "subscriptions_url": "https://api.github.com/users/MarcoFalke/subscriptions",
        "organizations_url": "https://api.github.com/users/MarcoFalke/orgs",
        "repos_url": "https://api.github.com/users/MarcoFalke/repos",
        "events_url": "https://api.github.com/users/MarcoFalke/events%7B/privacy%7D",
        "received_events_url": "https://api.github.com/users/MarcoFalke/received_events",
        "type": "User",
        "site_admin": false
      },
      "commit_id": null,
      "commit_url": null,
      "created_at": "2023-01-19T14:03:23Z"
    },
    {
      "event": "merged",
      "id": 8312934817,
      "node_id": "ME_lADOABII585Y6KZ6zwAAAAHvfVGh",
      "url": "https://api.github.com/repos/bitcoin/bitcoin/issues/events/8312934817",
      "actor": {
        "login": "MarcoFalke",
        "id": 6399679,
        "node_id": "MDQ6VXNlcjYzOTk2Nzk=",
        "avatar_url": "https://avatars.githubusercontent.com/u/6399679?v=4",
        "gravatar_id": "",
        "url": "https://api.github.com/users/MarcoFalke",
        "html_url": "https://github.com/MarcoFalke",
        "followers_url": "https://api.github.com/users/MarcoFalke/followers",
        "following_url": "https://api.github.com/users/MarcoFalke/following%7B/other_user%7D",
        "gists_url": "https://api.github.com/users/MarcoFalke/gists%7B/gist_id%7D",
        "starred_url": "https://api.github.com/users/MarcoFalke/starred%7B/owner%7D%7B/repo%7D",
        "subscriptions_url": "https://api.github.com/users/MarcoFalke/subscriptions",
        "organizations_url": "https://api.github.com/users/MarcoFalke/orgs",
        "repos_url": "https://api.github.com/users/MarcoFalke/repos",
        "events_url": "https://api.github.com/users/MarcoFalke/events%7B/privacy%7D",
        "received_events_url": "https://api.github.com/users/MarcoFalke/received_events",
        "type": "User",
        "site_admin": false
      },
      "commit_id": "05e3468fb3c084840a93aed31c67f062ef30ef58",
      "commit_url": "https://api.github.com/repos/bitcoin/bitcoin/commits/05e3468fb3c084840a93aed31c67f062ef30ef58",
      "created_at": "2023-01-19T14:59:29Z"
    },
    {
      "event": "closed",
      "id": 8312934855,
      "node_id": "CE_lADOABII585Y6KZ6zwAAAAHvfVHH",
      "url": "https://api.github.com/repos/bitcoin/bitcoin/issues/events/8312934855",
      "actor": {
        "login": "MarcoFalke",
        "id": 6399679,
        "node_id": "MDQ6VXNlcjYzOTk2Nzk=",
        "avatar_url": "https://avatars.githubusercontent.com/u/6399679?v=4",
        "gravatar_id": "",
        "url": "https://api.github.com/users/MarcoFalke",
        "html_url": "https://github.com/MarcoFalke",
        "followers_url": "https://api.github.com/users/MarcoFalke/followers",
        "following_url": "https://api.github.com/users/MarcoFalke/following%7B/other_user%7D",
        "gists_url": "https://api.github.com/users/MarcoFalke/gists%7B/gist_id%7D",
        "starred_url": "https://api.github.com/users/MarcoFalke/starred%7B/owner%7D%7B/repo%7D",
        "subscriptions_url": "https://api.github.com/users/MarcoFalke/subscriptions",
        "organizations_url": "https://api.github.com/users/MarcoFalke/orgs",
        "repos_url": "https://api.github.com/users/MarcoFalke/repos",
        "events_url": "https://api.github.com/users/MarcoFalke/events%7B/privacy%7D",
        "received_events_url": "https://api.github.com/users/MarcoFalke/received_events",
        "type": "User",
        "site_admin": false
      },
      "commit_id": null,
      "commit_url": null,
      "created_at": "2023-01-19T14:59:29Z"
    },
    {
      "event": "referenced",
      "id": 8313379384,
      "node_id": "REFE_lADOABII585Y6KZ6zwAAAAHvhBo4",
      "url": "https://api.github.com/repos/bitcoin/bitcoin/issues/events/8313379384",
      "actor": {
        "login": "sidhujag",
        "id": 6238042,
        "node_id": "MDQ6VXNlcjYyMzgwNDI=",
        "avatar_url": "https://avatars.githubusercontent.com/u/6238042?v=4",
        "gravatar_id": "",
        "url": "https://api.github.com/users/sidhujag",
        "html_url": "https://github.com/sidhujag",
        "followers_url": "https://api.github.com/users/sidhujag/followers",
        "following_url": "https://api.github.com/users/sidhujag/following%7B/other_user%7D",
        "gists_url": "https://api.github.com/users/sidhujag/gists%7B/gist_id%7D",
        "starred_url": "https://api.github.com/users/sidhujag/starred%7B/owner%7D%7B/repo%7D",
        "subscriptions_url": "https://api.github.com/users/sidhujag/subscriptions",
        "organizations_url": "https://api.github.com/users/sidhujag/orgs",
        "repos_url": "https://api.github.com/users/sidhujag/repos",
        "events_url": "https://api.github.com/users/sidhujag/events%7B/privacy%7D",
        "received_events_url": "https://api.github.com/users/sidhujag/received_events",
        "type": "User",
        "site_admin": false
      },
      "commit_id": "ce7767f5bad5348cec195319575ece605e1237a2",
      "commit_url": "https://api.github.com/repos/syscoin/syscoin/commits/ce7767f5bad5348cec195319575ece605e1237a2",
      "created_at": "2023-01-19T15:42:24Z"
    }
  ],
  "comments": []
}