{
  "type": "pull",
  "pull": {
    "url": "https://api.github.com/repos/bitcoin/bitcoin/pulls/26701",
    "id": 1165703703,
    "node_id": "PR_kwDOABII585FezoX",
    "html_url": "https://github.com/bitcoin/bitcoin/pull/26701",
    "diff_url": "https://github.com/bitcoin/bitcoin/pull/26701.diff",
    "patch_url": "https://github.com/bitcoin/bitcoin/pull/26701.patch",
    "issue_url": "https://api.github.com/repos/bitcoin/bitcoin/issues/26701",
    "commits_url": "https://api.github.com/repos/bitcoin/bitcoin/pulls/26701/commits",
    "review_comments_url": "https://api.github.com/repos/bitcoin/bitcoin/pulls/26701/comments",
    "review_comment_url": "https://api.github.com/repos/bitcoin/bitcoin/pulls/comments%7B/number%7D",
    "comments_url": "https://api.github.com/repos/bitcoin/bitcoin/issues/26701/comments",
    "statuses_url": "https://api.github.com/repos/bitcoin/bitcoin/statuses/1c07500dbb6b93510425c8bbdb320f2533efdb3d",
    "number": 26701,
    "state": "closed",
    "locked": false,
    "maintainer_can_modify": false,
    "title": "contrib: make DNS seeds file an argument in CLI (`makeseeds`)",
    "user": {
      "login": "brunoerg",
      "id": 19480819,
      "node_id": "MDQ6VXNlcjE5NDgwODE5",
      "avatar_url": "https://avatars.githubusercontent.com/u/19480819?v=4",
      "gravatar_id": "",
      "url": "https://api.github.com/users/brunoerg",
      "html_url": "https://github.com/brunoerg",
      "followers_url": "https://api.github.com/users/brunoerg/followers",
      "following_url": "https://api.github.com/users/brunoerg/following%7B/other_user%7D",
      "gists_url": "https://api.github.com/users/brunoerg/gists%7B/gist_id%7D",
      "starred_url": "https://api.github.com/users/brunoerg/starred%7B/owner%7D%7B/repo%7D",
      "subscriptions_url": "https://api.github.com/users/brunoerg/subscriptions",
      "organizations_url": "https://api.github.com/users/brunoerg/orgs",
      "repos_url": "https://api.github.com/users/brunoerg/repos",
      "events_url": "https://api.github.com/users/brunoerg/events%7B/privacy%7D",
      "received_events_url": "https://api.github.com/users/brunoerg/received_events",
      "type": "User",
      "site_admin": false
    },
    "body": "Instead of using `makeseeds.py` this way:\r\n```sh\r\npython3 makeseeds.py -a asmap-filled.dat < seeds_main.txt > nodes_main.txt\r\n```\r\n\r\nWe could use the DNS seeds file as an argument since it is a required one. It improves the way the script handles it when that file is missing as well as makes this script more friendly.\r\nE.g:\r\n```sh\r\npython3 makeseeds.py -a asmap-filled.dat -s seeds_main.txt > nodes_main.txt\r\n```",
    "labels": [
      {
        "id": 231994551,
        "node_id": "MDU6TGFiZWwyMzE5OTQ1NTE=",
        "url": "https://api.github.com/repos/bitcoin/bitcoin/labels/Scripts%20and%20tools",
        "name": "Scripts and tools",
        "color": "ffffee",
        "default": false
      }
    ],
    "created_at": "2022-12-14T18:58:33Z",
    "updated_at": "2023-02-07T09:05:33Z",
    "closed_at": "2023-02-07T09:05:33Z",
    "mergeable_state": "unknown",
    "merged_at": "2023-02-07T09:05:32Z",
    "merge_commit_sha": "5a80086ec2c15d1cd269e8e354f48ee11e4531eb",
    "assignees": [],
    "requested_reviewers": [],
    "requested_teams": [],
    "head": {
      "label": "brunoerg:2022-12-seeds-improv",
      "ref": "2022-12-seeds-improv",
      "sha": "1c07500dbb6b93510425c8bbdb320f2533efdb3d",
      "user": {
        "login": "brunoerg",
        "id": 19480819,
        "node_id": "MDQ6VXNlcjE5NDgwODE5",
        "avatar_url": "https://avatars.githubusercontent.com/u/19480819?v=4",
        "gravatar_id": "",
        "url": "https://api.github.com/users/brunoerg",
        "html_url": "https://github.com/brunoerg",
        "followers_url": "https://api.github.com/users/brunoerg/followers",
        "following_url": "https://api.github.com/users/brunoerg/following%7B/other_user%7D",
        "gists_url": "https://api.github.com/users/brunoerg/gists%7B/gist_id%7D",
        "starred_url": "https://api.github.com/users/brunoerg/starred%7B/owner%7D%7B/repo%7D",
        "subscriptions_url": "https://api.github.com/users/brunoerg/subscriptions",
        "organizations_url": "https://api.github.com/users/brunoerg/orgs",
        "repos_url": "https://api.github.com/users/brunoerg/repos",
        "events_url": "https://api.github.com/users/brunoerg/events%7B/privacy%7D",
        "received_events_url": "https://api.github.com/users/brunoerg/received_events",
        "type": "User",
        "site_admin": false
      },
      "repo": {
        "id": 267841305,
        "node_id": "MDEwOlJlcG9zaXRvcnkyNjc4NDEzMDU=",
        "name": "bitcoin",
        "full_name": "brunoerg/bitcoin",
        "owner": {
          "login": "brunoerg",
          "id": 19480819,
          "node_id": "MDQ6VXNlcjE5NDgwODE5",
          "avatar_url": "https://avatars.githubusercontent.com/u/19480819?v=4",
          "gravatar_id": "",
          "url": "https://api.github.com/users/brunoerg",
          "html_url": "https://github.com/brunoerg",
          "followers_url": "https://api.github.com/users/brunoerg/followers",
          "following_url": "https://api.github.com/users/brunoerg/following%7B/other_user%7D",
          "gists_url": "https://api.github.com/users/brunoerg/gists%7B/gist_id%7D",
          "starred_url": "https://api.github.com/users/brunoerg/starred%7B/owner%7D%7B/repo%7D",
          "subscriptions_url": "https://api.github.com/users/brunoerg/subscriptions",
          "organizations_url": "https://api.github.com/users/brunoerg/orgs",
          "repos_url": "https://api.github.com/users/brunoerg/repos",
          "events_url": "https://api.github.com/users/brunoerg/events%7B/privacy%7D",
          "received_events_url": "https://api.github.com/users/brunoerg/received_events",
          "type": "User",
          "site_admin": false
        },
        "private": false,
        "html_url": "https://github.com/brunoerg/bitcoin",
        "description": "Bitcoin Core integration/staging tree",
        "fork": true,
        "url": "https://api.github.com/repos/brunoerg/bitcoin",
        "archive_url": "https://api.github.com/repos/brunoerg/bitcoin/%7Barchive_format%7D%7B/ref%7D",
        "assignees_url": "https://api.github.com/repos/brunoerg/bitcoin/assignees%7B/user%7D",
        "blobs_url": "https://api.github.com/repos/brunoerg/bitcoin/git/blobs%7B/sha%7D",
        "branches_url": "https://api.github.com/repos/brunoerg/bitcoin/branches%7B/branch%7D",
        "collaborators_url": "https://api.github.com/repos/brunoerg/bitcoin/collaborators%7B/collaborator%7D",
        "comments_url": "https://api.github.com/repos/brunoerg/bitcoin/comments%7B/number%7D",
        "commits_url": "https://api.github.com/repos/brunoerg/bitcoin/commits%7B/sha%7D",
        "compare_url": "https://api.github.com/repos/brunoerg/bitcoin/compare/%7Bbase%7D...%7Bhead%7D",
        "contents_url": "https://api.github.com/repos/brunoerg/bitcoin/contents/%7B+path%7D",
        "contributors_url": "https://api.github.com/repos/brunoerg/bitcoin/contributors",
        "deployments_url": "https://api.github.com/repos/brunoerg/bitcoin/deployments",
        "downloads_url": "https://api.github.com/repos/brunoerg/bitcoin/downloads",
        "events_url": "https://api.github.com/repos/brunoerg/bitcoin/events",
        "forks_url": "https://api.github.com/repos/brunoerg/bitcoin/forks",
        "git_commits_url": "https://api.github.com/repos/brunoerg/bitcoin/git/commits%7B/sha%7D",
        "git_refs_url": "https://api.github.com/repos/brunoerg/bitcoin/git/refs%7B/sha%7D",
        "git_tags_url": "https://api.github.com/repos/brunoerg/bitcoin/git/tags%7B/sha%7D",
        "git_url": "git://github.com/brunoerg/bitcoin.git",
        "issue_comment_url": "https://api.github.com/repos/brunoerg/bitcoin/issues/comments%7B/number%7D",
        "issue_events_url": "https://api.github.com/repos/brunoerg/bitcoin/issues/events%7B/number%7D",
        "issues_url": "https://api.github.com/repos/brunoerg/bitcoin/issues%7B/number%7D",
        "keys_url": "https://api.github.com/repos/brunoerg/bitcoin/keys%7B/key_id%7D",
        "labels_url": "https://api.github.com/repos/brunoerg/bitcoin/labels%7B/name%7D",
        "languages_url": "https://api.github.com/repos/brunoerg/bitcoin/languages",
        "merges_url": "https://api.github.com/repos/brunoerg/bitcoin/merges",
        "milestones_url": "https://api.github.com/repos/brunoerg/bitcoin/milestones%7B/number%7D",
        "notifications_url": "https://api.github.com/repos/brunoerg/bitcoin/notifications%7B?since,all,participating}",
        "pulls_url": "https://api.github.com/repos/brunoerg/bitcoin/pulls%7B/number%7D",
        "releases_url": "https://api.github.com/repos/brunoerg/bitcoin/releases%7B/id%7D",
        "ssh_url": "git@github.com:brunoerg/bitcoin.git",
        "stargazers_url": "https://api.github.com/repos/brunoerg/bitcoin/stargazers",
        "statuses_url": "https://api.github.com/repos/brunoerg/bitcoin/statuses/%7Bsha%7D",
        "subscribers_url": "https://api.github.com/repos/brunoerg/bitcoin/subscribers",
        "subscription_url": "https://api.github.com/repos/brunoerg/bitcoin/subscription",
        "tags_url": "https://api.github.com/repos/brunoerg/bitcoin/tags",
        "teams_url": "https://api.github.com/repos/brunoerg/bitcoin/teams",
        "trees_url": "https://api.github.com/repos/brunoerg/bitcoin/git/trees%7B/sha%7D",
        "clone_url": "https://github.com/brunoerg/bitcoin.git",
        "hooks_url": "https://api.github.com/repos/brunoerg/bitcoin/hooks",
        "svn_url": "https://github.com/brunoerg/bitcoin",
        "homepage": "https://bitcoincore.org/en/download",
        "language": "C++",
        "forks_count": 0,
        "stargazers_count": 3,
        "watchers_count": 3,
        "size": 222129,
        "default_branch": "master",
        "open_issues_count": 0,
        "is_template": false,
        "topics": [],
        "has_issues": false,
        "has_projects": true,
        "has_wiki": false,
        "has_pages": false,
        "has_downloads": false,
        "archived": false,
        "disabled": false,
        "visibility": "public",
        "pushed_at": "2023-08-02T13:31:03Z",
        "created_at": "2020-05-29T11:30:10Z",
        "updated_at": "2022-12-07T18:05:58Z",
        "license": {
          "key": "mit",
          "name": "MIT License",
          "node_id": "MDc6TGljZW5zZTEz",
          "spdx_id": "MIT",
          "url": "https://api.github.com/licenses/mit",
          "html_url": null,
          "description": null,
          "implementation": null,
          "permissions": null,
          "conditions": null,
          "limitations": null,
          "body": null,
          "featured": null
        }
      }
    },
    "base": {
      "label": "bitcoin:master",
      "ref": "master",
      "sha": "65f5cfda656c150dd0df40369845c53fa387b25f",
      "user": {
        "login": "bitcoin",
        "id": 528860,
        "node_id": "MDEyOk9yZ2FuaXphdGlvbjUyODg2MA==",
        "avatar_url": "https://avatars.githubusercontent.com/u/528860?v=4",
        "gravatar_id": "",
        "url": "https://api.github.com/users/bitcoin",
        "html_url": "https://github.com/bitcoin",
        "followers_url": "https://api.github.com/users/bitcoin/followers",
        "following_url": "https://api.github.com/users/bitcoin/following%7B/other_user%7D",
        "gists_url": "https://api.github.com/users/bitcoin/gists%7B/gist_id%7D",
        "starred_url": "https://api.github.com/users/bitcoin/starred%7B/owner%7D%7B/repo%7D",
        "subscriptions_url": "https://api.github.com/users/bitcoin/subscriptions",
        "organizations_url": "https://api.github.com/users/bitcoin/orgs",
        "repos_url": "https://api.github.com/users/bitcoin/repos",
        "events_url": "https://api.github.com/users/bitcoin/events%7B/privacy%7D",
        "received_events_url": "https://api.github.com/users/bitcoin/received_events",
        "type": "Organization",
        "site_admin": false
      },
      "repo": {
        "id": 1181927,
        "node_id": "MDEwOlJlcG9zaXRvcnkxMTgxOTI3",
        "name": "bitcoin",
        "full_name": "bitcoin/bitcoin",
        "owner": {
          "login": "bitcoin",
          "id": 528860,
          "node_id": "MDEyOk9yZ2FuaXphdGlvbjUyODg2MA==",
          "avatar_url": "https://avatars.githubusercontent.com/u/528860?v=4",
          "gravatar_id": "",
          "url": "https://api.github.com/users/bitcoin",
          "html_url": "https://github.com/bitcoin",
          "followers_url": "https://api.github.com/users/bitcoin/followers",
          "following_url": "https://api.github.com/users/bitcoin/following%7B/other_user%7D",
          "gists_url": "https://api.github.com/users/bitcoin/gists%7B/gist_id%7D",
          "starred_url": "https://api.github.com/users/bitcoin/starred%7B/owner%7D%7B/repo%7D",
          "subscriptions_url": "https://api.github.com/users/bitcoin/subscriptions",
          "organizations_url": "https://api.github.com/users/bitcoin/orgs",
          "repos_url": "https://api.github.com/users/bitcoin/repos",
          "events_url": "https://api.github.com/users/bitcoin/events%7B/privacy%7D",
          "received_events_url": "https://api.github.com/users/bitcoin/received_events",
          "type": "Organization",
          "site_admin": false
        },
        "private": false,
        "html_url": "https://github.com/bitcoin/bitcoin",
        "description": "Bitcoin Core integration/staging tree",
        "fork": false,
        "url": "https://api.github.com/repos/bitcoin/bitcoin",
        "archive_url": "https://api.github.com/repos/bitcoin/bitcoin/%7Barchive_format%7D%7B/ref%7D",
        "assignees_url": "https://api.github.com/repos/bitcoin/bitcoin/assignees%7B/user%7D",
        "blobs_url": "https://api.github.com/repos/bitcoin/bitcoin/git/blobs%7B/sha%7D",
        "branches_url": "https://api.github.com/repos/bitcoin/bitcoin/branches%7B/branch%7D",
        "collaborators_url": "https://api.github.com/repos/bitcoin/bitcoin/collaborators%7B/collaborator%7D",
        "comments_url": "https://api.github.com/repos/bitcoin/bitcoin/comments%7B/number%7D",
        "commits_url": "https://api.github.com/repos/bitcoin/bitcoin/commits%7B/sha%7D",
        "compare_url": "https://api.github.com/repos/bitcoin/bitcoin/compare/%7Bbase%7D...%7Bhead%7D",
        "contents_url": "https://api.github.com/repos/bitcoin/bitcoin/contents/%7B+path%7D",
        "contributors_url": "https://api.github.com/repos/bitcoin/bitcoin/contributors",
        "deployments_url": "https://api.github.com/repos/bitcoin/bitcoin/deployments",
        "downloads_url": "https://api.github.com/repos/bitcoin/bitcoin/downloads",
        "events_url": "https://api.github.com/repos/bitcoin/bitcoin/events",
        "forks_url": "https://api.github.com/repos/bitcoin/bitcoin/forks",
        "git_commits_url": "https://api.github.com/repos/bitcoin/bitcoin/git/commits%7B/sha%7D",
        "git_refs_url": "https://api.github.com/repos/bitcoin/bitcoin/git/refs%7B/sha%7D",
        "git_tags_url": "https://api.github.com/repos/bitcoin/bitcoin/git/tags%7B/sha%7D",
        "git_url": "git://github.com/bitcoin/bitcoin.git",
        "issue_comment_url": "https://api.github.com/repos/bitcoin/bitcoin/issues/comments%7B/number%7D",
        "issue_events_url": "https://api.github.com/repos/bitcoin/bitcoin/issues/events%7B/number%7D",
        "issues_url": "https://api.github.com/repos/bitcoin/bitcoin/issues%7B/number%7D",
        "keys_url": "https://api.github.com/repos/bitcoin/bitcoin/keys%7B/key_id%7D",
        "labels_url": "https://api.github.com/repos/bitcoin/bitcoin/labels%7B/name%7D",
        "languages_url": "https://api.github.com/repos/bitcoin/bitcoin/languages",
        "merges_url": "https://api.github.com/repos/bitcoin/bitcoin/merges",
        "milestones_url": "https://api.github.com/repos/bitcoin/bitcoin/milestones%7B/number%7D",
        "notifications_url": "https://api.github.com/repos/bitcoin/bitcoin/notifications%7B?since,all,participating}",
        "pulls_url": "https://api.github.com/repos/bitcoin/bitcoin/pulls%7B/number%7D",
        "releases_url": "https://api.github.com/repos/bitcoin/bitcoin/releases%7B/id%7D",
        "ssh_url": "git@github.com:bitcoin/bitcoin.git",
        "stargazers_url": "https://api.github.com/repos/bitcoin/bitcoin/stargazers",
        "statuses_url": "https://api.github.com/repos/bitcoin/bitcoin/statuses/%7Bsha%7D",
        "subscribers_url": "https://api.github.com/repos/bitcoin/bitcoin/subscribers",
        "subscription_url": "https://api.github.com/repos/bitcoin/bitcoin/subscription",
        "tags_url": "https://api.github.com/repos/bitcoin/bitcoin/tags",
        "teams_url": "https://api.github.com/repos/bitcoin/bitcoin/teams",
        "trees_url": "https://api.github.com/repos/bitcoin/bitcoin/git/trees%7B/sha%7D",
        "clone_url": "https://github.com/bitcoin/bitcoin.git",
        "hooks_url": "https://api.github.com/repos/bitcoin/bitcoin/hooks",
        "svn_url": "https://github.com/bitcoin/bitcoin",
        "homepage": "https://bitcoincore.org/en/download",
        "language": "C++",
        "forks_count": 35476,
        "stargazers_count": 70608,
        "watchers_count": 70608,
        "size": 236222,
        "default_branch": "master",
        "open_issues_count": 673,
        "is_template": false,
        "topics": [
          "bitcoin",
          "c-plus-plus",
          "cryptocurrency",
          "cryptography",
          "p2p"
        ],
        "has_issues": true,
        "has_projects": true,
        "has_wiki": false,
        "has_pages": false,
        "has_downloads": false,
        "archived": false,
        "disabled": false,
        "visibility": "public",
        "pushed_at": "2023-08-03T00:03:27Z",
        "created_at": "2010-12-19T15:16:43Z",
        "updated_at": "2023-08-02T18:21:18Z",
        "license": {
          "key": "mit",
          "name": "MIT License",
          "node_id": "MDc6TGljZW5zZTEz",
          "spdx_id": "MIT",
          "url": "https://api.github.com/licenses/mit",
          "html_url": null,
          "description": null,
          "implementation": null,
          "permissions": null,
          "conditions": null,
          "limitations": null,
          "body": null,
          "featured": null
        }
      }
    },
    "_links": {
      "self": {
        "href": "https://api.github.com/repos/bitcoin/bitcoin/pulls/26701"
      }
    },
    "author_association": "CONTRIBUTOR",
    "draft": false,
    "additions": 4,
    "deletions": 2,
    "changed_files": 2,
    "commits": 1,
    "review_comments": 0,
    "comments": 3
  },
  "events": [
    {
      "event": "commented",
      "id": 1351988453,
      "node_id": "IC_kwDOABII585QlbTl",
      "url": "https://api.github.com/repos/bitcoin/bitcoin/issues/comments/1351988453",
      "actor": {
        "login": "DrahtBot",
        "id": 39886733,
        "node_id": "MDQ6VXNlcjM5ODg2NzMz",
        "avatar_url": "https://avatars.githubusercontent.com/u/39886733?v=4",
        "gravatar_id": "",
        "url": "https://api.github.com/users/DrahtBot",
        "html_url": "https://github.com/DrahtBot",
        "followers_url": "https://api.github.com/users/DrahtBot/followers",
        "following_url": "https://api.github.com/users/DrahtBot/following%7B/other_user%7D",
        "gists_url": "https://api.github.com/users/DrahtBot/gists%7B/gist_id%7D",
        "starred_url": "https://api.github.com/users/DrahtBot/starred%7B/owner%7D%7B/repo%7D",
        "subscriptions_url": "https://api.github.com/users/DrahtBot/subscriptions",
        "organizations_url": "https://api.github.com/users/DrahtBot/orgs",
        "repos_url": "https://api.github.com/users/DrahtBot/repos",
        "events_url": "https://api.github.com/users/DrahtBot/events%7B/privacy%7D",
        "received_events_url": "https://api.github.com/users/DrahtBot/received_events",
        "type": "User",
        "site_admin": false
      },
      "commit_id": null,
      "commit_url": null,
      "created_at": "2022-12-14T18:58:35Z",
      "updated_at": "2023-02-07T08:43:54Z",
      "author_association": "CONTRIBUTOR",
      "body": "<!--e57a25ab6845829454e8d69fc972939a-->\n\nThe following sections might be updated with supplementary metadata relevant to reviewers and maintainers.\n\n<!--021abf342d371248e50ceaed478a90ca-->\n### Reviews\nSee [the guideline](https://github.com/bitcoin/bitcoin/blob/master/CONTRIBUTING.md#code-review) for information on the review process.\n| Type | Reviewers |\n| ---- | --------- |\n| ACK | [vincenzopalazzo](https://github.com/bitcoin/bitcoin/pull/26701#pullrequestreview-1286640609) |\n\nIf your review is incorrectly listed, please react with 👎 to this comment and the bot will ignore it on the next update.\n",
      "user": {
        "login": "DrahtBot",
        "id": 39886733,
        "node_id": "MDQ6VXNlcjM5ODg2NzMz",
        "avatar_url": "https://avatars.githubusercontent.com/u/39886733?v=4",
        "gravatar_id": "",
        "url": "https://api.github.com/users/DrahtBot",
        "html_url": "https://github.com/DrahtBot",
        "followers_url": "https://api.github.com/users/DrahtBot/followers",
        "following_url": "https://api.github.com/users/DrahtBot/following%7B/other_user%7D",
        "gists_url": "https://api.github.com/users/DrahtBot/gists%7B/gist_id%7D",
        "starred_url": "https://api.github.com/users/DrahtBot/starred%7B/owner%7D%7B/repo%7D",
        "subscriptions_url": "https://api.github.com/users/DrahtBot/subscriptions",
        "organizations_url": "https://api.github.com/users/DrahtBot/orgs",
        "repos_url": "https://api.github.com/users/DrahtBot/repos",
        "events_url": "https://api.github.com/users/DrahtBot/events%7B/privacy%7D",
        "received_events_url": "https://api.github.com/users/DrahtBot/received_events",
        "type": "User",
        "site_admin": false
      },
      "html_url": "https://github.com/bitcoin/bitcoin/pull/26701#issuecomment-1351988453",
      "issue_url": "https://api.github.com/repos/bitcoin/bitcoin/issues/26701"
    },
    {
      "event": "labeled",
      "id": 8040339302,
      "node_id": "LE_lADOABII585ZPb60zwAAAAHfPddm",
      "url": "https://api.github.com/repos/bitcoin/bitcoin/issues/events/8040339302",
      "actor": {
        "login": "DrahtBot",
        "id": 39886733,
        "node_id": "MDQ6VXNlcjM5ODg2NzMz",
        "avatar_url": "https://avatars.githubusercontent.com/u/39886733?v=4",
        "gravatar_id": "",
        "url": "https://api.github.com/users/DrahtBot",
        "html_url": "https://github.com/DrahtBot",
        "followers_url": "https://api.github.com/users/DrahtBot/followers",
        "following_url": "https://api.github.com/users/DrahtBot/following%7B/other_user%7D",
        "gists_url": "https://api.github.com/users/DrahtBot/gists%7B/gist_id%7D",
        "starred_url": "https://api.github.com/users/DrahtBot/starred%7B/owner%7D%7B/repo%7D",
        "subscriptions_url": "https://api.github.com/users/DrahtBot/subscriptions",
        "organizations_url": "https://api.github.com/users/DrahtBot/orgs",
        "repos_url": "https://api.github.com/users/DrahtBot/repos",
        "events_url": "https://api.github.com/users/DrahtBot/events%7B/privacy%7D",
        "received_events_url": "https://api.github.com/users/DrahtBot/received_events",
        "type": "User",
        "site_admin": false
      },
      "commit_id": null,
      "commit_url": null,
      "created_at": "2022-12-14T18:58:37Z",
      "label": {
        "name": "Scripts and tools",
        "color": "ffffee"
      }
    },
    {
      "event": "head_ref_force_pushed",
      "id": 8040410165,
      "node_id": "HRFPE_lADOABII585ZPb60zwAAAAHfPuw1",
      "url": "https://api.github.com/repos/bitcoin/bitcoin/issues/events/8040410165",
      "actor": {
        "login": "brunoerg",
        "id": 19480819,
        "node_id": "MDQ6VXNlcjE5NDgwODE5",
        "avatar_url": "https://avatars.githubusercontent.com/u/19480819?v=4",
        "gravatar_id": "",
        "url": "https://api.github.com/users/brunoerg",
        "html_url": "https://github.com/brunoerg",
        "followers_url": "https://api.github.com/users/brunoerg/followers",
        "following_url": "https://api.github.com/users/brunoerg/following%7B/other_user%7D",
        "gists_url": "https://api.github.com/users/brunoerg/gists%7B/gist_id%7D",
        "starred_url": "https://api.github.com/users/brunoerg/starred%7B/owner%7D%7B/repo%7D",
        "subscriptions_url": "https://api.github.com/users/brunoerg/subscriptions",
        "organizations_url": "https://api.github.com/users/brunoerg/orgs",
        "repos_url": "https://api.github.com/users/brunoerg/repos",
        "events_url": "https://api.github.com/users/brunoerg/events%7B/privacy%7D",
        "received_events_url": "https://api.github.com/users/brunoerg/received_events",
        "type": "User",
        "site_admin": false
      },
      "commit_id": null,
      "commit_url": null,
      "created_at": "2022-12-14T19:08:24Z"
    },
    {
      "event": "reviewed",
      "id": 1221895233,
      "node_id": "PRR_kwDOABII585I1KRB",
      "url": null,
      "actor": null,
      "commit_id": "fdb3bd5e2f268cd02dee372302b10fcc411196a8",
      "commit_url": null,
      "created_at": null,
      "author_association": "NONE",
      "body": "ACK https://github.com/bitcoin/bitcoin/pull/26701/commits/fdb3bd5e2f268cd02dee372302b10fcc411196a8",
      "user": {
        "login": "vincenzopalazzo",
        "id": 17150045,
        "node_id": "MDQ6VXNlcjE3MTUwMDQ1",
        "avatar_url": "https://avatars.githubusercontent.com/u/17150045?v=4",
        "gravatar_id": "",
        "url": "https://api.github.com/users/vincenzopalazzo",
        "html_url": "https://github.com/vincenzopalazzo",
        "followers_url": "https://api.github.com/users/vincenzopalazzo/followers",
        "following_url": "https://api.github.com/users/vincenzopalazzo/following%7B/other_user%7D",
        "gists_url": "https://api.github.com/users/vincenzopalazzo/gists%7B/gist_id%7D",
        "starred_url": "https://api.github.com/users/vincenzopalazzo/starred%7B/owner%7D%7B/repo%7D",
        "subscriptions_url": "https://api.github.com/users/vincenzopalazzo/subscriptions",
        "organizations_url": "https://api.github.com/users/vincenzopalazzo/orgs",
        "repos_url": "https://api.github.com/users/vincenzopalazzo/repos",
        "events_url": "https://api.github.com/users/vincenzopalazzo/events%7B/privacy%7D",
        "received_events_url": "https://api.github.com/users/vincenzopalazzo/received_events",
        "type": "User",
        "site_admin": false
      },
      "html_url": "https://github.com/bitcoin/bitcoin/pull/26701#pullrequestreview-1221895233",
      "submitted_at": "2022-12-17T21:11:35Z",
      "state": "APPROVED",
      "pull_request_url": "https://api.github.com/repos/bitcoin/bitcoin/pulls/26701"
    },
    {
      "event": "commented",
      "id": 1357296068,
      "node_id": "IC_kwDOABII585Q5rHE",
      "url": "https://api.github.com/repos/bitcoin/bitcoin/issues/comments/1357296068",
      "actor": {
        "login": "MarcoFalke",
        "id": 6399679,
        "node_id": "MDQ6VXNlcjYzOTk2Nzk=",
        "avatar_url": "https://avatars.githubusercontent.com/u/6399679?v=4",
        "gravatar_id": "",
        "url": "https://api.github.com/users/MarcoFalke",
        "html_url": "https://github.com/MarcoFalke",
        "followers_url": "https://api.github.com/users/MarcoFalke/followers",
        "following_url": "https://api.github.com/users/MarcoFalke/following%7B/other_user%7D",
        "gists_url": "https://api.github.com/users/MarcoFalke/gists%7B/gist_id%7D",
        "starred_url": "https://api.github.com/users/MarcoFalke/starred%7B/owner%7D%7B/repo%7D",
        "subscriptions_url": "https://api.github.com/users/MarcoFalke/subscriptions",
        "organizations_url": "https://api.github.com/users/MarcoFalke/orgs",
        "repos_url": "https://api.github.com/users/MarcoFalke/repos",
        "events_url": "https://api.github.com/users/MarcoFalke/events%7B/privacy%7D",
        "received_events_url": "https://api.github.com/users/MarcoFalke/received_events",
        "type": "User",
        "site_admin": false
      },
      "commit_id": null,
      "commit_url": null,
      "created_at": "2022-12-19T08:47:06Z",
      "updated_at": "2022-12-19T08:47:06Z",
      "author_association": "MEMBER",
      "body": "In theory the arg could be optional and fallback to stdin, but not sure if it is worth it. In either case, the commits should be squashed.",
      "user": {
        "login": "MarcoFalke",
        "id": 6399679,
        "node_id": "MDQ6VXNlcjYzOTk2Nzk=",
        "avatar_url": "https://avatars.githubusercontent.com/u/6399679?v=4",
        "gravatar_id": "",
        "url": "https://api.github.com/users/MarcoFalke",
        "html_url": "https://github.com/MarcoFalke",
        "followers_url": "https://api.github.com/users/MarcoFalke/followers",
        "following_url": "https://api.github.com/users/MarcoFalke/following%7B/other_user%7D",
        "gists_url": "https://api.github.com/users/MarcoFalke/gists%7B/gist_id%7D",
        "starred_url": "https://api.github.com/users/MarcoFalke/starred%7B/owner%7D%7B/repo%7D",
        "subscriptions_url": "https://api.github.com/users/MarcoFalke/subscriptions",
        "organizations_url": "https://api.github.com/users/MarcoFalke/orgs",
        "repos_url": "https://api.github.com/users/MarcoFalke/repos",
        "events_url": "https://api.github.com/users/MarcoFalke/events%7B/privacy%7D",
        "received_events_url": "https://api.github.com/users/MarcoFalke/received_events",
        "type": "User",
        "site_admin": false
      },
      "html_url": "https://github.com/bitcoin/bitcoin/pull/26701#issuecomment-1357296068",
      "issue_url": "https://api.github.com/repos/bitcoin/bitcoin/issues/26701"
    },
    {
      "event": "committed",
      "id": null,
      "node_id": "C_kwDOABII59oAKDFjMDc1MDBkYmI2YjkzNTEwNDI1YzhiYmRiMzIwZjI1MzNlZmRiM2Q",
      "url": "https://api.github.com/repos/bitcoin/bitcoin/git/commits/1c07500dbb6b93510425c8bbdb320f2533efdb3d",
      "actor": null,
      "commit_id": null,
      "commit_url": null,
      "created_at": null,
      "html_url": "https://github.com/bitcoin/bitcoin/commit/1c07500dbb6b93510425c8bbdb320f2533efdb3d",
      "tree": {
        "sha": "ea29652f4207d20318fcb2d4eb76b35e0ac0cb86",
        "url": "https://api.github.com/repos/bitcoin/bitcoin/git/trees/ea29652f4207d20318fcb2d4eb76b35e0ac0cb86"
      },
      "verification": {
        "verified": false,
        "reason": "unsigned",
        "payload": null,
        "signature": null
      },
      "parents": [
        {
          "url": "https://api.github.com/repos/bitcoin/bitcoin/git/commits/a4baf3f177489f21b044468298825a70a1a15648",
          "sha": "a4baf3f177489f21b044468298825a70a1a15648",
          "html_url": "https://github.com/bitcoin/bitcoin/commit/a4baf3f177489f21b044468298825a70a1a15648"
        }
      ],
      "message": "contrib: make DNS seeds file an argument in CLI",
      "committer": {
        "name": "brunoerg",
        "email": "brunoely.gc@gmail.com",
        "date": "2022-12-19T10:20:14Z"
      },
      "author": {
        "name": "brunoerg",
        "email": "brunoely.gc@gmail.com",
        "date": "2022-12-14T16:04:06Z"
      },
      "sha": "1c07500dbb6b93510425c8bbdb320f2533efdb3d"
    },
    {
      "event": "commented",
      "id": 1357419142,
      "node_id": "IC_kwDOABII585Q6JKG",
      "url": "https://api.github.com/repos/bitcoin/bitcoin/issues/comments/1357419142",
      "actor": {
        "login": "brunoerg",
        "id": 19480819,
        "node_id": "MDQ6VXNlcjE5NDgwODE5",
        "avatar_url": "https://avatars.githubusercontent.com/u/19480819?v=4",
        "gravatar_id": "",
        "url": "https://api.github.com/users/brunoerg",
        "html_url": "https://github.com/brunoerg",
        "followers_url": "https://api.github.com/users/brunoerg/followers",
        "following_url": "https://api.github.com/users/brunoerg/following%7B/other_user%7D",
        "gists_url": "https://api.github.com/users/brunoerg/gists%7B/gist_id%7D",
        "starred_url": "https://api.github.com/users/brunoerg/starred%7B/owner%7D%7B/repo%7D",
        "subscriptions_url": "https://api.github.com/users/brunoerg/subscriptions",
        "organizations_url": "https://api.github.com/users/brunoerg/orgs",
        "repos_url": "https://api.github.com/users/brunoerg/repos",
        "events_url": "https://api.github.com/users/brunoerg/events%7B/privacy%7D",
        "received_events_url": "https://api.github.com/users/brunoerg/received_events",
        "type": "User",
        "site_admin": false
      },
      "commit_id": null,
      "commit_url": null,
      "created_at": "2022-12-19T10:20:49Z",
      "updated_at": "2022-12-19T10:20:49Z",
      "author_association": "CONTRIBUTOR",
      "body": "Force-pushed squashing the commits. Thanks, @MarcoFalke ",
      "user": {
        "login": "brunoerg",
        "id": 19480819,
        "node_id": "MDQ6VXNlcjE5NDgwODE5",
        "avatar_url": "https://avatars.githubusercontent.com/u/19480819?v=4",
        "gravatar_id": "",
        "url": "https://api.github.com/users/brunoerg",
        "html_url": "https://github.com/brunoerg",
        "followers_url": "https://api.github.com/users/brunoerg/followers",
        "following_url": "https://api.github.com/users/brunoerg/following%7B/other_user%7D",
        "gists_url": "https://api.github.com/users/brunoerg/gists%7B/gist_id%7D",
        "starred_url": "https://api.github.com/users/brunoerg/starred%7B/owner%7D%7B/repo%7D",
        "subscriptions_url": "https://api.github.com/users/brunoerg/subscriptions",
        "organizations_url": "https://api.github.com/users/brunoerg/orgs",
        "repos_url": "https://api.github.com/users/brunoerg/repos",
        "events_url": "https://api.github.com/users/brunoerg/events%7B/privacy%7D",
        "received_events_url": "https://api.github.com/users/brunoerg/received_events",
        "type": "User",
        "site_admin": false
      },
      "html_url": "https://github.com/bitcoin/bitcoin/pull/26701#issuecomment-1357419142",
      "issue_url": "https://api.github.com/repos/bitcoin/bitcoin/issues/26701"
    },
    {
      "event": "mentioned",
      "id": 8067975446,
      "node_id": "MEE_lADOABII585ZPb60zwAAAAHg44kW",
      "url": "https://api.github.com/repos/bitcoin/bitcoin/issues/events/8067975446",
      "actor": {
        "login": "MarcoFalke",
        "id": 6399679,
        "node_id": "MDQ6VXNlcjYzOTk2Nzk=",
        "avatar_url": "https://avatars.githubusercontent.com/u/6399679?v=4",
        "gravatar_id": "",
        "url": "https://api.github.com/users/MarcoFalke",
        "html_url": "https://github.com/MarcoFalke",
        "followers_url": "https://api.github.com/users/MarcoFalke/followers",
        "following_url": "https://api.github.com/users/MarcoFalke/following%7B/other_user%7D",
        "gists_url": "https://api.github.com/users/MarcoFalke/gists%7B/gist_id%7D",
        "starred_url": "https://api.github.com/users/MarcoFalke/starred%7B/owner%7D%7B/repo%7D",
        "subscriptions_url": "https://api.github.com/users/MarcoFalke/subscriptions",
        "organizations_url": "https://api.github.com/users/MarcoFalke/orgs",
        "repos_url": "https://api.github.com/users/MarcoFalke/repos",
        "events_url": "https://api.github.com/users/MarcoFalke/events%7B/privacy%7D",
        "received_events_url": "https://api.github.com/users/MarcoFalke/received_events",
        "type": "User",
        "site_admin": false
      },
      "commit_id": null,
      "commit_url": null,
      "created_at": "2022-12-19T10:20:50Z"
    },
    {
      "event": "subscribed",
      "id": 8067975495,
      "node_id": "SE_lADOABII585ZPb60zwAAAAHg44lH",
      "url": "https://api.github.com/repos/bitcoin/bitcoin/issues/events/8067975495",
      "actor": {
        "login": "MarcoFalke",
        "id": 6399679,
        "node_id": "MDQ6VXNlcjYzOTk2Nzk=",
        "avatar_url": "https://avatars.githubusercontent.com/u/6399679?v=4",
        "gravatar_id": "",
        "url": "https://api.github.com/users/MarcoFalke",
        "html_url": "https://github.com/MarcoFalke",
        "followers_url": "https://api.github.com/users/MarcoFalke/followers",
        "following_url": "https://api.github.com/users/MarcoFalke/following%7B/other_user%7D",
        "gists_url": "https://api.github.com/users/MarcoFalke/gists%7B/gist_id%7D",
        "starred_url": "https://api.github.com/users/MarcoFalke/starred%7B/owner%7D%7B/repo%7D",
        "subscriptions_url": "https://api.github.com/users/MarcoFalke/subscriptions",
        "organizations_url": "https://api.github.com/users/MarcoFalke/orgs",
        "repos_url": "https://api.github.com/users/MarcoFalke/repos",
        "events_url": "https://api.github.com/users/MarcoFalke/events%7B/privacy%7D",
        "received_events_url": "https://api.github.com/users/MarcoFalke/received_events",
        "type": "User",
        "site_admin": false
      },
      "commit_id": null,
      "commit_url": null,
      "created_at": "2022-12-19T10:20:50Z"
    },
    {
      "event": "head_ref_force_pushed",
      "id": 8067975844,
      "node_id": "HRFPE_lADOABII585ZPb60zwAAAAHg44qk",
      "url": "https://api.github.com/repos/bitcoin/bitcoin/issues/events/8067975844",
      "actor": {
        "login": "brunoerg",
        "id": 19480819,
        "node_id": "MDQ6VXNlcjE5NDgwODE5",
        "avatar_url": "https://avatars.githubusercontent.com/u/19480819?v=4",
        "gravatar_id": "",
        "url": "https://api.github.com/users/brunoerg",
        "html_url": "https://github.com/brunoerg",
        "followers_url": "https://api.github.com/users/brunoerg/followers",
        "following_url": "https://api.github.com/users/brunoerg/following%7B/other_user%7D",
        "gists_url": "https://api.github.com/users/brunoerg/gists%7B/gist_id%7D",
        "starred_url": "https://api.github.com/users/brunoerg/starred%7B/owner%7D%7B/repo%7D",
        "subscriptions_url": "https://api.github.com/users/brunoerg/subscriptions",
        "organizations_url": "https://api.github.com/users/brunoerg/orgs",
        "repos_url": "https://api.github.com/users/brunoerg/repos",
        "events_url": "https://api.github.com/users/brunoerg/events%7B/privacy%7D",
        "received_events_url": "https://api.github.com/users/brunoerg/received_events",
        "type": "User",
        "site_admin": false
      },
      "commit_id": null,
      "commit_url": null,
      "created_at": "2022-12-19T10:20:52Z"
    },
    {
      "event": "review_requested",
      "id": 8449456061,
      "node_id": "RRE_lADOABII585ZPb60zwAAAAH3oHe9",
      "url": "https://api.github.com/repos/bitcoin/bitcoin/issues/events/8449456061",
      "actor": {
        "login": "fanquake",
        "id": 863730,
        "node_id": "MDQ6VXNlcjg2MzczMA==",
        "avatar_url": "https://avatars.githubusercontent.com/u/863730?v=4",
        "gravatar_id": "",
        "url": "https://api.github.com/users/fanquake",
        "html_url": "https://github.com/fanquake",
        "followers_url": "https://api.github.com/users/fanquake/followers",
        "following_url": "https://api.github.com/users/fanquake/following%7B/other_user%7D",
        "gists_url": "https://api.github.com/users/fanquake/gists%7B/gist_id%7D",
        "starred_url": "https://api.github.com/users/fanquake/starred%7B/owner%7D%7B/repo%7D",
        "subscriptions_url": "https://api.github.com/users/fanquake/subscriptions",
        "organizations_url": "https://api.github.com/users/fanquake/orgs",
        "repos_url": "https://api.github.com/users/fanquake/repos",
        "events_url": "https://api.github.com/users/fanquake/events%7B/privacy%7D",
        "received_events_url": "https://api.github.com/users/fanquake/received_events",
        "type": "User",
        "site_admin": false
      },
      "commit_id": null,
      "commit_url": null,
      "created_at": "2023-02-06T16:36:56Z",
      "requested_reviewer": {
        "login": "vincenzopalazzo",
        "id": 17150045,
        "node_id": "MDQ6VXNlcjE3MTUwMDQ1",
        "avatar_url": "https://avatars.githubusercontent.com/u/17150045?v=4",
        "gravatar_id": "",
        "url": "https://api.github.com/users/vincenzopalazzo",
        "html_url": "https://github.com/vincenzopalazzo",
        "followers_url": "https://api.github.com/users/vincenzopalazzo/followers",
        "following_url": "https://api.github.com/users/vincenzopalazzo/following%7B/other_user%7D",
        "gists_url": "https://api.github.com/users/vincenzopalazzo/gists%7B/gist_id%7D",
        "starred_url": "https://api.github.com/users/vincenzopalazzo/starred%7B/owner%7D%7B/repo%7D",
        "subscriptions_url": "https://api.github.com/users/vincenzopalazzo/subscriptions",
        "organizations_url": "https://api.github.com/users/vincenzopalazzo/orgs",
        "repos_url": "https://api.github.com/users/vincenzopalazzo/repos",
        "events_url": "https://api.github.com/users/vincenzopalazzo/events%7B/privacy%7D",
        "received_events_url": "https://api.github.com/users/vincenzopalazzo/received_events",
        "type": "User",
        "site_admin": false
      },
      "review_requester": {
        "login": "fanquake",
        "id": 863730,
        "node_id": "MDQ6VXNlcjg2MzczMA==",
        "avatar_url": "https://avatars.githubusercontent.com/u/863730?v=4",
        "gravatar_id": "",
        "url": "https://api.github.com/users/fanquake",
        "html_url": "https://github.com/fanquake",
        "followers_url": "https://api.github.com/users/fanquake/followers",
        "following_url": "https://api.github.com/users/fanquake/following%7B/other_user%7D",
        "gists_url": "https://api.github.com/users/fanquake/gists%7B/gist_id%7D",
        "starred_url": "https://api.github.com/users/fanquake/starred%7B/owner%7D%7B/repo%7D",
        "subscriptions_url": "https://api.github.com/users/fanquake/subscriptions",
        "organizations_url": "https://api.github.com/users/fanquake/orgs",
        "repos_url": "https://api.github.com/users/fanquake/repos",
        "events_url": "https://api.github.com/users/fanquake/events%7B/privacy%7D",
        "received_events_url": "https://api.github.com/users/fanquake/received_events",
        "type": "User",
        "site_admin": false
      }
    },
    {
      "event": "reviewed",
      "id": 1286640609,
      "node_id": "PRR_kwDOABII585MsJPh",
      "url": null,
      "actor": null,
      "commit_id": "1c07500dbb6b93510425c8bbdb320f2533efdb3d",
      "commit_url": null,
      "created_at": null,
      "author_association": "NONE",
      "body": "ACK  https://github.com/bitcoin/bitcoin/pull/26701/commits/1c07500dbb6b93510425c8bbdb320f2533efdb3d",
      "user": {
        "login": "vincenzopalazzo",
        "id": 17150045,
        "node_id": "MDQ6VXNlcjE3MTUwMDQ1",
        "avatar_url": "https://avatars.githubusercontent.com/u/17150045?v=4",
        "gravatar_id": "",
        "url": "https://api.github.com/users/vincenzopalazzo",
        "html_url": "https://github.com/vincenzopalazzo",
        "followers_url": "https://api.github.com/users/vincenzopalazzo/followers",
        "following_url": "https://api.github.com/users/vincenzopalazzo/following%7B/other_user%7D",
        "gists_url": "https://api.github.com/users/vincenzopalazzo/gists%7B/gist_id%7D",
        "starred_url": "https://api.github.com/users/vincenzopalazzo/starred%7B/owner%7D%7B/repo%7D",
        "subscriptions_url": "https://api.github.com/users/vincenzopalazzo/subscriptions",
        "organizations_url": "https://api.github.com/users/vincenzopalazzo/orgs",
        "repos_url": "https://api.github.com/users/vincenzopalazzo/repos",
        "events_url": "https://api.github.com/users/vincenzopalazzo/events%7B/privacy%7D",
        "received_events_url": "https://api.github.com/users/vincenzopalazzo/received_events",
        "type": "User",
        "site_admin": false
      },
      "html_url": "https://github.com/bitcoin/bitcoin/pull/26701#pullrequestreview-1286640609",
      "submitted_at": "2023-02-07T08:43:50Z",
      "state": "APPROVED",
      "pull_request_url": "https://api.github.com/repos/bitcoin/bitcoin/pulls/26701"
    },
    {
      "event": "merged",
      "id": 8455676817,
      "node_id": "ME_lADOABII585ZPb60zwAAAAH3_2OR",
      "url": "https://api.github.com/repos/bitcoin/bitcoin/issues/events/8455676817",
      "actor": {
        "login": "MarcoFalke",
        "id": 6399679,
        "node_id": "MDQ6VXNlcjYzOTk2Nzk=",
        "avatar_url": "https://avatars.githubusercontent.com/u/6399679?v=4",
        "gravatar_id": "",
        "url": "https://api.github.com/users/MarcoFalke",
        "html_url": "https://github.com/MarcoFalke",
        "followers_url": "https://api.github.com/users/MarcoFalke/followers",
        "following_url": "https://api.github.com/users/MarcoFalke/following%7B/other_user%7D",
        "gists_url": "https://api.github.com/users/MarcoFalke/gists%7B/gist_id%7D",
        "starred_url": "https://api.github.com/users/MarcoFalke/starred%7B/owner%7D%7B/repo%7D",
        "subscriptions_url": "https://api.github.com/users/MarcoFalke/subscriptions",
        "organizations_url": "https://api.github.com/users/MarcoFalke/orgs",
        "repos_url": "https://api.github.com/users/MarcoFalke/repos",
        "events_url": "https://api.github.com/users/MarcoFalke/events%7B/privacy%7D",
        "received_events_url": "https://api.github.com/users/MarcoFalke/received_events",
        "type": "User",
        "site_admin": false
      },
      "commit_id": "5a80086ec2c15d1cd269e8e354f48ee11e4531eb",
      "commit_url": "https://api.github.com/repos/bitcoin/bitcoin/commits/5a80086ec2c15d1cd269e8e354f48ee11e4531eb",
      "created_at": "2023-02-07T09:05:32Z"
    },
    {
      "event": "closed",
      "id": 8455676866,
      "node_id": "CE_lADOABII585ZPb60zwAAAAH3_2PC",
      "url": "https://api.github.com/repos/bitcoin/bitcoin/issues/events/8455676866",
      "actor": {
        "login": "MarcoFalke",
        "id": 6399679,
        "node_id": "MDQ6VXNlcjYzOTk2Nzk=",
        "avatar_url": "https://avatars.githubusercontent.com/u/6399679?v=4",
        "gravatar_id": "",
        "url": "https://api.github.com/users/MarcoFalke",
        "html_url": "https://github.com/MarcoFalke",
        "followers_url": "https://api.github.com/users/MarcoFalke/followers",
        "following_url": "https://api.github.com/users/MarcoFalke/following%7B/other_user%7D",
        "gists_url": "https://api.github.com/users/MarcoFalke/gists%7B/gist_id%7D",
        "starred_url": "https://api.github.com/users/MarcoFalke/starred%7B/owner%7D%7B/repo%7D",
        "subscriptions_url": "https://api.github.com/users/MarcoFalke/subscriptions",
        "organizations_url": "https://api.github.com/users/MarcoFalke/orgs",
        "repos_url": "https://api.github.com/users/MarcoFalke/repos",
        "events_url": "https://api.github.com/users/MarcoFalke/events%7B/privacy%7D",
        "received_events_url": "https://api.github.com/users/MarcoFalke/received_events",
        "type": "User",
        "site_admin": false
      },
      "commit_id": null,
      "commit_url": null,
      "created_at": "2023-02-07T09:05:33Z"
    },
    {
      "event": "referenced",
      "id": 8459613742,
      "node_id": "REFE_lADOABII585ZPb60zwAAAAH4O3Yu",
      "url": "https://api.github.com/repos/bitcoin/bitcoin/issues/events/8459613742",
      "actor": {
        "login": "sidhujag",
        "id": 6238042,
        "node_id": "MDQ6VXNlcjYyMzgwNDI=",
        "avatar_url": "https://avatars.githubusercontent.com/u/6238042?v=4",
        "gravatar_id": "",
        "url": "https://api.github.com/users/sidhujag",
        "html_url": "https://github.com/sidhujag",
        "followers_url": "https://api.github.com/users/sidhujag/followers",
        "following_url": "https://api.github.com/users/sidhujag/following%7B/other_user%7D",
        "gists_url": "https://api.github.com/users/sidhujag/gists%7B/gist_id%7D",
        "starred_url": "https://api.github.com/users/sidhujag/starred%7B/owner%7D%7B/repo%7D",
        "subscriptions_url": "https://api.github.com/users/sidhujag/subscriptions",
        "organizations_url": "https://api.github.com/users/sidhujag/orgs",
        "repos_url": "https://api.github.com/users/sidhujag/repos",
        "events_url": "https://api.github.com/users/sidhujag/events%7B/privacy%7D",
        "received_events_url": "https://api.github.com/users/sidhujag/received_events",
        "type": "User",
        "site_admin": false
      },
      "commit_id": "ef616db51342ea266dbc094d90902c07f861a4ef",
      "commit_url": "https://api.github.com/repos/syscoin/syscoin/commits/ef616db51342ea266dbc094d90902c07f861a4ef",
      "created_at": "2023-02-07T15:57:28Z"
    }
  ],
  "comments": []
}