{
  "type": "pull",
  "pull": {
    "url": "https://api.github.com/repos/bitcoin/bitcoin/pulls/26702",
    "id": 1166047712,
    "node_id": "PR_kwDOABII585FgHng",
    "html_url": "https://github.com/bitcoin/bitcoin/pull/26702",
    "diff_url": "https://github.com/bitcoin/bitcoin/pull/26702.diff",
    "patch_url": "https://github.com/bitcoin/bitcoin/pull/26702.patch",
    "issue_url": "https://api.github.com/repos/bitcoin/bitcoin/issues/26702",
    "commits_url": "https://api.github.com/repos/bitcoin/bitcoin/pulls/26702/commits",
    "review_comments_url": "https://api.github.com/repos/bitcoin/bitcoin/pulls/26702/comments",
    "review_comment_url": "https://api.github.com/repos/bitcoin/bitcoin/pulls/comments%7B/number%7D",
    "comments_url": "https://api.github.com/repos/bitcoin/bitcoin/issues/26702/comments",
    "statuses_url": "https://api.github.com/repos/bitcoin/bitcoin/statuses/f496528556a67107d3d75d9c2ae345f7f4565d77",
    "number": 26702,
    "state": "closed",
    "locked": false,
    "maintainer_can_modify": false,
    "title": "refactor: walletdb: drop unused `FindWalletTx` parameter and rename",
    "user": {
      "login": "theStack",
      "id": 91535,
      "node_id": "MDQ6VXNlcjkxNTM1",
      "avatar_url": "https://avatars.githubusercontent.com/u/91535?v=4",
      "gravatar_id": "",
      "url": "https://api.github.com/users/theStack",
      "html_url": "https://github.com/theStack",
      "followers_url": "https://api.github.com/users/theStack/followers",
      "following_url": "https://api.github.com/users/theStack/following%7B/other_user%7D",
      "gists_url": "https://api.github.com/users/theStack/gists%7B/gist_id%7D",
      "starred_url": "https://api.github.com/users/theStack/starred%7B/owner%7D%7B/repo%7D",
      "subscriptions_url": "https://api.github.com/users/theStack/subscriptions",
      "organizations_url": "https://api.github.com/users/theStack/orgs",
      "repos_url": "https://api.github.com/users/theStack/repos",
      "events_url": "https://api.github.com/users/theStack/events%7B/privacy%7D",
      "received_events_url": "https://api.github.com/users/theStack/received_events",
      "type": "User",
      "site_admin": false
    },
    "body": "Since commit 3340dbadd38f5624642cf0e14dddbe6f83a3863b (\"Remove -zapwallettxes\"), the `FindWalletTx` helper is only needed to read tx hashes, so drop the other parameter and rename the method accordingly.",
    "labels": [
      {
        "id": 135961,
        "node_id": "MDU6TGFiZWwxMzU5NjE=",
        "url": "https://api.github.com/repos/bitcoin/bitcoin/labels/Refactoring",
        "name": "Refactoring",
        "color": "E6F6D6",
        "default": false
      }
    ],
    "created_at": "2022-12-15T00:20:19Z",
    "updated_at": "2023-01-03T18:24:34Z",
    "closed_at": "2023-01-03T16:57:57Z",
    "mergeable": false,
    "mergeable_state": "dirty",
    "merge_commit_sha": "f3eea654e4e9fccdba81951246202a5e167bdfca",
    "assignee": {
      "login": "achow101",
      "id": 3782274,
      "node_id": "MDQ6VXNlcjM3ODIyNzQ=",
      "avatar_url": "https://avatars.githubusercontent.com/u/3782274?v=4",
      "gravatar_id": "",
      "url": "https://api.github.com/users/achow101",
      "html_url": "https://github.com/achow101",
      "followers_url": "https://api.github.com/users/achow101/followers",
      "following_url": "https://api.github.com/users/achow101/following%7B/other_user%7D",
      "gists_url": "https://api.github.com/users/achow101/gists%7B/gist_id%7D",
      "starred_url": "https://api.github.com/users/achow101/starred%7B/owner%7D%7B/repo%7D",
      "subscriptions_url": "https://api.github.com/users/achow101/subscriptions",
      "organizations_url": "https://api.github.com/users/achow101/orgs",
      "repos_url": "https://api.github.com/users/achow101/repos",
      "events_url": "https://api.github.com/users/achow101/events%7B/privacy%7D",
      "received_events_url": "https://api.github.com/users/achow101/received_events",
      "type": "User",
      "site_admin": false
    },
    "assignees": [
      {
        "login": "achow101",
        "id": 3782274,
        "node_id": "MDQ6VXNlcjM3ODIyNzQ=",
        "avatar_url": "https://avatars.githubusercontent.com/u/3782274?v=4",
        "gravatar_id": "",
        "url": "https://api.github.com/users/achow101",
        "html_url": "https://github.com/achow101",
        "followers_url": "https://api.github.com/users/achow101/followers",
        "following_url": "https://api.github.com/users/achow101/following%7B/other_user%7D",
        "gists_url": "https://api.github.com/users/achow101/gists%7B/gist_id%7D",
        "starred_url": "https://api.github.com/users/achow101/starred%7B/owner%7D%7B/repo%7D",
        "subscriptions_url": "https://api.github.com/users/achow101/subscriptions",
        "organizations_url": "https://api.github.com/users/achow101/orgs",
        "repos_url": "https://api.github.com/users/achow101/repos",
        "events_url": "https://api.github.com/users/achow101/events%7B/privacy%7D",
        "received_events_url": "https://api.github.com/users/achow101/received_events",
        "type": "User",
        "site_admin": false
      }
    ],
    "requested_reviewers": [],
    "requested_teams": [],
    "rebaseable": false,
    "head": {
      "label": "theStack:202212-walletdb-refactor_simplify_findwallettx",
      "ref": "202212-walletdb-refactor_simplify_findwallettx",
      "sha": "f496528556a67107d3d75d9c2ae345f7f4565d77",
      "user": {
        "login": "theStack",
        "id": 91535,
        "node_id": "MDQ6VXNlcjkxNTM1",
        "avatar_url": "https://avatars.githubusercontent.com/u/91535?v=4",
        "gravatar_id": "",
        "url": "https://api.github.com/users/theStack",
        "html_url": "https://github.com/theStack",
        "followers_url": "https://api.github.com/users/theStack/followers",
        "following_url": "https://api.github.com/users/theStack/following%7B/other_user%7D",
        "gists_url": "https://api.github.com/users/theStack/gists%7B/gist_id%7D",
        "starred_url": "https://api.github.com/users/theStack/starred%7B/owner%7D%7B/repo%7D",
        "subscriptions_url": "https://api.github.com/users/theStack/subscriptions",
        "organizations_url": "https://api.github.com/users/theStack/orgs",
        "repos_url": "https://api.github.com/users/theStack/repos",
        "events_url": "https://api.github.com/users/theStack/events%7B/privacy%7D",
        "received_events_url": "https://api.github.com/users/theStack/received_events",
        "type": "User",
        "site_admin": false
      },
      "repo": {
        "id": 204970720,
        "node_id": "MDEwOlJlcG9zaXRvcnkyMDQ5NzA3MjA=",
        "name": "bitcoin",
        "full_name": "theStack/bitcoin",
        "owner": {
          "login": "theStack",
          "id": 91535,
          "node_id": "MDQ6VXNlcjkxNTM1",
          "avatar_url": "https://avatars.githubusercontent.com/u/91535?v=4",
          "gravatar_id": "",
          "url": "https://api.github.com/users/theStack",
          "html_url": "https://github.com/theStack",
          "followers_url": "https://api.github.com/users/theStack/followers",
          "following_url": "https://api.github.com/users/theStack/following%7B/other_user%7D",
          "gists_url": "https://api.github.com/users/theStack/gists%7B/gist_id%7D",
          "starred_url": "https://api.github.com/users/theStack/starred%7B/owner%7D%7B/repo%7D",
          "subscriptions_url": "https://api.github.com/users/theStack/subscriptions",
          "organizations_url": "https://api.github.com/users/theStack/orgs",
          "repos_url": "https://api.github.com/users/theStack/repos",
          "events_url": "https://api.github.com/users/theStack/events%7B/privacy%7D",
          "received_events_url": "https://api.github.com/users/theStack/received_events",
          "type": "User",
          "site_admin": false
        },
        "private": false,
        "html_url": "https://github.com/theStack/bitcoin",
        "description": "Bitcoin Core integration/staging tree",
        "fork": true,
        "url": "https://api.github.com/repos/theStack/bitcoin",
        "archive_url": "https://api.github.com/repos/theStack/bitcoin/%7Barchive_format%7D%7B/ref%7D",
        "assignees_url": "https://api.github.com/repos/theStack/bitcoin/assignees%7B/user%7D",
        "blobs_url": "https://api.github.com/repos/theStack/bitcoin/git/blobs%7B/sha%7D",
        "branches_url": "https://api.github.com/repos/theStack/bitcoin/branches%7B/branch%7D",
        "collaborators_url": "https://api.github.com/repos/theStack/bitcoin/collaborators%7B/collaborator%7D",
        "comments_url": "https://api.github.com/repos/theStack/bitcoin/comments%7B/number%7D",
        "commits_url": "https://api.github.com/repos/theStack/bitcoin/commits%7B/sha%7D",
        "compare_url": "https://api.github.com/repos/theStack/bitcoin/compare/%7Bbase%7D...%7Bhead%7D",
        "contents_url": "https://api.github.com/repos/theStack/bitcoin/contents/%7B+path%7D",
        "contributors_url": "https://api.github.com/repos/theStack/bitcoin/contributors",
        "deployments_url": "https://api.github.com/repos/theStack/bitcoin/deployments",
        "downloads_url": "https://api.github.com/repos/theStack/bitcoin/downloads",
        "events_url": "https://api.github.com/repos/theStack/bitcoin/events",
        "forks_url": "https://api.github.com/repos/theStack/bitcoin/forks",
        "git_commits_url": "https://api.github.com/repos/theStack/bitcoin/git/commits%7B/sha%7D",
        "git_refs_url": "https://api.github.com/repos/theStack/bitcoin/git/refs%7B/sha%7D",
        "git_tags_url": "https://api.github.com/repos/theStack/bitcoin/git/tags%7B/sha%7D",
        "git_url": "git://github.com/theStack/bitcoin.git",
        "issue_comment_url": "https://api.github.com/repos/theStack/bitcoin/issues/comments%7B/number%7D",
        "issue_events_url": "https://api.github.com/repos/theStack/bitcoin/issues/events%7B/number%7D",
        "issues_url": "https://api.github.com/repos/theStack/bitcoin/issues%7B/number%7D",
        "keys_url": "https://api.github.com/repos/theStack/bitcoin/keys%7B/key_id%7D",
        "labels_url": "https://api.github.com/repos/theStack/bitcoin/labels%7B/name%7D",
        "languages_url": "https://api.github.com/repos/theStack/bitcoin/languages",
        "merges_url": "https://api.github.com/repos/theStack/bitcoin/merges",
        "milestones_url": "https://api.github.com/repos/theStack/bitcoin/milestones%7B/number%7D",
        "notifications_url": "https://api.github.com/repos/theStack/bitcoin/notifications%7B?since,all,participating}",
        "pulls_url": "https://api.github.com/repos/theStack/bitcoin/pulls%7B/number%7D",
        "releases_url": "https://api.github.com/repos/theStack/bitcoin/releases%7B/id%7D",
        "ssh_url": "git@github.com:theStack/bitcoin.git",
        "stargazers_url": "https://api.github.com/repos/theStack/bitcoin/stargazers",
        "statuses_url": "https://api.github.com/repos/theStack/bitcoin/statuses/%7Bsha%7D",
        "subscribers_url": "https://api.github.com/repos/theStack/bitcoin/subscribers",
        "subscription_url": "https://api.github.com/repos/theStack/bitcoin/subscription",
        "tags_url": "https://api.github.com/repos/theStack/bitcoin/tags",
        "teams_url": "https://api.github.com/repos/theStack/bitcoin/teams",
        "trees_url": "https://api.github.com/repos/theStack/bitcoin/git/trees%7B/sha%7D",
        "clone_url": "https://github.com/theStack/bitcoin.git",
        "hooks_url": "https://api.github.com/repos/theStack/bitcoin/hooks",
        "svn_url": "https://github.com/theStack/bitcoin",
        "homepage": "https://bitcoincore.org/en/download",
        "language": "C++",
        "forks_count": 0,
        "stargazers_count": 0,
        "watchers_count": 0,
        "size": 219313,
        "default_branch": "master",
        "open_issues_count": 0,
        "is_template": false,
        "topics": [],
        "has_issues": false,
        "has_projects": true,
        "has_wiki": false,
        "has_pages": false,
        "has_downloads": false,
        "archived": false,
        "disabled": false,
        "visibility": "public",
        "pushed_at": "2023-08-02T23:26:22Z",
        "created_at": "2019-08-28T15:59:29Z",
        "updated_at": "2022-12-07T18:05:55Z",
        "license": {
          "key": "mit",
          "name": "MIT License",
          "node_id": "MDc6TGljZW5zZTEz",
          "spdx_id": "MIT",
          "url": "https://api.github.com/licenses/mit",
          "html_url": null,
          "description": null,
          "implementation": null,
          "permissions": null,
          "conditions": null,
          "limitations": null,
          "body": null,
          "featured": null
        }
      }
    },
    "base": {
      "label": "bitcoin:master",
      "ref": "master",
      "sha": "ba47a4ba97e924fb628849754c78d9cd10841c31",
      "user": {
        "login": "bitcoin",
        "id": 528860,
        "node_id": "MDEyOk9yZ2FuaXphdGlvbjUyODg2MA==",
        "avatar_url": "https://avatars.githubusercontent.com/u/528860?v=4",
        "gravatar_id": "",
        "url": "https://api.github.com/users/bitcoin",
        "html_url": "https://github.com/bitcoin",
        "followers_url": "https://api.github.com/users/bitcoin/followers",
        "following_url": "https://api.github.com/users/bitcoin/following%7B/other_user%7D",
        "gists_url": "https://api.github.com/users/bitcoin/gists%7B/gist_id%7D",
        "starred_url": "https://api.github.com/users/bitcoin/starred%7B/owner%7D%7B/repo%7D",
        "subscriptions_url": "https://api.github.com/users/bitcoin/subscriptions",
        "organizations_url": "https://api.github.com/users/bitcoin/orgs",
        "repos_url": "https://api.github.com/users/bitcoin/repos",
        "events_url": "https://api.github.com/users/bitcoin/events%7B/privacy%7D",
        "received_events_url": "https://api.github.com/users/bitcoin/received_events",
        "type": "Organization",
        "site_admin": false
      },
      "repo": {
        "id": 1181927,
        "node_id": "MDEwOlJlcG9zaXRvcnkxMTgxOTI3",
        "name": "bitcoin",
        "full_name": "bitcoin/bitcoin",
        "owner": {
          "login": "bitcoin",
          "id": 528860,
          "node_id": "MDEyOk9yZ2FuaXphdGlvbjUyODg2MA==",
          "avatar_url": "https://avatars.githubusercontent.com/u/528860?v=4",
          "gravatar_id": "",
          "url": "https://api.github.com/users/bitcoin",
          "html_url": "https://github.com/bitcoin",
          "followers_url": "https://api.github.com/users/bitcoin/followers",
          "following_url": "https://api.github.com/users/bitcoin/following%7B/other_user%7D",
          "gists_url": "https://api.github.com/users/bitcoin/gists%7B/gist_id%7D",
          "starred_url": "https://api.github.com/users/bitcoin/starred%7B/owner%7D%7B/repo%7D",
          "subscriptions_url": "https://api.github.com/users/bitcoin/subscriptions",
          "organizations_url": "https://api.github.com/users/bitcoin/orgs",
          "repos_url": "https://api.github.com/users/bitcoin/repos",
          "events_url": "https://api.github.com/users/bitcoin/events%7B/privacy%7D",
          "received_events_url": "https://api.github.com/users/bitcoin/received_events",
          "type": "Organization",
          "site_admin": false
        },
        "private": false,
        "html_url": "https://github.com/bitcoin/bitcoin",
        "description": "Bitcoin Core integration/staging tree",
        "fork": false,
        "url": "https://api.github.com/repos/bitcoin/bitcoin",
        "archive_url": "https://api.github.com/repos/bitcoin/bitcoin/%7Barchive_format%7D%7B/ref%7D",
        "assignees_url": "https://api.github.com/repos/bitcoin/bitcoin/assignees%7B/user%7D",
        "blobs_url": "https://api.github.com/repos/bitcoin/bitcoin/git/blobs%7B/sha%7D",
        "branches_url": "https://api.github.com/repos/bitcoin/bitcoin/branches%7B/branch%7D",
        "collaborators_url": "https://api.github.com/repos/bitcoin/bitcoin/collaborators%7B/collaborator%7D",
        "comments_url": "https://api.github.com/repos/bitcoin/bitcoin/comments%7B/number%7D",
        "commits_url": "https://api.github.com/repos/bitcoin/bitcoin/commits%7B/sha%7D",
        "compare_url": "https://api.github.com/repos/bitcoin/bitcoin/compare/%7Bbase%7D...%7Bhead%7D",
        "contents_url": "https://api.github.com/repos/bitcoin/bitcoin/contents/%7B+path%7D",
        "contributors_url": "https://api.github.com/repos/bitcoin/bitcoin/contributors",
        "deployments_url": "https://api.github.com/repos/bitcoin/bitcoin/deployments",
        "downloads_url": "https://api.github.com/repos/bitcoin/bitcoin/downloads",
        "events_url": "https://api.github.com/repos/bitcoin/bitcoin/events",
        "forks_url": "https://api.github.com/repos/bitcoin/bitcoin/forks",
        "git_commits_url": "https://api.github.com/repos/bitcoin/bitcoin/git/commits%7B/sha%7D",
        "git_refs_url": "https://api.github.com/repos/bitcoin/bitcoin/git/refs%7B/sha%7D",
        "git_tags_url": "https://api.github.com/repos/bitcoin/bitcoin/git/tags%7B/sha%7D",
        "git_url": "git://github.com/bitcoin/bitcoin.git",
        "issue_comment_url": "https://api.github.com/repos/bitcoin/bitcoin/issues/comments%7B/number%7D",
        "issue_events_url": "https://api.github.com/repos/bitcoin/bitcoin/issues/events%7B/number%7D",
        "issues_url": "https://api.github.com/repos/bitcoin/bitcoin/issues%7B/number%7D",
        "keys_url": "https://api.github.com/repos/bitcoin/bitcoin/keys%7B/key_id%7D",
        "labels_url": "https://api.github.com/repos/bitcoin/bitcoin/labels%7B/name%7D",
        "languages_url": "https://api.github.com/repos/bitcoin/bitcoin/languages",
        "merges_url": "https://api.github.com/repos/bitcoin/bitcoin/merges",
        "milestones_url": "https://api.github.com/repos/bitcoin/bitcoin/milestones%7B/number%7D",
        "notifications_url": "https://api.github.com/repos/bitcoin/bitcoin/notifications%7B?since,all,participating}",
        "pulls_url": "https://api.github.com/repos/bitcoin/bitcoin/pulls%7B/number%7D",
        "releases_url": "https://api.github.com/repos/bitcoin/bitcoin/releases%7B/id%7D",
        "ssh_url": "git@github.com:bitcoin/bitcoin.git",
        "stargazers_url": "https://api.github.com/repos/bitcoin/bitcoin/stargazers",
        "statuses_url": "https://api.github.com/repos/bitcoin/bitcoin/statuses/%7Bsha%7D",
        "subscribers_url": "https://api.github.com/repos/bitcoin/bitcoin/subscribers",
        "subscription_url": "https://api.github.com/repos/bitcoin/bitcoin/subscription",
        "tags_url": "https://api.github.com/repos/bitcoin/bitcoin/tags",
        "teams_url": "https://api.github.com/repos/bitcoin/bitcoin/teams",
        "trees_url": "https://api.github.com/repos/bitcoin/bitcoin/git/trees%7B/sha%7D",
        "clone_url": "https://github.com/bitcoin/bitcoin.git",
        "hooks_url": "https://api.github.com/repos/bitcoin/bitcoin/hooks",
        "svn_url": "https://github.com/bitcoin/bitcoin",
        "homepage": "https://bitcoincore.org/en/download",
        "language": "C++",
        "forks_count": 35476,
        "stargazers_count": 70608,
        "watchers_count": 70608,
        "size": 236222,
        "default_branch": "master",
        "open_issues_count": 673,
        "is_template": false,
        "topics": [
          "bitcoin",
          "c-plus-plus",
          "cryptocurrency",
          "cryptography",
          "p2p"
        ],
        "has_issues": true,
        "has_projects": true,
        "has_wiki": false,
        "has_pages": false,
        "has_downloads": false,
        "archived": false,
        "disabled": false,
        "visibility": "public",
        "pushed_at": "2023-08-03T00:03:27Z",
        "created_at": "2010-12-19T15:16:43Z",
        "updated_at": "2023-08-02T18:21:18Z",
        "license": {
          "key": "mit",
          "name": "MIT License",
          "node_id": "MDc6TGljZW5zZTEz",
          "spdx_id": "MIT",
          "url": "https://api.github.com/licenses/mit",
          "html_url": null,
          "description": null,
          "implementation": null,
          "permissions": null,
          "conditions": null,
          "limitations": null,
          "body": null,
          "featured": null
        }
      }
    },
    "_links": {
      "self": {
        "href": "https://api.github.com/repos/bitcoin/bitcoin/pulls/26702"
      }
    },
    "author_association": "CONTRIBUTOR",
    "draft": false,
    "additions": 5,
    "deletions": 8,
    "changed_files": 2,
    "commits": 1,
    "review_comments": 0,
    "comments": 4
  },
  "events": [
    {
      "event": "committed",
      "id": null,
      "node_id": "C_kwDOABII59oAKGY0OTY1Mjg1NTZhNjcxMDdkM2Q3NWQ5YzJhZTM0NWY3ZjQ1NjVkNzc",
      "url": "https://api.github.com/repos/bitcoin/bitcoin/git/commits/f496528556a67107d3d75d9c2ae345f7f4565d77",
      "actor": null,
      "commit_id": null,
      "commit_url": null,
      "created_at": null,
      "html_url": "https://github.com/bitcoin/bitcoin/commit/f496528556a67107d3d75d9c2ae345f7f4565d77",
      "tree": {
        "sha": "71b92cd5e304d1a911ea63caa94d1b638a98f02e",
        "url": "https://api.github.com/repos/bitcoin/bitcoin/git/trees/71b92cd5e304d1a911ea63caa94d1b638a98f02e"
      },
      "verification": {
        "verified": false,
        "reason": "unsigned",
        "payload": null,
        "signature": null
      },
      "parents": [
        {
          "url": "https://api.github.com/repos/bitcoin/bitcoin/git/commits/ba47a4ba97e924fb628849754c78d9cd10841c31",
          "sha": "ba47a4ba97e924fb628849754c78d9cd10841c31",
          "html_url": "https://github.com/bitcoin/bitcoin/commit/ba47a4ba97e924fb628849754c78d9cd10841c31"
        }
      ],
      "message": "walletdb: refactor: drop unused `FindWalletTx` parameter and rename\n\nSince commit 3340dbadd38f5624642cf0e14dddbe6f83a3863b (\"Remove\n-zapwallettxes\"), the `FindWalletTx` helper is only needed to read tx\nhashes, so drop the other parameter and rename the method accordingly.",
      "committer": {
        "name": "Sebastian Falbesoner",
        "email": "sebastian.falbesoner@gmail.com",
        "date": "2022-12-14T23:58:12Z"
      },
      "author": {
        "name": "Sebastian Falbesoner",
        "email": "sebastian.falbesoner@gmail.com",
        "date": "2022-12-14T23:58:12Z"
      },
      "sha": "f496528556a67107d3d75d9c2ae345f7f4565d77"
    },
    {
      "event": "commented",
      "id": 1352393871,
      "node_id": "IC_kwDOABII585Qm-SP",
      "url": "https://api.github.com/repos/bitcoin/bitcoin/issues/comments/1352393871",
      "actor": {
        "login": "DrahtBot",
        "id": 39886733,
        "node_id": "MDQ6VXNlcjM5ODg2NzMz",
        "avatar_url": "https://avatars.githubusercontent.com/u/39886733?v=4",
        "gravatar_id": "",
        "url": "https://api.github.com/users/DrahtBot",
        "html_url": "https://github.com/DrahtBot",
        "followers_url": "https://api.github.com/users/DrahtBot/followers",
        "following_url": "https://api.github.com/users/DrahtBot/following%7B/other_user%7D",
        "gists_url": "https://api.github.com/users/DrahtBot/gists%7B/gist_id%7D",
        "starred_url": "https://api.github.com/users/DrahtBot/starred%7B/owner%7D%7B/repo%7D",
        "subscriptions_url": "https://api.github.com/users/DrahtBot/subscriptions",
        "organizations_url": "https://api.github.com/users/DrahtBot/orgs",
        "repos_url": "https://api.github.com/users/DrahtBot/repos",
        "events_url": "https://api.github.com/users/DrahtBot/events%7B/privacy%7D",
        "received_events_url": "https://api.github.com/users/DrahtBot/received_events",
        "type": "User",
        "site_admin": false
      },
      "commit_id": null,
      "commit_url": null,
      "created_at": "2022-12-15T00:20:22Z",
      "updated_at": "2023-01-03T16:46:16Z",
      "author_association": "CONTRIBUTOR",
      "body": "<!--e57a25ab6845829454e8d69fc972939a-->\n\nThe following sections might be updated with supplementary metadata relevant to reviewers and maintainers.\n\n<!--021abf342d371248e50ceaed478a90ca-->\n### Reviews\nSee [the guideline](https://github.com/bitcoin/bitcoin/blob/master/CONTRIBUTING.md#code-review) for information on the review process.\n| Type | Reviewers |\n| ---- | --------- |\n| ACK | [S3RK](https://github.com/bitcoin/bitcoin/pull/26702#issuecomment-1352707501), [vincenzopalazzo](https://github.com/bitcoin/bitcoin/pull/26702#pullrequestreview-1221895154), [achow101](https://github.com/bitcoin/bitcoin/pull/26702#issuecomment-1369991470) |\n\nIf your review is incorrectly listed, please react with 👎 to this comment and the bot will ignore it on the next update.\n<!--174a7506f384e20aa4161008e828411d-->\n### Conflicts\nReviewers, this pull request conflicts with the following ones:\n\n* [#25766](https://github.com/bitcoin/bitcoin/pull/25766) (wallet: Include a signature with encrypted keys to mitigate a wallet scam by achow101)\n\nIf you consider this pull request important, please also help to review the conflicting pull requests. Ideally, start with the one that should be merged first.\n",
      "user": {
        "login": "DrahtBot",
        "id": 39886733,
        "node_id": "MDQ6VXNlcjM5ODg2NzMz",
        "avatar_url": "https://avatars.githubusercontent.com/u/39886733?v=4",
        "gravatar_id": "",
        "url": "https://api.github.com/users/DrahtBot",
        "html_url": "https://github.com/DrahtBot",
        "followers_url": "https://api.github.com/users/DrahtBot/followers",
        "following_url": "https://api.github.com/users/DrahtBot/following%7B/other_user%7D",
        "gists_url": "https://api.github.com/users/DrahtBot/gists%7B/gist_id%7D",
        "starred_url": "https://api.github.com/users/DrahtBot/starred%7B/owner%7D%7B/repo%7D",
        "subscriptions_url": "https://api.github.com/users/DrahtBot/subscriptions",
        "organizations_url": "https://api.github.com/users/DrahtBot/orgs",
        "repos_url": "https://api.github.com/users/DrahtBot/repos",
        "events_url": "https://api.github.com/users/DrahtBot/events%7B/privacy%7D",
        "received_events_url": "https://api.github.com/users/DrahtBot/received_events",
        "type": "User",
        "site_admin": false
      },
      "html_url": "https://github.com/bitcoin/bitcoin/pull/26702#issuecomment-1352393871",
      "issue_url": "https://api.github.com/repos/bitcoin/bitcoin/issues/26702"
    },
    {
      "event": "commented",
      "id": 1352707501,
      "node_id": "IC_kwDOABII585QoK2t",
      "url": "https://api.github.com/repos/bitcoin/bitcoin/issues/comments/1352707501",
      "actor": {
        "login": "S3RK",
        "id": 1466284,
        "node_id": "MDQ6VXNlcjE0NjYyODQ=",
        "avatar_url": "https://avatars.githubusercontent.com/u/1466284?v=4",
        "gravatar_id": "",
        "url": "https://api.github.com/users/S3RK",
        "html_url": "https://github.com/S3RK",
        "followers_url": "https://api.github.com/users/S3RK/followers",
        "following_url": "https://api.github.com/users/S3RK/following%7B/other_user%7D",
        "gists_url": "https://api.github.com/users/S3RK/gists%7B/gist_id%7D",
        "starred_url": "https://api.github.com/users/S3RK/starred%7B/owner%7D%7B/repo%7D",
        "subscriptions_url": "https://api.github.com/users/S3RK/subscriptions",
        "organizations_url": "https://api.github.com/users/S3RK/orgs",
        "repos_url": "https://api.github.com/users/S3RK/repos",
        "events_url": "https://api.github.com/users/S3RK/events%7B/privacy%7D",
        "received_events_url": "https://api.github.com/users/S3RK/received_events",
        "type": "User",
        "site_admin": false
      },
      "commit_id": null,
      "commit_url": null,
      "created_at": "2022-12-15T08:21:13Z",
      "updated_at": "2022-12-15T08:21:13Z",
      "author_association": "CONTRIBUTOR",
      "body": "code review ACK f496528556a67107d3d75d9c2ae345f7f4565d77",
      "user": {
        "login": "S3RK",
        "id": 1466284,
        "node_id": "MDQ6VXNlcjE0NjYyODQ=",
        "avatar_url": "https://avatars.githubusercontent.com/u/1466284?v=4",
        "gravatar_id": "",
        "url": "https://api.github.com/users/S3RK",
        "html_url": "https://github.com/S3RK",
        "followers_url": "https://api.github.com/users/S3RK/followers",
        "following_url": "https://api.github.com/users/S3RK/following%7B/other_user%7D",
        "gists_url": "https://api.github.com/users/S3RK/gists%7B/gist_id%7D",
        "starred_url": "https://api.github.com/users/S3RK/starred%7B/owner%7D%7B/repo%7D",
        "subscriptions_url": "https://api.github.com/users/S3RK/subscriptions",
        "organizations_url": "https://api.github.com/users/S3RK/orgs",
        "repos_url": "https://api.github.com/users/S3RK/repos",
        "events_url": "https://api.github.com/users/S3RK/events%7B/privacy%7D",
        "received_events_url": "https://api.github.com/users/S3RK/received_events",
        "type": "User",
        "site_admin": false
      },
      "html_url": "https://github.com/bitcoin/bitcoin/pull/26702#issuecomment-1352707501",
      "issue_url": "https://api.github.com/repos/bitcoin/bitcoin/issues/26702"
    },
    {
      "event": "labeled",
      "id": 8044800230,
      "node_id": "LE_lADOABII585ZQ4qRzwAAAAHfgejm",
      "url": "https://api.github.com/repos/bitcoin/bitcoin/issues/events/8044800230",
      "actor": {
        "login": "MarcoFalke",
        "id": 6399679,
        "node_id": "MDQ6VXNlcjYzOTk2Nzk=",
        "avatar_url": "https://avatars.githubusercontent.com/u/6399679?v=4",
        "gravatar_id": "",
        "url": "https://api.github.com/users/MarcoFalke",
        "html_url": "https://github.com/MarcoFalke",
        "followers_url": "https://api.github.com/users/MarcoFalke/followers",
        "following_url": "https://api.github.com/users/MarcoFalke/following%7B/other_user%7D",
        "gists_url": "https://api.github.com/users/MarcoFalke/gists%7B/gist_id%7D",
        "starred_url": "https://api.github.com/users/MarcoFalke/starred%7B/owner%7D%7B/repo%7D",
        "subscriptions_url": "https://api.github.com/users/MarcoFalke/subscriptions",
        "organizations_url": "https://api.github.com/users/MarcoFalke/orgs",
        "repos_url": "https://api.github.com/users/MarcoFalke/repos",
        "events_url": "https://api.github.com/users/MarcoFalke/events%7B/privacy%7D",
        "received_events_url": "https://api.github.com/users/MarcoFalke/received_events",
        "type": "User",
        "site_admin": false
      },
      "commit_id": null,
      "commit_url": null,
      "created_at": "2022-12-15T08:25:04Z",
      "label": {
        "name": "Refactoring",
        "color": "E6F6D6"
      }
    },
    {
      "event": "unlabeled",
      "id": 8044801039,
      "node_id": "UNLE_lADOABII585ZQ4qRzwAAAAHfgewP",
      "url": "https://api.github.com/repos/bitcoin/bitcoin/issues/events/8044801039",
      "actor": {
        "login": "MarcoFalke",
        "id": 6399679,
        "node_id": "MDQ6VXNlcjYzOTk2Nzk=",
        "avatar_url": "https://avatars.githubusercontent.com/u/6399679?v=4",
        "gravatar_id": "",
        "url": "https://api.github.com/users/MarcoFalke",
        "html_url": "https://github.com/MarcoFalke",
        "followers_url": "https://api.github.com/users/MarcoFalke/followers",
        "following_url": "https://api.github.com/users/MarcoFalke/following%7B/other_user%7D",
        "gists_url": "https://api.github.com/users/MarcoFalke/gists%7B/gist_id%7D",
        "starred_url": "https://api.github.com/users/MarcoFalke/starred%7B/owner%7D%7B/repo%7D",
        "subscriptions_url": "https://api.github.com/users/MarcoFalke/subscriptions",
        "organizations_url": "https://api.github.com/users/MarcoFalke/orgs",
        "repos_url": "https://api.github.com/users/MarcoFalke/repos",
        "events_url": "https://api.github.com/users/MarcoFalke/events%7B/privacy%7D",
        "received_events_url": "https://api.github.com/users/MarcoFalke/received_events",
        "type": "User",
        "site_admin": false
      },
      "commit_id": null,
      "commit_url": null,
      "created_at": "2022-12-15T08:25:10Z",
      "label": {
        "name": "Refactoring",
        "color": "E6F6D6"
      }
    },
    {
      "event": "renamed",
      "id": 8044801942,
      "node_id": "RTE_lADOABII585ZQ4qRzwAAAAHfge-W",
      "url": "https://api.github.com/repos/bitcoin/bitcoin/issues/events/8044801942",
      "actor": {
        "login": "MarcoFalke",
        "id": 6399679,
        "node_id": "MDQ6VXNlcjYzOTk2Nzk=",
        "avatar_url": "https://avatars.githubusercontent.com/u/6399679?v=4",
        "gravatar_id": "",
        "url": "https://api.github.com/users/MarcoFalke",
        "html_url": "https://github.com/MarcoFalke",
        "followers_url": "https://api.github.com/users/MarcoFalke/followers",
        "following_url": "https://api.github.com/users/MarcoFalke/following%7B/other_user%7D",
        "gists_url": "https://api.github.com/users/MarcoFalke/gists%7B/gist_id%7D",
        "starred_url": "https://api.github.com/users/MarcoFalke/starred%7B/owner%7D%7B/repo%7D",
        "subscriptions_url": "https://api.github.com/users/MarcoFalke/subscriptions",
        "organizations_url": "https://api.github.com/users/MarcoFalke/orgs",
        "repos_url": "https://api.github.com/users/MarcoFalke/repos",
        "events_url": "https://api.github.com/users/MarcoFalke/events%7B/privacy%7D",
        "received_events_url": "https://api.github.com/users/MarcoFalke/received_events",
        "type": "User",
        "site_admin": false
      },
      "commit_id": null,
      "commit_url": null,
      "created_at": "2022-12-15T08:25:17Z",
      "rename": {
        "from": "walletdb: refactor: drop unused `FindWalletTx` parameter and rename",
        "to": "refactor: walletdb: drop unused `FindWalletTx` parameter and rename"
      }
    },
    {
      "event": "labeled",
      "id": 8044802203,
      "node_id": "LE_lADOABII585ZQ4qRzwAAAAHfgfCb",
      "url": "https://api.github.com/repos/bitcoin/bitcoin/issues/events/8044802203",
      "actor": {
        "login": "DrahtBot",
        "id": 39886733,
        "node_id": "MDQ6VXNlcjM5ODg2NzMz",
        "avatar_url": "https://avatars.githubusercontent.com/u/39886733?v=4",
        "gravatar_id": "",
        "url": "https://api.github.com/users/DrahtBot",
        "html_url": "https://github.com/DrahtBot",
        "followers_url": "https://api.github.com/users/DrahtBot/followers",
        "following_url": "https://api.github.com/users/DrahtBot/following%7B/other_user%7D",
        "gists_url": "https://api.github.com/users/DrahtBot/gists%7B/gist_id%7D",
        "starred_url": "https://api.github.com/users/DrahtBot/starred%7B/owner%7D%7B/repo%7D",
        "subscriptions_url": "https://api.github.com/users/DrahtBot/subscriptions",
        "organizations_url": "https://api.github.com/users/DrahtBot/orgs",
        "repos_url": "https://api.github.com/users/DrahtBot/repos",
        "events_url": "https://api.github.com/users/DrahtBot/events%7B/privacy%7D",
        "received_events_url": "https://api.github.com/users/DrahtBot/received_events",
        "type": "User",
        "site_admin": false
      },
      "commit_id": null,
      "commit_url": null,
      "created_at": "2022-12-15T08:25:19Z",
      "label": {
        "name": "Refactoring",
        "color": "E6F6D6"
      }
    },
    {
      "event": "cross-referenced",
      "id": null,
      "node_id": null,
      "url": null,
      "actor": {
        "login": "DrahtBot",
        "id": 39886733,
        "node_id": "MDQ6VXNlcjM5ODg2NzMz",
        "avatar_url": "https://avatars.githubusercontent.com/u/39886733?v=4",
        "gravatar_id": "",
        "url": "https://api.github.com/users/DrahtBot",
        "html_url": "https://github.com/DrahtBot",
        "followers_url": "https://api.github.com/users/DrahtBot/followers",
        "following_url": "https://api.github.com/users/DrahtBot/following%7B/other_user%7D",
        "gists_url": "https://api.github.com/users/DrahtBot/gists%7B/gist_id%7D",
        "starred_url": "https://api.github.com/users/DrahtBot/starred%7B/owner%7D%7B/repo%7D",
        "subscriptions_url": "https://api.github.com/users/DrahtBot/subscriptions",
        "organizations_url": "https://api.github.com/users/DrahtBot/orgs",
        "repos_url": "https://api.github.com/users/DrahtBot/repos",
        "events_url": "https://api.github.com/users/DrahtBot/events%7B/privacy%7D",
        "received_events_url": "https://api.github.com/users/DrahtBot/received_events",
        "type": "User",
        "site_admin": false
      },
      "commit_id": null,
      "commit_url": null,
      "created_at": "2022-12-15T16:26:02Z",
      "updated_at": "2022-12-15T16:26:02Z",
      "source": {
        "issue": {
          "id": 1324992735,
          "node_id": "PR_kwDOABII5848deu9",
          "url": "https://api.github.com/repos/bitcoin/bitcoin/issues/25766",
          "repository_url": "https://api.github.com/repos/bitcoin/bitcoin",
          "labels_url": "https://api.github.com/repos/bitcoin/bitcoin/issues/25766/labels%7B/name%7D",
          "comments_url": "https://api.github.com/repos/bitcoin/bitcoin/issues/25766/comments",
          "events_url": "https://api.github.com/repos/bitcoin/bitcoin/issues/25766/events",
          "html_url": "https://github.com/bitcoin/bitcoin/pull/25766",
          "number": 25766,
          "state": "closed",
          "state_reason": null,
          "title": "wallet: Include a signature with encrypted keys to mitigate a wallet scam",
          "body": "This PR adds a signature to the encrypted key records (`ckey` and `walletdescriptorckey`) which acts as an additional checksum. The signature is produced by the private key, and signs the encrypted private key data. It is a schnorr signature. The signature is verified when the encrypted key record is loaded, and if it fails to verify then the loading fails with a wallet corrupted error.\r\n\r\nThe purpose of doing this is to mitigate a common scam where users are given/sold a wallet file that contains \"encrypted\" private keys that correspond to several high valued UTXOs. However the \"encrypted\" keys are not actually encrypted, they are just garbage data. The signature allows the wallet to ensure that the private keys for the stated pubkeys was known at the time of encryption, so it should help mitigate this scam by making it harder for scammers to make high value UTXOs appear to be IsMine.\r\n\r\nThere is, of course, a downgrade attack where the scammer can continue to do this with a wallet that does not have signatures over the encrypted keys. To mitigate this, the user will get a warning when they open a wallet that has encrypted keys without signatures. When the wallet is next unlocked, the signatures will be generated and written to the wallet file.",
          "user": {
            "login": "achow101",
            "id": 3782274,
            "node_id": "MDQ6VXNlcjM3ODIyNzQ=",
            "avatar_url": "https://avatars.githubusercontent.com/u/3782274?v=4",
            "gravatar_id": "",
            "url": "https://api.github.com/users/achow101",
            "html_url": "https://github.com/achow101",
            "followers_url": "https://api.github.com/users/achow101/followers",
            "following_url": "https://api.github.com/users/achow101/following%7B/other_user%7D",
            "gists_url": "https://api.github.com/users/achow101/gists%7B/gist_id%7D",
            "starred_url": "https://api.github.com/users/achow101/starred%7B/owner%7D%7B/repo%7D",
            "subscriptions_url": "https://api.github.com/users/achow101/subscriptions",
            "organizations_url": "https://api.github.com/users/achow101/orgs",
            "repos_url": "https://api.github.com/users/achow101/repos",
            "events_url": "https://api.github.com/users/achow101/events%7B/privacy%7D",
            "received_events_url": "https://api.github.com/users/achow101/received_events",
            "type": "User",
            "site_admin": false
          },
          "labels": [
            {
              "id": 149424,
              "node_id": "MDU6TGFiZWwxNDk0MjQ=",
              "url": "https://api.github.com/repos/bitcoin/bitcoin/labels/Wallet",
              "name": "Wallet",
              "color": "08a781",
              "default": false
            }
          ],
          "assignees": [],
          "author_association": "MEMBER",
          "locked": false,
          "comments": 5,
          "pull_request": {
            "url": "https://api.github.com/repos/bitcoin/bitcoin/pulls/25766",
            "html_url": "https://github.com/bitcoin/bitcoin/pull/25766",
            "diff_url": "https://github.com/bitcoin/bitcoin/pull/25766.diff",
            "patch_url": "https://github.com/bitcoin/bitcoin/pull/25766.patch"
          },
          "closed_at": "2023-04-25T15:58:29Z",
          "created_at": "2022-08-01T21:17:56Z",
          "updated_at": "2023-04-25T15:58:29Z"
        },
        "type": "issue"
      }
    },
    {
      "event": "reviewed",
      "id": 1221895154,
      "node_id": "PRR_kwDOABII585I1KPy",
      "url": null,
      "actor": null,
      "commit_id": "f496528556a67107d3d75d9c2ae345f7f4565d77",
      "commit_url": null,
      "created_at": null,
      "author_association": "NONE",
      "body": "ACK https://github.com/bitcoin/bitcoin/pull/26702/commits/f496528556a67107d3d75d9c2ae345f7f4565d77",
      "user": {
        "login": "vincenzopalazzo",
        "id": 17150045,
        "node_id": "MDQ6VXNlcjE3MTUwMDQ1",
        "avatar_url": "https://avatars.githubusercontent.com/u/17150045?v=4",
        "gravatar_id": "",
        "url": "https://api.github.com/users/vincenzopalazzo",
        "html_url": "https://github.com/vincenzopalazzo",
        "followers_url": "https://api.github.com/users/vincenzopalazzo/followers",
        "following_url": "https://api.github.com/users/vincenzopalazzo/following%7B/other_user%7D",
        "gists_url": "https://api.github.com/users/vincenzopalazzo/gists%7B/gist_id%7D",
        "starred_url": "https://api.github.com/users/vincenzopalazzo/starred%7B/owner%7D%7B/repo%7D",
        "subscriptions_url": "https://api.github.com/users/vincenzopalazzo/subscriptions",
        "organizations_url": "https://api.github.com/users/vincenzopalazzo/orgs",
        "repos_url": "https://api.github.com/users/vincenzopalazzo/repos",
        "events_url": "https://api.github.com/users/vincenzopalazzo/events%7B/privacy%7D",
        "received_events_url": "https://api.github.com/users/vincenzopalazzo/received_events",
        "type": "User",
        "site_admin": false
      },
      "html_url": "https://github.com/bitcoin/bitcoin/pull/26702#pullrequestreview-1221895154",
      "submitted_at": "2022-12-17T21:10:24Z",
      "state": "APPROVED",
      "pull_request_url": "https://api.github.com/repos/bitcoin/bitcoin/pulls/26702"
    },
    {
      "event": "assigned",
      "id": 8067141029,
      "node_id": "AE_lADOABII585ZQ4qRzwAAAAHg1s2l",
      "url": "https://api.github.com/repos/bitcoin/bitcoin/issues/events/8067141029",
      "actor": {
        "login": "MarcoFalke",
        "id": 6399679,
        "node_id": "MDQ6VXNlcjYzOTk2Nzk=",
        "avatar_url": "https://avatars.githubusercontent.com/u/6399679?v=4",
        "gravatar_id": "",
        "url": "https://api.github.com/users/MarcoFalke",
        "html_url": "https://github.com/MarcoFalke",
        "followers_url": "https://api.github.com/users/MarcoFalke/followers",
        "following_url": "https://api.github.com/users/MarcoFalke/following%7B/other_user%7D",
        "gists_url": "https://api.github.com/users/MarcoFalke/gists%7B/gist_id%7D",
        "starred_url": "https://api.github.com/users/MarcoFalke/starred%7B/owner%7D%7B/repo%7D",
        "subscriptions_url": "https://api.github.com/users/MarcoFalke/subscriptions",
        "organizations_url": "https://api.github.com/users/MarcoFalke/orgs",
        "repos_url": "https://api.github.com/users/MarcoFalke/repos",
        "events_url": "https://api.github.com/users/MarcoFalke/events%7B/privacy%7D",
        "received_events_url": "https://api.github.com/users/MarcoFalke/received_events",
        "type": "User",
        "site_admin": false
      },
      "commit_id": null,
      "commit_url": null,
      "created_at": "2022-12-19T08:45:26Z",
      "assignee": {
        "login": "achow101",
        "id": 3782274,
        "node_id": "MDQ6VXNlcjM3ODIyNzQ=",
        "avatar_url": "https://avatars.githubusercontent.com/u/3782274?v=4",
        "gravatar_id": "",
        "url": "https://api.github.com/users/achow101",
        "html_url": "https://github.com/achow101",
        "followers_url": "https://api.github.com/users/achow101/followers",
        "following_url": "https://api.github.com/users/achow101/following%7B/other_user%7D",
        "gists_url": "https://api.github.com/users/achow101/gists%7B/gist_id%7D",
        "starred_url": "https://api.github.com/users/achow101/starred%7B/owner%7D%7B/repo%7D",
        "subscriptions_url": "https://api.github.com/users/achow101/subscriptions",
        "organizations_url": "https://api.github.com/users/achow101/orgs",
        "repos_url": "https://api.github.com/users/achow101/repos",
        "events_url": "https://api.github.com/users/achow101/events%7B/privacy%7D",
        "received_events_url": "https://api.github.com/users/achow101/received_events",
        "type": "User",
        "site_admin": false
      }
    },
    {
      "event": "commented",
      "id": 1369991470,
      "node_id": "IC_kwDOABII585RqGku",
      "url": "https://api.github.com/repos/bitcoin/bitcoin/issues/comments/1369991470",
      "actor": {
        "login": "achow101",
        "id": 3782274,
        "node_id": "MDQ6VXNlcjM3ODIyNzQ=",
        "avatar_url": "https://avatars.githubusercontent.com/u/3782274?v=4",
        "gravatar_id": "",
        "url": "https://api.github.com/users/achow101",
        "html_url": "https://github.com/achow101",
        "followers_url": "https://api.github.com/users/achow101/followers",
        "following_url": "https://api.github.com/users/achow101/following%7B/other_user%7D",
        "gists_url": "https://api.github.com/users/achow101/gists%7B/gist_id%7D",
        "starred_url": "https://api.github.com/users/achow101/starred%7B/owner%7D%7B/repo%7D",
        "subscriptions_url": "https://api.github.com/users/achow101/subscriptions",
        "organizations_url": "https://api.github.com/users/achow101/orgs",
        "repos_url": "https://api.github.com/users/achow101/repos",
        "events_url": "https://api.github.com/users/achow101/events%7B/privacy%7D",
        "received_events_url": "https://api.github.com/users/achow101/received_events",
        "type": "User",
        "site_admin": false
      },
      "commit_id": null,
      "commit_url": null,
      "created_at": "2023-01-03T16:46:12Z",
      "updated_at": "2023-01-03T16:46:12Z",
      "author_association": "MEMBER",
      "body": "ACK f496528556a67107d3d75d9c2ae345f7f4565d77",
      "user": {
        "login": "achow101",
        "id": 3782274,
        "node_id": "MDQ6VXNlcjM3ODIyNzQ=",
        "avatar_url": "https://avatars.githubusercontent.com/u/3782274?v=4",
        "gravatar_id": "",
        "url": "https://api.github.com/users/achow101",
        "html_url": "https://github.com/achow101",
        "followers_url": "https://api.github.com/users/achow101/followers",
        "following_url": "https://api.github.com/users/achow101/following%7B/other_user%7D",
        "gists_url": "https://api.github.com/users/achow101/gists%7B/gist_id%7D",
        "starred_url": "https://api.github.com/users/achow101/starred%7B/owner%7D%7B/repo%7D",
        "subscriptions_url": "https://api.github.com/users/achow101/subscriptions",
        "organizations_url": "https://api.github.com/users/achow101/orgs",
        "repos_url": "https://api.github.com/users/achow101/repos",
        "events_url": "https://api.github.com/users/achow101/events%7B/privacy%7D",
        "received_events_url": "https://api.github.com/users/achow101/received_events",
        "type": "User",
        "site_admin": false
      },
      "html_url": "https://github.com/bitcoin/bitcoin/pull/26702#issuecomment-1369991470",
      "issue_url": "https://api.github.com/repos/bitcoin/bitcoin/issues/26702"
    },
    {
      "event": "referenced",
      "id": 8144526172,
      "node_id": "REFE_lADOABII585ZQ4qRzwAAAAHlc5tc",
      "url": "https://api.github.com/repos/bitcoin/bitcoin/issues/events/8144526172",
      "actor": {
        "login": "achow101",
        "id": 3782274,
        "node_id": "MDQ6VXNlcjM3ODIyNzQ=",
        "avatar_url": "https://avatars.githubusercontent.com/u/3782274?v=4",
        "gravatar_id": "",
        "url": "https://api.github.com/users/achow101",
        "html_url": "https://github.com/achow101",
        "followers_url": "https://api.github.com/users/achow101/followers",
        "following_url": "https://api.github.com/users/achow101/following%7B/other_user%7D",
        "gists_url": "https://api.github.com/users/achow101/gists%7B/gist_id%7D",
        "starred_url": "https://api.github.com/users/achow101/starred%7B/owner%7D%7B/repo%7D",
        "subscriptions_url": "https://api.github.com/users/achow101/subscriptions",
        "organizations_url": "https://api.github.com/users/achow101/orgs",
        "repos_url": "https://api.github.com/users/achow101/repos",
        "events_url": "https://api.github.com/users/achow101/events%7B/privacy%7D",
        "received_events_url": "https://api.github.com/users/achow101/received_events",
        "type": "User",
        "site_admin": false
      },
      "commit_id": "1e6b384d592b2d1e036750dbbc62308483312225",
      "commit_url": "https://api.github.com/repos/bitcoin-core/gui/commits/1e6b384d592b2d1e036750dbbc62308483312225",
      "created_at": "2023-01-03T16:55:06Z"
    },
    {
      "event": "commented",
      "id": 1370003185,
      "node_id": "IC_kwDOABII585RqJbx",
      "url": "https://api.github.com/repos/bitcoin/bitcoin/issues/comments/1370003185",
      "actor": {
        "login": "fanquake",
        "id": 863730,
        "node_id": "MDQ6VXNlcjg2MzczMA==",
        "avatar_url": "https://avatars.githubusercontent.com/u/863730?v=4",
        "gravatar_id": "",
        "url": "https://api.github.com/users/fanquake",
        "html_url": "https://github.com/fanquake",
        "followers_url": "https://api.github.com/users/fanquake/followers",
        "following_url": "https://api.github.com/users/fanquake/following%7B/other_user%7D",
        "gists_url": "https://api.github.com/users/fanquake/gists%7B/gist_id%7D",
        "starred_url": "https://api.github.com/users/fanquake/starred%7B/owner%7D%7B/repo%7D",
        "subscriptions_url": "https://api.github.com/users/fanquake/subscriptions",
        "organizations_url": "https://api.github.com/users/fanquake/orgs",
        "repos_url": "https://api.github.com/users/fanquake/repos",
        "events_url": "https://api.github.com/users/fanquake/events%7B/privacy%7D",
        "received_events_url": "https://api.github.com/users/fanquake/received_events",
        "type": "User",
        "site_admin": false
      },
      "commit_id": null,
      "commit_url": null,
      "created_at": "2023-01-03T16:57:57Z",
      "updated_at": "2023-01-03T16:57:57Z",
      "author_association": "MEMBER",
      "body": "This has been merged.",
      "user": {
        "login": "fanquake",
        "id": 863730,
        "node_id": "MDQ6VXNlcjg2MzczMA==",
        "avatar_url": "https://avatars.githubusercontent.com/u/863730?v=4",
        "gravatar_id": "",
        "url": "https://api.github.com/users/fanquake",
        "html_url": "https://github.com/fanquake",
        "followers_url": "https://api.github.com/users/fanquake/followers",
        "following_url": "https://api.github.com/users/fanquake/following%7B/other_user%7D",
        "gists_url": "https://api.github.com/users/fanquake/gists%7B/gist_id%7D",
        "starred_url": "https://api.github.com/users/fanquake/starred%7B/owner%7D%7B/repo%7D",
        "subscriptions_url": "https://api.github.com/users/fanquake/subscriptions",
        "organizations_url": "https://api.github.com/users/fanquake/orgs",
        "repos_url": "https://api.github.com/users/fanquake/repos",
        "events_url": "https://api.github.com/users/fanquake/events%7B/privacy%7D",
        "received_events_url": "https://api.github.com/users/fanquake/received_events",
        "type": "User",
        "site_admin": false
      },
      "html_url": "https://github.com/bitcoin/bitcoin/pull/26702#issuecomment-1370003185",
      "issue_url": "https://api.github.com/repos/bitcoin/bitcoin/issues/26702"
    },
    {
      "event": "closed",
      "id": 8144546845,
      "node_id": "CE_lADOABII585ZQ4qRzwAAAAHlc-wd",
      "url": "https://api.github.com/repos/bitcoin/bitcoin/issues/events/8144546845",
      "actor": {
        "login": "fanquake",
        "id": 863730,
        "node_id": "MDQ6VXNlcjg2MzczMA==",
        "avatar_url": "https://avatars.githubusercontent.com/u/863730?v=4",
        "gravatar_id": "",
        "url": "https://api.github.com/users/fanquake",
        "html_url": "https://github.com/fanquake",
        "followers_url": "https://api.github.com/users/fanquake/followers",
        "following_url": "https://api.github.com/users/fanquake/following%7B/other_user%7D",
        "gists_url": "https://api.github.com/users/fanquake/gists%7B/gist_id%7D",
        "starred_url": "https://api.github.com/users/fanquake/starred%7B/owner%7D%7B/repo%7D",
        "subscriptions_url": "https://api.github.com/users/fanquake/subscriptions",
        "organizations_url": "https://api.github.com/users/fanquake/orgs",
        "repos_url": "https://api.github.com/users/fanquake/repos",
        "events_url": "https://api.github.com/users/fanquake/events%7B/privacy%7D",
        "received_events_url": "https://api.github.com/users/fanquake/received_events",
        "type": "User",
        "site_admin": false
      },
      "commit_id": null,
      "commit_url": null,
      "created_at": "2023-01-03T16:57:57Z"
    },
    {
      "event": "head_ref_deleted",
      "id": 8145158556,
      "node_id": "HRDE_lADOABII585ZQ4qRzwAAAAHlfUGc",
      "url": "https://api.github.com/repos/bitcoin/bitcoin/issues/events/8145158556",
      "actor": {
        "login": "theStack",
        "id": 91535,
        "node_id": "MDQ6VXNlcjkxNTM1",
        "avatar_url": "https://avatars.githubusercontent.com/u/91535?v=4",
        "gravatar_id": "",
        "url": "https://api.github.com/users/theStack",
        "html_url": "https://github.com/theStack",
        "followers_url": "https://api.github.com/users/theStack/followers",
        "following_url": "https://api.github.com/users/theStack/following%7B/other_user%7D",
        "gists_url": "https://api.github.com/users/theStack/gists%7B/gist_id%7D",
        "starred_url": "https://api.github.com/users/theStack/starred%7B/owner%7D%7B/repo%7D",
        "subscriptions_url": "https://api.github.com/users/theStack/subscriptions",
        "organizations_url": "https://api.github.com/users/theStack/orgs",
        "repos_url": "https://api.github.com/users/theStack/repos",
        "events_url": "https://api.github.com/users/theStack/events%7B/privacy%7D",
        "received_events_url": "https://api.github.com/users/theStack/received_events",
        "type": "User",
        "site_admin": false
      },
      "commit_id": null,
      "commit_url": null,
      "created_at": "2023-01-03T18:24:34Z"
    },
    {
      "event": "referenced",
      "id": 8152728958,
      "node_id": "REFE_lADOABII585ZQ4qRzwAAAAHl8MV-",
      "url": "https://api.github.com/repos/bitcoin/bitcoin/issues/events/8152728958",
      "actor": {
        "login": "sidhujag",
        "id": 6238042,
        "node_id": "MDQ6VXNlcjYyMzgwNDI=",
        "avatar_url": "https://avatars.githubusercontent.com/u/6238042?v=4",
        "gravatar_id": "",
        "url": "https://api.github.com/users/sidhujag",
        "html_url": "https://github.com/sidhujag",
        "followers_url": "https://api.github.com/users/sidhujag/followers",
        "following_url": "https://api.github.com/users/sidhujag/following%7B/other_user%7D",
        "gists_url": "https://api.github.com/users/sidhujag/gists%7B/gist_id%7D",
        "starred_url": "https://api.github.com/users/sidhujag/starred%7B/owner%7D%7B/repo%7D",
        "subscriptions_url": "https://api.github.com/users/sidhujag/subscriptions",
        "organizations_url": "https://api.github.com/users/sidhujag/orgs",
        "repos_url": "https://api.github.com/users/sidhujag/repos",
        "events_url": "https://api.github.com/users/sidhujag/events%7B/privacy%7D",
        "received_events_url": "https://api.github.com/users/sidhujag/received_events",
        "type": "User",
        "site_admin": false
      },
      "commit_id": "38cf5342d83ee87667ee5eadacb84f2eedb5f680",
      "commit_url": "https://api.github.com/repos/syscoin/syscoin/commits/38cf5342d83ee87667ee5eadacb84f2eedb5f680",
      "created_at": "2023-01-04T16:27:31Z"
    }
  ],
  "comments": []
}