{
  "type": "pull",
  "pull": {
    "url": "https://api.github.com/repos/bitcoin/bitcoin/pulls/26709",
    "id": 1168095985,
    "node_id": "PR_kwDOABII585Fn7rx",
    "html_url": "https://github.com/bitcoin/bitcoin/pull/26709",
    "diff_url": "https://github.com/bitcoin/bitcoin/pull/26709.diff",
    "patch_url": "https://github.com/bitcoin/bitcoin/pull/26709.patch",
    "issue_url": "https://api.github.com/repos/bitcoin/bitcoin/issues/26709",
    "commits_url": "https://api.github.com/repos/bitcoin/bitcoin/pulls/26709/commits",
    "review_comments_url": "https://api.github.com/repos/bitcoin/bitcoin/pulls/26709/comments",
    "review_comment_url": "https://api.github.com/repos/bitcoin/bitcoin/pulls/comments%7B/number%7D",
    "comments_url": "https://api.github.com/repos/bitcoin/bitcoin/issues/26709/comments",
    "statuses_url": "https://api.github.com/repos/bitcoin/bitcoin/statuses/a2724808abc8b81260eba2ac5ef2cfd61bb8bf56",
    "number": 26709,
    "state": "closed",
    "locked": false,
    "maintainer_can_modify": false,
    "title": "doc: add 23.1 release notes",
    "user": {
      "login": "fanquake",
      "id": 863730,
      "node_id": "MDQ6VXNlcjg2MzczMA==",
      "avatar_url": "https://avatars.githubusercontent.com/u/863730?v=4",
      "gravatar_id": "",
      "url": "https://api.github.com/users/fanquake",
      "html_url": "https://github.com/fanquake",
      "followers_url": "https://api.github.com/users/fanquake/followers",
      "following_url": "https://api.github.com/users/fanquake/following%7B/other_user%7D",
      "gists_url": "https://api.github.com/users/fanquake/gists%7B/gist_id%7D",
      "starred_url": "https://api.github.com/users/fanquake/starred%7B/owner%7D%7B/repo%7D",
      "subscriptions_url": "https://api.github.com/users/fanquake/subscriptions",
      "organizations_url": "https://api.github.com/users/fanquake/orgs",
      "repos_url": "https://api.github.com/users/fanquake/repos",
      "events_url": "https://api.github.com/users/fanquake/events%7B/privacy%7D",
      "received_events_url": "https://api.github.com/users/fanquake/received_events",
      "type": "User",
      "site_admin": false
    },
    "body": "Same as past releases / https://github.com/bitcoin/bitcoin/pull/26524 etc.",
    "labels": [
      {
        "id": 148216,
        "node_id": "MDU6TGFiZWwxNDgyMTY=",
        "url": "https://api.github.com/repos/bitcoin/bitcoin/labels/Docs",
        "name": "Docs",
        "color": "02d7e1",
        "default": false
      }
    ],
    "created_at": "2022-12-16T09:45:10Z",
    "updated_at": "2022-12-16T14:14:22Z",
    "closed_at": "2022-12-16T14:14:18Z",
    "mergeable_state": "unknown",
    "merged_at": "2022-12-16T14:14:18Z",
    "merge_commit_sha": "7386da7a0b08cd2df8ba88dae1fab9d36424b15c",
    "assignees": [],
    "requested_reviewers": [],
    "requested_teams": [],
    "head": {
      "label": "fanquake:historical_rel_notes_23_1",
      "ref": "historical_rel_notes_23_1",
      "sha": "a2724808abc8b81260eba2ac5ef2cfd61bb8bf56",
      "user": {
        "login": "fanquake",
        "id": 863730,
        "node_id": "MDQ6VXNlcjg2MzczMA==",
        "avatar_url": "https://avatars.githubusercontent.com/u/863730?v=4",
        "gravatar_id": "",
        "url": "https://api.github.com/users/fanquake",
        "html_url": "https://github.com/fanquake",
        "followers_url": "https://api.github.com/users/fanquake/followers",
        "following_url": "https://api.github.com/users/fanquake/following%7B/other_user%7D",
        "gists_url": "https://api.github.com/users/fanquake/gists%7B/gist_id%7D",
        "starred_url": "https://api.github.com/users/fanquake/starred%7B/owner%7D%7B/repo%7D",
        "subscriptions_url": "https://api.github.com/users/fanquake/subscriptions",
        "organizations_url": "https://api.github.com/users/fanquake/orgs",
        "repos_url": "https://api.github.com/users/fanquake/repos",
        "events_url": "https://api.github.com/users/fanquake/events%7B/privacy%7D",
        "received_events_url": "https://api.github.com/users/fanquake/received_events",
        "type": "User",
        "site_admin": false
      },
      "repo": {
        "id": 5910539,
        "node_id": "MDEwOlJlcG9zaXRvcnk1OTEwNTM5",
        "name": "bitcoin",
        "full_name": "fanquake/bitcoin",
        "owner": {
          "login": "fanquake",
          "id": 863730,
          "node_id": "MDQ6VXNlcjg2MzczMA==",
          "avatar_url": "https://avatars.githubusercontent.com/u/863730?v=4",
          "gravatar_id": "",
          "url": "https://api.github.com/users/fanquake",
          "html_url": "https://github.com/fanquake",
          "followers_url": "https://api.github.com/users/fanquake/followers",
          "following_url": "https://api.github.com/users/fanquake/following%7B/other_user%7D",
          "gists_url": "https://api.github.com/users/fanquake/gists%7B/gist_id%7D",
          "starred_url": "https://api.github.com/users/fanquake/starred%7B/owner%7D%7B/repo%7D",
          "subscriptions_url": "https://api.github.com/users/fanquake/subscriptions",
          "organizations_url": "https://api.github.com/users/fanquake/orgs",
          "repos_url": "https://api.github.com/users/fanquake/repos",
          "events_url": "https://api.github.com/users/fanquake/events%7B/privacy%7D",
          "received_events_url": "https://api.github.com/users/fanquake/received_events",
          "type": "User",
          "site_admin": false
        },
        "private": false,
        "html_url": "https://github.com/fanquake/bitcoin",
        "description": "Bitcoin integration/staging tree",
        "fork": true,
        "url": "https://api.github.com/repos/fanquake/bitcoin",
        "archive_url": "https://api.github.com/repos/fanquake/bitcoin/%7Barchive_format%7D%7B/ref%7D",
        "assignees_url": "https://api.github.com/repos/fanquake/bitcoin/assignees%7B/user%7D",
        "blobs_url": "https://api.github.com/repos/fanquake/bitcoin/git/blobs%7B/sha%7D",
        "branches_url": "https://api.github.com/repos/fanquake/bitcoin/branches%7B/branch%7D",
        "collaborators_url": "https://api.github.com/repos/fanquake/bitcoin/collaborators%7B/collaborator%7D",
        "comments_url": "https://api.github.com/repos/fanquake/bitcoin/comments%7B/number%7D",
        "commits_url": "https://api.github.com/repos/fanquake/bitcoin/commits%7B/sha%7D",
        "compare_url": "https://api.github.com/repos/fanquake/bitcoin/compare/%7Bbase%7D...%7Bhead%7D",
        "contents_url": "https://api.github.com/repos/fanquake/bitcoin/contents/%7B+path%7D",
        "contributors_url": "https://api.github.com/repos/fanquake/bitcoin/contributors",
        "deployments_url": "https://api.github.com/repos/fanquake/bitcoin/deployments",
        "downloads_url": "https://api.github.com/repos/fanquake/bitcoin/downloads",
        "events_url": "https://api.github.com/repos/fanquake/bitcoin/events",
        "forks_url": "https://api.github.com/repos/fanquake/bitcoin/forks",
        "git_commits_url": "https://api.github.com/repos/fanquake/bitcoin/git/commits%7B/sha%7D",
        "git_refs_url": "https://api.github.com/repos/fanquake/bitcoin/git/refs%7B/sha%7D",
        "git_tags_url": "https://api.github.com/repos/fanquake/bitcoin/git/tags%7B/sha%7D",
        "git_url": "git://github.com/fanquake/bitcoin.git",
        "issue_comment_url": "https://api.github.com/repos/fanquake/bitcoin/issues/comments%7B/number%7D",
        "issue_events_url": "https://api.github.com/repos/fanquake/bitcoin/issues/events%7B/number%7D",
        "issues_url": "https://api.github.com/repos/fanquake/bitcoin/issues%7B/number%7D",
        "keys_url": "https://api.github.com/repos/fanquake/bitcoin/keys%7B/key_id%7D",
        "labels_url": "https://api.github.com/repos/fanquake/bitcoin/labels%7B/name%7D",
        "languages_url": "https://api.github.com/repos/fanquake/bitcoin/languages",
        "merges_url": "https://api.github.com/repos/fanquake/bitcoin/merges",
        "milestones_url": "https://api.github.com/repos/fanquake/bitcoin/milestones%7B/number%7D",
        "notifications_url": "https://api.github.com/repos/fanquake/bitcoin/notifications%7B?since,all,participating}",
        "pulls_url": "https://api.github.com/repos/fanquake/bitcoin/pulls%7B/number%7D",
        "releases_url": "https://api.github.com/repos/fanquake/bitcoin/releases%7B/id%7D",
        "ssh_url": "git@github.com:fanquake/bitcoin.git",
        "stargazers_url": "https://api.github.com/repos/fanquake/bitcoin/stargazers",
        "statuses_url": "https://api.github.com/repos/fanquake/bitcoin/statuses/%7Bsha%7D",
        "subscribers_url": "https://api.github.com/repos/fanquake/bitcoin/subscribers",
        "subscription_url": "https://api.github.com/repos/fanquake/bitcoin/subscription",
        "tags_url": "https://api.github.com/repos/fanquake/bitcoin/tags",
        "teams_url": "https://api.github.com/repos/fanquake/bitcoin/teams",
        "trees_url": "https://api.github.com/repos/fanquake/bitcoin/git/trees%7B/sha%7D",
        "clone_url": "https://github.com/fanquake/bitcoin.git",
        "hooks_url": "https://api.github.com/repos/fanquake/bitcoin/hooks",
        "svn_url": "https://github.com/fanquake/bitcoin",
        "homepage": "http://www.bitcoincore.org",
        "language": "C++",
        "forks_count": 5,
        "stargazers_count": 13,
        "watchers_count": 13,
        "size": 215355,
        "default_branch": "master",
        "open_issues_count": 0,
        "is_template": false,
        "topics": [],
        "has_issues": false,
        "has_projects": false,
        "has_wiki": false,
        "has_pages": false,
        "has_downloads": false,
        "archived": false,
        "disabled": false,
        "visibility": "public",
        "pushed_at": "2023-08-02T12:28:14Z",
        "created_at": "2012-09-22T05:28:42Z",
        "updated_at": "2023-04-27T19:34:01Z",
        "license": {
          "key": "mit",
          "name": "MIT License",
          "node_id": "MDc6TGljZW5zZTEz",
          "spdx_id": "MIT",
          "url": "https://api.github.com/licenses/mit",
          "html_url": null,
          "description": null,
          "implementation": null,
          "permissions": null,
          "conditions": null,
          "limitations": null,
          "body": null,
          "featured": null
        }
      }
    },
    "base": {
      "label": "bitcoin:master",
      "ref": "master",
      "sha": "5055d07edf4625d23c36d548d3598d7b578c05fb",
      "user": {
        "login": "bitcoin",
        "id": 528860,
        "node_id": "MDEyOk9yZ2FuaXphdGlvbjUyODg2MA==",
        "avatar_url": "https://avatars.githubusercontent.com/u/528860?v=4",
        "gravatar_id": "",
        "url": "https://api.github.com/users/bitcoin",
        "html_url": "https://github.com/bitcoin",
        "followers_url": "https://api.github.com/users/bitcoin/followers",
        "following_url": "https://api.github.com/users/bitcoin/following%7B/other_user%7D",
        "gists_url": "https://api.github.com/users/bitcoin/gists%7B/gist_id%7D",
        "starred_url": "https://api.github.com/users/bitcoin/starred%7B/owner%7D%7B/repo%7D",
        "subscriptions_url": "https://api.github.com/users/bitcoin/subscriptions",
        "organizations_url": "https://api.github.com/users/bitcoin/orgs",
        "repos_url": "https://api.github.com/users/bitcoin/repos",
        "events_url": "https://api.github.com/users/bitcoin/events%7B/privacy%7D",
        "received_events_url": "https://api.github.com/users/bitcoin/received_events",
        "type": "Organization",
        "site_admin": false
      },
      "repo": {
        "id": 1181927,
        "node_id": "MDEwOlJlcG9zaXRvcnkxMTgxOTI3",
        "name": "bitcoin",
        "full_name": "bitcoin/bitcoin",
        "owner": {
          "login": "bitcoin",
          "id": 528860,
          "node_id": "MDEyOk9yZ2FuaXphdGlvbjUyODg2MA==",
          "avatar_url": "https://avatars.githubusercontent.com/u/528860?v=4",
          "gravatar_id": "",
          "url": "https://api.github.com/users/bitcoin",
          "html_url": "https://github.com/bitcoin",
          "followers_url": "https://api.github.com/users/bitcoin/followers",
          "following_url": "https://api.github.com/users/bitcoin/following%7B/other_user%7D",
          "gists_url": "https://api.github.com/users/bitcoin/gists%7B/gist_id%7D",
          "starred_url": "https://api.github.com/users/bitcoin/starred%7B/owner%7D%7B/repo%7D",
          "subscriptions_url": "https://api.github.com/users/bitcoin/subscriptions",
          "organizations_url": "https://api.github.com/users/bitcoin/orgs",
          "repos_url": "https://api.github.com/users/bitcoin/repos",
          "events_url": "https://api.github.com/users/bitcoin/events%7B/privacy%7D",
          "received_events_url": "https://api.github.com/users/bitcoin/received_events",
          "type": "Organization",
          "site_admin": false
        },
        "private": false,
        "html_url": "https://github.com/bitcoin/bitcoin",
        "description": "Bitcoin Core integration/staging tree",
        "fork": false,
        "url": "https://api.github.com/repos/bitcoin/bitcoin",
        "archive_url": "https://api.github.com/repos/bitcoin/bitcoin/%7Barchive_format%7D%7B/ref%7D",
        "assignees_url": "https://api.github.com/repos/bitcoin/bitcoin/assignees%7B/user%7D",
        "blobs_url": "https://api.github.com/repos/bitcoin/bitcoin/git/blobs%7B/sha%7D",
        "branches_url": "https://api.github.com/repos/bitcoin/bitcoin/branches%7B/branch%7D",
        "collaborators_url": "https://api.github.com/repos/bitcoin/bitcoin/collaborators%7B/collaborator%7D",
        "comments_url": "https://api.github.com/repos/bitcoin/bitcoin/comments%7B/number%7D",
        "commits_url": "https://api.github.com/repos/bitcoin/bitcoin/commits%7B/sha%7D",
        "compare_url": "https://api.github.com/repos/bitcoin/bitcoin/compare/%7Bbase%7D...%7Bhead%7D",
        "contents_url": "https://api.github.com/repos/bitcoin/bitcoin/contents/%7B+path%7D",
        "contributors_url": "https://api.github.com/repos/bitcoin/bitcoin/contributors",
        "deployments_url": "https://api.github.com/repos/bitcoin/bitcoin/deployments",
        "downloads_url": "https://api.github.com/repos/bitcoin/bitcoin/downloads",
        "events_url": "https://api.github.com/repos/bitcoin/bitcoin/events",
        "forks_url": "https://api.github.com/repos/bitcoin/bitcoin/forks",
        "git_commits_url": "https://api.github.com/repos/bitcoin/bitcoin/git/commits%7B/sha%7D",
        "git_refs_url": "https://api.github.com/repos/bitcoin/bitcoin/git/refs%7B/sha%7D",
        "git_tags_url": "https://api.github.com/repos/bitcoin/bitcoin/git/tags%7B/sha%7D",
        "git_url": "git://github.com/bitcoin/bitcoin.git",
        "issue_comment_url": "https://api.github.com/repos/bitcoin/bitcoin/issues/comments%7B/number%7D",
        "issue_events_url": "https://api.github.com/repos/bitcoin/bitcoin/issues/events%7B/number%7D",
        "issues_url": "https://api.github.com/repos/bitcoin/bitcoin/issues%7B/number%7D",
        "keys_url": "https://api.github.com/repos/bitcoin/bitcoin/keys%7B/key_id%7D",
        "labels_url": "https://api.github.com/repos/bitcoin/bitcoin/labels%7B/name%7D",
        "languages_url": "https://api.github.com/repos/bitcoin/bitcoin/languages",
        "merges_url": "https://api.github.com/repos/bitcoin/bitcoin/merges",
        "milestones_url": "https://api.github.com/repos/bitcoin/bitcoin/milestones%7B/number%7D",
        "notifications_url": "https://api.github.com/repos/bitcoin/bitcoin/notifications%7B?since,all,participating}",
        "pulls_url": "https://api.github.com/repos/bitcoin/bitcoin/pulls%7B/number%7D",
        "releases_url": "https://api.github.com/repos/bitcoin/bitcoin/releases%7B/id%7D",
        "ssh_url": "git@github.com:bitcoin/bitcoin.git",
        "stargazers_url": "https://api.github.com/repos/bitcoin/bitcoin/stargazers",
        "statuses_url": "https://api.github.com/repos/bitcoin/bitcoin/statuses/%7Bsha%7D",
        "subscribers_url": "https://api.github.com/repos/bitcoin/bitcoin/subscribers",
        "subscription_url": "https://api.github.com/repos/bitcoin/bitcoin/subscription",
        "tags_url": "https://api.github.com/repos/bitcoin/bitcoin/tags",
        "teams_url": "https://api.github.com/repos/bitcoin/bitcoin/teams",
        "trees_url": "https://api.github.com/repos/bitcoin/bitcoin/git/trees%7B/sha%7D",
        "clone_url": "https://github.com/bitcoin/bitcoin.git",
        "hooks_url": "https://api.github.com/repos/bitcoin/bitcoin/hooks",
        "svn_url": "https://github.com/bitcoin/bitcoin",
        "homepage": "https://bitcoincore.org/en/download",
        "language": "C++",
        "forks_count": 35476,
        "stargazers_count": 70608,
        "watchers_count": 70608,
        "size": 236222,
        "default_branch": "master",
        "open_issues_count": 673,
        "is_template": false,
        "topics": [
          "bitcoin",
          "c-plus-plus",
          "cryptocurrency",
          "cryptography",
          "p2p"
        ],
        "has_issues": true,
        "has_projects": true,
        "has_wiki": false,
        "has_pages": false,
        "has_downloads": false,
        "archived": false,
        "disabled": false,
        "visibility": "public",
        "pushed_at": "2023-08-03T00:03:27Z",
        "created_at": "2010-12-19T15:16:43Z",
        "updated_at": "2023-08-02T18:21:18Z",
        "license": {
          "key": "mit",
          "name": "MIT License",
          "node_id": "MDc6TGljZW5zZTEz",
          "spdx_id": "MIT",
          "url": "https://api.github.com/licenses/mit",
          "html_url": null,
          "description": null,
          "implementation": null,
          "permissions": null,
          "conditions": null,
          "limitations": null,
          "body": null,
          "featured": null
        }
      }
    },
    "_links": {
      "self": {
        "href": "https://api.github.com/repos/bitcoin/bitcoin/pulls/26709"
      }
    },
    "author_association": "MEMBER",
    "draft": false,
    "additions": 90,
    "deletions": 0,
    "changed_files": 1,
    "commits": 1,
    "review_comments": 0,
    "comments": 1
  },
  "events": [
    {
      "event": "committed",
      "id": null,
      "node_id": "C_kwDOABII59oAKGEyNzI0ODA4YWJjOGI4MTI2MGViYTJhYzVlZjJjZmQ2MWJiOGJmNTY",
      "url": "https://api.github.com/repos/bitcoin/bitcoin/git/commits/a2724808abc8b81260eba2ac5ef2cfd61bb8bf56",
      "actor": null,
      "commit_id": null,
      "commit_url": null,
      "created_at": null,
      "html_url": "https://github.com/bitcoin/bitcoin/commit/a2724808abc8b81260eba2ac5ef2cfd61bb8bf56",
      "tree": {
        "sha": "2460095446f307b80bd2f602e607afe1857f99f4",
        "url": "https://api.github.com/repos/bitcoin/bitcoin/git/trees/2460095446f307b80bd2f602e607afe1857f99f4"
      },
      "verification": {
        "verified": true,
        "reason": "valid",
        "payload": "tree 2460095446f307b80bd2f602e607afe1857f99f4\nparent 5055d07edf4625d23c36d548d3598d7b578c05fb\nauthor fanquake <fanquake@gmail.com> 1671183836 +0000\ncommitter fanquake <fanquake@gmail.com> 1671183836 +0000\n\ndoc: add 23.1 release notes\n",
        "signature": "-----BEGIN PGP SIGNATURE-----\n\niQIzBAABCAAdFiEEz7FuIclQ9n+pXlWPLuufXMCVJsEFAmOcPeQACgkQLuufXMCV\nJsEpUg/8D9SknRkaZ3IFTAXUzuJaWqwsv2azQx9JGo8vITfPk8EDkFwDANahQrBx\n9UQsegiDPCyDrcAwBdA2hl6KEg75nSz8KjtI/UuEtyaqR9GF1nQ74AmhOkj8anCH\nDpgt++sf4FCRTjxid7FmwGxx/UDIkPT4Tv1yxhRepVfmKLFOrzcjj8iv1mxZA/22\nHyty/SzRjD4L/o7PB5KkbQVxIibaqeEqCOXpyMhOkDaXF6uL/jAeoipNb3nuPwWV\nFqYZv3B2VFtcgoi5at8NY+bXTC+orVYsRzh7+yMQXkDvnso5kKGMJy0gUgL/4a7m\nEvg5t4IzxbRzqOt4OhEOrYO5H6P+8z/hGgfwHjwKo/TW544tOmk4XZJzXZ1go3u2\nIfHaBirwymDgUYjZQBzT9DhDRqbRKEjRw7xhxUNrZ6llfUROEEhyrRWV+KDD/Wu2\nU+5jCi03H3QudKcZjm9EQo151ub46RQkyJq3EH30LecGgtKqxpKy8w8iHRPDnCzg\nS1bVercj7wbTbW66X9g5mzp3GymT2fgE5e78iOzFSnM7hPdHHvBfoHLnGxGk29Ay\nxJvF8oEbhiKWnTtY7ljpubtQJ73gC7IBkXf65Os2J/HPyN6OtsrMxt6rCtYqp5TU\nan9uctT18a7J2Js/QcLTGvuzngnv9YMseS1vdzqmBQNUha3ckFo=\n=Md0g\n-----END PGP SIGNATURE-----"
      },
      "parents": [
        {
          "url": "https://api.github.com/repos/bitcoin/bitcoin/git/commits/5055d07edf4625d23c36d548d3598d7b578c05fb",
          "sha": "5055d07edf4625d23c36d548d3598d7b578c05fb",
          "html_url": "https://github.com/bitcoin/bitcoin/commit/5055d07edf4625d23c36d548d3598d7b578c05fb"
        }
      ],
      "message": "doc: add 23.1 release notes",
      "committer": {
        "name": "fanquake",
        "email": "fanquake@gmail.com",
        "date": "2022-12-16T09:43:56Z"
      },
      "author": {
        "name": "fanquake",
        "email": "fanquake@gmail.com",
        "date": "2022-12-16T09:43:56Z"
      },
      "sha": "a2724808abc8b81260eba2ac5ef2cfd61bb8bf56"
    },
    {
      "event": "labeled",
      "id": 8055050321,
      "node_id": "LE_lADOABII585ZZqEbzwAAAAHgHlBR",
      "url": "https://api.github.com/repos/bitcoin/bitcoin/issues/events/8055050321",
      "actor": {
        "login": "fanquake",
        "id": 863730,
        "node_id": "MDQ6VXNlcjg2MzczMA==",
        "avatar_url": "https://avatars.githubusercontent.com/u/863730?v=4",
        "gravatar_id": "",
        "url": "https://api.github.com/users/fanquake",
        "html_url": "https://github.com/fanquake",
        "followers_url": "https://api.github.com/users/fanquake/followers",
        "following_url": "https://api.github.com/users/fanquake/following%7B/other_user%7D",
        "gists_url": "https://api.github.com/users/fanquake/gists%7B/gist_id%7D",
        "starred_url": "https://api.github.com/users/fanquake/starred%7B/owner%7D%7B/repo%7D",
        "subscriptions_url": "https://api.github.com/users/fanquake/subscriptions",
        "organizations_url": "https://api.github.com/users/fanquake/orgs",
        "repos_url": "https://api.github.com/users/fanquake/repos",
        "events_url": "https://api.github.com/users/fanquake/events%7B/privacy%7D",
        "received_events_url": "https://api.github.com/users/fanquake/received_events",
        "type": "User",
        "site_admin": false
      },
      "commit_id": null,
      "commit_url": null,
      "created_at": "2022-12-16T09:45:10Z",
      "label": {
        "name": "Docs",
        "color": "02d7e1"
      }
    },
    {
      "event": "reviewed",
      "id": 1220748279,
      "node_id": "PRR_kwDOABII585IwyP3",
      "url": null,
      "actor": null,
      "commit_id": "a2724808abc8b81260eba2ac5ef2cfd61bb8bf56",
      "commit_url": null,
      "created_at": null,
      "author_association": "CONTRIBUTOR",
      "body": "ACK a2724808abc8b81260eba2ac5ef2cfd61bb8bf56\r\n\r\nI proofread the notes and verified that all (and only) the relevant PRs merged since v23.0 are listed.",
      "user": {
        "login": "stickies-v",
        "id": 69010457,
        "node_id": "MDQ6VXNlcjY5MDEwNDU3",
        "avatar_url": "https://avatars.githubusercontent.com/u/69010457?v=4",
        "gravatar_id": "",
        "url": "https://api.github.com/users/stickies-v",
        "html_url": "https://github.com/stickies-v",
        "followers_url": "https://api.github.com/users/stickies-v/followers",
        "following_url": "https://api.github.com/users/stickies-v/following%7B/other_user%7D",
        "gists_url": "https://api.github.com/users/stickies-v/gists%7B/gist_id%7D",
        "starred_url": "https://api.github.com/users/stickies-v/starred%7B/owner%7D%7B/repo%7D",
        "subscriptions_url": "https://api.github.com/users/stickies-v/subscriptions",
        "organizations_url": "https://api.github.com/users/stickies-v/orgs",
        "repos_url": "https://api.github.com/users/stickies-v/repos",
        "events_url": "https://api.github.com/users/stickies-v/events%7B/privacy%7D",
        "received_events_url": "https://api.github.com/users/stickies-v/received_events",
        "type": "User",
        "site_admin": false
      },
      "html_url": "https://github.com/bitcoin/bitcoin/pull/26709#pullrequestreview-1220748279",
      "submitted_at": "2022-12-16T12:02:10Z",
      "state": "APPROVED",
      "pull_request_url": "https://api.github.com/repos/bitcoin/bitcoin/pulls/26709"
    },
    {
      "event": "commented",
      "id": 1354652565,
      "node_id": "IC_kwDOABII585QvluV",
      "url": "https://api.github.com/repos/bitcoin/bitcoin/issues/comments/1354652565",
      "actor": {
        "login": "DrahtBot",
        "id": 39886733,
        "node_id": "MDQ6VXNlcjM5ODg2NzMz",
        "avatar_url": "https://avatars.githubusercontent.com/u/39886733?v=4",
        "gravatar_id": "",
        "url": "https://api.github.com/users/DrahtBot",
        "html_url": "https://github.com/DrahtBot",
        "followers_url": "https://api.github.com/users/DrahtBot/followers",
        "following_url": "https://api.github.com/users/DrahtBot/following%7B/other_user%7D",
        "gists_url": "https://api.github.com/users/DrahtBot/gists%7B/gist_id%7D",
        "starred_url": "https://api.github.com/users/DrahtBot/starred%7B/owner%7D%7B/repo%7D",
        "subscriptions_url": "https://api.github.com/users/DrahtBot/subscriptions",
        "organizations_url": "https://api.github.com/users/DrahtBot/orgs",
        "repos_url": "https://api.github.com/users/DrahtBot/repos",
        "events_url": "https://api.github.com/users/DrahtBot/events%7B/privacy%7D",
        "received_events_url": "https://api.github.com/users/DrahtBot/received_events",
        "type": "User",
        "site_admin": false
      },
      "commit_id": null,
      "commit_url": null,
      "created_at": "2022-12-16T12:02:12Z",
      "updated_at": "2022-12-16T12:02:12Z",
      "author_association": "CONTRIBUTOR",
      "body": "<!--e57a25ab6845829454e8d69fc972939a-->\n\nThe following sections might be updated with supplementary metadata relevant to reviewers and maintainers.\n\n<!--021abf342d371248e50ceaed478a90ca-->\n### Reviews\nSee [the guideline](https://github.com/bitcoin/bitcoin/blob/master/CONTRIBUTING.md#code-review) for information on the review process.\n| Type | Reviewers |\n| ---- | --------- |\n| ACK | [stickies-v](https://github.com/bitcoin/bitcoin/pull/26709#pullrequestreview-1220748279) |\n\nIf your review is incorrectly listed, please react with 👎 to this comment and the bot will ignore it on the next update.\n",
      "user": {
        "login": "DrahtBot",
        "id": 39886733,
        "node_id": "MDQ6VXNlcjM5ODg2NzMz",
        "avatar_url": "https://avatars.githubusercontent.com/u/39886733?v=4",
        "gravatar_id": "",
        "url": "https://api.github.com/users/DrahtBot",
        "html_url": "https://github.com/DrahtBot",
        "followers_url": "https://api.github.com/users/DrahtBot/followers",
        "following_url": "https://api.github.com/users/DrahtBot/following%7B/other_user%7D",
        "gists_url": "https://api.github.com/users/DrahtBot/gists%7B/gist_id%7D",
        "starred_url": "https://api.github.com/users/DrahtBot/starred%7B/owner%7D%7B/repo%7D",
        "subscriptions_url": "https://api.github.com/users/DrahtBot/subscriptions",
        "organizations_url": "https://api.github.com/users/DrahtBot/orgs",
        "repos_url": "https://api.github.com/users/DrahtBot/repos",
        "events_url": "https://api.github.com/users/DrahtBot/events%7B/privacy%7D",
        "received_events_url": "https://api.github.com/users/DrahtBot/received_events",
        "type": "User",
        "site_admin": false
      },
      "html_url": "https://github.com/bitcoin/bitcoin/pull/26709#issuecomment-1354652565",
      "issue_url": "https://api.github.com/repos/bitcoin/bitcoin/issues/26709"
    },
    {
      "event": "merged",
      "id": 8057018183,
      "node_id": "ME_lADOABII585ZZqEbzwAAAAHgPFdH",
      "url": "https://api.github.com/repos/bitcoin/bitcoin/issues/events/8057018183",
      "actor": {
        "login": "fanquake",
        "id": 863730,
        "node_id": "MDQ6VXNlcjg2MzczMA==",
        "avatar_url": "https://avatars.githubusercontent.com/u/863730?v=4",
        "gravatar_id": "",
        "url": "https://api.github.com/users/fanquake",
        "html_url": "https://github.com/fanquake",
        "followers_url": "https://api.github.com/users/fanquake/followers",
        "following_url": "https://api.github.com/users/fanquake/following%7B/other_user%7D",
        "gists_url": "https://api.github.com/users/fanquake/gists%7B/gist_id%7D",
        "starred_url": "https://api.github.com/users/fanquake/starred%7B/owner%7D%7B/repo%7D",
        "subscriptions_url": "https://api.github.com/users/fanquake/subscriptions",
        "organizations_url": "https://api.github.com/users/fanquake/orgs",
        "repos_url": "https://api.github.com/users/fanquake/repos",
        "events_url": "https://api.github.com/users/fanquake/events%7B/privacy%7D",
        "received_events_url": "https://api.github.com/users/fanquake/received_events",
        "type": "User",
        "site_admin": false
      },
      "commit_id": "7386da7a0b08cd2df8ba88dae1fab9d36424b15c",
      "commit_url": "https://api.github.com/repos/bitcoin/bitcoin/commits/7386da7a0b08cd2df8ba88dae1fab9d36424b15c",
      "created_at": "2022-12-16T14:14:18Z"
    },
    {
      "event": "closed",
      "id": 8057018219,
      "node_id": "CE_lADOABII585ZZqEbzwAAAAHgPFdr",
      "url": "https://api.github.com/repos/bitcoin/bitcoin/issues/events/8057018219",
      "actor": {
        "login": "fanquake",
        "id": 863730,
        "node_id": "MDQ6VXNlcjg2MzczMA==",
        "avatar_url": "https://avatars.githubusercontent.com/u/863730?v=4",
        "gravatar_id": "",
        "url": "https://api.github.com/users/fanquake",
        "html_url": "https://github.com/fanquake",
        "followers_url": "https://api.github.com/users/fanquake/followers",
        "following_url": "https://api.github.com/users/fanquake/following%7B/other_user%7D",
        "gists_url": "https://api.github.com/users/fanquake/gists%7B/gist_id%7D",
        "starred_url": "https://api.github.com/users/fanquake/starred%7B/owner%7D%7B/repo%7D",
        "subscriptions_url": "https://api.github.com/users/fanquake/subscriptions",
        "organizations_url": "https://api.github.com/users/fanquake/orgs",
        "repos_url": "https://api.github.com/users/fanquake/repos",
        "events_url": "https://api.github.com/users/fanquake/events%7B/privacy%7D",
        "received_events_url": "https://api.github.com/users/fanquake/received_events",
        "type": "User",
        "site_admin": false
      },
      "commit_id": null,
      "commit_url": null,
      "created_at": "2022-12-16T14:14:18Z"
    },
    {
      "event": "head_ref_deleted",
      "id": 8057018758,
      "node_id": "HRDE_lADOABII585ZZqEbzwAAAAHgPFmG",
      "url": "https://api.github.com/repos/bitcoin/bitcoin/issues/events/8057018758",
      "actor": {
        "login": "fanquake",
        "id": 863730,
        "node_id": "MDQ6VXNlcjg2MzczMA==",
        "avatar_url": "https://avatars.githubusercontent.com/u/863730?v=4",
        "gravatar_id": "",
        "url": "https://api.github.com/users/fanquake",
        "html_url": "https://github.com/fanquake",
        "followers_url": "https://api.github.com/users/fanquake/followers",
        "following_url": "https://api.github.com/users/fanquake/following%7B/other_user%7D",
        "gists_url": "https://api.github.com/users/fanquake/gists%7B/gist_id%7D",
        "starred_url": "https://api.github.com/users/fanquake/starred%7B/owner%7D%7B/repo%7D",
        "subscriptions_url": "https://api.github.com/users/fanquake/subscriptions",
        "organizations_url": "https://api.github.com/users/fanquake/orgs",
        "repos_url": "https://api.github.com/users/fanquake/repos",
        "events_url": "https://api.github.com/users/fanquake/events%7B/privacy%7D",
        "received_events_url": "https://api.github.com/users/fanquake/received_events",
        "type": "User",
        "site_admin": false
      },
      "commit_id": null,
      "commit_url": null,
      "created_at": "2022-12-16T14:14:22Z"
    },
    {
      "event": "referenced",
      "id": 8057403761,
      "node_id": "REFE_lADOABII585ZZqEbzwAAAAHgQjlx",
      "url": "https://api.github.com/repos/bitcoin/bitcoin/issues/events/8057403761",
      "actor": {
        "login": "sidhujag",
        "id": 6238042,
        "node_id": "MDQ6VXNlcjYyMzgwNDI=",
        "avatar_url": "https://avatars.githubusercontent.com/u/6238042?v=4",
        "gravatar_id": "",
        "url": "https://api.github.com/users/sidhujag",
        "html_url": "https://github.com/sidhujag",
        "followers_url": "https://api.github.com/users/sidhujag/followers",
        "following_url": "https://api.github.com/users/sidhujag/following%7B/other_user%7D",
        "gists_url": "https://api.github.com/users/sidhujag/gists%7B/gist_id%7D",
        "starred_url": "https://api.github.com/users/sidhujag/starred%7B/owner%7D%7B/repo%7D",
        "subscriptions_url": "https://api.github.com/users/sidhujag/subscriptions",
        "organizations_url": "https://api.github.com/users/sidhujag/orgs",
        "repos_url": "https://api.github.com/users/sidhujag/repos",
        "events_url": "https://api.github.com/users/sidhujag/events%7B/privacy%7D",
        "received_events_url": "https://api.github.com/users/sidhujag/received_events",
        "type": "User",
        "site_admin": false
      },
      "commit_id": "f27f2415c2e8eb8706b83de56374255f0ea0dc37",
      "commit_url": "https://api.github.com/repos/syscoin/syscoin/commits/f27f2415c2e8eb8706b83de56374255f0ea0dc37",
      "created_at": "2022-12-16T15:01:48Z"
    }
  ],
  "comments": []
}