{
  "type": "pull",
  "pull": {
    "url": "https://api.github.com/repos/bitcoin/bitcoin/pulls/26710",
    "id": 1168191733,
    "node_id": "PR_kwDOABII585FoTD1",
    "html_url": "https://github.com/bitcoin/bitcoin/pull/26710",
    "diff_url": "https://github.com/bitcoin/bitcoin/pull/26710.diff",
    "patch_url": "https://github.com/bitcoin/bitcoin/pull/26710.patch",
    "issue_url": "https://api.github.com/repos/bitcoin/bitcoin/issues/26710",
    "commits_url": "https://api.github.com/repos/bitcoin/bitcoin/pulls/26710/commits",
    "review_comments_url": "https://api.github.com/repos/bitcoin/bitcoin/pulls/26710/comments",
    "review_comment_url": "https://api.github.com/repos/bitcoin/bitcoin/pulls/comments%7B/number%7D",
    "comments_url": "https://api.github.com/repos/bitcoin/bitcoin/issues/26710/comments",
    "statuses_url": "https://api.github.com/repos/bitcoin/bitcoin/statuses/48033d43dc30fcee2c9a38c828d2f58d3bc11827",
    "number": 26710,
    "state": "closed",
    "locked": false,
    "maintainer_can_modify": false,
    "title": "refactor: Fix `performance-for-range-copy` in headers",
    "user": {
      "login": "hebasto",
      "id": 32963518,
      "node_id": "MDQ6VXNlcjMyOTYzNTE4",
      "avatar_url": "https://avatars.githubusercontent.com/u/32963518?v=4",
      "gravatar_id": "",
      "url": "https://api.github.com/users/hebasto",
      "html_url": "https://github.com/hebasto",
      "followers_url": "https://api.github.com/users/hebasto/followers",
      "following_url": "https://api.github.com/users/hebasto/following%7B/other_user%7D",
      "gists_url": "https://api.github.com/users/hebasto/gists%7B/gist_id%7D",
      "starred_url": "https://api.github.com/users/hebasto/starred%7B/owner%7D%7B/repo%7D",
      "subscriptions_url": "https://api.github.com/users/hebasto/subscriptions",
      "organizations_url": "https://api.github.com/users/hebasto/orgs",
      "repos_url": "https://api.github.com/users/hebasto/repos",
      "events_url": "https://api.github.com/users/hebasto/events%7B/privacy%7D",
      "received_events_url": "https://api.github.com/users/hebasto/received_events",
      "type": "User",
      "site_admin": false
    },
    "body": "Split from bitcoin/bitcoin#26705 as was requested in https://github.com/bitcoin/bitcoin/pull/26705#issuecomment-1353293405.\r\n\r\nTo test this PR, consider applying a diff as follows:\r\n```diff\r\n--- a/src/.clang-tidy\r\n+++ b/src/.clang-tidy\r\n@@ -12,17 +12,9 @@ readability-redundant-declaration,\r\n readability-redundant-string-init,\r\n '\r\n WarningsAsErrors: '\r\n-bugprone-argument-comment,\r\n-bugprone-use-after-move,\r\n-misc-unused-using-decls,\r\n-modernize-use-default-member-init,\r\n-modernize-use-nullptr,\r\n performance-for-range-copy,\r\n-performance-move-const-arg,\r\n-performance-unnecessary-copy-initialization,\r\n-readability-redundant-declaration,\r\n-readability-redundant-string-init,\r\n '\r\n CheckOptions:\r\n  - key: performance-move-const-arg.CheckTriviallyCopyableMove\r\n    value: false\r\n+HeaderFilterRegex: '.'\r\n```",
    "labels": [
      {
        "id": 135961,
        "node_id": "MDU6TGFiZWwxMzU5NjE=",
        "url": "https://api.github.com/repos/bitcoin/bitcoin/labels/Refactoring",
        "name": "Refactoring",
        "color": "E6F6D6",
        "default": false
      }
    ],
    "created_at": "2022-12-16T10:55:55Z",
    "updated_at": "2022-12-17T12:00:06Z",
    "closed_at": "2022-12-17T11:54:35Z",
    "mergeable_state": "unknown",
    "merged_at": "2022-12-17T11:54:35Z",
    "merge_commit_sha": "cb32328d1b80d0ccd6eb9532bd8fe4e0a4de385e",
    "assignees": [],
    "requested_reviewers": [],
    "requested_teams": [],
    "head": {
      "label": "hebasto:221216-tidy-range",
      "ref": "221216-tidy-range",
      "sha": "48033d43dc30fcee2c9a38c828d2f58d3bc11827",
      "user": {
        "login": "hebasto",
        "id": 32963518,
        "node_id": "MDQ6VXNlcjMyOTYzNTE4",
        "avatar_url": "https://avatars.githubusercontent.com/u/32963518?v=4",
        "gravatar_id": "",
        "url": "https://api.github.com/users/hebasto",
        "html_url": "https://github.com/hebasto",
        "followers_url": "https://api.github.com/users/hebasto/followers",
        "following_url": "https://api.github.com/users/hebasto/following%7B/other_user%7D",
        "gists_url": "https://api.github.com/users/hebasto/gists%7B/gist_id%7D",
        "starred_url": "https://api.github.com/users/hebasto/starred%7B/owner%7D%7B/repo%7D",
        "subscriptions_url": "https://api.github.com/users/hebasto/subscriptions",
        "organizations_url": "https://api.github.com/users/hebasto/orgs",
        "repos_url": "https://api.github.com/users/hebasto/repos",
        "events_url": "https://api.github.com/users/hebasto/events%7B/privacy%7D",
        "received_events_url": "https://api.github.com/users/hebasto/received_events",
        "type": "User",
        "site_admin": false
      },
      "repo": {
        "id": 143212778,
        "node_id": "MDEwOlJlcG9zaXRvcnkxNDMyMTI3Nzg=",
        "name": "bitcoin",
        "full_name": "hebasto/bitcoin",
        "owner": {
          "login": "hebasto",
          "id": 32963518,
          "node_id": "MDQ6VXNlcjMyOTYzNTE4",
          "avatar_url": "https://avatars.githubusercontent.com/u/32963518?v=4",
          "gravatar_id": "",
          "url": "https://api.github.com/users/hebasto",
          "html_url": "https://github.com/hebasto",
          "followers_url": "https://api.github.com/users/hebasto/followers",
          "following_url": "https://api.github.com/users/hebasto/following%7B/other_user%7D",
          "gists_url": "https://api.github.com/users/hebasto/gists%7B/gist_id%7D",
          "starred_url": "https://api.github.com/users/hebasto/starred%7B/owner%7D%7B/repo%7D",
          "subscriptions_url": "https://api.github.com/users/hebasto/subscriptions",
          "organizations_url": "https://api.github.com/users/hebasto/orgs",
          "repos_url": "https://api.github.com/users/hebasto/repos",
          "events_url": "https://api.github.com/users/hebasto/events%7B/privacy%7D",
          "received_events_url": "https://api.github.com/users/hebasto/received_events",
          "type": "User",
          "site_admin": false
        },
        "private": false,
        "html_url": "https://github.com/hebasto/bitcoin",
        "description": "Bitcoin Core integration/staging tree",
        "fork": true,
        "url": "https://api.github.com/repos/hebasto/bitcoin",
        "archive_url": "https://api.github.com/repos/hebasto/bitcoin/%7Barchive_format%7D%7B/ref%7D",
        "assignees_url": "https://api.github.com/repos/hebasto/bitcoin/assignees%7B/user%7D",
        "blobs_url": "https://api.github.com/repos/hebasto/bitcoin/git/blobs%7B/sha%7D",
        "branches_url": "https://api.github.com/repos/hebasto/bitcoin/branches%7B/branch%7D",
        "collaborators_url": "https://api.github.com/repos/hebasto/bitcoin/collaborators%7B/collaborator%7D",
        "comments_url": "https://api.github.com/repos/hebasto/bitcoin/comments%7B/number%7D",
        "commits_url": "https://api.github.com/repos/hebasto/bitcoin/commits%7B/sha%7D",
        "compare_url": "https://api.github.com/repos/hebasto/bitcoin/compare/%7Bbase%7D...%7Bhead%7D",
        "contents_url": "https://api.github.com/repos/hebasto/bitcoin/contents/%7B+path%7D",
        "contributors_url": "https://api.github.com/repos/hebasto/bitcoin/contributors",
        "deployments_url": "https://api.github.com/repos/hebasto/bitcoin/deployments",
        "downloads_url": "https://api.github.com/repos/hebasto/bitcoin/downloads",
        "events_url": "https://api.github.com/repos/hebasto/bitcoin/events",
        "forks_url": "https://api.github.com/repos/hebasto/bitcoin/forks",
        "git_commits_url": "https://api.github.com/repos/hebasto/bitcoin/git/commits%7B/sha%7D",
        "git_refs_url": "https://api.github.com/repos/hebasto/bitcoin/git/refs%7B/sha%7D",
        "git_tags_url": "https://api.github.com/repos/hebasto/bitcoin/git/tags%7B/sha%7D",
        "git_url": "git://github.com/hebasto/bitcoin.git",
        "issue_comment_url": "https://api.github.com/repos/hebasto/bitcoin/issues/comments%7B/number%7D",
        "issue_events_url": "https://api.github.com/repos/hebasto/bitcoin/issues/events%7B/number%7D",
        "issues_url": "https://api.github.com/repos/hebasto/bitcoin/issues%7B/number%7D",
        "keys_url": "https://api.github.com/repos/hebasto/bitcoin/keys%7B/key_id%7D",
        "labels_url": "https://api.github.com/repos/hebasto/bitcoin/labels%7B/name%7D",
        "languages_url": "https://api.github.com/repos/hebasto/bitcoin/languages",
        "merges_url": "https://api.github.com/repos/hebasto/bitcoin/merges",
        "milestones_url": "https://api.github.com/repos/hebasto/bitcoin/milestones%7B/number%7D",
        "notifications_url": "https://api.github.com/repos/hebasto/bitcoin/notifications%7B?since,all,participating}",
        "pulls_url": "https://api.github.com/repos/hebasto/bitcoin/pulls%7B/number%7D",
        "releases_url": "https://api.github.com/repos/hebasto/bitcoin/releases%7B/id%7D",
        "ssh_url": "git@github.com:hebasto/bitcoin.git",
        "stargazers_url": "https://api.github.com/repos/hebasto/bitcoin/stargazers",
        "statuses_url": "https://api.github.com/repos/hebasto/bitcoin/statuses/%7Bsha%7D",
        "subscribers_url": "https://api.github.com/repos/hebasto/bitcoin/subscribers",
        "subscription_url": "https://api.github.com/repos/hebasto/bitcoin/subscription",
        "tags_url": "https://api.github.com/repos/hebasto/bitcoin/tags",
        "teams_url": "https://api.github.com/repos/hebasto/bitcoin/teams",
        "trees_url": "https://api.github.com/repos/hebasto/bitcoin/git/trees%7B/sha%7D",
        "clone_url": "https://github.com/hebasto/bitcoin.git",
        "hooks_url": "https://api.github.com/repos/hebasto/bitcoin/hooks",
        "svn_url": "https://github.com/hebasto/bitcoin",
        "homepage": "https://bitcoincore.org/en/download",
        "language": "C++",
        "forks_count": 3,
        "stargazers_count": 13,
        "watchers_count": 13,
        "size": 251607,
        "default_branch": "master",
        "open_issues_count": 3,
        "is_template": false,
        "topics": [
          "bitcoin-core"
        ],
        "has_issues": true,
        "has_projects": false,
        "has_wiki": false,
        "has_pages": false,
        "has_downloads": false,
        "archived": false,
        "disabled": false,
        "visibility": "public",
        "pushed_at": "2023-08-02T18:38:17Z",
        "created_at": "2018-08-01T21:59:57Z",
        "updated_at": "2023-07-25T14:18:54Z",
        "license": {
          "key": "mit",
          "name": "MIT License",
          "node_id": "MDc6TGljZW5zZTEz",
          "spdx_id": "MIT",
          "url": "https://api.github.com/licenses/mit",
          "html_url": null,
          "description": null,
          "implementation": null,
          "permissions": null,
          "conditions": null,
          "limitations": null,
          "body": null,
          "featured": null
        }
      }
    },
    "base": {
      "label": "bitcoin:master",
      "ref": "master",
      "sha": "5055d07edf4625d23c36d548d3598d7b578c05fb",
      "user": {
        "login": "bitcoin",
        "id": 528860,
        "node_id": "MDEyOk9yZ2FuaXphdGlvbjUyODg2MA==",
        "avatar_url": "https://avatars.githubusercontent.com/u/528860?v=4",
        "gravatar_id": "",
        "url": "https://api.github.com/users/bitcoin",
        "html_url": "https://github.com/bitcoin",
        "followers_url": "https://api.github.com/users/bitcoin/followers",
        "following_url": "https://api.github.com/users/bitcoin/following%7B/other_user%7D",
        "gists_url": "https://api.github.com/users/bitcoin/gists%7B/gist_id%7D",
        "starred_url": "https://api.github.com/users/bitcoin/starred%7B/owner%7D%7B/repo%7D",
        "subscriptions_url": "https://api.github.com/users/bitcoin/subscriptions",
        "organizations_url": "https://api.github.com/users/bitcoin/orgs",
        "repos_url": "https://api.github.com/users/bitcoin/repos",
        "events_url": "https://api.github.com/users/bitcoin/events%7B/privacy%7D",
        "received_events_url": "https://api.github.com/users/bitcoin/received_events",
        "type": "Organization",
        "site_admin": false
      },
      "repo": {
        "id": 1181927,
        "node_id": "MDEwOlJlcG9zaXRvcnkxMTgxOTI3",
        "name": "bitcoin",
        "full_name": "bitcoin/bitcoin",
        "owner": {
          "login": "bitcoin",
          "id": 528860,
          "node_id": "MDEyOk9yZ2FuaXphdGlvbjUyODg2MA==",
          "avatar_url": "https://avatars.githubusercontent.com/u/528860?v=4",
          "gravatar_id": "",
          "url": "https://api.github.com/users/bitcoin",
          "html_url": "https://github.com/bitcoin",
          "followers_url": "https://api.github.com/users/bitcoin/followers",
          "following_url": "https://api.github.com/users/bitcoin/following%7B/other_user%7D",
          "gists_url": "https://api.github.com/users/bitcoin/gists%7B/gist_id%7D",
          "starred_url": "https://api.github.com/users/bitcoin/starred%7B/owner%7D%7B/repo%7D",
          "subscriptions_url": "https://api.github.com/users/bitcoin/subscriptions",
          "organizations_url": "https://api.github.com/users/bitcoin/orgs",
          "repos_url": "https://api.github.com/users/bitcoin/repos",
          "events_url": "https://api.github.com/users/bitcoin/events%7B/privacy%7D",
          "received_events_url": "https://api.github.com/users/bitcoin/received_events",
          "type": "Organization",
          "site_admin": false
        },
        "private": false,
        "html_url": "https://github.com/bitcoin/bitcoin",
        "description": "Bitcoin Core integration/staging tree",
        "fork": false,
        "url": "https://api.github.com/repos/bitcoin/bitcoin",
        "archive_url": "https://api.github.com/repos/bitcoin/bitcoin/%7Barchive_format%7D%7B/ref%7D",
        "assignees_url": "https://api.github.com/repos/bitcoin/bitcoin/assignees%7B/user%7D",
        "blobs_url": "https://api.github.com/repos/bitcoin/bitcoin/git/blobs%7B/sha%7D",
        "branches_url": "https://api.github.com/repos/bitcoin/bitcoin/branches%7B/branch%7D",
        "collaborators_url": "https://api.github.com/repos/bitcoin/bitcoin/collaborators%7B/collaborator%7D",
        "comments_url": "https://api.github.com/repos/bitcoin/bitcoin/comments%7B/number%7D",
        "commits_url": "https://api.github.com/repos/bitcoin/bitcoin/commits%7B/sha%7D",
        "compare_url": "https://api.github.com/repos/bitcoin/bitcoin/compare/%7Bbase%7D...%7Bhead%7D",
        "contents_url": "https://api.github.com/repos/bitcoin/bitcoin/contents/%7B+path%7D",
        "contributors_url": "https://api.github.com/repos/bitcoin/bitcoin/contributors",
        "deployments_url": "https://api.github.com/repos/bitcoin/bitcoin/deployments",
        "downloads_url": "https://api.github.com/repos/bitcoin/bitcoin/downloads",
        "events_url": "https://api.github.com/repos/bitcoin/bitcoin/events",
        "forks_url": "https://api.github.com/repos/bitcoin/bitcoin/forks",
        "git_commits_url": "https://api.github.com/repos/bitcoin/bitcoin/git/commits%7B/sha%7D",
        "git_refs_url": "https://api.github.com/repos/bitcoin/bitcoin/git/refs%7B/sha%7D",
        "git_tags_url": "https://api.github.com/repos/bitcoin/bitcoin/git/tags%7B/sha%7D",
        "git_url": "git://github.com/bitcoin/bitcoin.git",
        "issue_comment_url": "https://api.github.com/repos/bitcoin/bitcoin/issues/comments%7B/number%7D",
        "issue_events_url": "https://api.github.com/repos/bitcoin/bitcoin/issues/events%7B/number%7D",
        "issues_url": "https://api.github.com/repos/bitcoin/bitcoin/issues%7B/number%7D",
        "keys_url": "https://api.github.com/repos/bitcoin/bitcoin/keys%7B/key_id%7D",
        "labels_url": "https://api.github.com/repos/bitcoin/bitcoin/labels%7B/name%7D",
        "languages_url": "https://api.github.com/repos/bitcoin/bitcoin/languages",
        "merges_url": "https://api.github.com/repos/bitcoin/bitcoin/merges",
        "milestones_url": "https://api.github.com/repos/bitcoin/bitcoin/milestones%7B/number%7D",
        "notifications_url": "https://api.github.com/repos/bitcoin/bitcoin/notifications%7B?since,all,participating}",
        "pulls_url": "https://api.github.com/repos/bitcoin/bitcoin/pulls%7B/number%7D",
        "releases_url": "https://api.github.com/repos/bitcoin/bitcoin/releases%7B/id%7D",
        "ssh_url": "git@github.com:bitcoin/bitcoin.git",
        "stargazers_url": "https://api.github.com/repos/bitcoin/bitcoin/stargazers",
        "statuses_url": "https://api.github.com/repos/bitcoin/bitcoin/statuses/%7Bsha%7D",
        "subscribers_url": "https://api.github.com/repos/bitcoin/bitcoin/subscribers",
        "subscription_url": "https://api.github.com/repos/bitcoin/bitcoin/subscription",
        "tags_url": "https://api.github.com/repos/bitcoin/bitcoin/tags",
        "teams_url": "https://api.github.com/repos/bitcoin/bitcoin/teams",
        "trees_url": "https://api.github.com/repos/bitcoin/bitcoin/git/trees%7B/sha%7D",
        "clone_url": "https://github.com/bitcoin/bitcoin.git",
        "hooks_url": "https://api.github.com/repos/bitcoin/bitcoin/hooks",
        "svn_url": "https://github.com/bitcoin/bitcoin",
        "homepage": "https://bitcoincore.org/en/download",
        "language": "C++",
        "forks_count": 35476,
        "stargazers_count": 70608,
        "watchers_count": 70608,
        "size": 236222,
        "default_branch": "master",
        "open_issues_count": 673,
        "is_template": false,
        "topics": [
          "bitcoin",
          "c-plus-plus",
          "cryptocurrency",
          "cryptography",
          "p2p"
        ],
        "has_issues": true,
        "has_projects": true,
        "has_wiki": false,
        "has_pages": false,
        "has_downloads": false,
        "archived": false,
        "disabled": false,
        "visibility": "public",
        "pushed_at": "2023-08-03T00:03:27Z",
        "created_at": "2010-12-19T15:16:43Z",
        "updated_at": "2023-08-02T18:21:18Z",
        "license": {
          "key": "mit",
          "name": "MIT License",
          "node_id": "MDc6TGljZW5zZTEz",
          "spdx_id": "MIT",
          "url": "https://api.github.com/licenses/mit",
          "html_url": null,
          "description": null,
          "implementation": null,
          "permissions": null,
          "conditions": null,
          "limitations": null,
          "body": null,
          "featured": null
        }
      }
    },
    "_links": {
      "self": {
        "href": "https://api.github.com/repos/bitcoin/bitcoin/pulls/26710"
      }
    },
    "author_association": "MEMBER",
    "draft": false,
    "additions": 1,
    "deletions": 1,
    "changed_files": 1,
    "commits": 1,
    "review_comments": 0,
    "comments": 3
  },
  "events": [
    {
      "event": "committed",
      "id": null,
      "node_id": "C_kwDOABII59oAKDQ4MDMzZDQzZGMzMGZjZWUyYzlhMzhjODI4ZDJmNThkM2JjMTE4Mjc",
      "url": "https://api.github.com/repos/bitcoin/bitcoin/git/commits/48033d43dc30fcee2c9a38c828d2f58d3bc11827",
      "actor": null,
      "commit_id": null,
      "commit_url": null,
      "created_at": null,
      "html_url": "https://github.com/bitcoin/bitcoin/commit/48033d43dc30fcee2c9a38c828d2f58d3bc11827",
      "tree": {
        "sha": "f7a5f7f18c9be0ecb4b5965ebf21a9d2b07af793",
        "url": "https://api.github.com/repos/bitcoin/bitcoin/git/trees/f7a5f7f18c9be0ecb4b5965ebf21a9d2b07af793"
      },
      "verification": {
        "verified": true,
        "reason": "valid",
        "payload": "tree f7a5f7f18c9be0ecb4b5965ebf21a9d2b07af793\nparent 5055d07edf4625d23c36d548d3598d7b578c05fb\nauthor Hennadii Stepanov <32963518+hebasto@users.noreply.github.com> 1671188035 +0000\ncommitter Hennadii Stepanov <32963518+hebasto@users.noreply.github.com> 1671188035 +0000\n\nclang-tidy: Fix `performance-for-range-copy` in headers\n\nSee https://clang.llvm.org/extra/clang-tidy/checks/performance/for-range-copy.html\n",
        "signature": "-----BEGIN PGP SIGNATURE-----\n\niQIzBAABCgAdFiEE0dvyxLlvLev0wWZUQQEIES5+qB8FAmOcTkMACgkQQQEIES5+\nqB/W5g//aYD9Xst5pV1XzeT0xQN3T2mtwEVhXP229hJizdzI7+6aJfuTCY1tsDR+\n55e5xUSp3UylJCcwT5rmyHqI3ZQAPjXZqvEyy2bKermB9aI2QUrAmNN51KcACaj1\nd13bqWBkKrWgeIOixA2yPqUrquUXVkvhsF2HSFJKykU2/TBYYod/6R3D/p/ZaqUT\nGq941ILiGLI3mnSyRkHf6yztpdv44MCiHb3zp0Yv3nj8XEWxTNPzaS0+lv5tEz6d\nVFQdQGh9XO/PuJrdpeXLu6l+XSq//P4ohdVvlfTZCRsD1QClMjDDjHCAxldLyynF\n2KQfs52a9vp6P5GHlnmp0L1n10fq0e8cpXM/pqZugfHWNrJdyIBdLWQ4TLQ/MYHw\nuVWEbUZuBG71HP59P6I4cRkP4OrNA8+a3/o0pWQEoAs1FeOXLOLiqglzwMLChspS\n3CCnxvuOzIL3GkwjMSM9i/MvipA20NjoX+oRRcvMlzlzYZArXAE6aNj0qqey5WPc\nXPWeuxWfUYiUDTpcPizyUuYJiHh2vfQthncDheiyYzEmgA3XS+IRNflDHD8vkeA2\nTanDLNeulL6w1b+pyBRdAnCEmFZignzwc5ftF4eJvQg5gNyjSubO+oW27Khf1pBj\n/9zXWMinaRm5LKY9s87uV5+5Gj19Fknw+2XSgfCntgHzj1H1rRI=\n=GChe\n-----END PGP SIGNATURE-----"
      },
      "parents": [
        {
          "url": "https://api.github.com/repos/bitcoin/bitcoin/git/commits/5055d07edf4625d23c36d548d3598d7b578c05fb",
          "sha": "5055d07edf4625d23c36d548d3598d7b578c05fb",
          "html_url": "https://github.com/bitcoin/bitcoin/commit/5055d07edf4625d23c36d548d3598d7b578c05fb"
        }
      ],
      "message": "clang-tidy: Fix `performance-for-range-copy` in headers\n\nSee https://clang.llvm.org/extra/clang-tidy/checks/performance/for-range-copy.html",
      "committer": {
        "name": "Hennadii Stepanov",
        "email": "32963518+hebasto@users.noreply.github.com",
        "date": "2022-12-16T10:53:55Z"
      },
      "author": {
        "name": "Hennadii Stepanov",
        "email": "32963518+hebasto@users.noreply.github.com",
        "date": "2022-12-16T10:53:55Z"
      },
      "sha": "48033d43dc30fcee2c9a38c828d2f58d3bc11827"
    },
    {
      "event": "commented",
      "id": 1354552188,
      "node_id": "IC_kwDOABII585QvNN8",
      "url": "https://api.github.com/repos/bitcoin/bitcoin/issues/comments/1354552188",
      "actor": {
        "login": "DrahtBot",
        "id": 39886733,
        "node_id": "MDQ6VXNlcjM5ODg2NzMz",
        "avatar_url": "https://avatars.githubusercontent.com/u/39886733?v=4",
        "gravatar_id": "",
        "url": "https://api.github.com/users/DrahtBot",
        "html_url": "https://github.com/DrahtBot",
        "followers_url": "https://api.github.com/users/DrahtBot/followers",
        "following_url": "https://api.github.com/users/DrahtBot/following%7B/other_user%7D",
        "gists_url": "https://api.github.com/users/DrahtBot/gists%7B/gist_id%7D",
        "starred_url": "https://api.github.com/users/DrahtBot/starred%7B/owner%7D%7B/repo%7D",
        "subscriptions_url": "https://api.github.com/users/DrahtBot/subscriptions",
        "organizations_url": "https://api.github.com/users/DrahtBot/orgs",
        "repos_url": "https://api.github.com/users/DrahtBot/repos",
        "events_url": "https://api.github.com/users/DrahtBot/events%7B/privacy%7D",
        "received_events_url": "https://api.github.com/users/DrahtBot/received_events",
        "type": "User",
        "site_admin": false
      },
      "commit_id": null,
      "commit_url": null,
      "created_at": "2022-12-16T10:55:58Z",
      "updated_at": "2022-12-16T11:21:19Z",
      "author_association": "CONTRIBUTOR",
      "body": "<!--e57a25ab6845829454e8d69fc972939a-->\n\nThe following sections might be updated with supplementary metadata relevant to reviewers and maintainers.\n\n<!--021abf342d371248e50ceaed478a90ca-->\n### Reviews\nSee [the guideline](https://github.com/bitcoin/bitcoin/blob/master/CONTRIBUTING.md#code-review) for information on the review process.\n| Type | Reviewers |\n| ---- | --------- |\n| ACK | [MarcoFalke](https://github.com/bitcoin/bitcoin/pull/26710#issuecomment-1354587360) |\n\nIf your review is incorrectly listed, please react with 👎 to this comment and the bot will ignore it on the next update.\n",
      "user": {
        "login": "DrahtBot",
        "id": 39886733,
        "node_id": "MDQ6VXNlcjM5ODg2NzMz",
        "avatar_url": "https://avatars.githubusercontent.com/u/39886733?v=4",
        "gravatar_id": "",
        "url": "https://api.github.com/users/DrahtBot",
        "html_url": "https://github.com/DrahtBot",
        "followers_url": "https://api.github.com/users/DrahtBot/followers",
        "following_url": "https://api.github.com/users/DrahtBot/following%7B/other_user%7D",
        "gists_url": "https://api.github.com/users/DrahtBot/gists%7B/gist_id%7D",
        "starred_url": "https://api.github.com/users/DrahtBot/starred%7B/owner%7D%7B/repo%7D",
        "subscriptions_url": "https://api.github.com/users/DrahtBot/subscriptions",
        "organizations_url": "https://api.github.com/users/DrahtBot/orgs",
        "repos_url": "https://api.github.com/users/DrahtBot/repos",
        "events_url": "https://api.github.com/users/DrahtBot/events%7B/privacy%7D",
        "received_events_url": "https://api.github.com/users/DrahtBot/received_events",
        "type": "User",
        "site_admin": false
      },
      "html_url": "https://github.com/bitcoin/bitcoin/pull/26710#issuecomment-1354552188",
      "issue_url": "https://api.github.com/repos/bitcoin/bitcoin/issues/26710"
    },
    {
      "event": "cross-referenced",
      "id": null,
      "node_id": null,
      "url": null,
      "actor": {
        "login": "hebasto",
        "id": 32963518,
        "node_id": "MDQ6VXNlcjMyOTYzNTE4",
        "avatar_url": "https://avatars.githubusercontent.com/u/32963518?v=4",
        "gravatar_id": "",
        "url": "https://api.github.com/users/hebasto",
        "html_url": "https://github.com/hebasto",
        "followers_url": "https://api.github.com/users/hebasto/followers",
        "following_url": "https://api.github.com/users/hebasto/following%7B/other_user%7D",
        "gists_url": "https://api.github.com/users/hebasto/gists%7B/gist_id%7D",
        "starred_url": "https://api.github.com/users/hebasto/starred%7B/owner%7D%7B/repo%7D",
        "subscriptions_url": "https://api.github.com/users/hebasto/subscriptions",
        "organizations_url": "https://api.github.com/users/hebasto/orgs",
        "repos_url": "https://api.github.com/users/hebasto/repos",
        "events_url": "https://api.github.com/users/hebasto/events%7B/privacy%7D",
        "received_events_url": "https://api.github.com/users/hebasto/received_events",
        "type": "User",
        "site_admin": false
      },
      "commit_id": null,
      "commit_url": null,
      "created_at": "2022-12-16T10:56:17Z",
      "updated_at": "2022-12-16T10:56:17Z",
      "source": {
        "issue": {
          "id": 1498647161,
          "node_id": "PR_kwDOABII585FjrF4",
          "url": "https://api.github.com/repos/bitcoin/bitcoin/issues/26705",
          "repository_url": "https://api.github.com/repos/bitcoin/bitcoin",
          "labels_url": "https://api.github.com/repos/bitcoin/bitcoin/issues/26705/labels%7B/name%7D",
          "comments_url": "https://api.github.com/repos/bitcoin/bitcoin/issues/26705/comments",
          "events_url": "https://api.github.com/repos/bitcoin/bitcoin/issues/26705/events",
          "html_url": "https://github.com/bitcoin/bitcoin/pull/26705",
          "number": 26705,
          "state": "closed",
          "state_reason": null,
          "title": "clang-tidy: Fix `modernize-use-default-member-init` in headers and force to check all headers",
          "body": "This PR:\r\n- fixes the only [remained](https://github.com/bitcoin/bitcoin/pull/26705#issuecomment-1353742082) check in headers, i.e., `modernize-use-default-member-init`\r\n- forces `clang-tidy` check all headers\r\n\r\nCloses bitcoin/bitcoin#26703.",
          "user": {
            "login": "hebasto",
            "id": 32963518,
            "node_id": "MDQ6VXNlcjMyOTYzNTE4",
            "avatar_url": "https://avatars.githubusercontent.com/u/32963518?v=4",
            "gravatar_id": "",
            "url": "https://api.github.com/users/hebasto",
            "html_url": "https://github.com/hebasto",
            "followers_url": "https://api.github.com/users/hebasto/followers",
            "following_url": "https://api.github.com/users/hebasto/following%7B/other_user%7D",
            "gists_url": "https://api.github.com/users/hebasto/gists%7B/gist_id%7D",
            "starred_url": "https://api.github.com/users/hebasto/starred%7B/owner%7D%7B/repo%7D",
            "subscriptions_url": "https://api.github.com/users/hebasto/subscriptions",
            "organizations_url": "https://api.github.com/users/hebasto/orgs",
            "repos_url": "https://api.github.com/users/hebasto/repos",
            "events_url": "https://api.github.com/users/hebasto/events%7B/privacy%7D",
            "received_events_url": "https://api.github.com/users/hebasto/received_events",
            "type": "User",
            "site_admin": false
          },
          "labels": [],
          "assignees": [],
          "author_association": "MEMBER",
          "locked": false,
          "comments": 11,
          "pull_request": {
            "url": "https://api.github.com/repos/bitcoin/bitcoin/pulls/26705",
            "html_url": "https://github.com/bitcoin/bitcoin/pull/26705",
            "diff_url": "https://github.com/bitcoin/bitcoin/pull/26705.diff",
            "patch_url": "https://github.com/bitcoin/bitcoin/pull/26705.patch"
          },
          "closed_at": "2023-02-01T09:40:29Z",
          "created_at": "2022-12-15T15:33:56Z",
          "updated_at": "2023-03-06T10:27:31Z"
        },
        "type": "issue"
      }
    },
    {
      "event": "commented",
      "id": 1354587360,
      "node_id": "IC_kwDOABII585QvVzg",
      "url": "https://api.github.com/repos/bitcoin/bitcoin/issues/comments/1354587360",
      "actor": {
        "login": "MarcoFalke",
        "id": 6399679,
        "node_id": "MDQ6VXNlcjYzOTk2Nzk=",
        "avatar_url": "https://avatars.githubusercontent.com/u/6399679?v=4",
        "gravatar_id": "",
        "url": "https://api.github.com/users/MarcoFalke",
        "html_url": "https://github.com/MarcoFalke",
        "followers_url": "https://api.github.com/users/MarcoFalke/followers",
        "following_url": "https://api.github.com/users/MarcoFalke/following%7B/other_user%7D",
        "gists_url": "https://api.github.com/users/MarcoFalke/gists%7B/gist_id%7D",
        "starred_url": "https://api.github.com/users/MarcoFalke/starred%7B/owner%7D%7B/repo%7D",
        "subscriptions_url": "https://api.github.com/users/MarcoFalke/subscriptions",
        "organizations_url": "https://api.github.com/users/MarcoFalke/orgs",
        "repos_url": "https://api.github.com/users/MarcoFalke/repos",
        "events_url": "https://api.github.com/users/MarcoFalke/events%7B/privacy%7D",
        "received_events_url": "https://api.github.com/users/MarcoFalke/received_events",
        "type": "User",
        "site_admin": false
      },
      "commit_id": null,
      "commit_url": null,
      "created_at": "2022-12-16T11:21:17Z",
      "updated_at": "2022-12-16T11:21:17Z",
      "author_association": "MEMBER",
      "body": "review ACK 48033d43dc30fcee2c9a38c828d2f58d3bc11827\r\n\r\nDid not test",
      "user": {
        "login": "MarcoFalke",
        "id": 6399679,
        "node_id": "MDQ6VXNlcjYzOTk2Nzk=",
        "avatar_url": "https://avatars.githubusercontent.com/u/6399679?v=4",
        "gravatar_id": "",
        "url": "https://api.github.com/users/MarcoFalke",
        "html_url": "https://github.com/MarcoFalke",
        "followers_url": "https://api.github.com/users/MarcoFalke/followers",
        "following_url": "https://api.github.com/users/MarcoFalke/following%7B/other_user%7D",
        "gists_url": "https://api.github.com/users/MarcoFalke/gists%7B/gist_id%7D",
        "starred_url": "https://api.github.com/users/MarcoFalke/starred%7B/owner%7D%7B/repo%7D",
        "subscriptions_url": "https://api.github.com/users/MarcoFalke/subscriptions",
        "organizations_url": "https://api.github.com/users/MarcoFalke/orgs",
        "repos_url": "https://api.github.com/users/MarcoFalke/repos",
        "events_url": "https://api.github.com/users/MarcoFalke/events%7B/privacy%7D",
        "received_events_url": "https://api.github.com/users/MarcoFalke/received_events",
        "type": "User",
        "site_admin": false
      },
      "html_url": "https://github.com/bitcoin/bitcoin/pull/26710#issuecomment-1354587360",
      "issue_url": "https://api.github.com/repos/bitcoin/bitcoin/issues/26710"
    },
    {
      "event": "renamed",
      "id": 8055777244,
      "node_id": "RTE_lADOABII585ZaDsRzwAAAAHgKWfc",
      "url": "https://api.github.com/repos/bitcoin/bitcoin/issues/events/8055777244",
      "actor": {
        "login": "MarcoFalke",
        "id": 6399679,
        "node_id": "MDQ6VXNlcjYzOTk2Nzk=",
        "avatar_url": "https://avatars.githubusercontent.com/u/6399679?v=4",
        "gravatar_id": "",
        "url": "https://api.github.com/users/MarcoFalke",
        "html_url": "https://github.com/MarcoFalke",
        "followers_url": "https://api.github.com/users/MarcoFalke/followers",
        "following_url": "https://api.github.com/users/MarcoFalke/following%7B/other_user%7D",
        "gists_url": "https://api.github.com/users/MarcoFalke/gists%7B/gist_id%7D",
        "starred_url": "https://api.github.com/users/MarcoFalke/starred%7B/owner%7D%7B/repo%7D",
        "subscriptions_url": "https://api.github.com/users/MarcoFalke/subscriptions",
        "organizations_url": "https://api.github.com/users/MarcoFalke/orgs",
        "repos_url": "https://api.github.com/users/MarcoFalke/repos",
        "events_url": "https://api.github.com/users/MarcoFalke/events%7B/privacy%7D",
        "received_events_url": "https://api.github.com/users/MarcoFalke/received_events",
        "type": "User",
        "site_admin": false
      },
      "commit_id": null,
      "commit_url": null,
      "created_at": "2022-12-16T11:21:47Z",
      "rename": {
        "from": "clang-tidy: Fix `performance-for-range-copy` in headers",
        "to": "refactor: Fix `performance-for-range-copy` in headers"
      }
    },
    {
      "event": "labeled",
      "id": 8055777565,
      "node_id": "LE_lADOABII585ZaDsRzwAAAAHgKWkd",
      "url": "https://api.github.com/repos/bitcoin/bitcoin/issues/events/8055777565",
      "actor": {
        "login": "DrahtBot",
        "id": 39886733,
        "node_id": "MDQ6VXNlcjM5ODg2NzMz",
        "avatar_url": "https://avatars.githubusercontent.com/u/39886733?v=4",
        "gravatar_id": "",
        "url": "https://api.github.com/users/DrahtBot",
        "html_url": "https://github.com/DrahtBot",
        "followers_url": "https://api.github.com/users/DrahtBot/followers",
        "following_url": "https://api.github.com/users/DrahtBot/following%7B/other_user%7D",
        "gists_url": "https://api.github.com/users/DrahtBot/gists%7B/gist_id%7D",
        "starred_url": "https://api.github.com/users/DrahtBot/starred%7B/owner%7D%7B/repo%7D",
        "subscriptions_url": "https://api.github.com/users/DrahtBot/subscriptions",
        "organizations_url": "https://api.github.com/users/DrahtBot/orgs",
        "repos_url": "https://api.github.com/users/DrahtBot/repos",
        "events_url": "https://api.github.com/users/DrahtBot/events%7B/privacy%7D",
        "received_events_url": "https://api.github.com/users/DrahtBot/received_events",
        "type": "User",
        "site_admin": false
      },
      "commit_id": null,
      "commit_url": null,
      "created_at": "2022-12-16T11:21:49Z",
      "label": {
        "name": "Refactoring",
        "color": "E6F6D6"
      }
    },
    {
      "event": "commented",
      "id": 1354670479,
      "node_id": "IC_kwDOABII585QvqGP",
      "url": "https://api.github.com/repos/bitcoin/bitcoin/issues/comments/1354670479",
      "actor": {
        "login": "hebasto",
        "id": 32963518,
        "node_id": "MDQ6VXNlcjMyOTYzNTE4",
        "avatar_url": "https://avatars.githubusercontent.com/u/32963518?v=4",
        "gravatar_id": "",
        "url": "https://api.github.com/users/hebasto",
        "html_url": "https://github.com/hebasto",
        "followers_url": "https://api.github.com/users/hebasto/followers",
        "following_url": "https://api.github.com/users/hebasto/following%7B/other_user%7D",
        "gists_url": "https://api.github.com/users/hebasto/gists%7B/gist_id%7D",
        "starred_url": "https://api.github.com/users/hebasto/starred%7B/owner%7D%7B/repo%7D",
        "subscriptions_url": "https://api.github.com/users/hebasto/subscriptions",
        "organizations_url": "https://api.github.com/users/hebasto/orgs",
        "repos_url": "https://api.github.com/users/hebasto/repos",
        "events_url": "https://api.github.com/users/hebasto/events%7B/privacy%7D",
        "received_events_url": "https://api.github.com/users/hebasto/received_events",
        "type": "User",
        "site_admin": false
      },
      "commit_id": null,
      "commit_url": null,
      "created_at": "2022-12-16T12:11:08Z",
      "updated_at": "2022-12-16T15:22:15Z",
      "author_association": "MEMBER",
      "body": "~Hmm, I can't retrieve a log from the failed CI [task](https://cirrus-ci.com/task/4525022186831872).~",
      "user": {
        "login": "hebasto",
        "id": 32963518,
        "node_id": "MDQ6VXNlcjMyOTYzNTE4",
        "avatar_url": "https://avatars.githubusercontent.com/u/32963518?v=4",
        "gravatar_id": "",
        "url": "https://api.github.com/users/hebasto",
        "html_url": "https://github.com/hebasto",
        "followers_url": "https://api.github.com/users/hebasto/followers",
        "following_url": "https://api.github.com/users/hebasto/following%7B/other_user%7D",
        "gists_url": "https://api.github.com/users/hebasto/gists%7B/gist_id%7D",
        "starred_url": "https://api.github.com/users/hebasto/starred%7B/owner%7D%7B/repo%7D",
        "subscriptions_url": "https://api.github.com/users/hebasto/subscriptions",
        "organizations_url": "https://api.github.com/users/hebasto/orgs",
        "repos_url": "https://api.github.com/users/hebasto/repos",
        "events_url": "https://api.github.com/users/hebasto/events%7B/privacy%7D",
        "received_events_url": "https://api.github.com/users/hebasto/received_events",
        "type": "User",
        "site_admin": false
      },
      "html_url": "https://github.com/bitcoin/bitcoin/pull/26710#issuecomment-1354670479",
      "issue_url": "https://api.github.com/repos/bitcoin/bitcoin/issues/26710"
    },
    {
      "event": "merged",
      "id": 8061732727,
      "node_id": "ME_lADOABII585ZaDsRzwAAAAHghEd3",
      "url": "https://api.github.com/repos/bitcoin/bitcoin/issues/events/8061732727",
      "actor": {
        "login": "MarcoFalke",
        "id": 6399679,
        "node_id": "MDQ6VXNlcjYzOTk2Nzk=",
        "avatar_url": "https://avatars.githubusercontent.com/u/6399679?v=4",
        "gravatar_id": "",
        "url": "https://api.github.com/users/MarcoFalke",
        "html_url": "https://github.com/MarcoFalke",
        "followers_url": "https://api.github.com/users/MarcoFalke/followers",
        "following_url": "https://api.github.com/users/MarcoFalke/following%7B/other_user%7D",
        "gists_url": "https://api.github.com/users/MarcoFalke/gists%7B/gist_id%7D",
        "starred_url": "https://api.github.com/users/MarcoFalke/starred%7B/owner%7D%7B/repo%7D",
        "subscriptions_url": "https://api.github.com/users/MarcoFalke/subscriptions",
        "organizations_url": "https://api.github.com/users/MarcoFalke/orgs",
        "repos_url": "https://api.github.com/users/MarcoFalke/repos",
        "events_url": "https://api.github.com/users/MarcoFalke/events%7B/privacy%7D",
        "received_events_url": "https://api.github.com/users/MarcoFalke/received_events",
        "type": "User",
        "site_admin": false
      },
      "commit_id": "cb32328d1b80d0ccd6eb9532bd8fe4e0a4de385e",
      "commit_url": "https://api.github.com/repos/bitcoin/bitcoin/commits/cb32328d1b80d0ccd6eb9532bd8fe4e0a4de385e",
      "created_at": "2022-12-17T11:54:35Z"
    },
    {
      "event": "closed",
      "id": 8061732730,
      "node_id": "CE_lADOABII585ZaDsRzwAAAAHghEd6",
      "url": "https://api.github.com/repos/bitcoin/bitcoin/issues/events/8061732730",
      "actor": {
        "login": "MarcoFalke",
        "id": 6399679,
        "node_id": "MDQ6VXNlcjYzOTk2Nzk=",
        "avatar_url": "https://avatars.githubusercontent.com/u/6399679?v=4",
        "gravatar_id": "",
        "url": "https://api.github.com/users/MarcoFalke",
        "html_url": "https://github.com/MarcoFalke",
        "followers_url": "https://api.github.com/users/MarcoFalke/followers",
        "following_url": "https://api.github.com/users/MarcoFalke/following%7B/other_user%7D",
        "gists_url": "https://api.github.com/users/MarcoFalke/gists%7B/gist_id%7D",
        "starred_url": "https://api.github.com/users/MarcoFalke/starred%7B/owner%7D%7B/repo%7D",
        "subscriptions_url": "https://api.github.com/users/MarcoFalke/subscriptions",
        "organizations_url": "https://api.github.com/users/MarcoFalke/orgs",
        "repos_url": "https://api.github.com/users/MarcoFalke/repos",
        "events_url": "https://api.github.com/users/MarcoFalke/events%7B/privacy%7D",
        "received_events_url": "https://api.github.com/users/MarcoFalke/received_events",
        "type": "User",
        "site_admin": false
      },
      "commit_id": null,
      "commit_url": null,
      "created_at": "2022-12-17T11:54:35Z"
    },
    {
      "event": "head_ref_deleted",
      "id": 8061740345,
      "node_id": "HRDE_lADOABII585ZaDsRzwAAAAHghGU5",
      "url": "https://api.github.com/repos/bitcoin/bitcoin/issues/events/8061740345",
      "actor": {
        "login": "hebasto",
        "id": 32963518,
        "node_id": "MDQ6VXNlcjMyOTYzNTE4",
        "avatar_url": "https://avatars.githubusercontent.com/u/32963518?v=4",
        "gravatar_id": "",
        "url": "https://api.github.com/users/hebasto",
        "html_url": "https://github.com/hebasto",
        "followers_url": "https://api.github.com/users/hebasto/followers",
        "following_url": "https://api.github.com/users/hebasto/following%7B/other_user%7D",
        "gists_url": "https://api.github.com/users/hebasto/gists%7B/gist_id%7D",
        "starred_url": "https://api.github.com/users/hebasto/starred%7B/owner%7D%7B/repo%7D",
        "subscriptions_url": "https://api.github.com/users/hebasto/subscriptions",
        "organizations_url": "https://api.github.com/users/hebasto/orgs",
        "repos_url": "https://api.github.com/users/hebasto/repos",
        "events_url": "https://api.github.com/users/hebasto/events%7B/privacy%7D",
        "received_events_url": "https://api.github.com/users/hebasto/received_events",
        "type": "User",
        "site_admin": false
      },
      "commit_id": null,
      "commit_url": null,
      "created_at": "2022-12-17T12:00:06Z"
    },
    {
      "event": "referenced",
      "id": 8062315910,
      "node_id": "REFE_lADOABII585ZaDsRzwAAAAHgjS2G",
      "url": "https://api.github.com/repos/bitcoin/bitcoin/issues/events/8062315910",
      "actor": {
        "login": "sidhujag",
        "id": 6238042,
        "node_id": "MDQ6VXNlcjYyMzgwNDI=",
        "avatar_url": "https://avatars.githubusercontent.com/u/6238042?v=4",
        "gravatar_id": "",
        "url": "https://api.github.com/users/sidhujag",
        "html_url": "https://github.com/sidhujag",
        "followers_url": "https://api.github.com/users/sidhujag/followers",
        "following_url": "https://api.github.com/users/sidhujag/following%7B/other_user%7D",
        "gists_url": "https://api.github.com/users/sidhujag/gists%7B/gist_id%7D",
        "starred_url": "https://api.github.com/users/sidhujag/starred%7B/owner%7D%7B/repo%7D",
        "subscriptions_url": "https://api.github.com/users/sidhujag/subscriptions",
        "organizations_url": "https://api.github.com/users/sidhujag/orgs",
        "repos_url": "https://api.github.com/users/sidhujag/repos",
        "events_url": "https://api.github.com/users/sidhujag/events%7B/privacy%7D",
        "received_events_url": "https://api.github.com/users/sidhujag/received_events",
        "type": "User",
        "site_admin": false
      },
      "commit_id": "9f664d719ef0940b0d44eddf81843e55b369fea5",
      "commit_url": "https://api.github.com/repos/syscoin/syscoin/commits/9f664d719ef0940b0d44eddf81843e55b369fea5",
      "created_at": "2022-12-17T18:17:01Z"
    },
    {
      "event": "cross-referenced",
      "id": null,
      "node_id": null,
      "url": null,
      "actor": {
        "login": "TheCharlatan",
        "id": 8421793,
        "node_id": "MDQ6VXNlcjg0MjE3OTM=",
        "avatar_url": "https://avatars.githubusercontent.com/u/8421793?v=4",
        "gravatar_id": "",
        "url": "https://api.github.com/users/TheCharlatan",
        "html_url": "https://github.com/TheCharlatan",
        "followers_url": "https://api.github.com/users/TheCharlatan/followers",
        "following_url": "https://api.github.com/users/TheCharlatan/following%7B/other_user%7D",
        "gists_url": "https://api.github.com/users/TheCharlatan/gists%7B/gist_id%7D",
        "starred_url": "https://api.github.com/users/TheCharlatan/starred%7B/owner%7D%7B/repo%7D",
        "subscriptions_url": "https://api.github.com/users/TheCharlatan/subscriptions",
        "organizations_url": "https://api.github.com/users/TheCharlatan/orgs",
        "repos_url": "https://api.github.com/users/TheCharlatan/repos",
        "events_url": "https://api.github.com/users/TheCharlatan/events%7B/privacy%7D",
        "received_events_url": "https://api.github.com/users/TheCharlatan/received_events",
        "type": "User",
        "site_admin": false
      },
      "commit_id": null,
      "commit_url": null,
      "created_at": "2023-03-28T10:07:59Z",
      "updated_at": "2023-03-28T10:07:59Z",
      "source": {
        "issue": {
          "id": 1643617799,
          "node_id": "PR_kwDOABII585NDSSL",
          "url": "https://api.github.com/repos/bitcoin/bitcoin/issues/27353",
          "repository_url": "https://api.github.com/repos/bitcoin/bitcoin",
          "labels_url": "https://api.github.com/repos/bitcoin/bitcoin/issues/27353/labels%7B/name%7D",
          "comments_url": "https://api.github.com/repos/bitcoin/bitcoin/issues/27353/comments",
          "events_url": "https://api.github.com/repos/bitcoin/bitcoin/issues/27353/events",
          "html_url": "https://github.com/bitcoin/bitcoin/pull/27353",
          "number": 27353,
          "state": "closed",
          "state_reason": null,
          "title": "refactor (tidy): Fixes after enable-debug configure",
          "body": "This diff can be reproduced by running (tested with clang-14 and clang-15):\r\n\r\n```\r\n./autogen.sh && CC=clang CXX=clang++ ./configure --enable-suppress-external-warnings --enable-debug\r\nbear --config src/.bear-tidy-config -- make -j $(nproc)\r\ncd ./src/ && run-clang-tidy -quiet -fix -j $(nproc)\r\n```",
          "user": {
            "login": "TheCharlatan",
            "id": 8421793,
            "node_id": "MDQ6VXNlcjg0MjE3OTM=",
            "avatar_url": "https://avatars.githubusercontent.com/u/8421793?v=4",
            "gravatar_id": "",
            "url": "https://api.github.com/users/TheCharlatan",
            "html_url": "https://github.com/TheCharlatan",
            "followers_url": "https://api.github.com/users/TheCharlatan/followers",
            "following_url": "https://api.github.com/users/TheCharlatan/following%7B/other_user%7D",
            "gists_url": "https://api.github.com/users/TheCharlatan/gists%7B/gist_id%7D",
            "starred_url": "https://api.github.com/users/TheCharlatan/starred%7B/owner%7D%7B/repo%7D",
            "subscriptions_url": "https://api.github.com/users/TheCharlatan/subscriptions",
            "organizations_url": "https://api.github.com/users/TheCharlatan/orgs",
            "repos_url": "https://api.github.com/users/TheCharlatan/repos",
            "events_url": "https://api.github.com/users/TheCharlatan/events%7B/privacy%7D",
            "received_events_url": "https://api.github.com/users/TheCharlatan/received_events",
            "type": "User",
            "site_admin": false
          },
          "labels": [
            {
              "id": 135961,
              "node_id": "MDU6TGFiZWwxMzU5NjE=",
              "url": "https://api.github.com/repos/bitcoin/bitcoin/labels/Refactoring",
              "name": "Refactoring",
              "color": "E6F6D6",
              "default": false
            }
          ],
          "assignees": [],
          "author_association": "CONTRIBUTOR",
          "locked": false,
          "comments": 18,
          "pull_request": {
            "url": "https://api.github.com/repos/bitcoin/bitcoin/pulls/27353",
            "html_url": "https://github.com/bitcoin/bitcoin/pull/27353",
            "diff_url": "https://github.com/bitcoin/bitcoin/pull/27353.diff",
            "patch_url": "https://github.com/bitcoin/bitcoin/pull/27353.patch"
          },
          "closed_at": "2023-06-05T12:08:16Z",
          "created_at": "2023-03-28T10:07:59Z",
          "updated_at": "2023-06-05T12:08:16Z"
        },
        "type": "issue"
      }
    }
  ],
  "comments": []
}