{
  "type": "pull",
  "pull": {
    "url": "https://api.github.com/repos/bitcoin/bitcoin/pulls/26725",
    "id": 1170563048,
    "node_id": "PR_kwDOABII585FxV_o",
    "html_url": "https://github.com/bitcoin/bitcoin/pull/26725",
    "diff_url": "https://github.com/bitcoin/bitcoin/pull/26725.diff",
    "patch_url": "https://github.com/bitcoin/bitcoin/pull/26725.patch",
    "issue_url": "https://api.github.com/repos/bitcoin/bitcoin/issues/26725",
    "commits_url": "https://api.github.com/repos/bitcoin/bitcoin/pulls/26725/commits",
    "review_comments_url": "https://api.github.com/repos/bitcoin/bitcoin/pulls/26725/comments",
    "review_comment_url": "https://api.github.com/repos/bitcoin/bitcoin/pulls/comments%7B/number%7D",
    "comments_url": "https://api.github.com/repos/bitcoin/bitcoin/issues/26725/comments",
    "statuses_url": "https://api.github.com/repos/bitcoin/bitcoin/statuses/7536ff2e0692c6f78f9974b16700d0c0e7737c01",
    "number": 26725,
    "state": "closed",
    "locked": false,
    "maintainer_can_modify": false,
    "title": "lint: fix lint-tests.py failing on correct names",
    "user": {
      "login": "willcl-ark",
      "id": 6606587,
      "node_id": "MDQ6VXNlcjY2MDY1ODc=",
      "avatar_url": "https://avatars.githubusercontent.com/u/6606587?v=4",
      "gravatar_id": "",
      "url": "https://api.github.com/users/willcl-ark",
      "html_url": "https://github.com/willcl-ark",
      "followers_url": "https://api.github.com/users/willcl-ark/followers",
      "following_url": "https://api.github.com/users/willcl-ark/following%7B/other_user%7D",
      "gists_url": "https://api.github.com/users/willcl-ark/gists%7B/gist_id%7D",
      "starred_url": "https://api.github.com/users/willcl-ark/starred%7B/owner%7D%7B/repo%7D",
      "subscriptions_url": "https://api.github.com/users/willcl-ark/subscriptions",
      "organizations_url": "https://api.github.com/users/willcl-ark/orgs",
      "repos_url": "https://api.github.com/users/willcl-ark/repos",
      "events_url": "https://api.github.com/users/willcl-ark/events%7B/privacy%7D",
      "received_events_url": "https://api.github.com/users/willcl-ark/received_events",
      "type": "User",
      "site_admin": false
    },
    "body": "lint-tests.py is currently failing to detect that filenames are correct and therefore returning incorrect result and error code from the script. This fixes the matching.\r\n\r\nOuput before:\r\n\r\n```\r\n❯ test/lint/lint-tests.py\r\nThe test suite in file src/test/foo_tests.cpp should be named\r\n\"foo_tests\". Please make sure the following test suites follow\r\nthat convention:\r\n\r\nsrc/test/addrman_tests.cpp:61:BOOST_FIXTURE_TEST_SUITE(addrman_tests, BasicTestingSetup)\r\nsrc/test/argsman_tests.cpp:22:BOOST_FIXTURE_TEST_SUITE(argsman_tests, BasicTestingSetup)\r\nsrc/test/banman_tests.cpp:16:BOOST_FIXTURE_TEST_SUITE(banman_tests, BasicTestingSetup)\r\nsrc/test/base58_tests.cpp:21:BOOST_FIXTURE_TEST_SUITE(base58_tests, BasicTestingSetup)\r\nsrc/test/bip32_tests.cpp:160:BOOST_FIXTURE_TEST_SUITE(bip32_tests, BasicTestingSetup)\r\n...\r\netc.\r\n```\r\nOutput after (all tests ok):\r\n\r\n```\r\n❯ test/lint/lint-tests.py; echo $status\r\n0\r\n```\r\n\r\n\r\nOutput after (with an intentially renamed test):\r\n```\r\n❯ git mv src/test/addrman_tests.cpp src/test/addrman_tests_incorrect.cpp\r\n\r\nwill@ubuntu in bitcoin on  lint-name-test [$»] via 🐍 v3.6.15\r\n❯ test/lint/lint-tests.py; and $status\r\nThe test suite in file src/test/foo_tests.cpp should be named\r\n\"foo_tests\". Please make sure the following test suites follow\r\nthat convention:\r\n\r\nsrc/test/addrman_tests_incorrect.cpp\r\n\r\n1\r\n```",
    "labels": [],
    "created_at": "2022-12-19T10:54:40Z",
    "updated_at": "2022-12-19T14:43:00Z",
    "closed_at": "2022-12-19T12:10:44Z",
    "mergeable_state": "unknown",
    "merge_commit_sha": "a25049a6e82f6da3b862682403d39e5004963b39",
    "assignees": [],
    "requested_reviewers": [],
    "requested_teams": [],
    "head": {
      "label": "willcl-ark:lint-name-test",
      "ref": "lint-name-test",
      "sha": "7536ff2e0692c6f78f9974b16700d0c0e7737c01",
      "user": {
        "login": "willcl-ark",
        "id": 6606587,
        "node_id": "MDQ6VXNlcjY2MDY1ODc=",
        "avatar_url": "https://avatars.githubusercontent.com/u/6606587?v=4",
        "gravatar_id": "",
        "url": "https://api.github.com/users/willcl-ark",
        "html_url": "https://github.com/willcl-ark",
        "followers_url": "https://api.github.com/users/willcl-ark/followers",
        "following_url": "https://api.github.com/users/willcl-ark/following%7B/other_user%7D",
        "gists_url": "https://api.github.com/users/willcl-ark/gists%7B/gist_id%7D",
        "starred_url": "https://api.github.com/users/willcl-ark/starred%7B/owner%7D%7B/repo%7D",
        "subscriptions_url": "https://api.github.com/users/willcl-ark/subscriptions",
        "organizations_url": "https://api.github.com/users/willcl-ark/orgs",
        "repos_url": "https://api.github.com/users/willcl-ark/repos",
        "events_url": "https://api.github.com/users/willcl-ark/events%7B/privacy%7D",
        "received_events_url": "https://api.github.com/users/willcl-ark/received_events",
        "type": "User",
        "site_admin": false
      },
      "repo": {
        "id": 164122552,
        "node_id": "MDEwOlJlcG9zaXRvcnkxNjQxMjI1NTI=",
        "name": "bitcoin",
        "full_name": "willcl-ark/bitcoin",
        "owner": {
          "login": "willcl-ark",
          "id": 6606587,
          "node_id": "MDQ6VXNlcjY2MDY1ODc=",
          "avatar_url": "https://avatars.githubusercontent.com/u/6606587?v=4",
          "gravatar_id": "",
          "url": "https://api.github.com/users/willcl-ark",
          "html_url": "https://github.com/willcl-ark",
          "followers_url": "https://api.github.com/users/willcl-ark/followers",
          "following_url": "https://api.github.com/users/willcl-ark/following%7B/other_user%7D",
          "gists_url": "https://api.github.com/users/willcl-ark/gists%7B/gist_id%7D",
          "starred_url": "https://api.github.com/users/willcl-ark/starred%7B/owner%7D%7B/repo%7D",
          "subscriptions_url": "https://api.github.com/users/willcl-ark/subscriptions",
          "organizations_url": "https://api.github.com/users/willcl-ark/orgs",
          "repos_url": "https://api.github.com/users/willcl-ark/repos",
          "events_url": "https://api.github.com/users/willcl-ark/events%7B/privacy%7D",
          "received_events_url": "https://api.github.com/users/willcl-ark/received_events",
          "type": "User",
          "site_admin": false
        },
        "private": false,
        "html_url": "https://github.com/willcl-ark/bitcoin",
        "description": "Bitcoin Core integration/staging tree",
        "fork": true,
        "url": "https://api.github.com/repos/willcl-ark/bitcoin",
        "archive_url": "https://api.github.com/repos/willcl-ark/bitcoin/%7Barchive_format%7D%7B/ref%7D",
        "assignees_url": "https://api.github.com/repos/willcl-ark/bitcoin/assignees%7B/user%7D",
        "blobs_url": "https://api.github.com/repos/willcl-ark/bitcoin/git/blobs%7B/sha%7D",
        "branches_url": "https://api.github.com/repos/willcl-ark/bitcoin/branches%7B/branch%7D",
        "collaborators_url": "https://api.github.com/repos/willcl-ark/bitcoin/collaborators%7B/collaborator%7D",
        "comments_url": "https://api.github.com/repos/willcl-ark/bitcoin/comments%7B/number%7D",
        "commits_url": "https://api.github.com/repos/willcl-ark/bitcoin/commits%7B/sha%7D",
        "compare_url": "https://api.github.com/repos/willcl-ark/bitcoin/compare/%7Bbase%7D...%7Bhead%7D",
        "contents_url": "https://api.github.com/repos/willcl-ark/bitcoin/contents/%7B+path%7D",
        "contributors_url": "https://api.github.com/repos/willcl-ark/bitcoin/contributors",
        "deployments_url": "https://api.github.com/repos/willcl-ark/bitcoin/deployments",
        "downloads_url": "https://api.github.com/repos/willcl-ark/bitcoin/downloads",
        "events_url": "https://api.github.com/repos/willcl-ark/bitcoin/events",
        "forks_url": "https://api.github.com/repos/willcl-ark/bitcoin/forks",
        "git_commits_url": "https://api.github.com/repos/willcl-ark/bitcoin/git/commits%7B/sha%7D",
        "git_refs_url": "https://api.github.com/repos/willcl-ark/bitcoin/git/refs%7B/sha%7D",
        "git_tags_url": "https://api.github.com/repos/willcl-ark/bitcoin/git/tags%7B/sha%7D",
        "git_url": "git://github.com/willcl-ark/bitcoin.git",
        "issue_comment_url": "https://api.github.com/repos/willcl-ark/bitcoin/issues/comments%7B/number%7D",
        "issue_events_url": "https://api.github.com/repos/willcl-ark/bitcoin/issues/events%7B/number%7D",
        "issues_url": "https://api.github.com/repos/willcl-ark/bitcoin/issues%7B/number%7D",
        "keys_url": "https://api.github.com/repos/willcl-ark/bitcoin/keys%7B/key_id%7D",
        "labels_url": "https://api.github.com/repos/willcl-ark/bitcoin/labels%7B/name%7D",
        "languages_url": "https://api.github.com/repos/willcl-ark/bitcoin/languages",
        "merges_url": "https://api.github.com/repos/willcl-ark/bitcoin/merges",
        "milestones_url": "https://api.github.com/repos/willcl-ark/bitcoin/milestones%7B/number%7D",
        "notifications_url": "https://api.github.com/repos/willcl-ark/bitcoin/notifications%7B?since,all,participating}",
        "pulls_url": "https://api.github.com/repos/willcl-ark/bitcoin/pulls%7B/number%7D",
        "releases_url": "https://api.github.com/repos/willcl-ark/bitcoin/releases%7B/id%7D",
        "ssh_url": "git@github.com:willcl-ark/bitcoin.git",
        "stargazers_url": "https://api.github.com/repos/willcl-ark/bitcoin/stargazers",
        "statuses_url": "https://api.github.com/repos/willcl-ark/bitcoin/statuses/%7Bsha%7D",
        "subscribers_url": "https://api.github.com/repos/willcl-ark/bitcoin/subscribers",
        "subscription_url": "https://api.github.com/repos/willcl-ark/bitcoin/subscription",
        "tags_url": "https://api.github.com/repos/willcl-ark/bitcoin/tags",
        "teams_url": "https://api.github.com/repos/willcl-ark/bitcoin/teams",
        "trees_url": "https://api.github.com/repos/willcl-ark/bitcoin/git/trees%7B/sha%7D",
        "clone_url": "https://github.com/willcl-ark/bitcoin.git",
        "hooks_url": "https://api.github.com/repos/willcl-ark/bitcoin/hooks",
        "svn_url": "https://github.com/willcl-ark/bitcoin",
        "homepage": "https://bitcoincore.org/en/download",
        "language": "C++",
        "forks_count": 0,
        "stargazers_count": 1,
        "watchers_count": 1,
        "size": 219222,
        "default_branch": "master",
        "open_issues_count": 4,
        "is_template": false,
        "topics": [],
        "has_issues": true,
        "has_projects": true,
        "has_wiki": false,
        "has_pages": false,
        "has_downloads": false,
        "archived": false,
        "disabled": false,
        "visibility": "public",
        "pushed_at": "2023-07-27T09:11:47Z",
        "created_at": "2019-01-04T15:17:29Z",
        "updated_at": "2023-05-05T12:10:23Z",
        "license": {
          "key": "mit",
          "name": "MIT License",
          "node_id": "MDc6TGljZW5zZTEz",
          "spdx_id": "MIT",
          "url": "https://api.github.com/licenses/mit",
          "html_url": null,
          "description": null,
          "implementation": null,
          "permissions": null,
          "conditions": null,
          "limitations": null,
          "body": null,
          "featured": null
        }
      }
    },
    "base": {
      "label": "bitcoin:master",
      "ref": "master",
      "sha": "65f5cfda656c150dd0df40369845c53fa387b25f",
      "user": {
        "login": "bitcoin",
        "id": 528860,
        "node_id": "MDEyOk9yZ2FuaXphdGlvbjUyODg2MA==",
        "avatar_url": "https://avatars.githubusercontent.com/u/528860?v=4",
        "gravatar_id": "",
        "url": "https://api.github.com/users/bitcoin",
        "html_url": "https://github.com/bitcoin",
        "followers_url": "https://api.github.com/users/bitcoin/followers",
        "following_url": "https://api.github.com/users/bitcoin/following%7B/other_user%7D",
        "gists_url": "https://api.github.com/users/bitcoin/gists%7B/gist_id%7D",
        "starred_url": "https://api.github.com/users/bitcoin/starred%7B/owner%7D%7B/repo%7D",
        "subscriptions_url": "https://api.github.com/users/bitcoin/subscriptions",
        "organizations_url": "https://api.github.com/users/bitcoin/orgs",
        "repos_url": "https://api.github.com/users/bitcoin/repos",
        "events_url": "https://api.github.com/users/bitcoin/events%7B/privacy%7D",
        "received_events_url": "https://api.github.com/users/bitcoin/received_events",
        "type": "Organization",
        "site_admin": false
      },
      "repo": {
        "id": 1181927,
        "node_id": "MDEwOlJlcG9zaXRvcnkxMTgxOTI3",
        "name": "bitcoin",
        "full_name": "bitcoin/bitcoin",
        "owner": {
          "login": "bitcoin",
          "id": 528860,
          "node_id": "MDEyOk9yZ2FuaXphdGlvbjUyODg2MA==",
          "avatar_url": "https://avatars.githubusercontent.com/u/528860?v=4",
          "gravatar_id": "",
          "url": "https://api.github.com/users/bitcoin",
          "html_url": "https://github.com/bitcoin",
          "followers_url": "https://api.github.com/users/bitcoin/followers",
          "following_url": "https://api.github.com/users/bitcoin/following%7B/other_user%7D",
          "gists_url": "https://api.github.com/users/bitcoin/gists%7B/gist_id%7D",
          "starred_url": "https://api.github.com/users/bitcoin/starred%7B/owner%7D%7B/repo%7D",
          "subscriptions_url": "https://api.github.com/users/bitcoin/subscriptions",
          "organizations_url": "https://api.github.com/users/bitcoin/orgs",
          "repos_url": "https://api.github.com/users/bitcoin/repos",
          "events_url": "https://api.github.com/users/bitcoin/events%7B/privacy%7D",
          "received_events_url": "https://api.github.com/users/bitcoin/received_events",
          "type": "Organization",
          "site_admin": false
        },
        "private": false,
        "html_url": "https://github.com/bitcoin/bitcoin",
        "description": "Bitcoin Core integration/staging tree",
        "fork": false,
        "url": "https://api.github.com/repos/bitcoin/bitcoin",
        "archive_url": "https://api.github.com/repos/bitcoin/bitcoin/%7Barchive_format%7D%7B/ref%7D",
        "assignees_url": "https://api.github.com/repos/bitcoin/bitcoin/assignees%7B/user%7D",
        "blobs_url": "https://api.github.com/repos/bitcoin/bitcoin/git/blobs%7B/sha%7D",
        "branches_url": "https://api.github.com/repos/bitcoin/bitcoin/branches%7B/branch%7D",
        "collaborators_url": "https://api.github.com/repos/bitcoin/bitcoin/collaborators%7B/collaborator%7D",
        "comments_url": "https://api.github.com/repos/bitcoin/bitcoin/comments%7B/number%7D",
        "commits_url": "https://api.github.com/repos/bitcoin/bitcoin/commits%7B/sha%7D",
        "compare_url": "https://api.github.com/repos/bitcoin/bitcoin/compare/%7Bbase%7D...%7Bhead%7D",
        "contents_url": "https://api.github.com/repos/bitcoin/bitcoin/contents/%7B+path%7D",
        "contributors_url": "https://api.github.com/repos/bitcoin/bitcoin/contributors",
        "deployments_url": "https://api.github.com/repos/bitcoin/bitcoin/deployments",
        "downloads_url": "https://api.github.com/repos/bitcoin/bitcoin/downloads",
        "events_url": "https://api.github.com/repos/bitcoin/bitcoin/events",
        "forks_url": "https://api.github.com/repos/bitcoin/bitcoin/forks",
        "git_commits_url": "https://api.github.com/repos/bitcoin/bitcoin/git/commits%7B/sha%7D",
        "git_refs_url": "https://api.github.com/repos/bitcoin/bitcoin/git/refs%7B/sha%7D",
        "git_tags_url": "https://api.github.com/repos/bitcoin/bitcoin/git/tags%7B/sha%7D",
        "git_url": "git://github.com/bitcoin/bitcoin.git",
        "issue_comment_url": "https://api.github.com/repos/bitcoin/bitcoin/issues/comments%7B/number%7D",
        "issue_events_url": "https://api.github.com/repos/bitcoin/bitcoin/issues/events%7B/number%7D",
        "issues_url": "https://api.github.com/repos/bitcoin/bitcoin/issues%7B/number%7D",
        "keys_url": "https://api.github.com/repos/bitcoin/bitcoin/keys%7B/key_id%7D",
        "labels_url": "https://api.github.com/repos/bitcoin/bitcoin/labels%7B/name%7D",
        "languages_url": "https://api.github.com/repos/bitcoin/bitcoin/languages",
        "merges_url": "https://api.github.com/repos/bitcoin/bitcoin/merges",
        "milestones_url": "https://api.github.com/repos/bitcoin/bitcoin/milestones%7B/number%7D",
        "notifications_url": "https://api.github.com/repos/bitcoin/bitcoin/notifications%7B?since,all,participating}",
        "pulls_url": "https://api.github.com/repos/bitcoin/bitcoin/pulls%7B/number%7D",
        "releases_url": "https://api.github.com/repos/bitcoin/bitcoin/releases%7B/id%7D",
        "ssh_url": "git@github.com:bitcoin/bitcoin.git",
        "stargazers_url": "https://api.github.com/repos/bitcoin/bitcoin/stargazers",
        "statuses_url": "https://api.github.com/repos/bitcoin/bitcoin/statuses/%7Bsha%7D",
        "subscribers_url": "https://api.github.com/repos/bitcoin/bitcoin/subscribers",
        "subscription_url": "https://api.github.com/repos/bitcoin/bitcoin/subscription",
        "tags_url": "https://api.github.com/repos/bitcoin/bitcoin/tags",
        "teams_url": "https://api.github.com/repos/bitcoin/bitcoin/teams",
        "trees_url": "https://api.github.com/repos/bitcoin/bitcoin/git/trees%7B/sha%7D",
        "clone_url": "https://github.com/bitcoin/bitcoin.git",
        "hooks_url": "https://api.github.com/repos/bitcoin/bitcoin/hooks",
        "svn_url": "https://github.com/bitcoin/bitcoin",
        "homepage": "https://bitcoincore.org/en/download",
        "language": "C++",
        "forks_count": 35476,
        "stargazers_count": 70608,
        "watchers_count": 70608,
        "size": 236222,
        "default_branch": "master",
        "open_issues_count": 673,
        "is_template": false,
        "topics": [
          "bitcoin",
          "c-plus-plus",
          "cryptocurrency",
          "cryptography",
          "p2p"
        ],
        "has_issues": true,
        "has_projects": true,
        "has_wiki": false,
        "has_pages": false,
        "has_downloads": false,
        "archived": false,
        "disabled": false,
        "visibility": "public",
        "pushed_at": "2023-08-03T00:03:27Z",
        "created_at": "2010-12-19T15:16:43Z",
        "updated_at": "2023-08-02T18:21:18Z",
        "license": {
          "key": "mit",
          "name": "MIT License",
          "node_id": "MDc6TGljZW5zZTEz",
          "spdx_id": "MIT",
          "url": "https://api.github.com/licenses/mit",
          "html_url": null,
          "description": null,
          "implementation": null,
          "permissions": null,
          "conditions": null,
          "limitations": null,
          "body": null,
          "featured": null
        }
      }
    },
    "_links": {
      "self": {
        "href": "https://api.github.com/repos/bitcoin/bitcoin/pulls/26725"
      }
    },
    "author_association": "CONTRIBUTOR",
    "draft": false,
    "additions": 3,
    "deletions": 6,
    "changed_files": 1,
    "commits": 1,
    "review_comments": 0,
    "comments": 7
  },
  "events": [
    {
      "event": "committed",
      "id": null,
      "node_id": "C_kwDOABII59oAKDc1MzZmZjJlMDY5MmM2Zjc4Zjk5NzRiMTY3MDBkMGMwZTc3MzdjMDE",
      "url": "https://api.github.com/repos/bitcoin/bitcoin/git/commits/7536ff2e0692c6f78f9974b16700d0c0e7737c01",
      "actor": null,
      "commit_id": null,
      "commit_url": null,
      "created_at": null,
      "html_url": "https://github.com/bitcoin/bitcoin/commit/7536ff2e0692c6f78f9974b16700d0c0e7737c01",
      "tree": {
        "sha": "78311efaa9dcf9cb3951184d9ef2c80c4b95af8f",
        "url": "https://api.github.com/repos/bitcoin/bitcoin/git/trees/78311efaa9dcf9cb3951184d9ef2c80c4b95af8f"
      },
      "verification": {
        "verified": true,
        "reason": "valid",
        "payload": "tree 78311efaa9dcf9cb3951184d9ef2c80c4b95af8f\nparent 65f5cfda656c150dd0df40369845c53fa387b25f\nauthor willcl-ark <will@256k1.dev> 1671446454 +0000\ncommitter willcl-ark <will@256k1.dev> 1671446932 +0000\n\nlint: fix lint-tests.py failing on correct names\n\nlint-tests.py is currently failing to detect that filenames are correct\nand therefore returning incorrect result and error code from the script.\n",
        "signature": "-----BEGIN PGP SIGNATURE-----\n\niQIzBAABCgAdFiEEoAg2YPI1onAAzTyBzm7EmUXBfqYFAmOgQbYACgkQzm7EmUXB\nfqbZ9Q//YA43k/I97Wm5ssxALKXfr3e2uJ1BZrz275JI//oWXQRluMSaxGjEl/WC\nTdrK96tLKKt+7pw3CkqGwV1qcuO342q3cQTHeek6u8G6TNLwge0/jj6Nol8BKLol\nUt9X/SQlDEGWlsf5IZQaHGiqUFVYFtc6A+MFS+vt9GpqHxNy450oN2pqkZYLTxgs\narZZywzjRPDODjNmZK5DH95816nPW21lmicSpWqa73IghU1ok6pseug+/24JYnOZ\nD/ZbTFBpjUYqaDa3wUJeLHSbB/sU+erN4WoReHWYQf4Wx4XKYVUgy/88CjqNZZDC\ngRgGkdj9JdQw/9No8dT0OQ9C7Fpw7CwRBbWaZGGj7CVO02dyLHAPEhhrLwZVXFWK\nb3Jq0fOLRbOA1GNslNy0K5j/VCs++zYDo97FACMhcxeSaWh7Fxy++W/gJ+yDOmmd\nNahTg5suQNestuwEXXKkriJx739Nqy1FYF8ZNHkgKnSvpEfBvDKxUfDeHF1KBxVD\nH9k7TavDmevpfs6rj7BqhtlMeOWP/a2Tw130ScQx62ZpnzLCQbCST+vHLIs9to2z\nFtm3zD5aG6d3N7eXcYcbk68BA0gWmLFbpTVdCCJgW8tl2+v8xNuHNOcXowsjXXsv\n0nwd0ZI2tW0uzoK/dNzaGfDfK+QuPX6MhIVOtWvfY1dGyrHCnqM=\n=y4jQ\n-----END PGP SIGNATURE-----"
      },
      "parents": [
        {
          "url": "https://api.github.com/repos/bitcoin/bitcoin/git/commits/65f5cfda656c150dd0df40369845c53fa387b25f",
          "sha": "65f5cfda656c150dd0df40369845c53fa387b25f",
          "html_url": "https://github.com/bitcoin/bitcoin/commit/65f5cfda656c150dd0df40369845c53fa387b25f"
        }
      ],
      "message": "lint: fix lint-tests.py failing on correct names\n\nlint-tests.py is currently failing to detect that filenames are correct\nand therefore returning incorrect result and error code from the script.",
      "committer": {
        "name": "willcl-ark",
        "email": "will@256k1.dev",
        "date": "2022-12-19T10:48:52Z"
      },
      "author": {
        "name": "willcl-ark",
        "email": "will@256k1.dev",
        "date": "2022-12-19T10:40:54Z"
      },
      "sha": "7536ff2e0692c6f78f9974b16700d0c0e7737c01"
    },
    {
      "event": "commented",
      "id": 1357456456,
      "node_id": "IC_kwDOABII585Q6SRI",
      "url": "https://api.github.com/repos/bitcoin/bitcoin/issues/comments/1357456456",
      "actor": {
        "login": "DrahtBot",
        "id": 39886733,
        "node_id": "MDQ6VXNlcjM5ODg2NzMz",
        "avatar_url": "https://avatars.githubusercontent.com/u/39886733?v=4",
        "gravatar_id": "",
        "url": "https://api.github.com/users/DrahtBot",
        "html_url": "https://github.com/DrahtBot",
        "followers_url": "https://api.github.com/users/DrahtBot/followers",
        "following_url": "https://api.github.com/users/DrahtBot/following%7B/other_user%7D",
        "gists_url": "https://api.github.com/users/DrahtBot/gists%7B/gist_id%7D",
        "starred_url": "https://api.github.com/users/DrahtBot/starred%7B/owner%7D%7B/repo%7D",
        "subscriptions_url": "https://api.github.com/users/DrahtBot/subscriptions",
        "organizations_url": "https://api.github.com/users/DrahtBot/orgs",
        "repos_url": "https://api.github.com/users/DrahtBot/repos",
        "events_url": "https://api.github.com/users/DrahtBot/events%7B/privacy%7D",
        "received_events_url": "https://api.github.com/users/DrahtBot/received_events",
        "type": "User",
        "site_admin": false
      },
      "commit_id": null,
      "commit_url": null,
      "created_at": "2022-12-19T10:54:42Z",
      "updated_at": "2022-12-19T10:54:42Z",
      "author_association": "CONTRIBUTOR",
      "body": "<!--e57a25ab6845829454e8d69fc972939a-->\n\nThe following sections might be updated with supplementary metadata relevant to reviewers and maintainers.\n\n<!--021abf342d371248e50ceaed478a90ca-->\n### Reviews\nSee [the guideline](https://github.com/bitcoin/bitcoin/blob/master/CONTRIBUTING.md#code-review) for information on the review process.\nA summary of reviews will appear here.\n",
      "user": {
        "login": "DrahtBot",
        "id": 39886733,
        "node_id": "MDQ6VXNlcjM5ODg2NzMz",
        "avatar_url": "https://avatars.githubusercontent.com/u/39886733?v=4",
        "gravatar_id": "",
        "url": "https://api.github.com/users/DrahtBot",
        "html_url": "https://github.com/DrahtBot",
        "followers_url": "https://api.github.com/users/DrahtBot/followers",
        "following_url": "https://api.github.com/users/DrahtBot/following%7B/other_user%7D",
        "gists_url": "https://api.github.com/users/DrahtBot/gists%7B/gist_id%7D",
        "starred_url": "https://api.github.com/users/DrahtBot/starred%7B/owner%7D%7B/repo%7D",
        "subscriptions_url": "https://api.github.com/users/DrahtBot/subscriptions",
        "organizations_url": "https://api.github.com/users/DrahtBot/orgs",
        "repos_url": "https://api.github.com/users/DrahtBot/repos",
        "events_url": "https://api.github.com/users/DrahtBot/events%7B/privacy%7D",
        "received_events_url": "https://api.github.com/users/DrahtBot/received_events",
        "type": "User",
        "site_admin": false
      },
      "html_url": "https://github.com/bitcoin/bitcoin/pull/26725#issuecomment-1357456456",
      "issue_url": "https://api.github.com/repos/bitcoin/bitcoin/issues/26725"
    },
    {
      "event": "commented",
      "id": 1357457423,
      "node_id": "IC_kwDOABII585Q6SgP",
      "url": "https://api.github.com/repos/bitcoin/bitcoin/issues/comments/1357457423",
      "actor": {
        "login": "willcl-ark",
        "id": 6606587,
        "node_id": "MDQ6VXNlcjY2MDY1ODc=",
        "avatar_url": "https://avatars.githubusercontent.com/u/6606587?v=4",
        "gravatar_id": "",
        "url": "https://api.github.com/users/willcl-ark",
        "html_url": "https://github.com/willcl-ark",
        "followers_url": "https://api.github.com/users/willcl-ark/followers",
        "following_url": "https://api.github.com/users/willcl-ark/following%7B/other_user%7D",
        "gists_url": "https://api.github.com/users/willcl-ark/gists%7B/gist_id%7D",
        "starred_url": "https://api.github.com/users/willcl-ark/starred%7B/owner%7D%7B/repo%7D",
        "subscriptions_url": "https://api.github.com/users/willcl-ark/subscriptions",
        "organizations_url": "https://api.github.com/users/willcl-ark/orgs",
        "repos_url": "https://api.github.com/users/willcl-ark/repos",
        "events_url": "https://api.github.com/users/willcl-ark/events%7B/privacy%7D",
        "received_events_url": "https://api.github.com/users/willcl-ark/received_events",
        "type": "User",
        "site_admin": false
      },
      "commit_id": null,
      "commit_url": null,
      "created_at": "2022-12-19T10:55:39Z",
      "updated_at": "2022-12-19T10:55:39Z",
      "author_association": "CONTRIBUTOR",
      "body": "With this, #26721 and #26257 the usefulness of linter would be greatly improved.",
      "user": {
        "login": "willcl-ark",
        "id": 6606587,
        "node_id": "MDQ6VXNlcjY2MDY1ODc=",
        "avatar_url": "https://avatars.githubusercontent.com/u/6606587?v=4",
        "gravatar_id": "",
        "url": "https://api.github.com/users/willcl-ark",
        "html_url": "https://github.com/willcl-ark",
        "followers_url": "https://api.github.com/users/willcl-ark/followers",
        "following_url": "https://api.github.com/users/willcl-ark/following%7B/other_user%7D",
        "gists_url": "https://api.github.com/users/willcl-ark/gists%7B/gist_id%7D",
        "starred_url": "https://api.github.com/users/willcl-ark/starred%7B/owner%7D%7B/repo%7D",
        "subscriptions_url": "https://api.github.com/users/willcl-ark/subscriptions",
        "organizations_url": "https://api.github.com/users/willcl-ark/orgs",
        "repos_url": "https://api.github.com/users/willcl-ark/repos",
        "events_url": "https://api.github.com/users/willcl-ark/events%7B/privacy%7D",
        "received_events_url": "https://api.github.com/users/willcl-ark/received_events",
        "type": "User",
        "site_admin": false
      },
      "html_url": "https://github.com/bitcoin/bitcoin/pull/26725#issuecomment-1357457423",
      "issue_url": "https://api.github.com/repos/bitcoin/bitcoin/issues/26725"
    },
    {
      "event": "commented",
      "id": 1357474879,
      "node_id": "IC_kwDOABII585Q6Ww_",
      "url": "https://api.github.com/repos/bitcoin/bitcoin/issues/comments/1357474879",
      "actor": {
        "login": "MarcoFalke",
        "id": 6399679,
        "node_id": "MDQ6VXNlcjYzOTk2Nzk=",
        "avatar_url": "https://avatars.githubusercontent.com/u/6399679?v=4",
        "gravatar_id": "",
        "url": "https://api.github.com/users/MarcoFalke",
        "html_url": "https://github.com/MarcoFalke",
        "followers_url": "https://api.github.com/users/MarcoFalke/followers",
        "following_url": "https://api.github.com/users/MarcoFalke/following%7B/other_user%7D",
        "gists_url": "https://api.github.com/users/MarcoFalke/gists%7B/gist_id%7D",
        "starred_url": "https://api.github.com/users/MarcoFalke/starred%7B/owner%7D%7B/repo%7D",
        "subscriptions_url": "https://api.github.com/users/MarcoFalke/subscriptions",
        "organizations_url": "https://api.github.com/users/MarcoFalke/orgs",
        "repos_url": "https://api.github.com/users/MarcoFalke/repos",
        "events_url": "https://api.github.com/users/MarcoFalke/events%7B/privacy%7D",
        "received_events_url": "https://api.github.com/users/MarcoFalke/received_events",
        "type": "User",
        "site_admin": false
      },
      "commit_id": null,
      "commit_url": null,
      "created_at": "2022-12-19T11:09:21Z",
      "updated_at": "2022-12-19T11:09:21Z",
      "author_association": "MEMBER",
      "body": "CI is green on master, so it is unclear to me what this is fixing.",
      "user": {
        "login": "MarcoFalke",
        "id": 6399679,
        "node_id": "MDQ6VXNlcjYzOTk2Nzk=",
        "avatar_url": "https://avatars.githubusercontent.com/u/6399679?v=4",
        "gravatar_id": "",
        "url": "https://api.github.com/users/MarcoFalke",
        "html_url": "https://github.com/MarcoFalke",
        "followers_url": "https://api.github.com/users/MarcoFalke/followers",
        "following_url": "https://api.github.com/users/MarcoFalke/following%7B/other_user%7D",
        "gists_url": "https://api.github.com/users/MarcoFalke/gists%7B/gist_id%7D",
        "starred_url": "https://api.github.com/users/MarcoFalke/starred%7B/owner%7D%7B/repo%7D",
        "subscriptions_url": "https://api.github.com/users/MarcoFalke/subscriptions",
        "organizations_url": "https://api.github.com/users/MarcoFalke/orgs",
        "repos_url": "https://api.github.com/users/MarcoFalke/repos",
        "events_url": "https://api.github.com/users/MarcoFalke/events%7B/privacy%7D",
        "received_events_url": "https://api.github.com/users/MarcoFalke/received_events",
        "type": "User",
        "site_admin": false
      },
      "html_url": "https://github.com/bitcoin/bitcoin/pull/26725#issuecomment-1357474879",
      "issue_url": "https://api.github.com/repos/bitcoin/bitcoin/issues/26725"
    },
    {
      "event": "commented",
      "id": 1357567053,
      "node_id": "IC_kwDOABII585Q6tRN",
      "url": "https://api.github.com/repos/bitcoin/bitcoin/issues/comments/1357567053",
      "actor": {
        "login": "willcl-ark",
        "id": 6606587,
        "node_id": "MDQ6VXNlcjY2MDY1ODc=",
        "avatar_url": "https://avatars.githubusercontent.com/u/6606587?v=4",
        "gravatar_id": "",
        "url": "https://api.github.com/users/willcl-ark",
        "html_url": "https://github.com/willcl-ark",
        "followers_url": "https://api.github.com/users/willcl-ark/followers",
        "following_url": "https://api.github.com/users/willcl-ark/following%7B/other_user%7D",
        "gists_url": "https://api.github.com/users/willcl-ark/gists%7B/gist_id%7D",
        "starred_url": "https://api.github.com/users/willcl-ark/starred%7B/owner%7D%7B/repo%7D",
        "subscriptions_url": "https://api.github.com/users/willcl-ark/subscriptions",
        "organizations_url": "https://api.github.com/users/willcl-ark/orgs",
        "repos_url": "https://api.github.com/users/willcl-ark/repos",
        "events_url": "https://api.github.com/users/willcl-ark/events%7B/privacy%7D",
        "received_events_url": "https://api.github.com/users/willcl-ark/received_events",
        "type": "User",
        "site_admin": false
      },
      "commit_id": null,
      "commit_url": null,
      "created_at": "2022-12-19T12:10:44Z",
      "updated_at": "2022-12-19T12:10:44Z",
      "author_association": "CONTRIBUTOR",
      "body": "Closing because:\r\n\r\n1) My fix is incorrect for the intended test case.\r\n2) It seems you are correct and that this is a local issue with my setup in some way, although I cannot figure out why https://github.com/bitcoin/bitcoin/blob/65f5cfda656c150dd0df40369845c53fa387b25f/test/lint/lint-tests.py#L30-L34 does not succeed in its regex matching locally for me, which I can see that it does on CI.\r\n\r\nI am running with python 3.6.15 as per `.python-version` and have packages matching CI versions installed:\r\n\r\n```\r\n❯ pip freeze\r\ncodespell==2.2.1\r\nflake8==4.0.1\r\nimportlib-metadata==4.2.0\r\nmccabe==0.6.1\r\nmypy==0.942\r\nmypy-extensions==0.4.3\r\npycodestyle==2.8.0\r\npyflakes==2.4.0\r\npyzmq==22.3.0\r\ntoml==0.10.2\r\ntomli==1.2.3\r\ntyped-ast==1.5.4\r\ntyping_extensions==4.1.1\r\nvulture==2.3\r\nzipp==3.6.0\r\n```\r\n\r\nvs\r\n\r\nhttps://github.com/bitcoin/bitcoin/blob/65f5cfda656c150dd0df40369845c53fa387b25f/ci/lint/04_install.sh#L19-L23\r\n\r\nWhen I run `lint-tests.py` on master I see the following output which I don't see in CI:\r\n\r\n```\r\nwill@ubuntu in bitcoin on  master [$⇡] via 🐍 v3.6.15\r\n❯ ./test/lint/lint-tests.py\r\nThe test suite in file src/test/foo_tests.cpp should be named\r\n\"foo_tests\". Please make sure the following test suites follow\r\nthat convention:\r\n\r\nsrc/test/addrman_tests.cpp:61:BOOST_FIXTURE_TEST_SUITE(addrman_tests, BasicTestingSetup)\r\nsrc/test/argsman_tests.cpp:22:BOOST_FIXTURE_TEST_SUITE(argsman_tests, BasicTestingSetup)\r\nsrc/test/banman_tests.cpp:16:BOOST_FIXTURE_TEST_SUITE(banman_tests, BasicTestingSetup)\r\nsrc/test/base58_tests.cpp:21:BOOST_FIXTURE_TEST_SUITE(base58_tests, BasicTestingSetup)\r\nsrc/test/bip32_tests.cpp:160:BOOST_FIXTURE_TEST_SUITE(bip32_tests, BasicTestingSetup)\r\nsrc/test/blockchain_tests.cpp:50:BOOST_FIXTURE_TEST_SUITE(blockchain_tests, BasicTestingSetup)\r\nsrc/test/blockencodings_tests.cpp:18:BOOST_FIXTURE_TEST_SUITE(blockencodings_tests, RegTestingSetup)\r\nsrc/test/blockmanager_tests.cpp:17:BOOST_FIXTURE_TEST_SUITE(blockmanager_tests, BasicTestingSetup)\r\nsrc/test/bloom_tests.cpp:24:BOOST_FIXTURE_TEST_SUITE(bloom_tests, BasicTestingSetup)\r\nsrc/test/checkqueue_tests.cpp:35:BOOST_FIXTURE_TEST_SUITE(checkqueue_tests, NoLockLoggingTestingSetup)\r\nsrc/test/coins_tests.cpp:99:BOOST_FIXTURE_TEST_SUITE(coins_tests, BasicTestingSetup)\r\nsrc/test/compress_tests.cpp:25:BOOST_FIXTURE_TEST_SUITE(compress_tests, BasicTestingSetup)\r\nsrc/test/crypto_tests.cpp:27:BOOST_FIXTURE_TEST_SUITE(crypto_tests, BasicTestingSetup)\r\nsrc/test/dbwrapper_tests.cpp:23:BOOST_FIXTURE_TEST_SUITE(dbwrapper_tests, BasicTestingSetup)\r\nsrc/test/denialofservice_tests.cpp:36:BOOST_FIXTURE_TEST_SUITE(denialofservice_tests, TestingSetup)\r\nsrc/test/descriptor_tests.cpp:371:BOOST_FIXTURE_TEST_SUITE(descriptor_tests, BasicTestingSetup)\r\nsrc/test/flatfile_tests.cpp:13:BOOST_FIXTURE_TEST_SUITE(flatfile_tests, BasicTestingSetup)\r\nsrc/test/fs_tests.cpp:16:BOOST_FIXTURE_TEST_SUITE(fs_tests, BasicTestingSetup)\r\nsrc/test/getarg_tests.cpp:18:BOOST_FIXTURE_TEST_SUITE(getarg_tests, BasicTestingSetup)\r\nsrc/test/headers_sync_chainwork_tests.cpp:58:BOOST_FIXTURE_TEST_SUITE(headers_sync_chainwork_tests, HeadersGeneratorSetup)\r\nsrc/test/httpserver_tests.cpp:10:BOOST_FIXTURE_TEST_SUITE(httpserver_tests, BasicTestingSetup)\r\nsrc/test/i2p_tests.cpp:19:BOOST_FIXTURE_TEST_SUITE(i2p_tests, BasicTestingSetup)\r\nsrc/test/interfaces_tests.cpp:16:BOOST_FIXTURE_TEST_SUITE(interfaces_tests, TestChain100Setup)\r\nsrc/test/key_io_tests.cpp:20:BOOST_FIXTURE_TEST_SUITE(key_io_tests, BasicTestingSetup)\r\nsrc/test/key_tests.cpp:32:BOOST_FIXTURE_TEST_SUITE(key_tests, BasicTestingSetup)\r\nsrc/test/logging_tests.cpp:20:BOOST_FIXTURE_TEST_SUITE(logging_tests, BasicTestingSetup)\r\nsrc/test/mempool_tests.cpp:16:BOOST_FIXTURE_TEST_SUITE(mempool_tests, TestingSetup)\r\nsrc/test/merkle_tests.cpp:10:BOOST_FIXTURE_TEST_SUITE(merkle_tests, TestingSetup)\r\nsrc/test/miner_tests.cpp:54:BOOST_FIXTURE_TEST_SUITE(miner_tests, MinerTestingSetup)\r\nsrc/test/miniscript_tests.cpp:159:BOOST_FIXTURE_TEST_SUITE(miniscript_tests, BasicTestingSetup)\r\nsrc/test/multisig_tests.cpp:19:BOOST_FIXTURE_TEST_SUITE(multisig_tests, BasicTestingSetup)\r\nsrc/test/net_peer_eviction_tests.cpp:18:BOOST_FIXTURE_TEST_SUITE(net_peer_eviction_tests, BasicTestingSetup)\r\nsrc/test/net_tests.cpp:36:BOOST_FIXTURE_TEST_SUITE(net_tests, RegTestingSetup)\r\nsrc/test/netbase_tests.cpp:23:BOOST_FIXTURE_TEST_SUITE(netbase_tests, BasicTestingSetup)\r\nsrc/test/orphanage_tests.cpp:18:BOOST_FIXTURE_TEST_SUITE(orphanage_tests, TestingSetup)\r\nsrc/test/pmt_tests.cpp:28:BOOST_FIXTURE_TEST_SUITE(pmt_tests, BasicTestingSetup)\r\nsrc/test/policyestimator_tests.cpp:16:BOOST_FIXTURE_TEST_SUITE(policyestimator_tests, ChainTestingSetup)\r\nsrc/test/pow_tests.cpp:12:BOOST_FIXTURE_TEST_SUITE(pow_tests, BasicTestingSetup)\r\nsrc/test/prevector_tests.cpp:16:BOOST_FIXTURE_TEST_SUITE(prevector_tests, TestingSetup)\r\nsrc/test/raii_event_tests.cpp:16:BOOST_FIXTURE_TEST_SUITE(raii_event_tests, BasicTestingSetup)\r\nsrc/test/random_tests.cpp:14:BOOST_FIXTURE_TEST_SUITE(random_tests, BasicTestingSetup)\r\nsrc/test/rbf_tests.cpp:17:BOOST_FIXTURE_TEST_SUITE(rbf_tests, TestingSetup)\r\nsrc/test/rest_tests.cpp:12:BOOST_FIXTURE_TEST_SUITE(rest_tests, BasicTestingSetup)\r\nsrc/test/rpc_tests.cpp:83:BOOST_FIXTURE_TEST_SUITE(rpc_tests, RPCTestingSetup)\r\nsrc/test/sanity_tests.cpp:11:BOOST_FIXTURE_TEST_SUITE(sanity_tests, BasicTestingSetup)\r\nsrc/test/script_p2sh_tests.cpp:51:BOOST_FIXTURE_TEST_SUITE(script_p2sh_tests, BasicTestingSetup)\r\nsrc/test/script_segwit_tests.cpp:10:BOOST_FIXTURE_TEST_SUITE(script_segwit_tests, BasicTestingSetup)\r\nsrc/test/script_standard_tests.cpp:20:BOOST_FIXTURE_TEST_SUITE(script_standard_tests, BasicTestingSetup)\r\nsrc/test/script_tests.cpp:126:BOOST_FIXTURE_TEST_SUITE(script_tests, BasicTestingSetup)\r\nsrc/test/scriptnum_tests.cpp:13:BOOST_FIXTURE_TEST_SUITE(scriptnum_tests, BasicTestingSetup)\r\nsrc/test/serfloat_tests.cpp:16:BOOST_FIXTURE_TEST_SUITE(serfloat_tests, BasicTestingSetup)\r\nsrc/test/serialize_tests.cpp:15:BOOST_FIXTURE_TEST_SUITE(serialize_tests, BasicTestingSetup)\r\nsrc/test/settings_tests.cpp:50:BOOST_FIXTURE_TEST_SUITE(settings_tests, BasicTestingSetup)\r\nsrc/test/sighash_tests.cpp:118:BOOST_FIXTURE_TEST_SUITE(sighash_tests, BasicTestingSetup)\r\nsrc/test/sigopcount_tests.cpp:27:BOOST_FIXTURE_TEST_SUITE(sigopcount_tests, BasicTestingSetup)\r\nsrc/test/skiplist_tests.cpp:14:BOOST_FIXTURE_TEST_SUITE(skiplist_tests, BasicTestingSetup)\r\nsrc/test/sock_tests.cpp:18:BOOST_FIXTURE_TEST_SUITE(sock_tests, BasicTestingSetup)\r\nsrc/test/streams_tests.cpp:13:BOOST_FIXTURE_TEST_SUITE(streams_tests, BasicTestingSetup)\r\nsrc/test/system_tests.cpp:24:BOOST_FIXTURE_TEST_SUITE(system_tests, BasicTestingSetup)\r\nsrc/test/timedata_tests.cpp:19:BOOST_FIXTURE_TEST_SUITE(timedata_tests, BasicTestingSetup)\r\nsrc/test/transaction_tests.cpp:188:BOOST_FIXTURE_TEST_SUITE(transaction_tests, BasicTestingSetup)\r\nsrc/test/txreconciliation_tests.cpp:11:BOOST_FIXTURE_TEST_SUITE(txreconciliation_tests, BasicTestingSetup)\r\nsrc/test/txrequest_tests.cpp:17:BOOST_FIXTURE_TEST_SUITE(txrequest_tests, BasicTestingSetup)\r\nsrc/test/util_tests.cpp:54:BOOST_FIXTURE_TEST_SUITE(util_tests, BasicTestingSetup)\r\nsrc/test/validation_block_tests.cpp:34:BOOST_FIXTURE_TEST_SUITE(validation_block_tests, MinerTestingSetup)\r\nsrc/test/validation_chainstate_tests.cpp:19:BOOST_FIXTURE_TEST_SUITE(validation_chainstate_tests, ChainTestingSetup)\r\nsrc/test/validation_chainstatemanager_tests.cpp:26:BOOST_FIXTURE_TEST_SUITE(validation_chainstatemanager_tests, ChainTestingSetup)\r\nsrc/test/validation_flush_tests.cpp:11:BOOST_FIXTURE_TEST_SUITE(validation_flush_tests, TestingSetup)\r\nsrc/test/validation_tests.cpp:16:BOOST_FIXTURE_TEST_SUITE(validation_tests, TestingSetup)\r\nsrc/test/validationinterface_tests.cpp:13:BOOST_FIXTURE_TEST_SUITE(validationinterface_tests, TestingSetup)\r\nsrc/test/versionbits_tests.cpp:185:BOOST_FIXTURE_TEST_SUITE(versionbits_tests, BasicTestingSetup)\r\nsrc/wallet/test/availablecoins_tests.cpp:14:BOOST_FIXTURE_TEST_SUITE(availablecoins_tests, WalletTestingSetup)\r\nsrc/wallet/test/coinselector_tests.cpp:23:BOOST_FIXTURE_TEST_SUITE(coinselector_tests, WalletTestingSetup)\r\nsrc/wallet/test/db_tests.cpp:16:BOOST_FIXTURE_TEST_SUITE(db_tests, BasicTestingSetup)\r\nsrc/wallet/test/feebumper_tests.cpp:18:BOOST_FIXTURE_TEST_SUITE(feebumper_tests, WalletTestingSetup)\r\nsrc/wallet/test/init_tests.cpp:14:BOOST_FIXTURE_TEST_SUITE(init_tests, InitWalletDirTestingSetup)\r\nsrc/wallet/test/ismine_tests.cpp:18:BOOST_FIXTURE_TEST_SUITE(ismine_tests, BasicTestingSetup)\r\nsrc/wallet/test/psbt_wallet_tests.cpp:15:BOOST_FIXTURE_TEST_SUITE(psbt_wallet_tests, WalletTestingSetup)\r\nsrc/wallet/test/scriptpubkeyman_tests.cpp:14:BOOST_FIXTURE_TEST_SUITE(scriptpubkeyman_tests, BasicTestingSetup)\r\nsrc/wallet/test/spend_tests.cpp:16:BOOST_FIXTURE_TEST_SUITE(spend_tests, WalletTestingSetup)\r\nsrc/wallet/test/wallet_crypto_tests.cpp:14:BOOST_FIXTURE_TEST_SUITE(wallet_crypto_tests, BasicTestingSetup)\r\nsrc/wallet/test/wallet_tests.cpp:44:BOOST_FIXTURE_TEST_SUITE(wallet_tests, WalletTestingSetup)\r\nsrc/wallet/test/wallet_transaction_tests.cpp:12:BOOST_FIXTURE_TEST_SUITE(wallet_transaction_tests, WalletTestingSetup)\r\nsrc/wallet/test/walletdb_tests.cpp:13:BOOST_FIXTURE_TEST_SUITE(walletdb_tests, BasicTestingSetup)\r\n```\r\n\r\nIf I can't figure out why, I guess I'll re-open as an issue.",
      "user": {
        "login": "willcl-ark",
        "id": 6606587,
        "node_id": "MDQ6VXNlcjY2MDY1ODc=",
        "avatar_url": "https://avatars.githubusercontent.com/u/6606587?v=4",
        "gravatar_id": "",
        "url": "https://api.github.com/users/willcl-ark",
        "html_url": "https://github.com/willcl-ark",
        "followers_url": "https://api.github.com/users/willcl-ark/followers",
        "following_url": "https://api.github.com/users/willcl-ark/following%7B/other_user%7D",
        "gists_url": "https://api.github.com/users/willcl-ark/gists%7B/gist_id%7D",
        "starred_url": "https://api.github.com/users/willcl-ark/starred%7B/owner%7D%7B/repo%7D",
        "subscriptions_url": "https://api.github.com/users/willcl-ark/subscriptions",
        "organizations_url": "https://api.github.com/users/willcl-ark/orgs",
        "repos_url": "https://api.github.com/users/willcl-ark/repos",
        "events_url": "https://api.github.com/users/willcl-ark/events%7B/privacy%7D",
        "received_events_url": "https://api.github.com/users/willcl-ark/received_events",
        "type": "User",
        "site_admin": false
      },
      "html_url": "https://github.com/bitcoin/bitcoin/pull/26725#issuecomment-1357567053",
      "issue_url": "https://api.github.com/repos/bitcoin/bitcoin/issues/26725"
    },
    {
      "event": "closed",
      "id": 8068866493,
      "node_id": "CE_lADOABII585Zkc6-zwAAAAHg8SG9",
      "url": "https://api.github.com/repos/bitcoin/bitcoin/issues/events/8068866493",
      "actor": {
        "login": "willcl-ark",
        "id": 6606587,
        "node_id": "MDQ6VXNlcjY2MDY1ODc=",
        "avatar_url": "https://avatars.githubusercontent.com/u/6606587?v=4",
        "gravatar_id": "",
        "url": "https://api.github.com/users/willcl-ark",
        "html_url": "https://github.com/willcl-ark",
        "followers_url": "https://api.github.com/users/willcl-ark/followers",
        "following_url": "https://api.github.com/users/willcl-ark/following%7B/other_user%7D",
        "gists_url": "https://api.github.com/users/willcl-ark/gists%7B/gist_id%7D",
        "starred_url": "https://api.github.com/users/willcl-ark/starred%7B/owner%7D%7B/repo%7D",
        "subscriptions_url": "https://api.github.com/users/willcl-ark/subscriptions",
        "organizations_url": "https://api.github.com/users/willcl-ark/orgs",
        "repos_url": "https://api.github.com/users/willcl-ark/repos",
        "events_url": "https://api.github.com/users/willcl-ark/events%7B/privacy%7D",
        "received_events_url": "https://api.github.com/users/willcl-ark/received_events",
        "type": "User",
        "site_admin": false
      },
      "commit_id": null,
      "commit_url": null,
      "created_at": "2022-12-19T12:10:44Z"
    },
    {
      "event": "commented",
      "id": 1357607336,
      "node_id": "IC_kwDOABII585Q63Go",
      "url": "https://api.github.com/repos/bitcoin/bitcoin/issues/comments/1357607336",
      "actor": {
        "login": "willcl-ark",
        "id": 6606587,
        "node_id": "MDQ6VXNlcjY2MDY1ODc=",
        "avatar_url": "https://avatars.githubusercontent.com/u/6606587?v=4",
        "gravatar_id": "",
        "url": "https://api.github.com/users/willcl-ark",
        "html_url": "https://github.com/willcl-ark",
        "followers_url": "https://api.github.com/users/willcl-ark/followers",
        "following_url": "https://api.github.com/users/willcl-ark/following%7B/other_user%7D",
        "gists_url": "https://api.github.com/users/willcl-ark/gists%7B/gist_id%7D",
        "starred_url": "https://api.github.com/users/willcl-ark/starred%7B/owner%7D%7B/repo%7D",
        "subscriptions_url": "https://api.github.com/users/willcl-ark/subscriptions",
        "organizations_url": "https://api.github.com/users/willcl-ark/orgs",
        "repos_url": "https://api.github.com/users/willcl-ark/repos",
        "events_url": "https://api.github.com/users/willcl-ark/events%7B/privacy%7D",
        "received_events_url": "https://api.github.com/users/willcl-ark/received_events",
        "type": "User",
        "site_admin": false
      },
      "commit_id": null,
      "commit_url": null,
      "created_at": "2022-12-19T12:38:13Z",
      "updated_at": "2022-12-19T12:38:13Z",
      "author_association": "CONTRIBUTOR",
      "body": "Certainly seems to be something wrong with my local regex searching via python, although I'm not really sure how that can happen.\r\n\r\nFor example modifying the regex line to use a different regex (with look behind capture group) will have it pass locally for me, as it seems to be doing on CI:\r\n\r\n```git\r\ndiff --git a/test/lint/lint-tests.py b/test/lint/lint-tests.py\r\nindex 849ddcb96..cafba9f45 100755\r\n--- a/test/lint/lint-tests.py\r\n+++ b/test/lint/lint-tests.py\r\n@@ -30,7 +30,7 @@ def check_matching_test_names(test_suite_list):\r\n     not_matching = [\r\n         x\r\n         for x in test_suite_list\r\n-        if re.search(r\"/(.*?)\\.cpp:BOOST_FIXTURE_TEST_SUITE\\(\\1, .*\\)\", x) is None\r\n+        if re.search(r\"/((?<=\\/)[^\\/]*)\\.cpp:\\d*:BOOST_FIXTURE_TEST_SUITE\\(\\1, .*\\)\", x) is None\r\n     ]\r\n     if len(not_matching) > 0:\r\n         not_matching = \"\\n\".join(not_matching)\r\n```",
      "user": {
        "login": "willcl-ark",
        "id": 6606587,
        "node_id": "MDQ6VXNlcjY2MDY1ODc=",
        "avatar_url": "https://avatars.githubusercontent.com/u/6606587?v=4",
        "gravatar_id": "",
        "url": "https://api.github.com/users/willcl-ark",
        "html_url": "https://github.com/willcl-ark",
        "followers_url": "https://api.github.com/users/willcl-ark/followers",
        "following_url": "https://api.github.com/users/willcl-ark/following%7B/other_user%7D",
        "gists_url": "https://api.github.com/users/willcl-ark/gists%7B/gist_id%7D",
        "starred_url": "https://api.github.com/users/willcl-ark/starred%7B/owner%7D%7B/repo%7D",
        "subscriptions_url": "https://api.github.com/users/willcl-ark/subscriptions",
        "organizations_url": "https://api.github.com/users/willcl-ark/orgs",
        "repos_url": "https://api.github.com/users/willcl-ark/repos",
        "events_url": "https://api.github.com/users/willcl-ark/events%7B/privacy%7D",
        "received_events_url": "https://api.github.com/users/willcl-ark/received_events",
        "type": "User",
        "site_admin": false
      },
      "html_url": "https://github.com/bitcoin/bitcoin/pull/26725#issuecomment-1357607336",
      "issue_url": "https://api.github.com/repos/bitcoin/bitcoin/issues/26725"
    },
    {
      "event": "commented",
      "id": 1357609637,
      "node_id": "IC_kwDOABII585Q63ql",
      "url": "https://api.github.com/repos/bitcoin/bitcoin/issues/comments/1357609637",
      "actor": {
        "login": "MarcoFalke",
        "id": 6399679,
        "node_id": "MDQ6VXNlcjYzOTk2Nzk=",
        "avatar_url": "https://avatars.githubusercontent.com/u/6399679?v=4",
        "gravatar_id": "",
        "url": "https://api.github.com/users/MarcoFalke",
        "html_url": "https://github.com/MarcoFalke",
        "followers_url": "https://api.github.com/users/MarcoFalke/followers",
        "following_url": "https://api.github.com/users/MarcoFalke/following%7B/other_user%7D",
        "gists_url": "https://api.github.com/users/MarcoFalke/gists%7B/gist_id%7D",
        "starred_url": "https://api.github.com/users/MarcoFalke/starred%7B/owner%7D%7B/repo%7D",
        "subscriptions_url": "https://api.github.com/users/MarcoFalke/subscriptions",
        "organizations_url": "https://api.github.com/users/MarcoFalke/orgs",
        "repos_url": "https://api.github.com/users/MarcoFalke/repos",
        "events_url": "https://api.github.com/users/MarcoFalke/events%7B/privacy%7D",
        "received_events_url": "https://api.github.com/users/MarcoFalke/received_events",
        "type": "User",
        "site_admin": false
      },
      "commit_id": null,
      "commit_url": null,
      "created_at": "2022-12-19T12:40:42Z",
      "updated_at": "2022-12-19T12:40:42Z",
      "author_association": "MEMBER",
      "body": "To debug this, we'd need steps to reproduce. Ideally, starting from a fresh install of your OS",
      "user": {
        "login": "MarcoFalke",
        "id": 6399679,
        "node_id": "MDQ6VXNlcjYzOTk2Nzk=",
        "avatar_url": "https://avatars.githubusercontent.com/u/6399679?v=4",
        "gravatar_id": "",
        "url": "https://api.github.com/users/MarcoFalke",
        "html_url": "https://github.com/MarcoFalke",
        "followers_url": "https://api.github.com/users/MarcoFalke/followers",
        "following_url": "https://api.github.com/users/MarcoFalke/following%7B/other_user%7D",
        "gists_url": "https://api.github.com/users/MarcoFalke/gists%7B/gist_id%7D",
        "starred_url": "https://api.github.com/users/MarcoFalke/starred%7B/owner%7D%7B/repo%7D",
        "subscriptions_url": "https://api.github.com/users/MarcoFalke/subscriptions",
        "organizations_url": "https://api.github.com/users/MarcoFalke/orgs",
        "repos_url": "https://api.github.com/users/MarcoFalke/repos",
        "events_url": "https://api.github.com/users/MarcoFalke/events%7B/privacy%7D",
        "received_events_url": "https://api.github.com/users/MarcoFalke/received_events",
        "type": "User",
        "site_admin": false
      },
      "html_url": "https://github.com/bitcoin/bitcoin/pull/26725#issuecomment-1357609637",
      "issue_url": "https://api.github.com/repos/bitcoin/bitcoin/issues/26725"
    },
    {
      "event": "commented",
      "id": 1357773299,
      "node_id": "IC_kwDOABII585Q7fnz",
      "url": "https://api.github.com/repos/bitcoin/bitcoin/issues/comments/1357773299",
      "actor": {
        "login": "willcl-ark",
        "id": 6606587,
        "node_id": "MDQ6VXNlcjY2MDY1ODc=",
        "avatar_url": "https://avatars.githubusercontent.com/u/6606587?v=4",
        "gravatar_id": "",
        "url": "https://api.github.com/users/willcl-ark",
        "html_url": "https://github.com/willcl-ark",
        "followers_url": "https://api.github.com/users/willcl-ark/followers",
        "following_url": "https://api.github.com/users/willcl-ark/following%7B/other_user%7D",
        "gists_url": "https://api.github.com/users/willcl-ark/gists%7B/gist_id%7D",
        "starred_url": "https://api.github.com/users/willcl-ark/starred%7B/owner%7D%7B/repo%7D",
        "subscriptions_url": "https://api.github.com/users/willcl-ark/subscriptions",
        "organizations_url": "https://api.github.com/users/willcl-ark/orgs",
        "repos_url": "https://api.github.com/users/willcl-ark/repos",
        "events_url": "https://api.github.com/users/willcl-ark/events%7B/privacy%7D",
        "received_events_url": "https://api.github.com/users/willcl-ark/received_events",
        "type": "User",
        "site_admin": false
      },
      "commit_id": null,
      "commit_url": null,
      "created_at": "2022-12-19T14:43:00Z",
      "updated_at": "2022-12-19T14:43:00Z",
      "author_association": "CONTRIBUTOR",
      "body": "Ok I've found the issue in case anyone else ever ends up here. my `git grep` was returning linenumbers by default and throwing off the regex.\r\n",
      "user": {
        "login": "willcl-ark",
        "id": 6606587,
        "node_id": "MDQ6VXNlcjY2MDY1ODc=",
        "avatar_url": "https://avatars.githubusercontent.com/u/6606587?v=4",
        "gravatar_id": "",
        "url": "https://api.github.com/users/willcl-ark",
        "html_url": "https://github.com/willcl-ark",
        "followers_url": "https://api.github.com/users/willcl-ark/followers",
        "following_url": "https://api.github.com/users/willcl-ark/following%7B/other_user%7D",
        "gists_url": "https://api.github.com/users/willcl-ark/gists%7B/gist_id%7D",
        "starred_url": "https://api.github.com/users/willcl-ark/starred%7B/owner%7D%7B/repo%7D",
        "subscriptions_url": "https://api.github.com/users/willcl-ark/subscriptions",
        "organizations_url": "https://api.github.com/users/willcl-ark/orgs",
        "repos_url": "https://api.github.com/users/willcl-ark/repos",
        "events_url": "https://api.github.com/users/willcl-ark/events%7B/privacy%7D",
        "received_events_url": "https://api.github.com/users/willcl-ark/received_events",
        "type": "User",
        "site_admin": false
      },
      "html_url": "https://github.com/bitcoin/bitcoin/pull/26725#issuecomment-1357773299",
      "issue_url": "https://api.github.com/repos/bitcoin/bitcoin/issues/26725"
    }
  ],
  "comments": []
}