{
  "type": "pull",
  "pull": {
    "url": "https://api.github.com/repos/bitcoin/bitcoin/pulls/26730",
    "id": 1172241540,
    "node_id": "PR_kwDOABII585F3vyE",
    "html_url": "https://github.com/bitcoin/bitcoin/pull/26730",
    "diff_url": "https://github.com/bitcoin/bitcoin/pull/26730.diff",
    "patch_url": "https://github.com/bitcoin/bitcoin/pull/26730.patch",
    "issue_url": "https://api.github.com/repos/bitcoin/bitcoin/issues/26730",
    "commits_url": "https://api.github.com/repos/bitcoin/bitcoin/pulls/26730/commits",
    "review_comments_url": "https://api.github.com/repos/bitcoin/bitcoin/pulls/26730/comments",
    "review_comment_url": "https://api.github.com/repos/bitcoin/bitcoin/pulls/comments%7B/number%7D",
    "comments_url": "https://api.github.com/repos/bitcoin/bitcoin/issues/26730/comments",
    "statuses_url": "https://api.github.com/repos/bitcoin/bitcoin/statuses/c467cfffcebb30f829eeb8160166a6b941d97ed6",
    "number": 26730,
    "state": "closed",
    "locked": false,
    "maintainer_can_modify": false,
    "title": "test: add coverage for `purpose` arg in `listlabels`",
    "user": {
      "login": "brunoerg",
      "id": 19480819,
      "node_id": "MDQ6VXNlcjE5NDgwODE5",
      "avatar_url": "https://avatars.githubusercontent.com/u/19480819?v=4",
      "gravatar_id": "",
      "url": "https://api.github.com/users/brunoerg",
      "html_url": "https://github.com/brunoerg",
      "followers_url": "https://api.github.com/users/brunoerg/followers",
      "following_url": "https://api.github.com/users/brunoerg/following%7B/other_user%7D",
      "gists_url": "https://api.github.com/users/brunoerg/gists%7B/gist_id%7D",
      "starred_url": "https://api.github.com/users/brunoerg/starred%7B/owner%7D%7B/repo%7D",
      "subscriptions_url": "https://api.github.com/users/brunoerg/subscriptions",
      "organizations_url": "https://api.github.com/users/brunoerg/orgs",
      "repos_url": "https://api.github.com/users/brunoerg/repos",
      "events_url": "https://api.github.com/users/brunoerg/events%7B/privacy%7D",
      "received_events_url": "https://api.github.com/users/brunoerg/received_events",
      "type": "User",
      "site_admin": false
    },
    "body": "This PR adds test coverage for `listlabels` command when specifying the `purpose` (send and receive).\r\n\r\nhttps://github.com/bitcoin/bitcoin/blob/dcdfd72861c09a7945b9facc3726177a2d06fa64/src/wallet/rpc/addresses.cpp#L698-L704\r\n\r\n",
    "labels": [
      {
        "id": 62963516,
        "node_id": "MDU6TGFiZWw2Mjk2MzUxNg==",
        "url": "https://api.github.com/repos/bitcoin/bitcoin/labels/Tests",
        "name": "Tests",
        "color": "d4c5f9",
        "default": false
      }
    ],
    "created_at": "2022-12-20T14:13:01Z",
    "updated_at": "2023-01-11T14:00:27Z",
    "closed_at": "2023-01-11T14:00:27Z",
    "mergeable": false,
    "mergeable_state": "dirty",
    "merge_commit_sha": "51536b8a131be934673b0c06e5dba23e4bbf3d57",
    "assignees": [],
    "requested_reviewers": [],
    "requested_teams": [],
    "rebaseable": false,
    "head": {
      "label": "brunoerg:2022-12-wallet-labels-verbose",
      "ref": "2022-12-wallet-labels-verbose",
      "sha": "c467cfffcebb30f829eeb8160166a6b941d97ed6",
      "user": {
        "login": "brunoerg",
        "id": 19480819,
        "node_id": "MDQ6VXNlcjE5NDgwODE5",
        "avatar_url": "https://avatars.githubusercontent.com/u/19480819?v=4",
        "gravatar_id": "",
        "url": "https://api.github.com/users/brunoerg",
        "html_url": "https://github.com/brunoerg",
        "followers_url": "https://api.github.com/users/brunoerg/followers",
        "following_url": "https://api.github.com/users/brunoerg/following%7B/other_user%7D",
        "gists_url": "https://api.github.com/users/brunoerg/gists%7B/gist_id%7D",
        "starred_url": "https://api.github.com/users/brunoerg/starred%7B/owner%7D%7B/repo%7D",
        "subscriptions_url": "https://api.github.com/users/brunoerg/subscriptions",
        "organizations_url": "https://api.github.com/users/brunoerg/orgs",
        "repos_url": "https://api.github.com/users/brunoerg/repos",
        "events_url": "https://api.github.com/users/brunoerg/events%7B/privacy%7D",
        "received_events_url": "https://api.github.com/users/brunoerg/received_events",
        "type": "User",
        "site_admin": false
      },
      "repo": {
        "id": 267841305,
        "node_id": "MDEwOlJlcG9zaXRvcnkyNjc4NDEzMDU=",
        "name": "bitcoin",
        "full_name": "brunoerg/bitcoin",
        "owner": {
          "login": "brunoerg",
          "id": 19480819,
          "node_id": "MDQ6VXNlcjE5NDgwODE5",
          "avatar_url": "https://avatars.githubusercontent.com/u/19480819?v=4",
          "gravatar_id": "",
          "url": "https://api.github.com/users/brunoerg",
          "html_url": "https://github.com/brunoerg",
          "followers_url": "https://api.github.com/users/brunoerg/followers",
          "following_url": "https://api.github.com/users/brunoerg/following%7B/other_user%7D",
          "gists_url": "https://api.github.com/users/brunoerg/gists%7B/gist_id%7D",
          "starred_url": "https://api.github.com/users/brunoerg/starred%7B/owner%7D%7B/repo%7D",
          "subscriptions_url": "https://api.github.com/users/brunoerg/subscriptions",
          "organizations_url": "https://api.github.com/users/brunoerg/orgs",
          "repos_url": "https://api.github.com/users/brunoerg/repos",
          "events_url": "https://api.github.com/users/brunoerg/events%7B/privacy%7D",
          "received_events_url": "https://api.github.com/users/brunoerg/received_events",
          "type": "User",
          "site_admin": false
        },
        "private": false,
        "html_url": "https://github.com/brunoerg/bitcoin",
        "description": "Bitcoin Core integration/staging tree",
        "fork": true,
        "url": "https://api.github.com/repos/brunoerg/bitcoin",
        "archive_url": "https://api.github.com/repos/brunoerg/bitcoin/%7Barchive_format%7D%7B/ref%7D",
        "assignees_url": "https://api.github.com/repos/brunoerg/bitcoin/assignees%7B/user%7D",
        "blobs_url": "https://api.github.com/repos/brunoerg/bitcoin/git/blobs%7B/sha%7D",
        "branches_url": "https://api.github.com/repos/brunoerg/bitcoin/branches%7B/branch%7D",
        "collaborators_url": "https://api.github.com/repos/brunoerg/bitcoin/collaborators%7B/collaborator%7D",
        "comments_url": "https://api.github.com/repos/brunoerg/bitcoin/comments%7B/number%7D",
        "commits_url": "https://api.github.com/repos/brunoerg/bitcoin/commits%7B/sha%7D",
        "compare_url": "https://api.github.com/repos/brunoerg/bitcoin/compare/%7Bbase%7D...%7Bhead%7D",
        "contents_url": "https://api.github.com/repos/brunoerg/bitcoin/contents/%7B+path%7D",
        "contributors_url": "https://api.github.com/repos/brunoerg/bitcoin/contributors",
        "deployments_url": "https://api.github.com/repos/brunoerg/bitcoin/deployments",
        "downloads_url": "https://api.github.com/repos/brunoerg/bitcoin/downloads",
        "events_url": "https://api.github.com/repos/brunoerg/bitcoin/events",
        "forks_url": "https://api.github.com/repos/brunoerg/bitcoin/forks",
        "git_commits_url": "https://api.github.com/repos/brunoerg/bitcoin/git/commits%7B/sha%7D",
        "git_refs_url": "https://api.github.com/repos/brunoerg/bitcoin/git/refs%7B/sha%7D",
        "git_tags_url": "https://api.github.com/repos/brunoerg/bitcoin/git/tags%7B/sha%7D",
        "git_url": "git://github.com/brunoerg/bitcoin.git",
        "issue_comment_url": "https://api.github.com/repos/brunoerg/bitcoin/issues/comments%7B/number%7D",
        "issue_events_url": "https://api.github.com/repos/brunoerg/bitcoin/issues/events%7B/number%7D",
        "issues_url": "https://api.github.com/repos/brunoerg/bitcoin/issues%7B/number%7D",
        "keys_url": "https://api.github.com/repos/brunoerg/bitcoin/keys%7B/key_id%7D",
        "labels_url": "https://api.github.com/repos/brunoerg/bitcoin/labels%7B/name%7D",
        "languages_url": "https://api.github.com/repos/brunoerg/bitcoin/languages",
        "merges_url": "https://api.github.com/repos/brunoerg/bitcoin/merges",
        "milestones_url": "https://api.github.com/repos/brunoerg/bitcoin/milestones%7B/number%7D",
        "notifications_url": "https://api.github.com/repos/brunoerg/bitcoin/notifications%7B?since,all,participating}",
        "pulls_url": "https://api.github.com/repos/brunoerg/bitcoin/pulls%7B/number%7D",
        "releases_url": "https://api.github.com/repos/brunoerg/bitcoin/releases%7B/id%7D",
        "ssh_url": "git@github.com:brunoerg/bitcoin.git",
        "stargazers_url": "https://api.github.com/repos/brunoerg/bitcoin/stargazers",
        "statuses_url": "https://api.github.com/repos/brunoerg/bitcoin/statuses/%7Bsha%7D",
        "subscribers_url": "https://api.github.com/repos/brunoerg/bitcoin/subscribers",
        "subscription_url": "https://api.github.com/repos/brunoerg/bitcoin/subscription",
        "tags_url": "https://api.github.com/repos/brunoerg/bitcoin/tags",
        "teams_url": "https://api.github.com/repos/brunoerg/bitcoin/teams",
        "trees_url": "https://api.github.com/repos/brunoerg/bitcoin/git/trees%7B/sha%7D",
        "clone_url": "https://github.com/brunoerg/bitcoin.git",
        "hooks_url": "https://api.github.com/repos/brunoerg/bitcoin/hooks",
        "svn_url": "https://github.com/brunoerg/bitcoin",
        "homepage": "https://bitcoincore.org/en/download",
        "language": "C++",
        "forks_count": 0,
        "stargazers_count": 3,
        "watchers_count": 3,
        "size": 222129,
        "default_branch": "master",
        "open_issues_count": 0,
        "is_template": false,
        "topics": [],
        "has_issues": false,
        "has_projects": true,
        "has_wiki": false,
        "has_pages": false,
        "has_downloads": false,
        "archived": false,
        "disabled": false,
        "visibility": "public",
        "pushed_at": "2023-08-02T13:31:03Z",
        "created_at": "2020-05-29T11:30:10Z",
        "updated_at": "2022-12-07T18:05:58Z",
        "license": {
          "key": "mit",
          "name": "MIT License",
          "node_id": "MDc6TGljZW5zZTEz",
          "spdx_id": "MIT",
          "url": "https://api.github.com/licenses/mit",
          "html_url": null,
          "description": null,
          "implementation": null,
          "permissions": null,
          "conditions": null,
          "limitations": null,
          "body": null,
          "featured": null
        }
      }
    },
    "base": {
      "label": "bitcoin:master",
      "ref": "master",
      "sha": "dcdfd72861c09a7945b9facc3726177a2d06fa64",
      "user": {
        "login": "bitcoin",
        "id": 528860,
        "node_id": "MDEyOk9yZ2FuaXphdGlvbjUyODg2MA==",
        "avatar_url": "https://avatars.githubusercontent.com/u/528860?v=4",
        "gravatar_id": "",
        "url": "https://api.github.com/users/bitcoin",
        "html_url": "https://github.com/bitcoin",
        "followers_url": "https://api.github.com/users/bitcoin/followers",
        "following_url": "https://api.github.com/users/bitcoin/following%7B/other_user%7D",
        "gists_url": "https://api.github.com/users/bitcoin/gists%7B/gist_id%7D",
        "starred_url": "https://api.github.com/users/bitcoin/starred%7B/owner%7D%7B/repo%7D",
        "subscriptions_url": "https://api.github.com/users/bitcoin/subscriptions",
        "organizations_url": "https://api.github.com/users/bitcoin/orgs",
        "repos_url": "https://api.github.com/users/bitcoin/repos",
        "events_url": "https://api.github.com/users/bitcoin/events%7B/privacy%7D",
        "received_events_url": "https://api.github.com/users/bitcoin/received_events",
        "type": "Organization",
        "site_admin": false
      },
      "repo": {
        "id": 1181927,
        "node_id": "MDEwOlJlcG9zaXRvcnkxMTgxOTI3",
        "name": "bitcoin",
        "full_name": "bitcoin/bitcoin",
        "owner": {
          "login": "bitcoin",
          "id": 528860,
          "node_id": "MDEyOk9yZ2FuaXphdGlvbjUyODg2MA==",
          "avatar_url": "https://avatars.githubusercontent.com/u/528860?v=4",
          "gravatar_id": "",
          "url": "https://api.github.com/users/bitcoin",
          "html_url": "https://github.com/bitcoin",
          "followers_url": "https://api.github.com/users/bitcoin/followers",
          "following_url": "https://api.github.com/users/bitcoin/following%7B/other_user%7D",
          "gists_url": "https://api.github.com/users/bitcoin/gists%7B/gist_id%7D",
          "starred_url": "https://api.github.com/users/bitcoin/starred%7B/owner%7D%7B/repo%7D",
          "subscriptions_url": "https://api.github.com/users/bitcoin/subscriptions",
          "organizations_url": "https://api.github.com/users/bitcoin/orgs",
          "repos_url": "https://api.github.com/users/bitcoin/repos",
          "events_url": "https://api.github.com/users/bitcoin/events%7B/privacy%7D",
          "received_events_url": "https://api.github.com/users/bitcoin/received_events",
          "type": "Organization",
          "site_admin": false
        },
        "private": false,
        "html_url": "https://github.com/bitcoin/bitcoin",
        "description": "Bitcoin Core integration/staging tree",
        "fork": false,
        "url": "https://api.github.com/repos/bitcoin/bitcoin",
        "archive_url": "https://api.github.com/repos/bitcoin/bitcoin/%7Barchive_format%7D%7B/ref%7D",
        "assignees_url": "https://api.github.com/repos/bitcoin/bitcoin/assignees%7B/user%7D",
        "blobs_url": "https://api.github.com/repos/bitcoin/bitcoin/git/blobs%7B/sha%7D",
        "branches_url": "https://api.github.com/repos/bitcoin/bitcoin/branches%7B/branch%7D",
        "collaborators_url": "https://api.github.com/repos/bitcoin/bitcoin/collaborators%7B/collaborator%7D",
        "comments_url": "https://api.github.com/repos/bitcoin/bitcoin/comments%7B/number%7D",
        "commits_url": "https://api.github.com/repos/bitcoin/bitcoin/commits%7B/sha%7D",
        "compare_url": "https://api.github.com/repos/bitcoin/bitcoin/compare/%7Bbase%7D...%7Bhead%7D",
        "contents_url": "https://api.github.com/repos/bitcoin/bitcoin/contents/%7B+path%7D",
        "contributors_url": "https://api.github.com/repos/bitcoin/bitcoin/contributors",
        "deployments_url": "https://api.github.com/repos/bitcoin/bitcoin/deployments",
        "downloads_url": "https://api.github.com/repos/bitcoin/bitcoin/downloads",
        "events_url": "https://api.github.com/repos/bitcoin/bitcoin/events",
        "forks_url": "https://api.github.com/repos/bitcoin/bitcoin/forks",
        "git_commits_url": "https://api.github.com/repos/bitcoin/bitcoin/git/commits%7B/sha%7D",
        "git_refs_url": "https://api.github.com/repos/bitcoin/bitcoin/git/refs%7B/sha%7D",
        "git_tags_url": "https://api.github.com/repos/bitcoin/bitcoin/git/tags%7B/sha%7D",
        "git_url": "git://github.com/bitcoin/bitcoin.git",
        "issue_comment_url": "https://api.github.com/repos/bitcoin/bitcoin/issues/comments%7B/number%7D",
        "issue_events_url": "https://api.github.com/repos/bitcoin/bitcoin/issues/events%7B/number%7D",
        "issues_url": "https://api.github.com/repos/bitcoin/bitcoin/issues%7B/number%7D",
        "keys_url": "https://api.github.com/repos/bitcoin/bitcoin/keys%7B/key_id%7D",
        "labels_url": "https://api.github.com/repos/bitcoin/bitcoin/labels%7B/name%7D",
        "languages_url": "https://api.github.com/repos/bitcoin/bitcoin/languages",
        "merges_url": "https://api.github.com/repos/bitcoin/bitcoin/merges",
        "milestones_url": "https://api.github.com/repos/bitcoin/bitcoin/milestones%7B/number%7D",
        "notifications_url": "https://api.github.com/repos/bitcoin/bitcoin/notifications%7B?since,all,participating}",
        "pulls_url": "https://api.github.com/repos/bitcoin/bitcoin/pulls%7B/number%7D",
        "releases_url": "https://api.github.com/repos/bitcoin/bitcoin/releases%7B/id%7D",
        "ssh_url": "git@github.com:bitcoin/bitcoin.git",
        "stargazers_url": "https://api.github.com/repos/bitcoin/bitcoin/stargazers",
        "statuses_url": "https://api.github.com/repos/bitcoin/bitcoin/statuses/%7Bsha%7D",
        "subscribers_url": "https://api.github.com/repos/bitcoin/bitcoin/subscribers",
        "subscription_url": "https://api.github.com/repos/bitcoin/bitcoin/subscription",
        "tags_url": "https://api.github.com/repos/bitcoin/bitcoin/tags",
        "teams_url": "https://api.github.com/repos/bitcoin/bitcoin/teams",
        "trees_url": "https://api.github.com/repos/bitcoin/bitcoin/git/trees%7B/sha%7D",
        "clone_url": "https://github.com/bitcoin/bitcoin.git",
        "hooks_url": "https://api.github.com/repos/bitcoin/bitcoin/hooks",
        "svn_url": "https://github.com/bitcoin/bitcoin",
        "homepage": "https://bitcoincore.org/en/download",
        "language": "C++",
        "forks_count": 35476,
        "stargazers_count": 70608,
        "watchers_count": 70608,
        "size": 236222,
        "default_branch": "master",
        "open_issues_count": 673,
        "is_template": false,
        "topics": [
          "bitcoin",
          "c-plus-plus",
          "cryptocurrency",
          "cryptography",
          "p2p"
        ],
        "has_issues": true,
        "has_projects": true,
        "has_wiki": false,
        "has_pages": false,
        "has_downloads": false,
        "archived": false,
        "disabled": false,
        "visibility": "public",
        "pushed_at": "2023-08-03T00:03:27Z",
        "created_at": "2010-12-19T15:16:43Z",
        "updated_at": "2023-08-02T18:21:18Z",
        "license": {
          "key": "mit",
          "name": "MIT License",
          "node_id": "MDc6TGljZW5zZTEz",
          "spdx_id": "MIT",
          "url": "https://api.github.com/licenses/mit",
          "html_url": null,
          "description": null,
          "implementation": null,
          "permissions": null,
          "conditions": null,
          "limitations": null,
          "body": null,
          "featured": null
        }
      }
    },
    "_links": {
      "self": {
        "href": "https://api.github.com/repos/bitcoin/bitcoin/pulls/26730"
      }
    },
    "author_association": "CONTRIBUTOR",
    "draft": false,
    "additions": 8,
    "deletions": 2,
    "changed_files": 1,
    "commits": 1,
    "review_comments": 2,
    "comments": 2
  },
  "events": [
    {
      "event": "commented",
      "id": 1359425850,
      "node_id": "IC_kwDOABII585RBzE6",
      "url": "https://api.github.com/repos/bitcoin/bitcoin/issues/comments/1359425850",
      "actor": {
        "login": "DrahtBot",
        "id": 39886733,
        "node_id": "MDQ6VXNlcjM5ODg2NzMz",
        "avatar_url": "https://avatars.githubusercontent.com/u/39886733?v=4",
        "gravatar_id": "",
        "url": "https://api.github.com/users/DrahtBot",
        "html_url": "https://github.com/DrahtBot",
        "followers_url": "https://api.github.com/users/DrahtBot/followers",
        "following_url": "https://api.github.com/users/DrahtBot/following%7B/other_user%7D",
        "gists_url": "https://api.github.com/users/DrahtBot/gists%7B/gist_id%7D",
        "starred_url": "https://api.github.com/users/DrahtBot/starred%7B/owner%7D%7B/repo%7D",
        "subscriptions_url": "https://api.github.com/users/DrahtBot/subscriptions",
        "organizations_url": "https://api.github.com/users/DrahtBot/orgs",
        "repos_url": "https://api.github.com/users/DrahtBot/repos",
        "events_url": "https://api.github.com/users/DrahtBot/events%7B/privacy%7D",
        "received_events_url": "https://api.github.com/users/DrahtBot/received_events",
        "type": "User",
        "site_admin": false
      },
      "commit_id": null,
      "commit_url": null,
      "created_at": "2022-12-20T14:13:04Z",
      "updated_at": "2023-01-11T12:52:27Z",
      "author_association": "CONTRIBUTOR",
      "body": "<!--e57a25ab6845829454e8d69fc972939a-->\n\nThe following sections might be updated with supplementary metadata relevant to reviewers and maintainers.\n\n<!--021abf342d371248e50ceaed478a90ca-->\n### Reviews\nSee [the guideline](https://github.com/bitcoin/bitcoin/blob/master/CONTRIBUTING.md#code-review) for information on the review process.\n| Type | Reviewers |\n| ---- | --------- |\n| ACK | [kristapsk](https://github.com/bitcoin/bitcoin/pull/26730#pullrequestreview-1243853114) |\n| Concept ACK | [yusufsahinhamza](https://github.com/bitcoin/bitcoin/pull/26730#issuecomment-1360433229), [rserranon](https://github.com/bitcoin/bitcoin/pull/26730#pullrequestreview-1243194906) |\n\nIf your review is incorrectly listed, please react with 👎 to this comment and the bot will ignore it on the next update.\n",
      "user": {
        "login": "DrahtBot",
        "id": 39886733,
        "node_id": "MDQ6VXNlcjM5ODg2NzMz",
        "avatar_url": "https://avatars.githubusercontent.com/u/39886733?v=4",
        "gravatar_id": "",
        "url": "https://api.github.com/users/DrahtBot",
        "html_url": "https://github.com/DrahtBot",
        "followers_url": "https://api.github.com/users/DrahtBot/followers",
        "following_url": "https://api.github.com/users/DrahtBot/following%7B/other_user%7D",
        "gists_url": "https://api.github.com/users/DrahtBot/gists%7B/gist_id%7D",
        "starred_url": "https://api.github.com/users/DrahtBot/starred%7B/owner%7D%7B/repo%7D",
        "subscriptions_url": "https://api.github.com/users/DrahtBot/subscriptions",
        "organizations_url": "https://api.github.com/users/DrahtBot/orgs",
        "repos_url": "https://api.github.com/users/DrahtBot/repos",
        "events_url": "https://api.github.com/users/DrahtBot/events%7B/privacy%7D",
        "received_events_url": "https://api.github.com/users/DrahtBot/received_events",
        "type": "User",
        "site_admin": false
      },
      "html_url": "https://github.com/bitcoin/bitcoin/pull/26730#issuecomment-1359425850",
      "issue_url": "https://api.github.com/repos/bitcoin/bitcoin/issues/26730"
    },
    {
      "event": "labeled",
      "id": 8078818211,
      "node_id": "LE_lADOABII585Zrs0KzwAAAAHhiPuj",
      "url": "https://api.github.com/repos/bitcoin/bitcoin/issues/events/8078818211",
      "actor": {
        "login": "DrahtBot",
        "id": 39886733,
        "node_id": "MDQ6VXNlcjM5ODg2NzMz",
        "avatar_url": "https://avatars.githubusercontent.com/u/39886733?v=4",
        "gravatar_id": "",
        "url": "https://api.github.com/users/DrahtBot",
        "html_url": "https://github.com/DrahtBot",
        "followers_url": "https://api.github.com/users/DrahtBot/followers",
        "following_url": "https://api.github.com/users/DrahtBot/following%7B/other_user%7D",
        "gists_url": "https://api.github.com/users/DrahtBot/gists%7B/gist_id%7D",
        "starred_url": "https://api.github.com/users/DrahtBot/starred%7B/owner%7D%7B/repo%7D",
        "subscriptions_url": "https://api.github.com/users/DrahtBot/subscriptions",
        "organizations_url": "https://api.github.com/users/DrahtBot/orgs",
        "repos_url": "https://api.github.com/users/DrahtBot/repos",
        "events_url": "https://api.github.com/users/DrahtBot/events%7B/privacy%7D",
        "received_events_url": "https://api.github.com/users/DrahtBot/received_events",
        "type": "User",
        "site_admin": false
      },
      "commit_id": null,
      "commit_url": null,
      "created_at": "2022-12-20T14:13:06Z",
      "label": {
        "name": "Tests",
        "color": "d4c5f9"
      }
    },
    {
      "event": "committed",
      "id": null,
      "node_id": "C_kwDOABII59oAKGM0NjdjZmZmY2ViYjMwZjgyOWVlYjgxNjAxNjZhNmI5NDFkOTdlZDY",
      "url": "https://api.github.com/repos/bitcoin/bitcoin/git/commits/c467cfffcebb30f829eeb8160166a6b941d97ed6",
      "actor": null,
      "commit_id": null,
      "commit_url": null,
      "created_at": null,
      "html_url": "https://github.com/bitcoin/bitcoin/commit/c467cfffcebb30f829eeb8160166a6b941d97ed6",
      "tree": {
        "sha": "f30a111b8fd60e11d41b2d4a363efdb704329dc6",
        "url": "https://api.github.com/repos/bitcoin/bitcoin/git/trees/f30a111b8fd60e11d41b2d4a363efdb704329dc6"
      },
      "verification": {
        "verified": false,
        "reason": "unsigned",
        "payload": null,
        "signature": null
      },
      "parents": [
        {
          "url": "https://api.github.com/repos/bitcoin/bitcoin/git/commits/dcdfd72861c09a7945b9facc3726177a2d06fa64",
          "sha": "dcdfd72861c09a7945b9facc3726177a2d06fa64",
          "html_url": "https://github.com/bitcoin/bitcoin/commit/dcdfd72861c09a7945b9facc3726177a2d06fa64"
        }
      ],
      "message": "test: add coverage for `purpose` arg in `listlabels`",
      "committer": {
        "name": "brunoerg",
        "email": "brunoely.gc@gmail.com",
        "date": "2022-12-20T14:15:28Z"
      },
      "author": {
        "name": "brunoerg",
        "email": "brunoely.gc@gmail.com",
        "date": "2022-12-20T14:02:11Z"
      },
      "sha": "c467cfffcebb30f829eeb8160166a6b941d97ed6"
    },
    {
      "event": "head_ref_force_pushed",
      "id": 8078841934,
      "node_id": "HRFPE_lADOABII585Zrs0KzwAAAAHhiVhO",
      "url": "https://api.github.com/repos/bitcoin/bitcoin/issues/events/8078841934",
      "actor": {
        "login": "brunoerg",
        "id": 19480819,
        "node_id": "MDQ6VXNlcjE5NDgwODE5",
        "avatar_url": "https://avatars.githubusercontent.com/u/19480819?v=4",
        "gravatar_id": "",
        "url": "https://api.github.com/users/brunoerg",
        "html_url": "https://github.com/brunoerg",
        "followers_url": "https://api.github.com/users/brunoerg/followers",
        "following_url": "https://api.github.com/users/brunoerg/following%7B/other_user%7D",
        "gists_url": "https://api.github.com/users/brunoerg/gists%7B/gist_id%7D",
        "starred_url": "https://api.github.com/users/brunoerg/starred%7B/owner%7D%7B/repo%7D",
        "subscriptions_url": "https://api.github.com/users/brunoerg/subscriptions",
        "organizations_url": "https://api.github.com/users/brunoerg/orgs",
        "repos_url": "https://api.github.com/users/brunoerg/repos",
        "events_url": "https://api.github.com/users/brunoerg/events%7B/privacy%7D",
        "received_events_url": "https://api.github.com/users/brunoerg/received_events",
        "type": "User",
        "site_admin": false
      },
      "commit_id": null,
      "commit_url": null,
      "created_at": "2022-12-20T14:15:51Z"
    },
    {
      "event": "commented",
      "id": 1360433229,
      "node_id": "IC_kwDOABII585RFpBN",
      "url": "https://api.github.com/repos/bitcoin/bitcoin/issues/comments/1360433229",
      "actor": {
        "login": "yusufsahinhamza",
        "id": 46890704,
        "node_id": "MDQ6VXNlcjQ2ODkwNzA0",
        "avatar_url": "https://avatars.githubusercontent.com/u/46890704?v=4",
        "gravatar_id": "",
        "url": "https://api.github.com/users/yusufsahinhamza",
        "html_url": "https://github.com/yusufsahinhamza",
        "followers_url": "https://api.github.com/users/yusufsahinhamza/followers",
        "following_url": "https://api.github.com/users/yusufsahinhamza/following%7B/other_user%7D",
        "gists_url": "https://api.github.com/users/yusufsahinhamza/gists%7B/gist_id%7D",
        "starred_url": "https://api.github.com/users/yusufsahinhamza/starred%7B/owner%7D%7B/repo%7D",
        "subscriptions_url": "https://api.github.com/users/yusufsahinhamza/subscriptions",
        "organizations_url": "https://api.github.com/users/yusufsahinhamza/orgs",
        "repos_url": "https://api.github.com/users/yusufsahinhamza/repos",
        "events_url": "https://api.github.com/users/yusufsahinhamza/events%7B/privacy%7D",
        "received_events_url": "https://api.github.com/users/yusufsahinhamza/received_events",
        "type": "User",
        "site_admin": false
      },
      "commit_id": null,
      "commit_url": null,
      "created_at": "2022-12-20T23:09:14Z",
      "updated_at": "2022-12-20T23:09:14Z",
      "author_association": "CONTRIBUTOR",
      "body": "Concept ACK",
      "user": {
        "login": "yusufsahinhamza",
        "id": 46890704,
        "node_id": "MDQ6VXNlcjQ2ODkwNzA0",
        "avatar_url": "https://avatars.githubusercontent.com/u/46890704?v=4",
        "gravatar_id": "",
        "url": "https://api.github.com/users/yusufsahinhamza",
        "html_url": "https://github.com/yusufsahinhamza",
        "followers_url": "https://api.github.com/users/yusufsahinhamza/followers",
        "following_url": "https://api.github.com/users/yusufsahinhamza/following%7B/other_user%7D",
        "gists_url": "https://api.github.com/users/yusufsahinhamza/gists%7B/gist_id%7D",
        "starred_url": "https://api.github.com/users/yusufsahinhamza/starred%7B/owner%7D%7B/repo%7D",
        "subscriptions_url": "https://api.github.com/users/yusufsahinhamza/subscriptions",
        "organizations_url": "https://api.github.com/users/yusufsahinhamza/orgs",
        "repos_url": "https://api.github.com/users/yusufsahinhamza/repos",
        "events_url": "https://api.github.com/users/yusufsahinhamza/events%7B/privacy%7D",
        "received_events_url": "https://api.github.com/users/yusufsahinhamza/received_events",
        "type": "User",
        "site_admin": false
      },
      "html_url": "https://github.com/bitcoin/bitcoin/pull/26730#issuecomment-1360433229",
      "issue_url": "https://api.github.com/repos/bitcoin/bitcoin/issues/26730"
    },
    {
      "event": "reviewed",
      "id": 1243194906,
      "node_id": "PRR_kwDOABII585KGaYa",
      "url": null,
      "actor": null,
      "commit_id": "c467cfffcebb30f829eeb8160166a6b941d97ed6",
      "commit_url": null,
      "created_at": null,
      "author_association": "NONE",
      "body": "Concept ACK, Test ACK",
      "user": {
        "login": "rserranon",
        "id": 77761,
        "node_id": "MDQ6VXNlcjc3NzYx",
        "avatar_url": "https://avatars.githubusercontent.com/u/77761?v=4",
        "gravatar_id": "",
        "url": "https://api.github.com/users/rserranon",
        "html_url": "https://github.com/rserranon",
        "followers_url": "https://api.github.com/users/rserranon/followers",
        "following_url": "https://api.github.com/users/rserranon/following%7B/other_user%7D",
        "gists_url": "https://api.github.com/users/rserranon/gists%7B/gist_id%7D",
        "starred_url": "https://api.github.com/users/rserranon/starred%7B/owner%7D%7B/repo%7D",
        "subscriptions_url": "https://api.github.com/users/rserranon/subscriptions",
        "organizations_url": "https://api.github.com/users/rserranon/orgs",
        "repos_url": "https://api.github.com/users/rserranon/repos",
        "events_url": "https://api.github.com/users/rserranon/events%7B/privacy%7D",
        "received_events_url": "https://api.github.com/users/rserranon/received_events",
        "type": "User",
        "site_admin": false
      },
      "html_url": "https://github.com/bitcoin/bitcoin/pull/26730#pullrequestreview-1243194906",
      "submitted_at": "2023-01-11T01:58:08Z",
      "state": "CHANGES_REQUESTED",
      "pull_request_url": "https://api.github.com/repos/bitcoin/bitcoin/pulls/26730"
    },
    {
      "event": "reviewed",
      "id": 1243853114,
      "node_id": "PRR_kwDOABII585KI7E6",
      "url": null,
      "actor": null,
      "commit_id": "c467cfffcebb30f829eeb8160166a6b941d97ed6",
      "commit_url": null,
      "created_at": null,
      "author_association": "CONTRIBUTOR",
      "body": "ACK c467cfffcebb30f829eeb8160166a6b941d97ed6",
      "user": {
        "login": "kristapsk",
        "id": 4500994,
        "node_id": "MDQ6VXNlcjQ1MDA5OTQ=",
        "avatar_url": "https://avatars.githubusercontent.com/u/4500994?v=4",
        "gravatar_id": "",
        "url": "https://api.github.com/users/kristapsk",
        "html_url": "https://github.com/kristapsk",
        "followers_url": "https://api.github.com/users/kristapsk/followers",
        "following_url": "https://api.github.com/users/kristapsk/following%7B/other_user%7D",
        "gists_url": "https://api.github.com/users/kristapsk/gists%7B/gist_id%7D",
        "starred_url": "https://api.github.com/users/kristapsk/starred%7B/owner%7D%7B/repo%7D",
        "subscriptions_url": "https://api.github.com/users/kristapsk/subscriptions",
        "organizations_url": "https://api.github.com/users/kristapsk/orgs",
        "repos_url": "https://api.github.com/users/kristapsk/repos",
        "events_url": "https://api.github.com/users/kristapsk/events%7B/privacy%7D",
        "received_events_url": "https://api.github.com/users/kristapsk/received_events",
        "type": "User",
        "site_admin": false
      },
      "html_url": "https://github.com/bitcoin/bitcoin/pull/26730#pullrequestreview-1243853114",
      "submitted_at": "2023-01-11T12:52:24Z",
      "state": "APPROVED",
      "pull_request_url": "https://api.github.com/repos/bitcoin/bitcoin/pulls/26730"
    },
    {
      "event": "referenced",
      "id": 8201972399,
      "node_id": "REFE_lADOABII585Zrs0KzwAAAAHo4Cqv",
      "url": "https://api.github.com/repos/bitcoin/bitcoin/issues/events/8201972399",
      "actor": {
        "login": "MarcoFalke",
        "id": 6399679,
        "node_id": "MDQ6VXNlcjYzOTk2Nzk=",
        "avatar_url": "https://avatars.githubusercontent.com/u/6399679?v=4",
        "gravatar_id": "",
        "url": "https://api.github.com/users/MarcoFalke",
        "html_url": "https://github.com/MarcoFalke",
        "followers_url": "https://api.github.com/users/MarcoFalke/followers",
        "following_url": "https://api.github.com/users/MarcoFalke/following%7B/other_user%7D",
        "gists_url": "https://api.github.com/users/MarcoFalke/gists%7B/gist_id%7D",
        "starred_url": "https://api.github.com/users/MarcoFalke/starred%7B/owner%7D%7B/repo%7D",
        "subscriptions_url": "https://api.github.com/users/MarcoFalke/subscriptions",
        "organizations_url": "https://api.github.com/users/MarcoFalke/orgs",
        "repos_url": "https://api.github.com/users/MarcoFalke/repos",
        "events_url": "https://api.github.com/users/MarcoFalke/events%7B/privacy%7D",
        "received_events_url": "https://api.github.com/users/MarcoFalke/received_events",
        "type": "User",
        "site_admin": false
      },
      "commit_id": "b168b71a5d30c1441737cace281ffa3cce0357fc",
      "commit_url": "https://api.github.com/repos/bitcoin-core/gui/commits/b168b71a5d30c1441737cace281ffa3cce0357fc",
      "created_at": "2023-01-11T13:58:12Z"
    },
    {
      "event": "closed",
      "id": 8201992582,
      "node_id": "CE_lADOABII585Zrs0KzwAAAAHo4HmG",
      "url": "https://api.github.com/repos/bitcoin/bitcoin/issues/events/8201992582",
      "actor": {
        "login": "MarcoFalke",
        "id": 6399679,
        "node_id": "MDQ6VXNlcjYzOTk2Nzk=",
        "avatar_url": "https://avatars.githubusercontent.com/u/6399679?v=4",
        "gravatar_id": "",
        "url": "https://api.github.com/users/MarcoFalke",
        "html_url": "https://github.com/MarcoFalke",
        "followers_url": "https://api.github.com/users/MarcoFalke/followers",
        "following_url": "https://api.github.com/users/MarcoFalke/following%7B/other_user%7D",
        "gists_url": "https://api.github.com/users/MarcoFalke/gists%7B/gist_id%7D",
        "starred_url": "https://api.github.com/users/MarcoFalke/starred%7B/owner%7D%7B/repo%7D",
        "subscriptions_url": "https://api.github.com/users/MarcoFalke/subscriptions",
        "organizations_url": "https://api.github.com/users/MarcoFalke/orgs",
        "repos_url": "https://api.github.com/users/MarcoFalke/repos",
        "events_url": "https://api.github.com/users/MarcoFalke/events%7B/privacy%7D",
        "received_events_url": "https://api.github.com/users/MarcoFalke/received_events",
        "type": "User",
        "site_admin": false
      },
      "commit_id": null,
      "commit_url": null,
      "created_at": "2023-01-11T14:00:27Z"
    },
    {
      "event": "referenced",
      "id": 8202941793,
      "node_id": "REFE_lADOABII585Zrs0KzwAAAAHo7vVh",
      "url": "https://api.github.com/repos/bitcoin/bitcoin/issues/events/8202941793",
      "actor": {
        "login": "sidhujag",
        "id": 6238042,
        "node_id": "MDQ6VXNlcjYyMzgwNDI=",
        "avatar_url": "https://avatars.githubusercontent.com/u/6238042?v=4",
        "gravatar_id": "",
        "url": "https://api.github.com/users/sidhujag",
        "html_url": "https://github.com/sidhujag",
        "followers_url": "https://api.github.com/users/sidhujag/followers",
        "following_url": "https://api.github.com/users/sidhujag/following%7B/other_user%7D",
        "gists_url": "https://api.github.com/users/sidhujag/gists%7B/gist_id%7D",
        "starred_url": "https://api.github.com/users/sidhujag/starred%7B/owner%7D%7B/repo%7D",
        "subscriptions_url": "https://api.github.com/users/sidhujag/subscriptions",
        "organizations_url": "https://api.github.com/users/sidhujag/orgs",
        "repos_url": "https://api.github.com/users/sidhujag/repos",
        "events_url": "https://api.github.com/users/sidhujag/events%7B/privacy%7D",
        "received_events_url": "https://api.github.com/users/sidhujag/received_events",
        "type": "User",
        "site_admin": false
      },
      "commit_id": "26bbb33e44e04fc1f92914ed2738a9a117be11b5",
      "commit_url": "https://api.github.com/repos/syscoin/syscoin/commits/26bbb33e44e04fc1f92914ed2738a9a117be11b5",
      "created_at": "2023-01-11T15:37:23Z"
    }
  ],
  "comments": [
    {
      "url": "https://api.github.com/repos/bitcoin/bitcoin/pulls/comments/1066505308",
      "pull_request_review_id": 1243194906,
      "id": 1066505308,
      "node_id": "PRRC_kwDOABII584_kZRc",
      "diff_hunk": "@@ -83,8 +83,14 @@ def run_test(self):\n             label.add_receive_address(address)\n             label.verify(node)\n \n+        # Check listlabels when passing 'purpose'\n+        node2_addr = self.nodes[1].getnewaddress()\n+        node.setlabel(node2_addr, \"node2_addr\")\n+        assert_equal(node.listlabels(purpose=\"send\"), [\"node2_addr\"])",
      "path": "test/functional/wallet_labels.py",
      "position": 16,
      "original_position": 16,
      "commit_id": "c467cfffcebb30f829eeb8160166a6b941d97ed6",
      "original_commit_id": "c467cfffcebb30f829eeb8160166a6b941d97ed6",
      "in_reply_to_id": null,
      "user": {
        "login": "rserranon",
        "id": 77761,
        "node_id": "MDQ6VXNlcjc3NzYx",
        "avatar_url": "https://avatars.githubusercontent.com/u/77761?v=4",
        "gravatar_id": "",
        "url": "https://api.github.com/users/rserranon",
        "html_url": "https://github.com/rserranon",
        "followers_url": "https://api.github.com/users/rserranon/followers",
        "following_url": "https://api.github.com/users/rserranon/following%7B/other_user%7D",
        "gists_url": "https://api.github.com/users/rserranon/gists%7B/gist_id%7D",
        "starred_url": "https://api.github.com/users/rserranon/starred%7B/owner%7D%7B/repo%7D",
        "subscriptions_url": "https://api.github.com/users/rserranon/subscriptions",
        "organizations_url": "https://api.github.com/users/rserranon/orgs",
        "repos_url": "https://api.github.com/users/rserranon/repos",
        "events_url": "https://api.github.com/users/rserranon/events%7B/privacy%7D",
        "received_events_url": "https://api.github.com/users/rserranon/received_events",
        "type": "User",
        "site_admin": false
      },
      "body": "It is not clear to me why node2_addr is a `send` address, I tried to replicate it in regtest but all my new addresses are `receive` addresses, maybe is worth clarifying it.",
      "created_at": "2023-01-11T01:56:42Z",
      "updated_at": "2023-01-11T01:59:09Z",
      "html_url": "https://github.com/bitcoin/bitcoin/pull/26730#discussion_r1066505308",
      "author_association": "NONE",
      "_links": {
        "self": {
          "href": "https://api.github.com/repos/bitcoin/bitcoin/pulls/comments/1066505308"
        },
        "pull_request": {
          "href": "https://api.github.com/repos/bitcoin/bitcoin/pulls/26730"
        }
      },
      "start_line": 87,
      "original_start_line": 87,
      "start_side": "RIGHT",
      "line": 89,
      "original_line": 89,
      "side": "RIGHT"
    },
    {
      "url": "https://api.github.com/repos/bitcoin/bitcoin/pulls/comments/1066947493",
      "pull_request_review_id": 1243840737,
      "id": 1066947493,
      "node_id": "PRRC_kwDOABII584_mFOl",
      "diff_hunk": "@@ -83,8 +83,14 @@ def run_test(self):\n             label.add_receive_address(address)\n             label.verify(node)\n \n+        # Check listlabels when passing 'purpose'\n+        node2_addr = self.nodes[1].getnewaddress()\n+        node.setlabel(node2_addr, \"node2_addr\")\n+        assert_equal(node.listlabels(purpose=\"send\"), [\"node2_addr\"])",
      "path": "test/functional/wallet_labels.py",
      "position": 16,
      "original_position": 16,
      "commit_id": "c467cfffcebb30f829eeb8160166a6b941d97ed6",
      "original_commit_id": "c467cfffcebb30f829eeb8160166a6b941d97ed6",
      "in_reply_to_id": 1066505308,
      "user": {
        "login": "brunoerg",
        "id": 19480819,
        "node_id": "MDQ6VXNlcjE5NDgwODE5",
        "avatar_url": "https://avatars.githubusercontent.com/u/19480819?v=4",
        "gravatar_id": "",
        "url": "https://api.github.com/users/brunoerg",
        "html_url": "https://github.com/brunoerg",
        "followers_url": "https://api.github.com/users/brunoerg/followers",
        "following_url": "https://api.github.com/users/brunoerg/following%7B/other_user%7D",
        "gists_url": "https://api.github.com/users/brunoerg/gists%7B/gist_id%7D",
        "starred_url": "https://api.github.com/users/brunoerg/starred%7B/owner%7D%7B/repo%7D",
        "subscriptions_url": "https://api.github.com/users/brunoerg/subscriptions",
        "organizations_url": "https://api.github.com/users/brunoerg/orgs",
        "repos_url": "https://api.github.com/users/brunoerg/repos",
        "events_url": "https://api.github.com/users/brunoerg/events%7B/privacy%7D",
        "received_events_url": "https://api.github.com/users/brunoerg/received_events",
        "type": "User",
        "site_admin": false
      },
      "body": "`node = self.nodes[0]` -> so, `node` refers to `self.nodes[0]`.\r\n\r\nHere we are getting a new address from `self.nodes[1]`, so it will receive btc using this address. For this reason, it can be used by `self.nodes[0]` to send Bitcoins.\r\n\r\nSo, `node2_addr` for `self.nodes[1]` is \"receive\" and for `self.nodes[0]` is \"send\".",
      "created_at": "2023-01-11T12:43:35Z",
      "updated_at": "2023-01-11T12:43:35Z",
      "html_url": "https://github.com/bitcoin/bitcoin/pull/26730#discussion_r1066947493",
      "author_association": "CONTRIBUTOR",
      "_links": {
        "self": {
          "href": "https://api.github.com/repos/bitcoin/bitcoin/pulls/comments/1066947493"
        },
        "pull_request": {
          "href": "https://api.github.com/repos/bitcoin/bitcoin/pulls/26730"
        }
      },
      "start_line": 87,
      "original_start_line": 87,
      "start_side": "RIGHT",
      "line": 89,
      "original_line": 89,
      "side": "RIGHT"
    }
  ]
}