{
  "type": "pull",
  "pull": {
    "url": "https://api.github.com/repos/bitcoin/bitcoin/pulls/26734",
    "id": 1172911563,
    "node_id": "PR_kwDOABII585F6TXL",
    "html_url": "https://github.com/bitcoin/bitcoin/pull/26734",
    "diff_url": "https://github.com/bitcoin/bitcoin/pull/26734.diff",
    "patch_url": "https://github.com/bitcoin/bitcoin/pull/26734.patch",
    "issue_url": "https://api.github.com/repos/bitcoin/bitcoin/issues/26734",
    "commits_url": "https://api.github.com/repos/bitcoin/bitcoin/pulls/26734/commits",
    "review_comments_url": "https://api.github.com/repos/bitcoin/bitcoin/pulls/26734/comments",
    "review_comment_url": "https://api.github.com/repos/bitcoin/bitcoin/pulls/comments%7B/number%7D",
    "comments_url": "https://api.github.com/repos/bitcoin/bitcoin/issues/26734/comments",
    "statuses_url": "https://api.github.com/repos/bitcoin/bitcoin/statuses/97115de1839c69d63cae6ea772c17905739bf0ae",
    "number": 26734,
    "state": "closed",
    "locked": false,
    "maintainer_can_modify": false,
    "title": "doc: Fixup getrawtransaction RPC docs",
    "user": {
      "login": "dougEfresh",
      "id": 976425,
      "node_id": "MDQ6VXNlcjk3NjQyNQ==",
      "avatar_url": "https://avatars.githubusercontent.com/u/976425?v=4",
      "gravatar_id": "",
      "url": "https://api.github.com/users/dougEfresh",
      "html_url": "https://github.com/dougEfresh",
      "followers_url": "https://api.github.com/users/dougEfresh/followers",
      "following_url": "https://api.github.com/users/dougEfresh/following%7B/other_user%7D",
      "gists_url": "https://api.github.com/users/dougEfresh/gists%7B/gist_id%7D",
      "starred_url": "https://api.github.com/users/dougEfresh/starred%7B/owner%7D%7B/repo%7D",
      "subscriptions_url": "https://api.github.com/users/dougEfresh/subscriptions",
      "organizations_url": "https://api.github.com/users/dougEfresh/orgs",
      "repos_url": "https://api.github.com/users/dougEfresh/repos",
      "events_url": "https://api.github.com/users/dougEfresh/events%7B/privacy%7D",
      "received_events_url": "https://api.github.com/users/dougEfresh/received_events",
      "type": "User",
      "site_admin": false
    },
    "body": "Added  `ScriptPubKeyDoc` function\r\n",
    "labels": [
      {
        "id": 148216,
        "node_id": "MDU6TGFiZWwxNDgyMTY=",
        "url": "https://api.github.com/repos/bitcoin/bitcoin/labels/Docs",
        "name": "Docs",
        "color": "02d7e1",
        "default": false
      }
    ],
    "created_at": "2022-12-20T22:49:47Z",
    "updated_at": "2023-01-25T19:14:38Z",
    "closed_at": "2022-12-21T08:57:24Z",
    "mergeable_state": "unknown",
    "merged_at": "2022-12-21T08:57:24Z",
    "merge_commit_sha": "dd7d82bec03c890b06e189950115bbb0c607f30f",
    "assignees": [],
    "requested_reviewers": [],
    "requested_teams": [],
    "head": {
      "label": "dougEfresh:doc-getrawtransaction",
      "ref": "doc-getrawtransaction",
      "sha": "97115de1839c69d63cae6ea772c17905739bf0ae",
      "user": {
        "login": "dougEfresh",
        "id": 976425,
        "node_id": "MDQ6VXNlcjk3NjQyNQ==",
        "avatar_url": "https://avatars.githubusercontent.com/u/976425?v=4",
        "gravatar_id": "",
        "url": "https://api.github.com/users/dougEfresh",
        "html_url": "https://github.com/dougEfresh",
        "followers_url": "https://api.github.com/users/dougEfresh/followers",
        "following_url": "https://api.github.com/users/dougEfresh/following%7B/other_user%7D",
        "gists_url": "https://api.github.com/users/dougEfresh/gists%7B/gist_id%7D",
        "starred_url": "https://api.github.com/users/dougEfresh/starred%7B/owner%7D%7B/repo%7D",
        "subscriptions_url": "https://api.github.com/users/dougEfresh/subscriptions",
        "organizations_url": "https://api.github.com/users/dougEfresh/orgs",
        "repos_url": "https://api.github.com/users/dougEfresh/repos",
        "events_url": "https://api.github.com/users/dougEfresh/events%7B/privacy%7D",
        "received_events_url": "https://api.github.com/users/dougEfresh/received_events",
        "type": "User",
        "site_admin": false
      },
      "repo": {
        "id": 409481890,
        "node_id": "R_kgDOGGgyog",
        "name": "pro-bitcoin",
        "full_name": "dougEfresh/pro-bitcoin",
        "owner": {
          "login": "dougEfresh",
          "id": 976425,
          "node_id": "MDQ6VXNlcjk3NjQyNQ==",
          "avatar_url": "https://avatars.githubusercontent.com/u/976425?v=4",
          "gravatar_id": "",
          "url": "https://api.github.com/users/dougEfresh",
          "html_url": "https://github.com/dougEfresh",
          "followers_url": "https://api.github.com/users/dougEfresh/followers",
          "following_url": "https://api.github.com/users/dougEfresh/following%7B/other_user%7D",
          "gists_url": "https://api.github.com/users/dougEfresh/gists%7B/gist_id%7D",
          "starred_url": "https://api.github.com/users/dougEfresh/starred%7B/owner%7D%7B/repo%7D",
          "subscriptions_url": "https://api.github.com/users/dougEfresh/subscriptions",
          "organizations_url": "https://api.github.com/users/dougEfresh/orgs",
          "repos_url": "https://api.github.com/users/dougEfresh/repos",
          "events_url": "https://api.github.com/users/dougEfresh/events%7B/privacy%7D",
          "received_events_url": "https://api.github.com/users/dougEfresh/received_events",
          "type": "User",
          "site_admin": false
        },
        "private": false,
        "html_url": "https://github.com/dougEfresh/pro-bitcoin",
        "description": "Prometheus Enabled Bitcoin core",
        "fork": true,
        "url": "https://api.github.com/repos/dougEfresh/pro-bitcoin",
        "archive_url": "https://api.github.com/repos/dougEfresh/pro-bitcoin/%7Barchive_format%7D%7B/ref%7D",
        "assignees_url": "https://api.github.com/repos/dougEfresh/pro-bitcoin/assignees%7B/user%7D",
        "blobs_url": "https://api.github.com/repos/dougEfresh/pro-bitcoin/git/blobs%7B/sha%7D",
        "branches_url": "https://api.github.com/repos/dougEfresh/pro-bitcoin/branches%7B/branch%7D",
        "collaborators_url": "https://api.github.com/repos/dougEfresh/pro-bitcoin/collaborators%7B/collaborator%7D",
        "comments_url": "https://api.github.com/repos/dougEfresh/pro-bitcoin/comments%7B/number%7D",
        "commits_url": "https://api.github.com/repos/dougEfresh/pro-bitcoin/commits%7B/sha%7D",
        "compare_url": "https://api.github.com/repos/dougEfresh/pro-bitcoin/compare/%7Bbase%7D...%7Bhead%7D",
        "contents_url": "https://api.github.com/repos/dougEfresh/pro-bitcoin/contents/%7B+path%7D",
        "contributors_url": "https://api.github.com/repos/dougEfresh/pro-bitcoin/contributors",
        "deployments_url": "https://api.github.com/repos/dougEfresh/pro-bitcoin/deployments",
        "downloads_url": "https://api.github.com/repos/dougEfresh/pro-bitcoin/downloads",
        "events_url": "https://api.github.com/repos/dougEfresh/pro-bitcoin/events",
        "forks_url": "https://api.github.com/repos/dougEfresh/pro-bitcoin/forks",
        "git_commits_url": "https://api.github.com/repos/dougEfresh/pro-bitcoin/git/commits%7B/sha%7D",
        "git_refs_url": "https://api.github.com/repos/dougEfresh/pro-bitcoin/git/refs%7B/sha%7D",
        "git_tags_url": "https://api.github.com/repos/dougEfresh/pro-bitcoin/git/tags%7B/sha%7D",
        "git_url": "git://github.com/dougEfresh/pro-bitcoin.git",
        "issue_comment_url": "https://api.github.com/repos/dougEfresh/pro-bitcoin/issues/comments%7B/number%7D",
        "issue_events_url": "https://api.github.com/repos/dougEfresh/pro-bitcoin/issues/events%7B/number%7D",
        "issues_url": "https://api.github.com/repos/dougEfresh/pro-bitcoin/issues%7B/number%7D",
        "keys_url": "https://api.github.com/repos/dougEfresh/pro-bitcoin/keys%7B/key_id%7D",
        "labels_url": "https://api.github.com/repos/dougEfresh/pro-bitcoin/labels%7B/name%7D",
        "languages_url": "https://api.github.com/repos/dougEfresh/pro-bitcoin/languages",
        "merges_url": "https://api.github.com/repos/dougEfresh/pro-bitcoin/merges",
        "milestones_url": "https://api.github.com/repos/dougEfresh/pro-bitcoin/milestones%7B/number%7D",
        "notifications_url": "https://api.github.com/repos/dougEfresh/pro-bitcoin/notifications%7B?since,all,participating}",
        "pulls_url": "https://api.github.com/repos/dougEfresh/pro-bitcoin/pulls%7B/number%7D",
        "releases_url": "https://api.github.com/repos/dougEfresh/pro-bitcoin/releases%7B/id%7D",
        "ssh_url": "git@github.com:dougEfresh/pro-bitcoin.git",
        "stargazers_url": "https://api.github.com/repos/dougEfresh/pro-bitcoin/stargazers",
        "statuses_url": "https://api.github.com/repos/dougEfresh/pro-bitcoin/statuses/%7Bsha%7D",
        "subscribers_url": "https://api.github.com/repos/dougEfresh/pro-bitcoin/subscribers",
        "subscription_url": "https://api.github.com/repos/dougEfresh/pro-bitcoin/subscription",
        "tags_url": "https://api.github.com/repos/dougEfresh/pro-bitcoin/tags",
        "teams_url": "https://api.github.com/repos/dougEfresh/pro-bitcoin/teams",
        "trees_url": "https://api.github.com/repos/dougEfresh/pro-bitcoin/git/trees%7B/sha%7D",
        "clone_url": "https://github.com/dougEfresh/pro-bitcoin.git",
        "hooks_url": "https://api.github.com/repos/dougEfresh/pro-bitcoin/hooks",
        "svn_url": "https://github.com/dougEfresh/pro-bitcoin",
        "homepage": "https://pro-bitcoin.io",
        "language": "C++",
        "forks_count": 0,
        "stargazers_count": 0,
        "watchers_count": 0,
        "size": 221943,
        "default_branch": "prometheus",
        "open_issues_count": 0,
        "is_template": false,
        "topics": [
          "prometheus"
        ],
        "has_issues": false,
        "has_projects": true,
        "has_wiki": true,
        "has_pages": false,
        "has_downloads": false,
        "archived": false,
        "disabled": false,
        "visibility": "public",
        "pushed_at": "2023-03-06T19:53:00Z",
        "created_at": "2021-09-23T06:55:27Z",
        "updated_at": "2021-11-04T16:05:11Z",
        "license": {
          "key": "mit",
          "name": "MIT License",
          "node_id": "MDc6TGljZW5zZTEz",
          "spdx_id": "MIT",
          "url": "https://api.github.com/licenses/mit",
          "html_url": null,
          "description": null,
          "implementation": null,
          "permissions": null,
          "conditions": null,
          "limitations": null,
          "body": null,
          "featured": null
        }
      }
    },
    "base": {
      "label": "bitcoin:master",
      "ref": "master",
      "sha": "cbcad79eefd741fcfa0fb45615b6030575310f62",
      "user": {
        "login": "bitcoin",
        "id": 528860,
        "node_id": "MDEyOk9yZ2FuaXphdGlvbjUyODg2MA==",
        "avatar_url": "https://avatars.githubusercontent.com/u/528860?v=4",
        "gravatar_id": "",
        "url": "https://api.github.com/users/bitcoin",
        "html_url": "https://github.com/bitcoin",
        "followers_url": "https://api.github.com/users/bitcoin/followers",
        "following_url": "https://api.github.com/users/bitcoin/following%7B/other_user%7D",
        "gists_url": "https://api.github.com/users/bitcoin/gists%7B/gist_id%7D",
        "starred_url": "https://api.github.com/users/bitcoin/starred%7B/owner%7D%7B/repo%7D",
        "subscriptions_url": "https://api.github.com/users/bitcoin/subscriptions",
        "organizations_url": "https://api.github.com/users/bitcoin/orgs",
        "repos_url": "https://api.github.com/users/bitcoin/repos",
        "events_url": "https://api.github.com/users/bitcoin/events%7B/privacy%7D",
        "received_events_url": "https://api.github.com/users/bitcoin/received_events",
        "type": "Organization",
        "site_admin": false
      },
      "repo": {
        "id": 1181927,
        "node_id": "MDEwOlJlcG9zaXRvcnkxMTgxOTI3",
        "name": "bitcoin",
        "full_name": "bitcoin/bitcoin",
        "owner": {
          "login": "bitcoin",
          "id": 528860,
          "node_id": "MDEyOk9yZ2FuaXphdGlvbjUyODg2MA==",
          "avatar_url": "https://avatars.githubusercontent.com/u/528860?v=4",
          "gravatar_id": "",
          "url": "https://api.github.com/users/bitcoin",
          "html_url": "https://github.com/bitcoin",
          "followers_url": "https://api.github.com/users/bitcoin/followers",
          "following_url": "https://api.github.com/users/bitcoin/following%7B/other_user%7D",
          "gists_url": "https://api.github.com/users/bitcoin/gists%7B/gist_id%7D",
          "starred_url": "https://api.github.com/users/bitcoin/starred%7B/owner%7D%7B/repo%7D",
          "subscriptions_url": "https://api.github.com/users/bitcoin/subscriptions",
          "organizations_url": "https://api.github.com/users/bitcoin/orgs",
          "repos_url": "https://api.github.com/users/bitcoin/repos",
          "events_url": "https://api.github.com/users/bitcoin/events%7B/privacy%7D",
          "received_events_url": "https://api.github.com/users/bitcoin/received_events",
          "type": "Organization",
          "site_admin": false
        },
        "private": false,
        "html_url": "https://github.com/bitcoin/bitcoin",
        "description": "Bitcoin Core integration/staging tree",
        "fork": false,
        "url": "https://api.github.com/repos/bitcoin/bitcoin",
        "archive_url": "https://api.github.com/repos/bitcoin/bitcoin/%7Barchive_format%7D%7B/ref%7D",
        "assignees_url": "https://api.github.com/repos/bitcoin/bitcoin/assignees%7B/user%7D",
        "blobs_url": "https://api.github.com/repos/bitcoin/bitcoin/git/blobs%7B/sha%7D",
        "branches_url": "https://api.github.com/repos/bitcoin/bitcoin/branches%7B/branch%7D",
        "collaborators_url": "https://api.github.com/repos/bitcoin/bitcoin/collaborators%7B/collaborator%7D",
        "comments_url": "https://api.github.com/repos/bitcoin/bitcoin/comments%7B/number%7D",
        "commits_url": "https://api.github.com/repos/bitcoin/bitcoin/commits%7B/sha%7D",
        "compare_url": "https://api.github.com/repos/bitcoin/bitcoin/compare/%7Bbase%7D...%7Bhead%7D",
        "contents_url": "https://api.github.com/repos/bitcoin/bitcoin/contents/%7B+path%7D",
        "contributors_url": "https://api.github.com/repos/bitcoin/bitcoin/contributors",
        "deployments_url": "https://api.github.com/repos/bitcoin/bitcoin/deployments",
        "downloads_url": "https://api.github.com/repos/bitcoin/bitcoin/downloads",
        "events_url": "https://api.github.com/repos/bitcoin/bitcoin/events",
        "forks_url": "https://api.github.com/repos/bitcoin/bitcoin/forks",
        "git_commits_url": "https://api.github.com/repos/bitcoin/bitcoin/git/commits%7B/sha%7D",
        "git_refs_url": "https://api.github.com/repos/bitcoin/bitcoin/git/refs%7B/sha%7D",
        "git_tags_url": "https://api.github.com/repos/bitcoin/bitcoin/git/tags%7B/sha%7D",
        "git_url": "git://github.com/bitcoin/bitcoin.git",
        "issue_comment_url": "https://api.github.com/repos/bitcoin/bitcoin/issues/comments%7B/number%7D",
        "issue_events_url": "https://api.github.com/repos/bitcoin/bitcoin/issues/events%7B/number%7D",
        "issues_url": "https://api.github.com/repos/bitcoin/bitcoin/issues%7B/number%7D",
        "keys_url": "https://api.github.com/repos/bitcoin/bitcoin/keys%7B/key_id%7D",
        "labels_url": "https://api.github.com/repos/bitcoin/bitcoin/labels%7B/name%7D",
        "languages_url": "https://api.github.com/repos/bitcoin/bitcoin/languages",
        "merges_url": "https://api.github.com/repos/bitcoin/bitcoin/merges",
        "milestones_url": "https://api.github.com/repos/bitcoin/bitcoin/milestones%7B/number%7D",
        "notifications_url": "https://api.github.com/repos/bitcoin/bitcoin/notifications%7B?since,all,participating}",
        "pulls_url": "https://api.github.com/repos/bitcoin/bitcoin/pulls%7B/number%7D",
        "releases_url": "https://api.github.com/repos/bitcoin/bitcoin/releases%7B/id%7D",
        "ssh_url": "git@github.com:bitcoin/bitcoin.git",
        "stargazers_url": "https://api.github.com/repos/bitcoin/bitcoin/stargazers",
        "statuses_url": "https://api.github.com/repos/bitcoin/bitcoin/statuses/%7Bsha%7D",
        "subscribers_url": "https://api.github.com/repos/bitcoin/bitcoin/subscribers",
        "subscription_url": "https://api.github.com/repos/bitcoin/bitcoin/subscription",
        "tags_url": "https://api.github.com/repos/bitcoin/bitcoin/tags",
        "teams_url": "https://api.github.com/repos/bitcoin/bitcoin/teams",
        "trees_url": "https://api.github.com/repos/bitcoin/bitcoin/git/trees%7B/sha%7D",
        "clone_url": "https://github.com/bitcoin/bitcoin.git",
        "hooks_url": "https://api.github.com/repos/bitcoin/bitcoin/hooks",
        "svn_url": "https://github.com/bitcoin/bitcoin",
        "homepage": "https://bitcoincore.org/en/download",
        "language": "C++",
        "forks_count": 35476,
        "stargazers_count": 70608,
        "watchers_count": 70608,
        "size": 236222,
        "default_branch": "master",
        "open_issues_count": 673,
        "is_template": false,
        "topics": [
          "bitcoin",
          "c-plus-plus",
          "cryptocurrency",
          "cryptography",
          "p2p"
        ],
        "has_issues": true,
        "has_projects": true,
        "has_wiki": false,
        "has_pages": false,
        "has_downloads": false,
        "archived": false,
        "disabled": false,
        "visibility": "public",
        "pushed_at": "2023-08-03T00:03:27Z",
        "created_at": "2010-12-19T15:16:43Z",
        "updated_at": "2023-08-02T18:21:18Z",
        "license": {
          "key": "mit",
          "name": "MIT License",
          "node_id": "MDc6TGljZW5zZTEz",
          "spdx_id": "MIT",
          "url": "https://api.github.com/licenses/mit",
          "html_url": null,
          "description": null,
          "implementation": null,
          "permissions": null,
          "conditions": null,
          "limitations": null,
          "body": null,
          "featured": null
        }
      }
    },
    "_links": {
      "self": {
        "href": "https://api.github.com/repos/bitcoin/bitcoin/pulls/26734"
      }
    },
    "author_association": "CONTRIBUTOR",
    "draft": false,
    "additions": 18,
    "deletions": 22,
    "changed_files": 1,
    "commits": 1,
    "review_comments": 2,
    "comments": 3
  },
  "events": [
    {
      "event": "committed",
      "id": null,
      "node_id": "C_kwDOABII59oAKDk3MTE1ZGUxODM5YzY5ZDYzY2FlNmVhNzcyYzE3OTA1NzM5YmYwYWU",
      "url": "https://api.github.com/repos/bitcoin/bitcoin/git/commits/97115de1839c69d63cae6ea772c17905739bf0ae",
      "actor": null,
      "commit_id": null,
      "commit_url": null,
      "created_at": null,
      "html_url": "https://github.com/bitcoin/bitcoin/commit/97115de1839c69d63cae6ea772c17905739bf0ae",
      "tree": {
        "sha": "6bd4ba609a3ae2ddaf8bd1615e2d36f2e8037e6d",
        "url": "https://api.github.com/repos/bitcoin/bitcoin/git/trees/6bd4ba609a3ae2ddaf8bd1615e2d36f2e8037e6d"
      },
      "verification": {
        "verified": true,
        "reason": "valid",
        "payload": "tree 6bd4ba609a3ae2ddaf8bd1615e2d36f2e8037e6d\nparent cbcad79eefd741fcfa0fb45615b6030575310f62\nauthor Douglas Chimento <dchimento@gmail.com> 1671576376 +0200\ncommitter Douglas Chimento <dchimento@gmail.com> 1671576376 +0200\n\ndoc: Refactor/Format getrawtransaction RPC docs and add ScriptPubKeyDoc function\n",
        "signature": "-----BEGIN PGP SIGNATURE-----\n\niQGzBAABCAAdFiEEFt7wA8cqIHRePmNa0a1maOubxakFAmOiO4AACgkQ0a1maOub\nxanHJQv9EpW4UB9I5MBxiDu1mfcPTWVQOw3wrvrlyCA381pidHZmXCQMM+UCoHGx\n9ciPkdUFsnHvjzDqozoRgbGVHyJSOVWXeFRu626tRphPZm4oEUm9vjc0GOgmXbFL\n9HDvxIhoDmGUBM25G6j2SxxZcYcKzUWdrFaV9n/PDO4coC/KsFnzs8EdL8RCl8hB\nIK1DpxWCJJhMpeYB7YWsA27++Vt9MbIi+mfqma5Jk3NCnlV3H9f94hXMV0muI6Lx\nVh5SbqxNnZhSVNnohQq+LOOLF0p1q32RljLvLQ9nRErw8xFxszyD4cNQRcfKQFAT\nM2jkMUEdkug8V588a8VMdS7DO8LRGQn1sXRl4GAL8mCvZ7r8rQrYrJHlpv0S3yMh\nHGeO/RkRbhLEBEPAmPuZlJ24SKK4f0ShYP+cNeBbtOaY5YmiuMZv97oWzbzM2O7p\neXdaWK5CShG5vDp3rU4v4M3e7YW+wau56wMd3sqjLQSir8lDmpoqdh8Aj1+QZHJO\nylpvfCZP\n=TpQf\n-----END PGP SIGNATURE-----"
      },
      "parents": [
        {
          "url": "https://api.github.com/repos/bitcoin/bitcoin/git/commits/cbcad79eefd741fcfa0fb45615b6030575310f62",
          "sha": "cbcad79eefd741fcfa0fb45615b6030575310f62",
          "html_url": "https://github.com/bitcoin/bitcoin/commit/cbcad79eefd741fcfa0fb45615b6030575310f62"
        }
      ],
      "message": "doc: Refactor/Format getrawtransaction RPC docs and add ScriptPubKeyDoc function",
      "committer": {
        "name": "Douglas Chimento",
        "email": "dchimento@gmail.com",
        "date": "2022-12-20T22:46:16Z"
      },
      "author": {
        "name": "Douglas Chimento",
        "email": "dchimento@gmail.com",
        "date": "2022-12-20T22:46:16Z"
      },
      "sha": "97115de1839c69d63cae6ea772c17905739bf0ae"
    },
    {
      "event": "commented",
      "id": 1360413574,
      "node_id": "IC_kwDOABII585RFkOG",
      "url": "https://api.github.com/repos/bitcoin/bitcoin/issues/comments/1360413574",
      "actor": {
        "login": "DrahtBot",
        "id": 39886733,
        "node_id": "MDQ6VXNlcjM5ODg2NzMz",
        "avatar_url": "https://avatars.githubusercontent.com/u/39886733?v=4",
        "gravatar_id": "",
        "url": "https://api.github.com/users/DrahtBot",
        "html_url": "https://github.com/DrahtBot",
        "followers_url": "https://api.github.com/users/DrahtBot/followers",
        "following_url": "https://api.github.com/users/DrahtBot/following%7B/other_user%7D",
        "gists_url": "https://api.github.com/users/DrahtBot/gists%7B/gist_id%7D",
        "starred_url": "https://api.github.com/users/DrahtBot/starred%7B/owner%7D%7B/repo%7D",
        "subscriptions_url": "https://api.github.com/users/DrahtBot/subscriptions",
        "organizations_url": "https://api.github.com/users/DrahtBot/orgs",
        "repos_url": "https://api.github.com/users/DrahtBot/repos",
        "events_url": "https://api.github.com/users/DrahtBot/events%7B/privacy%7D",
        "received_events_url": "https://api.github.com/users/DrahtBot/received_events",
        "type": "User",
        "site_admin": false
      },
      "commit_id": null,
      "commit_url": null,
      "created_at": "2022-12-20T22:49:49Z",
      "updated_at": "2022-12-21T07:57:30Z",
      "author_association": "CONTRIBUTOR",
      "body": "<!--e57a25ab6845829454e8d69fc972939a-->\n\nThe following sections might be updated with supplementary metadata relevant to reviewers and maintainers.\n\n<!--021abf342d371248e50ceaed478a90ca-->\n### Reviews\nSee [the guideline](https://github.com/bitcoin/bitcoin/blob/master/CONTRIBUTING.md#code-review) for information on the review process.\n| Type | Reviewers |\n| ---- | --------- |\n| ACK | [MarcoFalke](https://github.com/bitcoin/bitcoin/pull/26734#issuecomment-1360967340), [kristapsk](https://github.com/bitcoin/bitcoin/pull/26734#pullrequestreview-1225598050) |\n\nIf your review is incorrectly listed, please react with 👎 to this comment and the bot will ignore it on the next update.\n",
      "user": {
        "login": "DrahtBot",
        "id": 39886733,
        "node_id": "MDQ6VXNlcjM5ODg2NzMz",
        "avatar_url": "https://avatars.githubusercontent.com/u/39886733?v=4",
        "gravatar_id": "",
        "url": "https://api.github.com/users/DrahtBot",
        "html_url": "https://github.com/DrahtBot",
        "followers_url": "https://api.github.com/users/DrahtBot/followers",
        "following_url": "https://api.github.com/users/DrahtBot/following%7B/other_user%7D",
        "gists_url": "https://api.github.com/users/DrahtBot/gists%7B/gist_id%7D",
        "starred_url": "https://api.github.com/users/DrahtBot/starred%7B/owner%7D%7B/repo%7D",
        "subscriptions_url": "https://api.github.com/users/DrahtBot/subscriptions",
        "organizations_url": "https://api.github.com/users/DrahtBot/orgs",
        "repos_url": "https://api.github.com/users/DrahtBot/repos",
        "events_url": "https://api.github.com/users/DrahtBot/events%7B/privacy%7D",
        "received_events_url": "https://api.github.com/users/DrahtBot/received_events",
        "type": "User",
        "site_admin": false
      },
      "html_url": "https://github.com/bitcoin/bitcoin/pull/26734#issuecomment-1360413574",
      "issue_url": "https://api.github.com/repos/bitcoin/bitcoin/issues/26734"
    },
    {
      "event": "labeled",
      "id": 8082381591,
      "node_id": "LE_lADOABII585ZurxuzwAAAAHhv1sX",
      "url": "https://api.github.com/repos/bitcoin/bitcoin/issues/events/8082381591",
      "actor": {
        "login": "DrahtBot",
        "id": 39886733,
        "node_id": "MDQ6VXNlcjM5ODg2NzMz",
        "avatar_url": "https://avatars.githubusercontent.com/u/39886733?v=4",
        "gravatar_id": "",
        "url": "https://api.github.com/users/DrahtBot",
        "html_url": "https://github.com/DrahtBot",
        "followers_url": "https://api.github.com/users/DrahtBot/followers",
        "following_url": "https://api.github.com/users/DrahtBot/following%7B/other_user%7D",
        "gists_url": "https://api.github.com/users/DrahtBot/gists%7B/gist_id%7D",
        "starred_url": "https://api.github.com/users/DrahtBot/starred%7B/owner%7D%7B/repo%7D",
        "subscriptions_url": "https://api.github.com/users/DrahtBot/subscriptions",
        "organizations_url": "https://api.github.com/users/DrahtBot/orgs",
        "repos_url": "https://api.github.com/users/DrahtBot/repos",
        "events_url": "https://api.github.com/users/DrahtBot/events%7B/privacy%7D",
        "received_events_url": "https://api.github.com/users/DrahtBot/received_events",
        "type": "User",
        "site_admin": false
      },
      "commit_id": null,
      "commit_url": null,
      "created_at": "2022-12-20T22:49:51Z",
      "label": {
        "name": "Docs",
        "color": "02d7e1"
      }
    },
    {
      "event": "cross-referenced",
      "id": null,
      "node_id": null,
      "url": null,
      "actor": {
        "login": "dougEfresh",
        "id": 976425,
        "node_id": "MDQ6VXNlcjk3NjQyNQ==",
        "avatar_url": "https://avatars.githubusercontent.com/u/976425?v=4",
        "gravatar_id": "",
        "url": "https://api.github.com/users/dougEfresh",
        "html_url": "https://github.com/dougEfresh",
        "followers_url": "https://api.github.com/users/dougEfresh/followers",
        "following_url": "https://api.github.com/users/dougEfresh/following%7B/other_user%7D",
        "gists_url": "https://api.github.com/users/dougEfresh/gists%7B/gist_id%7D",
        "starred_url": "https://api.github.com/users/dougEfresh/starred%7B/owner%7D%7B/repo%7D",
        "subscriptions_url": "https://api.github.com/users/dougEfresh/subscriptions",
        "organizations_url": "https://api.github.com/users/dougEfresh/orgs",
        "repos_url": "https://api.github.com/users/dougEfresh/repos",
        "events_url": "https://api.github.com/users/dougEfresh/events%7B/privacy%7D",
        "received_events_url": "https://api.github.com/users/dougEfresh/received_events",
        "type": "User",
        "site_admin": false
      },
      "commit_id": null,
      "commit_url": null,
      "created_at": "2022-12-20T22:50:31Z",
      "updated_at": "2022-12-20T22:50:31Z",
      "source": {
        "issue": {
          "id": 1031002642,
          "node_id": "PR_kwDOABII584ta0d0",
          "url": "https://api.github.com/repos/bitcoin/bitcoin/issues/23319",
          "repository_url": "https://api.github.com/repos/bitcoin/bitcoin",
          "labels_url": "https://api.github.com/repos/bitcoin/bitcoin/issues/23319/labels%7B/name%7D",
          "comments_url": "https://api.github.com/repos/bitcoin/bitcoin/issues/23319/comments",
          "events_url": "https://api.github.com/repos/bitcoin/bitcoin/issues/23319/events",
          "html_url": "https://github.com/bitcoin/bitcoin/pull/23319",
          "number": 23319,
          "state": "closed",
          "state_reason": null,
          "title": "rpc: Return fee and prevout (utxos) to getrawtransaction",
          "body": "Add fee response in BTC to getrawtransaction #23264 \r\n\r\n### For Reviewers\r\n\r\n* Verbose arg is now an int\r\n* Verbose = 2 includes a `fee` field and `prevout`\r\n* [./test/functional/rpc_rawtransaction.py](./test/functional/rpc_rawtransaction.py) contains a new test to validate fields of new verbosity 2 (not the values)\r\n\r\n```\r\nbitcoin-cli -chain=test getrawtransaction 9ae533f7da9be4a34997db78343a8d8d6d6186b6bba3959e56f416a5c70e7de4 2 000000000000001d442e556146d5f2841d85150c200e8d8b8a4b5005b13878f6\r\n```\r\n```\r\n  \"in_active_chain\": true,\r\n  \"txid\": \"9ae533f7da9be4a34997db78343a8d8d6d6186b6bba3959e56f416a5c70e7de4\",\r\n  \"hash\": \"7f23e3f3a0a256ddea1d35ffd43e9afdd67cc68389ef1a804bb20c76abd6863e\",\r\n ....\r\n  \"vin\": [\r\n    {\r\n      \"txid\": \"23fc75d6d74f6f97e225839af69ff36a612fe04db58a4414ec4828d1749a05a0\",\r\n      \"vout\": 0,\r\n      \"scriptSig\": {\r\n        \"asm\": \"\",\r\n        \"hex\": \"\"\r\n      },\r\n      \"prevout\": {\r\n        \"generated\": false,\r\n        \"height\": 2099486,\r\n        \"value\": 0.00017764,\r\n        \"scriptPubKey\": {\r\n          \"asm\": \"0 7846ce1ced3253d8bd43008db2ca364cc722f5a2\",\r\n          \"hex\": \"00147846ce1ced3253d8bd43008db2ca364cc722f5a2\",\r\n          \"address\": \"tb1q0prvu88dxffa302rqzxm9j3kfnrj9adzk49mlp\",\r\n          \"type\": \"witness_v0_keyhash\"\r\n        }\r\n      },\r\n      \"sequence\": 4294967295\r\n    },\r\n...\r\n \"fee\": 0.00000762\r\n}\r\n```",
          "user": {
            "login": "dougEfresh",
            "id": 976425,
            "node_id": "MDQ6VXNlcjk3NjQyNQ==",
            "avatar_url": "https://avatars.githubusercontent.com/u/976425?v=4",
            "gravatar_id": "",
            "url": "https://api.github.com/users/dougEfresh",
            "html_url": "https://github.com/dougEfresh",
            "followers_url": "https://api.github.com/users/dougEfresh/followers",
            "following_url": "https://api.github.com/users/dougEfresh/following%7B/other_user%7D",
            "gists_url": "https://api.github.com/users/dougEfresh/gists%7B/gist_id%7D",
            "starred_url": "https://api.github.com/users/dougEfresh/starred%7B/owner%7D%7B/repo%7D",
            "subscriptions_url": "https://api.github.com/users/dougEfresh/subscriptions",
            "organizations_url": "https://api.github.com/users/dougEfresh/orgs",
            "repos_url": "https://api.github.com/users/dougEfresh/repos",
            "events_url": "https://api.github.com/users/dougEfresh/events%7B/privacy%7D",
            "received_events_url": "https://api.github.com/users/dougEfresh/received_events",
            "type": "User",
            "site_admin": false
          },
          "labels": [
            {
              "id": 98279177,
              "node_id": "MDU6TGFiZWw5ODI3OTE3Nw==",
              "url": "https://api.github.com/repos/bitcoin/bitcoin/labels/RPC/REST/ZMQ",
              "name": "RPC/REST/ZMQ",
              "color": "0052cc",
              "default": false
            }
          ],
          "assignees": [],
          "author_association": "CONTRIBUTOR",
          "locked": false,
          "comments": 20,
          "pull_request": {
            "url": "https://api.github.com/repos/bitcoin/bitcoin/pulls/23319",
            "html_url": "https://github.com/bitcoin/bitcoin/pull/23319",
            "diff_url": "https://github.com/bitcoin/bitcoin/pull/23319.diff",
            "patch_url": "https://github.com/bitcoin/bitcoin/pull/23319.patch"
          },
          "closed_at": "2022-12-13T23:09:44Z",
          "created_at": "2021-10-20T05:50:50Z",
          "updated_at": "2022-12-20T23:57:28Z"
        },
        "type": "issue"
      }
    },
    {
      "event": "renamed",
      "id": 8084564549,
      "node_id": "RTE_lADOABII585ZurxuzwAAAAHh4KpF",
      "url": "https://api.github.com/repos/bitcoin/bitcoin/issues/events/8084564549",
      "actor": {
        "login": "MarcoFalke",
        "id": 6399679,
        "node_id": "MDQ6VXNlcjYzOTk2Nzk=",
        "avatar_url": "https://avatars.githubusercontent.com/u/6399679?v=4",
        "gravatar_id": "",
        "url": "https://api.github.com/users/MarcoFalke",
        "html_url": "https://github.com/MarcoFalke",
        "followers_url": "https://api.github.com/users/MarcoFalke/followers",
        "following_url": "https://api.github.com/users/MarcoFalke/following%7B/other_user%7D",
        "gists_url": "https://api.github.com/users/MarcoFalke/gists%7B/gist_id%7D",
        "starred_url": "https://api.github.com/users/MarcoFalke/starred%7B/owner%7D%7B/repo%7D",
        "subscriptions_url": "https://api.github.com/users/MarcoFalke/subscriptions",
        "organizations_url": "https://api.github.com/users/MarcoFalke/orgs",
        "repos_url": "https://api.github.com/users/MarcoFalke/repos",
        "events_url": "https://api.github.com/users/MarcoFalke/events%7B/privacy%7D",
        "received_events_url": "https://api.github.com/users/MarcoFalke/received_events",
        "type": "User",
        "site_admin": false
      },
      "commit_id": null,
      "commit_url": null,
      "created_at": "2022-12-21T07:50:13Z",
      "rename": {
        "from": "doc: Refactor/Format getrawtransaction RPC docs",
        "to": "doc: Fixup getrawtransaction RPC docs"
      }
    },
    {
      "event": "commented",
      "id": 1360967340,
      "node_id": "IC_kwDOABII585RHras",
      "url": "https://api.github.com/repos/bitcoin/bitcoin/issues/comments/1360967340",
      "actor": {
        "login": "MarcoFalke",
        "id": 6399679,
        "node_id": "MDQ6VXNlcjYzOTk2Nzk=",
        "avatar_url": "https://avatars.githubusercontent.com/u/6399679?v=4",
        "gravatar_id": "",
        "url": "https://api.github.com/users/MarcoFalke",
        "html_url": "https://github.com/MarcoFalke",
        "followers_url": "https://api.github.com/users/MarcoFalke/followers",
        "following_url": "https://api.github.com/users/MarcoFalke/following%7B/other_user%7D",
        "gists_url": "https://api.github.com/users/MarcoFalke/gists%7B/gist_id%7D",
        "starred_url": "https://api.github.com/users/MarcoFalke/starred%7B/owner%7D%7B/repo%7D",
        "subscriptions_url": "https://api.github.com/users/MarcoFalke/subscriptions",
        "organizations_url": "https://api.github.com/users/MarcoFalke/orgs",
        "repos_url": "https://api.github.com/users/MarcoFalke/repos",
        "events_url": "https://api.github.com/users/MarcoFalke/events%7B/privacy%7D",
        "received_events_url": "https://api.github.com/users/MarcoFalke/received_events",
        "type": "User",
        "site_admin": false
      },
      "commit_id": null,
      "commit_url": null,
      "created_at": "2022-12-21T07:51:14Z",
      "updated_at": "2022-12-21T07:51:14Z",
      "author_association": "MEMBER",
      "body": "Thanks,\r\n\r\nACK 97115de1839c69d63cae6ea772c17905739bf0ae",
      "user": {
        "login": "MarcoFalke",
        "id": 6399679,
        "node_id": "MDQ6VXNlcjYzOTk2Nzk=",
        "avatar_url": "https://avatars.githubusercontent.com/u/6399679?v=4",
        "gravatar_id": "",
        "url": "https://api.github.com/users/MarcoFalke",
        "html_url": "https://github.com/MarcoFalke",
        "followers_url": "https://api.github.com/users/MarcoFalke/followers",
        "following_url": "https://api.github.com/users/MarcoFalke/following%7B/other_user%7D",
        "gists_url": "https://api.github.com/users/MarcoFalke/gists%7B/gist_id%7D",
        "starred_url": "https://api.github.com/users/MarcoFalke/starred%7B/owner%7D%7B/repo%7D",
        "subscriptions_url": "https://api.github.com/users/MarcoFalke/subscriptions",
        "organizations_url": "https://api.github.com/users/MarcoFalke/orgs",
        "repos_url": "https://api.github.com/users/MarcoFalke/repos",
        "events_url": "https://api.github.com/users/MarcoFalke/events%7B/privacy%7D",
        "received_events_url": "https://api.github.com/users/MarcoFalke/received_events",
        "type": "User",
        "site_admin": false
      },
      "html_url": "https://github.com/bitcoin/bitcoin/pull/26734#issuecomment-1360967340",
      "issue_url": "https://api.github.com/repos/bitcoin/bitcoin/issues/26734"
    },
    {
      "event": "reviewed",
      "id": 1225598050,
      "node_id": "PRR_kwDOABII585JDSRi",
      "url": null,
      "actor": null,
      "commit_id": "97115de1839c69d63cae6ea772c17905739bf0ae",
      "commit_url": null,
      "created_at": null,
      "author_association": "CONTRIBUTOR",
      "body": "cr utACK 97115de1839c69d63cae6ea772c17905739bf0ae",
      "user": {
        "login": "kristapsk",
        "id": 4500994,
        "node_id": "MDQ6VXNlcjQ1MDA5OTQ=",
        "avatar_url": "https://avatars.githubusercontent.com/u/4500994?v=4",
        "gravatar_id": "",
        "url": "https://api.github.com/users/kristapsk",
        "html_url": "https://github.com/kristapsk",
        "followers_url": "https://api.github.com/users/kristapsk/followers",
        "following_url": "https://api.github.com/users/kristapsk/following%7B/other_user%7D",
        "gists_url": "https://api.github.com/users/kristapsk/gists%7B/gist_id%7D",
        "starred_url": "https://api.github.com/users/kristapsk/starred%7B/owner%7D%7B/repo%7D",
        "subscriptions_url": "https://api.github.com/users/kristapsk/subscriptions",
        "organizations_url": "https://api.github.com/users/kristapsk/orgs",
        "repos_url": "https://api.github.com/users/kristapsk/repos",
        "events_url": "https://api.github.com/users/kristapsk/events%7B/privacy%7D",
        "received_events_url": "https://api.github.com/users/kristapsk/received_events",
        "type": "User",
        "site_admin": false
      },
      "html_url": "https://github.com/bitcoin/bitcoin/pull/26734#pullrequestreview-1225598050",
      "submitted_at": "2022-12-21T07:57:27Z",
      "state": "APPROVED",
      "pull_request_url": "https://api.github.com/repos/bitcoin/bitcoin/pulls/26734"
    },
    {
      "event": "merged",
      "id": 8085069930,
      "node_id": "ME_lADOABII585ZurxuzwAAAAHh6GBq",
      "url": "https://api.github.com/repos/bitcoin/bitcoin/issues/events/8085069930",
      "actor": {
        "login": "fanquake",
        "id": 863730,
        "node_id": "MDQ6VXNlcjg2MzczMA==",
        "avatar_url": "https://avatars.githubusercontent.com/u/863730?v=4",
        "gravatar_id": "",
        "url": "https://api.github.com/users/fanquake",
        "html_url": "https://github.com/fanquake",
        "followers_url": "https://api.github.com/users/fanquake/followers",
        "following_url": "https://api.github.com/users/fanquake/following%7B/other_user%7D",
        "gists_url": "https://api.github.com/users/fanquake/gists%7B/gist_id%7D",
        "starred_url": "https://api.github.com/users/fanquake/starred%7B/owner%7D%7B/repo%7D",
        "subscriptions_url": "https://api.github.com/users/fanquake/subscriptions",
        "organizations_url": "https://api.github.com/users/fanquake/orgs",
        "repos_url": "https://api.github.com/users/fanquake/repos",
        "events_url": "https://api.github.com/users/fanquake/events%7B/privacy%7D",
        "received_events_url": "https://api.github.com/users/fanquake/received_events",
        "type": "User",
        "site_admin": false
      },
      "commit_id": "dd7d82bec03c890b06e189950115bbb0c607f30f",
      "commit_url": "https://api.github.com/repos/bitcoin/bitcoin/commits/dd7d82bec03c890b06e189950115bbb0c607f30f",
      "created_at": "2022-12-21T08:57:24Z"
    },
    {
      "event": "closed",
      "id": 8085069945,
      "node_id": "CE_lADOABII585ZurxuzwAAAAHh6GB5",
      "url": "https://api.github.com/repos/bitcoin/bitcoin/issues/events/8085069945",
      "actor": {
        "login": "fanquake",
        "id": 863730,
        "node_id": "MDQ6VXNlcjg2MzczMA==",
        "avatar_url": "https://avatars.githubusercontent.com/u/863730?v=4",
        "gravatar_id": "",
        "url": "https://api.github.com/users/fanquake",
        "html_url": "https://github.com/fanquake",
        "followers_url": "https://api.github.com/users/fanquake/followers",
        "following_url": "https://api.github.com/users/fanquake/following%7B/other_user%7D",
        "gists_url": "https://api.github.com/users/fanquake/gists%7B/gist_id%7D",
        "starred_url": "https://api.github.com/users/fanquake/starred%7B/owner%7D%7B/repo%7D",
        "subscriptions_url": "https://api.github.com/users/fanquake/subscriptions",
        "organizations_url": "https://api.github.com/users/fanquake/orgs",
        "repos_url": "https://api.github.com/users/fanquake/repos",
        "events_url": "https://api.github.com/users/fanquake/events%7B/privacy%7D",
        "received_events_url": "https://api.github.com/users/fanquake/received_events",
        "type": "User",
        "site_admin": false
      },
      "commit_id": null,
      "commit_url": null,
      "created_at": "2022-12-21T08:57:24Z"
    },
    {
      "event": "commented",
      "id": 1361089828,
      "node_id": "IC_kwDOABII585RIJUk",
      "url": "https://api.github.com/repos/bitcoin/bitcoin/issues/comments/1361089828",
      "actor": {
        "login": "MarcoFalke",
        "id": 6399679,
        "node_id": "MDQ6VXNlcjYzOTk2Nzk=",
        "avatar_url": "https://avatars.githubusercontent.com/u/6399679?v=4",
        "gravatar_id": "",
        "url": "https://api.github.com/users/MarcoFalke",
        "html_url": "https://github.com/MarcoFalke",
        "followers_url": "https://api.github.com/users/MarcoFalke/followers",
        "following_url": "https://api.github.com/users/MarcoFalke/following%7B/other_user%7D",
        "gists_url": "https://api.github.com/users/MarcoFalke/gists%7B/gist_id%7D",
        "starred_url": "https://api.github.com/users/MarcoFalke/starred%7B/owner%7D%7B/repo%7D",
        "subscriptions_url": "https://api.github.com/users/MarcoFalke/subscriptions",
        "organizations_url": "https://api.github.com/users/MarcoFalke/orgs",
        "repos_url": "https://api.github.com/users/MarcoFalke/repos",
        "events_url": "https://api.github.com/users/MarcoFalke/events%7B/privacy%7D",
        "received_events_url": "https://api.github.com/users/MarcoFalke/received_events",
        "type": "User",
        "site_admin": false
      },
      "commit_id": null,
      "commit_url": null,
      "created_at": "2022-12-21T09:48:29Z",
      "updated_at": "2022-12-21T09:48:29Z",
      "author_association": "MEMBER",
      "body": "Rendered diff:\r\n\r\n\r\n```diff\r\ndiff --git a/decoderawtransaction b/decoderawtransaction\r\nindex 05a49fe..7600def 100644\r\n--- a/decoderawtransaction\r\n+++ b/decoderawtransaction\r\n@@ -45,8 +45,8 @@ Result:\r\n         \"asm\" : \"str\",        (string) Disassembly of the public key script\r\n         \"desc\" : \"str\",       (string) Inferred descriptor for the output\r\n         \"hex\" : \"hex\",        (string) The raw public key script bytes, hex-encoded\r\n-        \"type\" : \"str\",       (string) The type, eg 'pubkeyhash'\r\n-        \"address\" : \"str\"     (string, optional) The Bitcoin address (only if a well-defined address exists)\r\n+        \"address\" : \"str\",    (string, optional) The Bitcoin address (only if a well-defined address exists)\r\n+        \"type\" : \"str\"        (string) The type (one of: nonstandard, pubkey, pubkeyhash, scripthash, multisig, nulldata, witness_v0_scripthash, witness_v0_keyhash, witness_v1_taproot, witness_unknown)\r\n       }\r\n     },\r\n     ...\r\ndiff --git a/getrawtransaction b/getrawtransaction\r\nindex 462f051..6750205 100644\r\n--- a/getrawtransaction\r\n+++ b/getrawtransaction\r\n@@ -8,8 +8,8 @@ the specified block is available and the transaction is in that block.\r\n Hint: Use gettransaction for wallet transactions.\r\n \r\n If verbosity is 0 or omitted, returns the serialized transaction as a hex-encoded string.\r\n-If verbosity is 1, returns a JSON Object with information about transaction.\r\n-If verbosity is 2, returns a JSON Object with information about transaction, including fee and prevout information.\r\n+If verbosity is 1, returns a JSON Object with information about the transaction.\r\n+If verbosity is 2, returns a JSON Object with information about the transaction, including fee and prevout information.\r\n \r\n Arguments:\r\n 1. txid         (string, required) The transaction id\r\n@@ -59,8 +59,8 @@ Result (if verbosity is set to 1):\r\n         \"asm\" : \"str\",               (string) Disassembly of the public key script\r\n         \"desc\" : \"str\",              (string) Inferred descriptor for the output\r\n         \"hex\" : \"hex\",               (string) The raw public key script bytes, hex-encoded\r\n-        \"type\" : \"str\",              (string) The type, eg 'pubkeyhash'\r\n-        \"address\" : \"str\"            (string, optional) The Bitcoin address (only if a well-defined address exists)\r\n+        \"address\" : \"str\",           (string, optional) The Bitcoin address (only if a well-defined address exists)\r\n+        \"type\" : \"str\"               (string) The type (one of: nonstandard, pubkey, pubkeyhash, scripthash, multisig, nulldata, witness_v0_scripthash, witness_v0_keyhash, witness_v1_taproot, witness_unknown)\r\n       }\r\n     },\r\n     ...\r\n@@ -72,9 +72,9 @@ Result (for verbosity = 2):\r\n   ...,                               Same output as verbosity = 1\r\n   \"fee\" : n,                         (numeric, optional) transaction fee in BTC, omitted if block undo data is not available\r\n   \"vin\" : [                          (json array)\r\n-    {                                (json object, optional) utxo being spent, omitted if block undo data is not available\r\n+    {                                (json object) utxo being spent, omitted if block undo data is not available\r\n       ...,                           Same output as verbosity = 1\r\n-      \"prevout\" : {                  (json object) Only if undo information is available)\r\n+      \"prevout\" : {                  (json object, optional) Only if undo information is available)\r\n         \"generated\" : true|false,    (boolean) Coinbase or not\r\n         \"height\" : n,                (numeric) The height of the prevout\r\n         \"value\" : n,                 (numeric) The value in BTC\r\n",
      "user": {
        "login": "MarcoFalke",
        "id": 6399679,
        "node_id": "MDQ6VXNlcjYzOTk2Nzk=",
        "avatar_url": "https://avatars.githubusercontent.com/u/6399679?v=4",
        "gravatar_id": "",
        "url": "https://api.github.com/users/MarcoFalke",
        "html_url": "https://github.com/MarcoFalke",
        "followers_url": "https://api.github.com/users/MarcoFalke/followers",
        "following_url": "https://api.github.com/users/MarcoFalke/following%7B/other_user%7D",
        "gists_url": "https://api.github.com/users/MarcoFalke/gists%7B/gist_id%7D",
        "starred_url": "https://api.github.com/users/MarcoFalke/starred%7B/owner%7D%7B/repo%7D",
        "subscriptions_url": "https://api.github.com/users/MarcoFalke/subscriptions",
        "organizations_url": "https://api.github.com/users/MarcoFalke/orgs",
        "repos_url": "https://api.github.com/users/MarcoFalke/repos",
        "events_url": "https://api.github.com/users/MarcoFalke/events%7B/privacy%7D",
        "received_events_url": "https://api.github.com/users/MarcoFalke/received_events",
        "type": "User",
        "site_admin": false
      },
      "html_url": "https://github.com/bitcoin/bitcoin/pull/26734#issuecomment-1361089828",
      "issue_url": "https://api.github.com/repos/bitcoin/bitcoin/issues/26734"
    },
    {
      "event": "referenced",
      "id": 8089691779,
      "node_id": "REFE_lADOABII585ZurxuzwAAAAHiLuaD",
      "url": "https://api.github.com/repos/bitcoin/bitcoin/issues/events/8089691779",
      "actor": {
        "login": "sidhujag",
        "id": 6238042,
        "node_id": "MDQ6VXNlcjYyMzgwNDI=",
        "avatar_url": "https://avatars.githubusercontent.com/u/6238042?v=4",
        "gravatar_id": "",
        "url": "https://api.github.com/users/sidhujag",
        "html_url": "https://github.com/sidhujag",
        "followers_url": "https://api.github.com/users/sidhujag/followers",
        "following_url": "https://api.github.com/users/sidhujag/following%7B/other_user%7D",
        "gists_url": "https://api.github.com/users/sidhujag/gists%7B/gist_id%7D",
        "starred_url": "https://api.github.com/users/sidhujag/starred%7B/owner%7D%7B/repo%7D",
        "subscriptions_url": "https://api.github.com/users/sidhujag/subscriptions",
        "organizations_url": "https://api.github.com/users/sidhujag/orgs",
        "repos_url": "https://api.github.com/users/sidhujag/repos",
        "events_url": "https://api.github.com/users/sidhujag/events%7B/privacy%7D",
        "received_events_url": "https://api.github.com/users/sidhujag/received_events",
        "type": "User",
        "site_admin": false
      },
      "commit_id": "9da8148313a85b80e6ade73a7dec68c00022d7cc",
      "commit_url": "https://api.github.com/repos/syscoin/syscoin/commits/9da8148313a85b80e6ade73a7dec68c00022d7cc",
      "created_at": "2022-12-21T18:31:31Z"
    },
    {
      "event": "reviewed",
      "id": 1229221415,
      "node_id": "PRR_kwDOABII585JRG4n",
      "url": null,
      "actor": null,
      "commit_id": "97115de1839c69d63cae6ea772c17905739bf0ae",
      "commit_url": null,
      "created_at": null,
      "author_association": "MEMBER",
      "user": {
        "login": "MarcoFalke",
        "id": 6399679,
        "node_id": "MDQ6VXNlcjYzOTk2Nzk=",
        "avatar_url": "https://avatars.githubusercontent.com/u/6399679?v=4",
        "gravatar_id": "",
        "url": "https://api.github.com/users/MarcoFalke",
        "html_url": "https://github.com/MarcoFalke",
        "followers_url": "https://api.github.com/users/MarcoFalke/followers",
        "following_url": "https://api.github.com/users/MarcoFalke/following%7B/other_user%7D",
        "gists_url": "https://api.github.com/users/MarcoFalke/gists%7B/gist_id%7D",
        "starred_url": "https://api.github.com/users/MarcoFalke/starred%7B/owner%7D%7B/repo%7D",
        "subscriptions_url": "https://api.github.com/users/MarcoFalke/subscriptions",
        "organizations_url": "https://api.github.com/users/MarcoFalke/orgs",
        "repos_url": "https://api.github.com/users/MarcoFalke/repos",
        "events_url": "https://api.github.com/users/MarcoFalke/events%7B/privacy%7D",
        "received_events_url": "https://api.github.com/users/MarcoFalke/received_events",
        "type": "User",
        "site_admin": false
      },
      "html_url": "https://github.com/bitcoin/bitcoin/pull/26734#pullrequestreview-1229221415",
      "submitted_at": "2022-12-23T17:28:05Z",
      "state": "COMMENTED",
      "pull_request_url": "https://api.github.com/repos/bitcoin/bitcoin/pulls/26734"
    },
    {
      "event": "cross-referenced",
      "id": null,
      "node_id": null,
      "url": null,
      "actor": {
        "login": "stickies-v",
        "id": 69010457,
        "node_id": "MDQ6VXNlcjY5MDEwNDU3",
        "avatar_url": "https://avatars.githubusercontent.com/u/69010457?v=4",
        "gravatar_id": "",
        "url": "https://api.github.com/users/stickies-v",
        "html_url": "https://github.com/stickies-v",
        "followers_url": "https://api.github.com/users/stickies-v/followers",
        "following_url": "https://api.github.com/users/stickies-v/following%7B/other_user%7D",
        "gists_url": "https://api.github.com/users/stickies-v/gists%7B/gist_id%7D",
        "starred_url": "https://api.github.com/users/stickies-v/starred%7B/owner%7D%7B/repo%7D",
        "subscriptions_url": "https://api.github.com/users/stickies-v/subscriptions",
        "organizations_url": "https://api.github.com/users/stickies-v/orgs",
        "repos_url": "https://api.github.com/users/stickies-v/repos",
        "events_url": "https://api.github.com/users/stickies-v/events%7B/privacy%7D",
        "received_events_url": "https://api.github.com/users/stickies-v/received_events",
        "type": "User",
        "site_admin": false
      },
      "commit_id": null,
      "commit_url": null,
      "created_at": "2023-03-04T21:18:27Z",
      "updated_at": "2023-03-04T21:18:27Z",
      "source": {
        "issue": {
          "id": 1557147699,
          "node_id": "PR_kwDOABII585IihfO",
          "url": "https://api.github.com/repos/bitcoin/bitcoin/issues/26968",
          "repository_url": "https://api.github.com/repos/bitcoin/bitcoin",
          "labels_url": "https://api.github.com/repos/bitcoin/bitcoin/issues/26968/labels%7B/name%7D",
          "comments_url": "https://api.github.com/repos/bitcoin/bitcoin/issues/26968/comments",
          "events_url": "https://api.github.com/repos/bitcoin/bitcoin/issues/26968/events",
          "html_url": "https://github.com/bitcoin/bitcoin/pull/26968",
          "number": 26968,
          "state": "closed",
          "state_reason": null,
          "title": "doc:  Fixup remove 'omitted...' doc for rpc getrawtransaction when verbose is 2",
          "body": "Remove optional rpc doc for getrawtransaction when verbose is 2",
          "user": {
            "login": "dougEfresh",
            "id": 976425,
            "node_id": "MDQ6VXNlcjk3NjQyNQ==",
            "avatar_url": "https://avatars.githubusercontent.com/u/976425?v=4",
            "gravatar_id": "",
            "url": "https://api.github.com/users/dougEfresh",
            "html_url": "https://github.com/dougEfresh",
            "followers_url": "https://api.github.com/users/dougEfresh/followers",
            "following_url": "https://api.github.com/users/dougEfresh/following%7B/other_user%7D",
            "gists_url": "https://api.github.com/users/dougEfresh/gists%7B/gist_id%7D",
            "starred_url": "https://api.github.com/users/dougEfresh/starred%7B/owner%7D%7B/repo%7D",
            "subscriptions_url": "https://api.github.com/users/dougEfresh/subscriptions",
            "organizations_url": "https://api.github.com/users/dougEfresh/orgs",
            "repos_url": "https://api.github.com/users/dougEfresh/repos",
            "events_url": "https://api.github.com/users/dougEfresh/events%7B/privacy%7D",
            "received_events_url": "https://api.github.com/users/dougEfresh/received_events",
            "type": "User",
            "site_admin": false
          },
          "labels": [
            {
              "id": 148216,
              "node_id": "MDU6TGFiZWwxNDgyMTY=",
              "url": "https://api.github.com/repos/bitcoin/bitcoin/labels/Docs",
              "name": "Docs",
              "color": "02d7e1",
              "default": false
            }
          ],
          "assignees": [],
          "author_association": "CONTRIBUTOR",
          "locked": false,
          "comments": 12,
          "pull_request": {
            "url": "https://api.github.com/repos/bitcoin/bitcoin/pulls/26968",
            "html_url": "https://github.com/bitcoin/bitcoin/pull/26968",
            "diff_url": "https://github.com/bitcoin/bitcoin/pull/26968.diff",
            "patch_url": "https://github.com/bitcoin/bitcoin/pull/26968.patch"
          },
          "closed_at": "2023-03-08T07:55:30Z",
          "created_at": "2023-01-25T19:14:19Z",
          "updated_at": "2023-03-08T15:31:16Z"
        },
        "type": "issue"
      }
    }
  ],
  "comments": [
    {
      "url": "https://api.github.com/repos/bitcoin/bitcoin/pulls/comments/1056512173",
      "pull_request_review_id": 1229221415,
      "id": 1056512173,
      "node_id": "PRRC_kwDOABII584--Rit",
      "diff_hunk": "@@ -206,25 +209,18 @@ static RPCHelpMan getrawtransaction()\n                         RPCResult::Type::OBJ, \"\", \"\",\n                         {\n                             {RPCResult::Type::ELISION, \"\", \"Same output as verbosity = 1\"},\n-                            {RPCResult::Type::NUM, \"fee\", /* optional */ true, \"transaction fee in \" + CURRENCY_UNIT + \", omitted if block undo data is not available\"},\n+                            {RPCResult::Type::NUM, \"fee\", /*optional=*/true, \"transaction fee in \" + CURRENCY_UNIT + \", omitted if block undo data is not available\"},\n                             {RPCResult::Type::ARR, \"vin\", \"\",\n                             {\n-                                {RPCResult::Type::OBJ, \"\", /* optional */ true, \"utxo being spent, omitted if block undo data is not available\",\n+                                {RPCResult::Type::OBJ, \"\", \"utxo being spent, omitted if block undo data is not available\",",
      "path": "src/rpc/rawtransaction.cpp",
      "position": 62,
      "original_position": 62,
      "commit_id": "97115de1839c69d63cae6ea772c17905739bf0ae",
      "original_commit_id": "97115de1839c69d63cae6ea772c17905739bf0ae",
      "in_reply_to_id": null,
      "user": {
        "login": "MarcoFalke",
        "id": 6399679,
        "node_id": "MDQ6VXNlcjYzOTk2Nzk=",
        "avatar_url": "https://avatars.githubusercontent.com/u/6399679?v=4",
        "gravatar_id": "",
        "url": "https://api.github.com/users/MarcoFalke",
        "html_url": "https://github.com/MarcoFalke",
        "followers_url": "https://api.github.com/users/MarcoFalke/followers",
        "following_url": "https://api.github.com/users/MarcoFalke/following%7B/other_user%7D",
        "gists_url": "https://api.github.com/users/MarcoFalke/gists%7B/gist_id%7D",
        "starred_url": "https://api.github.com/users/MarcoFalke/starred%7B/owner%7D%7B/repo%7D",
        "subscriptions_url": "https://api.github.com/users/MarcoFalke/subscriptions",
        "organizations_url": "https://api.github.com/users/MarcoFalke/orgs",
        "repos_url": "https://api.github.com/users/MarcoFalke/repos",
        "events_url": "https://api.github.com/users/MarcoFalke/events%7B/privacy%7D",
        "received_events_url": "https://api.github.com/users/MarcoFalke/received_events",
        "type": "User",
        "site_admin": false
      },
      "body": "Sorry for missing this earlier, but I think the \", omitted ...\" part will need to be removed as well?",
      "created_at": "2022-12-23T17:28:04Z",
      "updated_at": "2022-12-23T17:28:05Z",
      "html_url": "https://github.com/bitcoin/bitcoin/pull/26734#discussion_r1056512173",
      "author_association": "MEMBER",
      "_links": {
        "self": {
          "href": "https://api.github.com/repos/bitcoin/bitcoin/pulls/comments/1056512173"
        },
        "pull_request": {
          "href": "https://api.github.com/repos/bitcoin/bitcoin/pulls/26734"
        }
      },
      "start_line": null,
      "original_start_line": null,
      "start_side": null,
      "line": 215,
      "original_line": 215,
      "side": "RIGHT"
    },
    {
      "url": "https://api.github.com/repos/bitcoin/bitcoin/pulls/comments/1087072872",
      "pull_request_review_id": 1269959937,
      "id": 1087072872,
      "node_id": "PRRC_kwDOABII585Ay2po",
      "diff_hunk": "@@ -206,25 +209,18 @@ static RPCHelpMan getrawtransaction()\n                         RPCResult::Type::OBJ, \"\", \"\",\n                         {\n                             {RPCResult::Type::ELISION, \"\", \"Same output as verbosity = 1\"},\n-                            {RPCResult::Type::NUM, \"fee\", /* optional */ true, \"transaction fee in \" + CURRENCY_UNIT + \", omitted if block undo data is not available\"},\n+                            {RPCResult::Type::NUM, \"fee\", /*optional=*/true, \"transaction fee in \" + CURRENCY_UNIT + \", omitted if block undo data is not available\"},\n                             {RPCResult::Type::ARR, \"vin\", \"\",\n                             {\n-                                {RPCResult::Type::OBJ, \"\", /* optional */ true, \"utxo being spent, omitted if block undo data is not available\",\n+                                {RPCResult::Type::OBJ, \"\", \"utxo being spent, omitted if block undo data is not available\",",
      "path": "src/rpc/rawtransaction.cpp",
      "position": 62,
      "original_position": 62,
      "commit_id": "97115de1839c69d63cae6ea772c17905739bf0ae",
      "original_commit_id": "97115de1839c69d63cae6ea772c17905739bf0ae",
      "in_reply_to_id": 1056512173,
      "user": {
        "login": "dougEfresh",
        "id": 976425,
        "node_id": "MDQ6VXNlcjk3NjQyNQ==",
        "avatar_url": "https://avatars.githubusercontent.com/u/976425?v=4",
        "gravatar_id": "",
        "url": "https://api.github.com/users/dougEfresh",
        "html_url": "https://github.com/dougEfresh",
        "followers_url": "https://api.github.com/users/dougEfresh/followers",
        "following_url": "https://api.github.com/users/dougEfresh/following%7B/other_user%7D",
        "gists_url": "https://api.github.com/users/dougEfresh/gists%7B/gist_id%7D",
        "starred_url": "https://api.github.com/users/dougEfresh/starred%7B/owner%7D%7B/repo%7D",
        "subscriptions_url": "https://api.github.com/users/dougEfresh/subscriptions",
        "organizations_url": "https://api.github.com/users/dougEfresh/orgs",
        "repos_url": "https://api.github.com/users/dougEfresh/repos",
        "events_url": "https://api.github.com/users/dougEfresh/events%7B/privacy%7D",
        "received_events_url": "https://api.github.com/users/dougEfresh/received_events",
        "type": "User",
        "site_admin": false
      },
      "body": "@MarcoFalke see https://github.com/bitcoin/bitcoin/pull/26968",
      "created_at": "2023-01-25T19:14:37Z",
      "updated_at": "2023-01-25T19:14:38Z",
      "html_url": "https://github.com/bitcoin/bitcoin/pull/26734#discussion_r1087072872",
      "author_association": "CONTRIBUTOR",
      "_links": {
        "self": {
          "href": "https://api.github.com/repos/bitcoin/bitcoin/pulls/comments/1087072872"
        },
        "pull_request": {
          "href": "https://api.github.com/repos/bitcoin/bitcoin/pulls/26734"
        }
      },
      "start_line": null,
      "original_start_line": null,
      "start_side": null,
      "line": 215,
      "original_line": 215,
      "side": "RIGHT"
    }
  ]
}