{
  "type": "pull",
  "pull": {
    "url": "https://api.github.com/repos/bitcoin/bitcoin/pulls/26735",
    "id": 1173362428,
    "node_id": "PR_kwDOABII585F8Bb8",
    "html_url": "https://github.com/bitcoin/bitcoin/pull/26735",
    "diff_url": "https://github.com/bitcoin/bitcoin/pull/26735.diff",
    "patch_url": "https://github.com/bitcoin/bitcoin/pull/26735.patch",
    "issue_url": "https://api.github.com/repos/bitcoin/bitcoin/issues/26735",
    "commits_url": "https://api.github.com/repos/bitcoin/bitcoin/pulls/26735/commits",
    "review_comments_url": "https://api.github.com/repos/bitcoin/bitcoin/pulls/26735/comments",
    "review_comment_url": "https://api.github.com/repos/bitcoin/bitcoin/pulls/comments%7B/number%7D",
    "comments_url": "https://api.github.com/repos/bitcoin/bitcoin/issues/26735/comments",
    "statuses_url": "https://api.github.com/repos/bitcoin/bitcoin/statuses/0662105e884dce3eae9d3eb0b0d49600c1260b90",
    "number": 26735,
    "state": "closed",
    "locked": false,
    "maintainer_can_modify": false,
    "title": "[24.x] qt: Load PSBTs using istreambuf_iterator rather than istream_iterator",
    "user": {
      "login": "MarcoFalke",
      "id": 6399679,
      "node_id": "MDQ6VXNlcjYzOTk2Nzk=",
      "avatar_url": "https://avatars.githubusercontent.com/u/6399679?v=4",
      "gravatar_id": "",
      "url": "https://api.github.com/users/MarcoFalke",
      "html_url": "https://github.com/MarcoFalke",
      "followers_url": "https://api.github.com/users/MarcoFalke/followers",
      "following_url": "https://api.github.com/users/MarcoFalke/following%7B/other_user%7D",
      "gists_url": "https://api.github.com/users/MarcoFalke/gists%7B/gist_id%7D",
      "starred_url": "https://api.github.com/users/MarcoFalke/starred%7B/owner%7D%7B/repo%7D",
      "subscriptions_url": "https://api.github.com/users/MarcoFalke/subscriptions",
      "organizations_url": "https://api.github.com/users/MarcoFalke/orgs",
      "repos_url": "https://api.github.com/users/MarcoFalke/repos",
      "events_url": "https://api.github.com/users/MarcoFalke/events%7B/privacy%7D",
      "received_events_url": "https://api.github.com/users/MarcoFalke/received_events",
      "type": "User",
      "site_admin": false
    },
    "labels": [
      {
        "id": 390024790,
        "node_id": "MDU6TGFiZWwzOTAwMjQ3OTA=",
        "url": "https://api.github.com/repos/bitcoin/bitcoin/labels/Backport",
        "name": "Backport",
        "description": "",
        "color": "dd7200",
        "default": false
      }
    ],
    "milestone": {
      "url": "https://api.github.com/repos/bitcoin/bitcoin/milestones/58",
      "html_url": "https://github.com/bitcoin/bitcoin/milestone/58",
      "labels_url": "https://api.github.com/repos/bitcoin/bitcoin/milestones/58/labels",
      "id": 8664975,
      "node_id": "MI_kwDOABII584AhDeP",
      "number": 58,
      "state": "closed",
      "title": "24.1",
      "creator": {
        "login": "MarcoFalke",
        "id": 6399679,
        "node_id": "MDQ6VXNlcjYzOTk2Nzk=",
        "avatar_url": "https://avatars.githubusercontent.com/u/6399679?v=4",
        "gravatar_id": "",
        "url": "https://api.github.com/users/MarcoFalke",
        "html_url": "https://github.com/MarcoFalke",
        "followers_url": "https://api.github.com/users/MarcoFalke/followers",
        "following_url": "https://api.github.com/users/MarcoFalke/following%7B/other_user%7D",
        "gists_url": "https://api.github.com/users/MarcoFalke/gists%7B/gist_id%7D",
        "starred_url": "https://api.github.com/users/MarcoFalke/starred%7B/owner%7D%7B/repo%7D",
        "subscriptions_url": "https://api.github.com/users/MarcoFalke/subscriptions",
        "organizations_url": "https://api.github.com/users/MarcoFalke/orgs",
        "repos_url": "https://api.github.com/users/MarcoFalke/repos",
        "events_url": "https://api.github.com/users/MarcoFalke/events%7B/privacy%7D",
        "received_events_url": "https://api.github.com/users/MarcoFalke/received_events",
        "type": "User",
        "site_admin": false
      },
      "open_issues": 0,
      "closed_issues": 12,
      "created_at": "2022-11-17T10:40:26Z",
      "updated_at": "2023-05-25T14:12:08Z",
      "closed_at": "2023-05-25T14:12:08Z"
    },
    "created_at": "2022-12-21T08:54:01Z",
    "updated_at": "2022-12-23T14:38:03Z",
    "closed_at": "2022-12-23T13:03:24Z",
    "mergeable_state": "unknown",
    "merged_at": "2022-12-23T13:03:24Z",
    "merge_commit_sha": "0da38b6b0e74ee4479553d2bf611593fa51d54b3",
    "assignees": [],
    "requested_reviewers": [],
    "requested_teams": [],
    "head": {
      "label": "MarcoFalke:2212-backport-gui-psbt-whitespace-fix-🔈",
      "ref": "2212-backport-gui-psbt-whitespace-fix-🔈",
      "sha": "0662105e884dce3eae9d3eb0b0d49600c1260b90",
      "user": {
        "login": "MarcoFalke",
        "id": 6399679,
        "node_id": "MDQ6VXNlcjYzOTk2Nzk=",
        "avatar_url": "https://avatars.githubusercontent.com/u/6399679?v=4",
        "gravatar_id": "",
        "url": "https://api.github.com/users/MarcoFalke",
        "html_url": "https://github.com/MarcoFalke",
        "followers_url": "https://api.github.com/users/MarcoFalke/followers",
        "following_url": "https://api.github.com/users/MarcoFalke/following%7B/other_user%7D",
        "gists_url": "https://api.github.com/users/MarcoFalke/gists%7B/gist_id%7D",
        "starred_url": "https://api.github.com/users/MarcoFalke/starred%7B/owner%7D%7B/repo%7D",
        "subscriptions_url": "https://api.github.com/users/MarcoFalke/subscriptions",
        "organizations_url": "https://api.github.com/users/MarcoFalke/orgs",
        "repos_url": "https://api.github.com/users/MarcoFalke/repos",
        "events_url": "https://api.github.com/users/MarcoFalke/events%7B/privacy%7D",
        "received_events_url": "https://api.github.com/users/MarcoFalke/received_events",
        "type": "User",
        "site_admin": false
      },
      "repo": {
        "id": 40046254,
        "node_id": "MDEwOlJlcG9zaXRvcnk0MDA0NjI1NA==",
        "name": "b-c",
        "full_name": "MarcoFalke/b-c",
        "owner": {
          "login": "MarcoFalke",
          "id": 6399679,
          "node_id": "MDQ6VXNlcjYzOTk2Nzk=",
          "avatar_url": "https://avatars.githubusercontent.com/u/6399679?v=4",
          "gravatar_id": "",
          "url": "https://api.github.com/users/MarcoFalke",
          "html_url": "https://github.com/MarcoFalke",
          "followers_url": "https://api.github.com/users/MarcoFalke/followers",
          "following_url": "https://api.github.com/users/MarcoFalke/following%7B/other_user%7D",
          "gists_url": "https://api.github.com/users/MarcoFalke/gists%7B/gist_id%7D",
          "starred_url": "https://api.github.com/users/MarcoFalke/starred%7B/owner%7D%7B/repo%7D",
          "subscriptions_url": "https://api.github.com/users/MarcoFalke/subscriptions",
          "organizations_url": "https://api.github.com/users/MarcoFalke/orgs",
          "repos_url": "https://api.github.com/users/MarcoFalke/repos",
          "events_url": "https://api.github.com/users/MarcoFalke/events%7B/privacy%7D",
          "received_events_url": "https://api.github.com/users/MarcoFalke/received_events",
          "type": "User",
          "site_admin": false
        },
        "private": false,
        "html_url": "https://github.com/MarcoFalke/b-c",
        "fork": true,
        "url": "https://api.github.com/repos/MarcoFalke/b-c",
        "archive_url": "https://api.github.com/repos/MarcoFalke/b-c/%7Barchive_format%7D%7B/ref%7D",
        "assignees_url": "https://api.github.com/repos/MarcoFalke/b-c/assignees%7B/user%7D",
        "blobs_url": "https://api.github.com/repos/MarcoFalke/b-c/git/blobs%7B/sha%7D",
        "branches_url": "https://api.github.com/repos/MarcoFalke/b-c/branches%7B/branch%7D",
        "collaborators_url": "https://api.github.com/repos/MarcoFalke/b-c/collaborators%7B/collaborator%7D",
        "comments_url": "https://api.github.com/repos/MarcoFalke/b-c/comments%7B/number%7D",
        "commits_url": "https://api.github.com/repos/MarcoFalke/b-c/commits%7B/sha%7D",
        "compare_url": "https://api.github.com/repos/MarcoFalke/b-c/compare/%7Bbase%7D...%7Bhead%7D",
        "contents_url": "https://api.github.com/repos/MarcoFalke/b-c/contents/%7B+path%7D",
        "contributors_url": "https://api.github.com/repos/MarcoFalke/b-c/contributors",
        "deployments_url": "https://api.github.com/repos/MarcoFalke/b-c/deployments",
        "downloads_url": "https://api.github.com/repos/MarcoFalke/b-c/downloads",
        "events_url": "https://api.github.com/repos/MarcoFalke/b-c/events",
        "forks_url": "https://api.github.com/repos/MarcoFalke/b-c/forks",
        "git_commits_url": "https://api.github.com/repos/MarcoFalke/b-c/git/commits%7B/sha%7D",
        "git_refs_url": "https://api.github.com/repos/MarcoFalke/b-c/git/refs%7B/sha%7D",
        "git_tags_url": "https://api.github.com/repos/MarcoFalke/b-c/git/tags%7B/sha%7D",
        "git_url": "git://github.com/MarcoFalke/b-c.git",
        "issue_comment_url": "https://api.github.com/repos/MarcoFalke/b-c/issues/comments%7B/number%7D",
        "issue_events_url": "https://api.github.com/repos/MarcoFalke/b-c/issues/events%7B/number%7D",
        "issues_url": "https://api.github.com/repos/MarcoFalke/b-c/issues%7B/number%7D",
        "keys_url": "https://api.github.com/repos/MarcoFalke/b-c/keys%7B/key_id%7D",
        "labels_url": "https://api.github.com/repos/MarcoFalke/b-c/labels%7B/name%7D",
        "languages_url": "https://api.github.com/repos/MarcoFalke/b-c/languages",
        "merges_url": "https://api.github.com/repos/MarcoFalke/b-c/merges",
        "milestones_url": "https://api.github.com/repos/MarcoFalke/b-c/milestones%7B/number%7D",
        "notifications_url": "https://api.github.com/repos/MarcoFalke/b-c/notifications%7B?since,all,participating}",
        "pulls_url": "https://api.github.com/repos/MarcoFalke/b-c/pulls%7B/number%7D",
        "releases_url": "https://api.github.com/repos/MarcoFalke/b-c/releases%7B/id%7D",
        "ssh_url": "git@github.com:MarcoFalke/b-c.git",
        "stargazers_url": "https://api.github.com/repos/MarcoFalke/b-c/stargazers",
        "statuses_url": "https://api.github.com/repos/MarcoFalke/b-c/statuses/%7Bsha%7D",
        "subscribers_url": "https://api.github.com/repos/MarcoFalke/b-c/subscribers",
        "subscription_url": "https://api.github.com/repos/MarcoFalke/b-c/subscription",
        "tags_url": "https://api.github.com/repos/MarcoFalke/b-c/tags",
        "teams_url": "https://api.github.com/repos/MarcoFalke/b-c/teams",
        "trees_url": "https://api.github.com/repos/MarcoFalke/b-c/git/trees%7B/sha%7D",
        "clone_url": "https://github.com/MarcoFalke/b-c.git",
        "hooks_url": "https://api.github.com/repos/MarcoFalke/b-c/hooks",
        "svn_url": "https://github.com/MarcoFalke/b-c",
        "homepage": "",
        "language": "C++",
        "forks_count": 12,
        "stargazers_count": 25,
        "watchers_count": 25,
        "size": 207848,
        "default_branch": "master",
        "open_issues_count": 25,
        "is_template": false,
        "topics": [],
        "has_issues": true,
        "has_projects": true,
        "has_wiki": false,
        "has_pages": false,
        "has_downloads": false,
        "archived": false,
        "disabled": false,
        "visibility": "public",
        "pushed_at": "2023-08-02T15:31:58Z",
        "created_at": "2015-08-01T12:42:47Z",
        "updated_at": "2023-05-28T20:12:34Z",
        "license": {
          "key": "mit",
          "name": "MIT License",
          "node_id": "MDc6TGljZW5zZTEz",
          "spdx_id": "MIT",
          "url": "https://api.github.com/licenses/mit",
          "html_url": null,
          "description": null,
          "implementation": null,
          "permissions": null,
          "conditions": null,
          "limitations": null,
          "body": null,
          "featured": null
        }
      }
    },
    "base": {
      "label": "bitcoin:24.x",
      "ref": "24.x",
      "sha": "b3f866a8dfd652b6339b79124843e58bd0bf3013",
      "user": {
        "login": "bitcoin",
        "id": 528860,
        "node_id": "MDEyOk9yZ2FuaXphdGlvbjUyODg2MA==",
        "avatar_url": "https://avatars.githubusercontent.com/u/528860?v=4",
        "gravatar_id": "",
        "url": "https://api.github.com/users/bitcoin",
        "html_url": "https://github.com/bitcoin",
        "followers_url": "https://api.github.com/users/bitcoin/followers",
        "following_url": "https://api.github.com/users/bitcoin/following%7B/other_user%7D",
        "gists_url": "https://api.github.com/users/bitcoin/gists%7B/gist_id%7D",
        "starred_url": "https://api.github.com/users/bitcoin/starred%7B/owner%7D%7B/repo%7D",
        "subscriptions_url": "https://api.github.com/users/bitcoin/subscriptions",
        "organizations_url": "https://api.github.com/users/bitcoin/orgs",
        "repos_url": "https://api.github.com/users/bitcoin/repos",
        "events_url": "https://api.github.com/users/bitcoin/events%7B/privacy%7D",
        "received_events_url": "https://api.github.com/users/bitcoin/received_events",
        "type": "Organization",
        "site_admin": false
      },
      "repo": {
        "id": 1181927,
        "node_id": "MDEwOlJlcG9zaXRvcnkxMTgxOTI3",
        "name": "bitcoin",
        "full_name": "bitcoin/bitcoin",
        "owner": {
          "login": "bitcoin",
          "id": 528860,
          "node_id": "MDEyOk9yZ2FuaXphdGlvbjUyODg2MA==",
          "avatar_url": "https://avatars.githubusercontent.com/u/528860?v=4",
          "gravatar_id": "",
          "url": "https://api.github.com/users/bitcoin",
          "html_url": "https://github.com/bitcoin",
          "followers_url": "https://api.github.com/users/bitcoin/followers",
          "following_url": "https://api.github.com/users/bitcoin/following%7B/other_user%7D",
          "gists_url": "https://api.github.com/users/bitcoin/gists%7B/gist_id%7D",
          "starred_url": "https://api.github.com/users/bitcoin/starred%7B/owner%7D%7B/repo%7D",
          "subscriptions_url": "https://api.github.com/users/bitcoin/subscriptions",
          "organizations_url": "https://api.github.com/users/bitcoin/orgs",
          "repos_url": "https://api.github.com/users/bitcoin/repos",
          "events_url": "https://api.github.com/users/bitcoin/events%7B/privacy%7D",
          "received_events_url": "https://api.github.com/users/bitcoin/received_events",
          "type": "Organization",
          "site_admin": false
        },
        "private": false,
        "html_url": "https://github.com/bitcoin/bitcoin",
        "description": "Bitcoin Core integration/staging tree",
        "fork": false,
        "url": "https://api.github.com/repos/bitcoin/bitcoin",
        "archive_url": "https://api.github.com/repos/bitcoin/bitcoin/%7Barchive_format%7D%7B/ref%7D",
        "assignees_url": "https://api.github.com/repos/bitcoin/bitcoin/assignees%7B/user%7D",
        "blobs_url": "https://api.github.com/repos/bitcoin/bitcoin/git/blobs%7B/sha%7D",
        "branches_url": "https://api.github.com/repos/bitcoin/bitcoin/branches%7B/branch%7D",
        "collaborators_url": "https://api.github.com/repos/bitcoin/bitcoin/collaborators%7B/collaborator%7D",
        "comments_url": "https://api.github.com/repos/bitcoin/bitcoin/comments%7B/number%7D",
        "commits_url": "https://api.github.com/repos/bitcoin/bitcoin/commits%7B/sha%7D",
        "compare_url": "https://api.github.com/repos/bitcoin/bitcoin/compare/%7Bbase%7D...%7Bhead%7D",
        "contents_url": "https://api.github.com/repos/bitcoin/bitcoin/contents/%7B+path%7D",
        "contributors_url": "https://api.github.com/repos/bitcoin/bitcoin/contributors",
        "deployments_url": "https://api.github.com/repos/bitcoin/bitcoin/deployments",
        "downloads_url": "https://api.github.com/repos/bitcoin/bitcoin/downloads",
        "events_url": "https://api.github.com/repos/bitcoin/bitcoin/events",
        "forks_url": "https://api.github.com/repos/bitcoin/bitcoin/forks",
        "git_commits_url": "https://api.github.com/repos/bitcoin/bitcoin/git/commits%7B/sha%7D",
        "git_refs_url": "https://api.github.com/repos/bitcoin/bitcoin/git/refs%7B/sha%7D",
        "git_tags_url": "https://api.github.com/repos/bitcoin/bitcoin/git/tags%7B/sha%7D",
        "git_url": "git://github.com/bitcoin/bitcoin.git",
        "issue_comment_url": "https://api.github.com/repos/bitcoin/bitcoin/issues/comments%7B/number%7D",
        "issue_events_url": "https://api.github.com/repos/bitcoin/bitcoin/issues/events%7B/number%7D",
        "issues_url": "https://api.github.com/repos/bitcoin/bitcoin/issues%7B/number%7D",
        "keys_url": "https://api.github.com/repos/bitcoin/bitcoin/keys%7B/key_id%7D",
        "labels_url": "https://api.github.com/repos/bitcoin/bitcoin/labels%7B/name%7D",
        "languages_url": "https://api.github.com/repos/bitcoin/bitcoin/languages",
        "merges_url": "https://api.github.com/repos/bitcoin/bitcoin/merges",
        "milestones_url": "https://api.github.com/repos/bitcoin/bitcoin/milestones%7B/number%7D",
        "notifications_url": "https://api.github.com/repos/bitcoin/bitcoin/notifications%7B?since,all,participating}",
        "pulls_url": "https://api.github.com/repos/bitcoin/bitcoin/pulls%7B/number%7D",
        "releases_url": "https://api.github.com/repos/bitcoin/bitcoin/releases%7B/id%7D",
        "ssh_url": "git@github.com:bitcoin/bitcoin.git",
        "stargazers_url": "https://api.github.com/repos/bitcoin/bitcoin/stargazers",
        "statuses_url": "https://api.github.com/repos/bitcoin/bitcoin/statuses/%7Bsha%7D",
        "subscribers_url": "https://api.github.com/repos/bitcoin/bitcoin/subscribers",
        "subscription_url": "https://api.github.com/repos/bitcoin/bitcoin/subscription",
        "tags_url": "https://api.github.com/repos/bitcoin/bitcoin/tags",
        "teams_url": "https://api.github.com/repos/bitcoin/bitcoin/teams",
        "trees_url": "https://api.github.com/repos/bitcoin/bitcoin/git/trees%7B/sha%7D",
        "clone_url": "https://github.com/bitcoin/bitcoin.git",
        "hooks_url": "https://api.github.com/repos/bitcoin/bitcoin/hooks",
        "svn_url": "https://github.com/bitcoin/bitcoin",
        "homepage": "https://bitcoincore.org/en/download",
        "language": "C++",
        "forks_count": 35476,
        "stargazers_count": 70608,
        "watchers_count": 70608,
        "size": 236222,
        "default_branch": "master",
        "open_issues_count": 673,
        "is_template": false,
        "topics": [
          "bitcoin",
          "c-plus-plus",
          "cryptocurrency",
          "cryptography",
          "p2p"
        ],
        "has_issues": true,
        "has_projects": true,
        "has_wiki": false,
        "has_pages": false,
        "has_downloads": false,
        "archived": false,
        "disabled": false,
        "visibility": "public",
        "pushed_at": "2023-08-03T00:03:27Z",
        "created_at": "2010-12-19T15:16:43Z",
        "updated_at": "2023-08-02T18:21:18Z",
        "license": {
          "key": "mit",
          "name": "MIT License",
          "node_id": "MDc6TGljZW5zZTEz",
          "spdx_id": "MIT",
          "url": "https://api.github.com/licenses/mit",
          "html_url": null,
          "description": null,
          "implementation": null,
          "permissions": null,
          "conditions": null,
          "limitations": null,
          "body": null,
          "featured": null
        }
      }
    },
    "_links": {
      "self": {
        "href": "https://api.github.com/repos/bitcoin/bitcoin/pulls/26735"
      }
    },
    "author_association": "MEMBER",
    "draft": false,
    "additions": 1,
    "deletions": 1,
    "changed_files": 1,
    "commits": 1,
    "review_comments": 0,
    "comments": 1
  },
  "events": [
    {
      "event": "committed",
      "id": null,
      "node_id": "C_kwDOABII59oAKDA2NjIxMDVlODg0ZGNlM2VhZTlkM2ViMGIwZDQ5NjAwYzEyNjBiOTA",
      "url": "https://api.github.com/repos/bitcoin/bitcoin/git/commits/0662105e884dce3eae9d3eb0b0d49600c1260b90",
      "actor": null,
      "commit_id": null,
      "commit_url": null,
      "created_at": null,
      "html_url": "https://github.com/bitcoin/bitcoin/commit/0662105e884dce3eae9d3eb0b0d49600c1260b90",
      "tree": {
        "sha": "a4051e7eb2c18b941fac78d5f11e90e2414901a9",
        "url": "https://api.github.com/repos/bitcoin/bitcoin/git/trees/a4051e7eb2c18b941fac78d5f11e90e2414901a9"
      },
      "verification": {
        "verified": false,
        "reason": "unsigned",
        "payload": null,
        "signature": null
      },
      "parents": [
        {
          "url": "https://api.github.com/repos/bitcoin/bitcoin/git/commits/b3f866a8dfd652b6339b79124843e58bd0bf3013",
          "sha": "b3f866a8dfd652b6339b79124843e58bd0bf3013",
          "html_url": "https://github.com/bitcoin/bitcoin/commit/b3f866a8dfd652b6339b79124843e58bd0bf3013"
        }
      ],
      "message": "qt: Load PSBTs using istreambuf_iterator rather than istream_iterator\n\nistream_iterator eats whitespace charactesr which causes parsing\nfailures for PSBTs that contain the bytes corresponding to those\ncharacters.\n\nGithub-Pull: bitcoin-core/gui#687\nRebased-From: bb5ea1d9a954b7b9f443ee8fbbb04549cd0b08a7",
      "committer": {
        "name": "MarcoFalke",
        "email": "*~=`'#}+{/-|&$^_@721217.xyz",
        "date": "2022-12-21T08:52:40Z"
      },
      "author": {
        "name": "Andrew Chow",
        "email": "github@achow101.com",
        "date": "2022-12-18T18:20:20Z"
      },
      "sha": "0662105e884dce3eae9d3eb0b0d49600c1260b90"
    },
    {
      "event": "commented",
      "id": 1361027288,
      "node_id": "IC_kwDOABII585RH6DY",
      "url": "https://api.github.com/repos/bitcoin/bitcoin/issues/comments/1361027288",
      "actor": {
        "login": "DrahtBot",
        "id": 39886733,
        "node_id": "MDQ6VXNlcjM5ODg2NzMz",
        "avatar_url": "https://avatars.githubusercontent.com/u/39886733?v=4",
        "gravatar_id": "",
        "url": "https://api.github.com/users/DrahtBot",
        "html_url": "https://github.com/DrahtBot",
        "followers_url": "https://api.github.com/users/DrahtBot/followers",
        "following_url": "https://api.github.com/users/DrahtBot/following%7B/other_user%7D",
        "gists_url": "https://api.github.com/users/DrahtBot/gists%7B/gist_id%7D",
        "starred_url": "https://api.github.com/users/DrahtBot/starred%7B/owner%7D%7B/repo%7D",
        "subscriptions_url": "https://api.github.com/users/DrahtBot/subscriptions",
        "organizations_url": "https://api.github.com/users/DrahtBot/orgs",
        "repos_url": "https://api.github.com/users/DrahtBot/repos",
        "events_url": "https://api.github.com/users/DrahtBot/events%7B/privacy%7D",
        "received_events_url": "https://api.github.com/users/DrahtBot/received_events",
        "type": "User",
        "site_admin": false
      },
      "commit_id": null,
      "commit_url": null,
      "created_at": "2022-12-21T08:54:04Z",
      "updated_at": "2022-12-23T13:02:08Z",
      "author_association": "CONTRIBUTOR",
      "body": "<!--e57a25ab6845829454e8d69fc972939a-->\n\nThe following sections might be updated with supplementary metadata relevant to reviewers and maintainers.\n\n<!--021abf342d371248e50ceaed478a90ca-->\n### Reviews\nSee [the guideline](https://github.com/bitcoin/bitcoin/blob/master/CONTRIBUTING.md#code-review) for information on the review process.\n| Type | Reviewers |\n| ---- | --------- |\n| ACK | [fanquake](https://github.com/bitcoin/bitcoin/pull/26735#pullrequestreview-1228949997) |\n\nIf your review is incorrectly listed, please react with 👎 to this comment and the bot will ignore it on the next update.\n",
      "user": {
        "login": "DrahtBot",
        "id": 39886733,
        "node_id": "MDQ6VXNlcjM5ODg2NzMz",
        "avatar_url": "https://avatars.githubusercontent.com/u/39886733?v=4",
        "gravatar_id": "",
        "url": "https://api.github.com/users/DrahtBot",
        "html_url": "https://github.com/DrahtBot",
        "followers_url": "https://api.github.com/users/DrahtBot/followers",
        "following_url": "https://api.github.com/users/DrahtBot/following%7B/other_user%7D",
        "gists_url": "https://api.github.com/users/DrahtBot/gists%7B/gist_id%7D",
        "starred_url": "https://api.github.com/users/DrahtBot/starred%7B/owner%7D%7B/repo%7D",
        "subscriptions_url": "https://api.github.com/users/DrahtBot/subscriptions",
        "organizations_url": "https://api.github.com/users/DrahtBot/orgs",
        "repos_url": "https://api.github.com/users/DrahtBot/repos",
        "events_url": "https://api.github.com/users/DrahtBot/events%7B/privacy%7D",
        "received_events_url": "https://api.github.com/users/DrahtBot/received_events",
        "type": "User",
        "site_admin": false
      },
      "html_url": "https://github.com/bitcoin/bitcoin/pull/26735#issuecomment-1361027288",
      "issue_url": "https://api.github.com/repos/bitcoin/bitcoin/issues/26735"
    },
    {
      "event": "labeled",
      "id": 8085039831,
      "node_id": "LE_lADOABII585Zwrk7zwAAAAHh5-rX",
      "url": "https://api.github.com/repos/bitcoin/bitcoin/issues/events/8085039831",
      "actor": {
        "login": "DrahtBot",
        "id": 39886733,
        "node_id": "MDQ6VXNlcjM5ODg2NzMz",
        "avatar_url": "https://avatars.githubusercontent.com/u/39886733?v=4",
        "gravatar_id": "",
        "url": "https://api.github.com/users/DrahtBot",
        "html_url": "https://github.com/DrahtBot",
        "followers_url": "https://api.github.com/users/DrahtBot/followers",
        "following_url": "https://api.github.com/users/DrahtBot/following%7B/other_user%7D",
        "gists_url": "https://api.github.com/users/DrahtBot/gists%7B/gist_id%7D",
        "starred_url": "https://api.github.com/users/DrahtBot/starred%7B/owner%7D%7B/repo%7D",
        "subscriptions_url": "https://api.github.com/users/DrahtBot/subscriptions",
        "organizations_url": "https://api.github.com/users/DrahtBot/orgs",
        "repos_url": "https://api.github.com/users/DrahtBot/repos",
        "events_url": "https://api.github.com/users/DrahtBot/events%7B/privacy%7D",
        "received_events_url": "https://api.github.com/users/DrahtBot/received_events",
        "type": "User",
        "site_admin": false
      },
      "commit_id": null,
      "commit_url": null,
      "created_at": "2022-12-21T08:54:06Z",
      "label": {
        "name": "Backport",
        "color": "dd7200"
      }
    },
    {
      "event": "milestoned",
      "id": 8085041197,
      "node_id": "MIE_lADOABII585Zwrk7zwAAAAHh5_At",
      "url": "https://api.github.com/repos/bitcoin/bitcoin/issues/events/8085041197",
      "actor": {
        "login": "fanquake",
        "id": 863730,
        "node_id": "MDQ6VXNlcjg2MzczMA==",
        "avatar_url": "https://avatars.githubusercontent.com/u/863730?v=4",
        "gravatar_id": "",
        "url": "https://api.github.com/users/fanquake",
        "html_url": "https://github.com/fanquake",
        "followers_url": "https://api.github.com/users/fanquake/followers",
        "following_url": "https://api.github.com/users/fanquake/following%7B/other_user%7D",
        "gists_url": "https://api.github.com/users/fanquake/gists%7B/gist_id%7D",
        "starred_url": "https://api.github.com/users/fanquake/starred%7B/owner%7D%7B/repo%7D",
        "subscriptions_url": "https://api.github.com/users/fanquake/subscriptions",
        "organizations_url": "https://api.github.com/users/fanquake/orgs",
        "repos_url": "https://api.github.com/users/fanquake/repos",
        "events_url": "https://api.github.com/users/fanquake/events%7B/privacy%7D",
        "received_events_url": "https://api.github.com/users/fanquake/received_events",
        "type": "User",
        "site_admin": false
      },
      "commit_id": null,
      "commit_url": null,
      "created_at": "2022-12-21T08:54:16Z",
      "milestone": {
        "title": "24.1"
      }
    },
    {
      "event": "reviewed",
      "id": 1228949997,
      "node_id": "PRR_kwDOABII585JQEnt",
      "url": null,
      "actor": null,
      "commit_id": "0662105e884dce3eae9d3eb0b0d49600c1260b90",
      "commit_url": null,
      "created_at": null,
      "author_association": "MEMBER",
      "body": "ACK 0662105e884dce3eae9d3eb0b0d49600c1260b90",
      "user": {
        "login": "fanquake",
        "id": 863730,
        "node_id": "MDQ6VXNlcjg2MzczMA==",
        "avatar_url": "https://avatars.githubusercontent.com/u/863730?v=4",
        "gravatar_id": "",
        "url": "https://api.github.com/users/fanquake",
        "html_url": "https://github.com/fanquake",
        "followers_url": "https://api.github.com/users/fanquake/followers",
        "following_url": "https://api.github.com/users/fanquake/following%7B/other_user%7D",
        "gists_url": "https://api.github.com/users/fanquake/gists%7B/gist_id%7D",
        "starred_url": "https://api.github.com/users/fanquake/starred%7B/owner%7D%7B/repo%7D",
        "subscriptions_url": "https://api.github.com/users/fanquake/subscriptions",
        "organizations_url": "https://api.github.com/users/fanquake/orgs",
        "repos_url": "https://api.github.com/users/fanquake/repos",
        "events_url": "https://api.github.com/users/fanquake/events%7B/privacy%7D",
        "received_events_url": "https://api.github.com/users/fanquake/received_events",
        "type": "User",
        "site_admin": false
      },
      "html_url": "https://github.com/bitcoin/bitcoin/pull/26735#pullrequestreview-1228949997",
      "submitted_at": "2022-12-23T13:02:05Z",
      "state": "APPROVED",
      "pull_request_url": "https://api.github.com/repos/bitcoin/bitcoin/pulls/26735"
    },
    {
      "event": "merged",
      "id": 8103289517,
      "node_id": "ME_lADOABII585Zwrk7zwAAAAHi_mKt",
      "url": "https://api.github.com/repos/bitcoin/bitcoin/issues/events/8103289517",
      "actor": {
        "login": "fanquake",
        "id": 863730,
        "node_id": "MDQ6VXNlcjg2MzczMA==",
        "avatar_url": "https://avatars.githubusercontent.com/u/863730?v=4",
        "gravatar_id": "",
        "url": "https://api.github.com/users/fanquake",
        "html_url": "https://github.com/fanquake",
        "followers_url": "https://api.github.com/users/fanquake/followers",
        "following_url": "https://api.github.com/users/fanquake/following%7B/other_user%7D",
        "gists_url": "https://api.github.com/users/fanquake/gists%7B/gist_id%7D",
        "starred_url": "https://api.github.com/users/fanquake/starred%7B/owner%7D%7B/repo%7D",
        "subscriptions_url": "https://api.github.com/users/fanquake/subscriptions",
        "organizations_url": "https://api.github.com/users/fanquake/orgs",
        "repos_url": "https://api.github.com/users/fanquake/repos",
        "events_url": "https://api.github.com/users/fanquake/events%7B/privacy%7D",
        "received_events_url": "https://api.github.com/users/fanquake/received_events",
        "type": "User",
        "site_admin": false
      },
      "commit_id": "0da38b6b0e74ee4479553d2bf611593fa51d54b3",
      "commit_url": "https://api.github.com/repos/bitcoin/bitcoin/commits/0da38b6b0e74ee4479553d2bf611593fa51d54b3",
      "created_at": "2022-12-23T13:03:24Z"
    },
    {
      "event": "closed",
      "id": 8103289537,
      "node_id": "CE_lADOABII585Zwrk7zwAAAAHi_mLB",
      "url": "https://api.github.com/repos/bitcoin/bitcoin/issues/events/8103289537",
      "actor": {
        "login": "fanquake",
        "id": 863730,
        "node_id": "MDQ6VXNlcjg2MzczMA==",
        "avatar_url": "https://avatars.githubusercontent.com/u/863730?v=4",
        "gravatar_id": "",
        "url": "https://api.github.com/users/fanquake",
        "html_url": "https://github.com/fanquake",
        "followers_url": "https://api.github.com/users/fanquake/followers",
        "following_url": "https://api.github.com/users/fanquake/following%7B/other_user%7D",
        "gists_url": "https://api.github.com/users/fanquake/gists%7B/gist_id%7D",
        "starred_url": "https://api.github.com/users/fanquake/starred%7B/owner%7D%7B/repo%7D",
        "subscriptions_url": "https://api.github.com/users/fanquake/subscriptions",
        "organizations_url": "https://api.github.com/users/fanquake/orgs",
        "repos_url": "https://api.github.com/users/fanquake/repos",
        "events_url": "https://api.github.com/users/fanquake/events%7B/privacy%7D",
        "received_events_url": "https://api.github.com/users/fanquake/received_events",
        "type": "User",
        "site_admin": false
      },
      "commit_id": null,
      "commit_url": null,
      "created_at": "2022-12-23T13:03:24Z"
    },
    {
      "event": "head_ref_deleted",
      "id": 8103802444,
      "node_id": "HRDE_lADOABII585Zwrk7zwAAAAHjBjZM",
      "url": "https://api.github.com/repos/bitcoin/bitcoin/issues/events/8103802444",
      "actor": {
        "login": "MarcoFalke",
        "id": 6399679,
        "node_id": "MDQ6VXNlcjYzOTk2Nzk=",
        "avatar_url": "https://avatars.githubusercontent.com/u/6399679?v=4",
        "gravatar_id": "",
        "url": "https://api.github.com/users/MarcoFalke",
        "html_url": "https://github.com/MarcoFalke",
        "followers_url": "https://api.github.com/users/MarcoFalke/followers",
        "following_url": "https://api.github.com/users/MarcoFalke/following%7B/other_user%7D",
        "gists_url": "https://api.github.com/users/MarcoFalke/gists%7B/gist_id%7D",
        "starred_url": "https://api.github.com/users/MarcoFalke/starred%7B/owner%7D%7B/repo%7D",
        "subscriptions_url": "https://api.github.com/users/MarcoFalke/subscriptions",
        "organizations_url": "https://api.github.com/users/MarcoFalke/orgs",
        "repos_url": "https://api.github.com/users/MarcoFalke/repos",
        "events_url": "https://api.github.com/users/MarcoFalke/events%7B/privacy%7D",
        "received_events_url": "https://api.github.com/users/MarcoFalke/received_events",
        "type": "User",
        "site_admin": false
      },
      "commit_id": null,
      "commit_url": null,
      "created_at": "2022-12-23T14:38:03Z"
    },
    {
      "event": "cross-referenced",
      "id": null,
      "node_id": null,
      "url": null,
      "actor": {
        "login": "fanquake",
        "id": 863730,
        "node_id": "MDQ6VXNlcjg2MzczMA==",
        "avatar_url": "https://avatars.githubusercontent.com/u/863730?v=4",
        "gravatar_id": "",
        "url": "https://api.github.com/users/fanquake",
        "html_url": "https://github.com/fanquake",
        "followers_url": "https://api.github.com/users/fanquake/followers",
        "following_url": "https://api.github.com/users/fanquake/following%7B/other_user%7D",
        "gists_url": "https://api.github.com/users/fanquake/gists%7B/gist_id%7D",
        "starred_url": "https://api.github.com/users/fanquake/starred%7B/owner%7D%7B/repo%7D",
        "subscriptions_url": "https://api.github.com/users/fanquake/subscriptions",
        "organizations_url": "https://api.github.com/users/fanquake/orgs",
        "repos_url": "https://api.github.com/users/fanquake/repos",
        "events_url": "https://api.github.com/users/fanquake/events%7B/privacy%7D",
        "received_events_url": "https://api.github.com/users/fanquake/received_events",
        "type": "User",
        "site_admin": false
      },
      "commit_id": null,
      "commit_url": null,
      "created_at": "2023-03-12T16:40:15Z",
      "updated_at": "2023-03-12T16:40:15Z",
      "source": {
        "issue": {
          "id": 1620429526,
          "node_id": "PR_kwDOABII585L1t8X",
          "url": "https://api.github.com/repos/bitcoin/bitcoin/issues/27247",
          "repository_url": "https://api.github.com/repos/bitcoin/bitcoin",
          "labels_url": "https://api.github.com/repos/bitcoin/bitcoin/issues/27247/labels%7B/name%7D",
          "comments_url": "https://api.github.com/repos/bitcoin/bitcoin/issues/27247/comments",
          "events_url": "https://api.github.com/repos/bitcoin/bitcoin/issues/27247/events",
          "html_url": "https://github.com/bitcoin/bitcoin/pull/27247",
          "number": 27247,
          "state": "closed",
          "state_reason": null,
          "title": "[24.x] Bump version to v24.1rc1",
          "body": "Bump the version number to v24.1rc1.\r\nRegenerate the man pages.\r\nUpdate the version number in bips.md.\r\nMove the v24.0.1 release notes to doc/release-notes.\r\nAdd initial release notes for v24.1.\r\n\r\nMerged changes to the 24.x branch since v24.0.1:\r\n- https://github.com/bitcoin/bitcoin/pull/26457\r\n- https://github.com/bitcoin/bitcoin/pull/26735\r\n- https://github.com/bitcoin/bitcoin/pull/26878\r\n- https://github.com/bitcoin/bitcoin/pull/26880",
          "user": {
            "login": "fanquake",
            "id": 863730,
            "node_id": "MDQ6VXNlcjg2MzczMA==",
            "avatar_url": "https://avatars.githubusercontent.com/u/863730?v=4",
            "gravatar_id": "",
            "url": "https://api.github.com/users/fanquake",
            "html_url": "https://github.com/fanquake",
            "followers_url": "https://api.github.com/users/fanquake/followers",
            "following_url": "https://api.github.com/users/fanquake/following%7B/other_user%7D",
            "gists_url": "https://api.github.com/users/fanquake/gists%7B/gist_id%7D",
            "starred_url": "https://api.github.com/users/fanquake/starred%7B/owner%7D%7B/repo%7D",
            "subscriptions_url": "https://api.github.com/users/fanquake/subscriptions",
            "organizations_url": "https://api.github.com/users/fanquake/orgs",
            "repos_url": "https://api.github.com/users/fanquake/repos",
            "events_url": "https://api.github.com/users/fanquake/events%7B/privacy%7D",
            "received_events_url": "https://api.github.com/users/fanquake/received_events",
            "type": "User",
            "site_admin": false
          },
          "labels": [
            {
              "id": 390024790,
              "node_id": "MDU6TGFiZWwzOTAwMjQ3OTA=",
              "url": "https://api.github.com/repos/bitcoin/bitcoin/labels/Backport",
              "name": "Backport",
              "description": "",
              "color": "dd7200",
              "default": false
            }
          ],
          "assignees": [],
          "author_association": "MEMBER",
          "milestone": {
            "url": "https://api.github.com/repos/bitcoin/bitcoin/milestones/58",
            "html_url": "https://github.com/bitcoin/bitcoin/milestone/58",
            "labels_url": "https://api.github.com/repos/bitcoin/bitcoin/milestones/58/labels",
            "id": 8664975,
            "node_id": "MI_kwDOABII584AhDeP",
            "number": 58,
            "state": "closed",
            "title": "24.1",
            "creator": {
              "login": "MarcoFalke",
              "id": 6399679,
              "node_id": "MDQ6VXNlcjYzOTk2Nzk=",
              "avatar_url": "https://avatars.githubusercontent.com/u/6399679?v=4",
              "gravatar_id": "",
              "url": "https://api.github.com/users/MarcoFalke",
              "html_url": "https://github.com/MarcoFalke",
              "followers_url": "https://api.github.com/users/MarcoFalke/followers",
              "following_url": "https://api.github.com/users/MarcoFalke/following%7B/other_user%7D",
              "gists_url": "https://api.github.com/users/MarcoFalke/gists%7B/gist_id%7D",
              "starred_url": "https://api.github.com/users/MarcoFalke/starred%7B/owner%7D%7B/repo%7D",
              "subscriptions_url": "https://api.github.com/users/MarcoFalke/subscriptions",
              "organizations_url": "https://api.github.com/users/MarcoFalke/orgs",
              "repos_url": "https://api.github.com/users/MarcoFalke/repos",
              "events_url": "https://api.github.com/users/MarcoFalke/events%7B/privacy%7D",
              "received_events_url": "https://api.github.com/users/MarcoFalke/received_events",
              "type": "User",
              "site_admin": false
            },
            "open_issues": 0,
            "closed_issues": 12,
            "created_at": "2022-11-17T10:40:26Z",
            "updated_at": "2023-05-25T14:12:08Z",
            "closed_at": "2023-05-25T14:12:08Z"
          },
          "locked": false,
          "comments": 3,
          "pull_request": {
            "url": "https://api.github.com/repos/bitcoin/bitcoin/pulls/27247",
            "html_url": "https://github.com/bitcoin/bitcoin/pull/27247",
            "diff_url": "https://github.com/bitcoin/bitcoin/pull/27247.diff",
            "patch_url": "https://github.com/bitcoin/bitcoin/pull/27247.patch"
          },
          "closed_at": "2023-03-13T14:47:53Z",
          "created_at": "2023-03-12T16:40:15Z",
          "updated_at": "2023-03-13T14:47:57Z"
        },
        "type": "issue"
      }
    },
    {
      "event": "referenced",
      "id": 8732717737,
      "node_id": "REFE_lADOABII585Zwrk7zwAAAAIIgrKp",
      "url": "https://api.github.com/repos/bitcoin/bitcoin/issues/events/8732717737",
      "actor": {
        "login": "fanquake",
        "id": 863730,
        "node_id": "MDQ6VXNlcjg2MzczMA==",
        "avatar_url": "https://avatars.githubusercontent.com/u/863730?v=4",
        "gravatar_id": "",
        "url": "https://api.github.com/users/fanquake",
        "html_url": "https://github.com/fanquake",
        "followers_url": "https://api.github.com/users/fanquake/followers",
        "following_url": "https://api.github.com/users/fanquake/following%7B/other_user%7D",
        "gists_url": "https://api.github.com/users/fanquake/gists%7B/gist_id%7D",
        "starred_url": "https://api.github.com/users/fanquake/starred%7B/owner%7D%7B/repo%7D",
        "subscriptions_url": "https://api.github.com/users/fanquake/subscriptions",
        "organizations_url": "https://api.github.com/users/fanquake/orgs",
        "repos_url": "https://api.github.com/users/fanquake/repos",
        "events_url": "https://api.github.com/users/fanquake/events%7B/privacy%7D",
        "received_events_url": "https://api.github.com/users/fanquake/received_events",
        "type": "User",
        "site_admin": false
      },
      "commit_id": "9e05de1d7081decf081d2d7811ae99564da53d87",
      "commit_url": "https://api.github.com/repos/bitcoin/bitcoin/commits/9e05de1d7081decf081d2d7811ae99564da53d87",
      "created_at": "2023-03-13T14:47:52Z"
    },
    {
      "event": "cross-referenced",
      "id": null,
      "node_id": null,
      "url": null,
      "actor": {
        "login": "Doodoobrown23",
        "id": 126966875,
        "node_id": "U_kgDOB5FcWw",
        "avatar_url": "https://avatars.githubusercontent.com/u/126966875?v=4",
        "gravatar_id": "",
        "url": "https://api.github.com/users/Doodoobrown23",
        "html_url": "https://github.com/Doodoobrown23",
        "followers_url": "https://api.github.com/users/Doodoobrown23/followers",
        "following_url": "https://api.github.com/users/Doodoobrown23/following%7B/other_user%7D",
        "gists_url": "https://api.github.com/users/Doodoobrown23/gists%7B/gist_id%7D",
        "starred_url": "https://api.github.com/users/Doodoobrown23/starred%7B/owner%7D%7B/repo%7D",
        "subscriptions_url": "https://api.github.com/users/Doodoobrown23/subscriptions",
        "organizations_url": "https://api.github.com/users/Doodoobrown23/orgs",
        "repos_url": "https://api.github.com/users/Doodoobrown23/repos",
        "events_url": "https://api.github.com/users/Doodoobrown23/events%7B/privacy%7D",
        "received_events_url": "https://api.github.com/users/Doodoobrown23/received_events",
        "type": "User",
        "site_admin": false
      },
      "commit_id": null,
      "commit_url": null,
      "created_at": "2023-03-30T06:29:11Z",
      "updated_at": "2023-03-30T06:29:11Z",
      "source": {
        "issue": {
          "id": 1646996156,
          "node_id": "PR_kwDOABII585NOpwy",
          "url": "https://api.github.com/repos/bitcoin/bitcoin/issues/27367",
          "repository_url": "https://api.github.com/repos/bitcoin/bitcoin",
          "labels_url": "https://api.github.com/repos/bitcoin/bitcoin/issues/27367/labels%7B/name%7D",
          "comments_url": "https://api.github.com/repos/bitcoin/bitcoin/issues/27367/comments",
          "events_url": "https://api.github.com/repos/bitcoin/bitcoin/issues/27367/events",
          "html_url": "https://github.com/bitcoin/bitcoin/pull/27367",
          "number": 27367,
          "state": "closed",
          "state_reason": null,
          "title": ".",
          "body": null,
          "user": {
            "login": "Doodoobrown23",
            "id": 126966875,
            "node_id": "U_kgDOB5FcWw",
            "avatar_url": "https://avatars.githubusercontent.com/u/126966875?v=4",
            "gravatar_id": "",
            "url": "https://api.github.com/users/Doodoobrown23",
            "html_url": "https://github.com/Doodoobrown23",
            "followers_url": "https://api.github.com/users/Doodoobrown23/followers",
            "following_url": "https://api.github.com/users/Doodoobrown23/following%7B/other_user%7D",
            "gists_url": "https://api.github.com/users/Doodoobrown23/gists%7B/gist_id%7D",
            "starred_url": "https://api.github.com/users/Doodoobrown23/starred%7B/owner%7D%7B/repo%7D",
            "subscriptions_url": "https://api.github.com/users/Doodoobrown23/subscriptions",
            "organizations_url": "https://api.github.com/users/Doodoobrown23/orgs",
            "repos_url": "https://api.github.com/users/Doodoobrown23/repos",
            "events_url": "https://api.github.com/users/Doodoobrown23/events%7B/privacy%7D",
            "received_events_url": "https://api.github.com/users/Doodoobrown23/received_events",
            "type": "User",
            "site_admin": false
          },
          "labels": [],
          "assignees": [],
          "author_association": "NONE",
          "locked": true,
          "comments": 1,
          "pull_request": {
            "url": "https://api.github.com/repos/bitcoin/bitcoin/pulls/27367",
            "html_url": "https://github.com/bitcoin/bitcoin/pull/27367",
            "diff_url": "https://github.com/bitcoin/bitcoin/pull/27367.diff",
            "patch_url": "https://github.com/bitcoin/bitcoin/pull/27367.patch"
          },
          "closed_at": "2023-03-30T06:30:19Z",
          "created_at": "2023-03-30T06:29:11Z",
          "updated_at": "2023-03-30T09:43:47Z"
        },
        "type": "issue"
      }
    }
  ],
  "comments": []
}