{
  "type": "pull",
  "pull": {
    "url": "https://api.github.com/repos/bitcoin/bitcoin/pulls/26750",
    "id": 1177164853,
    "node_id": "PR_kwDOABII585GKhw1",
    "html_url": "https://github.com/bitcoin/bitcoin/pull/26750",
    "diff_url": "https://github.com/bitcoin/bitcoin/pull/26750.diff",
    "patch_url": "https://github.com/bitcoin/bitcoin/pull/26750.patch",
    "issue_url": "https://api.github.com/repos/bitcoin/bitcoin/issues/26750",
    "commits_url": "https://api.github.com/repos/bitcoin/bitcoin/pulls/26750/commits",
    "review_comments_url": "https://api.github.com/repos/bitcoin/bitcoin/pulls/26750/comments",
    "review_comment_url": "https://api.github.com/repos/bitcoin/bitcoin/pulls/comments%7B/number%7D",
    "comments_url": "https://api.github.com/repos/bitcoin/bitcoin/issues/26750/comments",
    "statuses_url": "https://api.github.com/repos/bitcoin/bitcoin/statuses/3ae76ea6ddd1fad43332b7e2b79e0c441ecf6d63",
    "number": 26750,
    "state": "closed",
    "locked": false,
    "maintainer_can_modify": false,
    "title": "Insert and bump copyright headers",
    "user": {
      "login": "hebasto",
      "id": 32963518,
      "node_id": "MDQ6VXNlcjMyOTYzNTE4",
      "avatar_url": "https://avatars.githubusercontent.com/u/32963518?v=4",
      "gravatar_id": "",
      "url": "https://api.github.com/users/hebasto",
      "html_url": "https://github.com/hebasto",
      "followers_url": "https://api.github.com/users/hebasto/followers",
      "following_url": "https://api.github.com/users/hebasto/following%7B/other_user%7D",
      "gists_url": "https://api.github.com/users/hebasto/gists%7B/gist_id%7D",
      "starred_url": "https://api.github.com/users/hebasto/starred%7B/owner%7D%7B/repo%7D",
      "subscriptions_url": "https://api.github.com/users/hebasto/subscriptions",
      "organizations_url": "https://api.github.com/users/hebasto/orgs",
      "repos_url": "https://api.github.com/users/hebasto/repos",
      "events_url": "https://api.github.com/users/hebasto/events%7B/privacy%7D",
      "received_events_url": "https://api.github.com/users/hebasto/received_events",
      "type": "User",
      "site_admin": false
    },
    "body": "This PR bumps the existing copyright headers, as we did every year, and adds a missed one.",
    "labels": [],
    "created_at": "2022-12-25T00:02:07Z",
    "updated_at": "2022-12-25T12:00:38Z",
    "closed_at": "2022-12-25T09:52:23Z",
    "mergeable_state": "unknown",
    "merged_at": "2022-12-25T09:52:23Z",
    "merge_commit_sha": "e9262ea32a6e1d364fb7974844fadc36f931f8c6",
    "assignees": [],
    "requested_reviewers": [],
    "requested_teams": [],
    "head": {
      "label": "hebasto:221225-copyright",
      "ref": "221225-copyright",
      "sha": "3ae76ea6ddd1fad43332b7e2b79e0c441ecf6d63",
      "user": {
        "login": "hebasto",
        "id": 32963518,
        "node_id": "MDQ6VXNlcjMyOTYzNTE4",
        "avatar_url": "https://avatars.githubusercontent.com/u/32963518?v=4",
        "gravatar_id": "",
        "url": "https://api.github.com/users/hebasto",
        "html_url": "https://github.com/hebasto",
        "followers_url": "https://api.github.com/users/hebasto/followers",
        "following_url": "https://api.github.com/users/hebasto/following%7B/other_user%7D",
        "gists_url": "https://api.github.com/users/hebasto/gists%7B/gist_id%7D",
        "starred_url": "https://api.github.com/users/hebasto/starred%7B/owner%7D%7B/repo%7D",
        "subscriptions_url": "https://api.github.com/users/hebasto/subscriptions",
        "organizations_url": "https://api.github.com/users/hebasto/orgs",
        "repos_url": "https://api.github.com/users/hebasto/repos",
        "events_url": "https://api.github.com/users/hebasto/events%7B/privacy%7D",
        "received_events_url": "https://api.github.com/users/hebasto/received_events",
        "type": "User",
        "site_admin": false
      },
      "repo": {
        "id": 143212778,
        "node_id": "MDEwOlJlcG9zaXRvcnkxNDMyMTI3Nzg=",
        "name": "bitcoin",
        "full_name": "hebasto/bitcoin",
        "owner": {
          "login": "hebasto",
          "id": 32963518,
          "node_id": "MDQ6VXNlcjMyOTYzNTE4",
          "avatar_url": "https://avatars.githubusercontent.com/u/32963518?v=4",
          "gravatar_id": "",
          "url": "https://api.github.com/users/hebasto",
          "html_url": "https://github.com/hebasto",
          "followers_url": "https://api.github.com/users/hebasto/followers",
          "following_url": "https://api.github.com/users/hebasto/following%7B/other_user%7D",
          "gists_url": "https://api.github.com/users/hebasto/gists%7B/gist_id%7D",
          "starred_url": "https://api.github.com/users/hebasto/starred%7B/owner%7D%7B/repo%7D",
          "subscriptions_url": "https://api.github.com/users/hebasto/subscriptions",
          "organizations_url": "https://api.github.com/users/hebasto/orgs",
          "repos_url": "https://api.github.com/users/hebasto/repos",
          "events_url": "https://api.github.com/users/hebasto/events%7B/privacy%7D",
          "received_events_url": "https://api.github.com/users/hebasto/received_events",
          "type": "User",
          "site_admin": false
        },
        "private": false,
        "html_url": "https://github.com/hebasto/bitcoin",
        "description": "Bitcoin Core integration/staging tree",
        "fork": true,
        "url": "https://api.github.com/repos/hebasto/bitcoin",
        "archive_url": "https://api.github.com/repos/hebasto/bitcoin/%7Barchive_format%7D%7B/ref%7D",
        "assignees_url": "https://api.github.com/repos/hebasto/bitcoin/assignees%7B/user%7D",
        "blobs_url": "https://api.github.com/repos/hebasto/bitcoin/git/blobs%7B/sha%7D",
        "branches_url": "https://api.github.com/repos/hebasto/bitcoin/branches%7B/branch%7D",
        "collaborators_url": "https://api.github.com/repos/hebasto/bitcoin/collaborators%7B/collaborator%7D",
        "comments_url": "https://api.github.com/repos/hebasto/bitcoin/comments%7B/number%7D",
        "commits_url": "https://api.github.com/repos/hebasto/bitcoin/commits%7B/sha%7D",
        "compare_url": "https://api.github.com/repos/hebasto/bitcoin/compare/%7Bbase%7D...%7Bhead%7D",
        "contents_url": "https://api.github.com/repos/hebasto/bitcoin/contents/%7B+path%7D",
        "contributors_url": "https://api.github.com/repos/hebasto/bitcoin/contributors",
        "deployments_url": "https://api.github.com/repos/hebasto/bitcoin/deployments",
        "downloads_url": "https://api.github.com/repos/hebasto/bitcoin/downloads",
        "events_url": "https://api.github.com/repos/hebasto/bitcoin/events",
        "forks_url": "https://api.github.com/repos/hebasto/bitcoin/forks",
        "git_commits_url": "https://api.github.com/repos/hebasto/bitcoin/git/commits%7B/sha%7D",
        "git_refs_url": "https://api.github.com/repos/hebasto/bitcoin/git/refs%7B/sha%7D",
        "git_tags_url": "https://api.github.com/repos/hebasto/bitcoin/git/tags%7B/sha%7D",
        "git_url": "git://github.com/hebasto/bitcoin.git",
        "issue_comment_url": "https://api.github.com/repos/hebasto/bitcoin/issues/comments%7B/number%7D",
        "issue_events_url": "https://api.github.com/repos/hebasto/bitcoin/issues/events%7B/number%7D",
        "issues_url": "https://api.github.com/repos/hebasto/bitcoin/issues%7B/number%7D",
        "keys_url": "https://api.github.com/repos/hebasto/bitcoin/keys%7B/key_id%7D",
        "labels_url": "https://api.github.com/repos/hebasto/bitcoin/labels%7B/name%7D",
        "languages_url": "https://api.github.com/repos/hebasto/bitcoin/languages",
        "merges_url": "https://api.github.com/repos/hebasto/bitcoin/merges",
        "milestones_url": "https://api.github.com/repos/hebasto/bitcoin/milestones%7B/number%7D",
        "notifications_url": "https://api.github.com/repos/hebasto/bitcoin/notifications%7B?since,all,participating}",
        "pulls_url": "https://api.github.com/repos/hebasto/bitcoin/pulls%7B/number%7D",
        "releases_url": "https://api.github.com/repos/hebasto/bitcoin/releases%7B/id%7D",
        "ssh_url": "git@github.com:hebasto/bitcoin.git",
        "stargazers_url": "https://api.github.com/repos/hebasto/bitcoin/stargazers",
        "statuses_url": "https://api.github.com/repos/hebasto/bitcoin/statuses/%7Bsha%7D",
        "subscribers_url": "https://api.github.com/repos/hebasto/bitcoin/subscribers",
        "subscription_url": "https://api.github.com/repos/hebasto/bitcoin/subscription",
        "tags_url": "https://api.github.com/repos/hebasto/bitcoin/tags",
        "teams_url": "https://api.github.com/repos/hebasto/bitcoin/teams",
        "trees_url": "https://api.github.com/repos/hebasto/bitcoin/git/trees%7B/sha%7D",
        "clone_url": "https://github.com/hebasto/bitcoin.git",
        "hooks_url": "https://api.github.com/repos/hebasto/bitcoin/hooks",
        "svn_url": "https://github.com/hebasto/bitcoin",
        "homepage": "https://bitcoincore.org/en/download",
        "language": "C++",
        "forks_count": 3,
        "stargazers_count": 13,
        "watchers_count": 13,
        "size": 251607,
        "default_branch": "master",
        "open_issues_count": 3,
        "is_template": false,
        "topics": [
          "bitcoin-core"
        ],
        "has_issues": true,
        "has_projects": false,
        "has_wiki": false,
        "has_pages": false,
        "has_downloads": false,
        "archived": false,
        "disabled": false,
        "visibility": "public",
        "pushed_at": "2023-08-02T18:38:17Z",
        "created_at": "2018-08-01T21:59:57Z",
        "updated_at": "2023-07-25T14:18:54Z",
        "license": {
          "key": "mit",
          "name": "MIT License",
          "node_id": "MDc6TGljZW5zZTEz",
          "spdx_id": "MIT",
          "url": "https://api.github.com/licenses/mit",
          "html_url": null,
          "description": null,
          "implementation": null,
          "permissions": null,
          "conditions": null,
          "limitations": null,
          "body": null,
          "featured": null
        }
      }
    },
    "base": {
      "label": "bitcoin:master",
      "ref": "master",
      "sha": "f3bc1a72825fe2b51f4bc20e004cef464f05b965",
      "user": {
        "login": "bitcoin",
        "id": 528860,
        "node_id": "MDEyOk9yZ2FuaXphdGlvbjUyODg2MA==",
        "avatar_url": "https://avatars.githubusercontent.com/u/528860?v=4",
        "gravatar_id": "",
        "url": "https://api.github.com/users/bitcoin",
        "html_url": "https://github.com/bitcoin",
        "followers_url": "https://api.github.com/users/bitcoin/followers",
        "following_url": "https://api.github.com/users/bitcoin/following%7B/other_user%7D",
        "gists_url": "https://api.github.com/users/bitcoin/gists%7B/gist_id%7D",
        "starred_url": "https://api.github.com/users/bitcoin/starred%7B/owner%7D%7B/repo%7D",
        "subscriptions_url": "https://api.github.com/users/bitcoin/subscriptions",
        "organizations_url": "https://api.github.com/users/bitcoin/orgs",
        "repos_url": "https://api.github.com/users/bitcoin/repos",
        "events_url": "https://api.github.com/users/bitcoin/events%7B/privacy%7D",
        "received_events_url": "https://api.github.com/users/bitcoin/received_events",
        "type": "Organization",
        "site_admin": false
      },
      "repo": {
        "id": 1181927,
        "node_id": "MDEwOlJlcG9zaXRvcnkxMTgxOTI3",
        "name": "bitcoin",
        "full_name": "bitcoin/bitcoin",
        "owner": {
          "login": "bitcoin",
          "id": 528860,
          "node_id": "MDEyOk9yZ2FuaXphdGlvbjUyODg2MA==",
          "avatar_url": "https://avatars.githubusercontent.com/u/528860?v=4",
          "gravatar_id": "",
          "url": "https://api.github.com/users/bitcoin",
          "html_url": "https://github.com/bitcoin",
          "followers_url": "https://api.github.com/users/bitcoin/followers",
          "following_url": "https://api.github.com/users/bitcoin/following%7B/other_user%7D",
          "gists_url": "https://api.github.com/users/bitcoin/gists%7B/gist_id%7D",
          "starred_url": "https://api.github.com/users/bitcoin/starred%7B/owner%7D%7B/repo%7D",
          "subscriptions_url": "https://api.github.com/users/bitcoin/subscriptions",
          "organizations_url": "https://api.github.com/users/bitcoin/orgs",
          "repos_url": "https://api.github.com/users/bitcoin/repos",
          "events_url": "https://api.github.com/users/bitcoin/events%7B/privacy%7D",
          "received_events_url": "https://api.github.com/users/bitcoin/received_events",
          "type": "Organization",
          "site_admin": false
        },
        "private": false,
        "html_url": "https://github.com/bitcoin/bitcoin",
        "description": "Bitcoin Core integration/staging tree",
        "fork": false,
        "url": "https://api.github.com/repos/bitcoin/bitcoin",
        "archive_url": "https://api.github.com/repos/bitcoin/bitcoin/%7Barchive_format%7D%7B/ref%7D",
        "assignees_url": "https://api.github.com/repos/bitcoin/bitcoin/assignees%7B/user%7D",
        "blobs_url": "https://api.github.com/repos/bitcoin/bitcoin/git/blobs%7B/sha%7D",
        "branches_url": "https://api.github.com/repos/bitcoin/bitcoin/branches%7B/branch%7D",
        "collaborators_url": "https://api.github.com/repos/bitcoin/bitcoin/collaborators%7B/collaborator%7D",
        "comments_url": "https://api.github.com/repos/bitcoin/bitcoin/comments%7B/number%7D",
        "commits_url": "https://api.github.com/repos/bitcoin/bitcoin/commits%7B/sha%7D",
        "compare_url": "https://api.github.com/repos/bitcoin/bitcoin/compare/%7Bbase%7D...%7Bhead%7D",
        "contents_url": "https://api.github.com/repos/bitcoin/bitcoin/contents/%7B+path%7D",
        "contributors_url": "https://api.github.com/repos/bitcoin/bitcoin/contributors",
        "deployments_url": "https://api.github.com/repos/bitcoin/bitcoin/deployments",
        "downloads_url": "https://api.github.com/repos/bitcoin/bitcoin/downloads",
        "events_url": "https://api.github.com/repos/bitcoin/bitcoin/events",
        "forks_url": "https://api.github.com/repos/bitcoin/bitcoin/forks",
        "git_commits_url": "https://api.github.com/repos/bitcoin/bitcoin/git/commits%7B/sha%7D",
        "git_refs_url": "https://api.github.com/repos/bitcoin/bitcoin/git/refs%7B/sha%7D",
        "git_tags_url": "https://api.github.com/repos/bitcoin/bitcoin/git/tags%7B/sha%7D",
        "git_url": "git://github.com/bitcoin/bitcoin.git",
        "issue_comment_url": "https://api.github.com/repos/bitcoin/bitcoin/issues/comments%7B/number%7D",
        "issue_events_url": "https://api.github.com/repos/bitcoin/bitcoin/issues/events%7B/number%7D",
        "issues_url": "https://api.github.com/repos/bitcoin/bitcoin/issues%7B/number%7D",
        "keys_url": "https://api.github.com/repos/bitcoin/bitcoin/keys%7B/key_id%7D",
        "labels_url": "https://api.github.com/repos/bitcoin/bitcoin/labels%7B/name%7D",
        "languages_url": "https://api.github.com/repos/bitcoin/bitcoin/languages",
        "merges_url": "https://api.github.com/repos/bitcoin/bitcoin/merges",
        "milestones_url": "https://api.github.com/repos/bitcoin/bitcoin/milestones%7B/number%7D",
        "notifications_url": "https://api.github.com/repos/bitcoin/bitcoin/notifications%7B?since,all,participating}",
        "pulls_url": "https://api.github.com/repos/bitcoin/bitcoin/pulls%7B/number%7D",
        "releases_url": "https://api.github.com/repos/bitcoin/bitcoin/releases%7B/id%7D",
        "ssh_url": "git@github.com:bitcoin/bitcoin.git",
        "stargazers_url": "https://api.github.com/repos/bitcoin/bitcoin/stargazers",
        "statuses_url": "https://api.github.com/repos/bitcoin/bitcoin/statuses/%7Bsha%7D",
        "subscribers_url": "https://api.github.com/repos/bitcoin/bitcoin/subscribers",
        "subscription_url": "https://api.github.com/repos/bitcoin/bitcoin/subscription",
        "tags_url": "https://api.github.com/repos/bitcoin/bitcoin/tags",
        "teams_url": "https://api.github.com/repos/bitcoin/bitcoin/teams",
        "trees_url": "https://api.github.com/repos/bitcoin/bitcoin/git/trees%7B/sha%7D",
        "clone_url": "https://github.com/bitcoin/bitcoin.git",
        "hooks_url": "https://api.github.com/repos/bitcoin/bitcoin/hooks",
        "svn_url": "https://github.com/bitcoin/bitcoin",
        "homepage": "https://bitcoincore.org/en/download",
        "language": "C++",
        "forks_count": 35476,
        "stargazers_count": 70608,
        "watchers_count": 70608,
        "size": 236222,
        "default_branch": "master",
        "open_issues_count": 673,
        "is_template": false,
        "topics": [
          "bitcoin",
          "c-plus-plus",
          "cryptocurrency",
          "cryptography",
          "p2p"
        ],
        "has_issues": true,
        "has_projects": true,
        "has_wiki": false,
        "has_pages": false,
        "has_downloads": false,
        "archived": false,
        "disabled": false,
        "visibility": "public",
        "pushed_at": "2023-08-03T00:03:27Z",
        "created_at": "2010-12-19T15:16:43Z",
        "updated_at": "2023-08-02T18:21:18Z",
        "license": {
          "key": "mit",
          "name": "MIT License",
          "node_id": "MDc6TGljZW5zZTEz",
          "spdx_id": "MIT",
          "url": "https://api.github.com/licenses/mit",
          "html_url": null,
          "description": null,
          "implementation": null,
          "permissions": null,
          "conditions": null,
          "limitations": null,
          "body": null,
          "featured": null
        }
      }
    },
    "_links": {
      "self": {
        "href": "https://api.github.com/repos/bitcoin/bitcoin/pulls/26750"
      }
    },
    "author_association": "MEMBER",
    "draft": false,
    "additions": 776,
    "deletions": 772,
    "changed_files": 773,
    "commits": 2,
    "review_comments": 0,
    "comments": 1
  },
  "events": [
    {
      "event": "committed",
      "id": null,
      "node_id": "C_kwDOABII59oAKDMwNmNjZDQ5MjdhMmVmZTMyNWM4ZDg0YmUxYmRiNzllZGViMjliMDQ",
      "url": "https://api.github.com/repos/bitcoin/bitcoin/git/commits/306ccd4927a2efe325c8d84be1bdb79edeb29b04",
      "actor": null,
      "commit_id": null,
      "commit_url": null,
      "created_at": null,
      "html_url": "https://github.com/bitcoin/bitcoin/commit/306ccd4927a2efe325c8d84be1bdb79edeb29b04",
      "tree": {
        "sha": "cf433d61dd830137b58f6c9717de8360d217009b",
        "url": "https://api.github.com/repos/bitcoin/bitcoin/git/trees/cf433d61dd830137b58f6c9717de8360d217009b"
      },
      "verification": {
        "verified": true,
        "reason": "valid",
        "payload": "tree cf433d61dd830137b58f6c9717de8360d217009b\nparent f3bc1a72825fe2b51f4bc20e004cef464f05b965\nauthor Hennadii Stepanov <32963518+hebasto@users.noreply.github.com> 1671925790 +0000\ncommitter Hennadii Stepanov <32963518+hebasto@users.noreply.github.com> 1671925790 +0000\n\nscripted-diff: Bump copyright headers\n\n-BEGIN VERIFY SCRIPT-\n./contrib/devtools/copyright_header.py update ./\n-END VERIFY SCRIPT-\n\nCommits of previous years:\n- 2021: f47dda2c58b5d8d623e0e7ff4e74bc352dfa83d7\n- 2020: fa0074e2d82928016a43ca408717154a1c70a4db\n- 2019: aaaaad6ac95b402fe18d019d67897ced6b316ee0\n",
        "signature": "-----BEGIN PGP SIGNATURE-----\n\niQIzBAABCgAdFiEE0dvyxLlvLev0wWZUQQEIES5+qB8FAmOnkB4ACgkQQQEIES5+\nqB+09g//dGErqcwBSU9BQPtYJ6pvaCqnM+zb3HCK56n2rcITGmLKT+Ln5/eXJwiK\nImYECktMckxCd8U2/42ji6WHkRKiQJ56pI8o6EZxsslZD7y9DkutAuDR+u/+XOAj\nDX78YYWL4AP6ouDIR729QLB5SxqRUFJ8twE/S1mxicp7OTbvYWajy4YeMcGZbGXl\nBMoQZfUajXi7/zIUAb3ssfB1j3ZEEmgyI5ixP5a7jkYj+rebtBmDMjMuPZxj8Xpm\ntC3HL5Kyh00mJ3Hs+AyOiqRsuHoUbEagIRL469t3U46FznVY2RwISrGOFoL+poYD\n00gJI/NxGx6PsmS3OlBw9j0AMp8uR/vm/puBkKXxXvnIpubLF3za9FqlMqYOt4UY\nrDUBVJOz2LnH/DEIqKVvUf/J9u9JvrD/Cz2+IXsqmC3LG7ku0Dtal49OcbxjGp0O\nEeYyPH6yxETsK312yfEEnHC4OrDtnFIgm6MF1fQPv0wlO91QSk+f/9dy3GX4E0qn\nyG0+FmFiC8iUQ4cPj5zyNASkI9X721prVNrtsH1UpXlqPFGvcs8/kxOBH41UKyIZ\nZy13sxwWjCAuKt2AH7Zz7vCu05mDqkEcxIKkPnw1NYEpdj2D/XS/uU5IkB4YJF8E\nXJG9H+1yH76t1X95DOAPpLSHaoMuy1Ah5TdWYwuiKEfvhGkTpQc=\n=2z7X\n-----END PGP SIGNATURE-----"
      },
      "parents": [
        {
          "url": "https://api.github.com/repos/bitcoin/bitcoin/git/commits/f3bc1a72825fe2b51f4bc20e004cef464f05b965",
          "sha": "f3bc1a72825fe2b51f4bc20e004cef464f05b965",
          "html_url": "https://github.com/bitcoin/bitcoin/commit/f3bc1a72825fe2b51f4bc20e004cef464f05b965"
        }
      ],
      "message": "scripted-diff: Bump copyright headers\n\n-BEGIN VERIFY SCRIPT-\n./contrib/devtools/copyright_header.py update ./\n-END VERIFY SCRIPT-\n\nCommits of previous years:\n- 2021: f47dda2c58b5d8d623e0e7ff4e74bc352dfa83d7\n- 2020: fa0074e2d82928016a43ca408717154a1c70a4db\n- 2019: aaaaad6ac95b402fe18d019d67897ced6b316ee0",
      "committer": {
        "name": "Hennadii Stepanov",
        "email": "32963518+hebasto@users.noreply.github.com",
        "date": "2022-12-24T23:49:50Z"
      },
      "author": {
        "name": "Hennadii Stepanov",
        "email": "32963518+hebasto@users.noreply.github.com",
        "date": "2022-12-24T23:49:50Z"
      },
      "sha": "306ccd4927a2efe325c8d84be1bdb79edeb29b04"
    },
    {
      "event": "committed",
      "id": null,
      "node_id": "C_kwDOABII59oAKDNhZTc2ZWE2ZGRkMWZhZDQzMzMyYjdlMmI3OWUwYzQ0MWVjZjZkNjM",
      "url": "https://api.github.com/repos/bitcoin/bitcoin/git/commits/3ae76ea6ddd1fad43332b7e2b79e0c441ecf6d63",
      "actor": null,
      "commit_id": null,
      "commit_url": null,
      "created_at": null,
      "html_url": "https://github.com/bitcoin/bitcoin/commit/3ae76ea6ddd1fad43332b7e2b79e0c441ecf6d63",
      "tree": {
        "sha": "af3baf475a75234cf8b81aca2f00781dfa06230a",
        "url": "https://api.github.com/repos/bitcoin/bitcoin/git/trees/af3baf475a75234cf8b81aca2f00781dfa06230a"
      },
      "verification": {
        "verified": true,
        "reason": "valid",
        "payload": "tree af3baf475a75234cf8b81aca2f00781dfa06230a\nparent 306ccd4927a2efe325c8d84be1bdb79edeb29b04\nauthor Hennadii Stepanov <32963518+hebasto@users.noreply.github.com> 1671926352 +0000\ncommitter Hennadii Stepanov <32963518+hebasto@users.noreply.github.com> 1671926352 +0000\n\nscripted-diff: Insert missed copyright header\n\n-BEGIN VERIFY SCRIPT-\n./contrib/devtools/copyright_header.py insert src/policy/fees_args.cpp\n-END VERIFY SCRIPT-\n",
        "signature": "-----BEGIN PGP SIGNATURE-----\n\niQIzBAABCgAdFiEE0dvyxLlvLev0wWZUQQEIES5+qB8FAmOnklAACgkQQQEIES5+\nqB9OTw//VA952bvY6f7MoRH0cWijv/GNZ9pKJuD18GNPCXuHd5mJQwH9aZKsq6pn\nKm1FeUnDdQo7we4Wn5S2Xpd3Gf0HaP93L78kXWZA6VKUFxOXWqhS1QUOjKvdyUkQ\nZ/s56jDdtjJTZnpx+YG7hXLxc3Pm2Hw0UT/nuZdaQoYSBnj+ro9EVNsgWvH7thbD\nCil4uONyzOJitd7iRmTGkerM35JryPiNpbmv7Q+FDkrQR8A/Nvew60gJwXu4AG7q\n+0BMTheVK4Vc1kgTSwAUAulRCshbzLCrWDOw3WdvaYEYOiWoyMQ/v7vuCTfnAdMW\nabRCKmQzzPV4ed9BgFdz40KsEpKNBDzQQ5SDJWc4zfow3V2vRjg0iu59+Ffo5RqR\npHD9O4yTMSxZvpOKk5qopRPNXhM14nTcnfnlHQudm2msMA6RhxkOvzN7/Ds9KoF5\n6UVDHiBOa0pJAZXKtXJgxYPc4ODhNQTM7p7vwn9iPeuL7OKDGt93mWltOsHyyMmp\n/gdIQY5ineAvwALlsFSbDD8Kd+xiyQ3t/Sh0Z+7tw+llHBeOmTb0gt6yCbNKv8kq\nDKKQmYRujdOe524FGhq6oEr3bqrYL4hiuTiYsQw+j1naLw6V0SGz0G5ee3r6RhIq\noVkvmHheedpHK5Qf3qHrWtGVlJOjR5TNKMHYQxmFy0ob2xkpbyk=\n=jAEG\n-----END PGP SIGNATURE-----"
      },
      "parents": [
        {
          "url": "https://api.github.com/repos/bitcoin/bitcoin/git/commits/306ccd4927a2efe325c8d84be1bdb79edeb29b04",
          "sha": "306ccd4927a2efe325c8d84be1bdb79edeb29b04",
          "html_url": "https://github.com/bitcoin/bitcoin/commit/306ccd4927a2efe325c8d84be1bdb79edeb29b04"
        }
      ],
      "message": "scripted-diff: Insert missed copyright header\n\n-BEGIN VERIFY SCRIPT-\n./contrib/devtools/copyright_header.py insert src/policy/fees_args.cpp\n-END VERIFY SCRIPT-",
      "committer": {
        "name": "Hennadii Stepanov",
        "email": "32963518+hebasto@users.noreply.github.com",
        "date": "2022-12-24T23:59:12Z"
      },
      "author": {
        "name": "Hennadii Stepanov",
        "email": "32963518+hebasto@users.noreply.github.com",
        "date": "2022-12-24T23:59:12Z"
      },
      "sha": "3ae76ea6ddd1fad43332b7e2b79e0c441ecf6d63"
    },
    {
      "event": "commented",
      "id": 1364597548,
      "node_id": "IC_kwDOABII585RVhss",
      "url": "https://api.github.com/repos/bitcoin/bitcoin/issues/comments/1364597548",
      "actor": {
        "login": "DrahtBot",
        "id": 39886733,
        "node_id": "MDQ6VXNlcjM5ODg2NzMz",
        "avatar_url": "https://avatars.githubusercontent.com/u/39886733?v=4",
        "gravatar_id": "",
        "url": "https://api.github.com/users/DrahtBot",
        "html_url": "https://github.com/DrahtBot",
        "followers_url": "https://api.github.com/users/DrahtBot/followers",
        "following_url": "https://api.github.com/users/DrahtBot/following%7B/other_user%7D",
        "gists_url": "https://api.github.com/users/DrahtBot/gists%7B/gist_id%7D",
        "starred_url": "https://api.github.com/users/DrahtBot/starred%7B/owner%7D%7B/repo%7D",
        "subscriptions_url": "https://api.github.com/users/DrahtBot/subscriptions",
        "organizations_url": "https://api.github.com/users/DrahtBot/orgs",
        "repos_url": "https://api.github.com/users/DrahtBot/repos",
        "events_url": "https://api.github.com/users/DrahtBot/events%7B/privacy%7D",
        "received_events_url": "https://api.github.com/users/DrahtBot/received_events",
        "type": "User",
        "site_admin": false
      },
      "commit_id": null,
      "commit_url": null,
      "created_at": "2022-12-25T00:02:09Z",
      "updated_at": "2022-12-25T00:02:09Z",
      "author_association": "CONTRIBUTOR",
      "body": "<!--e57a25ab6845829454e8d69fc972939a-->\n\nThe following sections might be updated with supplementary metadata relevant to reviewers and maintainers.\n\n<!--021abf342d371248e50ceaed478a90ca-->\n### Reviews\nSee [the guideline](https://github.com/bitcoin/bitcoin/blob/master/CONTRIBUTING.md#code-review) for information on the review process.\nA summary of reviews will appear here.\n",
      "user": {
        "login": "DrahtBot",
        "id": 39886733,
        "node_id": "MDQ6VXNlcjM5ODg2NzMz",
        "avatar_url": "https://avatars.githubusercontent.com/u/39886733?v=4",
        "gravatar_id": "",
        "url": "https://api.github.com/users/DrahtBot",
        "html_url": "https://github.com/DrahtBot",
        "followers_url": "https://api.github.com/users/DrahtBot/followers",
        "following_url": "https://api.github.com/users/DrahtBot/following%7B/other_user%7D",
        "gists_url": "https://api.github.com/users/DrahtBot/gists%7B/gist_id%7D",
        "starred_url": "https://api.github.com/users/DrahtBot/starred%7B/owner%7D%7B/repo%7D",
        "subscriptions_url": "https://api.github.com/users/DrahtBot/subscriptions",
        "organizations_url": "https://api.github.com/users/DrahtBot/orgs",
        "repos_url": "https://api.github.com/users/DrahtBot/repos",
        "events_url": "https://api.github.com/users/DrahtBot/events%7B/privacy%7D",
        "received_events_url": "https://api.github.com/users/DrahtBot/received_events",
        "type": "User",
        "site_admin": false
      },
      "html_url": "https://github.com/bitcoin/bitcoin/pull/26750#issuecomment-1364597548",
      "issue_url": "https://api.github.com/repos/bitcoin/bitcoin/issues/26750"
    },
    {
      "event": "merged",
      "id": 8108236090,
      "node_id": "ME_lADOABII585aA_9TzwAAAAHjSd06",
      "url": "https://api.github.com/repos/bitcoin/bitcoin/issues/events/8108236090",
      "actor": {
        "login": "MarcoFalke",
        "id": 6399679,
        "node_id": "MDQ6VXNlcjYzOTk2Nzk=",
        "avatar_url": "https://avatars.githubusercontent.com/u/6399679?v=4",
        "gravatar_id": "",
        "url": "https://api.github.com/users/MarcoFalke",
        "html_url": "https://github.com/MarcoFalke",
        "followers_url": "https://api.github.com/users/MarcoFalke/followers",
        "following_url": "https://api.github.com/users/MarcoFalke/following%7B/other_user%7D",
        "gists_url": "https://api.github.com/users/MarcoFalke/gists%7B/gist_id%7D",
        "starred_url": "https://api.github.com/users/MarcoFalke/starred%7B/owner%7D%7B/repo%7D",
        "subscriptions_url": "https://api.github.com/users/MarcoFalke/subscriptions",
        "organizations_url": "https://api.github.com/users/MarcoFalke/orgs",
        "repos_url": "https://api.github.com/users/MarcoFalke/repos",
        "events_url": "https://api.github.com/users/MarcoFalke/events%7B/privacy%7D",
        "received_events_url": "https://api.github.com/users/MarcoFalke/received_events",
        "type": "User",
        "site_admin": false
      },
      "commit_id": "e9262ea32a6e1d364fb7974844fadc36f931f8c6",
      "commit_url": "https://api.github.com/repos/bitcoin/bitcoin/commits/e9262ea32a6e1d364fb7974844fadc36f931f8c6",
      "created_at": "2022-12-25T09:52:23Z"
    },
    {
      "event": "closed",
      "id": 8108236093,
      "node_id": "CE_lADOABII585aA_9TzwAAAAHjSd09",
      "url": "https://api.github.com/repos/bitcoin/bitcoin/issues/events/8108236093",
      "actor": {
        "login": "MarcoFalke",
        "id": 6399679,
        "node_id": "MDQ6VXNlcjYzOTk2Nzk=",
        "avatar_url": "https://avatars.githubusercontent.com/u/6399679?v=4",
        "gravatar_id": "",
        "url": "https://api.github.com/users/MarcoFalke",
        "html_url": "https://github.com/MarcoFalke",
        "followers_url": "https://api.github.com/users/MarcoFalke/followers",
        "following_url": "https://api.github.com/users/MarcoFalke/following%7B/other_user%7D",
        "gists_url": "https://api.github.com/users/MarcoFalke/gists%7B/gist_id%7D",
        "starred_url": "https://api.github.com/users/MarcoFalke/starred%7B/owner%7D%7B/repo%7D",
        "subscriptions_url": "https://api.github.com/users/MarcoFalke/subscriptions",
        "organizations_url": "https://api.github.com/users/MarcoFalke/orgs",
        "repos_url": "https://api.github.com/users/MarcoFalke/repos",
        "events_url": "https://api.github.com/users/MarcoFalke/events%7B/privacy%7D",
        "received_events_url": "https://api.github.com/users/MarcoFalke/received_events",
        "type": "User",
        "site_admin": false
      },
      "commit_id": null,
      "commit_url": null,
      "created_at": "2022-12-25T09:52:23Z"
    },
    {
      "event": "head_ref_deleted",
      "id": 8108339753,
      "node_id": "HRDE_lADOABII585aA_9TzwAAAAHjS3Ip",
      "url": "https://api.github.com/repos/bitcoin/bitcoin/issues/events/8108339753",
      "actor": {
        "login": "hebasto",
        "id": 32963518,
        "node_id": "MDQ6VXNlcjMyOTYzNTE4",
        "avatar_url": "https://avatars.githubusercontent.com/u/32963518?v=4",
        "gravatar_id": "",
        "url": "https://api.github.com/users/hebasto",
        "html_url": "https://github.com/hebasto",
        "followers_url": "https://api.github.com/users/hebasto/followers",
        "following_url": "https://api.github.com/users/hebasto/following%7B/other_user%7D",
        "gists_url": "https://api.github.com/users/hebasto/gists%7B/gist_id%7D",
        "starred_url": "https://api.github.com/users/hebasto/starred%7B/owner%7D%7B/repo%7D",
        "subscriptions_url": "https://api.github.com/users/hebasto/subscriptions",
        "organizations_url": "https://api.github.com/users/hebasto/orgs",
        "repos_url": "https://api.github.com/users/hebasto/repos",
        "events_url": "https://api.github.com/users/hebasto/events%7B/privacy%7D",
        "received_events_url": "https://api.github.com/users/hebasto/received_events",
        "type": "User",
        "site_admin": false
      },
      "commit_id": null,
      "commit_url": null,
      "created_at": "2022-12-25T12:00:38Z"
    },
    {
      "event": "referenced",
      "id": 8108618483,
      "node_id": "REFE_lADOABII585aA_9TzwAAAAHjT7Lz",
      "url": "https://api.github.com/repos/bitcoin/bitcoin/issues/events/8108618483",
      "actor": {
        "login": "sidhujag",
        "id": 6238042,
        "node_id": "MDQ6VXNlcjYyMzgwNDI=",
        "avatar_url": "https://avatars.githubusercontent.com/u/6238042?v=4",
        "gravatar_id": "",
        "url": "https://api.github.com/users/sidhujag",
        "html_url": "https://github.com/sidhujag",
        "followers_url": "https://api.github.com/users/sidhujag/followers",
        "following_url": "https://api.github.com/users/sidhujag/following%7B/other_user%7D",
        "gists_url": "https://api.github.com/users/sidhujag/gists%7B/gist_id%7D",
        "starred_url": "https://api.github.com/users/sidhujag/starred%7B/owner%7D%7B/repo%7D",
        "subscriptions_url": "https://api.github.com/users/sidhujag/subscriptions",
        "organizations_url": "https://api.github.com/users/sidhujag/orgs",
        "repos_url": "https://api.github.com/users/sidhujag/repos",
        "events_url": "https://api.github.com/users/sidhujag/events%7B/privacy%7D",
        "received_events_url": "https://api.github.com/users/sidhujag/received_events",
        "type": "User",
        "site_admin": false
      },
      "commit_id": "1da2f745995c644b54effb6f782a796c9f04d90b",
      "commit_url": "https://api.github.com/repos/syscoin/syscoin/commits/1da2f745995c644b54effb6f782a796c9f04d90b",
      "created_at": "2022-12-25T17:24:35Z"
    },
    {
      "event": "cross-referenced",
      "id": null,
      "node_id": null,
      "url": null,
      "actor": {
        "login": "hebasto",
        "id": 32963518,
        "node_id": "MDQ6VXNlcjMyOTYzNTE4",
        "avatar_url": "https://avatars.githubusercontent.com/u/32963518?v=4",
        "gravatar_id": "",
        "url": "https://api.github.com/users/hebasto",
        "html_url": "https://github.com/hebasto",
        "followers_url": "https://api.github.com/users/hebasto/followers",
        "following_url": "https://api.github.com/users/hebasto/following%7B/other_user%7D",
        "gists_url": "https://api.github.com/users/hebasto/gists%7B/gist_id%7D",
        "starred_url": "https://api.github.com/users/hebasto/starred%7B/owner%7D%7B/repo%7D",
        "subscriptions_url": "https://api.github.com/users/hebasto/subscriptions",
        "organizations_url": "https://api.github.com/users/hebasto/orgs",
        "repos_url": "https://api.github.com/users/hebasto/repos",
        "events_url": "https://api.github.com/users/hebasto/events%7B/privacy%7D",
        "received_events_url": "https://api.github.com/users/hebasto/received_events",
        "type": "User",
        "site_admin": false
      },
      "commit_id": null,
      "commit_url": null,
      "created_at": "2022-12-31T20:11:41Z",
      "updated_at": "2022-12-31T20:11:41Z",
      "source": {
        "issue": {
          "id": 1515193701,
          "node_id": "PR_kwDOABII585GbJUG",
          "url": "https://api.github.com/repos/bitcoin/bitcoin/issues/26784",
          "repository_url": "https://api.github.com/repos/bitcoin/bitcoin",
          "labels_url": "https://api.github.com/repos/bitcoin/bitcoin/issues/26784/labels%7B/name%7D",
          "comments_url": "https://api.github.com/repos/bitcoin/bitcoin/issues/26784/comments",
          "events_url": "https://api.github.com/repos/bitcoin/bitcoin/issues/26784/events",
          "html_url": "https://github.com/bitcoin/bitcoin/pull/26784",
          "number": 26784,
          "state": "closed",
          "state_reason": null,
          "title": "Update key_io.cpp",
          "body": "This commit changes the year date from 2021 to 2023.\r\n",
          "user": {
            "login": "SmashedFrenzy16",
            "id": 68993968,
            "node_id": "MDQ6VXNlcjY4OTkzOTY4",
            "avatar_url": "https://avatars.githubusercontent.com/u/68993968?v=4",
            "gravatar_id": "",
            "url": "https://api.github.com/users/SmashedFrenzy16",
            "html_url": "https://github.com/SmashedFrenzy16",
            "followers_url": "https://api.github.com/users/SmashedFrenzy16/followers",
            "following_url": "https://api.github.com/users/SmashedFrenzy16/following%7B/other_user%7D",
            "gists_url": "https://api.github.com/users/SmashedFrenzy16/gists%7B/gist_id%7D",
            "starred_url": "https://api.github.com/users/SmashedFrenzy16/starred%7B/owner%7D%7B/repo%7D",
            "subscriptions_url": "https://api.github.com/users/SmashedFrenzy16/subscriptions",
            "organizations_url": "https://api.github.com/users/SmashedFrenzy16/orgs",
            "repos_url": "https://api.github.com/users/SmashedFrenzy16/repos",
            "events_url": "https://api.github.com/users/SmashedFrenzy16/events%7B/privacy%7D",
            "received_events_url": "https://api.github.com/users/SmashedFrenzy16/received_events",
            "type": "User",
            "site_admin": false
          },
          "labels": [],
          "assignees": [],
          "author_association": "NONE",
          "locked": false,
          "comments": 2,
          "pull_request": {
            "url": "https://api.github.com/repos/bitcoin/bitcoin/pulls/26784",
            "html_url": "https://github.com/bitcoin/bitcoin/pull/26784",
            "diff_url": "https://github.com/bitcoin/bitcoin/pull/26784.diff",
            "patch_url": "https://github.com/bitcoin/bitcoin/pull/26784.patch"
          },
          "closed_at": "2022-12-31T20:11:45Z",
          "created_at": "2022-12-31T19:58:04Z",
          "updated_at": "2022-12-31T20:11:45Z"
        },
        "type": "issue"
      }
    }
  ],
  "comments": []
}