{
  "type": "pull",
  "pull": {
    "url": "https://api.github.com/repos/bitcoin/bitcoin/pulls/26770",
    "id": 1180456739,
    "node_id": "PR_kwDOABII585GXFcj",
    "html_url": "https://github.com/bitcoin/bitcoin/pull/26770",
    "diff_url": "https://github.com/bitcoin/bitcoin/pull/26770.diff",
    "patch_url": "https://github.com/bitcoin/bitcoin/pull/26770.patch",
    "issue_url": "https://api.github.com/repos/bitcoin/bitcoin/issues/26770",
    "commits_url": "https://api.github.com/repos/bitcoin/bitcoin/pulls/26770/commits",
    "review_comments_url": "https://api.github.com/repos/bitcoin/bitcoin/pulls/26770/comments",
    "review_comment_url": "https://api.github.com/repos/bitcoin/bitcoin/pulls/comments%7B/number%7D",
    "comments_url": "https://api.github.com/repos/bitcoin/bitcoin/issues/26770/comments",
    "statuses_url": "https://api.github.com/repos/bitcoin/bitcoin/statuses/afc60524305669b54ffa8857e3c053c6db6375f8",
    "number": 26770,
    "state": "closed",
    "locked": false,
    "maintainer_can_modify": false,
    "title": "ci: Move `--enable-c++20` from \"tidy\" task back to \"ASan...\" one",
    "user": {
      "login": "hebasto",
      "id": 32963518,
      "node_id": "MDQ6VXNlcjMyOTYzNTE4",
      "avatar_url": "https://avatars.githubusercontent.com/u/32963518?v=4",
      "gravatar_id": "",
      "url": "https://api.github.com/users/hebasto",
      "html_url": "https://github.com/hebasto",
      "followers_url": "https://api.github.com/users/hebasto/followers",
      "following_url": "https://api.github.com/users/hebasto/following%7B/other_user%7D",
      "gists_url": "https://api.github.com/users/hebasto/gists%7B/gist_id%7D",
      "starred_url": "https://api.github.com/users/hebasto/starred%7B/owner%7D%7B/repo%7D",
      "subscriptions_url": "https://api.github.com/users/hebasto/subscriptions",
      "organizations_url": "https://api.github.com/users/hebasto/orgs",
      "repos_url": "https://api.github.com/users/hebasto/repos",
      "events_url": "https://api.github.com/users/hebasto/events%7B/privacy%7D",
      "received_events_url": "https://api.github.com/users/hebasto/received_events",
      "type": "User",
      "site_admin": false
    },
    "body": "This PR reverts cc7335edc87c6ef34429b4df94f53973db520aac from https://github.com/bitcoin/bitcoin/pull/25528 partially.\r\n\r\nC++20 has introduced some new headers, and it is premature to consider them when using the IWYU tool.\r\n\r\nRequired for https://github.com/bitcoin/bitcoin/pull/26763 and https://github.com/bitcoin/bitcoin/pull/26766.\r\n\r\nRelated discussions:\r\n- https://github.com/bitcoin/bitcoin/pull/25528#discussion_r1058906785\r\n- https://github.com/bitcoin/bitcoin/pull/26763#discussion_r1058860943\r\n",
    "labels": [
      {
        "id": 62963516,
        "node_id": "MDU6TGFiZWw2Mjk2MzUxNg==",
        "url": "https://api.github.com/repos/bitcoin/bitcoin/labels/Tests",
        "name": "Tests",
        "color": "d4c5f9",
        "default": false
      }
    ],
    "created_at": "2022-12-29T18:45:54Z",
    "updated_at": "2022-12-31T11:44:44Z",
    "closed_at": "2022-12-29T19:52:08Z",
    "mergeable_state": "unknown",
    "merged_at": "2022-12-29T19:52:08Z",
    "merge_commit_sha": "65de8eeeca29e71378aa34602b287ab921b040e4",
    "assignees": [],
    "requested_reviewers": [],
    "requested_teams": [],
    "head": {
      "label": "hebasto:221229-c++20",
      "ref": "221229-c++20",
      "sha": "afc60524305669b54ffa8857e3c053c6db6375f8",
      "user": {
        "login": "hebasto",
        "id": 32963518,
        "node_id": "MDQ6VXNlcjMyOTYzNTE4",
        "avatar_url": "https://avatars.githubusercontent.com/u/32963518?v=4",
        "gravatar_id": "",
        "url": "https://api.github.com/users/hebasto",
        "html_url": "https://github.com/hebasto",
        "followers_url": "https://api.github.com/users/hebasto/followers",
        "following_url": "https://api.github.com/users/hebasto/following%7B/other_user%7D",
        "gists_url": "https://api.github.com/users/hebasto/gists%7B/gist_id%7D",
        "starred_url": "https://api.github.com/users/hebasto/starred%7B/owner%7D%7B/repo%7D",
        "subscriptions_url": "https://api.github.com/users/hebasto/subscriptions",
        "organizations_url": "https://api.github.com/users/hebasto/orgs",
        "repos_url": "https://api.github.com/users/hebasto/repos",
        "events_url": "https://api.github.com/users/hebasto/events%7B/privacy%7D",
        "received_events_url": "https://api.github.com/users/hebasto/received_events",
        "type": "User",
        "site_admin": false
      },
      "repo": {
        "id": 143212778,
        "node_id": "MDEwOlJlcG9zaXRvcnkxNDMyMTI3Nzg=",
        "name": "bitcoin",
        "full_name": "hebasto/bitcoin",
        "owner": {
          "login": "hebasto",
          "id": 32963518,
          "node_id": "MDQ6VXNlcjMyOTYzNTE4",
          "avatar_url": "https://avatars.githubusercontent.com/u/32963518?v=4",
          "gravatar_id": "",
          "url": "https://api.github.com/users/hebasto",
          "html_url": "https://github.com/hebasto",
          "followers_url": "https://api.github.com/users/hebasto/followers",
          "following_url": "https://api.github.com/users/hebasto/following%7B/other_user%7D",
          "gists_url": "https://api.github.com/users/hebasto/gists%7B/gist_id%7D",
          "starred_url": "https://api.github.com/users/hebasto/starred%7B/owner%7D%7B/repo%7D",
          "subscriptions_url": "https://api.github.com/users/hebasto/subscriptions",
          "organizations_url": "https://api.github.com/users/hebasto/orgs",
          "repos_url": "https://api.github.com/users/hebasto/repos",
          "events_url": "https://api.github.com/users/hebasto/events%7B/privacy%7D",
          "received_events_url": "https://api.github.com/users/hebasto/received_events",
          "type": "User",
          "site_admin": false
        },
        "private": false,
        "html_url": "https://github.com/hebasto/bitcoin",
        "description": "Bitcoin Core integration/staging tree",
        "fork": true,
        "url": "https://api.github.com/repos/hebasto/bitcoin",
        "archive_url": "https://api.github.com/repos/hebasto/bitcoin/%7Barchive_format%7D%7B/ref%7D",
        "assignees_url": "https://api.github.com/repos/hebasto/bitcoin/assignees%7B/user%7D",
        "blobs_url": "https://api.github.com/repos/hebasto/bitcoin/git/blobs%7B/sha%7D",
        "branches_url": "https://api.github.com/repos/hebasto/bitcoin/branches%7B/branch%7D",
        "collaborators_url": "https://api.github.com/repos/hebasto/bitcoin/collaborators%7B/collaborator%7D",
        "comments_url": "https://api.github.com/repos/hebasto/bitcoin/comments%7B/number%7D",
        "commits_url": "https://api.github.com/repos/hebasto/bitcoin/commits%7B/sha%7D",
        "compare_url": "https://api.github.com/repos/hebasto/bitcoin/compare/%7Bbase%7D...%7Bhead%7D",
        "contents_url": "https://api.github.com/repos/hebasto/bitcoin/contents/%7B+path%7D",
        "contributors_url": "https://api.github.com/repos/hebasto/bitcoin/contributors",
        "deployments_url": "https://api.github.com/repos/hebasto/bitcoin/deployments",
        "downloads_url": "https://api.github.com/repos/hebasto/bitcoin/downloads",
        "events_url": "https://api.github.com/repos/hebasto/bitcoin/events",
        "forks_url": "https://api.github.com/repos/hebasto/bitcoin/forks",
        "git_commits_url": "https://api.github.com/repos/hebasto/bitcoin/git/commits%7B/sha%7D",
        "git_refs_url": "https://api.github.com/repos/hebasto/bitcoin/git/refs%7B/sha%7D",
        "git_tags_url": "https://api.github.com/repos/hebasto/bitcoin/git/tags%7B/sha%7D",
        "git_url": "git://github.com/hebasto/bitcoin.git",
        "issue_comment_url": "https://api.github.com/repos/hebasto/bitcoin/issues/comments%7B/number%7D",
        "issue_events_url": "https://api.github.com/repos/hebasto/bitcoin/issues/events%7B/number%7D",
        "issues_url": "https://api.github.com/repos/hebasto/bitcoin/issues%7B/number%7D",
        "keys_url": "https://api.github.com/repos/hebasto/bitcoin/keys%7B/key_id%7D",
        "labels_url": "https://api.github.com/repos/hebasto/bitcoin/labels%7B/name%7D",
        "languages_url": "https://api.github.com/repos/hebasto/bitcoin/languages",
        "merges_url": "https://api.github.com/repos/hebasto/bitcoin/merges",
        "milestones_url": "https://api.github.com/repos/hebasto/bitcoin/milestones%7B/number%7D",
        "notifications_url": "https://api.github.com/repos/hebasto/bitcoin/notifications%7B?since,all,participating}",
        "pulls_url": "https://api.github.com/repos/hebasto/bitcoin/pulls%7B/number%7D",
        "releases_url": "https://api.github.com/repos/hebasto/bitcoin/releases%7B/id%7D",
        "ssh_url": "git@github.com:hebasto/bitcoin.git",
        "stargazers_url": "https://api.github.com/repos/hebasto/bitcoin/stargazers",
        "statuses_url": "https://api.github.com/repos/hebasto/bitcoin/statuses/%7Bsha%7D",
        "subscribers_url": "https://api.github.com/repos/hebasto/bitcoin/subscribers",
        "subscription_url": "https://api.github.com/repos/hebasto/bitcoin/subscription",
        "tags_url": "https://api.github.com/repos/hebasto/bitcoin/tags",
        "teams_url": "https://api.github.com/repos/hebasto/bitcoin/teams",
        "trees_url": "https://api.github.com/repos/hebasto/bitcoin/git/trees%7B/sha%7D",
        "clone_url": "https://github.com/hebasto/bitcoin.git",
        "hooks_url": "https://api.github.com/repos/hebasto/bitcoin/hooks",
        "svn_url": "https://github.com/hebasto/bitcoin",
        "homepage": "https://bitcoincore.org/en/download",
        "language": "C++",
        "forks_count": 3,
        "stargazers_count": 13,
        "watchers_count": 13,
        "size": 251607,
        "default_branch": "master",
        "open_issues_count": 3,
        "is_template": false,
        "topics": [
          "bitcoin-core"
        ],
        "has_issues": true,
        "has_projects": false,
        "has_wiki": false,
        "has_pages": false,
        "has_downloads": false,
        "archived": false,
        "disabled": false,
        "visibility": "public",
        "pushed_at": "2023-08-02T18:38:17Z",
        "created_at": "2018-08-01T21:59:57Z",
        "updated_at": "2023-07-25T14:18:54Z",
        "license": {
          "key": "mit",
          "name": "MIT License",
          "node_id": "MDc6TGljZW5zZTEz",
          "spdx_id": "MIT",
          "url": "https://api.github.com/licenses/mit",
          "html_url": null,
          "description": null,
          "implementation": null,
          "permissions": null,
          "conditions": null,
          "limitations": null,
          "body": null,
          "featured": null
        }
      }
    },
    "base": {
      "label": "bitcoin:master",
      "ref": "master",
      "sha": "3b6e0f0345a5e7b437881f651d9b4e0881f7fd5e",
      "user": {
        "login": "bitcoin",
        "id": 528860,
        "node_id": "MDEyOk9yZ2FuaXphdGlvbjUyODg2MA==",
        "avatar_url": "https://avatars.githubusercontent.com/u/528860?v=4",
        "gravatar_id": "",
        "url": "https://api.github.com/users/bitcoin",
        "html_url": "https://github.com/bitcoin",
        "followers_url": "https://api.github.com/users/bitcoin/followers",
        "following_url": "https://api.github.com/users/bitcoin/following%7B/other_user%7D",
        "gists_url": "https://api.github.com/users/bitcoin/gists%7B/gist_id%7D",
        "starred_url": "https://api.github.com/users/bitcoin/starred%7B/owner%7D%7B/repo%7D",
        "subscriptions_url": "https://api.github.com/users/bitcoin/subscriptions",
        "organizations_url": "https://api.github.com/users/bitcoin/orgs",
        "repos_url": "https://api.github.com/users/bitcoin/repos",
        "events_url": "https://api.github.com/users/bitcoin/events%7B/privacy%7D",
        "received_events_url": "https://api.github.com/users/bitcoin/received_events",
        "type": "Organization",
        "site_admin": false
      },
      "repo": {
        "id": 1181927,
        "node_id": "MDEwOlJlcG9zaXRvcnkxMTgxOTI3",
        "name": "bitcoin",
        "full_name": "bitcoin/bitcoin",
        "owner": {
          "login": "bitcoin",
          "id": 528860,
          "node_id": "MDEyOk9yZ2FuaXphdGlvbjUyODg2MA==",
          "avatar_url": "https://avatars.githubusercontent.com/u/528860?v=4",
          "gravatar_id": "",
          "url": "https://api.github.com/users/bitcoin",
          "html_url": "https://github.com/bitcoin",
          "followers_url": "https://api.github.com/users/bitcoin/followers",
          "following_url": "https://api.github.com/users/bitcoin/following%7B/other_user%7D",
          "gists_url": "https://api.github.com/users/bitcoin/gists%7B/gist_id%7D",
          "starred_url": "https://api.github.com/users/bitcoin/starred%7B/owner%7D%7B/repo%7D",
          "subscriptions_url": "https://api.github.com/users/bitcoin/subscriptions",
          "organizations_url": "https://api.github.com/users/bitcoin/orgs",
          "repos_url": "https://api.github.com/users/bitcoin/repos",
          "events_url": "https://api.github.com/users/bitcoin/events%7B/privacy%7D",
          "received_events_url": "https://api.github.com/users/bitcoin/received_events",
          "type": "Organization",
          "site_admin": false
        },
        "private": false,
        "html_url": "https://github.com/bitcoin/bitcoin",
        "description": "Bitcoin Core integration/staging tree",
        "fork": false,
        "url": "https://api.github.com/repos/bitcoin/bitcoin",
        "archive_url": "https://api.github.com/repos/bitcoin/bitcoin/%7Barchive_format%7D%7B/ref%7D",
        "assignees_url": "https://api.github.com/repos/bitcoin/bitcoin/assignees%7B/user%7D",
        "blobs_url": "https://api.github.com/repos/bitcoin/bitcoin/git/blobs%7B/sha%7D",
        "branches_url": "https://api.github.com/repos/bitcoin/bitcoin/branches%7B/branch%7D",
        "collaborators_url": "https://api.github.com/repos/bitcoin/bitcoin/collaborators%7B/collaborator%7D",
        "comments_url": "https://api.github.com/repos/bitcoin/bitcoin/comments%7B/number%7D",
        "commits_url": "https://api.github.com/repos/bitcoin/bitcoin/commits%7B/sha%7D",
        "compare_url": "https://api.github.com/repos/bitcoin/bitcoin/compare/%7Bbase%7D...%7Bhead%7D",
        "contents_url": "https://api.github.com/repos/bitcoin/bitcoin/contents/%7B+path%7D",
        "contributors_url": "https://api.github.com/repos/bitcoin/bitcoin/contributors",
        "deployments_url": "https://api.github.com/repos/bitcoin/bitcoin/deployments",
        "downloads_url": "https://api.github.com/repos/bitcoin/bitcoin/downloads",
        "events_url": "https://api.github.com/repos/bitcoin/bitcoin/events",
        "forks_url": "https://api.github.com/repos/bitcoin/bitcoin/forks",
        "git_commits_url": "https://api.github.com/repos/bitcoin/bitcoin/git/commits%7B/sha%7D",
        "git_refs_url": "https://api.github.com/repos/bitcoin/bitcoin/git/refs%7B/sha%7D",
        "git_tags_url": "https://api.github.com/repos/bitcoin/bitcoin/git/tags%7B/sha%7D",
        "git_url": "git://github.com/bitcoin/bitcoin.git",
        "issue_comment_url": "https://api.github.com/repos/bitcoin/bitcoin/issues/comments%7B/number%7D",
        "issue_events_url": "https://api.github.com/repos/bitcoin/bitcoin/issues/events%7B/number%7D",
        "issues_url": "https://api.github.com/repos/bitcoin/bitcoin/issues%7B/number%7D",
        "keys_url": "https://api.github.com/repos/bitcoin/bitcoin/keys%7B/key_id%7D",
        "labels_url": "https://api.github.com/repos/bitcoin/bitcoin/labels%7B/name%7D",
        "languages_url": "https://api.github.com/repos/bitcoin/bitcoin/languages",
        "merges_url": "https://api.github.com/repos/bitcoin/bitcoin/merges",
        "milestones_url": "https://api.github.com/repos/bitcoin/bitcoin/milestones%7B/number%7D",
        "notifications_url": "https://api.github.com/repos/bitcoin/bitcoin/notifications%7B?since,all,participating}",
        "pulls_url": "https://api.github.com/repos/bitcoin/bitcoin/pulls%7B/number%7D",
        "releases_url": "https://api.github.com/repos/bitcoin/bitcoin/releases%7B/id%7D",
        "ssh_url": "git@github.com:bitcoin/bitcoin.git",
        "stargazers_url": "https://api.github.com/repos/bitcoin/bitcoin/stargazers",
        "statuses_url": "https://api.github.com/repos/bitcoin/bitcoin/statuses/%7Bsha%7D",
        "subscribers_url": "https://api.github.com/repos/bitcoin/bitcoin/subscribers",
        "subscription_url": "https://api.github.com/repos/bitcoin/bitcoin/subscription",
        "tags_url": "https://api.github.com/repos/bitcoin/bitcoin/tags",
        "teams_url": "https://api.github.com/repos/bitcoin/bitcoin/teams",
        "trees_url": "https://api.github.com/repos/bitcoin/bitcoin/git/trees%7B/sha%7D",
        "clone_url": "https://github.com/bitcoin/bitcoin.git",
        "hooks_url": "https://api.github.com/repos/bitcoin/bitcoin/hooks",
        "svn_url": "https://github.com/bitcoin/bitcoin",
        "homepage": "https://bitcoincore.org/en/download",
        "language": "C++",
        "forks_count": 35476,
        "stargazers_count": 70608,
        "watchers_count": 70608,
        "size": 236222,
        "default_branch": "master",
        "open_issues_count": 673,
        "is_template": false,
        "topics": [
          "bitcoin",
          "c-plus-plus",
          "cryptocurrency",
          "cryptography",
          "p2p"
        ],
        "has_issues": true,
        "has_projects": true,
        "has_wiki": false,
        "has_pages": false,
        "has_downloads": false,
        "archived": false,
        "disabled": false,
        "visibility": "public",
        "pushed_at": "2023-08-03T00:03:27Z",
        "created_at": "2010-12-19T15:16:43Z",
        "updated_at": "2023-08-02T18:21:18Z",
        "license": {
          "key": "mit",
          "name": "MIT License",
          "node_id": "MDc6TGljZW5zZTEz",
          "spdx_id": "MIT",
          "url": "https://api.github.com/licenses/mit",
          "html_url": null,
          "description": null,
          "implementation": null,
          "permissions": null,
          "conditions": null,
          "limitations": null,
          "body": null,
          "featured": null
        }
      }
    },
    "_links": {
      "self": {
        "href": "https://api.github.com/repos/bitcoin/bitcoin/pulls/26770"
      }
    },
    "author_association": "MEMBER",
    "draft": false,
    "additions": 2,
    "deletions": 2,
    "changed_files": 2,
    "commits": 1,
    "review_comments": 0,
    "comments": 4
  },
  "events": [
    {
      "event": "committed",
      "id": null,
      "node_id": "C_kwDOABII59oAKGFmYzYwNTI0MzA1NjY5YjU0ZmZhODg1N2UzYzA1M2M2ZGI2Mzc1Zjg",
      "url": "https://api.github.com/repos/bitcoin/bitcoin/git/commits/afc60524305669b54ffa8857e3c053c6db6375f8",
      "actor": null,
      "commit_id": null,
      "commit_url": null,
      "created_at": null,
      "html_url": "https://github.com/bitcoin/bitcoin/commit/afc60524305669b54ffa8857e3c053c6db6375f8",
      "tree": {
        "sha": "b647b840d5e6963f3294e62a37aa057242ad93e1",
        "url": "https://api.github.com/repos/bitcoin/bitcoin/git/trees/b647b840d5e6963f3294e62a37aa057242ad93e1"
      },
      "verification": {
        "verified": true,
        "reason": "valid",
        "payload": "tree b647b840d5e6963f3294e62a37aa057242ad93e1\nparent 3b6e0f0345a5e7b437881f651d9b4e0881f7fd5e\nauthor Hennadii Stepanov <32963518+hebasto@users.noreply.github.com> 1672339140 +0000\ncommitter Hennadii Stepanov <32963518+hebasto@users.noreply.github.com> 1672339140 +0000\n\nci: Move `--enable-c++20` from \"tidy\" task back to \"ASan...\" one\n\nThis change reverts cc7335edc87c6ef34429b4df94f53973db520aac partially.\n\nC++20 has introduced some new headers, and it is premature to consider\nthem when using the IWYU tool.\n",
        "signature": "-----BEGIN PGP SIGNATURE-----\n\niQIzBAABCgAdFiEE0dvyxLlvLev0wWZUQQEIES5+qB8FAmOt3sQACgkQQQEIES5+\nqB8nQA/+JiHS2SRTCFe0RFMQO0YX0pjrg6FZ7pAtijyJ5szecwqMyhy0oanBIwFa\ns+R3poeu4Ji2RNqJAGIZy1YGF7SPjay0hs27vpyOljBb1PI1sGvPV3ME98TfgDyt\nTr1Uyjt3OIXvINzgH+TuYlB3szcEm4hfxPLedyXbEetZWAAmzt6ugPdWcWki0GX6\n2+Q+ha1SaDIF6L8r8Rd3oqTA8ONdxa0Lzpk16IE9ouCIXlQH027uIzK1RFbT0gzh\n2DAVL1FRkp0dY7e52aqympasaIoG254f3ql3RO3FjJNGBOIMnUVpP2IdK8ARMahH\nrhAxugDUkGEw6+XW717T11YaaAuZR7jZ0PmAckx/At4vGfbrXH6oq5i1LFqxAFnX\nVO0DWqWz7/EQLp1X0yOYSqUDP0wE/A/rubRqDIdNXZ8CWs0YSzzyjZQ6u2Y9zcDk\nLUfDQD+WfXY9L6Am0qT0LLkYwIB/hr1wrXm/9lT2iUdy+6emQ00RB//pnsGaJ5eT\nVpRfwtgQRN+xYKgttbCeDeALX1qioLVO70kD6hxgD2GeCqsI0VCF9AFI0UhYus08\nAs0GIXvHbA4XNEc3u2qbIUx3E1t73wDIx8adzJCt22fTMAHHc3lbBLeAIu05O02N\nFfJm8mXVZf9Ky7Y5JBzli7LXq7/pjQogG6f9ROXRXALehvXuHD8=\n=CEvO\n-----END PGP SIGNATURE-----"
      },
      "parents": [
        {
          "url": "https://api.github.com/repos/bitcoin/bitcoin/git/commits/3b6e0f0345a5e7b437881f651d9b4e0881f7fd5e",
          "sha": "3b6e0f0345a5e7b437881f651d9b4e0881f7fd5e",
          "html_url": "https://github.com/bitcoin/bitcoin/commit/3b6e0f0345a5e7b437881f651d9b4e0881f7fd5e"
        }
      ],
      "message": "ci: Move `--enable-c++20` from \"tidy\" task back to \"ASan...\" one\n\nThis change reverts cc7335edc87c6ef34429b4df94f53973db520aac partially.\n\nC++20 has introduced some new headers, and it is premature to consider\nthem when using the IWYU tool.",
      "committer": {
        "name": "Hennadii Stepanov",
        "email": "32963518+hebasto@users.noreply.github.com",
        "date": "2022-12-29T18:39:00Z"
      },
      "author": {
        "name": "Hennadii Stepanov",
        "email": "32963518+hebasto@users.noreply.github.com",
        "date": "2022-12-29T18:39:00Z"
      },
      "sha": "afc60524305669b54ffa8857e3c053c6db6375f8"
    },
    {
      "event": "labeled",
      "id": 8127593223,
      "node_id": "LE_lADOABII585aPVZizwAAAAHkcTsH",
      "url": "https://api.github.com/repos/bitcoin/bitcoin/issues/events/8127593223",
      "actor": {
        "login": "hebasto",
        "id": 32963518,
        "node_id": "MDQ6VXNlcjMyOTYzNTE4",
        "avatar_url": "https://avatars.githubusercontent.com/u/32963518?v=4",
        "gravatar_id": "",
        "url": "https://api.github.com/users/hebasto",
        "html_url": "https://github.com/hebasto",
        "followers_url": "https://api.github.com/users/hebasto/followers",
        "following_url": "https://api.github.com/users/hebasto/following%7B/other_user%7D",
        "gists_url": "https://api.github.com/users/hebasto/gists%7B/gist_id%7D",
        "starred_url": "https://api.github.com/users/hebasto/starred%7B/owner%7D%7B/repo%7D",
        "subscriptions_url": "https://api.github.com/users/hebasto/subscriptions",
        "organizations_url": "https://api.github.com/users/hebasto/orgs",
        "repos_url": "https://api.github.com/users/hebasto/repos",
        "events_url": "https://api.github.com/users/hebasto/events%7B/privacy%7D",
        "received_events_url": "https://api.github.com/users/hebasto/received_events",
        "type": "User",
        "site_admin": false
      },
      "commit_id": null,
      "commit_url": null,
      "created_at": "2022-12-29T18:45:55Z",
      "label": {
        "name": "Tests",
        "color": "d4c5f9"
      }
    },
    {
      "event": "commented",
      "id": 1367517796,
      "node_id": "IC_kwDOABII585Rgqpk",
      "url": "https://api.github.com/repos/bitcoin/bitcoin/issues/comments/1367517796",
      "actor": {
        "login": "DrahtBot",
        "id": 39886733,
        "node_id": "MDQ6VXNlcjM5ODg2NzMz",
        "avatar_url": "https://avatars.githubusercontent.com/u/39886733?v=4",
        "gravatar_id": "",
        "url": "https://api.github.com/users/DrahtBot",
        "html_url": "https://github.com/DrahtBot",
        "followers_url": "https://api.github.com/users/DrahtBot/followers",
        "following_url": "https://api.github.com/users/DrahtBot/following%7B/other_user%7D",
        "gists_url": "https://api.github.com/users/DrahtBot/gists%7B/gist_id%7D",
        "starred_url": "https://api.github.com/users/DrahtBot/starred%7B/owner%7D%7B/repo%7D",
        "subscriptions_url": "https://api.github.com/users/DrahtBot/subscriptions",
        "organizations_url": "https://api.github.com/users/DrahtBot/orgs",
        "repos_url": "https://api.github.com/users/DrahtBot/repos",
        "events_url": "https://api.github.com/users/DrahtBot/events%7B/privacy%7D",
        "received_events_url": "https://api.github.com/users/DrahtBot/received_events",
        "type": "User",
        "site_admin": false
      },
      "commit_id": null,
      "commit_url": null,
      "created_at": "2022-12-29T18:45:57Z",
      "updated_at": "2022-12-29T18:56:53Z",
      "author_association": "CONTRIBUTOR",
      "body": "<!--e57a25ab6845829454e8d69fc972939a-->\n\nThe following sections might be updated with supplementary metadata relevant to reviewers and maintainers.\n\n<!--021abf342d371248e50ceaed478a90ca-->\n### Reviews\nSee [the guideline](https://github.com/bitcoin/bitcoin/blob/master/CONTRIBUTING.md#code-review) for information on the review process.\n| Type | Reviewers |\n| ---- | --------- |\n| ACK | [MarcoFalke](https://github.com/bitcoin/bitcoin/pull/26770#issuecomment-1367522807) |\n\nIf your review is incorrectly listed, please react with 👎 to this comment and the bot will ignore it on the next update.\n",
      "user": {
        "login": "DrahtBot",
        "id": 39886733,
        "node_id": "MDQ6VXNlcjM5ODg2NzMz",
        "avatar_url": "https://avatars.githubusercontent.com/u/39886733?v=4",
        "gravatar_id": "",
        "url": "https://api.github.com/users/DrahtBot",
        "html_url": "https://github.com/DrahtBot",
        "followers_url": "https://api.github.com/users/DrahtBot/followers",
        "following_url": "https://api.github.com/users/DrahtBot/following%7B/other_user%7D",
        "gists_url": "https://api.github.com/users/DrahtBot/gists%7B/gist_id%7D",
        "starred_url": "https://api.github.com/users/DrahtBot/starred%7B/owner%7D%7B/repo%7D",
        "subscriptions_url": "https://api.github.com/users/DrahtBot/subscriptions",
        "organizations_url": "https://api.github.com/users/DrahtBot/orgs",
        "repos_url": "https://api.github.com/users/DrahtBot/repos",
        "events_url": "https://api.github.com/users/DrahtBot/events%7B/privacy%7D",
        "received_events_url": "https://api.github.com/users/DrahtBot/received_events",
        "type": "User",
        "site_admin": false
      },
      "html_url": "https://github.com/bitcoin/bitcoin/pull/26770#issuecomment-1367517796",
      "issue_url": "https://api.github.com/repos/bitcoin/bitcoin/issues/26770"
    },
    {
      "event": "commented",
      "id": 1367518030,
      "node_id": "IC_kwDOABII585RgqtO",
      "url": "https://api.github.com/repos/bitcoin/bitcoin/issues/comments/1367518030",
      "actor": {
        "login": "hebasto",
        "id": 32963518,
        "node_id": "MDQ6VXNlcjMyOTYzNTE4",
        "avatar_url": "https://avatars.githubusercontent.com/u/32963518?v=4",
        "gravatar_id": "",
        "url": "https://api.github.com/users/hebasto",
        "html_url": "https://github.com/hebasto",
        "followers_url": "https://api.github.com/users/hebasto/followers",
        "following_url": "https://api.github.com/users/hebasto/following%7B/other_user%7D",
        "gists_url": "https://api.github.com/users/hebasto/gists%7B/gist_id%7D",
        "starred_url": "https://api.github.com/users/hebasto/starred%7B/owner%7D%7B/repo%7D",
        "subscriptions_url": "https://api.github.com/users/hebasto/subscriptions",
        "organizations_url": "https://api.github.com/users/hebasto/orgs",
        "repos_url": "https://api.github.com/users/hebasto/repos",
        "events_url": "https://api.github.com/users/hebasto/events%7B/privacy%7D",
        "received_events_url": "https://api.github.com/users/hebasto/received_events",
        "type": "User",
        "site_admin": false
      },
      "commit_id": null,
      "commit_url": null,
      "created_at": "2022-12-29T18:46:32Z",
      "updated_at": "2022-12-29T18:46:32Z",
      "author_association": "MEMBER",
      "body": "Friendly ping @0xB10C @MarcoFalke :)",
      "user": {
        "login": "hebasto",
        "id": 32963518,
        "node_id": "MDQ6VXNlcjMyOTYzNTE4",
        "avatar_url": "https://avatars.githubusercontent.com/u/32963518?v=4",
        "gravatar_id": "",
        "url": "https://api.github.com/users/hebasto",
        "html_url": "https://github.com/hebasto",
        "followers_url": "https://api.github.com/users/hebasto/followers",
        "following_url": "https://api.github.com/users/hebasto/following%7B/other_user%7D",
        "gists_url": "https://api.github.com/users/hebasto/gists%7B/gist_id%7D",
        "starred_url": "https://api.github.com/users/hebasto/starred%7B/owner%7D%7B/repo%7D",
        "subscriptions_url": "https://api.github.com/users/hebasto/subscriptions",
        "organizations_url": "https://api.github.com/users/hebasto/orgs",
        "repos_url": "https://api.github.com/users/hebasto/repos",
        "events_url": "https://api.github.com/users/hebasto/events%7B/privacy%7D",
        "received_events_url": "https://api.github.com/users/hebasto/received_events",
        "type": "User",
        "site_admin": false
      },
      "html_url": "https://github.com/bitcoin/bitcoin/pull/26770#issuecomment-1367518030",
      "issue_url": "https://api.github.com/repos/bitcoin/bitcoin/issues/26770"
    },
    {
      "event": "mentioned",
      "id": 8127595094,
      "node_id": "MEE_lADOABII585aPVZizwAAAAHkcUJW",
      "url": "https://api.github.com/repos/bitcoin/bitcoin/issues/events/8127595094",
      "actor": {
        "login": "MarcoFalke",
        "id": 6399679,
        "node_id": "MDQ6VXNlcjYzOTk2Nzk=",
        "avatar_url": "https://avatars.githubusercontent.com/u/6399679?v=4",
        "gravatar_id": "",
        "url": "https://api.github.com/users/MarcoFalke",
        "html_url": "https://github.com/MarcoFalke",
        "followers_url": "https://api.github.com/users/MarcoFalke/followers",
        "following_url": "https://api.github.com/users/MarcoFalke/following%7B/other_user%7D",
        "gists_url": "https://api.github.com/users/MarcoFalke/gists%7B/gist_id%7D",
        "starred_url": "https://api.github.com/users/MarcoFalke/starred%7B/owner%7D%7B/repo%7D",
        "subscriptions_url": "https://api.github.com/users/MarcoFalke/subscriptions",
        "organizations_url": "https://api.github.com/users/MarcoFalke/orgs",
        "repos_url": "https://api.github.com/users/MarcoFalke/repos",
        "events_url": "https://api.github.com/users/MarcoFalke/events%7B/privacy%7D",
        "received_events_url": "https://api.github.com/users/MarcoFalke/received_events",
        "type": "User",
        "site_admin": false
      },
      "commit_id": null,
      "commit_url": null,
      "created_at": "2022-12-29T18:46:32Z"
    },
    {
      "event": "subscribed",
      "id": 8127595100,
      "node_id": "SE_lADOABII585aPVZizwAAAAHkcUJc",
      "url": "https://api.github.com/repos/bitcoin/bitcoin/issues/events/8127595100",
      "actor": {
        "login": "MarcoFalke",
        "id": 6399679,
        "node_id": "MDQ6VXNlcjYzOTk2Nzk=",
        "avatar_url": "https://avatars.githubusercontent.com/u/6399679?v=4",
        "gravatar_id": "",
        "url": "https://api.github.com/users/MarcoFalke",
        "html_url": "https://github.com/MarcoFalke",
        "followers_url": "https://api.github.com/users/MarcoFalke/followers",
        "following_url": "https://api.github.com/users/MarcoFalke/following%7B/other_user%7D",
        "gists_url": "https://api.github.com/users/MarcoFalke/gists%7B/gist_id%7D",
        "starred_url": "https://api.github.com/users/MarcoFalke/starred%7B/owner%7D%7B/repo%7D",
        "subscriptions_url": "https://api.github.com/users/MarcoFalke/subscriptions",
        "organizations_url": "https://api.github.com/users/MarcoFalke/orgs",
        "repos_url": "https://api.github.com/users/MarcoFalke/repos",
        "events_url": "https://api.github.com/users/MarcoFalke/events%7B/privacy%7D",
        "received_events_url": "https://api.github.com/users/MarcoFalke/received_events",
        "type": "User",
        "site_admin": false
      },
      "commit_id": null,
      "commit_url": null,
      "created_at": "2022-12-29T18:46:32Z"
    },
    {
      "event": "mentioned",
      "id": 8127595105,
      "node_id": "MEE_lADOABII585aPVZizwAAAAHkcUJh",
      "url": "https://api.github.com/repos/bitcoin/bitcoin/issues/events/8127595105",
      "actor": {
        "login": "0xB10C",
        "id": 19157360,
        "node_id": "MDQ6VXNlcjE5MTU3MzYw",
        "avatar_url": "https://avatars.githubusercontent.com/u/19157360?v=4",
        "gravatar_id": "",
        "url": "https://api.github.com/users/0xB10C",
        "html_url": "https://github.com/0xB10C",
        "followers_url": "https://api.github.com/users/0xB10C/followers",
        "following_url": "https://api.github.com/users/0xB10C/following%7B/other_user%7D",
        "gists_url": "https://api.github.com/users/0xB10C/gists%7B/gist_id%7D",
        "starred_url": "https://api.github.com/users/0xB10C/starred%7B/owner%7D%7B/repo%7D",
        "subscriptions_url": "https://api.github.com/users/0xB10C/subscriptions",
        "organizations_url": "https://api.github.com/users/0xB10C/orgs",
        "repos_url": "https://api.github.com/users/0xB10C/repos",
        "events_url": "https://api.github.com/users/0xB10C/events%7B/privacy%7D",
        "received_events_url": "https://api.github.com/users/0xB10C/received_events",
        "type": "User",
        "site_admin": false
      },
      "commit_id": null,
      "commit_url": null,
      "created_at": "2022-12-29T18:46:32Z"
    },
    {
      "event": "subscribed",
      "id": 8127595108,
      "node_id": "SE_lADOABII585aPVZizwAAAAHkcUJk",
      "url": "https://api.github.com/repos/bitcoin/bitcoin/issues/events/8127595108",
      "actor": {
        "login": "0xB10C",
        "id": 19157360,
        "node_id": "MDQ6VXNlcjE5MTU3MzYw",
        "avatar_url": "https://avatars.githubusercontent.com/u/19157360?v=4",
        "gravatar_id": "",
        "url": "https://api.github.com/users/0xB10C",
        "html_url": "https://github.com/0xB10C",
        "followers_url": "https://api.github.com/users/0xB10C/followers",
        "following_url": "https://api.github.com/users/0xB10C/following%7B/other_user%7D",
        "gists_url": "https://api.github.com/users/0xB10C/gists%7B/gist_id%7D",
        "starred_url": "https://api.github.com/users/0xB10C/starred%7B/owner%7D%7B/repo%7D",
        "subscriptions_url": "https://api.github.com/users/0xB10C/subscriptions",
        "organizations_url": "https://api.github.com/users/0xB10C/orgs",
        "repos_url": "https://api.github.com/users/0xB10C/repos",
        "events_url": "https://api.github.com/users/0xB10C/events%7B/privacy%7D",
        "received_events_url": "https://api.github.com/users/0xB10C/received_events",
        "type": "User",
        "site_admin": false
      },
      "commit_id": null,
      "commit_url": null,
      "created_at": "2022-12-29T18:46:32Z"
    },
    {
      "event": "cross-referenced",
      "id": null,
      "node_id": null,
      "url": null,
      "actor": {
        "login": "hebasto",
        "id": 32963518,
        "node_id": "MDQ6VXNlcjMyOTYzNTE4",
        "avatar_url": "https://avatars.githubusercontent.com/u/32963518?v=4",
        "gravatar_id": "",
        "url": "https://api.github.com/users/hebasto",
        "html_url": "https://github.com/hebasto",
        "followers_url": "https://api.github.com/users/hebasto/followers",
        "following_url": "https://api.github.com/users/hebasto/following%7B/other_user%7D",
        "gists_url": "https://api.github.com/users/hebasto/gists%7B/gist_id%7D",
        "starred_url": "https://api.github.com/users/hebasto/starred%7B/owner%7D%7B/repo%7D",
        "subscriptions_url": "https://api.github.com/users/hebasto/subscriptions",
        "organizations_url": "https://api.github.com/users/hebasto/orgs",
        "repos_url": "https://api.github.com/users/hebasto/repos",
        "events_url": "https://api.github.com/users/hebasto/events%7B/privacy%7D",
        "received_events_url": "https://api.github.com/users/hebasto/received_events",
        "type": "User",
        "site_admin": false
      },
      "commit_id": null,
      "commit_url": null,
      "created_at": "2022-12-29T18:47:37Z",
      "updated_at": "2022-12-29T18:47:37Z",
      "source": {
        "issue": {
          "id": 1513046367,
          "node_id": "PR_kwDOABII585GT-tn",
          "url": "https://api.github.com/repos/bitcoin/bitcoin/issues/26763",
          "repository_url": "https://api.github.com/repos/bitcoin/bitcoin",
          "labels_url": "https://api.github.com/repos/bitcoin/bitcoin/issues/26763/labels%7B/name%7D",
          "comments_url": "https://api.github.com/repos/bitcoin/bitcoin/issues/26763/comments",
          "events_url": "https://api.github.com/repos/bitcoin/bitcoin/issues/26763/events",
          "html_url": "https://github.com/bitcoin/bitcoin/pull/26763",
          "number": 26763,
          "state": "closed",
          "state_reason": null,
          "title": "ci: Treat IWYU violations as errors",
          "body": "Fixes the https://github.com/bitcoin/bitcoin/pull/24831#discussion_r861835262:\r\n> Not sure if this is setting the return code to non-zero if it fails?",
          "user": {
            "login": "hebasto",
            "id": 32963518,
            "node_id": "MDQ6VXNlcjMyOTYzNTE4",
            "avatar_url": "https://avatars.githubusercontent.com/u/32963518?v=4",
            "gravatar_id": "",
            "url": "https://api.github.com/users/hebasto",
            "html_url": "https://github.com/hebasto",
            "followers_url": "https://api.github.com/users/hebasto/followers",
            "following_url": "https://api.github.com/users/hebasto/following%7B/other_user%7D",
            "gists_url": "https://api.github.com/users/hebasto/gists%7B/gist_id%7D",
            "starred_url": "https://api.github.com/users/hebasto/starred%7B/owner%7D%7B/repo%7D",
            "subscriptions_url": "https://api.github.com/users/hebasto/subscriptions",
            "organizations_url": "https://api.github.com/users/hebasto/orgs",
            "repos_url": "https://api.github.com/users/hebasto/repos",
            "events_url": "https://api.github.com/users/hebasto/events%7B/privacy%7D",
            "received_events_url": "https://api.github.com/users/hebasto/received_events",
            "type": "User",
            "site_admin": false
          },
          "labels": [
            {
              "id": 62963516,
              "node_id": "MDU6TGFiZWw2Mjk2MzUxNg==",
              "url": "https://api.github.com/repos/bitcoin/bitcoin/labels/Tests",
              "name": "Tests",
              "color": "d4c5f9",
              "default": false
            },
            {
              "id": 955867938,
              "node_id": "MDU6TGFiZWw5NTU4Njc5Mzg=",
              "url": "https://api.github.com/repos/bitcoin/bitcoin/labels/Needs%20rebase",
              "name": "Needs rebase",
              "description": "",
              "color": "cccccc",
              "default": false
            }
          ],
          "assignees": [],
          "author_association": "MEMBER",
          "locked": false,
          "comments": 16,
          "pull_request": {
            "url": "https://api.github.com/repos/bitcoin/bitcoin/pulls/26763",
            "html_url": "https://github.com/bitcoin/bitcoin/pull/26763",
            "diff_url": "https://github.com/bitcoin/bitcoin/pull/26763.diff",
            "patch_url": "https://github.com/bitcoin/bitcoin/pull/26763.patch"
          },
          "closed_at": "2023-02-02T20:09:08Z",
          "created_at": "2022-12-28T18:17:13Z",
          "updated_at": "2023-02-02T20:09:08Z"
        },
        "type": "issue"
      }
    },
    {
      "event": "cross-referenced",
      "id": null,
      "node_id": null,
      "url": null,
      "actor": {
        "login": "hebasto",
        "id": 32963518,
        "node_id": "MDQ6VXNlcjMyOTYzNTE4",
        "avatar_url": "https://avatars.githubusercontent.com/u/32963518?v=4",
        "gravatar_id": "",
        "url": "https://api.github.com/users/hebasto",
        "html_url": "https://github.com/hebasto",
        "followers_url": "https://api.github.com/users/hebasto/followers",
        "following_url": "https://api.github.com/users/hebasto/following%7B/other_user%7D",
        "gists_url": "https://api.github.com/users/hebasto/gists%7B/gist_id%7D",
        "starred_url": "https://api.github.com/users/hebasto/starred%7B/owner%7D%7B/repo%7D",
        "subscriptions_url": "https://api.github.com/users/hebasto/subscriptions",
        "organizations_url": "https://api.github.com/users/hebasto/orgs",
        "repos_url": "https://api.github.com/users/hebasto/repos",
        "events_url": "https://api.github.com/users/hebasto/events%7B/privacy%7D",
        "received_events_url": "https://api.github.com/users/hebasto/received_events",
        "type": "User",
        "site_admin": false
      },
      "commit_id": null,
      "commit_url": null,
      "created_at": "2022-12-29T18:51:36Z",
      "updated_at": "2022-12-29T18:51:36Z",
      "source": {
        "issue": {
          "id": 1292046858,
          "node_id": "PR_kwDOABII5846vdJG",
          "url": "https://api.github.com/repos/bitcoin/bitcoin/issues/25528",
          "repository_url": "https://api.github.com/repos/bitcoin/bitcoin",
          "labels_url": "https://api.github.com/repos/bitcoin/bitcoin/issues/25528/labels%7B/name%7D",
          "comments_url": "https://api.github.com/repos/bitcoin/bitcoin/issues/25528/comments",
          "events_url": "https://api.github.com/repos/bitcoin/bitcoin/issues/25528/events",
          "html_url": "https://github.com/bitcoin/bitcoin/pull/25528",
          "number": 25528,
          "state": "closed",
          "state_reason": null,
          "title": "ci: run USDT interface tests in the CI",
          "body": "Changes a CI task that runs test the previously not run `test/functional/interface_usdt_*.py` functional tests (added in https://github.com/bitcoin/bitcoin/pull/24358). \r\n\r\nThis task is run as CirussCI `compute_engine_instance` VM as hooking into the tracepoints is not possible in CirrusCI docker containers (https://github.com/bitcoin/bitcoin/issues/23296#issuecomment-1024920845). We use an unoffical PPA and untrusted  `bpfcc-tools` package in the CI as the Ubuntu jammy and Debian bullseye packages are outdated. We hope use an official package when new Ubuntu/Debian releases are available for the use with Google Compute Engine.\r\n\r\nWe make sure to hook into `bitcoind` binaries in USDT interface tests via their PID, instead of their path. This makes sure multiple functional tests running in parallel don't interfere with each other.\r\n\r\nThe utxocache USDT interface tests is adopted to a change of the functional test framework that wasn't detected as the tests weren't run in the CI. As the tracepoints expose internals, it can happen that we need to adopt the interface test when internals change. This is a bit awkward, and if it happens to frequently, we should consider generalizing the tests a bit more. For now it's fine, I think.\r\n\r\nSee the individual commit messages for more details on the changes.\r\n\r\nFixes https://github.com/bitcoin/bitcoin/issues/24782\r\nFixes https://github.com/bitcoin/bitcoin/issues/23296\r\n\r\nI'd like to hear from reviewers:\r\n- Are we OK with using the [`hadret/bpfcc`](https://launchpad.net/~hadret/+archive/ubuntu/bpfcc) PPA for now? There is a clear plan when to drop it and as is currently, it could only impact the newly added VM task. \r\n- ~~Adding a new task increases CI runtime and costs. Should an existing `container` CI task be ported to a VM and reused instead?~~ Yes, see https://github.com/bitcoin/bitcoin/pull/25528#issuecomment-1179509525 ",
          "user": {
            "login": "0xB10C",
            "id": 19157360,
            "node_id": "MDQ6VXNlcjE5MTU3MzYw",
            "avatar_url": "https://avatars.githubusercontent.com/u/19157360?v=4",
            "gravatar_id": "",
            "url": "https://api.github.com/users/0xB10C",
            "html_url": "https://github.com/0xB10C",
            "followers_url": "https://api.github.com/users/0xB10C/followers",
            "following_url": "https://api.github.com/users/0xB10C/following%7B/other_user%7D",
            "gists_url": "https://api.github.com/users/0xB10C/gists%7B/gist_id%7D",
            "starred_url": "https://api.github.com/users/0xB10C/starred%7B/owner%7D%7B/repo%7D",
            "subscriptions_url": "https://api.github.com/users/0xB10C/subscriptions",
            "organizations_url": "https://api.github.com/users/0xB10C/orgs",
            "repos_url": "https://api.github.com/users/0xB10C/repos",
            "events_url": "https://api.github.com/users/0xB10C/events%7B/privacy%7D",
            "received_events_url": "https://api.github.com/users/0xB10C/received_events",
            "type": "User",
            "site_admin": false
          },
          "labels": [
            {
              "id": 62963516,
              "node_id": "MDU6TGFiZWw2Mjk2MzUxNg==",
              "url": "https://api.github.com/repos/bitcoin/bitcoin/labels/Tests",
              "name": "Tests",
              "color": "d4c5f9",
              "default": false
            }
          ],
          "assignees": [],
          "author_association": "CONTRIBUTOR",
          "locked": false,
          "comments": 11,
          "pull_request": {
            "url": "https://api.github.com/repos/bitcoin/bitcoin/pulls/25528",
            "html_url": "https://github.com/bitcoin/bitcoin/pull/25528",
            "diff_url": "https://github.com/bitcoin/bitcoin/pull/25528.diff",
            "patch_url": "https://github.com/bitcoin/bitcoin/pull/25528.patch"
          },
          "closed_at": "2022-08-01T09:29:35Z",
          "created_at": "2022-07-02T12:34:59Z",
          "updated_at": "2022-12-29T18:51:35Z"
        },
        "type": "issue"
      }
    },
    {
      "event": "commented",
      "id": 1367522807,
      "node_id": "IC_kwDOABII585Rgr33",
      "url": "https://api.github.com/repos/bitcoin/bitcoin/issues/comments/1367522807",
      "actor": {
        "login": "MarcoFalke",
        "id": 6399679,
        "node_id": "MDQ6VXNlcjYzOTk2Nzk=",
        "avatar_url": "https://avatars.githubusercontent.com/u/6399679?v=4",
        "gravatar_id": "",
        "url": "https://api.github.com/users/MarcoFalke",
        "html_url": "https://github.com/MarcoFalke",
        "followers_url": "https://api.github.com/users/MarcoFalke/followers",
        "following_url": "https://api.github.com/users/MarcoFalke/following%7B/other_user%7D",
        "gists_url": "https://api.github.com/users/MarcoFalke/gists%7B/gist_id%7D",
        "starred_url": "https://api.github.com/users/MarcoFalke/starred%7B/owner%7D%7B/repo%7D",
        "subscriptions_url": "https://api.github.com/users/MarcoFalke/subscriptions",
        "organizations_url": "https://api.github.com/users/MarcoFalke/orgs",
        "repos_url": "https://api.github.com/users/MarcoFalke/repos",
        "events_url": "https://api.github.com/users/MarcoFalke/events%7B/privacy%7D",
        "received_events_url": "https://api.github.com/users/MarcoFalke/received_events",
        "type": "User",
        "site_admin": false
      },
      "commit_id": null,
      "commit_url": null,
      "created_at": "2022-12-29T18:56:51Z",
      "updated_at": "2022-12-29T18:56:51Z",
      "author_association": "MEMBER",
      "body": "review only ACK afc60524305669b54ffa8857e3c053c6db6375f8\r\n\r\nNot sure why this was moved, but if CI passes now, this should be fine.",
      "user": {
        "login": "MarcoFalke",
        "id": 6399679,
        "node_id": "MDQ6VXNlcjYzOTk2Nzk=",
        "avatar_url": "https://avatars.githubusercontent.com/u/6399679?v=4",
        "gravatar_id": "",
        "url": "https://api.github.com/users/MarcoFalke",
        "html_url": "https://github.com/MarcoFalke",
        "followers_url": "https://api.github.com/users/MarcoFalke/followers",
        "following_url": "https://api.github.com/users/MarcoFalke/following%7B/other_user%7D",
        "gists_url": "https://api.github.com/users/MarcoFalke/gists%7B/gist_id%7D",
        "starred_url": "https://api.github.com/users/MarcoFalke/starred%7B/owner%7D%7B/repo%7D",
        "subscriptions_url": "https://api.github.com/users/MarcoFalke/subscriptions",
        "organizations_url": "https://api.github.com/users/MarcoFalke/orgs",
        "repos_url": "https://api.github.com/users/MarcoFalke/repos",
        "events_url": "https://api.github.com/users/MarcoFalke/events%7B/privacy%7D",
        "received_events_url": "https://api.github.com/users/MarcoFalke/received_events",
        "type": "User",
        "site_admin": false
      },
      "html_url": "https://github.com/bitcoin/bitcoin/pull/26770#issuecomment-1367522807",
      "issue_url": "https://api.github.com/repos/bitcoin/bitcoin/issues/26770"
    },
    {
      "event": "commented",
      "id": 1367536153,
      "node_id": "IC_kwDOABII585RgvIZ",
      "url": "https://api.github.com/repos/bitcoin/bitcoin/issues/comments/1367536153",
      "actor": {
        "login": "MarcoFalke",
        "id": 6399679,
        "node_id": "MDQ6VXNlcjYzOTk2Nzk=",
        "avatar_url": "https://avatars.githubusercontent.com/u/6399679?v=4",
        "gravatar_id": "",
        "url": "https://api.github.com/users/MarcoFalke",
        "html_url": "https://github.com/MarcoFalke",
        "followers_url": "https://api.github.com/users/MarcoFalke/followers",
        "following_url": "https://api.github.com/users/MarcoFalke/following%7B/other_user%7D",
        "gists_url": "https://api.github.com/users/MarcoFalke/gists%7B/gist_id%7D",
        "starred_url": "https://api.github.com/users/MarcoFalke/starred%7B/owner%7D%7B/repo%7D",
        "subscriptions_url": "https://api.github.com/users/MarcoFalke/subscriptions",
        "organizations_url": "https://api.github.com/users/MarcoFalke/orgs",
        "repos_url": "https://api.github.com/users/MarcoFalke/repos",
        "events_url": "https://api.github.com/users/MarcoFalke/events%7B/privacy%7D",
        "received_events_url": "https://api.github.com/users/MarcoFalke/received_events",
        "type": "User",
        "site_admin": false
      },
      "commit_id": null,
      "commit_url": null,
      "created_at": "2022-12-29T19:22:49Z",
      "updated_at": "2022-12-29T19:22:49Z",
      "author_association": "MEMBER",
      "body": "Ah, this was a leftover from a previous iteration that used `./depends`, see commit commit 8b1eac98282aae82762784323bf0fe0479e8a9fc: `--enable-c++20` does not work with `./depends` out of the box",
      "user": {
        "login": "MarcoFalke",
        "id": 6399679,
        "node_id": "MDQ6VXNlcjYzOTk2Nzk=",
        "avatar_url": "https://avatars.githubusercontent.com/u/6399679?v=4",
        "gravatar_id": "",
        "url": "https://api.github.com/users/MarcoFalke",
        "html_url": "https://github.com/MarcoFalke",
        "followers_url": "https://api.github.com/users/MarcoFalke/followers",
        "following_url": "https://api.github.com/users/MarcoFalke/following%7B/other_user%7D",
        "gists_url": "https://api.github.com/users/MarcoFalke/gists%7B/gist_id%7D",
        "starred_url": "https://api.github.com/users/MarcoFalke/starred%7B/owner%7D%7B/repo%7D",
        "subscriptions_url": "https://api.github.com/users/MarcoFalke/subscriptions",
        "organizations_url": "https://api.github.com/users/MarcoFalke/orgs",
        "repos_url": "https://api.github.com/users/MarcoFalke/repos",
        "events_url": "https://api.github.com/users/MarcoFalke/events%7B/privacy%7D",
        "received_events_url": "https://api.github.com/users/MarcoFalke/received_events",
        "type": "User",
        "site_admin": false
      },
      "html_url": "https://github.com/bitcoin/bitcoin/pull/26770#issuecomment-1367536153",
      "issue_url": "https://api.github.com/repos/bitcoin/bitcoin/issues/26770"
    },
    {
      "event": "merged",
      "id": 8127821682,
      "node_id": "ME_lADOABII585aPVZizwAAAAHkdLdy",
      "url": "https://api.github.com/repos/bitcoin/bitcoin/issues/events/8127821682",
      "actor": {
        "login": "MarcoFalke",
        "id": 6399679,
        "node_id": "MDQ6VXNlcjYzOTk2Nzk=",
        "avatar_url": "https://avatars.githubusercontent.com/u/6399679?v=4",
        "gravatar_id": "",
        "url": "https://api.github.com/users/MarcoFalke",
        "html_url": "https://github.com/MarcoFalke",
        "followers_url": "https://api.github.com/users/MarcoFalke/followers",
        "following_url": "https://api.github.com/users/MarcoFalke/following%7B/other_user%7D",
        "gists_url": "https://api.github.com/users/MarcoFalke/gists%7B/gist_id%7D",
        "starred_url": "https://api.github.com/users/MarcoFalke/starred%7B/owner%7D%7B/repo%7D",
        "subscriptions_url": "https://api.github.com/users/MarcoFalke/subscriptions",
        "organizations_url": "https://api.github.com/users/MarcoFalke/orgs",
        "repos_url": "https://api.github.com/users/MarcoFalke/repos",
        "events_url": "https://api.github.com/users/MarcoFalke/events%7B/privacy%7D",
        "received_events_url": "https://api.github.com/users/MarcoFalke/received_events",
        "type": "User",
        "site_admin": false
      },
      "commit_id": "65de8eeeca29e71378aa34602b287ab921b040e4",
      "commit_url": "https://api.github.com/repos/bitcoin/bitcoin/commits/65de8eeeca29e71378aa34602b287ab921b040e4",
      "created_at": "2022-12-29T19:52:08Z"
    },
    {
      "event": "closed",
      "id": 8127821719,
      "node_id": "CE_lADOABII585aPVZizwAAAAHkdLeX",
      "url": "https://api.github.com/repos/bitcoin/bitcoin/issues/events/8127821719",
      "actor": {
        "login": "MarcoFalke",
        "id": 6399679,
        "node_id": "MDQ6VXNlcjYzOTk2Nzk=",
        "avatar_url": "https://avatars.githubusercontent.com/u/6399679?v=4",
        "gravatar_id": "",
        "url": "https://api.github.com/users/MarcoFalke",
        "html_url": "https://github.com/MarcoFalke",
        "followers_url": "https://api.github.com/users/MarcoFalke/followers",
        "following_url": "https://api.github.com/users/MarcoFalke/following%7B/other_user%7D",
        "gists_url": "https://api.github.com/users/MarcoFalke/gists%7B/gist_id%7D",
        "starred_url": "https://api.github.com/users/MarcoFalke/starred%7B/owner%7D%7B/repo%7D",
        "subscriptions_url": "https://api.github.com/users/MarcoFalke/subscriptions",
        "organizations_url": "https://api.github.com/users/MarcoFalke/orgs",
        "repos_url": "https://api.github.com/users/MarcoFalke/repos",
        "events_url": "https://api.github.com/users/MarcoFalke/events%7B/privacy%7D",
        "received_events_url": "https://api.github.com/users/MarcoFalke/received_events",
        "type": "User",
        "site_admin": false
      },
      "commit_id": null,
      "commit_url": null,
      "created_at": "2022-12-29T19:52:08Z"
    },
    {
      "event": "head_ref_deleted",
      "id": 8127897524,
      "node_id": "HRDE_lADOABII585aPVZizwAAAAHkdd-0",
      "url": "https://api.github.com/repos/bitcoin/bitcoin/issues/events/8127897524",
      "actor": {
        "login": "hebasto",
        "id": 32963518,
        "node_id": "MDQ6VXNlcjMyOTYzNTE4",
        "avatar_url": "https://avatars.githubusercontent.com/u/32963518?v=4",
        "gravatar_id": "",
        "url": "https://api.github.com/users/hebasto",
        "html_url": "https://github.com/hebasto",
        "followers_url": "https://api.github.com/users/hebasto/followers",
        "following_url": "https://api.github.com/users/hebasto/following%7B/other_user%7D",
        "gists_url": "https://api.github.com/users/hebasto/gists%7B/gist_id%7D",
        "starred_url": "https://api.github.com/users/hebasto/starred%7B/owner%7D%7B/repo%7D",
        "subscriptions_url": "https://api.github.com/users/hebasto/subscriptions",
        "organizations_url": "https://api.github.com/users/hebasto/orgs",
        "repos_url": "https://api.github.com/users/hebasto/repos",
        "events_url": "https://api.github.com/users/hebasto/events%7B/privacy%7D",
        "received_events_url": "https://api.github.com/users/hebasto/received_events",
        "type": "User",
        "site_admin": false
      },
      "commit_id": null,
      "commit_url": null,
      "created_at": "2022-12-29T20:09:04Z"
    },
    {
      "event": "referenced",
      "id": 8131510106,
      "node_id": "REFE_lADOABII585aPVZizwAAAAHkrP9a",
      "url": "https://api.github.com/repos/bitcoin/bitcoin/issues/events/8131510106",
      "actor": {
        "login": "sidhujag",
        "id": 6238042,
        "node_id": "MDQ6VXNlcjYyMzgwNDI=",
        "avatar_url": "https://avatars.githubusercontent.com/u/6238042?v=4",
        "gravatar_id": "",
        "url": "https://api.github.com/users/sidhujag",
        "html_url": "https://github.com/sidhujag",
        "followers_url": "https://api.github.com/users/sidhujag/followers",
        "following_url": "https://api.github.com/users/sidhujag/following%7B/other_user%7D",
        "gists_url": "https://api.github.com/users/sidhujag/gists%7B/gist_id%7D",
        "starred_url": "https://api.github.com/users/sidhujag/starred%7B/owner%7D%7B/repo%7D",
        "subscriptions_url": "https://api.github.com/users/sidhujag/subscriptions",
        "organizations_url": "https://api.github.com/users/sidhujag/orgs",
        "repos_url": "https://api.github.com/users/sidhujag/repos",
        "events_url": "https://api.github.com/users/sidhujag/events%7B/privacy%7D",
        "received_events_url": "https://api.github.com/users/sidhujag/received_events",
        "type": "User",
        "site_admin": false
      },
      "commit_id": "9b2513857667ea1063300d9a710271fa8620943d",
      "commit_url": "https://api.github.com/repos/syscoin/syscoin/commits/9b2513857667ea1063300d9a710271fa8620943d",
      "created_at": "2022-12-30T19:32:33Z"
    },
    {
      "event": "comment_deleted",
      "id": 8132606289,
      "node_id": "CDE_lADOABII585aPVZizwAAAAHkvblR",
      "url": "https://api.github.com/repos/bitcoin/bitcoin/issues/events/8132606289",
      "actor": {
        "login": "bitcoin",
        "id": 528860,
        "node_id": "MDEyOk9yZ2FuaXphdGlvbjUyODg2MA==",
        "avatar_url": "https://avatars.githubusercontent.com/u/528860?v=4",
        "gravatar_id": "",
        "url": "https://api.github.com/users/bitcoin",
        "html_url": "https://github.com/bitcoin",
        "followers_url": "https://api.github.com/users/bitcoin/followers",
        "following_url": "https://api.github.com/users/bitcoin/following%7B/other_user%7D",
        "gists_url": "https://api.github.com/users/bitcoin/gists%7B/gist_id%7D",
        "starred_url": "https://api.github.com/users/bitcoin/starred%7B/owner%7D%7B/repo%7D",
        "subscriptions_url": "https://api.github.com/users/bitcoin/subscriptions",
        "organizations_url": "https://api.github.com/users/bitcoin/orgs",
        "repos_url": "https://api.github.com/users/bitcoin/repos",
        "events_url": "https://api.github.com/users/bitcoin/events%7B/privacy%7D",
        "received_events_url": "https://api.github.com/users/bitcoin/received_events",
        "type": "Organization",
        "site_admin": false
      },
      "commit_id": null,
      "commit_url": null,
      "created_at": "2022-12-31T11:44:44Z"
    }
  ],
  "comments": []
}