{
  "type": "pull",
  "pull": {
    "url": "https://api.github.com/repos/bitcoin/bitcoin/pulls/26773",
    "id": 1180755975,
    "node_id": "PR_kwDOABII585GYOgH",
    "html_url": "https://github.com/bitcoin/bitcoin/pull/26773",
    "diff_url": "https://github.com/bitcoin/bitcoin/pull/26773.diff",
    "patch_url": "https://github.com/bitcoin/bitcoin/pull/26773.patch",
    "issue_url": "https://api.github.com/repos/bitcoin/bitcoin/issues/26773",
    "commits_url": "https://api.github.com/repos/bitcoin/bitcoin/pulls/26773/commits",
    "review_comments_url": "https://api.github.com/repos/bitcoin/bitcoin/pulls/26773/comments",
    "review_comment_url": "https://api.github.com/repos/bitcoin/bitcoin/pulls/comments%7B/number%7D",
    "comments_url": "https://api.github.com/repos/bitcoin/bitcoin/issues/26773/comments",
    "statuses_url": "https://api.github.com/repos/bitcoin/bitcoin/statuses/c572eae9891476a2fab263b3aa82ed27c17a9225",
    "number": 26773,
    "state": "closed",
    "locked": false,
    "maintainer_can_modify": false,
    "title": "doc: FreeBSD build doc updates to reflect removal of install_db4.sh",
    "user": {
      "login": "murrayn",
      "id": 5404807,
      "node_id": "MDQ6VXNlcjU0MDQ4MDc=",
      "avatar_url": "https://avatars.githubusercontent.com/u/5404807?v=4",
      "gravatar_id": "",
      "url": "https://api.github.com/users/murrayn",
      "html_url": "https://github.com/murrayn",
      "followers_url": "https://api.github.com/users/murrayn/followers",
      "following_url": "https://api.github.com/users/murrayn/following%7B/other_user%7D",
      "gists_url": "https://api.github.com/users/murrayn/gists%7B/gist_id%7D",
      "starred_url": "https://api.github.com/users/murrayn/starred%7B/owner%7D%7B/repo%7D",
      "subscriptions_url": "https://api.github.com/users/murrayn/subscriptions",
      "organizations_url": "https://api.github.com/users/murrayn/orgs",
      "repos_url": "https://api.github.com/users/murrayn/repos",
      "events_url": "https://api.github.com/users/murrayn/events%7B/privacy%7D",
      "received_events_url": "https://api.github.com/users/murrayn/received_events",
      "type": "User",
      "site_admin": false
    },
    "body": "This PR introduces documentation changes needed to keep up with #26834.\r\n",
    "labels": [
      {
        "id": 148216,
        "node_id": "MDU6TGFiZWwxNDgyMTY=",
        "url": "https://api.github.com/repos/bitcoin/bitcoin/labels/Docs",
        "name": "Docs",
        "color": "02d7e1",
        "default": false
      }
    ],
    "created_at": "2022-12-30T07:43:57Z",
    "updated_at": "2023-02-17T00:53:51Z",
    "closed_at": "2023-02-16T14:50:13Z",
    "mergeable_state": "unknown",
    "merged_at": "2023-02-16T14:50:13Z",
    "merge_commit_sha": "75f0e0b607cd7ff7afd56853eb34a2b285b22ad2",
    "assignees": [],
    "requested_reviewers": [],
    "requested_teams": [],
    "head": {
      "label": "murrayn:use_db4_on_freebsd",
      "ref": "use_db4_on_freebsd",
      "sha": "c572eae9891476a2fab263b3aa82ed27c17a9225",
      "user": {
        "login": "murrayn",
        "id": 5404807,
        "node_id": "MDQ6VXNlcjU0MDQ4MDc=",
        "avatar_url": "https://avatars.githubusercontent.com/u/5404807?v=4",
        "gravatar_id": "",
        "url": "https://api.github.com/users/murrayn",
        "html_url": "https://github.com/murrayn",
        "followers_url": "https://api.github.com/users/murrayn/followers",
        "following_url": "https://api.github.com/users/murrayn/following%7B/other_user%7D",
        "gists_url": "https://api.github.com/users/murrayn/gists%7B/gist_id%7D",
        "starred_url": "https://api.github.com/users/murrayn/starred%7B/owner%7D%7B/repo%7D",
        "subscriptions_url": "https://api.github.com/users/murrayn/subscriptions",
        "organizations_url": "https://api.github.com/users/murrayn/orgs",
        "repos_url": "https://api.github.com/users/murrayn/repos",
        "events_url": "https://api.github.com/users/murrayn/events%7B/privacy%7D",
        "received_events_url": "https://api.github.com/users/murrayn/received_events",
        "type": "User",
        "site_admin": false
      },
      "repo": {
        "id": 119793914,
        "node_id": "MDEwOlJlcG9zaXRvcnkxMTk3OTM5MTQ=",
        "name": "bitcoin",
        "full_name": "murrayn/bitcoin",
        "owner": {
          "login": "murrayn",
          "id": 5404807,
          "node_id": "MDQ6VXNlcjU0MDQ4MDc=",
          "avatar_url": "https://avatars.githubusercontent.com/u/5404807?v=4",
          "gravatar_id": "",
          "url": "https://api.github.com/users/murrayn",
          "html_url": "https://github.com/murrayn",
          "followers_url": "https://api.github.com/users/murrayn/followers",
          "following_url": "https://api.github.com/users/murrayn/following%7B/other_user%7D",
          "gists_url": "https://api.github.com/users/murrayn/gists%7B/gist_id%7D",
          "starred_url": "https://api.github.com/users/murrayn/starred%7B/owner%7D%7B/repo%7D",
          "subscriptions_url": "https://api.github.com/users/murrayn/subscriptions",
          "organizations_url": "https://api.github.com/users/murrayn/orgs",
          "repos_url": "https://api.github.com/users/murrayn/repos",
          "events_url": "https://api.github.com/users/murrayn/events%7B/privacy%7D",
          "received_events_url": "https://api.github.com/users/murrayn/received_events",
          "type": "User",
          "site_admin": false
        },
        "private": false,
        "html_url": "https://github.com/murrayn/bitcoin",
        "description": "Bitcoin Core integration/staging tree",
        "fork": true,
        "url": "https://api.github.com/repos/murrayn/bitcoin",
        "archive_url": "https://api.github.com/repos/murrayn/bitcoin/%7Barchive_format%7D%7B/ref%7D",
        "assignees_url": "https://api.github.com/repos/murrayn/bitcoin/assignees%7B/user%7D",
        "blobs_url": "https://api.github.com/repos/murrayn/bitcoin/git/blobs%7B/sha%7D",
        "branches_url": "https://api.github.com/repos/murrayn/bitcoin/branches%7B/branch%7D",
        "collaborators_url": "https://api.github.com/repos/murrayn/bitcoin/collaborators%7B/collaborator%7D",
        "comments_url": "https://api.github.com/repos/murrayn/bitcoin/comments%7B/number%7D",
        "commits_url": "https://api.github.com/repos/murrayn/bitcoin/commits%7B/sha%7D",
        "compare_url": "https://api.github.com/repos/murrayn/bitcoin/compare/%7Bbase%7D...%7Bhead%7D",
        "contents_url": "https://api.github.com/repos/murrayn/bitcoin/contents/%7B+path%7D",
        "contributors_url": "https://api.github.com/repos/murrayn/bitcoin/contributors",
        "deployments_url": "https://api.github.com/repos/murrayn/bitcoin/deployments",
        "downloads_url": "https://api.github.com/repos/murrayn/bitcoin/downloads",
        "events_url": "https://api.github.com/repos/murrayn/bitcoin/events",
        "forks_url": "https://api.github.com/repos/murrayn/bitcoin/forks",
        "git_commits_url": "https://api.github.com/repos/murrayn/bitcoin/git/commits%7B/sha%7D",
        "git_refs_url": "https://api.github.com/repos/murrayn/bitcoin/git/refs%7B/sha%7D",
        "git_tags_url": "https://api.github.com/repos/murrayn/bitcoin/git/tags%7B/sha%7D",
        "git_url": "git://github.com/murrayn/bitcoin.git",
        "issue_comment_url": "https://api.github.com/repos/murrayn/bitcoin/issues/comments%7B/number%7D",
        "issue_events_url": "https://api.github.com/repos/murrayn/bitcoin/issues/events%7B/number%7D",
        "issues_url": "https://api.github.com/repos/murrayn/bitcoin/issues%7B/number%7D",
        "keys_url": "https://api.github.com/repos/murrayn/bitcoin/keys%7B/key_id%7D",
        "labels_url": "https://api.github.com/repos/murrayn/bitcoin/labels%7B/name%7D",
        "languages_url": "https://api.github.com/repos/murrayn/bitcoin/languages",
        "merges_url": "https://api.github.com/repos/murrayn/bitcoin/merges",
        "milestones_url": "https://api.github.com/repos/murrayn/bitcoin/milestones%7B/number%7D",
        "notifications_url": "https://api.github.com/repos/murrayn/bitcoin/notifications%7B?since,all,participating}",
        "pulls_url": "https://api.github.com/repos/murrayn/bitcoin/pulls%7B/number%7D",
        "releases_url": "https://api.github.com/repos/murrayn/bitcoin/releases%7B/id%7D",
        "ssh_url": "git@github.com:murrayn/bitcoin.git",
        "stargazers_url": "https://api.github.com/repos/murrayn/bitcoin/stargazers",
        "statuses_url": "https://api.github.com/repos/murrayn/bitcoin/statuses/%7Bsha%7D",
        "subscribers_url": "https://api.github.com/repos/murrayn/bitcoin/subscribers",
        "subscription_url": "https://api.github.com/repos/murrayn/bitcoin/subscription",
        "tags_url": "https://api.github.com/repos/murrayn/bitcoin/tags",
        "teams_url": "https://api.github.com/repos/murrayn/bitcoin/teams",
        "trees_url": "https://api.github.com/repos/murrayn/bitcoin/git/trees%7B/sha%7D",
        "clone_url": "https://github.com/murrayn/bitcoin.git",
        "hooks_url": "https://api.github.com/repos/murrayn/bitcoin/hooks",
        "svn_url": "https://github.com/murrayn/bitcoin",
        "homepage": "https://bitcoin.org/en/download",
        "language": "C++",
        "forks_count": 0,
        "stargazers_count": 1,
        "watchers_count": 1,
        "size": 211886,
        "default_branch": "master",
        "open_issues_count": 0,
        "is_template": false,
        "topics": [],
        "has_issues": false,
        "has_projects": true,
        "has_wiki": false,
        "has_pages": false,
        "has_downloads": false,
        "archived": false,
        "disabled": false,
        "visibility": "public",
        "pushed_at": "2023-06-28T04:28:22Z",
        "created_at": "2018-02-01T06:32:56Z",
        "updated_at": "2021-12-14T05:16:37Z",
        "license": {
          "key": "mit",
          "name": "MIT License",
          "node_id": "MDc6TGljZW5zZTEz",
          "spdx_id": "MIT",
          "url": "https://api.github.com/licenses/mit",
          "html_url": null,
          "description": null,
          "implementation": null,
          "permissions": null,
          "conditions": null,
          "limitations": null,
          "body": null,
          "featured": null
        }
      }
    },
    "base": {
      "label": "bitcoin:master",
      "ref": "master",
      "sha": "68e484afbbc2e43ad7f2140275cf4e09e45b80ae",
      "user": {
        "login": "bitcoin",
        "id": 528860,
        "node_id": "MDEyOk9yZ2FuaXphdGlvbjUyODg2MA==",
        "avatar_url": "https://avatars.githubusercontent.com/u/528860?v=4",
        "gravatar_id": "",
        "url": "https://api.github.com/users/bitcoin",
        "html_url": "https://github.com/bitcoin",
        "followers_url": "https://api.github.com/users/bitcoin/followers",
        "following_url": "https://api.github.com/users/bitcoin/following%7B/other_user%7D",
        "gists_url": "https://api.github.com/users/bitcoin/gists%7B/gist_id%7D",
        "starred_url": "https://api.github.com/users/bitcoin/starred%7B/owner%7D%7B/repo%7D",
        "subscriptions_url": "https://api.github.com/users/bitcoin/subscriptions",
        "organizations_url": "https://api.github.com/users/bitcoin/orgs",
        "repos_url": "https://api.github.com/users/bitcoin/repos",
        "events_url": "https://api.github.com/users/bitcoin/events%7B/privacy%7D",
        "received_events_url": "https://api.github.com/users/bitcoin/received_events",
        "type": "Organization",
        "site_admin": false
      },
      "repo": {
        "id": 1181927,
        "node_id": "MDEwOlJlcG9zaXRvcnkxMTgxOTI3",
        "name": "bitcoin",
        "full_name": "bitcoin/bitcoin",
        "owner": {
          "login": "bitcoin",
          "id": 528860,
          "node_id": "MDEyOk9yZ2FuaXphdGlvbjUyODg2MA==",
          "avatar_url": "https://avatars.githubusercontent.com/u/528860?v=4",
          "gravatar_id": "",
          "url": "https://api.github.com/users/bitcoin",
          "html_url": "https://github.com/bitcoin",
          "followers_url": "https://api.github.com/users/bitcoin/followers",
          "following_url": "https://api.github.com/users/bitcoin/following%7B/other_user%7D",
          "gists_url": "https://api.github.com/users/bitcoin/gists%7B/gist_id%7D",
          "starred_url": "https://api.github.com/users/bitcoin/starred%7B/owner%7D%7B/repo%7D",
          "subscriptions_url": "https://api.github.com/users/bitcoin/subscriptions",
          "organizations_url": "https://api.github.com/users/bitcoin/orgs",
          "repos_url": "https://api.github.com/users/bitcoin/repos",
          "events_url": "https://api.github.com/users/bitcoin/events%7B/privacy%7D",
          "received_events_url": "https://api.github.com/users/bitcoin/received_events",
          "type": "Organization",
          "site_admin": false
        },
        "private": false,
        "html_url": "https://github.com/bitcoin/bitcoin",
        "description": "Bitcoin Core integration/staging tree",
        "fork": false,
        "url": "https://api.github.com/repos/bitcoin/bitcoin",
        "archive_url": "https://api.github.com/repos/bitcoin/bitcoin/%7Barchive_format%7D%7B/ref%7D",
        "assignees_url": "https://api.github.com/repos/bitcoin/bitcoin/assignees%7B/user%7D",
        "blobs_url": "https://api.github.com/repos/bitcoin/bitcoin/git/blobs%7B/sha%7D",
        "branches_url": "https://api.github.com/repos/bitcoin/bitcoin/branches%7B/branch%7D",
        "collaborators_url": "https://api.github.com/repos/bitcoin/bitcoin/collaborators%7B/collaborator%7D",
        "comments_url": "https://api.github.com/repos/bitcoin/bitcoin/comments%7B/number%7D",
        "commits_url": "https://api.github.com/repos/bitcoin/bitcoin/commits%7B/sha%7D",
        "compare_url": "https://api.github.com/repos/bitcoin/bitcoin/compare/%7Bbase%7D...%7Bhead%7D",
        "contents_url": "https://api.github.com/repos/bitcoin/bitcoin/contents/%7B+path%7D",
        "contributors_url": "https://api.github.com/repos/bitcoin/bitcoin/contributors",
        "deployments_url": "https://api.github.com/repos/bitcoin/bitcoin/deployments",
        "downloads_url": "https://api.github.com/repos/bitcoin/bitcoin/downloads",
        "events_url": "https://api.github.com/repos/bitcoin/bitcoin/events",
        "forks_url": "https://api.github.com/repos/bitcoin/bitcoin/forks",
        "git_commits_url": "https://api.github.com/repos/bitcoin/bitcoin/git/commits%7B/sha%7D",
        "git_refs_url": "https://api.github.com/repos/bitcoin/bitcoin/git/refs%7B/sha%7D",
        "git_tags_url": "https://api.github.com/repos/bitcoin/bitcoin/git/tags%7B/sha%7D",
        "git_url": "git://github.com/bitcoin/bitcoin.git",
        "issue_comment_url": "https://api.github.com/repos/bitcoin/bitcoin/issues/comments%7B/number%7D",
        "issue_events_url": "https://api.github.com/repos/bitcoin/bitcoin/issues/events%7B/number%7D",
        "issues_url": "https://api.github.com/repos/bitcoin/bitcoin/issues%7B/number%7D",
        "keys_url": "https://api.github.com/repos/bitcoin/bitcoin/keys%7B/key_id%7D",
        "labels_url": "https://api.github.com/repos/bitcoin/bitcoin/labels%7B/name%7D",
        "languages_url": "https://api.github.com/repos/bitcoin/bitcoin/languages",
        "merges_url": "https://api.github.com/repos/bitcoin/bitcoin/merges",
        "milestones_url": "https://api.github.com/repos/bitcoin/bitcoin/milestones%7B/number%7D",
        "notifications_url": "https://api.github.com/repos/bitcoin/bitcoin/notifications%7B?since,all,participating}",
        "pulls_url": "https://api.github.com/repos/bitcoin/bitcoin/pulls%7B/number%7D",
        "releases_url": "https://api.github.com/repos/bitcoin/bitcoin/releases%7B/id%7D",
        "ssh_url": "git@github.com:bitcoin/bitcoin.git",
        "stargazers_url": "https://api.github.com/repos/bitcoin/bitcoin/stargazers",
        "statuses_url": "https://api.github.com/repos/bitcoin/bitcoin/statuses/%7Bsha%7D",
        "subscribers_url": "https://api.github.com/repos/bitcoin/bitcoin/subscribers",
        "subscription_url": "https://api.github.com/repos/bitcoin/bitcoin/subscription",
        "tags_url": "https://api.github.com/repos/bitcoin/bitcoin/tags",
        "teams_url": "https://api.github.com/repos/bitcoin/bitcoin/teams",
        "trees_url": "https://api.github.com/repos/bitcoin/bitcoin/git/trees%7B/sha%7D",
        "clone_url": "https://github.com/bitcoin/bitcoin.git",
        "hooks_url": "https://api.github.com/repos/bitcoin/bitcoin/hooks",
        "svn_url": "https://github.com/bitcoin/bitcoin",
        "homepage": "https://bitcoincore.org/en/download",
        "language": "C++",
        "forks_count": 35476,
        "stargazers_count": 70608,
        "watchers_count": 70608,
        "size": 236222,
        "default_branch": "master",
        "open_issues_count": 673,
        "is_template": false,
        "topics": [
          "bitcoin",
          "c-plus-plus",
          "cryptocurrency",
          "cryptography",
          "p2p"
        ],
        "has_issues": true,
        "has_projects": true,
        "has_wiki": false,
        "has_pages": false,
        "has_downloads": false,
        "archived": false,
        "disabled": false,
        "visibility": "public",
        "pushed_at": "2023-08-03T00:03:27Z",
        "created_at": "2010-12-19T15:16:43Z",
        "updated_at": "2023-08-02T18:21:18Z",
        "license": {
          "key": "mit",
          "name": "MIT License",
          "node_id": "MDc6TGljZW5zZTEz",
          "spdx_id": "MIT",
          "url": "https://api.github.com/licenses/mit",
          "html_url": null,
          "description": null,
          "implementation": null,
          "permissions": null,
          "conditions": null,
          "limitations": null,
          "body": null,
          "featured": null
        }
      }
    },
    "_links": {
      "self": {
        "href": "https://api.github.com/repos/bitcoin/bitcoin/pulls/26773"
      }
    },
    "author_association": "CONTRIBUTOR",
    "draft": false,
    "additions": 26,
    "deletions": 9,
    "changed_files": 1,
    "commits": 1,
    "review_comments": 5,
    "comments": 5
  },
  "events": [
    {
      "event": "commented",
      "id": 1367775195,
      "node_id": "IC_kwDOABII585Rhpfb",
      "url": "https://api.github.com/repos/bitcoin/bitcoin/issues/comments/1367775195",
      "actor": {
        "login": "DrahtBot",
        "id": 39886733,
        "node_id": "MDQ6VXNlcjM5ODg2NzMz",
        "avatar_url": "https://avatars.githubusercontent.com/u/39886733?v=4",
        "gravatar_id": "",
        "url": "https://api.github.com/users/DrahtBot",
        "html_url": "https://github.com/DrahtBot",
        "followers_url": "https://api.github.com/users/DrahtBot/followers",
        "following_url": "https://api.github.com/users/DrahtBot/following%7B/other_user%7D",
        "gists_url": "https://api.github.com/users/DrahtBot/gists%7B/gist_id%7D",
        "starred_url": "https://api.github.com/users/DrahtBot/starred%7B/owner%7D%7B/repo%7D",
        "subscriptions_url": "https://api.github.com/users/DrahtBot/subscriptions",
        "organizations_url": "https://api.github.com/users/DrahtBot/orgs",
        "repos_url": "https://api.github.com/users/DrahtBot/repos",
        "events_url": "https://api.github.com/users/DrahtBot/events%7B/privacy%7D",
        "received_events_url": "https://api.github.com/users/DrahtBot/received_events",
        "type": "User",
        "site_admin": false
      },
      "commit_id": null,
      "commit_url": null,
      "created_at": "2022-12-30T07:44:00Z",
      "updated_at": "2023-02-16T10:42:24Z",
      "author_association": "CONTRIBUTOR",
      "body": "<!--e57a25ab6845829454e8d69fc972939a-->\n\nThe following sections might be updated with supplementary metadata relevant to reviewers and maintainers.\n\n<!--021abf342d371248e50ceaed478a90ca-->\n### Reviews\nSee [the guideline](https://github.com/bitcoin/bitcoin/blob/master/CONTRIBUTING.md#code-review) for information on the review process.\n| Type | Reviewers |\n| ---- | --------- |\n| ACK | [fanquake](https://github.com/bitcoin/bitcoin/pull/26773#pullrequestreview-1301184725) |\n\nIf your review is incorrectly listed, please react with 👎 to this comment and the bot will ignore it on the next update.\n",
      "user": {
        "login": "DrahtBot",
        "id": 39886733,
        "node_id": "MDQ6VXNlcjM5ODg2NzMz",
        "avatar_url": "https://avatars.githubusercontent.com/u/39886733?v=4",
        "gravatar_id": "",
        "url": "https://api.github.com/users/DrahtBot",
        "html_url": "https://github.com/DrahtBot",
        "followers_url": "https://api.github.com/users/DrahtBot/followers",
        "following_url": "https://api.github.com/users/DrahtBot/following%7B/other_user%7D",
        "gists_url": "https://api.github.com/users/DrahtBot/gists%7B/gist_id%7D",
        "starred_url": "https://api.github.com/users/DrahtBot/starred%7B/owner%7D%7B/repo%7D",
        "subscriptions_url": "https://api.github.com/users/DrahtBot/subscriptions",
        "organizations_url": "https://api.github.com/users/DrahtBot/orgs",
        "repos_url": "https://api.github.com/users/DrahtBot/repos",
        "events_url": "https://api.github.com/users/DrahtBot/events%7B/privacy%7D",
        "received_events_url": "https://api.github.com/users/DrahtBot/received_events",
        "type": "User",
        "site_admin": false
      },
      "html_url": "https://github.com/bitcoin/bitcoin/pull/26773#issuecomment-1367775195",
      "issue_url": "https://api.github.com/repos/bitcoin/bitcoin/issues/26773"
    },
    {
      "event": "labeled",
      "id": 8129351321,
      "node_id": "LE_lADOABII585aQqWCzwAAAAHkjA6Z",
      "url": "https://api.github.com/repos/bitcoin/bitcoin/issues/events/8129351321",
      "actor": {
        "login": "DrahtBot",
        "id": 39886733,
        "node_id": "MDQ6VXNlcjM5ODg2NzMz",
        "avatar_url": "https://avatars.githubusercontent.com/u/39886733?v=4",
        "gravatar_id": "",
        "url": "https://api.github.com/users/DrahtBot",
        "html_url": "https://github.com/DrahtBot",
        "followers_url": "https://api.github.com/users/DrahtBot/followers",
        "following_url": "https://api.github.com/users/DrahtBot/following%7B/other_user%7D",
        "gists_url": "https://api.github.com/users/DrahtBot/gists%7B/gist_id%7D",
        "starred_url": "https://api.github.com/users/DrahtBot/starred%7B/owner%7D%7B/repo%7D",
        "subscriptions_url": "https://api.github.com/users/DrahtBot/subscriptions",
        "organizations_url": "https://api.github.com/users/DrahtBot/orgs",
        "repos_url": "https://api.github.com/users/DrahtBot/repos",
        "events_url": "https://api.github.com/users/DrahtBot/events%7B/privacy%7D",
        "received_events_url": "https://api.github.com/users/DrahtBot/received_events",
        "type": "User",
        "site_admin": false
      },
      "commit_id": null,
      "commit_url": null,
      "created_at": "2022-12-30T07:44:01Z",
      "label": {
        "name": "Docs",
        "color": "02d7e1"
      }
    },
    {
      "event": "reviewed",
      "id": 1232983955,
      "node_id": "PRR_kwDOABII585JfdeT",
      "url": null,
      "actor": null,
      "commit_id": "f0367cb2d548760b504075a967854c2efd037b1e",
      "commit_url": null,
      "created_at": null,
      "author_association": "MEMBER",
      "user": {
        "login": "MarcoFalke",
        "id": 6399679,
        "node_id": "MDQ6VXNlcjYzOTk2Nzk=",
        "avatar_url": "https://avatars.githubusercontent.com/u/6399679?v=4",
        "gravatar_id": "",
        "url": "https://api.github.com/users/MarcoFalke",
        "html_url": "https://github.com/MarcoFalke",
        "followers_url": "https://api.github.com/users/MarcoFalke/followers",
        "following_url": "https://api.github.com/users/MarcoFalke/following%7B/other_user%7D",
        "gists_url": "https://api.github.com/users/MarcoFalke/gists%7B/gist_id%7D",
        "starred_url": "https://api.github.com/users/MarcoFalke/starred%7B/owner%7D%7B/repo%7D",
        "subscriptions_url": "https://api.github.com/users/MarcoFalke/subscriptions",
        "organizations_url": "https://api.github.com/users/MarcoFalke/orgs",
        "repos_url": "https://api.github.com/users/MarcoFalke/repos",
        "events_url": "https://api.github.com/users/MarcoFalke/events%7B/privacy%7D",
        "received_events_url": "https://api.github.com/users/MarcoFalke/received_events",
        "type": "User",
        "site_admin": false
      },
      "html_url": "https://github.com/bitcoin/bitcoin/pull/26773#pullrequestreview-1232983955",
      "submitted_at": "2022-12-30T09:53:01Z",
      "state": "COMMENTED",
      "pull_request_url": "https://api.github.com/repos/bitcoin/bitcoin/pulls/26773"
    },
    {
      "event": "convert_to_draft",
      "id": 8150140692,
      "node_id": "CTDE_lADOABII585aQqWCzwAAAAHlyUcU",
      "url": "https://api.github.com/repos/bitcoin/bitcoin/issues/events/8150140692",
      "actor": {
        "login": "murrayn",
        "id": 5404807,
        "node_id": "MDQ6VXNlcjU0MDQ4MDc=",
        "avatar_url": "https://avatars.githubusercontent.com/u/5404807?v=4",
        "gravatar_id": "",
        "url": "https://api.github.com/users/murrayn",
        "html_url": "https://github.com/murrayn",
        "followers_url": "https://api.github.com/users/murrayn/followers",
        "following_url": "https://api.github.com/users/murrayn/following%7B/other_user%7D",
        "gists_url": "https://api.github.com/users/murrayn/gists%7B/gist_id%7D",
        "starred_url": "https://api.github.com/users/murrayn/starred%7B/owner%7D%7B/repo%7D",
        "subscriptions_url": "https://api.github.com/users/murrayn/subscriptions",
        "organizations_url": "https://api.github.com/users/murrayn/orgs",
        "repos_url": "https://api.github.com/users/murrayn/repos",
        "events_url": "https://api.github.com/users/murrayn/events%7B/privacy%7D",
        "received_events_url": "https://api.github.com/users/murrayn/received_events",
        "type": "User",
        "site_admin": false
      },
      "commit_id": null,
      "commit_url": null,
      "created_at": "2023-01-04T11:09:16Z"
    },
    {
      "event": "ready_for_review",
      "id": 8166728893,
      "node_id": "RFRE_lADOABII585aQqWCzwAAAAHmxmS9",
      "url": "https://api.github.com/repos/bitcoin/bitcoin/issues/events/8166728893",
      "actor": {
        "login": "murrayn",
        "id": 5404807,
        "node_id": "MDQ6VXNlcjU0MDQ4MDc=",
        "avatar_url": "https://avatars.githubusercontent.com/u/5404807?v=4",
        "gravatar_id": "",
        "url": "https://api.github.com/users/murrayn",
        "html_url": "https://github.com/murrayn",
        "followers_url": "https://api.github.com/users/murrayn/followers",
        "following_url": "https://api.github.com/users/murrayn/following%7B/other_user%7D",
        "gists_url": "https://api.github.com/users/murrayn/gists%7B/gist_id%7D",
        "starred_url": "https://api.github.com/users/murrayn/starred%7B/owner%7D%7B/repo%7D",
        "subscriptions_url": "https://api.github.com/users/murrayn/subscriptions",
        "organizations_url": "https://api.github.com/users/murrayn/orgs",
        "repos_url": "https://api.github.com/users/murrayn/repos",
        "events_url": "https://api.github.com/users/murrayn/events%7B/privacy%7D",
        "received_events_url": "https://api.github.com/users/murrayn/received_events",
        "type": "User",
        "site_admin": false
      },
      "commit_id": null,
      "commit_url": null,
      "created_at": "2023-01-06T07:35:29Z"
    },
    {
      "event": "commented",
      "id": 1373428859,
      "node_id": "IC_kwDOABII585R3Nx7",
      "url": "https://api.github.com/repos/bitcoin/bitcoin/issues/comments/1373428859",
      "actor": {
        "login": "fanquake",
        "id": 863730,
        "node_id": "MDQ6VXNlcjg2MzczMA==",
        "avatar_url": "https://avatars.githubusercontent.com/u/863730?v=4",
        "gravatar_id": "",
        "url": "https://api.github.com/users/fanquake",
        "html_url": "https://github.com/fanquake",
        "followers_url": "https://api.github.com/users/fanquake/followers",
        "following_url": "https://api.github.com/users/fanquake/following%7B/other_user%7D",
        "gists_url": "https://api.github.com/users/fanquake/gists%7B/gist_id%7D",
        "starred_url": "https://api.github.com/users/fanquake/starred%7B/owner%7D%7B/repo%7D",
        "subscriptions_url": "https://api.github.com/users/fanquake/subscriptions",
        "organizations_url": "https://api.github.com/users/fanquake/orgs",
        "repos_url": "https://api.github.com/users/fanquake/repos",
        "events_url": "https://api.github.com/users/fanquake/events%7B/privacy%7D",
        "received_events_url": "https://api.github.com/users/fanquake/received_events",
        "type": "User",
        "site_admin": false
      },
      "commit_id": null,
      "commit_url": null,
      "created_at": "2023-01-06T10:09:42Z",
      "updated_at": "2023-01-06T10:09:42Z",
      "author_association": "MEMBER",
      "body": "See #26834. Would rather not add more usage of install_db4.sh.",
      "user": {
        "login": "fanquake",
        "id": 863730,
        "node_id": "MDQ6VXNlcjg2MzczMA==",
        "avatar_url": "https://avatars.githubusercontent.com/u/863730?v=4",
        "gravatar_id": "",
        "url": "https://api.github.com/users/fanquake",
        "html_url": "https://github.com/fanquake",
        "followers_url": "https://api.github.com/users/fanquake/followers",
        "following_url": "https://api.github.com/users/fanquake/following%7B/other_user%7D",
        "gists_url": "https://api.github.com/users/fanquake/gists%7B/gist_id%7D",
        "starred_url": "https://api.github.com/users/fanquake/starred%7B/owner%7D%7B/repo%7D",
        "subscriptions_url": "https://api.github.com/users/fanquake/subscriptions",
        "organizations_url": "https://api.github.com/users/fanquake/orgs",
        "repos_url": "https://api.github.com/users/fanquake/repos",
        "events_url": "https://api.github.com/users/fanquake/events%7B/privacy%7D",
        "received_events_url": "https://api.github.com/users/fanquake/received_events",
        "type": "User",
        "site_admin": false
      },
      "html_url": "https://github.com/bitcoin/bitcoin/pull/26773#issuecomment-1373428859",
      "issue_url": "https://api.github.com/repos/bitcoin/bitcoin/issues/26773"
    },
    {
      "event": "commented",
      "id": 1380251975,
      "node_id": "IC_kwDOABII585SRPlH",
      "url": "https://api.github.com/repos/bitcoin/bitcoin/issues/comments/1380251975",
      "actor": {
        "login": "murrayn",
        "id": 5404807,
        "node_id": "MDQ6VXNlcjU0MDQ4MDc=",
        "avatar_url": "https://avatars.githubusercontent.com/u/5404807?v=4",
        "gravatar_id": "",
        "url": "https://api.github.com/users/murrayn",
        "html_url": "https://github.com/murrayn",
        "followers_url": "https://api.github.com/users/murrayn/followers",
        "following_url": "https://api.github.com/users/murrayn/following%7B/other_user%7D",
        "gists_url": "https://api.github.com/users/murrayn/gists%7B/gist_id%7D",
        "starred_url": "https://api.github.com/users/murrayn/starred%7B/owner%7D%7B/repo%7D",
        "subscriptions_url": "https://api.github.com/users/murrayn/subscriptions",
        "organizations_url": "https://api.github.com/users/murrayn/orgs",
        "repos_url": "https://api.github.com/users/murrayn/repos",
        "events_url": "https://api.github.com/users/murrayn/events%7B/privacy%7D",
        "received_events_url": "https://api.github.com/users/murrayn/received_events",
        "type": "User",
        "site_admin": false
      },
      "commit_id": null,
      "commit_url": null,
      "created_at": "2023-01-12T12:24:35Z",
      "updated_at": "2023-01-12T12:24:35Z",
      "author_association": "CONTRIBUTOR",
      "body": "> See #26834. Would rather not add more usage of install_db4.sh.\r\n\r\nYes, but meanwhile the doc is incorrect.\r\n",
      "user": {
        "login": "murrayn",
        "id": 5404807,
        "node_id": "MDQ6VXNlcjU0MDQ4MDc=",
        "avatar_url": "https://avatars.githubusercontent.com/u/5404807?v=4",
        "gravatar_id": "",
        "url": "https://api.github.com/users/murrayn",
        "html_url": "https://github.com/murrayn",
        "followers_url": "https://api.github.com/users/murrayn/followers",
        "following_url": "https://api.github.com/users/murrayn/following%7B/other_user%7D",
        "gists_url": "https://api.github.com/users/murrayn/gists%7B/gist_id%7D",
        "starred_url": "https://api.github.com/users/murrayn/starred%7B/owner%7D%7B/repo%7D",
        "subscriptions_url": "https://api.github.com/users/murrayn/subscriptions",
        "organizations_url": "https://api.github.com/users/murrayn/orgs",
        "repos_url": "https://api.github.com/users/murrayn/repos",
        "events_url": "https://api.github.com/users/murrayn/events%7B/privacy%7D",
        "received_events_url": "https://api.github.com/users/murrayn/received_events",
        "type": "User",
        "site_admin": false
      },
      "html_url": "https://github.com/bitcoin/bitcoin/pull/26773#issuecomment-1380251975",
      "issue_url": "https://api.github.com/repos/bitcoin/bitcoin/issues/26773"
    },
    {
      "event": "reviewed",
      "id": 1246939370,
      "node_id": "PRR_kwDOABII585KUsjq",
      "url": null,
      "actor": null,
      "commit_id": "f0367cb2d548760b504075a967854c2efd037b1e",
      "commit_url": null,
      "created_at": null,
      "author_association": "MEMBER",
      "body": "no strong opinion\r\n\r\nThere's sometimes unsaid knowledge in some of these docs, and we can do a much better job of figuring out what is all the information people need to know and organize it effectively. As someone who's worked on the bsd docs, in my head the doc recommends db5 because the doc is meant to guide a user through a dynamic compile using packages they install with their package manager. There's many ways to compile core, and people need to make their own decisions as to how they want to accomplish the task.\r\n\r\nThe install_db4 script is meant for when there's no easy way to get a bin from a package manager and as a last resort option because you really don't want any static builds. Additionally, There are plans to move away from any bdb support, but that's further out. Descriptor wallets use sqlite. \r\n\r\nDebating whether to use db5 or db4 without patches that we need (in depends) isn't so useful when, given the circumstances of this dependency, the recommendation should be to build it using depends.\r\n\r\nNow, I would say that we could include a note here to build bdb with depends and then configure with the bdb prefix, but this would end up duplicated across the build docs for other systems where there is no db4 package.",
      "user": {
        "login": "jarolrod",
        "id": 23396902,
        "node_id": "MDQ6VXNlcjIzMzk2OTAy",
        "avatar_url": "https://avatars.githubusercontent.com/u/23396902?v=4",
        "gravatar_id": "",
        "url": "https://api.github.com/users/jarolrod",
        "html_url": "https://github.com/jarolrod",
        "followers_url": "https://api.github.com/users/jarolrod/followers",
        "following_url": "https://api.github.com/users/jarolrod/following%7B/other_user%7D",
        "gists_url": "https://api.github.com/users/jarolrod/gists%7B/gist_id%7D",
        "starred_url": "https://api.github.com/users/jarolrod/starred%7B/owner%7D%7B/repo%7D",
        "subscriptions_url": "https://api.github.com/users/jarolrod/subscriptions",
        "organizations_url": "https://api.github.com/users/jarolrod/orgs",
        "repos_url": "https://api.github.com/users/jarolrod/repos",
        "events_url": "https://api.github.com/users/jarolrod/events%7B/privacy%7D",
        "received_events_url": "https://api.github.com/users/jarolrod/received_events",
        "type": "User",
        "site_admin": false
      },
      "html_url": "https://github.com/bitcoin/bitcoin/pull/26773#pullrequestreview-1246939370",
      "submitted_at": "2023-01-13T05:51:17Z",
      "state": "COMMENTED",
      "pull_request_url": "https://api.github.com/repos/bitcoin/bitcoin/pulls/26773"
    },
    {
      "event": "commented",
      "id": 1381685556,
      "node_id": "IC_kwDOABII585SWtk0",
      "url": "https://api.github.com/repos/bitcoin/bitcoin/issues/comments/1381685556",
      "actor": {
        "login": "murrayn",
        "id": 5404807,
        "node_id": "MDQ6VXNlcjU0MDQ4MDc=",
        "avatar_url": "https://avatars.githubusercontent.com/u/5404807?v=4",
        "gravatar_id": "",
        "url": "https://api.github.com/users/murrayn",
        "html_url": "https://github.com/murrayn",
        "followers_url": "https://api.github.com/users/murrayn/followers",
        "following_url": "https://api.github.com/users/murrayn/following%7B/other_user%7D",
        "gists_url": "https://api.github.com/users/murrayn/gists%7B/gist_id%7D",
        "starred_url": "https://api.github.com/users/murrayn/starred%7B/owner%7D%7B/repo%7D",
        "subscriptions_url": "https://api.github.com/users/murrayn/subscriptions",
        "organizations_url": "https://api.github.com/users/murrayn/orgs",
        "repos_url": "https://api.github.com/users/murrayn/repos",
        "events_url": "https://api.github.com/users/murrayn/events%7B/privacy%7D",
        "received_events_url": "https://api.github.com/users/murrayn/received_events",
        "type": "User",
        "site_admin": false
      },
      "commit_id": null,
      "commit_url": null,
      "created_at": "2023-01-13T11:02:57Z",
      "updated_at": "2023-01-13T11:02:57Z",
      "author_association": "CONTRIBUTOR",
      "body": "> The install_db4 script is meant for when there's no easy way to get a bin from a package manager\r\n\r\n`install_db4.sh`  is called for here because `db4` is not available in package managers (or the ports system in the case of *BSD), but is required for legacy wallet support.\r\n\r\n> Debating whether to use db5 or db4\r\n\r\nThis is not the debate. db4 should be used for legacy wallet support. The section of the documentation we are discussing is specifically for legacy wallet support, and it is currently incorrect.\r\n\r\nI support #26834 and when it is merged this section (and the same sections in the Unix and OpenBSD build documents) will need to be updated regardless.",
      "user": {
        "login": "murrayn",
        "id": 5404807,
        "node_id": "MDQ6VXNlcjU0MDQ4MDc=",
        "avatar_url": "https://avatars.githubusercontent.com/u/5404807?v=4",
        "gravatar_id": "",
        "url": "https://api.github.com/users/murrayn",
        "html_url": "https://github.com/murrayn",
        "followers_url": "https://api.github.com/users/murrayn/followers",
        "following_url": "https://api.github.com/users/murrayn/following%7B/other_user%7D",
        "gists_url": "https://api.github.com/users/murrayn/gists%7B/gist_id%7D",
        "starred_url": "https://api.github.com/users/murrayn/starred%7B/owner%7D%7B/repo%7D",
        "subscriptions_url": "https://api.github.com/users/murrayn/subscriptions",
        "organizations_url": "https://api.github.com/users/murrayn/orgs",
        "repos_url": "https://api.github.com/users/murrayn/repos",
        "events_url": "https://api.github.com/users/murrayn/events%7B/privacy%7D",
        "received_events_url": "https://api.github.com/users/murrayn/received_events",
        "type": "User",
        "site_admin": false
      },
      "html_url": "https://github.com/bitcoin/bitcoin/pull/26773#issuecomment-1381685556",
      "issue_url": "https://api.github.com/repos/bitcoin/bitcoin/issues/26773"
    },
    {
      "event": "head_ref_force_pushed",
      "id": 8225653870,
      "node_id": "HRFPE_lADOABII585aQqWCzwAAAAHqSYRu",
      "url": "https://api.github.com/repos/bitcoin/bitcoin/issues/events/8225653870",
      "actor": {
        "login": "murrayn",
        "id": 5404807,
        "node_id": "MDQ6VXNlcjU0MDQ4MDc=",
        "avatar_url": "https://avatars.githubusercontent.com/u/5404807?v=4",
        "gravatar_id": "",
        "url": "https://api.github.com/users/murrayn",
        "html_url": "https://github.com/murrayn",
        "followers_url": "https://api.github.com/users/murrayn/followers",
        "following_url": "https://api.github.com/users/murrayn/following%7B/other_user%7D",
        "gists_url": "https://api.github.com/users/murrayn/gists%7B/gist_id%7D",
        "starred_url": "https://api.github.com/users/murrayn/starred%7B/owner%7D%7B/repo%7D",
        "subscriptions_url": "https://api.github.com/users/murrayn/subscriptions",
        "organizations_url": "https://api.github.com/users/murrayn/orgs",
        "repos_url": "https://api.github.com/users/murrayn/repos",
        "events_url": "https://api.github.com/users/murrayn/events%7B/privacy%7D",
        "received_events_url": "https://api.github.com/users/murrayn/received_events",
        "type": "User",
        "site_admin": false
      },
      "commit_id": null,
      "commit_url": null,
      "created_at": "2023-01-14T01:53:00Z"
    },
    {
      "event": "head_ref_force_pushed",
      "id": 8523731208,
      "node_id": "HRFPE_lADOABII585aQqWCzwAAAAH8DdEI",
      "url": "https://api.github.com/repos/bitcoin/bitcoin/issues/events/8523731208",
      "actor": {
        "login": "murrayn",
        "id": 5404807,
        "node_id": "MDQ6VXNlcjU0MDQ4MDc=",
        "avatar_url": "https://avatars.githubusercontent.com/u/5404807?v=4",
        "gravatar_id": "",
        "url": "https://api.github.com/users/murrayn",
        "html_url": "https://github.com/murrayn",
        "followers_url": "https://api.github.com/users/murrayn/followers",
        "following_url": "https://api.github.com/users/murrayn/following%7B/other_user%7D",
        "gists_url": "https://api.github.com/users/murrayn/gists%7B/gist_id%7D",
        "starred_url": "https://api.github.com/users/murrayn/starred%7B/owner%7D%7B/repo%7D",
        "subscriptions_url": "https://api.github.com/users/murrayn/subscriptions",
        "organizations_url": "https://api.github.com/users/murrayn/orgs",
        "repos_url": "https://api.github.com/users/murrayn/repos",
        "events_url": "https://api.github.com/users/murrayn/events%7B/privacy%7D",
        "received_events_url": "https://api.github.com/users/murrayn/received_events",
        "type": "User",
        "site_admin": false
      },
      "commit_id": null,
      "commit_url": null,
      "created_at": "2023-02-15T09:08:59Z"
    },
    {
      "event": "committed",
      "id": null,
      "node_id": "C_kwDOABII59oAKGM1NzJlYWU5ODkxNDc2YTJmYWIyNjNiM2FhODJlZDI3YzE3YTkyMjU",
      "url": "https://api.github.com/repos/bitcoin/bitcoin/git/commits/c572eae9891476a2fab263b3aa82ed27c17a9225",
      "actor": null,
      "commit_id": null,
      "commit_url": null,
      "created_at": null,
      "html_url": "https://github.com/bitcoin/bitcoin/commit/c572eae9891476a2fab263b3aa82ed27c17a9225",
      "tree": {
        "sha": "3b949875a54f1616599510c74735e321a84a59af",
        "url": "https://api.github.com/repos/bitcoin/bitcoin/git/trees/3b949875a54f1616599510c74735e321a84a59af"
      },
      "verification": {
        "verified": false,
        "reason": "unsigned",
        "payload": null,
        "signature": null
      },
      "parents": [
        {
          "url": "https://api.github.com/repos/bitcoin/bitcoin/git/commits/65de8eeeca29e71378aa34602b287ab921b040e4",
          "sha": "65de8eeeca29e71378aa34602b287ab921b040e4",
          "html_url": "https://github.com/bitcoin/bitcoin/commit/65de8eeeca29e71378aa34602b287ab921b040e4"
        }
      ],
      "message": "update the freebsd build doc to reflect recent changes to DB4 install process",
      "committer": {
        "name": "Murray Nesbitt",
        "email": "github@nesbitt.ca",
        "date": "2023-02-15T09:12:00Z"
      },
      "author": {
        "name": "Murray Nesbitt",
        "email": "github@nesbitt.ca",
        "date": "2022-12-30T06:32:50Z"
      },
      "sha": "c572eae9891476a2fab263b3aa82ed27c17a9225"
    },
    {
      "event": "head_ref_force_pushed",
      "id": 8523765413,
      "node_id": "HRFPE_lADOABII585aQqWCzwAAAAH8Dlal",
      "url": "https://api.github.com/repos/bitcoin/bitcoin/issues/events/8523765413",
      "actor": {
        "login": "murrayn",
        "id": 5404807,
        "node_id": "MDQ6VXNlcjU0MDQ4MDc=",
        "avatar_url": "https://avatars.githubusercontent.com/u/5404807?v=4",
        "gravatar_id": "",
        "url": "https://api.github.com/users/murrayn",
        "html_url": "https://github.com/murrayn",
        "followers_url": "https://api.github.com/users/murrayn/followers",
        "following_url": "https://api.github.com/users/murrayn/following%7B/other_user%7D",
        "gists_url": "https://api.github.com/users/murrayn/gists%7B/gist_id%7D",
        "starred_url": "https://api.github.com/users/murrayn/starred%7B/owner%7D%7B/repo%7D",
        "subscriptions_url": "https://api.github.com/users/murrayn/subscriptions",
        "organizations_url": "https://api.github.com/users/murrayn/orgs",
        "repos_url": "https://api.github.com/users/murrayn/repos",
        "events_url": "https://api.github.com/users/murrayn/events%7B/privacy%7D",
        "received_events_url": "https://api.github.com/users/murrayn/received_events",
        "type": "User",
        "site_admin": false
      },
      "commit_id": null,
      "commit_url": null,
      "created_at": "2023-02-15T09:12:33Z"
    },
    {
      "event": "commented",
      "id": 1430998296,
      "node_id": "IC_kwDOABII585VS00Y",
      "url": "https://api.github.com/repos/bitcoin/bitcoin/issues/comments/1430998296",
      "actor": {
        "login": "murrayn",
        "id": 5404807,
        "node_id": "MDQ6VXNlcjU0MDQ4MDc=",
        "avatar_url": "https://avatars.githubusercontent.com/u/5404807?v=4",
        "gravatar_id": "",
        "url": "https://api.github.com/users/murrayn",
        "html_url": "https://github.com/murrayn",
        "followers_url": "https://api.github.com/users/murrayn/followers",
        "following_url": "https://api.github.com/users/murrayn/following%7B/other_user%7D",
        "gists_url": "https://api.github.com/users/murrayn/gists%7B/gist_id%7D",
        "starred_url": "https://api.github.com/users/murrayn/starred%7B/owner%7D%7B/repo%7D",
        "subscriptions_url": "https://api.github.com/users/murrayn/subscriptions",
        "organizations_url": "https://api.github.com/users/murrayn/orgs",
        "repos_url": "https://api.github.com/users/murrayn/repos",
        "events_url": "https://api.github.com/users/murrayn/events%7B/privacy%7D",
        "received_events_url": "https://api.github.com/users/murrayn/received_events",
        "type": "User",
        "site_admin": false
      },
      "commit_id": null,
      "commit_url": null,
      "created_at": "2023-02-15T09:19:42Z",
      "updated_at": "2023-02-15T09:19:42Z",
      "author_association": "CONTRIBUTOR",
      "body": "I've updated the document to reflect the removal of `install_db4.sh`  #26834\r\n",
      "user": {
        "login": "murrayn",
        "id": 5404807,
        "node_id": "MDQ6VXNlcjU0MDQ4MDc=",
        "avatar_url": "https://avatars.githubusercontent.com/u/5404807?v=4",
        "gravatar_id": "",
        "url": "https://api.github.com/users/murrayn",
        "html_url": "https://github.com/murrayn",
        "followers_url": "https://api.github.com/users/murrayn/followers",
        "following_url": "https://api.github.com/users/murrayn/following%7B/other_user%7D",
        "gists_url": "https://api.github.com/users/murrayn/gists%7B/gist_id%7D",
        "starred_url": "https://api.github.com/users/murrayn/starred%7B/owner%7D%7B/repo%7D",
        "subscriptions_url": "https://api.github.com/users/murrayn/subscriptions",
        "organizations_url": "https://api.github.com/users/murrayn/orgs",
        "repos_url": "https://api.github.com/users/murrayn/repos",
        "events_url": "https://api.github.com/users/murrayn/events%7B/privacy%7D",
        "received_events_url": "https://api.github.com/users/murrayn/received_events",
        "type": "User",
        "site_admin": false
      },
      "html_url": "https://github.com/bitcoin/bitcoin/pull/26773#issuecomment-1430998296",
      "issue_url": "https://api.github.com/repos/bitcoin/bitcoin/issues/26773"
    },
    {
      "event": "renamed",
      "id": 8523856031,
      "node_id": "RTE_lADOABII585aQqWCzwAAAAH8D7if",
      "url": "https://api.github.com/repos/bitcoin/bitcoin/issues/events/8523856031",
      "actor": {
        "login": "murrayn",
        "id": 5404807,
        "node_id": "MDQ6VXNlcjU0MDQ4MDc=",
        "avatar_url": "https://avatars.githubusercontent.com/u/5404807?v=4",
        "gravatar_id": "",
        "url": "https://api.github.com/users/murrayn",
        "html_url": "https://github.com/murrayn",
        "followers_url": "https://api.github.com/users/murrayn/followers",
        "following_url": "https://api.github.com/users/murrayn/following%7B/other_user%7D",
        "gists_url": "https://api.github.com/users/murrayn/gists%7B/gist_id%7D",
        "starred_url": "https://api.github.com/users/murrayn/starred%7B/owner%7D%7B/repo%7D",
        "subscriptions_url": "https://api.github.com/users/murrayn/subscriptions",
        "organizations_url": "https://api.github.com/users/murrayn/orgs",
        "repos_url": "https://api.github.com/users/murrayn/repos",
        "events_url": "https://api.github.com/users/murrayn/events%7B/privacy%7D",
        "received_events_url": "https://api.github.com/users/murrayn/received_events",
        "type": "User",
        "site_admin": false
      },
      "commit_id": null,
      "commit_url": null,
      "created_at": "2023-02-15T09:21:35Z",
      "rename": {
        "from": "doc: FreeBSD build doc should suggest db4 for legacy wallet support",
        "to": "doc: FreeBSD build doc updates to reflect removal of install_db4.sh"
      }
    },
    {
      "event": "reviewed",
      "id": 1301184725,
      "node_id": "PRR_kwDOABII585NjoDV",
      "url": null,
      "actor": null,
      "commit_id": "c572eae9891476a2fab263b3aa82ed27c17a9225",
      "commit_url": null,
      "created_at": null,
      "author_association": "MEMBER",
      "body": "ACK c572eae9891476a2fab263b3aa82ed27c17a9225 - have not tested, but looks ok.",
      "user": {
        "login": "fanquake",
        "id": 863730,
        "node_id": "MDQ6VXNlcjg2MzczMA==",
        "avatar_url": "https://avatars.githubusercontent.com/u/863730?v=4",
        "gravatar_id": "",
        "url": "https://api.github.com/users/fanquake",
        "html_url": "https://github.com/fanquake",
        "followers_url": "https://api.github.com/users/fanquake/followers",
        "following_url": "https://api.github.com/users/fanquake/following%7B/other_user%7D",
        "gists_url": "https://api.github.com/users/fanquake/gists%7B/gist_id%7D",
        "starred_url": "https://api.github.com/users/fanquake/starred%7B/owner%7D%7B/repo%7D",
        "subscriptions_url": "https://api.github.com/users/fanquake/subscriptions",
        "organizations_url": "https://api.github.com/users/fanquake/orgs",
        "repos_url": "https://api.github.com/users/fanquake/repos",
        "events_url": "https://api.github.com/users/fanquake/events%7B/privacy%7D",
        "received_events_url": "https://api.github.com/users/fanquake/received_events",
        "type": "User",
        "site_admin": false
      },
      "html_url": "https://github.com/bitcoin/bitcoin/pull/26773#pullrequestreview-1301184725",
      "submitted_at": "2023-02-16T10:42:20Z",
      "state": "APPROVED",
      "pull_request_url": "https://api.github.com/repos/bitcoin/bitcoin/pulls/26773"
    },
    {
      "event": "merged",
      "id": 8537754888,
      "node_id": "ME_lADOABII585aQqWCzwAAAAH8480I",
      "url": "https://api.github.com/repos/bitcoin/bitcoin/issues/events/8537754888",
      "actor": {
        "login": "fanquake",
        "id": 863730,
        "node_id": "MDQ6VXNlcjg2MzczMA==",
        "avatar_url": "https://avatars.githubusercontent.com/u/863730?v=4",
        "gravatar_id": "",
        "url": "https://api.github.com/users/fanquake",
        "html_url": "https://github.com/fanquake",
        "followers_url": "https://api.github.com/users/fanquake/followers",
        "following_url": "https://api.github.com/users/fanquake/following%7B/other_user%7D",
        "gists_url": "https://api.github.com/users/fanquake/gists%7B/gist_id%7D",
        "starred_url": "https://api.github.com/users/fanquake/starred%7B/owner%7D%7B/repo%7D",
        "subscriptions_url": "https://api.github.com/users/fanquake/subscriptions",
        "organizations_url": "https://api.github.com/users/fanquake/orgs",
        "repos_url": "https://api.github.com/users/fanquake/repos",
        "events_url": "https://api.github.com/users/fanquake/events%7B/privacy%7D",
        "received_events_url": "https://api.github.com/users/fanquake/received_events",
        "type": "User",
        "site_admin": false
      },
      "commit_id": "75f0e0b607cd7ff7afd56853eb34a2b285b22ad2",
      "commit_url": "https://api.github.com/repos/bitcoin/bitcoin/commits/75f0e0b607cd7ff7afd56853eb34a2b285b22ad2",
      "created_at": "2023-02-16T14:50:13Z"
    },
    {
      "event": "closed",
      "id": 8537754943,
      "node_id": "CE_lADOABII585aQqWCzwAAAAH8480_",
      "url": "https://api.github.com/repos/bitcoin/bitcoin/issues/events/8537754943",
      "actor": {
        "login": "fanquake",
        "id": 863730,
        "node_id": "MDQ6VXNlcjg2MzczMA==",
        "avatar_url": "https://avatars.githubusercontent.com/u/863730?v=4",
        "gravatar_id": "",
        "url": "https://api.github.com/users/fanquake",
        "html_url": "https://github.com/fanquake",
        "followers_url": "https://api.github.com/users/fanquake/followers",
        "following_url": "https://api.github.com/users/fanquake/following%7B/other_user%7D",
        "gists_url": "https://api.github.com/users/fanquake/gists%7B/gist_id%7D",
        "starred_url": "https://api.github.com/users/fanquake/starred%7B/owner%7D%7B/repo%7D",
        "subscriptions_url": "https://api.github.com/users/fanquake/subscriptions",
        "organizations_url": "https://api.github.com/users/fanquake/orgs",
        "repos_url": "https://api.github.com/users/fanquake/repos",
        "events_url": "https://api.github.com/users/fanquake/events%7B/privacy%7D",
        "received_events_url": "https://api.github.com/users/fanquake/received_events",
        "type": "User",
        "site_admin": false
      },
      "commit_id": null,
      "commit_url": null,
      "created_at": "2023-02-16T14:50:13Z"
    },
    {
      "event": "referenced",
      "id": 8538462654,
      "node_id": "REFE_lADOABII585aQqWCzwAAAAH87pm-",
      "url": "https://api.github.com/repos/bitcoin/bitcoin/issues/events/8538462654",
      "actor": {
        "login": "sidhujag",
        "id": 6238042,
        "node_id": "MDQ6VXNlcjYyMzgwNDI=",
        "avatar_url": "https://avatars.githubusercontent.com/u/6238042?v=4",
        "gravatar_id": "",
        "url": "https://api.github.com/users/sidhujag",
        "html_url": "https://github.com/sidhujag",
        "followers_url": "https://api.github.com/users/sidhujag/followers",
        "following_url": "https://api.github.com/users/sidhujag/following%7B/other_user%7D",
        "gists_url": "https://api.github.com/users/sidhujag/gists%7B/gist_id%7D",
        "starred_url": "https://api.github.com/users/sidhujag/starred%7B/owner%7D%7B/repo%7D",
        "subscriptions_url": "https://api.github.com/users/sidhujag/subscriptions",
        "organizations_url": "https://api.github.com/users/sidhujag/orgs",
        "repos_url": "https://api.github.com/users/sidhujag/repos",
        "events_url": "https://api.github.com/users/sidhujag/events%7B/privacy%7D",
        "received_events_url": "https://api.github.com/users/sidhujag/received_events",
        "type": "User",
        "site_admin": false
      },
      "commit_id": "2805e9f539b334089d31c363a4df3629abec38cd",
      "commit_url": "https://api.github.com/repos/syscoin/syscoin/commits/2805e9f539b334089d31c363a4df3629abec38cd",
      "created_at": "2023-02-16T15:47:05Z"
    },
    {
      "event": "head_ref_deleted",
      "id": 8542533822,
      "node_id": "HRDE_lADOABII585aQqWCzwAAAAH9LLi-",
      "url": "https://api.github.com/repos/bitcoin/bitcoin/issues/events/8542533822",
      "actor": {
        "login": "murrayn",
        "id": 5404807,
        "node_id": "MDQ6VXNlcjU0MDQ4MDc=",
        "avatar_url": "https://avatars.githubusercontent.com/u/5404807?v=4",
        "gravatar_id": "",
        "url": "https://api.github.com/users/murrayn",
        "html_url": "https://github.com/murrayn",
        "followers_url": "https://api.github.com/users/murrayn/followers",
        "following_url": "https://api.github.com/users/murrayn/following%7B/other_user%7D",
        "gists_url": "https://api.github.com/users/murrayn/gists%7B/gist_id%7D",
        "starred_url": "https://api.github.com/users/murrayn/starred%7B/owner%7D%7B/repo%7D",
        "subscriptions_url": "https://api.github.com/users/murrayn/subscriptions",
        "organizations_url": "https://api.github.com/users/murrayn/orgs",
        "repos_url": "https://api.github.com/users/murrayn/repos",
        "events_url": "https://api.github.com/users/murrayn/events%7B/privacy%7D",
        "received_events_url": "https://api.github.com/users/murrayn/received_events",
        "type": "User",
        "site_admin": false
      },
      "commit_id": null,
      "commit_url": null,
      "created_at": "2023-02-17T00:53:51Z"
    }
  ],
  "comments": [
    {
      "url": "https://api.github.com/repos/bitcoin/bitcoin/pulls/comments/1059318113",
      "pull_request_review_id": 1232983955,
      "id": 1059318113,
      "node_id": "PRRC_kwDOABII584_I-lh",
      "diff_hunk": "@@ -36,11 +36,11 @@ pkg install sqlite3\n ```\n \n ###### Legacy Wallet Support\n-`db5` is only required to support legacy wallets.\n+`db4` is only required to support legacy wallets.\n Skip if you don't intend to use legacy wallets.\n \n ```bash\n-pkg install db5\n+./contrib/install_db4.sh `pwd`",
      "path": "doc/build-freebsd.md",
      "position": null,
      "original_position": 10,
      "commit_id": "c572eae9891476a2fab263b3aa82ed27c17a9225",
      "original_commit_id": "f0367cb2d548760b504075a967854c2efd037b1e",
      "in_reply_to_id": null,
      "user": {
        "login": "MarcoFalke",
        "id": 6399679,
        "node_id": "MDQ6VXNlcjYzOTk2Nzk=",
        "avatar_url": "https://avatars.githubusercontent.com/u/6399679?v=4",
        "gravatar_id": "",
        "url": "https://api.github.com/users/MarcoFalke",
        "html_url": "https://github.com/MarcoFalke",
        "followers_url": "https://api.github.com/users/MarcoFalke/followers",
        "following_url": "https://api.github.com/users/MarcoFalke/following%7B/other_user%7D",
        "gists_url": "https://api.github.com/users/MarcoFalke/gists%7B/gist_id%7D",
        "starred_url": "https://api.github.com/users/MarcoFalke/starred%7B/owner%7D%7B/repo%7D",
        "subscriptions_url": "https://api.github.com/users/MarcoFalke/subscriptions",
        "organizations_url": "https://api.github.com/users/MarcoFalke/orgs",
        "repos_url": "https://api.github.com/users/MarcoFalke/repos",
        "events_url": "https://api.github.com/users/MarcoFalke/events%7B/privacy%7D",
        "received_events_url": "https://api.github.com/users/MarcoFalke/received_events",
        "type": "User",
        "site_admin": false
      },
      "body": "Some users read the docs from master, even if they compile a previous release. So they'd run into issues, due to https://github.com/bitcoin/bitcoin/pull/26772",
      "created_at": "2022-12-30T09:53:01Z",
      "updated_at": "2022-12-30T09:53:01Z",
      "html_url": "https://github.com/bitcoin/bitcoin/pull/26773#discussion_r1059318113",
      "author_association": "MEMBER",
      "_links": {
        "self": {
          "href": "https://api.github.com/repos/bitcoin/bitcoin/pulls/comments/1059318113"
        },
        "pull_request": {
          "href": "https://api.github.com/repos/bitcoin/bitcoin/pulls/26773"
        }
      },
      "start_line": null,
      "original_start_line": null,
      "start_side": null,
      "line": null,
      "original_line": 43,
      "side": "RIGHT"
    },
    {
      "url": "https://api.github.com/repos/bitcoin/bitcoin/pulls/comments/1059371146",
      "pull_request_review_id": 1233056362,
      "id": 1059371146,
      "node_id": "PRRC_kwDOABII584_JLiK",
      "diff_hunk": "@@ -36,11 +36,11 @@ pkg install sqlite3\n ```\n \n ###### Legacy Wallet Support\n-`db5` is only required to support legacy wallets.\n+`db4` is only required to support legacy wallets.\n Skip if you don't intend to use legacy wallets.\n \n ```bash\n-pkg install db5\n+./contrib/install_db4.sh `pwd`",
      "path": "doc/build-freebsd.md",
      "position": null,
      "original_position": 10,
      "commit_id": "c572eae9891476a2fab263b3aa82ed27c17a9225",
      "original_commit_id": "f0367cb2d548760b504075a967854c2efd037b1e",
      "in_reply_to_id": 1059318113,
      "user": {
        "login": "murrayn",
        "id": 5404807,
        "node_id": "MDQ6VXNlcjU0MDQ4MDc=",
        "avatar_url": "https://avatars.githubusercontent.com/u/5404807?v=4",
        "gravatar_id": "",
        "url": "https://api.github.com/users/murrayn",
        "html_url": "https://github.com/murrayn",
        "followers_url": "https://api.github.com/users/murrayn/followers",
        "following_url": "https://api.github.com/users/murrayn/following%7B/other_user%7D",
        "gists_url": "https://api.github.com/users/murrayn/gists%7B/gist_id%7D",
        "starred_url": "https://api.github.com/users/murrayn/starred%7B/owner%7D%7B/repo%7D",
        "subscriptions_url": "https://api.github.com/users/murrayn/subscriptions",
        "organizations_url": "https://api.github.com/users/murrayn/orgs",
        "repos_url": "https://api.github.com/users/murrayn/repos",
        "events_url": "https://api.github.com/users/murrayn/events%7B/privacy%7D",
        "received_events_url": "https://api.github.com/users/murrayn/received_events",
        "type": "User",
        "site_admin": false
      },
      "body": "Thanks for commenting. I can see how building a previous release using `master` docs as a guide may result in running into issues.  In that case, hopefully a search for the error would find #26774.  But as mentioned here https://github.com/bitcoin/bitcoin/blob/65de8eeeca29e71378aa34602b287ab921b040e4/doc/build-unix.md?plain=1#L68 and here https://github.com/bitcoin/bitcoin/blob/65de8eeeca29e71378aa34602b287ab921b040e4/doc/build-openbsd.md?plain=1#L43 building with db5 will break compatibility with legacy wallets which is more problematic. #26772 aside, this doc should probably be updated.",
      "created_at": "2022-12-30T12:33:25Z",
      "updated_at": "2022-12-30T12:33:25Z",
      "html_url": "https://github.com/bitcoin/bitcoin/pull/26773#discussion_r1059371146",
      "author_association": "CONTRIBUTOR",
      "_links": {
        "self": {
          "href": "https://api.github.com/repos/bitcoin/bitcoin/pulls/comments/1059371146"
        },
        "pull_request": {
          "href": "https://api.github.com/repos/bitcoin/bitcoin/pulls/26773"
        }
      },
      "start_line": null,
      "original_start_line": null,
      "start_side": null,
      "line": null,
      "original_line": 43,
      "side": "RIGHT"
    },
    {
      "url": "https://api.github.com/repos/bitcoin/bitcoin/pulls/comments/1059401991",
      "pull_request_review_id": 1233100794,
      "id": 1059401991,
      "node_id": "PRRC_kwDOABII584_JTEH",
      "diff_hunk": "@@ -36,11 +36,11 @@ pkg install sqlite3\n ```\n \n ###### Legacy Wallet Support\n-`db5` is only required to support legacy wallets.\n+`db4` is only required to support legacy wallets.\n Skip if you don't intend to use legacy wallets.\n \n ```bash\n-pkg install db5\n+./contrib/install_db4.sh `pwd`",
      "path": "doc/build-freebsd.md",
      "position": null,
      "original_position": 10,
      "commit_id": "c572eae9891476a2fab263b3aa82ed27c17a9225",
      "original_commit_id": "f0367cb2d548760b504075a967854c2efd037b1e",
      "in_reply_to_id": 1059318113,
      "user": {
        "login": "MarcoFalke",
        "id": 6399679,
        "node_id": "MDQ6VXNlcjYzOTk2Nzk=",
        "avatar_url": "https://avatars.githubusercontent.com/u/6399679?v=4",
        "gravatar_id": "",
        "url": "https://api.github.com/users/MarcoFalke",
        "html_url": "https://github.com/MarcoFalke",
        "followers_url": "https://api.github.com/users/MarcoFalke/followers",
        "following_url": "https://api.github.com/users/MarcoFalke/following%7B/other_user%7D",
        "gists_url": "https://api.github.com/users/MarcoFalke/gists%7B/gist_id%7D",
        "starred_url": "https://api.github.com/users/MarcoFalke/starred%7B/owner%7D%7B/repo%7D",
        "subscriptions_url": "https://api.github.com/users/MarcoFalke/subscriptions",
        "organizations_url": "https://api.github.com/users/MarcoFalke/orgs",
        "repos_url": "https://api.github.com/users/MarcoFalke/repos",
        "events_url": "https://api.github.com/users/MarcoFalke/events%7B/privacy%7D",
        "received_events_url": "https://api.github.com/users/MarcoFalke/received_events",
        "type": "User",
        "site_admin": false
      },
      "body": "This shouldn't be an issue, see https://github.com/bitcoin/bitcoin/pull/18870",
      "created_at": "2022-12-30T14:00:29Z",
      "updated_at": "2022-12-30T14:00:29Z",
      "html_url": "https://github.com/bitcoin/bitcoin/pull/26773#discussion_r1059401991",
      "author_association": "MEMBER",
      "_links": {
        "self": {
          "href": "https://api.github.com/repos/bitcoin/bitcoin/pulls/comments/1059401991"
        },
        "pull_request": {
          "href": "https://api.github.com/repos/bitcoin/bitcoin/pulls/26773"
        }
      },
      "start_line": null,
      "original_start_line": null,
      "start_side": null,
      "line": null,
      "original_line": 43,
      "side": "RIGHT"
    },
    {
      "url": "https://api.github.com/repos/bitcoin/bitcoin/pulls/comments/1062425710",
      "pull_request_review_id": 1237316663,
      "id": 1062425710,
      "node_id": "PRRC_kwDOABII584_U1Ru",
      "diff_hunk": "@@ -36,11 +36,11 @@ pkg install sqlite3\n ```\n \n ###### Legacy Wallet Support\n-`db5` is only required to support legacy wallets.\n+`db4` is only required to support legacy wallets.\n Skip if you don't intend to use legacy wallets.\n \n ```bash\n-pkg install db5\n+./contrib/install_db4.sh `pwd`",
      "path": "doc/build-freebsd.md",
      "position": null,
      "original_position": 10,
      "commit_id": "c572eae9891476a2fab263b3aa82ed27c17a9225",
      "original_commit_id": "f0367cb2d548760b504075a967854c2efd037b1e",
      "in_reply_to_id": 1059318113,
      "user": {
        "login": "murrayn",
        "id": 5404807,
        "node_id": "MDQ6VXNlcjU0MDQ4MDc=",
        "avatar_url": "https://avatars.githubusercontent.com/u/5404807?v=4",
        "gravatar_id": "",
        "url": "https://api.github.com/users/murrayn",
        "html_url": "https://github.com/murrayn",
        "followers_url": "https://api.github.com/users/murrayn/followers",
        "following_url": "https://api.github.com/users/murrayn/following%7B/other_user%7D",
        "gists_url": "https://api.github.com/users/murrayn/gists%7B/gist_id%7D",
        "starred_url": "https://api.github.com/users/murrayn/starred%7B/owner%7D%7B/repo%7D",
        "subscriptions_url": "https://api.github.com/users/murrayn/subscriptions",
        "organizations_url": "https://api.github.com/users/murrayn/orgs",
        "repos_url": "https://api.github.com/users/murrayn/repos",
        "events_url": "https://api.github.com/users/murrayn/events%7B/privacy%7D",
        "received_events_url": "https://api.github.com/users/murrayn/received_events",
        "type": "User",
        "site_admin": false
      },
      "body": "My takeaway from #18870 is that it supports this PR. As @achow101 stated when he closed it:\r\n\r\n        This seems to still be a bit problematic because of those transaction logs. So closing for now.\r\n\r\n\r\nIt's entirely possible I'm missing something, but advising someone needing legacy wallet support to build with db5 seems to go down the wrong path and build docs for platforms other than FreeBSD address this. Do you think adding more rationale in the document would be helpful?\r\n",
      "created_at": "2023-01-05T12:35:47Z",
      "updated_at": "2023-01-05T12:35:47Z",
      "html_url": "https://github.com/bitcoin/bitcoin/pull/26773#discussion_r1062425710",
      "author_association": "CONTRIBUTOR",
      "_links": {
        "self": {
          "href": "https://api.github.com/repos/bitcoin/bitcoin/pulls/comments/1062425710"
        },
        "pull_request": {
          "href": "https://api.github.com/repos/bitcoin/bitcoin/pulls/26773"
        }
      },
      "start_line": null,
      "original_start_line": null,
      "start_side": null,
      "line": null,
      "original_line": 43,
      "side": "RIGHT"
    },
    {
      "url": "https://api.github.com/repos/bitcoin/bitcoin/pulls/comments/1062432742",
      "pull_request_review_id": 1237333893,
      "id": 1062432742,
      "node_id": "PRRC_kwDOABII584_U2_m",
      "diff_hunk": "@@ -36,11 +36,11 @@ pkg install sqlite3\n ```\n \n ###### Legacy Wallet Support\n-`db5` is only required to support legacy wallets.\n+`db4` is only required to support legacy wallets.\n Skip if you don't intend to use legacy wallets.\n \n ```bash\n-pkg install db5\n+./contrib/install_db4.sh `pwd`",
      "path": "doc/build-freebsd.md",
      "position": null,
      "original_position": 10,
      "commit_id": "c572eae9891476a2fab263b3aa82ed27c17a9225",
      "original_commit_id": "f0367cb2d548760b504075a967854c2efd037b1e",
      "in_reply_to_id": 1059318113,
      "user": {
        "login": "MarcoFalke",
        "id": 6399679,
        "node_id": "MDQ6VXNlcjYzOTk2Nzk=",
        "avatar_url": "https://avatars.githubusercontent.com/u/6399679?v=4",
        "gravatar_id": "",
        "url": "https://api.github.com/users/MarcoFalke",
        "html_url": "https://github.com/MarcoFalke",
        "followers_url": "https://api.github.com/users/MarcoFalke/followers",
        "following_url": "https://api.github.com/users/MarcoFalke/following%7B/other_user%7D",
        "gists_url": "https://api.github.com/users/MarcoFalke/gists%7B/gist_id%7D",
        "starred_url": "https://api.github.com/users/MarcoFalke/starred%7B/owner%7D%7B/repo%7D",
        "subscriptions_url": "https://api.github.com/users/MarcoFalke/subscriptions",
        "organizations_url": "https://api.github.com/users/MarcoFalke/orgs",
        "repos_url": "https://api.github.com/users/MarcoFalke/repos",
        "events_url": "https://api.github.com/users/MarcoFalke/events%7B/privacy%7D",
        "received_events_url": "https://api.github.com/users/MarcoFalke/received_events",
        "type": "User",
        "site_admin": false
      },
      "body": "yeah, my understanding is that you don't have logs in normal operation, so this shouldn't be an issue in normal operation. And not normal operation isn't supported by this software project.\r\n\r\nNo strong opinion either way. I think anything is fine here, I just left a comment.",
      "created_at": "2023-01-05T12:43:54Z",
      "updated_at": "2023-01-05T12:43:54Z",
      "html_url": "https://github.com/bitcoin/bitcoin/pull/26773#discussion_r1062432742",
      "author_association": "MEMBER",
      "_links": {
        "self": {
          "href": "https://api.github.com/repos/bitcoin/bitcoin/pulls/comments/1062432742"
        },
        "pull_request": {
          "href": "https://api.github.com/repos/bitcoin/bitcoin/pulls/26773"
        }
      },
      "start_line": null,
      "original_start_line": null,
      "start_side": null,
      "line": null,
      "original_line": 43,
      "side": "RIGHT"
    }
  ]
}