{
  "type": "pull",
  "pull": {
    "url": "https://api.github.com/repos/bitcoin/bitcoin/pulls/26829",
    "id": 1187502734,
    "node_id": "PR_kwDOABII585Gx9qO",
    "html_url": "https://github.com/bitcoin/bitcoin/pull/26829",
    "diff_url": "https://github.com/bitcoin/bitcoin/pull/26829.diff",
    "patch_url": "https://github.com/bitcoin/bitcoin/pull/26829.patch",
    "issue_url": "https://api.github.com/repos/bitcoin/bitcoin/issues/26829",
    "commits_url": "https://api.github.com/repos/bitcoin/bitcoin/pulls/26829/commits",
    "review_comments_url": "https://api.github.com/repos/bitcoin/bitcoin/pulls/26829/comments",
    "review_comment_url": "https://api.github.com/repos/bitcoin/bitcoin/pulls/comments%7B/number%7D",
    "comments_url": "https://api.github.com/repos/bitcoin/bitcoin/issues/26829/comments",
    "statuses_url": "https://api.github.com/repos/bitcoin/bitcoin/statuses/b9d567454159f062ce84353f5821d6e6daf433bd",
    "number": 26829,
    "state": "closed",
    "locked": false,
    "maintainer_can_modify": false,
    "title": "init: Remove unnecessary sensitive flag from rpcbind",
    "user": {
      "login": "achow101",
      "id": 3782274,
      "node_id": "MDQ6VXNlcjM3ODIyNzQ=",
      "avatar_url": "https://avatars.githubusercontent.com/u/3782274?v=4",
      "gravatar_id": "",
      "url": "https://api.github.com/users/achow101",
      "html_url": "https://github.com/achow101",
      "followers_url": "https://api.github.com/users/achow101/followers",
      "following_url": "https://api.github.com/users/achow101/following%7B/other_user%7D",
      "gists_url": "https://api.github.com/users/achow101/gists%7B/gist_id%7D",
      "starred_url": "https://api.github.com/users/achow101/starred%7B/owner%7D%7B/repo%7D",
      "subscriptions_url": "https://api.github.com/users/achow101/subscriptions",
      "organizations_url": "https://api.github.com/users/achow101/orgs",
      "repos_url": "https://api.github.com/users/achow101/repos",
      "events_url": "https://api.github.com/users/achow101/events%7B/privacy%7D",
      "received_events_url": "https://api.github.com/users/achow101/received_events",
      "type": "User",
      "site_admin": false
    },
    "body": "`-rpcbind` is currently flagged as a sensitive option which means that its value will be masked when the command line args are written to the debug.log file. However this is not useful as if `rpcbind` is actually activated, the bound IP addresses will be written to the log anyways. The test `feature_config_args.py` did not catch this contradiction as the test node was not started with `rpcallowip` and so `rpcbind` was not acted upon.\r\n\r\nThis also brings `rpcbind` inline with `bind` as that is not flagged as sensitive either.",
    "labels": [],
    "created_at": "2023-01-06T03:39:49Z",
    "updated_at": "2023-01-25T14:34:29Z",
    "closed_at": "2023-01-25T14:34:29Z",
    "mergeable_state": "unknown",
    "merged_at": "2023-01-25T14:34:28Z",
    "merge_commit_sha": "0486148f75547232377d344b37a542cea81023d9",
    "assignees": [],
    "requested_reviewers": [],
    "requested_teams": [],
    "head": {
      "label": "achow101:dont-hide-rpcbind-log",
      "ref": "dont-hide-rpcbind-log",
      "sha": "b9d567454159f062ce84353f5821d6e6daf433bd",
      "user": {
        "login": "achow101",
        "id": 3782274,
        "node_id": "MDQ6VXNlcjM3ODIyNzQ=",
        "avatar_url": "https://avatars.githubusercontent.com/u/3782274?v=4",
        "gravatar_id": "",
        "url": "https://api.github.com/users/achow101",
        "html_url": "https://github.com/achow101",
        "followers_url": "https://api.github.com/users/achow101/followers",
        "following_url": "https://api.github.com/users/achow101/following%7B/other_user%7D",
        "gists_url": "https://api.github.com/users/achow101/gists%7B/gist_id%7D",
        "starred_url": "https://api.github.com/users/achow101/starred%7B/owner%7D%7B/repo%7D",
        "subscriptions_url": "https://api.github.com/users/achow101/subscriptions",
        "organizations_url": "https://api.github.com/users/achow101/orgs",
        "repos_url": "https://api.github.com/users/achow101/repos",
        "events_url": "https://api.github.com/users/achow101/events%7B/privacy%7D",
        "received_events_url": "https://api.github.com/users/achow101/received_events",
        "type": "User",
        "site_admin": false
      },
      "repo": {
        "id": 45006379,
        "node_id": "MDEwOlJlcG9zaXRvcnk0NTAwNjM3OQ==",
        "name": "bitcoin",
        "full_name": "achow101/bitcoin",
        "owner": {
          "login": "achow101",
          "id": 3782274,
          "node_id": "MDQ6VXNlcjM3ODIyNzQ=",
          "avatar_url": "https://avatars.githubusercontent.com/u/3782274?v=4",
          "gravatar_id": "",
          "url": "https://api.github.com/users/achow101",
          "html_url": "https://github.com/achow101",
          "followers_url": "https://api.github.com/users/achow101/followers",
          "following_url": "https://api.github.com/users/achow101/following%7B/other_user%7D",
          "gists_url": "https://api.github.com/users/achow101/gists%7B/gist_id%7D",
          "starred_url": "https://api.github.com/users/achow101/starred%7B/owner%7D%7B/repo%7D",
          "subscriptions_url": "https://api.github.com/users/achow101/subscriptions",
          "organizations_url": "https://api.github.com/users/achow101/orgs",
          "repos_url": "https://api.github.com/users/achow101/repos",
          "events_url": "https://api.github.com/users/achow101/events%7B/privacy%7D",
          "received_events_url": "https://api.github.com/users/achow101/received_events",
          "type": "User",
          "site_admin": false
        },
        "private": false,
        "html_url": "https://github.com/achow101/bitcoin",
        "description": "Bitcoin Core integration/staging tree",
        "fork": true,
        "url": "https://api.github.com/repos/achow101/bitcoin",
        "archive_url": "https://api.github.com/repos/achow101/bitcoin/%7Barchive_format%7D%7B/ref%7D",
        "assignees_url": "https://api.github.com/repos/achow101/bitcoin/assignees%7B/user%7D",
        "blobs_url": "https://api.github.com/repos/achow101/bitcoin/git/blobs%7B/sha%7D",
        "branches_url": "https://api.github.com/repos/achow101/bitcoin/branches%7B/branch%7D",
        "collaborators_url": "https://api.github.com/repos/achow101/bitcoin/collaborators%7B/collaborator%7D",
        "comments_url": "https://api.github.com/repos/achow101/bitcoin/comments%7B/number%7D",
        "commits_url": "https://api.github.com/repos/achow101/bitcoin/commits%7B/sha%7D",
        "compare_url": "https://api.github.com/repos/achow101/bitcoin/compare/%7Bbase%7D...%7Bhead%7D",
        "contents_url": "https://api.github.com/repos/achow101/bitcoin/contents/%7B+path%7D",
        "contributors_url": "https://api.github.com/repos/achow101/bitcoin/contributors",
        "deployments_url": "https://api.github.com/repos/achow101/bitcoin/deployments",
        "downloads_url": "https://api.github.com/repos/achow101/bitcoin/downloads",
        "events_url": "https://api.github.com/repos/achow101/bitcoin/events",
        "forks_url": "https://api.github.com/repos/achow101/bitcoin/forks",
        "git_commits_url": "https://api.github.com/repos/achow101/bitcoin/git/commits%7B/sha%7D",
        "git_refs_url": "https://api.github.com/repos/achow101/bitcoin/git/refs%7B/sha%7D",
        "git_tags_url": "https://api.github.com/repos/achow101/bitcoin/git/tags%7B/sha%7D",
        "git_url": "git://github.com/achow101/bitcoin.git",
        "issue_comment_url": "https://api.github.com/repos/achow101/bitcoin/issues/comments%7B/number%7D",
        "issue_events_url": "https://api.github.com/repos/achow101/bitcoin/issues/events%7B/number%7D",
        "issues_url": "https://api.github.com/repos/achow101/bitcoin/issues%7B/number%7D",
        "keys_url": "https://api.github.com/repos/achow101/bitcoin/keys%7B/key_id%7D",
        "labels_url": "https://api.github.com/repos/achow101/bitcoin/labels%7B/name%7D",
        "languages_url": "https://api.github.com/repos/achow101/bitcoin/languages",
        "merges_url": "https://api.github.com/repos/achow101/bitcoin/merges",
        "milestones_url": "https://api.github.com/repos/achow101/bitcoin/milestones%7B/number%7D",
        "notifications_url": "https://api.github.com/repos/achow101/bitcoin/notifications%7B?since,all,participating}",
        "pulls_url": "https://api.github.com/repos/achow101/bitcoin/pulls%7B/number%7D",
        "releases_url": "https://api.github.com/repos/achow101/bitcoin/releases%7B/id%7D",
        "ssh_url": "git@github.com:achow101/bitcoin.git",
        "stargazers_url": "https://api.github.com/repos/achow101/bitcoin/stargazers",
        "statuses_url": "https://api.github.com/repos/achow101/bitcoin/statuses/%7Bsha%7D",
        "subscribers_url": "https://api.github.com/repos/achow101/bitcoin/subscribers",
        "subscription_url": "https://api.github.com/repos/achow101/bitcoin/subscription",
        "tags_url": "https://api.github.com/repos/achow101/bitcoin/tags",
        "teams_url": "https://api.github.com/repos/achow101/bitcoin/teams",
        "trees_url": "https://api.github.com/repos/achow101/bitcoin/git/trees%7B/sha%7D",
        "clone_url": "https://github.com/achow101/bitcoin.git",
        "hooks_url": "https://api.github.com/repos/achow101/bitcoin/hooks",
        "svn_url": "https://github.com/achow101/bitcoin",
        "homepage": "https://bitcoin.org/en/download",
        "language": "C++",
        "forks_count": 9,
        "stargazers_count": 35,
        "watchers_count": 35,
        "size": 243677,
        "default_branch": "master",
        "open_issues_count": 0,
        "is_template": false,
        "topics": [],
        "has_issues": false,
        "has_projects": true,
        "has_wiki": false,
        "has_pages": false,
        "has_downloads": false,
        "archived": false,
        "disabled": false,
        "visibility": "public",
        "pushed_at": "2023-08-03T00:03:12Z",
        "created_at": "2015-10-27T00:20:28Z",
        "updated_at": "2023-07-28T14:25:30Z",
        "license": {
          "key": "mit",
          "name": "MIT License",
          "node_id": "MDc6TGljZW5zZTEz",
          "spdx_id": "MIT",
          "url": "https://api.github.com/licenses/mit",
          "html_url": null,
          "description": null,
          "implementation": null,
          "permissions": null,
          "conditions": null,
          "limitations": null,
          "body": null,
          "featured": null
        }
      }
    },
    "base": {
      "label": "bitcoin:master",
      "ref": "master",
      "sha": "a62231bca629e945349255a1d331dd5c7a86ddd1",
      "user": {
        "login": "bitcoin",
        "id": 528860,
        "node_id": "MDEyOk9yZ2FuaXphdGlvbjUyODg2MA==",
        "avatar_url": "https://avatars.githubusercontent.com/u/528860?v=4",
        "gravatar_id": "",
        "url": "https://api.github.com/users/bitcoin",
        "html_url": "https://github.com/bitcoin",
        "followers_url": "https://api.github.com/users/bitcoin/followers",
        "following_url": "https://api.github.com/users/bitcoin/following%7B/other_user%7D",
        "gists_url": "https://api.github.com/users/bitcoin/gists%7B/gist_id%7D",
        "starred_url": "https://api.github.com/users/bitcoin/starred%7B/owner%7D%7B/repo%7D",
        "subscriptions_url": "https://api.github.com/users/bitcoin/subscriptions",
        "organizations_url": "https://api.github.com/users/bitcoin/orgs",
        "repos_url": "https://api.github.com/users/bitcoin/repos",
        "events_url": "https://api.github.com/users/bitcoin/events%7B/privacy%7D",
        "received_events_url": "https://api.github.com/users/bitcoin/received_events",
        "type": "Organization",
        "site_admin": false
      },
      "repo": {
        "id": 1181927,
        "node_id": "MDEwOlJlcG9zaXRvcnkxMTgxOTI3",
        "name": "bitcoin",
        "full_name": "bitcoin/bitcoin",
        "owner": {
          "login": "bitcoin",
          "id": 528860,
          "node_id": "MDEyOk9yZ2FuaXphdGlvbjUyODg2MA==",
          "avatar_url": "https://avatars.githubusercontent.com/u/528860?v=4",
          "gravatar_id": "",
          "url": "https://api.github.com/users/bitcoin",
          "html_url": "https://github.com/bitcoin",
          "followers_url": "https://api.github.com/users/bitcoin/followers",
          "following_url": "https://api.github.com/users/bitcoin/following%7B/other_user%7D",
          "gists_url": "https://api.github.com/users/bitcoin/gists%7B/gist_id%7D",
          "starred_url": "https://api.github.com/users/bitcoin/starred%7B/owner%7D%7B/repo%7D",
          "subscriptions_url": "https://api.github.com/users/bitcoin/subscriptions",
          "organizations_url": "https://api.github.com/users/bitcoin/orgs",
          "repos_url": "https://api.github.com/users/bitcoin/repos",
          "events_url": "https://api.github.com/users/bitcoin/events%7B/privacy%7D",
          "received_events_url": "https://api.github.com/users/bitcoin/received_events",
          "type": "Organization",
          "site_admin": false
        },
        "private": false,
        "html_url": "https://github.com/bitcoin/bitcoin",
        "description": "Bitcoin Core integration/staging tree",
        "fork": false,
        "url": "https://api.github.com/repos/bitcoin/bitcoin",
        "archive_url": "https://api.github.com/repos/bitcoin/bitcoin/%7Barchive_format%7D%7B/ref%7D",
        "assignees_url": "https://api.github.com/repos/bitcoin/bitcoin/assignees%7B/user%7D",
        "blobs_url": "https://api.github.com/repos/bitcoin/bitcoin/git/blobs%7B/sha%7D",
        "branches_url": "https://api.github.com/repos/bitcoin/bitcoin/branches%7B/branch%7D",
        "collaborators_url": "https://api.github.com/repos/bitcoin/bitcoin/collaborators%7B/collaborator%7D",
        "comments_url": "https://api.github.com/repos/bitcoin/bitcoin/comments%7B/number%7D",
        "commits_url": "https://api.github.com/repos/bitcoin/bitcoin/commits%7B/sha%7D",
        "compare_url": "https://api.github.com/repos/bitcoin/bitcoin/compare/%7Bbase%7D...%7Bhead%7D",
        "contents_url": "https://api.github.com/repos/bitcoin/bitcoin/contents/%7B+path%7D",
        "contributors_url": "https://api.github.com/repos/bitcoin/bitcoin/contributors",
        "deployments_url": "https://api.github.com/repos/bitcoin/bitcoin/deployments",
        "downloads_url": "https://api.github.com/repos/bitcoin/bitcoin/downloads",
        "events_url": "https://api.github.com/repos/bitcoin/bitcoin/events",
        "forks_url": "https://api.github.com/repos/bitcoin/bitcoin/forks",
        "git_commits_url": "https://api.github.com/repos/bitcoin/bitcoin/git/commits%7B/sha%7D",
        "git_refs_url": "https://api.github.com/repos/bitcoin/bitcoin/git/refs%7B/sha%7D",
        "git_tags_url": "https://api.github.com/repos/bitcoin/bitcoin/git/tags%7B/sha%7D",
        "git_url": "git://github.com/bitcoin/bitcoin.git",
        "issue_comment_url": "https://api.github.com/repos/bitcoin/bitcoin/issues/comments%7B/number%7D",
        "issue_events_url": "https://api.github.com/repos/bitcoin/bitcoin/issues/events%7B/number%7D",
        "issues_url": "https://api.github.com/repos/bitcoin/bitcoin/issues%7B/number%7D",
        "keys_url": "https://api.github.com/repos/bitcoin/bitcoin/keys%7B/key_id%7D",
        "labels_url": "https://api.github.com/repos/bitcoin/bitcoin/labels%7B/name%7D",
        "languages_url": "https://api.github.com/repos/bitcoin/bitcoin/languages",
        "merges_url": "https://api.github.com/repos/bitcoin/bitcoin/merges",
        "milestones_url": "https://api.github.com/repos/bitcoin/bitcoin/milestones%7B/number%7D",
        "notifications_url": "https://api.github.com/repos/bitcoin/bitcoin/notifications%7B?since,all,participating}",
        "pulls_url": "https://api.github.com/repos/bitcoin/bitcoin/pulls%7B/number%7D",
        "releases_url": "https://api.github.com/repos/bitcoin/bitcoin/releases%7B/id%7D",
        "ssh_url": "git@github.com:bitcoin/bitcoin.git",
        "stargazers_url": "https://api.github.com/repos/bitcoin/bitcoin/stargazers",
        "statuses_url": "https://api.github.com/repos/bitcoin/bitcoin/statuses/%7Bsha%7D",
        "subscribers_url": "https://api.github.com/repos/bitcoin/bitcoin/subscribers",
        "subscription_url": "https://api.github.com/repos/bitcoin/bitcoin/subscription",
        "tags_url": "https://api.github.com/repos/bitcoin/bitcoin/tags",
        "teams_url": "https://api.github.com/repos/bitcoin/bitcoin/teams",
        "trees_url": "https://api.github.com/repos/bitcoin/bitcoin/git/trees%7B/sha%7D",
        "clone_url": "https://github.com/bitcoin/bitcoin.git",
        "hooks_url": "https://api.github.com/repos/bitcoin/bitcoin/hooks",
        "svn_url": "https://github.com/bitcoin/bitcoin",
        "homepage": "https://bitcoincore.org/en/download",
        "language": "C++",
        "forks_count": 35476,
        "stargazers_count": 70608,
        "watchers_count": 70608,
        "size": 236222,
        "default_branch": "master",
        "open_issues_count": 673,
        "is_template": false,
        "topics": [
          "bitcoin",
          "c-plus-plus",
          "cryptocurrency",
          "cryptography",
          "p2p"
        ],
        "has_issues": true,
        "has_projects": true,
        "has_wiki": false,
        "has_pages": false,
        "has_downloads": false,
        "archived": false,
        "disabled": false,
        "visibility": "public",
        "pushed_at": "2023-08-03T00:03:27Z",
        "created_at": "2010-12-19T15:16:43Z",
        "updated_at": "2023-08-02T18:21:18Z",
        "license": {
          "key": "mit",
          "name": "MIT License",
          "node_id": "MDc6TGljZW5zZTEz",
          "spdx_id": "MIT",
          "url": "https://api.github.com/licenses/mit",
          "html_url": null,
          "description": null,
          "implementation": null,
          "permissions": null,
          "conditions": null,
          "limitations": null,
          "body": null,
          "featured": null
        }
      }
    },
    "_links": {
      "self": {
        "href": "https://api.github.com/repos/bitcoin/bitcoin/pulls/26829"
      }
    },
    "author_association": "MEMBER",
    "draft": false,
    "additions": 5,
    "deletions": 3,
    "changed_files": 2,
    "commits": 1,
    "review_comments": 2,
    "comments": 4
  },
  "events": [
    {
      "event": "commented",
      "id": 1373103706,
      "node_id": "IC_kwDOABII585R1-Za",
      "url": "https://api.github.com/repos/bitcoin/bitcoin/issues/comments/1373103706",
      "actor": {
        "login": "DrahtBot",
        "id": 39886733,
        "node_id": "MDQ6VXNlcjM5ODg2NzMz",
        "avatar_url": "https://avatars.githubusercontent.com/u/39886733?v=4",
        "gravatar_id": "",
        "url": "https://api.github.com/users/DrahtBot",
        "html_url": "https://github.com/DrahtBot",
        "followers_url": "https://api.github.com/users/DrahtBot/followers",
        "following_url": "https://api.github.com/users/DrahtBot/following%7B/other_user%7D",
        "gists_url": "https://api.github.com/users/DrahtBot/gists%7B/gist_id%7D",
        "starred_url": "https://api.github.com/users/DrahtBot/starred%7B/owner%7D%7B/repo%7D",
        "subscriptions_url": "https://api.github.com/users/DrahtBot/subscriptions",
        "organizations_url": "https://api.github.com/users/DrahtBot/orgs",
        "repos_url": "https://api.github.com/users/DrahtBot/repos",
        "events_url": "https://api.github.com/users/DrahtBot/events%7B/privacy%7D",
        "received_events_url": "https://api.github.com/users/DrahtBot/received_events",
        "type": "User",
        "site_admin": false
      },
      "commit_id": null,
      "commit_url": null,
      "created_at": "2023-01-06T03:39:51Z",
      "updated_at": "2023-01-25T14:29:06Z",
      "author_association": "CONTRIBUTOR",
      "body": "<!--e57a25ab6845829454e8d69fc972939a-->\n\nThe following sections might be updated with supplementary metadata relevant to reviewers and maintainers.\n\n<!--021abf342d371248e50ceaed478a90ca-->\n### Reviews\nSee [the guideline](https://github.com/bitcoin/bitcoin/blob/master/CONTRIBUTING.md#code-review) for information on the review process.\n| Type | Reviewers |\n| ---- | --------- |\n| ACK | [theStack](https://github.com/bitcoin/bitcoin/pull/26829#pullrequestreview-1266533354), [Sjors](https://github.com/bitcoin/bitcoin/pull/26829#issuecomment-1401621373), [willcl-ark](https://github.com/bitcoin/bitcoin/pull/26829#issuecomment-1403709465) |\n\nIf your review is incorrectly listed, please react with 👎 to this comment and the bot will ignore it on the next update.\n<!--174a7506f384e20aa4161008e828411d-->\n### Conflicts\nNo conflicts as of last run.\n",
      "user": {
        "login": "DrahtBot",
        "id": 39886733,
        "node_id": "MDQ6VXNlcjM5ODg2NzMz",
        "avatar_url": "https://avatars.githubusercontent.com/u/39886733?v=4",
        "gravatar_id": "",
        "url": "https://api.github.com/users/DrahtBot",
        "html_url": "https://github.com/DrahtBot",
        "followers_url": "https://api.github.com/users/DrahtBot/followers",
        "following_url": "https://api.github.com/users/DrahtBot/following%7B/other_user%7D",
        "gists_url": "https://api.github.com/users/DrahtBot/gists%7B/gist_id%7D",
        "starred_url": "https://api.github.com/users/DrahtBot/starred%7B/owner%7D%7B/repo%7D",
        "subscriptions_url": "https://api.github.com/users/DrahtBot/subscriptions",
        "organizations_url": "https://api.github.com/users/DrahtBot/orgs",
        "repos_url": "https://api.github.com/users/DrahtBot/repos",
        "events_url": "https://api.github.com/users/DrahtBot/events%7B/privacy%7D",
        "received_events_url": "https://api.github.com/users/DrahtBot/received_events",
        "type": "User",
        "site_admin": false
      },
      "html_url": "https://github.com/bitcoin/bitcoin/pull/26829#issuecomment-1373103706",
      "issue_url": "https://api.github.com/repos/bitcoin/bitcoin/issues/26829"
    },
    {
      "event": "cross-referenced",
      "id": null,
      "node_id": null,
      "url": null,
      "actor": {
        "login": "DrahtBot",
        "id": 39886733,
        "node_id": "MDQ6VXNlcjM5ODg2NzMz",
        "avatar_url": "https://avatars.githubusercontent.com/u/39886733?v=4",
        "gravatar_id": "",
        "url": "https://api.github.com/users/DrahtBot",
        "html_url": "https://github.com/DrahtBot",
        "followers_url": "https://api.github.com/users/DrahtBot/followers",
        "following_url": "https://api.github.com/users/DrahtBot/following%7B/other_user%7D",
        "gists_url": "https://api.github.com/users/DrahtBot/gists%7B/gist_id%7D",
        "starred_url": "https://api.github.com/users/DrahtBot/starred%7B/owner%7D%7B/repo%7D",
        "subscriptions_url": "https://api.github.com/users/DrahtBot/subscriptions",
        "organizations_url": "https://api.github.com/users/DrahtBot/orgs",
        "repos_url": "https://api.github.com/users/DrahtBot/repos",
        "events_url": "https://api.github.com/users/DrahtBot/events%7B/privacy%7D",
        "received_events_url": "https://api.github.com/users/DrahtBot/received_events",
        "type": "User",
        "site_admin": false
      },
      "commit_id": null,
      "commit_url": null,
      "created_at": "2023-01-06T18:00:59Z",
      "updated_at": "2023-01-06T18:00:59Z",
      "source": {
        "issue": {
          "id": 541055269,
          "node_id": "MDExOlB1bGxSZXF1ZXN0MzU1NzgwNTc3",
          "url": "https://api.github.com/repos/bitcoin/bitcoin/issues/17783",
          "repository_url": "https://api.github.com/repos/bitcoin/bitcoin",
          "labels_url": "https://api.github.com/repos/bitcoin/bitcoin/issues/17783/labels%7B/name%7D",
          "comments_url": "https://api.github.com/repos/bitcoin/bitcoin/issues/17783/comments",
          "events_url": "https://api.github.com/repos/bitcoin/bitcoin/issues/17783/events",
          "html_url": "https://github.com/bitcoin/bitcoin/pull/17783",
          "number": 17783,
          "state": "open",
          "state_reason": null,
          "title": "util: Fix -norpcwhitelist, -norpcallowip, and similar corner case behavior",
          "body": "**This is based on #16545 + #17580.** The non-base commits are:\r\n\r\n- [`a746ae052004` Fix nonsensical -norpcwhitelist, -norpcallowip and related behavior](https://github.com/bitcoin/bitcoin/pull/17783/commits/a746ae0520048f6290fb06347d4d303df4c1ccde)\r\n- [`f59bfafcc8f3` Fix nonsensical bitcoin-cli -norpcwallet behavior](https://github.com/bitcoin/bitcoin/pull/17783/commits/f59bfafcc8f3bf73d9e5c70669fff354f29b261b)\r\n\r\n---\r\n\r\nMake negating list options act the same as not specifying list options for `-norpcallowip`, `-norpcbind`, `-nobind`, `-nowhitebind`, `-noconnect`, `-noexternalip`, `-noonlynet`, `-nosignetchallenge`, `-nosignetseednode`, `-norpcwallet`. Instead of using `IsArgSet()` use `!GetArgs().empty()` so negation does not produce unexpected side effects, which are detailed in commit messages.",
          "user": {
            "login": "ryanofsky",
            "id": 7133040,
            "node_id": "MDQ6VXNlcjcxMzMwNDA=",
            "avatar_url": "https://avatars.githubusercontent.com/u/7133040?v=4",
            "gravatar_id": "",
            "url": "https://api.github.com/users/ryanofsky",
            "html_url": "https://github.com/ryanofsky",
            "followers_url": "https://api.github.com/users/ryanofsky/followers",
            "following_url": "https://api.github.com/users/ryanofsky/following%7B/other_user%7D",
            "gists_url": "https://api.github.com/users/ryanofsky/gists%7B/gist_id%7D",
            "starred_url": "https://api.github.com/users/ryanofsky/starred%7B/owner%7D%7B/repo%7D",
            "subscriptions_url": "https://api.github.com/users/ryanofsky/subscriptions",
            "organizations_url": "https://api.github.com/users/ryanofsky/orgs",
            "repos_url": "https://api.github.com/users/ryanofsky/repos",
            "events_url": "https://api.github.com/users/ryanofsky/events%7B/privacy%7D",
            "received_events_url": "https://api.github.com/users/ryanofsky/received_events",
            "type": "User",
            "site_admin": false
          },
          "labels": [
            {
              "id": 241832923,
              "node_id": "MDU6TGFiZWwyNDE4MzI5MjM=",
              "url": "https://api.github.com/repos/bitcoin/bitcoin/labels/Utils/log/libs",
              "name": "Utils/log/libs",
              "description": "",
              "color": "5319e7",
              "default": false
            },
            {
              "id": 955867938,
              "node_id": "MDU6TGFiZWw5NTU4Njc5Mzg=",
              "url": "https://api.github.com/repos/bitcoin/bitcoin/labels/Needs%20rebase",
              "name": "Needs rebase",
              "description": "",
              "color": "cccccc",
              "default": false
            }
          ],
          "assignees": [],
          "author_association": "CONTRIBUTOR",
          "locked": false,
          "comments": 4,
          "pull_request": {
            "url": "https://api.github.com/repos/bitcoin/bitcoin/pulls/17783",
            "html_url": "https://github.com/bitcoin/bitcoin/pull/17783",
            "diff_url": "https://github.com/bitcoin/bitcoin/pull/17783.diff",
            "patch_url": "https://github.com/bitcoin/bitcoin/pull/17783.patch"
          },
          "created_at": "2019-12-20T15:36:53Z",
          "updated_at": "2023-05-09T16:37:43Z"
        },
        "type": "issue"
      }
    },
    {
      "event": "cross-referenced",
      "id": null,
      "node_id": null,
      "url": null,
      "actor": {
        "login": "DrahtBot",
        "id": 39886733,
        "node_id": "MDQ6VXNlcjM5ODg2NzMz",
        "avatar_url": "https://avatars.githubusercontent.com/u/39886733?v=4",
        "gravatar_id": "",
        "url": "https://api.github.com/users/DrahtBot",
        "html_url": "https://github.com/DrahtBot",
        "followers_url": "https://api.github.com/users/DrahtBot/followers",
        "following_url": "https://api.github.com/users/DrahtBot/following%7B/other_user%7D",
        "gists_url": "https://api.github.com/users/DrahtBot/gists%7B/gist_id%7D",
        "starred_url": "https://api.github.com/users/DrahtBot/starred%7B/owner%7D%7B/repo%7D",
        "subscriptions_url": "https://api.github.com/users/DrahtBot/subscriptions",
        "organizations_url": "https://api.github.com/users/DrahtBot/orgs",
        "repos_url": "https://api.github.com/users/DrahtBot/repos",
        "events_url": "https://api.github.com/users/DrahtBot/events%7B/privacy%7D",
        "received_events_url": "https://api.github.com/users/DrahtBot/received_events",
        "type": "User",
        "site_admin": false
      },
      "commit_id": null,
      "commit_url": null,
      "created_at": "2023-01-06T18:02:23Z",
      "updated_at": "2023-01-06T18:02:23Z",
      "source": {
        "issue": {
          "id": 527748980,
          "node_id": "MDExOlB1bGxSZXF1ZXN0MzQ0OTQzMDU4",
          "url": "https://api.github.com/repos/bitcoin/bitcoin/issues/17580",
          "repository_url": "https://api.github.com/repos/bitcoin/bitcoin",
          "labels_url": "https://api.github.com/repos/bitcoin/bitcoin/issues/17580/labels%7B/name%7D",
          "comments_url": "https://api.github.com/repos/bitcoin/bitcoin/issues/17580/comments",
          "events_url": "https://api.github.com/repos/bitcoin/bitcoin/issues/17580/events",
          "html_url": "https://github.com/bitcoin/bitcoin/pull/17580",
          "number": 17580,
          "state": "open",
          "state_reason": null,
          "title": "refactor: Add ALLOW_LIST flags and enforce usage in CheckArgFlags",
          "body": "**This is based on #16545.** The non-base commits are:\r\n\r\n- [`76d30ef52501` scripted-diff: Add ALLOW_LIST flag to arguments retrieved with GetArgs](https://github.com/bitcoin/bitcoin/pull/17580/commits/76d30ef525015e2f842e35f2b2061839440dc5e2)\r\n- [`49e25e1fa76f` refactor: Fix more ALLOW_LIST arguments](https://github.com/bitcoin/bitcoin/pull/17580/commits/49e25e1fa76f430a38abaab59211c220cae434f0)\r\n- [`870160359e7c` Always reject empty -rpcauth=\"\" arguments](https://github.com/bitcoin/bitcoin/pull/17580/commits/870160359e7cec9f66c7c26f01f4e65b40f35e1b)\r\n- [`d97b30d33cea` Always reject empty -blockfilterindex=\"\" arguments](https://github.com/bitcoin/bitcoin/pull/17580/commits/d97b30d33ceaabab805de4784ba1626cb0d2306d)\r\n- [`7e70f985eac4` refactor: Always enforce ALLOW_LIST in CheckArgFlags](https://github.com/bitcoin/bitcoin/pull/17580/commits/7e70f985eac4f07dcb74499161961bb75e61866d)\r\n\r\n---\r\n\r\nExcept for two `rpcauth` and `blockfilterindex` fixes, this PR does not change any behavior outside of tests. It is just supposed to enforce internal consistency and prevent bugs by ensuring that list arguments are always retrieved with GetArgs() and non-list arguments are always retrieved with GetArg(). Followup PRs could use the ALLOW_LIST flags for better documentation and error checking in the future. For example, #17493 builds on this to disallow conflicting config values. \r\n\r\nThis change was originally made as part of #17493",
          "user": {
            "login": "ryanofsky",
            "id": 7133040,
            "node_id": "MDQ6VXNlcjcxMzMwNDA=",
            "avatar_url": "https://avatars.githubusercontent.com/u/7133040?v=4",
            "gravatar_id": "",
            "url": "https://api.github.com/users/ryanofsky",
            "html_url": "https://github.com/ryanofsky",
            "followers_url": "https://api.github.com/users/ryanofsky/followers",
            "following_url": "https://api.github.com/users/ryanofsky/following%7B/other_user%7D",
            "gists_url": "https://api.github.com/users/ryanofsky/gists%7B/gist_id%7D",
            "starred_url": "https://api.github.com/users/ryanofsky/starred%7B/owner%7D%7B/repo%7D",
            "subscriptions_url": "https://api.github.com/users/ryanofsky/subscriptions",
            "organizations_url": "https://api.github.com/users/ryanofsky/orgs",
            "repos_url": "https://api.github.com/users/ryanofsky/repos",
            "events_url": "https://api.github.com/users/ryanofsky/events%7B/privacy%7D",
            "received_events_url": "https://api.github.com/users/ryanofsky/received_events",
            "type": "User",
            "site_admin": false
          },
          "labels": [
            {
              "id": 135961,
              "node_id": "MDU6TGFiZWwxMzU5NjE=",
              "url": "https://api.github.com/repos/bitcoin/bitcoin/labels/Refactoring",
              "name": "Refactoring",
              "color": "E6F6D6",
              "default": false
            },
            {
              "id": 955867938,
              "node_id": "MDU6TGFiZWw5NTU4Njc5Mzg=",
              "url": "https://api.github.com/repos/bitcoin/bitcoin/labels/Needs%20rebase",
              "name": "Needs rebase",
              "description": "",
              "color": "cccccc",
              "default": false
            }
          ],
          "assignees": [],
          "author_association": "CONTRIBUTOR",
          "locked": false,
          "comments": 5,
          "pull_request": {
            "url": "https://api.github.com/repos/bitcoin/bitcoin/pulls/17580",
            "html_url": "https://github.com/bitcoin/bitcoin/pull/17580",
            "diff_url": "https://github.com/bitcoin/bitcoin/pull/17580.diff",
            "patch_url": "https://github.com/bitcoin/bitcoin/pull/17580.patch"
          },
          "created_at": "2019-11-24T20:05:39Z",
          "updated_at": "2023-05-09T16:37:48Z"
        },
        "type": "issue"
      }
    },
    {
      "event": "cross-referenced",
      "id": null,
      "node_id": null,
      "url": null,
      "actor": {
        "login": "DrahtBot",
        "id": 39886733,
        "node_id": "MDQ6VXNlcjM5ODg2NzMz",
        "avatar_url": "https://avatars.githubusercontent.com/u/39886733?v=4",
        "gravatar_id": "",
        "url": "https://api.github.com/users/DrahtBot",
        "html_url": "https://github.com/DrahtBot",
        "followers_url": "https://api.github.com/users/DrahtBot/followers",
        "following_url": "https://api.github.com/users/DrahtBot/following%7B/other_user%7D",
        "gists_url": "https://api.github.com/users/DrahtBot/gists%7B/gist_id%7D",
        "starred_url": "https://api.github.com/users/DrahtBot/starred%7B/owner%7D%7B/repo%7D",
        "subscriptions_url": "https://api.github.com/users/DrahtBot/subscriptions",
        "organizations_url": "https://api.github.com/users/DrahtBot/orgs",
        "repos_url": "https://api.github.com/users/DrahtBot/repos",
        "events_url": "https://api.github.com/users/DrahtBot/events%7B/privacy%7D",
        "received_events_url": "https://api.github.com/users/DrahtBot/received_events",
        "type": "User",
        "site_admin": false
      },
      "commit_id": null,
      "commit_url": null,
      "created_at": "2023-01-06T18:03:46Z",
      "updated_at": "2023-01-06T18:03:46Z",
      "source": {
        "issue": {
          "id": 523714389,
          "node_id": "MDExOlB1bGxSZXF1ZXN0MzQxNjYxNjA3",
          "url": "https://api.github.com/repos/bitcoin/bitcoin/issues/17493",
          "repository_url": "https://api.github.com/repos/bitcoin/bitcoin",
          "labels_url": "https://api.github.com/repos/bitcoin/bitcoin/issues/17493/labels%7B/name%7D",
          "comments_url": "https://api.github.com/repos/bitcoin/bitcoin/issues/17493/comments",
          "events_url": "https://api.github.com/repos/bitcoin/bitcoin/issues/17493/events",
          "html_url": "https://github.com/bitcoin/bitcoin/pull/17493",
          "number": 17493,
          "state": "open",
          "state_reason": null,
          "title": "util: Forbid ambiguous multiple assignments in config file",
          "body": "**This is based on #16545 + #17580.** The non-base commits are:\r\n\r\n- [`1c3d5be2ad34` util: Forbid ambiguous multiple assignments in config file](https://github.com/bitcoin/bitcoin/pull/17493/commits/1c3d5be2ad340349559d1bb5524c919e85da3ce8)\r\n- [`c65e3b3b7d1e` test: Extend util_ArgsMerge test to check for \"Multiple values specified\" errors](https://github.com/bitcoin/bitcoin/pull/17493/commits/c65e3b3b7d1e9dc33ecf5f0029430ef90f765cf8)\r\n\r\n---\r\n\r\nEnable error \"Multiple values specified for -setting in same section of config file.\", for ALLOW_ANY settings that don't specify ALLOW_LIST.\r\n\r\nInstead of silently ignoring settings, this change makes it an error to provide an ambiguous config file that provides assigns multiple values to a single-value setting. Change includes release notes.\r\n\r\nPart of the motivation for this change is to improve usability and prevent settings that look valid from being silently ignored. Another motivation is to be able to remove confusing \"reverse precedence\" logic in #17581",
          "user": {
            "login": "ryanofsky",
            "id": 7133040,
            "node_id": "MDQ6VXNlcjcxMzMwNDA=",
            "avatar_url": "https://avatars.githubusercontent.com/u/7133040?v=4",
            "gravatar_id": "",
            "url": "https://api.github.com/users/ryanofsky",
            "html_url": "https://github.com/ryanofsky",
            "followers_url": "https://api.github.com/users/ryanofsky/followers",
            "following_url": "https://api.github.com/users/ryanofsky/following%7B/other_user%7D",
            "gists_url": "https://api.github.com/users/ryanofsky/gists%7B/gist_id%7D",
            "starred_url": "https://api.github.com/users/ryanofsky/starred%7B/owner%7D%7B/repo%7D",
            "subscriptions_url": "https://api.github.com/users/ryanofsky/subscriptions",
            "organizations_url": "https://api.github.com/users/ryanofsky/orgs",
            "repos_url": "https://api.github.com/users/ryanofsky/repos",
            "events_url": "https://api.github.com/users/ryanofsky/events%7B/privacy%7D",
            "received_events_url": "https://api.github.com/users/ryanofsky/received_events",
            "type": "User",
            "site_admin": false
          },
          "labels": [
            {
              "id": 135961,
              "node_id": "MDU6TGFiZWwxMzU5NjE=",
              "url": "https://api.github.com/repos/bitcoin/bitcoin/labels/Refactoring",
              "name": "Refactoring",
              "color": "E6F6D6",
              "default": false
            },
            {
              "id": 241832923,
              "node_id": "MDU6TGFiZWwyNDE4MzI5MjM=",
              "url": "https://api.github.com/repos/bitcoin/bitcoin/labels/Utils/log/libs",
              "name": "Utils/log/libs",
              "description": "",
              "color": "5319e7",
              "default": false
            },
            {
              "id": 955867938,
              "node_id": "MDU6TGFiZWw5NTU4Njc5Mzg=",
              "url": "https://api.github.com/repos/bitcoin/bitcoin/labels/Needs%20rebase",
              "name": "Needs rebase",
              "description": "",
              "color": "cccccc",
              "default": false
            }
          ],
          "assignees": [],
          "author_association": "CONTRIBUTOR",
          "locked": false,
          "comments": 6,
          "pull_request": {
            "url": "https://api.github.com/repos/bitcoin/bitcoin/pulls/17493",
            "html_url": "https://github.com/bitcoin/bitcoin/pull/17493",
            "diff_url": "https://github.com/bitcoin/bitcoin/pull/17493.diff",
            "patch_url": "https://github.com/bitcoin/bitcoin/pull/17493.patch"
          },
          "created_at": "2019-11-15T22:11:44Z",
          "updated_at": "2023-05-09T16:37:50Z"
        },
        "type": "issue"
      }
    },
    {
      "event": "head_ref_force_pushed",
      "id": 8173437741,
      "node_id": "HRFPE_lADOABII585atceczwAAAAHnLMMt",
      "url": "https://api.github.com/repos/bitcoin/bitcoin/issues/events/8173437741",
      "actor": {
        "login": "achow101",
        "id": 3782274,
        "node_id": "MDQ6VXNlcjM3ODIyNzQ=",
        "avatar_url": "https://avatars.githubusercontent.com/u/3782274?v=4",
        "gravatar_id": "",
        "url": "https://api.github.com/users/achow101",
        "html_url": "https://github.com/achow101",
        "followers_url": "https://api.github.com/users/achow101/followers",
        "following_url": "https://api.github.com/users/achow101/following%7B/other_user%7D",
        "gists_url": "https://api.github.com/users/achow101/gists%7B/gist_id%7D",
        "starred_url": "https://api.github.com/users/achow101/starred%7B/owner%7D%7B/repo%7D",
        "subscriptions_url": "https://api.github.com/users/achow101/subscriptions",
        "organizations_url": "https://api.github.com/users/achow101/orgs",
        "repos_url": "https://api.github.com/users/achow101/repos",
        "events_url": "https://api.github.com/users/achow101/events%7B/privacy%7D",
        "received_events_url": "https://api.github.com/users/achow101/received_events",
        "type": "User",
        "site_admin": false
      },
      "commit_id": null,
      "commit_url": null,
      "created_at": "2023-01-07T01:00:56Z"
    },
    {
      "event": "commented",
      "id": 1396981679,
      "node_id": "IC_kwDOABII585TRD-v",
      "url": "https://api.github.com/repos/bitcoin/bitcoin/issues/comments/1396981679",
      "actor": {
        "login": "Sjors",
        "id": 10217,
        "node_id": "MDQ6VXNlcjEwMjE3",
        "avatar_url": "https://avatars.githubusercontent.com/u/10217?v=4",
        "gravatar_id": "",
        "url": "https://api.github.com/users/Sjors",
        "html_url": "https://github.com/Sjors",
        "followers_url": "https://api.github.com/users/Sjors/followers",
        "following_url": "https://api.github.com/users/Sjors/following%7B/other_user%7D",
        "gists_url": "https://api.github.com/users/Sjors/gists%7B/gist_id%7D",
        "starred_url": "https://api.github.com/users/Sjors/starred%7B/owner%7D%7B/repo%7D",
        "subscriptions_url": "https://api.github.com/users/Sjors/subscriptions",
        "organizations_url": "https://api.github.com/users/Sjors/orgs",
        "repos_url": "https://api.github.com/users/Sjors/repos",
        "events_url": "https://api.github.com/users/Sjors/events%7B/privacy%7D",
        "received_events_url": "https://api.github.com/users/Sjors/received_events",
        "type": "User",
        "site_admin": false
      },
      "commit_id": null,
      "commit_url": null,
      "created_at": "2023-01-19T13:32:46Z",
      "updated_at": "2023-01-19T13:32:46Z",
      "author_association": "MEMBER",
      "body": "utACK c5fbea97c020df43907ca648c050215c9b20dfc9\r\n\r\nThat said, for a followup it could make sense to go the other direction and make sure we don't log the user IP address anywhere. For IPv4 `-(rpc)bind` is typically just a 192.168.x.x address, but for IPv6 it's a global address.",
      "user": {
        "login": "Sjors",
        "id": 10217,
        "node_id": "MDQ6VXNlcjEwMjE3",
        "avatar_url": "https://avatars.githubusercontent.com/u/10217?v=4",
        "gravatar_id": "",
        "url": "https://api.github.com/users/Sjors",
        "html_url": "https://github.com/Sjors",
        "followers_url": "https://api.github.com/users/Sjors/followers",
        "following_url": "https://api.github.com/users/Sjors/following%7B/other_user%7D",
        "gists_url": "https://api.github.com/users/Sjors/gists%7B/gist_id%7D",
        "starred_url": "https://api.github.com/users/Sjors/starred%7B/owner%7D%7B/repo%7D",
        "subscriptions_url": "https://api.github.com/users/Sjors/subscriptions",
        "organizations_url": "https://api.github.com/users/Sjors/orgs",
        "repos_url": "https://api.github.com/users/Sjors/repos",
        "events_url": "https://api.github.com/users/Sjors/events%7B/privacy%7D",
        "received_events_url": "https://api.github.com/users/Sjors/received_events",
        "type": "User",
        "site_admin": false
      },
      "html_url": "https://github.com/bitcoin/bitcoin/pull/26829#issuecomment-1396981679",
      "issue_url": "https://api.github.com/repos/bitcoin/bitcoin/issues/26829"
    },
    {
      "event": "reviewed",
      "id": 1264907244,
      "node_id": "PRR_kwDOABII585LZPPs",
      "url": null,
      "actor": null,
      "commit_id": "c5fbea97c020df43907ca648c050215c9b20dfc9",
      "commit_url": null,
      "created_at": null,
      "author_association": "CONTRIBUTOR",
      "body": "Concept ACK",
      "user": {
        "login": "theStack",
        "id": 91535,
        "node_id": "MDQ6VXNlcjkxNTM1",
        "avatar_url": "https://avatars.githubusercontent.com/u/91535?v=4",
        "gravatar_id": "",
        "url": "https://api.github.com/users/theStack",
        "html_url": "https://github.com/theStack",
        "followers_url": "https://api.github.com/users/theStack/followers",
        "following_url": "https://api.github.com/users/theStack/following%7B/other_user%7D",
        "gists_url": "https://api.github.com/users/theStack/gists%7B/gist_id%7D",
        "starred_url": "https://api.github.com/users/theStack/starred%7B/owner%7D%7B/repo%7D",
        "subscriptions_url": "https://api.github.com/users/theStack/subscriptions",
        "organizations_url": "https://api.github.com/users/theStack/orgs",
        "repos_url": "https://api.github.com/users/theStack/repos",
        "events_url": "https://api.github.com/users/theStack/events%7B/privacy%7D",
        "received_events_url": "https://api.github.com/users/theStack/received_events",
        "type": "User",
        "site_admin": false
      },
      "html_url": "https://github.com/bitcoin/bitcoin/pull/26829#pullrequestreview-1264907244",
      "submitted_at": "2023-01-23T00:30:28Z",
      "state": "COMMENTED",
      "pull_request_url": "https://api.github.com/repos/bitcoin/bitcoin/pulls/26829"
    },
    {
      "event": "committed",
      "id": null,
      "node_id": "C_kwDOABII59oAKGI5ZDU2NzQ1NDE1OWYwNjJjZTg0MzUzZjU4MjFkNmU2ZGFmNDMzYmQ",
      "url": "https://api.github.com/repos/bitcoin/bitcoin/git/commits/b9d567454159f062ce84353f5821d6e6daf433bd",
      "actor": null,
      "commit_id": null,
      "commit_url": null,
      "created_at": null,
      "html_url": "https://github.com/bitcoin/bitcoin/commit/b9d567454159f062ce84353f5821d6e6daf433bd",
      "tree": {
        "sha": "0bd1cf0524201c96fec55f36ef839895e900af35",
        "url": "https://api.github.com/repos/bitcoin/bitcoin/git/trees/0bd1cf0524201c96fec55f36ef839895e900af35"
      },
      "verification": {
        "verified": false,
        "reason": "unsigned",
        "payload": null,
        "signature": null
      },
      "parents": [
        {
          "url": "https://api.github.com/repos/bitcoin/bitcoin/git/commits/adc41cf3b22f8f168e88ce3ad5f27c1130f12beb",
          "sha": "adc41cf3b22f8f168e88ce3ad5f27c1130f12beb",
          "html_url": "https://github.com/bitcoin/bitcoin/commit/adc41cf3b22f8f168e88ce3ad5f27c1130f12beb"
        }
      ],
      "message": "init: Remove sensitive flag from rpcbind",
      "committer": {
        "name": "Andrew Chow",
        "email": "github@achow101.com",
        "date": "2023-01-23T22:25:02Z"
      },
      "author": {
        "name": "Andrew Chow",
        "email": "github@achow101.com",
        "date": "2023-01-06T03:35:17Z"
      },
      "sha": "b9d567454159f062ce84353f5821d6e6daf433bd"
    },
    {
      "event": "head_ref_force_pushed",
      "id": 8338791964,
      "node_id": "HRFPE_lADOABII585atceczwAAAAHxB94c",
      "url": "https://api.github.com/repos/bitcoin/bitcoin/issues/events/8338791964",
      "actor": {
        "login": "achow101",
        "id": 3782274,
        "node_id": "MDQ6VXNlcjM3ODIyNzQ=",
        "avatar_url": "https://avatars.githubusercontent.com/u/3782274?v=4",
        "gravatar_id": "",
        "url": "https://api.github.com/users/achow101",
        "html_url": "https://github.com/achow101",
        "followers_url": "https://api.github.com/users/achow101/followers",
        "following_url": "https://api.github.com/users/achow101/following%7B/other_user%7D",
        "gists_url": "https://api.github.com/users/achow101/gists%7B/gist_id%7D",
        "starred_url": "https://api.github.com/users/achow101/starred%7B/owner%7D%7B/repo%7D",
        "subscriptions_url": "https://api.github.com/users/achow101/subscriptions",
        "organizations_url": "https://api.github.com/users/achow101/orgs",
        "repos_url": "https://api.github.com/users/achow101/repos",
        "events_url": "https://api.github.com/users/achow101/events%7B/privacy%7D",
        "received_events_url": "https://api.github.com/users/achow101/received_events",
        "type": "User",
        "site_admin": false
      },
      "commit_id": null,
      "commit_url": null,
      "created_at": "2023-01-23T22:25:13Z"
    },
    {
      "event": "reviewed",
      "id": 1266533354,
      "node_id": "PRR_kwDOABII585LfcPq",
      "url": null,
      "actor": null,
      "commit_id": "b9d567454159f062ce84353f5821d6e6daf433bd",
      "commit_url": null,
      "created_at": null,
      "author_association": "CONTRIBUTOR",
      "body": "ACK b9d567454159f062ce84353f5821d6e6daf433bd",
      "user": {
        "login": "theStack",
        "id": 91535,
        "node_id": "MDQ6VXNlcjkxNTM1",
        "avatar_url": "https://avatars.githubusercontent.com/u/91535?v=4",
        "gravatar_id": "",
        "url": "https://api.github.com/users/theStack",
        "html_url": "https://github.com/theStack",
        "followers_url": "https://api.github.com/users/theStack/followers",
        "following_url": "https://api.github.com/users/theStack/following%7B/other_user%7D",
        "gists_url": "https://api.github.com/users/theStack/gists%7B/gist_id%7D",
        "starred_url": "https://api.github.com/users/theStack/starred%7B/owner%7D%7B/repo%7D",
        "subscriptions_url": "https://api.github.com/users/theStack/subscriptions",
        "organizations_url": "https://api.github.com/users/theStack/orgs",
        "repos_url": "https://api.github.com/users/theStack/repos",
        "events_url": "https://api.github.com/users/theStack/events%7B/privacy%7D",
        "received_events_url": "https://api.github.com/users/theStack/received_events",
        "type": "User",
        "site_admin": false
      },
      "html_url": "https://github.com/bitcoin/bitcoin/pull/26829#pullrequestreview-1266533354",
      "submitted_at": "2023-01-23T22:55:54Z",
      "state": "APPROVED",
      "pull_request_url": "https://api.github.com/repos/bitcoin/bitcoin/pulls/26829"
    },
    {
      "event": "commented",
      "id": 1401621373,
      "node_id": "IC_kwDOABII585Tiwt9",
      "url": "https://api.github.com/repos/bitcoin/bitcoin/issues/comments/1401621373",
      "actor": {
        "login": "Sjors",
        "id": 10217,
        "node_id": "MDQ6VXNlcjEwMjE3",
        "avatar_url": "https://avatars.githubusercontent.com/u/10217?v=4",
        "gravatar_id": "",
        "url": "https://api.github.com/users/Sjors",
        "html_url": "https://github.com/Sjors",
        "followers_url": "https://api.github.com/users/Sjors/followers",
        "following_url": "https://api.github.com/users/Sjors/following%7B/other_user%7D",
        "gists_url": "https://api.github.com/users/Sjors/gists%7B/gist_id%7D",
        "starred_url": "https://api.github.com/users/Sjors/starred%7B/owner%7D%7B/repo%7D",
        "subscriptions_url": "https://api.github.com/users/Sjors/subscriptions",
        "organizations_url": "https://api.github.com/users/Sjors/orgs",
        "repos_url": "https://api.github.com/users/Sjors/repos",
        "events_url": "https://api.github.com/users/Sjors/events%7B/privacy%7D",
        "received_events_url": "https://api.github.com/users/Sjors/received_events",
        "type": "User",
        "site_admin": false
      },
      "commit_id": null,
      "commit_url": null,
      "created_at": "2023-01-24T09:27:38Z",
      "updated_at": "2023-01-24T09:27:38Z",
      "author_association": "MEMBER",
      "body": "re-utACK b9d567454159f062ce84353f5821d6e6daf433bd\r\n\r\nRunning the old code against the new test triggers the unexpected argument error, as expected.",
      "user": {
        "login": "Sjors",
        "id": 10217,
        "node_id": "MDQ6VXNlcjEwMjE3",
        "avatar_url": "https://avatars.githubusercontent.com/u/10217?v=4",
        "gravatar_id": "",
        "url": "https://api.github.com/users/Sjors",
        "html_url": "https://github.com/Sjors",
        "followers_url": "https://api.github.com/users/Sjors/followers",
        "following_url": "https://api.github.com/users/Sjors/following%7B/other_user%7D",
        "gists_url": "https://api.github.com/users/Sjors/gists%7B/gist_id%7D",
        "starred_url": "https://api.github.com/users/Sjors/starred%7B/owner%7D%7B/repo%7D",
        "subscriptions_url": "https://api.github.com/users/Sjors/subscriptions",
        "organizations_url": "https://api.github.com/users/Sjors/orgs",
        "repos_url": "https://api.github.com/users/Sjors/repos",
        "events_url": "https://api.github.com/users/Sjors/events%7B/privacy%7D",
        "received_events_url": "https://api.github.com/users/Sjors/received_events",
        "type": "User",
        "site_admin": false
      },
      "html_url": "https://github.com/bitcoin/bitcoin/pull/26829#issuecomment-1401621373",
      "issue_url": "https://api.github.com/repos/bitcoin/bitcoin/issues/26829"
    },
    {
      "event": "review_requested",
      "id": 8353621091,
      "node_id": "RRE_lADOABII585atceczwAAAAHx6iRj",
      "url": "https://api.github.com/repos/bitcoin/bitcoin/issues/events/8353621091",
      "actor": {
        "login": "fanquake",
        "id": 863730,
        "node_id": "MDQ6VXNlcjg2MzczMA==",
        "avatar_url": "https://avatars.githubusercontent.com/u/863730?v=4",
        "gravatar_id": "",
        "url": "https://api.github.com/users/fanquake",
        "html_url": "https://github.com/fanquake",
        "followers_url": "https://api.github.com/users/fanquake/followers",
        "following_url": "https://api.github.com/users/fanquake/following%7B/other_user%7D",
        "gists_url": "https://api.github.com/users/fanquake/gists%7B/gist_id%7D",
        "starred_url": "https://api.github.com/users/fanquake/starred%7B/owner%7D%7B/repo%7D",
        "subscriptions_url": "https://api.github.com/users/fanquake/subscriptions",
        "organizations_url": "https://api.github.com/users/fanquake/orgs",
        "repos_url": "https://api.github.com/users/fanquake/repos",
        "events_url": "https://api.github.com/users/fanquake/events%7B/privacy%7D",
        "received_events_url": "https://api.github.com/users/fanquake/received_events",
        "type": "User",
        "site_admin": false
      },
      "commit_id": null,
      "commit_url": null,
      "created_at": "2023-01-25T11:06:51Z",
      "requested_reviewer": {
        "login": "willcl-ark",
        "id": 6606587,
        "node_id": "MDQ6VXNlcjY2MDY1ODc=",
        "avatar_url": "https://avatars.githubusercontent.com/u/6606587?v=4",
        "gravatar_id": "",
        "url": "https://api.github.com/users/willcl-ark",
        "html_url": "https://github.com/willcl-ark",
        "followers_url": "https://api.github.com/users/willcl-ark/followers",
        "following_url": "https://api.github.com/users/willcl-ark/following%7B/other_user%7D",
        "gists_url": "https://api.github.com/users/willcl-ark/gists%7B/gist_id%7D",
        "starred_url": "https://api.github.com/users/willcl-ark/starred%7B/owner%7D%7B/repo%7D",
        "subscriptions_url": "https://api.github.com/users/willcl-ark/subscriptions",
        "organizations_url": "https://api.github.com/users/willcl-ark/orgs",
        "repos_url": "https://api.github.com/users/willcl-ark/repos",
        "events_url": "https://api.github.com/users/willcl-ark/events%7B/privacy%7D",
        "received_events_url": "https://api.github.com/users/willcl-ark/received_events",
        "type": "User",
        "site_admin": false
      },
      "review_requester": {
        "login": "fanquake",
        "id": 863730,
        "node_id": "MDQ6VXNlcjg2MzczMA==",
        "avatar_url": "https://avatars.githubusercontent.com/u/863730?v=4",
        "gravatar_id": "",
        "url": "https://api.github.com/users/fanquake",
        "html_url": "https://github.com/fanquake",
        "followers_url": "https://api.github.com/users/fanquake/followers",
        "following_url": "https://api.github.com/users/fanquake/following%7B/other_user%7D",
        "gists_url": "https://api.github.com/users/fanquake/gists%7B/gist_id%7D",
        "starred_url": "https://api.github.com/users/fanquake/starred%7B/owner%7D%7B/repo%7D",
        "subscriptions_url": "https://api.github.com/users/fanquake/subscriptions",
        "organizations_url": "https://api.github.com/users/fanquake/orgs",
        "repos_url": "https://api.github.com/users/fanquake/repos",
        "events_url": "https://api.github.com/users/fanquake/events%7B/privacy%7D",
        "received_events_url": "https://api.github.com/users/fanquake/received_events",
        "type": "User",
        "site_admin": false
      }
    },
    {
      "event": "commented",
      "id": 1403709465,
      "node_id": "IC_kwDOABII585TqugZ",
      "url": "https://api.github.com/repos/bitcoin/bitcoin/issues/comments/1403709465",
      "actor": {
        "login": "willcl-ark",
        "id": 6606587,
        "node_id": "MDQ6VXNlcjY2MDY1ODc=",
        "avatar_url": "https://avatars.githubusercontent.com/u/6606587?v=4",
        "gravatar_id": "",
        "url": "https://api.github.com/users/willcl-ark",
        "html_url": "https://github.com/willcl-ark",
        "followers_url": "https://api.github.com/users/willcl-ark/followers",
        "following_url": "https://api.github.com/users/willcl-ark/following%7B/other_user%7D",
        "gists_url": "https://api.github.com/users/willcl-ark/gists%7B/gist_id%7D",
        "starred_url": "https://api.github.com/users/willcl-ark/starred%7B/owner%7D%7B/repo%7D",
        "subscriptions_url": "https://api.github.com/users/willcl-ark/subscriptions",
        "organizations_url": "https://api.github.com/users/willcl-ark/orgs",
        "repos_url": "https://api.github.com/users/willcl-ark/repos",
        "events_url": "https://api.github.com/users/willcl-ark/events%7B/privacy%7D",
        "received_events_url": "https://api.github.com/users/willcl-ark/received_events",
        "type": "User",
        "site_admin": false
      },
      "commit_id": null,
      "commit_url": null,
      "created_at": "2023-01-25T14:29:03Z",
      "updated_at": "2023-01-25T14:29:03Z",
      "author_association": "CONTRIBUTOR",
      "body": "ACK b9d5674\r\n\r\nLooks like it was added in b951b0973cfd4e0db4607a00d434a04afb0d6199 as part of writing config options to debug.log.\r\n\r\nFWIW I was just working on https://github.com/bitcoin/bitcoin/pull/26964 which ensures that we don't create the RPC cookie before we've bound to the server. As long as we don't do that, there seems little danger in having the bound port and address exposed in the log messages. We should not rely on port obscurity for security.",
      "user": {
        "login": "willcl-ark",
        "id": 6606587,
        "node_id": "MDQ6VXNlcjY2MDY1ODc=",
        "avatar_url": "https://avatars.githubusercontent.com/u/6606587?v=4",
        "gravatar_id": "",
        "url": "https://api.github.com/users/willcl-ark",
        "html_url": "https://github.com/willcl-ark",
        "followers_url": "https://api.github.com/users/willcl-ark/followers",
        "following_url": "https://api.github.com/users/willcl-ark/following%7B/other_user%7D",
        "gists_url": "https://api.github.com/users/willcl-ark/gists%7B/gist_id%7D",
        "starred_url": "https://api.github.com/users/willcl-ark/starred%7B/owner%7D%7B/repo%7D",
        "subscriptions_url": "https://api.github.com/users/willcl-ark/subscriptions",
        "organizations_url": "https://api.github.com/users/willcl-ark/orgs",
        "repos_url": "https://api.github.com/users/willcl-ark/repos",
        "events_url": "https://api.github.com/users/willcl-ark/events%7B/privacy%7D",
        "received_events_url": "https://api.github.com/users/willcl-ark/received_events",
        "type": "User",
        "site_admin": false
      },
      "html_url": "https://github.com/bitcoin/bitcoin/pull/26829#issuecomment-1403709465",
      "issue_url": "https://api.github.com/repos/bitcoin/bitcoin/issues/26829"
    },
    {
      "event": "reviewed",
      "id": 1269461071,
      "node_id": "PRR_kwDOABII585LqnBP",
      "url": null,
      "actor": null,
      "commit_id": "b9d567454159f062ce84353f5821d6e6daf433bd",
      "commit_url": null,
      "created_at": null,
      "author_association": "CONTRIBUTOR",
      "body": "",
      "user": {
        "login": "willcl-ark",
        "id": 6606587,
        "node_id": "MDQ6VXNlcjY2MDY1ODc=",
        "avatar_url": "https://avatars.githubusercontent.com/u/6606587?v=4",
        "gravatar_id": "",
        "url": "https://api.github.com/users/willcl-ark",
        "html_url": "https://github.com/willcl-ark",
        "followers_url": "https://api.github.com/users/willcl-ark/followers",
        "following_url": "https://api.github.com/users/willcl-ark/following%7B/other_user%7D",
        "gists_url": "https://api.github.com/users/willcl-ark/gists%7B/gist_id%7D",
        "starred_url": "https://api.github.com/users/willcl-ark/starred%7B/owner%7D%7B/repo%7D",
        "subscriptions_url": "https://api.github.com/users/willcl-ark/subscriptions",
        "organizations_url": "https://api.github.com/users/willcl-ark/orgs",
        "repos_url": "https://api.github.com/users/willcl-ark/repos",
        "events_url": "https://api.github.com/users/willcl-ark/events%7B/privacy%7D",
        "received_events_url": "https://api.github.com/users/willcl-ark/received_events",
        "type": "User",
        "site_admin": false
      },
      "html_url": "https://github.com/bitcoin/bitcoin/pull/26829#pullrequestreview-1269461071",
      "submitted_at": "2023-01-25T14:29:17Z",
      "state": "APPROVED",
      "pull_request_url": "https://api.github.com/repos/bitcoin/bitcoin/pulls/26829"
    },
    {
      "event": "merged",
      "id": 8355397324,
      "node_id": "ME_lADOABII585atceczwAAAAHyBT7M",
      "url": "https://api.github.com/repos/bitcoin/bitcoin/issues/events/8355397324",
      "actor": {
        "login": "MarcoFalke",
        "id": 6399679,
        "node_id": "MDQ6VXNlcjYzOTk2Nzk=",
        "avatar_url": "https://avatars.githubusercontent.com/u/6399679?v=4",
        "gravatar_id": "",
        "url": "https://api.github.com/users/MarcoFalke",
        "html_url": "https://github.com/MarcoFalke",
        "followers_url": "https://api.github.com/users/MarcoFalke/followers",
        "following_url": "https://api.github.com/users/MarcoFalke/following%7B/other_user%7D",
        "gists_url": "https://api.github.com/users/MarcoFalke/gists%7B/gist_id%7D",
        "starred_url": "https://api.github.com/users/MarcoFalke/starred%7B/owner%7D%7B/repo%7D",
        "subscriptions_url": "https://api.github.com/users/MarcoFalke/subscriptions",
        "organizations_url": "https://api.github.com/users/MarcoFalke/orgs",
        "repos_url": "https://api.github.com/users/MarcoFalke/repos",
        "events_url": "https://api.github.com/users/MarcoFalke/events%7B/privacy%7D",
        "received_events_url": "https://api.github.com/users/MarcoFalke/received_events",
        "type": "User",
        "site_admin": false
      },
      "commit_id": "0486148f75547232377d344b37a542cea81023d9",
      "commit_url": "https://api.github.com/repos/bitcoin/bitcoin/commits/0486148f75547232377d344b37a542cea81023d9",
      "created_at": "2023-01-25T14:34:28Z"
    },
    {
      "event": "closed",
      "id": 8355397347,
      "node_id": "CE_lADOABII585atceczwAAAAHyBT7j",
      "url": "https://api.github.com/repos/bitcoin/bitcoin/issues/events/8355397347",
      "actor": {
        "login": "MarcoFalke",
        "id": 6399679,
        "node_id": "MDQ6VXNlcjYzOTk2Nzk=",
        "avatar_url": "https://avatars.githubusercontent.com/u/6399679?v=4",
        "gravatar_id": "",
        "url": "https://api.github.com/users/MarcoFalke",
        "html_url": "https://github.com/MarcoFalke",
        "followers_url": "https://api.github.com/users/MarcoFalke/followers",
        "following_url": "https://api.github.com/users/MarcoFalke/following%7B/other_user%7D",
        "gists_url": "https://api.github.com/users/MarcoFalke/gists%7B/gist_id%7D",
        "starred_url": "https://api.github.com/users/MarcoFalke/starred%7B/owner%7D%7B/repo%7D",
        "subscriptions_url": "https://api.github.com/users/MarcoFalke/subscriptions",
        "organizations_url": "https://api.github.com/users/MarcoFalke/orgs",
        "repos_url": "https://api.github.com/users/MarcoFalke/repos",
        "events_url": "https://api.github.com/users/MarcoFalke/events%7B/privacy%7D",
        "received_events_url": "https://api.github.com/users/MarcoFalke/received_events",
        "type": "User",
        "site_admin": false
      },
      "commit_id": null,
      "commit_url": null,
      "created_at": "2023-01-25T14:34:29Z"
    },
    {
      "event": "referenced",
      "id": 8357101710,
      "node_id": "REFE_lADOABII585atceczwAAAAHyH0CO",
      "url": "https://api.github.com/repos/bitcoin/bitcoin/issues/events/8357101710",
      "actor": {
        "login": "sidhujag",
        "id": 6238042,
        "node_id": "MDQ6VXNlcjYyMzgwNDI=",
        "avatar_url": "https://avatars.githubusercontent.com/u/6238042?v=4",
        "gravatar_id": "",
        "url": "https://api.github.com/users/sidhujag",
        "html_url": "https://github.com/sidhujag",
        "followers_url": "https://api.github.com/users/sidhujag/followers",
        "following_url": "https://api.github.com/users/sidhujag/following%7B/other_user%7D",
        "gists_url": "https://api.github.com/users/sidhujag/gists%7B/gist_id%7D",
        "starred_url": "https://api.github.com/users/sidhujag/starred%7B/owner%7D%7B/repo%7D",
        "subscriptions_url": "https://api.github.com/users/sidhujag/subscriptions",
        "organizations_url": "https://api.github.com/users/sidhujag/orgs",
        "repos_url": "https://api.github.com/users/sidhujag/repos",
        "events_url": "https://api.github.com/users/sidhujag/events%7B/privacy%7D",
        "received_events_url": "https://api.github.com/users/sidhujag/received_events",
        "type": "User",
        "site_admin": false
      },
      "commit_id": "e0a3d1bd6a8a5b193f0e8705e2007b0bbcc9233c",
      "commit_url": "https://api.github.com/repos/syscoin/syscoin/commits/e0a3d1bd6a8a5b193f0e8705e2007b0bbcc9233c",
      "created_at": "2023-01-25T17:28:42Z"
    }
  ],
  "comments": [
    {
      "url": "https://api.github.com/repos/bitcoin/bitcoin/pulls/comments/1083575756",
      "pull_request_review_id": 1264907244,
      "id": 1083575756,
      "node_id": "PRRC_kwDOABII585Alg3M",
      "diff_hunk": "@@ -135,14 +134,15 @@ def test_args_log(self):\n                 ],\n                 unexpected_msgs=[\n                     'alice:f7efda5c189b999524f151318c0c86$d5b51b3beffbc0',\n-                    '127.1.1.1',\n                     'secret-rpcuser',\n                     'secret-torpassword',\n                 ]):\n             self.start_node(0, extra_args=[\n                 '-addnode=some.node',\n                 '-rpcauth=alice:f7efda5c189b999524f151318c0c86$d5b51b3beffbc0',\n                 '-rpcbind=127.1.1.1',\n+                '-rpcbind=127.0.0.1',\n+                \"-rpcallowip=127.0.0.1\",",
      "path": "test/functional/feature_config_args.py",
      "position": 23,
      "original_position": 21,
      "commit_id": "b9d567454159f062ce84353f5821d6e6daf433bd",
      "original_commit_id": "c5fbea97c020df43907ca648c050215c9b20dfc9",
      "in_reply_to_id": null,
      "user": {
        "login": "theStack",
        "id": 91535,
        "node_id": "MDQ6VXNlcjkxNTM1",
        "avatar_url": "https://avatars.githubusercontent.com/u/91535?v=4",
        "gravatar_id": "",
        "url": "https://api.github.com/users/theStack",
        "html_url": "https://github.com/theStack",
        "followers_url": "https://api.github.com/users/theStack/followers",
        "following_url": "https://api.github.com/users/theStack/following%7B/other_user%7D",
        "gists_url": "https://api.github.com/users/theStack/gists%7B/gist_id%7D",
        "starred_url": "https://api.github.com/users/theStack/starred%7B/owner%7D%7B/repo%7D",
        "subscriptions_url": "https://api.github.com/users/theStack/subscriptions",
        "organizations_url": "https://api.github.com/users/theStack/orgs",
        "repos_url": "https://api.github.com/users/theStack/repos",
        "events_url": "https://api.github.com/users/theStack/events%7B/privacy%7D",
        "received_events_url": "https://api.github.com/users/theStack/received_events",
        "type": "User",
        "site_admin": false
      },
      "body": "Are those additions left-overs from local testing? I think keeping `-rpcbind`/`-rpcallowip` would only make sense if they would somehow appear in `expected_msgs/unexpected_msgs` (could add e.g. `rpcbind=****` on `unexpected_msgs` to check that it is _not_ sensitive anymore), otherwise the test coverage is not increased in any way.",
      "created_at": "2023-01-23T00:29:50Z",
      "updated_at": "2023-01-23T00:30:28Z",
      "html_url": "https://github.com/bitcoin/bitcoin/pull/26829#discussion_r1083575756",
      "author_association": "CONTRIBUTOR",
      "_links": {
        "self": {
          "href": "https://api.github.com/repos/bitcoin/bitcoin/pulls/comments/1083575756"
        },
        "pull_request": {
          "href": "https://api.github.com/repos/bitcoin/bitcoin/pulls/26829"
        }
      },
      "start_line": 145,
      "original_start_line": 143,
      "start_side": "RIGHT",
      "line": 147,
      "original_line": 147,
      "side": "RIGHT"
    },
    {
      "url": "https://api.github.com/repos/bitcoin/bitcoin/pulls/comments/1084634127",
      "pull_request_review_id": 1266474125,
      "id": 1084634127,
      "node_id": "PRRC_kwDOABII585ApjQP",
      "diff_hunk": "@@ -135,14 +134,15 @@ def test_args_log(self):\n                 ],\n                 unexpected_msgs=[\n                     'alice:f7efda5c189b999524f151318c0c86$d5b51b3beffbc0',\n-                    '127.1.1.1',\n                     'secret-rpcuser',\n                     'secret-torpassword',\n                 ]):\n             self.start_node(0, extra_args=[\n                 '-addnode=some.node',\n                 '-rpcauth=alice:f7efda5c189b999524f151318c0c86$d5b51b3beffbc0',\n                 '-rpcbind=127.1.1.1',\n+                '-rpcbind=127.0.0.1',\n+                \"-rpcallowip=127.0.0.1\",",
      "path": "test/functional/feature_config_args.py",
      "position": 23,
      "original_position": 21,
      "commit_id": "b9d567454159f062ce84353f5821d6e6daf433bd",
      "original_commit_id": "c5fbea97c020df43907ca648c050215c9b20dfc9",
      "in_reply_to_id": 1083575756,
      "user": {
        "login": "achow101",
        "id": 3782274,
        "node_id": "MDQ6VXNlcjM3ODIyNzQ=",
        "avatar_url": "https://avatars.githubusercontent.com/u/3782274?v=4",
        "gravatar_id": "",
        "url": "https://api.github.com/users/achow101",
        "html_url": "https://github.com/achow101",
        "followers_url": "https://api.github.com/users/achow101/followers",
        "following_url": "https://api.github.com/users/achow101/following%7B/other_user%7D",
        "gists_url": "https://api.github.com/users/achow101/gists%7B/gist_id%7D",
        "starred_url": "https://api.github.com/users/achow101/starred%7B/owner%7D%7B/repo%7D",
        "subscriptions_url": "https://api.github.com/users/achow101/subscriptions",
        "organizations_url": "https://api.github.com/users/achow101/orgs",
        "repos_url": "https://api.github.com/users/achow101/repos",
        "events_url": "https://api.github.com/users/achow101/events%7B/privacy%7D",
        "received_events_url": "https://api.github.com/users/achow101/received_events",
        "type": "User",
        "site_admin": false
      },
      "body": "Added them to `unexpected_msgs`.",
      "created_at": "2023-01-23T22:25:16Z",
      "updated_at": "2023-01-23T22:25:17Z",
      "html_url": "https://github.com/bitcoin/bitcoin/pull/26829#discussion_r1084634127",
      "author_association": "MEMBER",
      "_links": {
        "self": {
          "href": "https://api.github.com/repos/bitcoin/bitcoin/pulls/comments/1084634127"
        },
        "pull_request": {
          "href": "https://api.github.com/repos/bitcoin/bitcoin/pulls/26829"
        }
      },
      "start_line": 145,
      "original_start_line": 143,
      "start_side": "RIGHT",
      "line": 147,
      "original_line": 147,
      "side": "RIGHT"
    }
  ]
}