{
  "type": "pull",
  "pull": {
    "url": "https://api.github.com/repos/bitcoin/bitcoin/pulls/26832",
    "id": 1187838245,
    "node_id": "PR_kwDOABII585GzPkl",
    "html_url": "https://github.com/bitcoin/bitcoin/pull/26832",
    "diff_url": "https://github.com/bitcoin/bitcoin/pull/26832.diff",
    "patch_url": "https://github.com/bitcoin/bitcoin/pull/26832.patch",
    "issue_url": "https://api.github.com/repos/bitcoin/bitcoin/issues/26832",
    "commits_url": "https://api.github.com/repos/bitcoin/bitcoin/pulls/26832/commits",
    "review_comments_url": "https://api.github.com/repos/bitcoin/bitcoin/pulls/26832/comments",
    "review_comment_url": "https://api.github.com/repos/bitcoin/bitcoin/pulls/comments%7B/number%7D",
    "comments_url": "https://api.github.com/repos/bitcoin/bitcoin/issues/26832/comments",
    "statuses_url": "https://api.github.com/repos/bitcoin/bitcoin/statuses/54e406118926c2a526455a60f67961520dfb65da",
    "number": 26832,
    "state": "closed",
    "locked": false,
    "maintainer_can_modify": false,
    "title": "compat: move (win) S_* defines into bdb",
    "user": {
      "login": "fanquake",
      "id": 863730,
      "node_id": "MDQ6VXNlcjg2MzczMA==",
      "avatar_url": "https://avatars.githubusercontent.com/u/863730?v=4",
      "gravatar_id": "",
      "url": "https://api.github.com/users/fanquake",
      "html_url": "https://github.com/fanquake",
      "followers_url": "https://api.github.com/users/fanquake/followers",
      "following_url": "https://api.github.com/users/fanquake/following%7B/other_user%7D",
      "gists_url": "https://api.github.com/users/fanquake/gists%7B/gist_id%7D",
      "starred_url": "https://api.github.com/users/fanquake/starred%7B/owner%7D%7B/repo%7D",
      "subscriptions_url": "https://api.github.com/users/fanquake/subscriptions",
      "organizations_url": "https://api.github.com/users/fanquake/orgs",
      "repos_url": "https://api.github.com/users/fanquake/repos",
      "events_url": "https://api.github.com/users/fanquake/events%7B/privacy%7D",
      "received_events_url": "https://api.github.com/users/fanquake/received_events",
      "type": "User",
      "site_admin": false
    },
    "body": "This is the only place these defines are used. They may also be available when building for Windows. `sys/stat.h` is available, and we already use it unguarded in other code. So move the defines into bdb, after the stat.h include, and remove compat from bdb.cpp.",
    "labels": [
      {
        "id": 241832923,
        "node_id": "MDU6TGFiZWwyNDE4MzI5MjM=",
        "url": "https://api.github.com/repos/bitcoin/bitcoin/labels/Utils/log/libs",
        "name": "Utils/log/libs",
        "description": "",
        "color": "5319e7",
        "default": false
      }
    ],
    "created_at": "2023-01-06T09:08:35Z",
    "updated_at": "2023-04-05T10:36:43Z",
    "closed_at": "2023-04-05T10:36:32Z",
    "mergeable_state": "unknown",
    "merged_at": "2023-04-05T10:36:32Z",
    "merge_commit_sha": "23a899b27c0b544c3cff27ec1111f38e14cfc73f",
    "assignees": [],
    "requested_reviewers": [],
    "requested_teams": [],
    "head": {
      "label": "fanquake:dont_exclude_stat_win_bdb",
      "ref": "dont_exclude_stat_win_bdb",
      "sha": "54e406118926c2a526455a60f67961520dfb65da",
      "user": {
        "login": "fanquake",
        "id": 863730,
        "node_id": "MDQ6VXNlcjg2MzczMA==",
        "avatar_url": "https://avatars.githubusercontent.com/u/863730?v=4",
        "gravatar_id": "",
        "url": "https://api.github.com/users/fanquake",
        "html_url": "https://github.com/fanquake",
        "followers_url": "https://api.github.com/users/fanquake/followers",
        "following_url": "https://api.github.com/users/fanquake/following%7B/other_user%7D",
        "gists_url": "https://api.github.com/users/fanquake/gists%7B/gist_id%7D",
        "starred_url": "https://api.github.com/users/fanquake/starred%7B/owner%7D%7B/repo%7D",
        "subscriptions_url": "https://api.github.com/users/fanquake/subscriptions",
        "organizations_url": "https://api.github.com/users/fanquake/orgs",
        "repos_url": "https://api.github.com/users/fanquake/repos",
        "events_url": "https://api.github.com/users/fanquake/events%7B/privacy%7D",
        "received_events_url": "https://api.github.com/users/fanquake/received_events",
        "type": "User",
        "site_admin": false
      },
      "repo": {
        "id": 5910539,
        "node_id": "MDEwOlJlcG9zaXRvcnk1OTEwNTM5",
        "name": "bitcoin",
        "full_name": "fanquake/bitcoin",
        "owner": {
          "login": "fanquake",
          "id": 863730,
          "node_id": "MDQ6VXNlcjg2MzczMA==",
          "avatar_url": "https://avatars.githubusercontent.com/u/863730?v=4",
          "gravatar_id": "",
          "url": "https://api.github.com/users/fanquake",
          "html_url": "https://github.com/fanquake",
          "followers_url": "https://api.github.com/users/fanquake/followers",
          "following_url": "https://api.github.com/users/fanquake/following%7B/other_user%7D",
          "gists_url": "https://api.github.com/users/fanquake/gists%7B/gist_id%7D",
          "starred_url": "https://api.github.com/users/fanquake/starred%7B/owner%7D%7B/repo%7D",
          "subscriptions_url": "https://api.github.com/users/fanquake/subscriptions",
          "organizations_url": "https://api.github.com/users/fanquake/orgs",
          "repos_url": "https://api.github.com/users/fanquake/repos",
          "events_url": "https://api.github.com/users/fanquake/events%7B/privacy%7D",
          "received_events_url": "https://api.github.com/users/fanquake/received_events",
          "type": "User",
          "site_admin": false
        },
        "private": false,
        "html_url": "https://github.com/fanquake/bitcoin",
        "description": "Bitcoin integration/staging tree",
        "fork": true,
        "url": "https://api.github.com/repos/fanquake/bitcoin",
        "archive_url": "https://api.github.com/repos/fanquake/bitcoin/%7Barchive_format%7D%7B/ref%7D",
        "assignees_url": "https://api.github.com/repos/fanquake/bitcoin/assignees%7B/user%7D",
        "blobs_url": "https://api.github.com/repos/fanquake/bitcoin/git/blobs%7B/sha%7D",
        "branches_url": "https://api.github.com/repos/fanquake/bitcoin/branches%7B/branch%7D",
        "collaborators_url": "https://api.github.com/repos/fanquake/bitcoin/collaborators%7B/collaborator%7D",
        "comments_url": "https://api.github.com/repos/fanquake/bitcoin/comments%7B/number%7D",
        "commits_url": "https://api.github.com/repos/fanquake/bitcoin/commits%7B/sha%7D",
        "compare_url": "https://api.github.com/repos/fanquake/bitcoin/compare/%7Bbase%7D...%7Bhead%7D",
        "contents_url": "https://api.github.com/repos/fanquake/bitcoin/contents/%7B+path%7D",
        "contributors_url": "https://api.github.com/repos/fanquake/bitcoin/contributors",
        "deployments_url": "https://api.github.com/repos/fanquake/bitcoin/deployments",
        "downloads_url": "https://api.github.com/repos/fanquake/bitcoin/downloads",
        "events_url": "https://api.github.com/repos/fanquake/bitcoin/events",
        "forks_url": "https://api.github.com/repos/fanquake/bitcoin/forks",
        "git_commits_url": "https://api.github.com/repos/fanquake/bitcoin/git/commits%7B/sha%7D",
        "git_refs_url": "https://api.github.com/repos/fanquake/bitcoin/git/refs%7B/sha%7D",
        "git_tags_url": "https://api.github.com/repos/fanquake/bitcoin/git/tags%7B/sha%7D",
        "git_url": "git://github.com/fanquake/bitcoin.git",
        "issue_comment_url": "https://api.github.com/repos/fanquake/bitcoin/issues/comments%7B/number%7D",
        "issue_events_url": "https://api.github.com/repos/fanquake/bitcoin/issues/events%7B/number%7D",
        "issues_url": "https://api.github.com/repos/fanquake/bitcoin/issues%7B/number%7D",
        "keys_url": "https://api.github.com/repos/fanquake/bitcoin/keys%7B/key_id%7D",
        "labels_url": "https://api.github.com/repos/fanquake/bitcoin/labels%7B/name%7D",
        "languages_url": "https://api.github.com/repos/fanquake/bitcoin/languages",
        "merges_url": "https://api.github.com/repos/fanquake/bitcoin/merges",
        "milestones_url": "https://api.github.com/repos/fanquake/bitcoin/milestones%7B/number%7D",
        "notifications_url": "https://api.github.com/repos/fanquake/bitcoin/notifications%7B?since,all,participating}",
        "pulls_url": "https://api.github.com/repos/fanquake/bitcoin/pulls%7B/number%7D",
        "releases_url": "https://api.github.com/repos/fanquake/bitcoin/releases%7B/id%7D",
        "ssh_url": "git@github.com:fanquake/bitcoin.git",
        "stargazers_url": "https://api.github.com/repos/fanquake/bitcoin/stargazers",
        "statuses_url": "https://api.github.com/repos/fanquake/bitcoin/statuses/%7Bsha%7D",
        "subscribers_url": "https://api.github.com/repos/fanquake/bitcoin/subscribers",
        "subscription_url": "https://api.github.com/repos/fanquake/bitcoin/subscription",
        "tags_url": "https://api.github.com/repos/fanquake/bitcoin/tags",
        "teams_url": "https://api.github.com/repos/fanquake/bitcoin/teams",
        "trees_url": "https://api.github.com/repos/fanquake/bitcoin/git/trees%7B/sha%7D",
        "clone_url": "https://github.com/fanquake/bitcoin.git",
        "hooks_url": "https://api.github.com/repos/fanquake/bitcoin/hooks",
        "svn_url": "https://github.com/fanquake/bitcoin",
        "homepage": "http://www.bitcoincore.org",
        "language": "C++",
        "forks_count": 5,
        "stargazers_count": 13,
        "watchers_count": 13,
        "size": 215355,
        "default_branch": "master",
        "open_issues_count": 0,
        "is_template": false,
        "topics": [],
        "has_issues": false,
        "has_projects": false,
        "has_wiki": false,
        "has_pages": false,
        "has_downloads": false,
        "archived": false,
        "disabled": false,
        "visibility": "public",
        "pushed_at": "2023-08-02T12:28:14Z",
        "created_at": "2012-09-22T05:28:42Z",
        "updated_at": "2023-04-27T19:34:01Z",
        "license": {
          "key": "mit",
          "name": "MIT License",
          "node_id": "MDc6TGljZW5zZTEz",
          "spdx_id": "MIT",
          "url": "https://api.github.com/licenses/mit",
          "html_url": null,
          "description": null,
          "implementation": null,
          "permissions": null,
          "conditions": null,
          "limitations": null,
          "body": null,
          "featured": null
        }
      }
    },
    "base": {
      "label": "bitcoin:master",
      "ref": "master",
      "sha": "369d4c03b7084de967576759545ba36a17fc18bb",
      "user": {
        "login": "bitcoin",
        "id": 528860,
        "node_id": "MDEyOk9yZ2FuaXphdGlvbjUyODg2MA==",
        "avatar_url": "https://avatars.githubusercontent.com/u/528860?v=4",
        "gravatar_id": "",
        "url": "https://api.github.com/users/bitcoin",
        "html_url": "https://github.com/bitcoin",
        "followers_url": "https://api.github.com/users/bitcoin/followers",
        "following_url": "https://api.github.com/users/bitcoin/following%7B/other_user%7D",
        "gists_url": "https://api.github.com/users/bitcoin/gists%7B/gist_id%7D",
        "starred_url": "https://api.github.com/users/bitcoin/starred%7B/owner%7D%7B/repo%7D",
        "subscriptions_url": "https://api.github.com/users/bitcoin/subscriptions",
        "organizations_url": "https://api.github.com/users/bitcoin/orgs",
        "repos_url": "https://api.github.com/users/bitcoin/repos",
        "events_url": "https://api.github.com/users/bitcoin/events%7B/privacy%7D",
        "received_events_url": "https://api.github.com/users/bitcoin/received_events",
        "type": "Organization",
        "site_admin": false
      },
      "repo": {
        "id": 1181927,
        "node_id": "MDEwOlJlcG9zaXRvcnkxMTgxOTI3",
        "name": "bitcoin",
        "full_name": "bitcoin/bitcoin",
        "owner": {
          "login": "bitcoin",
          "id": 528860,
          "node_id": "MDEyOk9yZ2FuaXphdGlvbjUyODg2MA==",
          "avatar_url": "https://avatars.githubusercontent.com/u/528860?v=4",
          "gravatar_id": "",
          "url": "https://api.github.com/users/bitcoin",
          "html_url": "https://github.com/bitcoin",
          "followers_url": "https://api.github.com/users/bitcoin/followers",
          "following_url": "https://api.github.com/users/bitcoin/following%7B/other_user%7D",
          "gists_url": "https://api.github.com/users/bitcoin/gists%7B/gist_id%7D",
          "starred_url": "https://api.github.com/users/bitcoin/starred%7B/owner%7D%7B/repo%7D",
          "subscriptions_url": "https://api.github.com/users/bitcoin/subscriptions",
          "organizations_url": "https://api.github.com/users/bitcoin/orgs",
          "repos_url": "https://api.github.com/users/bitcoin/repos",
          "events_url": "https://api.github.com/users/bitcoin/events%7B/privacy%7D",
          "received_events_url": "https://api.github.com/users/bitcoin/received_events",
          "type": "Organization",
          "site_admin": false
        },
        "private": false,
        "html_url": "https://github.com/bitcoin/bitcoin",
        "description": "Bitcoin Core integration/staging tree",
        "fork": false,
        "url": "https://api.github.com/repos/bitcoin/bitcoin",
        "archive_url": "https://api.github.com/repos/bitcoin/bitcoin/%7Barchive_format%7D%7B/ref%7D",
        "assignees_url": "https://api.github.com/repos/bitcoin/bitcoin/assignees%7B/user%7D",
        "blobs_url": "https://api.github.com/repos/bitcoin/bitcoin/git/blobs%7B/sha%7D",
        "branches_url": "https://api.github.com/repos/bitcoin/bitcoin/branches%7B/branch%7D",
        "collaborators_url": "https://api.github.com/repos/bitcoin/bitcoin/collaborators%7B/collaborator%7D",
        "comments_url": "https://api.github.com/repos/bitcoin/bitcoin/comments%7B/number%7D",
        "commits_url": "https://api.github.com/repos/bitcoin/bitcoin/commits%7B/sha%7D",
        "compare_url": "https://api.github.com/repos/bitcoin/bitcoin/compare/%7Bbase%7D...%7Bhead%7D",
        "contents_url": "https://api.github.com/repos/bitcoin/bitcoin/contents/%7B+path%7D",
        "contributors_url": "https://api.github.com/repos/bitcoin/bitcoin/contributors",
        "deployments_url": "https://api.github.com/repos/bitcoin/bitcoin/deployments",
        "downloads_url": "https://api.github.com/repos/bitcoin/bitcoin/downloads",
        "events_url": "https://api.github.com/repos/bitcoin/bitcoin/events",
        "forks_url": "https://api.github.com/repos/bitcoin/bitcoin/forks",
        "git_commits_url": "https://api.github.com/repos/bitcoin/bitcoin/git/commits%7B/sha%7D",
        "git_refs_url": "https://api.github.com/repos/bitcoin/bitcoin/git/refs%7B/sha%7D",
        "git_tags_url": "https://api.github.com/repos/bitcoin/bitcoin/git/tags%7B/sha%7D",
        "git_url": "git://github.com/bitcoin/bitcoin.git",
        "issue_comment_url": "https://api.github.com/repos/bitcoin/bitcoin/issues/comments%7B/number%7D",
        "issue_events_url": "https://api.github.com/repos/bitcoin/bitcoin/issues/events%7B/number%7D",
        "issues_url": "https://api.github.com/repos/bitcoin/bitcoin/issues%7B/number%7D",
        "keys_url": "https://api.github.com/repos/bitcoin/bitcoin/keys%7B/key_id%7D",
        "labels_url": "https://api.github.com/repos/bitcoin/bitcoin/labels%7B/name%7D",
        "languages_url": "https://api.github.com/repos/bitcoin/bitcoin/languages",
        "merges_url": "https://api.github.com/repos/bitcoin/bitcoin/merges",
        "milestones_url": "https://api.github.com/repos/bitcoin/bitcoin/milestones%7B/number%7D",
        "notifications_url": "https://api.github.com/repos/bitcoin/bitcoin/notifications%7B?since,all,participating}",
        "pulls_url": "https://api.github.com/repos/bitcoin/bitcoin/pulls%7B/number%7D",
        "releases_url": "https://api.github.com/repos/bitcoin/bitcoin/releases%7B/id%7D",
        "ssh_url": "git@github.com:bitcoin/bitcoin.git",
        "stargazers_url": "https://api.github.com/repos/bitcoin/bitcoin/stargazers",
        "statuses_url": "https://api.github.com/repos/bitcoin/bitcoin/statuses/%7Bsha%7D",
        "subscribers_url": "https://api.github.com/repos/bitcoin/bitcoin/subscribers",
        "subscription_url": "https://api.github.com/repos/bitcoin/bitcoin/subscription",
        "tags_url": "https://api.github.com/repos/bitcoin/bitcoin/tags",
        "teams_url": "https://api.github.com/repos/bitcoin/bitcoin/teams",
        "trees_url": "https://api.github.com/repos/bitcoin/bitcoin/git/trees%7B/sha%7D",
        "clone_url": "https://github.com/bitcoin/bitcoin.git",
        "hooks_url": "https://api.github.com/repos/bitcoin/bitcoin/hooks",
        "svn_url": "https://github.com/bitcoin/bitcoin",
        "homepage": "https://bitcoincore.org/en/download",
        "language": "C++",
        "forks_count": 35476,
        "stargazers_count": 70608,
        "watchers_count": 70608,
        "size": 236222,
        "default_branch": "master",
        "open_issues_count": 673,
        "is_template": false,
        "topics": [
          "bitcoin",
          "c-plus-plus",
          "cryptocurrency",
          "cryptography",
          "p2p"
        ],
        "has_issues": true,
        "has_projects": true,
        "has_wiki": false,
        "has_pages": false,
        "has_downloads": false,
        "archived": false,
        "disabled": false,
        "visibility": "public",
        "pushed_at": "2023-08-03T00:03:27Z",
        "created_at": "2010-12-19T15:16:43Z",
        "updated_at": "2023-08-02T18:21:18Z",
        "license": {
          "key": "mit",
          "name": "MIT License",
          "node_id": "MDc6TGljZW5zZTEz",
          "spdx_id": "MIT",
          "url": "https://api.github.com/licenses/mit",
          "html_url": null,
          "description": null,
          "implementation": null,
          "permissions": null,
          "conditions": null,
          "limitations": null,
          "body": null,
          "featured": null
        }
      }
    },
    "_links": {
      "self": {
        "href": "https://api.github.com/repos/bitcoin/bitcoin/pulls/26832"
      }
    },
    "author_association": "MEMBER",
    "draft": false,
    "additions": 13,
    "deletions": 12,
    "changed_files": 4,
    "commits": 1,
    "review_comments": 0,
    "comments": 8
  },
  "events": [
    {
      "event": "commented",
      "id": 1373374559,
      "node_id": "IC_kwDOABII585R3Ahf",
      "url": "https://api.github.com/repos/bitcoin/bitcoin/issues/comments/1373374559",
      "actor": {
        "login": "DrahtBot",
        "id": 39886733,
        "node_id": "MDQ6VXNlcjM5ODg2NzMz",
        "avatar_url": "https://avatars.githubusercontent.com/u/39886733?v=4",
        "gravatar_id": "",
        "url": "https://api.github.com/users/DrahtBot",
        "html_url": "https://github.com/DrahtBot",
        "followers_url": "https://api.github.com/users/DrahtBot/followers",
        "following_url": "https://api.github.com/users/DrahtBot/following%7B/other_user%7D",
        "gists_url": "https://api.github.com/users/DrahtBot/gists%7B/gist_id%7D",
        "starred_url": "https://api.github.com/users/DrahtBot/starred%7B/owner%7D%7B/repo%7D",
        "subscriptions_url": "https://api.github.com/users/DrahtBot/subscriptions",
        "organizations_url": "https://api.github.com/users/DrahtBot/orgs",
        "repos_url": "https://api.github.com/users/DrahtBot/repos",
        "events_url": "https://api.github.com/users/DrahtBot/events%7B/privacy%7D",
        "received_events_url": "https://api.github.com/users/DrahtBot/received_events",
        "type": "User",
        "site_admin": false
      },
      "commit_id": null,
      "commit_url": null,
      "created_at": "2023-01-06T09:08:37Z",
      "updated_at": "2023-04-04T20:45:09Z",
      "author_association": "CONTRIBUTOR",
      "body": "<!--e57a25ab6845829454e8d69fc972939a-->\n\nThe following sections might be updated with supplementary metadata relevant to reviewers and maintainers.\n\n<!--021abf342d371248e50ceaed478a90ca-->\n### Reviews\nSee [the guideline](https://github.com/bitcoin/bitcoin/blob/master/CONTRIBUTING.md#code-review) for information on the review process.\n| Type | Reviewers |\n| ---- | --------- |\n| ACK | [hebasto](https://github.com/bitcoin/bitcoin/pull/26832#pullrequestreview-1371617535), [TheCharlatan](https://github.com/bitcoin/bitcoin/pull/26832#issuecomment-1496583438) |\n\nIf your review is incorrectly listed, please react with 👎 to this comment and the bot will ignore it on the next update.\n<!--174a7506f384e20aa4161008e828411d-->\n### Conflicts\nNo conflicts as of last run.\n",
      "user": {
        "login": "DrahtBot",
        "id": 39886733,
        "node_id": "MDQ6VXNlcjM5ODg2NzMz",
        "avatar_url": "https://avatars.githubusercontent.com/u/39886733?v=4",
        "gravatar_id": "",
        "url": "https://api.github.com/users/DrahtBot",
        "html_url": "https://github.com/DrahtBot",
        "followers_url": "https://api.github.com/users/DrahtBot/followers",
        "following_url": "https://api.github.com/users/DrahtBot/following%7B/other_user%7D",
        "gists_url": "https://api.github.com/users/DrahtBot/gists%7B/gist_id%7D",
        "starred_url": "https://api.github.com/users/DrahtBot/starred%7B/owner%7D%7B/repo%7D",
        "subscriptions_url": "https://api.github.com/users/DrahtBot/subscriptions",
        "organizations_url": "https://api.github.com/users/DrahtBot/orgs",
        "repos_url": "https://api.github.com/users/DrahtBot/repos",
        "events_url": "https://api.github.com/users/DrahtBot/events%7B/privacy%7D",
        "received_events_url": "https://api.github.com/users/DrahtBot/received_events",
        "type": "User",
        "site_admin": false
      },
      "html_url": "https://github.com/bitcoin/bitcoin/pull/26832#issuecomment-1373374559",
      "issue_url": "https://api.github.com/repos/bitcoin/bitcoin/issues/26832"
    },
    {
      "event": "labeled",
      "id": 8167454105,
      "node_id": "LE_lADOABII585au105zwAAAAHm0XWZ",
      "url": "https://api.github.com/repos/bitcoin/bitcoin/issues/events/8167454105",
      "actor": {
        "login": "DrahtBot",
        "id": 39886733,
        "node_id": "MDQ6VXNlcjM5ODg2NzMz",
        "avatar_url": "https://avatars.githubusercontent.com/u/39886733?v=4",
        "gravatar_id": "",
        "url": "https://api.github.com/users/DrahtBot",
        "html_url": "https://github.com/DrahtBot",
        "followers_url": "https://api.github.com/users/DrahtBot/followers",
        "following_url": "https://api.github.com/users/DrahtBot/following%7B/other_user%7D",
        "gists_url": "https://api.github.com/users/DrahtBot/gists%7B/gist_id%7D",
        "starred_url": "https://api.github.com/users/DrahtBot/starred%7B/owner%7D%7B/repo%7D",
        "subscriptions_url": "https://api.github.com/users/DrahtBot/subscriptions",
        "organizations_url": "https://api.github.com/users/DrahtBot/orgs",
        "repos_url": "https://api.github.com/users/DrahtBot/repos",
        "events_url": "https://api.github.com/users/DrahtBot/events%7B/privacy%7D",
        "received_events_url": "https://api.github.com/users/DrahtBot/received_events",
        "type": "User",
        "site_admin": false
      },
      "commit_id": null,
      "commit_url": null,
      "created_at": "2023-01-06T09:08:39Z",
      "label": {
        "name": "Utils/log/libs",
        "color": "5319e7"
      }
    },
    {
      "event": "commented",
      "id": 1373396140,
      "node_id": "IC_kwDOABII585R3Fys",
      "url": "https://api.github.com/repos/bitcoin/bitcoin/issues/comments/1373396140",
      "actor": {
        "login": "hebasto",
        "id": 32963518,
        "node_id": "MDQ6VXNlcjMyOTYzNTE4",
        "avatar_url": "https://avatars.githubusercontent.com/u/32963518?v=4",
        "gravatar_id": "",
        "url": "https://api.github.com/users/hebasto",
        "html_url": "https://github.com/hebasto",
        "followers_url": "https://api.github.com/users/hebasto/followers",
        "following_url": "https://api.github.com/users/hebasto/following%7B/other_user%7D",
        "gists_url": "https://api.github.com/users/hebasto/gists%7B/gist_id%7D",
        "starred_url": "https://api.github.com/users/hebasto/starred%7B/owner%7D%7B/repo%7D",
        "subscriptions_url": "https://api.github.com/users/hebasto/subscriptions",
        "organizations_url": "https://api.github.com/users/hebasto/orgs",
        "repos_url": "https://api.github.com/users/hebasto/repos",
        "events_url": "https://api.github.com/users/hebasto/events%7B/privacy%7D",
        "received_events_url": "https://api.github.com/users/hebasto/received_events",
        "type": "User",
        "site_admin": false
      },
      "commit_id": null,
      "commit_url": null,
      "created_at": "2023-01-06T09:32:54Z",
      "updated_at": "2023-01-06T09:32:54Z",
      "author_association": "MEMBER",
      "body": "Concept ACK.",
      "user": {
        "login": "hebasto",
        "id": 32963518,
        "node_id": "MDQ6VXNlcjMyOTYzNTE4",
        "avatar_url": "https://avatars.githubusercontent.com/u/32963518?v=4",
        "gravatar_id": "",
        "url": "https://api.github.com/users/hebasto",
        "html_url": "https://github.com/hebasto",
        "followers_url": "https://api.github.com/users/hebasto/followers",
        "following_url": "https://api.github.com/users/hebasto/following%7B/other_user%7D",
        "gists_url": "https://api.github.com/users/hebasto/gists%7B/gist_id%7D",
        "starred_url": "https://api.github.com/users/hebasto/starred%7B/owner%7D%7B/repo%7D",
        "subscriptions_url": "https://api.github.com/users/hebasto/subscriptions",
        "organizations_url": "https://api.github.com/users/hebasto/orgs",
        "repos_url": "https://api.github.com/users/hebasto/repos",
        "events_url": "https://api.github.com/users/hebasto/events%7B/privacy%7D",
        "received_events_url": "https://api.github.com/users/hebasto/received_events",
        "type": "User",
        "site_admin": false
      },
      "html_url": "https://github.com/bitcoin/bitcoin/pull/26832#issuecomment-1373396140",
      "issue_url": "https://api.github.com/repos/bitcoin/bitcoin/issues/26832"
    },
    {
      "event": "head_ref_force_pushed",
      "id": 8516789324,
      "node_id": "HRFPE_lADOABII585au105zwAAAAH7o-RM",
      "url": "https://api.github.com/repos/bitcoin/bitcoin/issues/events/8516789324",
      "actor": {
        "login": "fanquake",
        "id": 863730,
        "node_id": "MDQ6VXNlcjg2MzczMA==",
        "avatar_url": "https://avatars.githubusercontent.com/u/863730?v=4",
        "gravatar_id": "",
        "url": "https://api.github.com/users/fanquake",
        "html_url": "https://github.com/fanquake",
        "followers_url": "https://api.github.com/users/fanquake/followers",
        "following_url": "https://api.github.com/users/fanquake/following%7B/other_user%7D",
        "gists_url": "https://api.github.com/users/fanquake/gists%7B/gist_id%7D",
        "starred_url": "https://api.github.com/users/fanquake/starred%7B/owner%7D%7B/repo%7D",
        "subscriptions_url": "https://api.github.com/users/fanquake/subscriptions",
        "organizations_url": "https://api.github.com/users/fanquake/orgs",
        "repos_url": "https://api.github.com/users/fanquake/repos",
        "events_url": "https://api.github.com/users/fanquake/events%7B/privacy%7D",
        "received_events_url": "https://api.github.com/users/fanquake/received_events",
        "type": "User",
        "site_admin": false
      },
      "commit_id": null,
      "commit_url": null,
      "created_at": "2023-02-14T15:29:34Z"
    },
    {
      "event": "cross-referenced",
      "id": null,
      "node_id": null,
      "url": null,
      "actor": {
        "login": "fanquake",
        "id": 863730,
        "node_id": "MDQ6VXNlcjg2MzczMA==",
        "avatar_url": "https://avatars.githubusercontent.com/u/863730?v=4",
        "gravatar_id": "",
        "url": "https://api.github.com/users/fanquake",
        "html_url": "https://github.com/fanquake",
        "followers_url": "https://api.github.com/users/fanquake/followers",
        "following_url": "https://api.github.com/users/fanquake/following%7B/other_user%7D",
        "gists_url": "https://api.github.com/users/fanquake/gists%7B/gist_id%7D",
        "starred_url": "https://api.github.com/users/fanquake/starred%7B/owner%7D%7B/repo%7D",
        "subscriptions_url": "https://api.github.com/users/fanquake/subscriptions",
        "organizations_url": "https://api.github.com/users/fanquake/orgs",
        "repos_url": "https://api.github.com/users/fanquake/repos",
        "events_url": "https://api.github.com/users/fanquake/events%7B/privacy%7D",
        "received_events_url": "https://api.github.com/users/fanquake/received_events",
        "type": "User",
        "site_admin": false
      },
      "commit_id": null,
      "commit_url": null,
      "created_at": "2023-02-14T15:29:46Z",
      "updated_at": "2023-02-14T15:29:46Z",
      "source": {
        "issue": {
          "id": 1584370574,
          "node_id": "PR_kwDOABII585J9K1g",
          "url": "https://api.github.com/repos/bitcoin/bitcoin/issues/27098",
          "repository_url": "https://api.github.com/repos/bitcoin/bitcoin",
          "labels_url": "https://api.github.com/repos/bitcoin/bitcoin/issues/27098/labels%7B/name%7D",
          "comments_url": "https://api.github.com/repos/bitcoin/bitcoin/issues/27098/comments",
          "events_url": "https://api.github.com/repos/bitcoin/bitcoin/issues/27098/events",
          "html_url": "https://github.com/bitcoin/bitcoin/pull/27098",
          "number": 27098,
          "state": "closed",
          "state_reason": null,
          "title": "refactor: don't avoid sys/types.h when building for Windows",
          "body": "We've already used it unguarded in `httpserver.cpp` for years, with no build issues.\r\n\r\nDoesn't touch the usage in wallet/bdb.cpp. See #26832.",
          "user": {
            "login": "fanquake",
            "id": 863730,
            "node_id": "MDQ6VXNlcjg2MzczMA==",
            "avatar_url": "https://avatars.githubusercontent.com/u/863730?v=4",
            "gravatar_id": "",
            "url": "https://api.github.com/users/fanquake",
            "html_url": "https://github.com/fanquake",
            "followers_url": "https://api.github.com/users/fanquake/followers",
            "following_url": "https://api.github.com/users/fanquake/following%7B/other_user%7D",
            "gists_url": "https://api.github.com/users/fanquake/gists%7B/gist_id%7D",
            "starred_url": "https://api.github.com/users/fanquake/starred%7B/owner%7D%7B/repo%7D",
            "subscriptions_url": "https://api.github.com/users/fanquake/subscriptions",
            "organizations_url": "https://api.github.com/users/fanquake/orgs",
            "repos_url": "https://api.github.com/users/fanquake/repos",
            "events_url": "https://api.github.com/users/fanquake/events%7B/privacy%7D",
            "received_events_url": "https://api.github.com/users/fanquake/received_events",
            "type": "User",
            "site_admin": false
          },
          "labels": [
            {
              "id": 135961,
              "node_id": "MDU6TGFiZWwxMzU5NjE=",
              "url": "https://api.github.com/repos/bitcoin/bitcoin/labels/Refactoring",
              "name": "Refactoring",
              "color": "E6F6D6",
              "default": false
            }
          ],
          "assignees": [],
          "author_association": "MEMBER",
          "locked": false,
          "comments": 6,
          "pull_request": {
            "url": "https://api.github.com/repos/bitcoin/bitcoin/pulls/27098",
            "html_url": "https://github.com/bitcoin/bitcoin/pull/27098",
            "diff_url": "https://github.com/bitcoin/bitcoin/pull/27098.diff",
            "patch_url": "https://github.com/bitcoin/bitcoin/pull/27098.patch"
          },
          "closed_at": "2023-02-17T14:39:14Z",
          "created_at": "2023-02-14T15:29:45Z",
          "updated_at": "2023-02-17T14:39:35Z"
        },
        "type": "issue"
      }
    },
    {
      "event": "commented",
      "id": 1429935927,
      "node_id": "IC_kwDOABII585VOxc3",
      "url": "https://api.github.com/repos/bitcoin/bitcoin/issues/comments/1429935927",
      "actor": {
        "login": "fanquake",
        "id": 863730,
        "node_id": "MDQ6VXNlcjg2MzczMA==",
        "avatar_url": "https://avatars.githubusercontent.com/u/863730?v=4",
        "gravatar_id": "",
        "url": "https://api.github.com/users/fanquake",
        "html_url": "https://github.com/fanquake",
        "followers_url": "https://api.github.com/users/fanquake/followers",
        "following_url": "https://api.github.com/users/fanquake/following%7B/other_user%7D",
        "gists_url": "https://api.github.com/users/fanquake/gists%7B/gist_id%7D",
        "starred_url": "https://api.github.com/users/fanquake/starred%7B/owner%7D%7B/repo%7D",
        "subscriptions_url": "https://api.github.com/users/fanquake/subscriptions",
        "organizations_url": "https://api.github.com/users/fanquake/orgs",
        "repos_url": "https://api.github.com/users/fanquake/repos",
        "events_url": "https://api.github.com/users/fanquake/events%7B/privacy%7D",
        "received_events_url": "https://api.github.com/users/fanquake/received_events",
        "type": "User",
        "site_admin": false
      },
      "commit_id": null,
      "commit_url": null,
      "created_at": "2023-02-14T15:29:58Z",
      "updated_at": "2023-02-14T15:29:58Z",
      "author_association": "MEMBER",
      "body": "Rebased on #27098.",
      "user": {
        "login": "fanquake",
        "id": 863730,
        "node_id": "MDQ6VXNlcjg2MzczMA==",
        "avatar_url": "https://avatars.githubusercontent.com/u/863730?v=4",
        "gravatar_id": "",
        "url": "https://api.github.com/users/fanquake",
        "html_url": "https://github.com/fanquake",
        "followers_url": "https://api.github.com/users/fanquake/followers",
        "following_url": "https://api.github.com/users/fanquake/following%7B/other_user%7D",
        "gists_url": "https://api.github.com/users/fanquake/gists%7B/gist_id%7D",
        "starred_url": "https://api.github.com/users/fanquake/starred%7B/owner%7D%7B/repo%7D",
        "subscriptions_url": "https://api.github.com/users/fanquake/subscriptions",
        "organizations_url": "https://api.github.com/users/fanquake/orgs",
        "repos_url": "https://api.github.com/users/fanquake/repos",
        "events_url": "https://api.github.com/users/fanquake/events%7B/privacy%7D",
        "received_events_url": "https://api.github.com/users/fanquake/received_events",
        "type": "User",
        "site_admin": false
      },
      "html_url": "https://github.com/bitcoin/bitcoin/pull/26832#issuecomment-1429935927",
      "issue_url": "https://api.github.com/repos/bitcoin/bitcoin/issues/26832"
    },
    {
      "event": "ready_for_review",
      "id": 8547862442,
      "node_id": "RFRE_lADOABII585au105zwAAAAH9fgeq",
      "url": "https://api.github.com/repos/bitcoin/bitcoin/issues/events/8547862442",
      "actor": {
        "login": "fanquake",
        "id": 863730,
        "node_id": "MDQ6VXNlcjg2MzczMA==",
        "avatar_url": "https://avatars.githubusercontent.com/u/863730?v=4",
        "gravatar_id": "",
        "url": "https://api.github.com/users/fanquake",
        "html_url": "https://github.com/fanquake",
        "followers_url": "https://api.github.com/users/fanquake/followers",
        "following_url": "https://api.github.com/users/fanquake/following%7B/other_user%7D",
        "gists_url": "https://api.github.com/users/fanquake/gists%7B/gist_id%7D",
        "starred_url": "https://api.github.com/users/fanquake/starred%7B/owner%7D%7B/repo%7D",
        "subscriptions_url": "https://api.github.com/users/fanquake/subscriptions",
        "organizations_url": "https://api.github.com/users/fanquake/orgs",
        "repos_url": "https://api.github.com/users/fanquake/repos",
        "events_url": "https://api.github.com/users/fanquake/events%7B/privacy%7D",
        "received_events_url": "https://api.github.com/users/fanquake/received_events",
        "type": "User",
        "site_admin": false
      },
      "commit_id": null,
      "commit_url": null,
      "created_at": "2023-02-17T14:39:20Z"
    },
    {
      "event": "head_ref_force_pushed",
      "id": 8547864903,
      "node_id": "HRFPE_lADOABII585au105zwAAAAH9fhFH",
      "url": "https://api.github.com/repos/bitcoin/bitcoin/issues/events/8547864903",
      "actor": {
        "login": "fanquake",
        "id": 863730,
        "node_id": "MDQ6VXNlcjg2MzczMA==",
        "avatar_url": "https://avatars.githubusercontent.com/u/863730?v=4",
        "gravatar_id": "",
        "url": "https://api.github.com/users/fanquake",
        "html_url": "https://github.com/fanquake",
        "followers_url": "https://api.github.com/users/fanquake/followers",
        "following_url": "https://api.github.com/users/fanquake/following%7B/other_user%7D",
        "gists_url": "https://api.github.com/users/fanquake/gists%7B/gist_id%7D",
        "starred_url": "https://api.github.com/users/fanquake/starred%7B/owner%7D%7B/repo%7D",
        "subscriptions_url": "https://api.github.com/users/fanquake/subscriptions",
        "organizations_url": "https://api.github.com/users/fanquake/orgs",
        "repos_url": "https://api.github.com/users/fanquake/repos",
        "events_url": "https://api.github.com/users/fanquake/events%7B/privacy%7D",
        "received_events_url": "https://api.github.com/users/fanquake/received_events",
        "type": "User",
        "site_admin": false
      },
      "commit_id": null,
      "commit_url": null,
      "created_at": "2023-02-17T14:39:36Z"
    },
    {
      "event": "commented",
      "id": 1437302293,
      "node_id": "IC_kwDOABII585Vq34V",
      "url": "https://api.github.com/repos/bitcoin/bitcoin/issues/comments/1437302293",
      "actor": {
        "login": "TheCharlatan",
        "id": 8421793,
        "node_id": "MDQ6VXNlcjg0MjE3OTM=",
        "avatar_url": "https://avatars.githubusercontent.com/u/8421793?v=4",
        "gravatar_id": "",
        "url": "https://api.github.com/users/TheCharlatan",
        "html_url": "https://github.com/TheCharlatan",
        "followers_url": "https://api.github.com/users/TheCharlatan/followers",
        "following_url": "https://api.github.com/users/TheCharlatan/following%7B/other_user%7D",
        "gists_url": "https://api.github.com/users/TheCharlatan/gists%7B/gist_id%7D",
        "starred_url": "https://api.github.com/users/TheCharlatan/starred%7B/owner%7D%7B/repo%7D",
        "subscriptions_url": "https://api.github.com/users/TheCharlatan/subscriptions",
        "organizations_url": "https://api.github.com/users/TheCharlatan/orgs",
        "repos_url": "https://api.github.com/users/TheCharlatan/repos",
        "events_url": "https://api.github.com/users/TheCharlatan/events%7B/privacy%7D",
        "received_events_url": "https://api.github.com/users/TheCharlatan/received_events",
        "type": "User",
        "site_admin": false
      },
      "commit_id": null,
      "commit_url": null,
      "created_at": "2023-02-20T16:46:33Z",
      "updated_at": "2023-02-20T16:46:33Z",
      "author_association": "CONTRIBUTOR",
      "body": "I feel like I'm missing some context here. Why move these out of compat? There are also other symbols like `WSAEAGAIN` that are only used in one other file.",
      "user": {
        "login": "TheCharlatan",
        "id": 8421793,
        "node_id": "MDQ6VXNlcjg0MjE3OTM=",
        "avatar_url": "https://avatars.githubusercontent.com/u/8421793?v=4",
        "gravatar_id": "",
        "url": "https://api.github.com/users/TheCharlatan",
        "html_url": "https://github.com/TheCharlatan",
        "followers_url": "https://api.github.com/users/TheCharlatan/followers",
        "following_url": "https://api.github.com/users/TheCharlatan/following%7B/other_user%7D",
        "gists_url": "https://api.github.com/users/TheCharlatan/gists%7B/gist_id%7D",
        "starred_url": "https://api.github.com/users/TheCharlatan/starred%7B/owner%7D%7B/repo%7D",
        "subscriptions_url": "https://api.github.com/users/TheCharlatan/subscriptions",
        "organizations_url": "https://api.github.com/users/TheCharlatan/orgs",
        "repos_url": "https://api.github.com/users/TheCharlatan/repos",
        "events_url": "https://api.github.com/users/TheCharlatan/events%7B/privacy%7D",
        "received_events_url": "https://api.github.com/users/TheCharlatan/received_events",
        "type": "User",
        "site_admin": false
      },
      "html_url": "https://github.com/bitcoin/bitcoin/pull/26832#issuecomment-1437302293",
      "issue_url": "https://api.github.com/repos/bitcoin/bitcoin/issues/26832"
    },
    {
      "event": "cross-referenced",
      "id": null,
      "node_id": null,
      "url": null,
      "actor": {
        "login": "DrahtBot",
        "id": 39886733,
        "node_id": "MDQ6VXNlcjM5ODg2NzMz",
        "avatar_url": "https://avatars.githubusercontent.com/u/39886733?v=4",
        "gravatar_id": "",
        "url": "https://api.github.com/users/DrahtBot",
        "html_url": "https://github.com/DrahtBot",
        "followers_url": "https://api.github.com/users/DrahtBot/followers",
        "following_url": "https://api.github.com/users/DrahtBot/following%7B/other_user%7D",
        "gists_url": "https://api.github.com/users/DrahtBot/gists%7B/gist_id%7D",
        "starred_url": "https://api.github.com/users/DrahtBot/starred%7B/owner%7D%7B/repo%7D",
        "subscriptions_url": "https://api.github.com/users/DrahtBot/subscriptions",
        "organizations_url": "https://api.github.com/users/DrahtBot/orgs",
        "repos_url": "https://api.github.com/users/DrahtBot/repos",
        "events_url": "https://api.github.com/users/DrahtBot/events%7B/privacy%7D",
        "received_events_url": "https://api.github.com/users/DrahtBot/received_events",
        "type": "User",
        "site_admin": false
      },
      "commit_id": null,
      "commit_url": null,
      "created_at": "2023-03-15T14:04:58Z",
      "updated_at": "2023-03-15T14:04:58Z",
      "source": {
        "issue": {
          "id": 1623253674,
          "node_id": "PR_kwDOABII585L_JCH",
          "url": "https://api.github.com/repos/bitcoin/bitcoin/issues/27254",
          "repository_url": "https://api.github.com/repos/bitcoin/bitcoin",
          "labels_url": "https://api.github.com/repos/bitcoin/bitcoin/issues/27254/labels%7B/name%7D",
          "comments_url": "https://api.github.com/repos/bitcoin/bitcoin/issues/27254/comments",
          "events_url": "https://api.github.com/repos/bitcoin/bitcoin/issues/27254/events",
          "html_url": "https://github.com/bitcoin/bitcoin/pull/27254",
          "number": 27254,
          "state": "closed",
          "state_reason": null,
          "title": "refactor: Extract util/fs from util/system",
          "body": "This pull request is part of the `libbitcoinkernel` project https://github.com/bitcoin/bitcoin/issues/24303 https://github.com/bitcoin/bitcoin/projects/18 and more specifically its \"Step 2: Decouple most non-consensus code from libbitcoinkernel\". This commit was originally authored by empact and is taken from its parent PR #25152.\r\n\r\n#### Context\r\n\r\nThere is an ongoing effort to decouple the `ArgsManager` used for command line parsing user-provided arguments from the libbitcoinkernel library (https://github.com/bitcoin/bitcoin/pull/25290, https://github.com/bitcoin/bitcoin/pull/25487, https://github.com/bitcoin/bitcoin/pull/25527, https://github.com/bitcoin/bitcoin/pull/25862, https://github.com/bitcoin/bitcoin/pull/26177, and https://github.com/bitcoin/bitcoin/pull/27125). The `ArgsManager` is defined in `system.h`. A similar pull request extracting functionality from `system.h` has been merged in https://github.com/bitcoin/bitcoin/pull/27238.\r\n\r\n#### Changes\r\n\r\nNext to providing better code organization, this PR removes some reliance of the tree of libbitcoinkernel header includes on `system.h` (and thus the `ArgsManager` definition) by moving filesystem related functions out of the `system.*` files. \r\n\r\nThere is already a pair of `fs.h` / `fs.cpp` in the top-level `src/` directory. They were not combined with the files introduced here, to keep the patch cleaner and more importantly because they are often included without the utility functions. The new files are therefore named `fs_helpers` and the existing `fs` files are moved into the util directory.\r\n\r\nFurther commits splitting more functionality out of `system.h` are still in #25152 and will be submitted in separate PRs once this PR has been processed.",
          "user": {
            "login": "TheCharlatan",
            "id": 8421793,
            "node_id": "MDQ6VXNlcjg0MjE3OTM=",
            "avatar_url": "https://avatars.githubusercontent.com/u/8421793?v=4",
            "gravatar_id": "",
            "url": "https://api.github.com/users/TheCharlatan",
            "html_url": "https://github.com/TheCharlatan",
            "followers_url": "https://api.github.com/users/TheCharlatan/followers",
            "following_url": "https://api.github.com/users/TheCharlatan/following%7B/other_user%7D",
            "gists_url": "https://api.github.com/users/TheCharlatan/gists%7B/gist_id%7D",
            "starred_url": "https://api.github.com/users/TheCharlatan/starred%7B/owner%7D%7B/repo%7D",
            "subscriptions_url": "https://api.github.com/users/TheCharlatan/subscriptions",
            "organizations_url": "https://api.github.com/users/TheCharlatan/orgs",
            "repos_url": "https://api.github.com/users/TheCharlatan/repos",
            "events_url": "https://api.github.com/users/TheCharlatan/events%7B/privacy%7D",
            "received_events_url": "https://api.github.com/users/TheCharlatan/received_events",
            "type": "User",
            "site_admin": false
          },
          "labels": [
            {
              "id": 135961,
              "node_id": "MDU6TGFiZWwxMzU5NjE=",
              "url": "https://api.github.com/repos/bitcoin/bitcoin/labels/Refactoring",
              "name": "Refactoring",
              "color": "E6F6D6",
              "default": false
            }
          ],
          "assignees": [],
          "author_association": "CONTRIBUTOR",
          "locked": false,
          "comments": 11,
          "pull_request": {
            "url": "https://api.github.com/repos/bitcoin/bitcoin/pulls/27254",
            "html_url": "https://github.com/bitcoin/bitcoin/pull/27254",
            "diff_url": "https://github.com/bitcoin/bitcoin/pull/27254.diff",
            "patch_url": "https://github.com/bitcoin/bitcoin/pull/27254.patch"
          },
          "closed_at": "2023-04-03T13:41:34Z",
          "created_at": "2023-03-14T11:11:00Z",
          "updated_at": "2023-04-03T13:41:35Z"
        },
        "type": "issue"
      }
    },
    {
      "event": "commented",
      "id": 1481355808,
      "node_id": "IC_kwDOABII585YS7Ig",
      "url": "https://api.github.com/repos/bitcoin/bitcoin/issues/comments/1481355808",
      "actor": {
        "login": "fanquake",
        "id": 863730,
        "node_id": "MDQ6VXNlcjg2MzczMA==",
        "avatar_url": "https://avatars.githubusercontent.com/u/863730?v=4",
        "gravatar_id": "",
        "url": "https://api.github.com/users/fanquake",
        "html_url": "https://github.com/fanquake",
        "followers_url": "https://api.github.com/users/fanquake/followers",
        "following_url": "https://api.github.com/users/fanquake/following%7B/other_user%7D",
        "gists_url": "https://api.github.com/users/fanquake/gists%7B/gist_id%7D",
        "starred_url": "https://api.github.com/users/fanquake/starred%7B/owner%7D%7B/repo%7D",
        "subscriptions_url": "https://api.github.com/users/fanquake/subscriptions",
        "organizations_url": "https://api.github.com/users/fanquake/orgs",
        "repos_url": "https://api.github.com/users/fanquake/repos",
        "events_url": "https://api.github.com/users/fanquake/events%7B/privacy%7D",
        "received_events_url": "https://api.github.com/users/fanquake/received_events",
        "type": "User",
        "site_admin": false
      },
      "commit_id": null,
      "commit_url": null,
      "created_at": "2023-03-23T15:02:54Z",
      "updated_at": "2023-03-23T15:02:54Z",
      "author_association": "MEMBER",
      "body": "> I feel like I'm missing some context here. Why move these out of compat?\r\n\r\nMy plan was to split compat up further, so we didn't have the singular compat.h, with everything thrown in.",
      "user": {
        "login": "fanquake",
        "id": 863730,
        "node_id": "MDQ6VXNlcjg2MzczMA==",
        "avatar_url": "https://avatars.githubusercontent.com/u/863730?v=4",
        "gravatar_id": "",
        "url": "https://api.github.com/users/fanquake",
        "html_url": "https://github.com/fanquake",
        "followers_url": "https://api.github.com/users/fanquake/followers",
        "following_url": "https://api.github.com/users/fanquake/following%7B/other_user%7D",
        "gists_url": "https://api.github.com/users/fanquake/gists%7B/gist_id%7D",
        "starred_url": "https://api.github.com/users/fanquake/starred%7B/owner%7D%7B/repo%7D",
        "subscriptions_url": "https://api.github.com/users/fanquake/subscriptions",
        "organizations_url": "https://api.github.com/users/fanquake/orgs",
        "repos_url": "https://api.github.com/users/fanquake/repos",
        "events_url": "https://api.github.com/users/fanquake/events%7B/privacy%7D",
        "received_events_url": "https://api.github.com/users/fanquake/received_events",
        "type": "User",
        "site_admin": false
      },
      "html_url": "https://github.com/bitcoin/bitcoin/pull/26832#issuecomment-1481355808",
      "issue_url": "https://api.github.com/repos/bitcoin/bitcoin/issues/26832"
    },
    {
      "event": "commented",
      "id": 1481403430,
      "node_id": "IC_kwDOABII585YTGwm",
      "url": "https://api.github.com/repos/bitcoin/bitcoin/issues/comments/1481403430",
      "actor": {
        "login": "TheCharlatan",
        "id": 8421793,
        "node_id": "MDQ6VXNlcjg0MjE3OTM=",
        "avatar_url": "https://avatars.githubusercontent.com/u/8421793?v=4",
        "gravatar_id": "",
        "url": "https://api.github.com/users/TheCharlatan",
        "html_url": "https://github.com/TheCharlatan",
        "followers_url": "https://api.github.com/users/TheCharlatan/followers",
        "following_url": "https://api.github.com/users/TheCharlatan/following%7B/other_user%7D",
        "gists_url": "https://api.github.com/users/TheCharlatan/gists%7B/gist_id%7D",
        "starred_url": "https://api.github.com/users/TheCharlatan/starred%7B/owner%7D%7B/repo%7D",
        "subscriptions_url": "https://api.github.com/users/TheCharlatan/subscriptions",
        "organizations_url": "https://api.github.com/users/TheCharlatan/orgs",
        "repos_url": "https://api.github.com/users/TheCharlatan/repos",
        "events_url": "https://api.github.com/users/TheCharlatan/events%7B/privacy%7D",
        "received_events_url": "https://api.github.com/users/TheCharlatan/received_events",
        "type": "User",
        "site_admin": false
      },
      "commit_id": null,
      "commit_url": null,
      "created_at": "2023-03-23T15:29:06Z",
      "updated_at": "2023-03-23T15:29:06Z",
      "author_association": "CONTRIBUTOR",
      "body": "Light code review ACK cf0d86ed15041822e2a0a55ddf231af7809a9e66",
      "user": {
        "login": "TheCharlatan",
        "id": 8421793,
        "node_id": "MDQ6VXNlcjg0MjE3OTM=",
        "avatar_url": "https://avatars.githubusercontent.com/u/8421793?v=4",
        "gravatar_id": "",
        "url": "https://api.github.com/users/TheCharlatan",
        "html_url": "https://github.com/TheCharlatan",
        "followers_url": "https://api.github.com/users/TheCharlatan/followers",
        "following_url": "https://api.github.com/users/TheCharlatan/following%7B/other_user%7D",
        "gists_url": "https://api.github.com/users/TheCharlatan/gists%7B/gist_id%7D",
        "starred_url": "https://api.github.com/users/TheCharlatan/starred%7B/owner%7D%7B/repo%7D",
        "subscriptions_url": "https://api.github.com/users/TheCharlatan/subscriptions",
        "organizations_url": "https://api.github.com/users/TheCharlatan/orgs",
        "repos_url": "https://api.github.com/users/TheCharlatan/repos",
        "events_url": "https://api.github.com/users/TheCharlatan/events%7B/privacy%7D",
        "received_events_url": "https://api.github.com/users/TheCharlatan/received_events",
        "type": "User",
        "site_admin": false
      },
      "html_url": "https://github.com/bitcoin/bitcoin/pull/26832#issuecomment-1481403430",
      "issue_url": "https://api.github.com/repos/bitcoin/bitcoin/issues/26832"
    },
    {
      "event": "committed",
      "id": null,
      "node_id": "C_kwDOABII59oAKDU0ZTQwNjExODkyNmMyYTUyNjQ1NWE2MGY2Nzk2MTUyMGRmYjY1ZGE",
      "url": "https://api.github.com/repos/bitcoin/bitcoin/git/commits/54e406118926c2a526455a60f67961520dfb65da",
      "actor": null,
      "commit_id": null,
      "commit_url": null,
      "created_at": null,
      "html_url": "https://github.com/bitcoin/bitcoin/commit/54e406118926c2a526455a60f67961520dfb65da",
      "tree": {
        "sha": "43b6e14fa88356d40d576429d703fdac813eb1de",
        "url": "https://api.github.com/repos/bitcoin/bitcoin/git/trees/43b6e14fa88356d40d576429d703fdac813eb1de"
      },
      "verification": {
        "verified": true,
        "reason": "valid",
        "payload": "tree 43b6e14fa88356d40d576429d703fdac813eb1de\nparent 369d4c03b7084de967576759545ba36a17fc18bb\nauthor fanquake <fanquake@gmail.com> 1674562688 +0000\ncommitter fanquake <fanquake@gmail.com> 1680529488 +0100\n\nrefactor: don't avoid sys/types.h on when building for Windows\n\nWe've already used it unguarded in `httpserver.cpp` for years, with no\nbuild issues.\n",
        "signature": "-----BEGIN PGP SIGNATURE-----\n\niQIzBAABCAAdFiEEz7FuIclQ9n+pXlWPLuufXMCVJsEFAmQq2FIACgkQLuufXMCV\nJsEvGA/6A9HvdJSwFfyoSsJOH/NGwnmTWe6lZqjSkAPuQHDPITFasWWER6GiOM5p\nggForfJB7zd6OVCQovpH/FFOP+WlI+seqN51SeZA4YuYoi9DtbtoNQE++N94PJSy\n+bbXV7o4b2QKBuXA3Xci09MroAXPIsjoVhILym3IJKei74ww3YoA/qJpUZKhAaa7\nRCiCUsY9hDoSuxHsvz7KFg7OcSe8pujZF0/nl5zccWOnrIGTgeKWMtnqll/W+DdI\nxx09HRm+VnCpKSBEM5PNmpmSH2RXfVDaeEjD9w15Qc+xBGEMtc5vQAxGp48wZpY0\nYa0xnVMB6x1GCM1w8+9vMrO01z1g13C4nch0f+GPK1SDyi+O1ebUl6d1wMZZNTs0\n+VICJvrMjx3PCckkQ62FcqyXhnD0Ipmp2bMAc82HLRJoNkvexxcT/Ye7kscjR9kG\nPZ4nQxc0evbvfqpMfdV8+FOslHRuJn+bcP4bWEZezxLV/HZsjQc3t8aQjEPL8JY8\nPkje1hvRYAc8ImVZOXicgbLXazdmR9v8FZGgT//9gpJiEpbxJml2pfL+NT2OE5d9\noTLbaLKpdq0QPjLQ03jiwQmYUSSC+5k8JFRJ4vKpLX3v2hL9UyiDHSr4yH5UK77O\nzHoCWsM8mkh6p0SgRZZm/1sFCOEb144ZUqQmqeuUaBCCJ7DodE4=\n=ttDu\n-----END PGP SIGNATURE-----"
      },
      "parents": [
        {
          "url": "https://api.github.com/repos/bitcoin/bitcoin/git/commits/369d4c03b7084de967576759545ba36a17fc18bb",
          "sha": "369d4c03b7084de967576759545ba36a17fc18bb",
          "html_url": "https://github.com/bitcoin/bitcoin/commit/369d4c03b7084de967576759545ba36a17fc18bb"
        }
      ],
      "message": "refactor: don't avoid sys/types.h on when building for Windows\n\nWe've already used it unguarded in `httpserver.cpp` for years, with no\nbuild issues.",
      "committer": {
        "name": "fanquake",
        "email": "fanquake@gmail.com",
        "date": "2023-04-03T13:44:48Z"
      },
      "author": {
        "name": "fanquake",
        "email": "fanquake@gmail.com",
        "date": "2023-01-24T12:18:08Z"
      },
      "sha": "54e406118926c2a526455a60f67961520dfb65da"
    },
    {
      "event": "head_ref_force_pushed",
      "id": 8913199600,
      "node_id": "HRFPE_lADOABII585au105zwAAAAITRKHw",
      "url": "https://api.github.com/repos/bitcoin/bitcoin/issues/events/8913199600",
      "actor": {
        "login": "fanquake",
        "id": 863730,
        "node_id": "MDQ6VXNlcjg2MzczMA==",
        "avatar_url": "https://avatars.githubusercontent.com/u/863730?v=4",
        "gravatar_id": "",
        "url": "https://api.github.com/users/fanquake",
        "html_url": "https://github.com/fanquake",
        "followers_url": "https://api.github.com/users/fanquake/followers",
        "following_url": "https://api.github.com/users/fanquake/following%7B/other_user%7D",
        "gists_url": "https://api.github.com/users/fanquake/gists%7B/gist_id%7D",
        "starred_url": "https://api.github.com/users/fanquake/starred%7B/owner%7D%7B/repo%7D",
        "subscriptions_url": "https://api.github.com/users/fanquake/subscriptions",
        "organizations_url": "https://api.github.com/users/fanquake/orgs",
        "repos_url": "https://api.github.com/users/fanquake/repos",
        "events_url": "https://api.github.com/users/fanquake/events%7B/privacy%7D",
        "received_events_url": "https://api.github.com/users/fanquake/received_events",
        "type": "User",
        "site_admin": false
      },
      "commit_id": null,
      "commit_url": null,
      "created_at": "2023-04-03T13:45:29Z"
    },
    {
      "event": "commented",
      "id": 1494353437,
      "node_id": "IC_kwDOABII585ZEgYd",
      "url": "https://api.github.com/repos/bitcoin/bitcoin/issues/comments/1494353437",
      "actor": {
        "login": "fanquake",
        "id": 863730,
        "node_id": "MDQ6VXNlcjg2MzczMA==",
        "avatar_url": "https://avatars.githubusercontent.com/u/863730?v=4",
        "gravatar_id": "",
        "url": "https://api.github.com/users/fanquake",
        "html_url": "https://github.com/fanquake",
        "followers_url": "https://api.github.com/users/fanquake/followers",
        "following_url": "https://api.github.com/users/fanquake/following%7B/other_user%7D",
        "gists_url": "https://api.github.com/users/fanquake/gists%7B/gist_id%7D",
        "starred_url": "https://api.github.com/users/fanquake/starred%7B/owner%7D%7B/repo%7D",
        "subscriptions_url": "https://api.github.com/users/fanquake/subscriptions",
        "organizations_url": "https://api.github.com/users/fanquake/orgs",
        "repos_url": "https://api.github.com/users/fanquake/repos",
        "events_url": "https://api.github.com/users/fanquake/events%7B/privacy%7D",
        "received_events_url": "https://api.github.com/users/fanquake/received_events",
        "type": "User",
        "site_admin": false
      },
      "commit_id": null,
      "commit_url": null,
      "created_at": "2023-04-03T13:46:18Z",
      "updated_at": "2023-04-03T13:46:18Z",
      "author_association": "MEMBER",
      "body": "Rebased for #27254.",
      "user": {
        "login": "fanquake",
        "id": 863730,
        "node_id": "MDQ6VXNlcjg2MzczMA==",
        "avatar_url": "https://avatars.githubusercontent.com/u/863730?v=4",
        "gravatar_id": "",
        "url": "https://api.github.com/users/fanquake",
        "html_url": "https://github.com/fanquake",
        "followers_url": "https://api.github.com/users/fanquake/followers",
        "following_url": "https://api.github.com/users/fanquake/following%7B/other_user%7D",
        "gists_url": "https://api.github.com/users/fanquake/gists%7B/gist_id%7D",
        "starred_url": "https://api.github.com/users/fanquake/starred%7B/owner%7D%7B/repo%7D",
        "subscriptions_url": "https://api.github.com/users/fanquake/subscriptions",
        "organizations_url": "https://api.github.com/users/fanquake/orgs",
        "repos_url": "https://api.github.com/users/fanquake/repos",
        "events_url": "https://api.github.com/users/fanquake/events%7B/privacy%7D",
        "received_events_url": "https://api.github.com/users/fanquake/received_events",
        "type": "User",
        "site_admin": false
      },
      "html_url": "https://github.com/bitcoin/bitcoin/pull/26832#issuecomment-1494353437",
      "issue_url": "https://api.github.com/repos/bitcoin/bitcoin/issues/26832"
    },
    {
      "event": "reviewed",
      "id": 1371617535,
      "node_id": "PRR_kwDOABII585RwTj_",
      "url": null,
      "actor": null,
      "commit_id": "54e406118926c2a526455a60f67961520dfb65da",
      "commit_url": null,
      "created_at": null,
      "author_association": "MEMBER",
      "body": "ACK 54e406118926c2a526455a60f67961520dfb65da, I have reviewed the code and it looks OK.\r\n\r\nnit: Two commits _\"refactor: don't avoid sys/types.h on when building for Windows\"_ and _\"compat: move (win) S\\_* defines into bdb\"_ were squashed but the commit message of the latter was lost.",
      "user": {
        "login": "hebasto",
        "id": 32963518,
        "node_id": "MDQ6VXNlcjMyOTYzNTE4",
        "avatar_url": "https://avatars.githubusercontent.com/u/32963518?v=4",
        "gravatar_id": "",
        "url": "https://api.github.com/users/hebasto",
        "html_url": "https://github.com/hebasto",
        "followers_url": "https://api.github.com/users/hebasto/followers",
        "following_url": "https://api.github.com/users/hebasto/following%7B/other_user%7D",
        "gists_url": "https://api.github.com/users/hebasto/gists%7B/gist_id%7D",
        "starred_url": "https://api.github.com/users/hebasto/starred%7B/owner%7D%7B/repo%7D",
        "subscriptions_url": "https://api.github.com/users/hebasto/subscriptions",
        "organizations_url": "https://api.github.com/users/hebasto/orgs",
        "repos_url": "https://api.github.com/users/hebasto/repos",
        "events_url": "https://api.github.com/users/hebasto/events%7B/privacy%7D",
        "received_events_url": "https://api.github.com/users/hebasto/received_events",
        "type": "User",
        "site_admin": false
      },
      "html_url": "https://github.com/bitcoin/bitcoin/pull/26832#pullrequestreview-1371617535",
      "submitted_at": "2023-04-04T19:08:20Z",
      "state": "APPROVED",
      "pull_request_url": "https://api.github.com/repos/bitcoin/bitcoin/pulls/26832"
    },
    {
      "event": "review_requested",
      "id": 8927892370,
      "node_id": "RRE_lADOABII585au105zwAAAAIUJNOS",
      "url": "https://api.github.com/repos/bitcoin/bitcoin/issues/events/8927892370",
      "actor": {
        "login": "DrahtBot",
        "id": 39886733,
        "node_id": "MDQ6VXNlcjM5ODg2NzMz",
        "avatar_url": "https://avatars.githubusercontent.com/u/39886733?v=4",
        "gravatar_id": "",
        "url": "https://api.github.com/users/DrahtBot",
        "html_url": "https://github.com/DrahtBot",
        "followers_url": "https://api.github.com/users/DrahtBot/followers",
        "following_url": "https://api.github.com/users/DrahtBot/following%7B/other_user%7D",
        "gists_url": "https://api.github.com/users/DrahtBot/gists%7B/gist_id%7D",
        "starred_url": "https://api.github.com/users/DrahtBot/starred%7B/owner%7D%7B/repo%7D",
        "subscriptions_url": "https://api.github.com/users/DrahtBot/subscriptions",
        "organizations_url": "https://api.github.com/users/DrahtBot/orgs",
        "repos_url": "https://api.github.com/users/DrahtBot/repos",
        "events_url": "https://api.github.com/users/DrahtBot/events%7B/privacy%7D",
        "received_events_url": "https://api.github.com/users/DrahtBot/received_events",
        "type": "User",
        "site_admin": false
      },
      "commit_id": null,
      "commit_url": null,
      "created_at": "2023-04-04T19:08:25Z",
      "requested_reviewer": {
        "login": "TheCharlatan",
        "id": 8421793,
        "node_id": "MDQ6VXNlcjg0MjE3OTM=",
        "avatar_url": "https://avatars.githubusercontent.com/u/8421793?v=4",
        "gravatar_id": "",
        "url": "https://api.github.com/users/TheCharlatan",
        "html_url": "https://github.com/TheCharlatan",
        "followers_url": "https://api.github.com/users/TheCharlatan/followers",
        "following_url": "https://api.github.com/users/TheCharlatan/following%7B/other_user%7D",
        "gists_url": "https://api.github.com/users/TheCharlatan/gists%7B/gist_id%7D",
        "starred_url": "https://api.github.com/users/TheCharlatan/starred%7B/owner%7D%7B/repo%7D",
        "subscriptions_url": "https://api.github.com/users/TheCharlatan/subscriptions",
        "organizations_url": "https://api.github.com/users/TheCharlatan/orgs",
        "repos_url": "https://api.github.com/users/TheCharlatan/repos",
        "events_url": "https://api.github.com/users/TheCharlatan/events%7B/privacy%7D",
        "received_events_url": "https://api.github.com/users/TheCharlatan/received_events",
        "type": "User",
        "site_admin": false
      },
      "review_requester": {
        "login": "DrahtBot",
        "id": 39886733,
        "node_id": "MDQ6VXNlcjM5ODg2NzMz",
        "avatar_url": "https://avatars.githubusercontent.com/u/39886733?v=4",
        "gravatar_id": "",
        "url": "https://api.github.com/users/DrahtBot",
        "html_url": "https://github.com/DrahtBot",
        "followers_url": "https://api.github.com/users/DrahtBot/followers",
        "following_url": "https://api.github.com/users/DrahtBot/following%7B/other_user%7D",
        "gists_url": "https://api.github.com/users/DrahtBot/gists%7B/gist_id%7D",
        "starred_url": "https://api.github.com/users/DrahtBot/starred%7B/owner%7D%7B/repo%7D",
        "subscriptions_url": "https://api.github.com/users/DrahtBot/subscriptions",
        "organizations_url": "https://api.github.com/users/DrahtBot/orgs",
        "repos_url": "https://api.github.com/users/DrahtBot/repos",
        "events_url": "https://api.github.com/users/DrahtBot/events%7B/privacy%7D",
        "received_events_url": "https://api.github.com/users/DrahtBot/received_events",
        "type": "User",
        "site_admin": false
      }
    },
    {
      "event": "commented",
      "id": 1496583438,
      "node_id": "IC_kwDOABII585ZNA0O",
      "url": "https://api.github.com/repos/bitcoin/bitcoin/issues/comments/1496583438",
      "actor": {
        "login": "TheCharlatan",
        "id": 8421793,
        "node_id": "MDQ6VXNlcjg0MjE3OTM=",
        "avatar_url": "https://avatars.githubusercontent.com/u/8421793?v=4",
        "gravatar_id": "",
        "url": "https://api.github.com/users/TheCharlatan",
        "html_url": "https://github.com/TheCharlatan",
        "followers_url": "https://api.github.com/users/TheCharlatan/followers",
        "following_url": "https://api.github.com/users/TheCharlatan/following%7B/other_user%7D",
        "gists_url": "https://api.github.com/users/TheCharlatan/gists%7B/gist_id%7D",
        "starred_url": "https://api.github.com/users/TheCharlatan/starred%7B/owner%7D%7B/repo%7D",
        "subscriptions_url": "https://api.github.com/users/TheCharlatan/subscriptions",
        "organizations_url": "https://api.github.com/users/TheCharlatan/orgs",
        "repos_url": "https://api.github.com/users/TheCharlatan/repos",
        "events_url": "https://api.github.com/users/TheCharlatan/events%7B/privacy%7D",
        "received_events_url": "https://api.github.com/users/TheCharlatan/received_events",
        "type": "User",
        "site_admin": false
      },
      "commit_id": null,
      "commit_url": null,
      "created_at": "2023-04-04T20:45:07Z",
      "updated_at": "2023-04-04T20:45:07Z",
      "author_association": "CONTRIBUTOR",
      "body": "re-ACK 54e406118926c2a526455a60f67961520dfb65da",
      "user": {
        "login": "TheCharlatan",
        "id": 8421793,
        "node_id": "MDQ6VXNlcjg0MjE3OTM=",
        "avatar_url": "https://avatars.githubusercontent.com/u/8421793?v=4",
        "gravatar_id": "",
        "url": "https://api.github.com/users/TheCharlatan",
        "html_url": "https://github.com/TheCharlatan",
        "followers_url": "https://api.github.com/users/TheCharlatan/followers",
        "following_url": "https://api.github.com/users/TheCharlatan/following%7B/other_user%7D",
        "gists_url": "https://api.github.com/users/TheCharlatan/gists%7B/gist_id%7D",
        "starred_url": "https://api.github.com/users/TheCharlatan/starred%7B/owner%7D%7B/repo%7D",
        "subscriptions_url": "https://api.github.com/users/TheCharlatan/subscriptions",
        "organizations_url": "https://api.github.com/users/TheCharlatan/orgs",
        "repos_url": "https://api.github.com/users/TheCharlatan/repos",
        "events_url": "https://api.github.com/users/TheCharlatan/events%7B/privacy%7D",
        "received_events_url": "https://api.github.com/users/TheCharlatan/received_events",
        "type": "User",
        "site_admin": false
      },
      "html_url": "https://github.com/bitcoin/bitcoin/pull/26832#issuecomment-1496583438",
      "issue_url": "https://api.github.com/repos/bitcoin/bitcoin/issues/26832"
    },
    {
      "event": "review_request_removed",
      "id": 8928679727,
      "node_id": "RRRE_lADOABII585au105zwAAAAIUMNcv",
      "url": "https://api.github.com/repos/bitcoin/bitcoin/issues/events/8928679727",
      "actor": {
        "login": "DrahtBot",
        "id": 39886733,
        "node_id": "MDQ6VXNlcjM5ODg2NzMz",
        "avatar_url": "https://avatars.githubusercontent.com/u/39886733?v=4",
        "gravatar_id": "",
        "url": "https://api.github.com/users/DrahtBot",
        "html_url": "https://github.com/DrahtBot",
        "followers_url": "https://api.github.com/users/DrahtBot/followers",
        "following_url": "https://api.github.com/users/DrahtBot/following%7B/other_user%7D",
        "gists_url": "https://api.github.com/users/DrahtBot/gists%7B/gist_id%7D",
        "starred_url": "https://api.github.com/users/DrahtBot/starred%7B/owner%7D%7B/repo%7D",
        "subscriptions_url": "https://api.github.com/users/DrahtBot/subscriptions",
        "organizations_url": "https://api.github.com/users/DrahtBot/orgs",
        "repos_url": "https://api.github.com/users/DrahtBot/repos",
        "events_url": "https://api.github.com/users/DrahtBot/events%7B/privacy%7D",
        "received_events_url": "https://api.github.com/users/DrahtBot/received_events",
        "type": "User",
        "site_admin": false
      },
      "commit_id": null,
      "commit_url": null,
      "created_at": "2023-04-04T20:45:10Z",
      "requested_reviewer": {
        "login": "TheCharlatan",
        "id": 8421793,
        "node_id": "MDQ6VXNlcjg0MjE3OTM=",
        "avatar_url": "https://avatars.githubusercontent.com/u/8421793?v=4",
        "gravatar_id": "",
        "url": "https://api.github.com/users/TheCharlatan",
        "html_url": "https://github.com/TheCharlatan",
        "followers_url": "https://api.github.com/users/TheCharlatan/followers",
        "following_url": "https://api.github.com/users/TheCharlatan/following%7B/other_user%7D",
        "gists_url": "https://api.github.com/users/TheCharlatan/gists%7B/gist_id%7D",
        "starred_url": "https://api.github.com/users/TheCharlatan/starred%7B/owner%7D%7B/repo%7D",
        "subscriptions_url": "https://api.github.com/users/TheCharlatan/subscriptions",
        "organizations_url": "https://api.github.com/users/TheCharlatan/orgs",
        "repos_url": "https://api.github.com/users/TheCharlatan/repos",
        "events_url": "https://api.github.com/users/TheCharlatan/events%7B/privacy%7D",
        "received_events_url": "https://api.github.com/users/TheCharlatan/received_events",
        "type": "User",
        "site_admin": false
      },
      "review_requester": {
        "login": "DrahtBot",
        "id": 39886733,
        "node_id": "MDQ6VXNlcjM5ODg2NzMz",
        "avatar_url": "https://avatars.githubusercontent.com/u/39886733?v=4",
        "gravatar_id": "",
        "url": "https://api.github.com/users/DrahtBot",
        "html_url": "https://github.com/DrahtBot",
        "followers_url": "https://api.github.com/users/DrahtBot/followers",
        "following_url": "https://api.github.com/users/DrahtBot/following%7B/other_user%7D",
        "gists_url": "https://api.github.com/users/DrahtBot/gists%7B/gist_id%7D",
        "starred_url": "https://api.github.com/users/DrahtBot/starred%7B/owner%7D%7B/repo%7D",
        "subscriptions_url": "https://api.github.com/users/DrahtBot/subscriptions",
        "organizations_url": "https://api.github.com/users/DrahtBot/orgs",
        "repos_url": "https://api.github.com/users/DrahtBot/repos",
        "events_url": "https://api.github.com/users/DrahtBot/events%7B/privacy%7D",
        "received_events_url": "https://api.github.com/users/DrahtBot/received_events",
        "type": "User",
        "site_admin": false
      }
    },
    {
      "event": "merged",
      "id": 8933604534,
      "node_id": "ME_lADOABII585au105zwAAAAIUe_y2",
      "url": "https://api.github.com/repos/bitcoin/bitcoin/issues/events/8933604534",
      "actor": {
        "login": "fanquake",
        "id": 863730,
        "node_id": "MDQ6VXNlcjg2MzczMA==",
        "avatar_url": "https://avatars.githubusercontent.com/u/863730?v=4",
        "gravatar_id": "",
        "url": "https://api.github.com/users/fanquake",
        "html_url": "https://github.com/fanquake",
        "followers_url": "https://api.github.com/users/fanquake/followers",
        "following_url": "https://api.github.com/users/fanquake/following%7B/other_user%7D",
        "gists_url": "https://api.github.com/users/fanquake/gists%7B/gist_id%7D",
        "starred_url": "https://api.github.com/users/fanquake/starred%7B/owner%7D%7B/repo%7D",
        "subscriptions_url": "https://api.github.com/users/fanquake/subscriptions",
        "organizations_url": "https://api.github.com/users/fanquake/orgs",
        "repos_url": "https://api.github.com/users/fanquake/repos",
        "events_url": "https://api.github.com/users/fanquake/events%7B/privacy%7D",
        "received_events_url": "https://api.github.com/users/fanquake/received_events",
        "type": "User",
        "site_admin": false
      },
      "commit_id": "23a899b27c0b544c3cff27ec1111f38e14cfc73f",
      "commit_url": "https://api.github.com/repos/bitcoin/bitcoin/commits/23a899b27c0b544c3cff27ec1111f38e14cfc73f",
      "created_at": "2023-04-05T10:36:32Z"
    },
    {
      "event": "closed",
      "id": 8933604566,
      "node_id": "CE_lADOABII585au105zwAAAAIUe_zW",
      "url": "https://api.github.com/repos/bitcoin/bitcoin/issues/events/8933604566",
      "actor": {
        "login": "fanquake",
        "id": 863730,
        "node_id": "MDQ6VXNlcjg2MzczMA==",
        "avatar_url": "https://avatars.githubusercontent.com/u/863730?v=4",
        "gravatar_id": "",
        "url": "https://api.github.com/users/fanquake",
        "html_url": "https://github.com/fanquake",
        "followers_url": "https://api.github.com/users/fanquake/followers",
        "following_url": "https://api.github.com/users/fanquake/following%7B/other_user%7D",
        "gists_url": "https://api.github.com/users/fanquake/gists%7B/gist_id%7D",
        "starred_url": "https://api.github.com/users/fanquake/starred%7B/owner%7D%7B/repo%7D",
        "subscriptions_url": "https://api.github.com/users/fanquake/subscriptions",
        "organizations_url": "https://api.github.com/users/fanquake/orgs",
        "repos_url": "https://api.github.com/users/fanquake/repos",
        "events_url": "https://api.github.com/users/fanquake/events%7B/privacy%7D",
        "received_events_url": "https://api.github.com/users/fanquake/received_events",
        "type": "User",
        "site_admin": false
      },
      "commit_id": null,
      "commit_url": null,
      "created_at": "2023-04-05T10:36:32Z"
    },
    {
      "event": "head_ref_deleted",
      "id": 8933606329,
      "node_id": "HRDE_lADOABII585au105zwAAAAIUfAO5",
      "url": "https://api.github.com/repos/bitcoin/bitcoin/issues/events/8933606329",
      "actor": {
        "login": "fanquake",
        "id": 863730,
        "node_id": "MDQ6VXNlcjg2MzczMA==",
        "avatar_url": "https://avatars.githubusercontent.com/u/863730?v=4",
        "gravatar_id": "",
        "url": "https://api.github.com/users/fanquake",
        "html_url": "https://github.com/fanquake",
        "followers_url": "https://api.github.com/users/fanquake/followers",
        "following_url": "https://api.github.com/users/fanquake/following%7B/other_user%7D",
        "gists_url": "https://api.github.com/users/fanquake/gists%7B/gist_id%7D",
        "starred_url": "https://api.github.com/users/fanquake/starred%7B/owner%7D%7B/repo%7D",
        "subscriptions_url": "https://api.github.com/users/fanquake/subscriptions",
        "organizations_url": "https://api.github.com/users/fanquake/orgs",
        "repos_url": "https://api.github.com/users/fanquake/repos",
        "events_url": "https://api.github.com/users/fanquake/events%7B/privacy%7D",
        "received_events_url": "https://api.github.com/users/fanquake/received_events",
        "type": "User",
        "site_admin": false
      },
      "commit_id": null,
      "commit_url": null,
      "created_at": "2023-04-05T10:36:43Z"
    },
    {
      "event": "referenced",
      "id": 8936171073,
      "node_id": "REFE_lADOABII585au105zwAAAAIUoyZB",
      "url": "https://api.github.com/repos/bitcoin/bitcoin/issues/events/8936171073",
      "actor": {
        "login": "sidhujag",
        "id": 6238042,
        "node_id": "MDQ6VXNlcjYyMzgwNDI=",
        "avatar_url": "https://avatars.githubusercontent.com/u/6238042?v=4",
        "gravatar_id": "",
        "url": "https://api.github.com/users/sidhujag",
        "html_url": "https://github.com/sidhujag",
        "followers_url": "https://api.github.com/users/sidhujag/followers",
        "following_url": "https://api.github.com/users/sidhujag/following%7B/other_user%7D",
        "gists_url": "https://api.github.com/users/sidhujag/gists%7B/gist_id%7D",
        "starred_url": "https://api.github.com/users/sidhujag/starred%7B/owner%7D%7B/repo%7D",
        "subscriptions_url": "https://api.github.com/users/sidhujag/subscriptions",
        "organizations_url": "https://api.github.com/users/sidhujag/orgs",
        "repos_url": "https://api.github.com/users/sidhujag/repos",
        "events_url": "https://api.github.com/users/sidhujag/events%7B/privacy%7D",
        "received_events_url": "https://api.github.com/users/sidhujag/received_events",
        "type": "User",
        "site_admin": false
      },
      "commit_id": "fd5d560e85e263e41bbefb530f607609d1455fa0",
      "commit_url": "https://api.github.com/repos/syscoin/syscoin/commits/fd5d560e85e263e41bbefb530f607609d1455fa0",
      "created_at": "2023-04-05T14:52:05Z"
    }
  ],
  "comments": []
}