{
  "type": "pull",
  "pull": {
    "url": "https://api.github.com/repos/bitcoin/bitcoin/pulls/26854",
    "id": 1190817013,
    "node_id": "PR_kwDOABII585G-mz1",
    "html_url": "https://github.com/bitcoin/bitcoin/pull/26854",
    "diff_url": "https://github.com/bitcoin/bitcoin/pull/26854.diff",
    "patch_url": "https://github.com/bitcoin/bitcoin/pull/26854.patch",
    "issue_url": "https://api.github.com/repos/bitcoin/bitcoin/issues/26854",
    "commits_url": "https://api.github.com/repos/bitcoin/bitcoin/pulls/26854/commits",
    "review_comments_url": "https://api.github.com/repos/bitcoin/bitcoin/pulls/26854/comments",
    "review_comment_url": "https://api.github.com/repos/bitcoin/bitcoin/pulls/comments%7B/number%7D",
    "comments_url": "https://api.github.com/repos/bitcoin/bitcoin/issues/26854/comments",
    "statuses_url": "https://api.github.com/repos/bitcoin/bitcoin/statuses/fa1bf4e7052e617dd0e5c8c54969d84314af9577",
    "number": 26854,
    "state": "closed",
    "locked": false,
    "maintainer_can_modify": false,
    "title": "test: Fix intermittent timeout in p2p_permissions.py",
    "user": {
      "login": "MarcoFalke",
      "id": 6399679,
      "node_id": "MDQ6VXNlcjYzOTk2Nzk=",
      "avatar_url": "https://avatars.githubusercontent.com/u/6399679?v=4",
      "gravatar_id": "",
      "url": "https://api.github.com/users/MarcoFalke",
      "html_url": "https://github.com/MarcoFalke",
      "followers_url": "https://api.github.com/users/MarcoFalke/followers",
      "following_url": "https://api.github.com/users/MarcoFalke/following%7B/other_user%7D",
      "gists_url": "https://api.github.com/users/MarcoFalke/gists%7B/gist_id%7D",
      "starred_url": "https://api.github.com/users/MarcoFalke/starred%7B/owner%7D%7B/repo%7D",
      "subscriptions_url": "https://api.github.com/users/MarcoFalke/subscriptions",
      "organizations_url": "https://api.github.com/users/MarcoFalke/orgs",
      "repos_url": "https://api.github.com/users/MarcoFalke/repos",
      "events_url": "https://api.github.com/users/MarcoFalke/events%7B/privacy%7D",
      "received_events_url": "https://api.github.com/users/MarcoFalke/received_events",
      "type": "User",
      "site_admin": false
    },
    "body": "The sync is based on `bytesrecv_per_msg[\"verack\"]`. However, the bytes are counted before processing the message, so they are not sufficient to ensure the connection is fully up.",
    "labels": [
      {
        "id": 62963516,
        "node_id": "MDU6TGFiZWw2Mjk2MzUxNg==",
        "url": "https://api.github.com/repos/bitcoin/bitcoin/labels/Tests",
        "name": "Tests",
        "color": "d4c5f9",
        "default": false
      }
    ],
    "created_at": "2023-01-09T13:44:44Z",
    "updated_at": "2023-01-12T12:00:35Z",
    "closed_at": "2023-01-12T11:54:20Z",
    "mergeable_state": "unknown",
    "merged_at": "2023-01-12T11:54:20Z",
    "merge_commit_sha": "edc3d1b296e34838d649dc21b8483a52e214932a",
    "assignees": [],
    "requested_reviewers": [],
    "requested_teams": [],
    "head": {
      "label": "MarcoFalke:2301-test-timeout-p2p-perm-💙",
      "ref": "2301-test-timeout-p2p-perm-💙",
      "sha": "fa1bf4e7052e617dd0e5c8c54969d84314af9577",
      "user": {
        "login": "MarcoFalke",
        "id": 6399679,
        "node_id": "MDQ6VXNlcjYzOTk2Nzk=",
        "avatar_url": "https://avatars.githubusercontent.com/u/6399679?v=4",
        "gravatar_id": "",
        "url": "https://api.github.com/users/MarcoFalke",
        "html_url": "https://github.com/MarcoFalke",
        "followers_url": "https://api.github.com/users/MarcoFalke/followers",
        "following_url": "https://api.github.com/users/MarcoFalke/following%7B/other_user%7D",
        "gists_url": "https://api.github.com/users/MarcoFalke/gists%7B/gist_id%7D",
        "starred_url": "https://api.github.com/users/MarcoFalke/starred%7B/owner%7D%7B/repo%7D",
        "subscriptions_url": "https://api.github.com/users/MarcoFalke/subscriptions",
        "organizations_url": "https://api.github.com/users/MarcoFalke/orgs",
        "repos_url": "https://api.github.com/users/MarcoFalke/repos",
        "events_url": "https://api.github.com/users/MarcoFalke/events%7B/privacy%7D",
        "received_events_url": "https://api.github.com/users/MarcoFalke/received_events",
        "type": "User",
        "site_admin": false
      },
      "repo": {
        "id": 40046254,
        "node_id": "MDEwOlJlcG9zaXRvcnk0MDA0NjI1NA==",
        "name": "b-c",
        "full_name": "MarcoFalke/b-c",
        "owner": {
          "login": "MarcoFalke",
          "id": 6399679,
          "node_id": "MDQ6VXNlcjYzOTk2Nzk=",
          "avatar_url": "https://avatars.githubusercontent.com/u/6399679?v=4",
          "gravatar_id": "",
          "url": "https://api.github.com/users/MarcoFalke",
          "html_url": "https://github.com/MarcoFalke",
          "followers_url": "https://api.github.com/users/MarcoFalke/followers",
          "following_url": "https://api.github.com/users/MarcoFalke/following%7B/other_user%7D",
          "gists_url": "https://api.github.com/users/MarcoFalke/gists%7B/gist_id%7D",
          "starred_url": "https://api.github.com/users/MarcoFalke/starred%7B/owner%7D%7B/repo%7D",
          "subscriptions_url": "https://api.github.com/users/MarcoFalke/subscriptions",
          "organizations_url": "https://api.github.com/users/MarcoFalke/orgs",
          "repos_url": "https://api.github.com/users/MarcoFalke/repos",
          "events_url": "https://api.github.com/users/MarcoFalke/events%7B/privacy%7D",
          "received_events_url": "https://api.github.com/users/MarcoFalke/received_events",
          "type": "User",
          "site_admin": false
        },
        "private": false,
        "html_url": "https://github.com/MarcoFalke/b-c",
        "fork": true,
        "url": "https://api.github.com/repos/MarcoFalke/b-c",
        "archive_url": "https://api.github.com/repos/MarcoFalke/b-c/%7Barchive_format%7D%7B/ref%7D",
        "assignees_url": "https://api.github.com/repos/MarcoFalke/b-c/assignees%7B/user%7D",
        "blobs_url": "https://api.github.com/repos/MarcoFalke/b-c/git/blobs%7B/sha%7D",
        "branches_url": "https://api.github.com/repos/MarcoFalke/b-c/branches%7B/branch%7D",
        "collaborators_url": "https://api.github.com/repos/MarcoFalke/b-c/collaborators%7B/collaborator%7D",
        "comments_url": "https://api.github.com/repos/MarcoFalke/b-c/comments%7B/number%7D",
        "commits_url": "https://api.github.com/repos/MarcoFalke/b-c/commits%7B/sha%7D",
        "compare_url": "https://api.github.com/repos/MarcoFalke/b-c/compare/%7Bbase%7D...%7Bhead%7D",
        "contents_url": "https://api.github.com/repos/MarcoFalke/b-c/contents/%7B+path%7D",
        "contributors_url": "https://api.github.com/repos/MarcoFalke/b-c/contributors",
        "deployments_url": "https://api.github.com/repos/MarcoFalke/b-c/deployments",
        "downloads_url": "https://api.github.com/repos/MarcoFalke/b-c/downloads",
        "events_url": "https://api.github.com/repos/MarcoFalke/b-c/events",
        "forks_url": "https://api.github.com/repos/MarcoFalke/b-c/forks",
        "git_commits_url": "https://api.github.com/repos/MarcoFalke/b-c/git/commits%7B/sha%7D",
        "git_refs_url": "https://api.github.com/repos/MarcoFalke/b-c/git/refs%7B/sha%7D",
        "git_tags_url": "https://api.github.com/repos/MarcoFalke/b-c/git/tags%7B/sha%7D",
        "git_url": "git://github.com/MarcoFalke/b-c.git",
        "issue_comment_url": "https://api.github.com/repos/MarcoFalke/b-c/issues/comments%7B/number%7D",
        "issue_events_url": "https://api.github.com/repos/MarcoFalke/b-c/issues/events%7B/number%7D",
        "issues_url": "https://api.github.com/repos/MarcoFalke/b-c/issues%7B/number%7D",
        "keys_url": "https://api.github.com/repos/MarcoFalke/b-c/keys%7B/key_id%7D",
        "labels_url": "https://api.github.com/repos/MarcoFalke/b-c/labels%7B/name%7D",
        "languages_url": "https://api.github.com/repos/MarcoFalke/b-c/languages",
        "merges_url": "https://api.github.com/repos/MarcoFalke/b-c/merges",
        "milestones_url": "https://api.github.com/repos/MarcoFalke/b-c/milestones%7B/number%7D",
        "notifications_url": "https://api.github.com/repos/MarcoFalke/b-c/notifications%7B?since,all,participating}",
        "pulls_url": "https://api.github.com/repos/MarcoFalke/b-c/pulls%7B/number%7D",
        "releases_url": "https://api.github.com/repos/MarcoFalke/b-c/releases%7B/id%7D",
        "ssh_url": "git@github.com:MarcoFalke/b-c.git",
        "stargazers_url": "https://api.github.com/repos/MarcoFalke/b-c/stargazers",
        "statuses_url": "https://api.github.com/repos/MarcoFalke/b-c/statuses/%7Bsha%7D",
        "subscribers_url": "https://api.github.com/repos/MarcoFalke/b-c/subscribers",
        "subscription_url": "https://api.github.com/repos/MarcoFalke/b-c/subscription",
        "tags_url": "https://api.github.com/repos/MarcoFalke/b-c/tags",
        "teams_url": "https://api.github.com/repos/MarcoFalke/b-c/teams",
        "trees_url": "https://api.github.com/repos/MarcoFalke/b-c/git/trees%7B/sha%7D",
        "clone_url": "https://github.com/MarcoFalke/b-c.git",
        "hooks_url": "https://api.github.com/repos/MarcoFalke/b-c/hooks",
        "svn_url": "https://github.com/MarcoFalke/b-c",
        "homepage": "",
        "language": "C++",
        "forks_count": 12,
        "stargazers_count": 25,
        "watchers_count": 25,
        "size": 207848,
        "default_branch": "master",
        "open_issues_count": 25,
        "is_template": false,
        "topics": [],
        "has_issues": true,
        "has_projects": true,
        "has_wiki": false,
        "has_pages": false,
        "has_downloads": false,
        "archived": false,
        "disabled": false,
        "visibility": "public",
        "pushed_at": "2023-08-02T15:31:58Z",
        "created_at": "2015-08-01T12:42:47Z",
        "updated_at": "2023-05-28T20:12:34Z",
        "license": {
          "key": "mit",
          "name": "MIT License",
          "node_id": "MDc6TGljZW5zZTEz",
          "spdx_id": "MIT",
          "url": "https://api.github.com/licenses/mit",
          "html_url": null,
          "description": null,
          "implementation": null,
          "permissions": null,
          "conditions": null,
          "limitations": null,
          "body": null,
          "featured": null
        }
      }
    },
    "base": {
      "label": "bitcoin:master",
      "ref": "master",
      "sha": "b168b71a5d30c1441737cace281ffa3cce0357fc",
      "user": {
        "login": "bitcoin",
        "id": 528860,
        "node_id": "MDEyOk9yZ2FuaXphdGlvbjUyODg2MA==",
        "avatar_url": "https://avatars.githubusercontent.com/u/528860?v=4",
        "gravatar_id": "",
        "url": "https://api.github.com/users/bitcoin",
        "html_url": "https://github.com/bitcoin",
        "followers_url": "https://api.github.com/users/bitcoin/followers",
        "following_url": "https://api.github.com/users/bitcoin/following%7B/other_user%7D",
        "gists_url": "https://api.github.com/users/bitcoin/gists%7B/gist_id%7D",
        "starred_url": "https://api.github.com/users/bitcoin/starred%7B/owner%7D%7B/repo%7D",
        "subscriptions_url": "https://api.github.com/users/bitcoin/subscriptions",
        "organizations_url": "https://api.github.com/users/bitcoin/orgs",
        "repos_url": "https://api.github.com/users/bitcoin/repos",
        "events_url": "https://api.github.com/users/bitcoin/events%7B/privacy%7D",
        "received_events_url": "https://api.github.com/users/bitcoin/received_events",
        "type": "Organization",
        "site_admin": false
      },
      "repo": {
        "id": 1181927,
        "node_id": "MDEwOlJlcG9zaXRvcnkxMTgxOTI3",
        "name": "bitcoin",
        "full_name": "bitcoin/bitcoin",
        "owner": {
          "login": "bitcoin",
          "id": 528860,
          "node_id": "MDEyOk9yZ2FuaXphdGlvbjUyODg2MA==",
          "avatar_url": "https://avatars.githubusercontent.com/u/528860?v=4",
          "gravatar_id": "",
          "url": "https://api.github.com/users/bitcoin",
          "html_url": "https://github.com/bitcoin",
          "followers_url": "https://api.github.com/users/bitcoin/followers",
          "following_url": "https://api.github.com/users/bitcoin/following%7B/other_user%7D",
          "gists_url": "https://api.github.com/users/bitcoin/gists%7B/gist_id%7D",
          "starred_url": "https://api.github.com/users/bitcoin/starred%7B/owner%7D%7B/repo%7D",
          "subscriptions_url": "https://api.github.com/users/bitcoin/subscriptions",
          "organizations_url": "https://api.github.com/users/bitcoin/orgs",
          "repos_url": "https://api.github.com/users/bitcoin/repos",
          "events_url": "https://api.github.com/users/bitcoin/events%7B/privacy%7D",
          "received_events_url": "https://api.github.com/users/bitcoin/received_events",
          "type": "Organization",
          "site_admin": false
        },
        "private": false,
        "html_url": "https://github.com/bitcoin/bitcoin",
        "description": "Bitcoin Core integration/staging tree",
        "fork": false,
        "url": "https://api.github.com/repos/bitcoin/bitcoin",
        "archive_url": "https://api.github.com/repos/bitcoin/bitcoin/%7Barchive_format%7D%7B/ref%7D",
        "assignees_url": "https://api.github.com/repos/bitcoin/bitcoin/assignees%7B/user%7D",
        "blobs_url": "https://api.github.com/repos/bitcoin/bitcoin/git/blobs%7B/sha%7D",
        "branches_url": "https://api.github.com/repos/bitcoin/bitcoin/branches%7B/branch%7D",
        "collaborators_url": "https://api.github.com/repos/bitcoin/bitcoin/collaborators%7B/collaborator%7D",
        "comments_url": "https://api.github.com/repos/bitcoin/bitcoin/comments%7B/number%7D",
        "commits_url": "https://api.github.com/repos/bitcoin/bitcoin/commits%7B/sha%7D",
        "compare_url": "https://api.github.com/repos/bitcoin/bitcoin/compare/%7Bbase%7D...%7Bhead%7D",
        "contents_url": "https://api.github.com/repos/bitcoin/bitcoin/contents/%7B+path%7D",
        "contributors_url": "https://api.github.com/repos/bitcoin/bitcoin/contributors",
        "deployments_url": "https://api.github.com/repos/bitcoin/bitcoin/deployments",
        "downloads_url": "https://api.github.com/repos/bitcoin/bitcoin/downloads",
        "events_url": "https://api.github.com/repos/bitcoin/bitcoin/events",
        "forks_url": "https://api.github.com/repos/bitcoin/bitcoin/forks",
        "git_commits_url": "https://api.github.com/repos/bitcoin/bitcoin/git/commits%7B/sha%7D",
        "git_refs_url": "https://api.github.com/repos/bitcoin/bitcoin/git/refs%7B/sha%7D",
        "git_tags_url": "https://api.github.com/repos/bitcoin/bitcoin/git/tags%7B/sha%7D",
        "git_url": "git://github.com/bitcoin/bitcoin.git",
        "issue_comment_url": "https://api.github.com/repos/bitcoin/bitcoin/issues/comments%7B/number%7D",
        "issue_events_url": "https://api.github.com/repos/bitcoin/bitcoin/issues/events%7B/number%7D",
        "issues_url": "https://api.github.com/repos/bitcoin/bitcoin/issues%7B/number%7D",
        "keys_url": "https://api.github.com/repos/bitcoin/bitcoin/keys%7B/key_id%7D",
        "labels_url": "https://api.github.com/repos/bitcoin/bitcoin/labels%7B/name%7D",
        "languages_url": "https://api.github.com/repos/bitcoin/bitcoin/languages",
        "merges_url": "https://api.github.com/repos/bitcoin/bitcoin/merges",
        "milestones_url": "https://api.github.com/repos/bitcoin/bitcoin/milestones%7B/number%7D",
        "notifications_url": "https://api.github.com/repos/bitcoin/bitcoin/notifications%7B?since,all,participating}",
        "pulls_url": "https://api.github.com/repos/bitcoin/bitcoin/pulls%7B/number%7D",
        "releases_url": "https://api.github.com/repos/bitcoin/bitcoin/releases%7B/id%7D",
        "ssh_url": "git@github.com:bitcoin/bitcoin.git",
        "stargazers_url": "https://api.github.com/repos/bitcoin/bitcoin/stargazers",
        "statuses_url": "https://api.github.com/repos/bitcoin/bitcoin/statuses/%7Bsha%7D",
        "subscribers_url": "https://api.github.com/repos/bitcoin/bitcoin/subscribers",
        "subscription_url": "https://api.github.com/repos/bitcoin/bitcoin/subscription",
        "tags_url": "https://api.github.com/repos/bitcoin/bitcoin/tags",
        "teams_url": "https://api.github.com/repos/bitcoin/bitcoin/teams",
        "trees_url": "https://api.github.com/repos/bitcoin/bitcoin/git/trees%7B/sha%7D",
        "clone_url": "https://github.com/bitcoin/bitcoin.git",
        "hooks_url": "https://api.github.com/repos/bitcoin/bitcoin/hooks",
        "svn_url": "https://github.com/bitcoin/bitcoin",
        "homepage": "https://bitcoincore.org/en/download",
        "language": "C++",
        "forks_count": 35476,
        "stargazers_count": 70608,
        "watchers_count": 70608,
        "size": 236222,
        "default_branch": "master",
        "open_issues_count": 673,
        "is_template": false,
        "topics": [
          "bitcoin",
          "c-plus-plus",
          "cryptocurrency",
          "cryptography",
          "p2p"
        ],
        "has_issues": true,
        "has_projects": true,
        "has_wiki": false,
        "has_pages": false,
        "has_downloads": false,
        "archived": false,
        "disabled": false,
        "visibility": "public",
        "pushed_at": "2023-08-03T00:03:27Z",
        "created_at": "2010-12-19T15:16:43Z",
        "updated_at": "2023-08-02T18:21:18Z",
        "license": {
          "key": "mit",
          "name": "MIT License",
          "node_id": "MDc6TGljZW5zZTEz",
          "spdx_id": "MIT",
          "url": "https://api.github.com/licenses/mit",
          "html_url": null,
          "description": null,
          "implementation": null,
          "permissions": null,
          "conditions": null,
          "limitations": null,
          "body": null,
          "featured": null
        }
      }
    },
    "_links": {
      "self": {
        "href": "https://api.github.com/repos/bitcoin/bitcoin/pulls/26854"
      }
    },
    "author_association": "MEMBER",
    "draft": false,
    "additions": 4,
    "deletions": 0,
    "changed_files": 1,
    "commits": 1,
    "review_comments": 0,
    "comments": 5
  },
  "events": [
    {
      "event": "head_ref_force_pushed",
      "id": 8181931636,
      "node_id": "HRFPE_lADOABII585a7yC7zwAAAAHnrl50",
      "url": "https://api.github.com/repos/bitcoin/bitcoin/issues/events/8181931636",
      "actor": {
        "login": "MarcoFalke",
        "id": 6399679,
        "node_id": "MDQ6VXNlcjYzOTk2Nzk=",
        "avatar_url": "https://avatars.githubusercontent.com/u/6399679?v=4",
        "gravatar_id": "",
        "url": "https://api.github.com/users/MarcoFalke",
        "html_url": "https://github.com/MarcoFalke",
        "followers_url": "https://api.github.com/users/MarcoFalke/followers",
        "following_url": "https://api.github.com/users/MarcoFalke/following%7B/other_user%7D",
        "gists_url": "https://api.github.com/users/MarcoFalke/gists%7B/gist_id%7D",
        "starred_url": "https://api.github.com/users/MarcoFalke/starred%7B/owner%7D%7B/repo%7D",
        "subscriptions_url": "https://api.github.com/users/MarcoFalke/subscriptions",
        "organizations_url": "https://api.github.com/users/MarcoFalke/orgs",
        "repos_url": "https://api.github.com/users/MarcoFalke/repos",
        "events_url": "https://api.github.com/users/MarcoFalke/events%7B/privacy%7D",
        "received_events_url": "https://api.github.com/users/MarcoFalke/received_events",
        "type": "User",
        "site_admin": false
      },
      "commit_id": null,
      "commit_url": null,
      "created_at": "2023-01-09T13:44:46Z"
    },
    {
      "event": "commented",
      "id": 1375646789,
      "node_id": "IC_kwDOABII585R_rRF",
      "url": "https://api.github.com/repos/bitcoin/bitcoin/issues/comments/1375646789",
      "actor": {
        "login": "DrahtBot",
        "id": 39886733,
        "node_id": "MDQ6VXNlcjM5ODg2NzMz",
        "avatar_url": "https://avatars.githubusercontent.com/u/39886733?v=4",
        "gravatar_id": "",
        "url": "https://api.github.com/users/DrahtBot",
        "html_url": "https://github.com/DrahtBot",
        "followers_url": "https://api.github.com/users/DrahtBot/followers",
        "following_url": "https://api.github.com/users/DrahtBot/following%7B/other_user%7D",
        "gists_url": "https://api.github.com/users/DrahtBot/gists%7B/gist_id%7D",
        "starred_url": "https://api.github.com/users/DrahtBot/starred%7B/owner%7D%7B/repo%7D",
        "subscriptions_url": "https://api.github.com/users/DrahtBot/subscriptions",
        "organizations_url": "https://api.github.com/users/DrahtBot/orgs",
        "repos_url": "https://api.github.com/users/DrahtBot/repos",
        "events_url": "https://api.github.com/users/DrahtBot/events%7B/privacy%7D",
        "received_events_url": "https://api.github.com/users/DrahtBot/received_events",
        "type": "User",
        "site_admin": false
      },
      "commit_id": null,
      "commit_url": null,
      "created_at": "2023-01-09T13:44:47Z",
      "updated_at": "2023-01-12T11:44:03Z",
      "author_association": "CONTRIBUTOR",
      "body": "<!--e57a25ab6845829454e8d69fc972939a-->\n\nThe following sections might be updated with supplementary metadata relevant to reviewers and maintainers.\n\n<!--021abf342d371248e50ceaed478a90ca-->\n### Reviews\nSee [the guideline](https://github.com/bitcoin/bitcoin/blob/master/CONTRIBUTING.md#code-review) for information on the review process.\n| Type | Reviewers |\n| ---- | --------- |\n| ACK | [mzumsande](https://github.com/bitcoin/bitcoin/pull/26854#pullrequestreview-1244578119), [aureleoules](https://github.com/bitcoin/bitcoin/pull/26854#pullrequestreview-1245451166) |\n\nIf your review is incorrectly listed, please react with 👎 to this comment and the bot will ignore it on the next update.\n",
      "user": {
        "login": "DrahtBot",
        "id": 39886733,
        "node_id": "MDQ6VXNlcjM5ODg2NzMz",
        "avatar_url": "https://avatars.githubusercontent.com/u/39886733?v=4",
        "gravatar_id": "",
        "url": "https://api.github.com/users/DrahtBot",
        "html_url": "https://github.com/DrahtBot",
        "followers_url": "https://api.github.com/users/DrahtBot/followers",
        "following_url": "https://api.github.com/users/DrahtBot/following%7B/other_user%7D",
        "gists_url": "https://api.github.com/users/DrahtBot/gists%7B/gist_id%7D",
        "starred_url": "https://api.github.com/users/DrahtBot/starred%7B/owner%7D%7B/repo%7D",
        "subscriptions_url": "https://api.github.com/users/DrahtBot/subscriptions",
        "organizations_url": "https://api.github.com/users/DrahtBot/orgs",
        "repos_url": "https://api.github.com/users/DrahtBot/repos",
        "events_url": "https://api.github.com/users/DrahtBot/events%7B/privacy%7D",
        "received_events_url": "https://api.github.com/users/DrahtBot/received_events",
        "type": "User",
        "site_admin": false
      },
      "html_url": "https://github.com/bitcoin/bitcoin/pull/26854#issuecomment-1375646789",
      "issue_url": "https://api.github.com/repos/bitcoin/bitcoin/issues/26854"
    },
    {
      "event": "labeled",
      "id": 8181932055,
      "node_id": "LE_lADOABII585a7yC7zwAAAAHnrmAX",
      "url": "https://api.github.com/repos/bitcoin/bitcoin/issues/events/8181932055",
      "actor": {
        "login": "DrahtBot",
        "id": 39886733,
        "node_id": "MDQ6VXNlcjM5ODg2NzMz",
        "avatar_url": "https://avatars.githubusercontent.com/u/39886733?v=4",
        "gravatar_id": "",
        "url": "https://api.github.com/users/DrahtBot",
        "html_url": "https://github.com/DrahtBot",
        "followers_url": "https://api.github.com/users/DrahtBot/followers",
        "following_url": "https://api.github.com/users/DrahtBot/following%7B/other_user%7D",
        "gists_url": "https://api.github.com/users/DrahtBot/gists%7B/gist_id%7D",
        "starred_url": "https://api.github.com/users/DrahtBot/starred%7B/owner%7D%7B/repo%7D",
        "subscriptions_url": "https://api.github.com/users/DrahtBot/subscriptions",
        "organizations_url": "https://api.github.com/users/DrahtBot/orgs",
        "repos_url": "https://api.github.com/users/DrahtBot/repos",
        "events_url": "https://api.github.com/users/DrahtBot/events%7B/privacy%7D",
        "received_events_url": "https://api.github.com/users/DrahtBot/received_events",
        "type": "User",
        "site_admin": false
      },
      "commit_id": null,
      "commit_url": null,
      "created_at": "2023-01-09T13:44:49Z",
      "label": {
        "name": "Tests",
        "color": "d4c5f9"
      }
    },
    {
      "event": "connected",
      "id": 8181942164,
      "node_id": "COE_lADOABII585a7yC7zwAAAAHnroeU",
      "url": "https://api.github.com/repos/bitcoin/bitcoin/issues/events/8181942164",
      "actor": {
        "login": "fanquake",
        "id": 863730,
        "node_id": "MDQ6VXNlcjg2MzczMA==",
        "avatar_url": "https://avatars.githubusercontent.com/u/863730?v=4",
        "gravatar_id": "",
        "url": "https://api.github.com/users/fanquake",
        "html_url": "https://github.com/fanquake",
        "followers_url": "https://api.github.com/users/fanquake/followers",
        "following_url": "https://api.github.com/users/fanquake/following%7B/other_user%7D",
        "gists_url": "https://api.github.com/users/fanquake/gists%7B/gist_id%7D",
        "starred_url": "https://api.github.com/users/fanquake/starred%7B/owner%7D%7B/repo%7D",
        "subscriptions_url": "https://api.github.com/users/fanquake/subscriptions",
        "organizations_url": "https://api.github.com/users/fanquake/orgs",
        "repos_url": "https://api.github.com/users/fanquake/repos",
        "events_url": "https://api.github.com/users/fanquake/events%7B/privacy%7D",
        "received_events_url": "https://api.github.com/users/fanquake/received_events",
        "type": "User",
        "site_admin": false
      },
      "commit_id": null,
      "commit_url": null,
      "created_at": "2023-01-09T13:45:59Z"
    },
    {
      "event": "reviewed",
      "id": 1241071855,
      "node_id": "PRR_kwDOABII585J-UDv",
      "url": null,
      "actor": null,
      "commit_id": "fa3a90d70c65b9501ae3a1c5cc1f422d823bda70",
      "commit_url": null,
      "created_at": null,
      "author_association": "CONTRIBUTOR",
      "body": "This runs into other timeouts (`p2p_node_network_limited.py`, see CI) although the test passes for me locally.",
      "user": {
        "login": "mzumsande",
        "id": 48763452,
        "node_id": "MDQ6VXNlcjQ4NzYzNDUy",
        "avatar_url": "https://avatars.githubusercontent.com/u/48763452?v=4",
        "gravatar_id": "",
        "url": "https://api.github.com/users/mzumsande",
        "html_url": "https://github.com/mzumsande",
        "followers_url": "https://api.github.com/users/mzumsande/followers",
        "following_url": "https://api.github.com/users/mzumsande/following%7B/other_user%7D",
        "gists_url": "https://api.github.com/users/mzumsande/gists%7B/gist_id%7D",
        "starred_url": "https://api.github.com/users/mzumsande/starred%7B/owner%7D%7B/repo%7D",
        "subscriptions_url": "https://api.github.com/users/mzumsande/subscriptions",
        "organizations_url": "https://api.github.com/users/mzumsande/orgs",
        "repos_url": "https://api.github.com/users/mzumsande/repos",
        "events_url": "https://api.github.com/users/mzumsande/events%7B/privacy%7D",
        "received_events_url": "https://api.github.com/users/mzumsande/received_events",
        "type": "User",
        "site_admin": false
      },
      "html_url": "https://github.com/bitcoin/bitcoin/pull/26854#pullrequestreview-1241071855",
      "submitted_at": "2023-01-09T19:20:31Z",
      "state": "COMMENTED",
      "pull_request_url": "https://api.github.com/repos/bitcoin/bitcoin/pulls/26854"
    },
    {
      "event": "committed",
      "id": null,
      "node_id": "C_kwDOABII59oAKGZhMWJmNGU3MDUyZTYxN2RkMGU1YzhjNTQ5NjlkODQzMTRhZjk1Nzc",
      "url": "https://api.github.com/repos/bitcoin/bitcoin/git/commits/fa1bf4e7052e617dd0e5c8c54969d84314af9577",
      "actor": null,
      "commit_id": null,
      "commit_url": null,
      "created_at": null,
      "html_url": "https://github.com/bitcoin/bitcoin/commit/fa1bf4e7052e617dd0e5c8c54969d84314af9577",
      "tree": {
        "sha": "27a20b344f358cb46871530fd3cb67fb8636df13",
        "url": "https://api.github.com/repos/bitcoin/bitcoin/git/trees/27a20b344f358cb46871530fd3cb67fb8636df13"
      },
      "verification": {
        "verified": false,
        "reason": "no_user",
        "payload": "tree 27a20b344f358cb46871530fd3cb67fb8636df13\nparent b168b71a5d30c1441737cace281ffa3cce0357fc\nauthor MarcoFalke <*~=`'#}+{/-|&$^_@721217.xyz> 1673273349 +0100\ncommitter MarcoFalke <*~=`'#}+{/-|&$^_@721217.xyz> 1673446817 +0100\n\ntest: Fix intermittent timeout in p2p_permissions.py\n",
        "signature": "-----BEGIN PGP SIGNATURE-----\n\niQGzBAABCgAdFiEE+rVPoUahrI9sLGYTzit1aX5ppUgFAlwqrYAACgkQzit1aX5p\npUi4EQwAwcM+jRiSnsbNN6+9jFbI6J+kx7qV4zHUExCSJLTM+ajwSU2RbH0peSx6\nfAQL1nn4F7m2ivHDXNSD04xifQAXdar/kb9/LeqlcuQDd4BdkbL2uZg7Qd3cqTLQ\n0My6ZeUq/ANbcvwMvw96FQp1n4h1MxsAVb2OYAI2VwluG6OEvXETT9j6MAHogZYK\n5H2WyagOODJ6G/smX6B+2lTxibwmdxVAkAzy1lpHTXbdTZ8VD0CWoTX6lLPcXmvT\ntPZmdO0uSQ67iPO3c/mqZ8EaETEHvOWMDoL4x+scRp62ZeMBxYhTixHLRcjZik6l\nKT65XFGKRkdaeULfKeZUF6lMs2sO5aVYsAxFIKWG+G8EdsZ2gDodPhtc4xFyuUlD\nk9yvW8r0GZNPhL4a5hULvfOSJWH+qfhm9ngTWYIvHRdzcBmVoy93K1zDb9oi9nZb\ngOaYcKg6f27ohlqK0HN1YIWRepOYun1JlPuzsb7YZhtUqy1fkMzhSmhyL0VMYhE8\ngFBxLWF2\n=ywO0\n-----END PGP SIGNATURE-----"
      },
      "parents": [
        {
          "url": "https://api.github.com/repos/bitcoin/bitcoin/git/commits/b168b71a5d30c1441737cace281ffa3cce0357fc",
          "sha": "b168b71a5d30c1441737cace281ffa3cce0357fc",
          "html_url": "https://github.com/bitcoin/bitcoin/commit/b168b71a5d30c1441737cace281ffa3cce0357fc"
        }
      ],
      "message": "test: Fix intermittent timeout in p2p_permissions.py",
      "committer": {
        "name": "MarcoFalke",
        "email": "*~=`'#}+{/-|&$^_@721217.xyz",
        "date": "2023-01-11T14:20:17Z"
      },
      "author": {
        "name": "MarcoFalke",
        "email": "*~=`'#}+{/-|&$^_@721217.xyz",
        "date": "2023-01-09T14:09:09Z"
      },
      "sha": "fa1bf4e7052e617dd0e5c8c54969d84314af9577"
    },
    {
      "event": "head_ref_force_pushed",
      "id": 8202195808,
      "node_id": "HRFPE_lADOABII585a7yC7zwAAAAHo45Ng",
      "url": "https://api.github.com/repos/bitcoin/bitcoin/issues/events/8202195808",
      "actor": {
        "login": "MarcoFalke",
        "id": 6399679,
        "node_id": "MDQ6VXNlcjYzOTk2Nzk=",
        "avatar_url": "https://avatars.githubusercontent.com/u/6399679?v=4",
        "gravatar_id": "",
        "url": "https://api.github.com/users/MarcoFalke",
        "html_url": "https://github.com/MarcoFalke",
        "followers_url": "https://api.github.com/users/MarcoFalke/followers",
        "following_url": "https://api.github.com/users/MarcoFalke/following%7B/other_user%7D",
        "gists_url": "https://api.github.com/users/MarcoFalke/gists%7B/gist_id%7D",
        "starred_url": "https://api.github.com/users/MarcoFalke/starred%7B/owner%7D%7B/repo%7D",
        "subscriptions_url": "https://api.github.com/users/MarcoFalke/subscriptions",
        "organizations_url": "https://api.github.com/users/MarcoFalke/orgs",
        "repos_url": "https://api.github.com/users/MarcoFalke/repos",
        "events_url": "https://api.github.com/users/MarcoFalke/events%7B/privacy%7D",
        "received_events_url": "https://api.github.com/users/MarcoFalke/received_events",
        "type": "User",
        "site_admin": false
      },
      "commit_id": null,
      "commit_url": null,
      "created_at": "2023-01-11T14:20:37Z"
    },
    {
      "event": "commented",
      "id": 1378826962,
      "node_id": "IC_kwDOABII585SLzrS",
      "url": "https://api.github.com/repos/bitcoin/bitcoin/issues/comments/1378826962",
      "actor": {
        "login": "MarcoFalke",
        "id": 6399679,
        "node_id": "MDQ6VXNlcjYzOTk2Nzk=",
        "avatar_url": "https://avatars.githubusercontent.com/u/6399679?v=4",
        "gravatar_id": "",
        "url": "https://api.github.com/users/MarcoFalke",
        "html_url": "https://github.com/MarcoFalke",
        "followers_url": "https://api.github.com/users/MarcoFalke/followers",
        "following_url": "https://api.github.com/users/MarcoFalke/following%7B/other_user%7D",
        "gists_url": "https://api.github.com/users/MarcoFalke/gists%7B/gist_id%7D",
        "starred_url": "https://api.github.com/users/MarcoFalke/starred%7B/owner%7D%7B/repo%7D",
        "subscriptions_url": "https://api.github.com/users/MarcoFalke/subscriptions",
        "organizations_url": "https://api.github.com/users/MarcoFalke/orgs",
        "repos_url": "https://api.github.com/users/MarcoFalke/repos",
        "events_url": "https://api.github.com/users/MarcoFalke/events%7B/privacy%7D",
        "received_events_url": "https://api.github.com/users/MarcoFalke/received_events",
        "type": "User",
        "site_admin": false
      },
      "commit_id": null,
      "commit_url": null,
      "created_at": "2023-01-11T14:21:27Z",
      "updated_at": "2023-01-11T14:21:37Z",
      "author_association": "MEMBER",
      "body": "Thanks. Fixed by replacing `==` with `>=`. (There can only be one `verack` msg, but there can be multiple `pong` msgs per connection)",
      "user": {
        "login": "MarcoFalke",
        "id": 6399679,
        "node_id": "MDQ6VXNlcjYzOTk2Nzk=",
        "avatar_url": "https://avatars.githubusercontent.com/u/6399679?v=4",
        "gravatar_id": "",
        "url": "https://api.github.com/users/MarcoFalke",
        "html_url": "https://github.com/MarcoFalke",
        "followers_url": "https://api.github.com/users/MarcoFalke/followers",
        "following_url": "https://api.github.com/users/MarcoFalke/following%7B/other_user%7D",
        "gists_url": "https://api.github.com/users/MarcoFalke/gists%7B/gist_id%7D",
        "starred_url": "https://api.github.com/users/MarcoFalke/starred%7B/owner%7D%7B/repo%7D",
        "subscriptions_url": "https://api.github.com/users/MarcoFalke/subscriptions",
        "organizations_url": "https://api.github.com/users/MarcoFalke/orgs",
        "repos_url": "https://api.github.com/users/MarcoFalke/repos",
        "events_url": "https://api.github.com/users/MarcoFalke/events%7B/privacy%7D",
        "received_events_url": "https://api.github.com/users/MarcoFalke/received_events",
        "type": "User",
        "site_admin": false
      },
      "html_url": "https://github.com/bitcoin/bitcoin/pull/26854#issuecomment-1378826962",
      "issue_url": "https://api.github.com/repos/bitcoin/bitcoin/issues/26854"
    },
    {
      "event": "commented",
      "id": 1379170323,
      "node_id": "IC_kwDOABII585SNHgT",
      "url": "https://api.github.com/repos/bitcoin/bitcoin/issues/comments/1379170323",
      "actor": {
        "login": "mzumsande",
        "id": 48763452,
        "node_id": "MDQ6VXNlcjQ4NzYzNDUy",
        "avatar_url": "https://avatars.githubusercontent.com/u/48763452?v=4",
        "gravatar_id": "",
        "url": "https://api.github.com/users/mzumsande",
        "html_url": "https://github.com/mzumsande",
        "followers_url": "https://api.github.com/users/mzumsande/followers",
        "following_url": "https://api.github.com/users/mzumsande/following%7B/other_user%7D",
        "gists_url": "https://api.github.com/users/mzumsande/gists%7B/gist_id%7D",
        "starred_url": "https://api.github.com/users/mzumsande/starred%7B/owner%7D%7B/repo%7D",
        "subscriptions_url": "https://api.github.com/users/mzumsande/subscriptions",
        "organizations_url": "https://api.github.com/users/mzumsande/orgs",
        "repos_url": "https://api.github.com/users/mzumsande/repos",
        "events_url": "https://api.github.com/users/mzumsande/events%7B/privacy%7D",
        "received_events_url": "https://api.github.com/users/mzumsande/received_events",
        "type": "User",
        "site_admin": false
      },
      "commit_id": null,
      "commit_url": null,
      "created_at": "2023-01-11T17:00:06Z",
      "updated_at": "2023-01-11T17:00:51Z",
      "author_association": "CONTRIBUTOR",
      "body": "Is this also a fix for the mempool timeouts in #26440?",
      "user": {
        "login": "mzumsande",
        "id": 48763452,
        "node_id": "MDQ6VXNlcjQ4NzYzNDUy",
        "avatar_url": "https://avatars.githubusercontent.com/u/48763452?v=4",
        "gravatar_id": "",
        "url": "https://api.github.com/users/mzumsande",
        "html_url": "https://github.com/mzumsande",
        "followers_url": "https://api.github.com/users/mzumsande/followers",
        "following_url": "https://api.github.com/users/mzumsande/following%7B/other_user%7D",
        "gists_url": "https://api.github.com/users/mzumsande/gists%7B/gist_id%7D",
        "starred_url": "https://api.github.com/users/mzumsande/starred%7B/owner%7D%7B/repo%7D",
        "subscriptions_url": "https://api.github.com/users/mzumsande/subscriptions",
        "organizations_url": "https://api.github.com/users/mzumsande/orgs",
        "repos_url": "https://api.github.com/users/mzumsande/repos",
        "events_url": "https://api.github.com/users/mzumsande/events%7B/privacy%7D",
        "received_events_url": "https://api.github.com/users/mzumsande/received_events",
        "type": "User",
        "site_admin": false
      },
      "html_url": "https://github.com/bitcoin/bitcoin/pull/26854#issuecomment-1379170323",
      "issue_url": "https://api.github.com/repos/bitcoin/bitcoin/issues/26854"
    },
    {
      "event": "commented",
      "id": 1379181398,
      "node_id": "IC_kwDOABII585SNKNW",
      "url": "https://api.github.com/repos/bitcoin/bitcoin/issues/comments/1379181398",
      "actor": {
        "login": "MarcoFalke",
        "id": 6399679,
        "node_id": "MDQ6VXNlcjYzOTk2Nzk=",
        "avatar_url": "https://avatars.githubusercontent.com/u/6399679?v=4",
        "gravatar_id": "",
        "url": "https://api.github.com/users/MarcoFalke",
        "html_url": "https://github.com/MarcoFalke",
        "followers_url": "https://api.github.com/users/MarcoFalke/followers",
        "following_url": "https://api.github.com/users/MarcoFalke/following%7B/other_user%7D",
        "gists_url": "https://api.github.com/users/MarcoFalke/gists%7B/gist_id%7D",
        "starred_url": "https://api.github.com/users/MarcoFalke/starred%7B/owner%7D%7B/repo%7D",
        "subscriptions_url": "https://api.github.com/users/MarcoFalke/subscriptions",
        "organizations_url": "https://api.github.com/users/MarcoFalke/orgs",
        "repos_url": "https://api.github.com/users/MarcoFalke/repos",
        "events_url": "https://api.github.com/users/MarcoFalke/events%7B/privacy%7D",
        "received_events_url": "https://api.github.com/users/MarcoFalke/received_events",
        "type": "User",
        "site_admin": false
      },
      "commit_id": null,
      "commit_url": null,
      "created_at": "2023-01-11T17:04:15Z",
      "updated_at": "2023-01-11T17:04:15Z",
      "author_association": "MEMBER",
      "body": "Seems likely, but not sure if this is possible to tell without having Cirrus CI upload the full datadir + test log of the failure ",
      "user": {
        "login": "MarcoFalke",
        "id": 6399679,
        "node_id": "MDQ6VXNlcjYzOTk2Nzk=",
        "avatar_url": "https://avatars.githubusercontent.com/u/6399679?v=4",
        "gravatar_id": "",
        "url": "https://api.github.com/users/MarcoFalke",
        "html_url": "https://github.com/MarcoFalke",
        "followers_url": "https://api.github.com/users/MarcoFalke/followers",
        "following_url": "https://api.github.com/users/MarcoFalke/following%7B/other_user%7D",
        "gists_url": "https://api.github.com/users/MarcoFalke/gists%7B/gist_id%7D",
        "starred_url": "https://api.github.com/users/MarcoFalke/starred%7B/owner%7D%7B/repo%7D",
        "subscriptions_url": "https://api.github.com/users/MarcoFalke/subscriptions",
        "organizations_url": "https://api.github.com/users/MarcoFalke/orgs",
        "repos_url": "https://api.github.com/users/MarcoFalke/repos",
        "events_url": "https://api.github.com/users/MarcoFalke/events%7B/privacy%7D",
        "received_events_url": "https://api.github.com/users/MarcoFalke/received_events",
        "type": "User",
        "site_admin": false
      },
      "html_url": "https://github.com/bitcoin/bitcoin/pull/26854#issuecomment-1379181398",
      "issue_url": "https://api.github.com/repos/bitcoin/bitcoin/issues/26854"
    },
    {
      "event": "reviewed",
      "id": 1244578119,
      "node_id": "PRR_kwDOABII585KLsFH",
      "url": null,
      "actor": null,
      "commit_id": "fa1bf4e7052e617dd0e5c8c54969d84314af9577",
      "commit_url": null,
      "created_at": null,
      "author_association": "CONTRIBUTOR",
      "body": "ACK fa1bf4e7052e617dd0e5c8c54969d84314af9577\r\n\r\nThis makes the test code dependent on their being a ping right after connection setup (which is the case today because `m_ping_start=0us` initially, but one could imagine other ways of initialization.\r\n\r\nAnother possibility might be to expose `fSuccessfullyConnected` via RPC (e.g. in `getpeerinfo`) and use that, but I'm not sure if that is better if that field is not really interesting to user and just used by tests.",
      "user": {
        "login": "mzumsande",
        "id": 48763452,
        "node_id": "MDQ6VXNlcjQ4NzYzNDUy",
        "avatar_url": "https://avatars.githubusercontent.com/u/48763452?v=4",
        "gravatar_id": "",
        "url": "https://api.github.com/users/mzumsande",
        "html_url": "https://github.com/mzumsande",
        "followers_url": "https://api.github.com/users/mzumsande/followers",
        "following_url": "https://api.github.com/users/mzumsande/following%7B/other_user%7D",
        "gists_url": "https://api.github.com/users/mzumsande/gists%7B/gist_id%7D",
        "starred_url": "https://api.github.com/users/mzumsande/starred%7B/owner%7D%7B/repo%7D",
        "subscriptions_url": "https://api.github.com/users/mzumsande/subscriptions",
        "organizations_url": "https://api.github.com/users/mzumsande/orgs",
        "repos_url": "https://api.github.com/users/mzumsande/repos",
        "events_url": "https://api.github.com/users/mzumsande/events%7B/privacy%7D",
        "received_events_url": "https://api.github.com/users/mzumsande/received_events",
        "type": "User",
        "site_admin": false
      },
      "html_url": "https://github.com/bitcoin/bitcoin/pull/26854#pullrequestreview-1244578119",
      "submitted_at": "2023-01-11T20:36:25Z",
      "state": "COMMENTED",
      "pull_request_url": "https://api.github.com/repos/bitcoin/bitcoin/pulls/26854"
    },
    {
      "event": "commented",
      "id": 1379555898,
      "node_id": "IC_kwDOABII585SOlo6",
      "url": "https://api.github.com/repos/bitcoin/bitcoin/issues/comments/1379555898",
      "actor": {
        "login": "MarcoFalke",
        "id": 6399679,
        "node_id": "MDQ6VXNlcjYzOTk2Nzk=",
        "avatar_url": "https://avatars.githubusercontent.com/u/6399679?v=4",
        "gravatar_id": "",
        "url": "https://api.github.com/users/MarcoFalke",
        "html_url": "https://github.com/MarcoFalke",
        "followers_url": "https://api.github.com/users/MarcoFalke/followers",
        "following_url": "https://api.github.com/users/MarcoFalke/following%7B/other_user%7D",
        "gists_url": "https://api.github.com/users/MarcoFalke/gists%7B/gist_id%7D",
        "starred_url": "https://api.github.com/users/MarcoFalke/starred%7B/owner%7D%7B/repo%7D",
        "subscriptions_url": "https://api.github.com/users/MarcoFalke/subscriptions",
        "organizations_url": "https://api.github.com/users/MarcoFalke/orgs",
        "repos_url": "https://api.github.com/users/MarcoFalke/repos",
        "events_url": "https://api.github.com/users/MarcoFalke/events%7B/privacy%7D",
        "received_events_url": "https://api.github.com/users/MarcoFalke/received_events",
        "type": "User",
        "site_admin": false
      },
      "commit_id": null,
      "commit_url": null,
      "created_at": "2023-01-11T22:16:20Z",
      "updated_at": "2023-01-11T22:16:20Z",
      "author_association": "MEMBER",
      "body": "> (which is the case today because m_ping_start=0us initially, but one could imagine other ways of initialization.\r\n\r\nIn the unlikely case that this is changed, it should be possible to just call the `ping` RPC at the right time to achieve the same.",
      "user": {
        "login": "MarcoFalke",
        "id": 6399679,
        "node_id": "MDQ6VXNlcjYzOTk2Nzk=",
        "avatar_url": "https://avatars.githubusercontent.com/u/6399679?v=4",
        "gravatar_id": "",
        "url": "https://api.github.com/users/MarcoFalke",
        "html_url": "https://github.com/MarcoFalke",
        "followers_url": "https://api.github.com/users/MarcoFalke/followers",
        "following_url": "https://api.github.com/users/MarcoFalke/following%7B/other_user%7D",
        "gists_url": "https://api.github.com/users/MarcoFalke/gists%7B/gist_id%7D",
        "starred_url": "https://api.github.com/users/MarcoFalke/starred%7B/owner%7D%7B/repo%7D",
        "subscriptions_url": "https://api.github.com/users/MarcoFalke/subscriptions",
        "organizations_url": "https://api.github.com/users/MarcoFalke/orgs",
        "repos_url": "https://api.github.com/users/MarcoFalke/repos",
        "events_url": "https://api.github.com/users/MarcoFalke/events%7B/privacy%7D",
        "received_events_url": "https://api.github.com/users/MarcoFalke/received_events",
        "type": "User",
        "site_admin": false
      },
      "html_url": "https://github.com/bitcoin/bitcoin/pull/26854#issuecomment-1379555898",
      "issue_url": "https://api.github.com/repos/bitcoin/bitcoin/issues/26854"
    },
    {
      "event": "reviewed",
      "id": 1245451166,
      "node_id": "PRR_kwDOABII585KPBOe",
      "url": null,
      "actor": null,
      "commit_id": "fa1bf4e7052e617dd0e5c8c54969d84314af9577",
      "commit_url": null,
      "created_at": null,
      "author_association": "MEMBER",
      "body": "ACK fa1bf4e7052e617dd0e5c8c54969d84314af9577\r\n\r\nI verified I could reproduce the failure on master with `rr` but not on this branch.",
      "user": {
        "login": "aureleoules",
        "id": 22493292,
        "node_id": "MDQ6VXNlcjIyNDkzMjky",
        "avatar_url": "https://avatars.githubusercontent.com/u/22493292?v=4",
        "gravatar_id": "",
        "url": "https://api.github.com/users/aureleoules",
        "html_url": "https://github.com/aureleoules",
        "followers_url": "https://api.github.com/users/aureleoules/followers",
        "following_url": "https://api.github.com/users/aureleoules/following%7B/other_user%7D",
        "gists_url": "https://api.github.com/users/aureleoules/gists%7B/gist_id%7D",
        "starred_url": "https://api.github.com/users/aureleoules/starred%7B/owner%7D%7B/repo%7D",
        "subscriptions_url": "https://api.github.com/users/aureleoules/subscriptions",
        "organizations_url": "https://api.github.com/users/aureleoules/orgs",
        "repos_url": "https://api.github.com/users/aureleoules/repos",
        "events_url": "https://api.github.com/users/aureleoules/events%7B/privacy%7D",
        "received_events_url": "https://api.github.com/users/aureleoules/received_events",
        "type": "User",
        "site_admin": false
      },
      "html_url": "https://github.com/bitcoin/bitcoin/pull/26854#pullrequestreview-1245451166",
      "submitted_at": "2023-01-12T11:44:00Z",
      "state": "APPROVED",
      "pull_request_url": "https://api.github.com/repos/bitcoin/bitcoin/pulls/26854"
    },
    {
      "event": "merged",
      "id": 8210585775,
      "node_id": "ME_lADOABII585a7yC7zwAAAAHpY5iv",
      "url": "https://api.github.com/repos/bitcoin/bitcoin/issues/events/8210585775",
      "actor": {
        "login": "MarcoFalke",
        "id": 6399679,
        "node_id": "MDQ6VXNlcjYzOTk2Nzk=",
        "avatar_url": "https://avatars.githubusercontent.com/u/6399679?v=4",
        "gravatar_id": "",
        "url": "https://api.github.com/users/MarcoFalke",
        "html_url": "https://github.com/MarcoFalke",
        "followers_url": "https://api.github.com/users/MarcoFalke/followers",
        "following_url": "https://api.github.com/users/MarcoFalke/following%7B/other_user%7D",
        "gists_url": "https://api.github.com/users/MarcoFalke/gists%7B/gist_id%7D",
        "starred_url": "https://api.github.com/users/MarcoFalke/starred%7B/owner%7D%7B/repo%7D",
        "subscriptions_url": "https://api.github.com/users/MarcoFalke/subscriptions",
        "organizations_url": "https://api.github.com/users/MarcoFalke/orgs",
        "repos_url": "https://api.github.com/users/MarcoFalke/repos",
        "events_url": "https://api.github.com/users/MarcoFalke/events%7B/privacy%7D",
        "received_events_url": "https://api.github.com/users/MarcoFalke/received_events",
        "type": "User",
        "site_admin": false
      },
      "commit_id": "edc3d1b296e34838d649dc21b8483a52e214932a",
      "commit_url": "https://api.github.com/repos/bitcoin/bitcoin/commits/edc3d1b296e34838d649dc21b8483a52e214932a",
      "created_at": "2023-01-12T11:54:20Z"
    },
    {
      "event": "closed",
      "id": 8210585813,
      "node_id": "CE_lADOABII585a7yC7zwAAAAHpY5jV",
      "url": "https://api.github.com/repos/bitcoin/bitcoin/issues/events/8210585813",
      "actor": {
        "login": "MarcoFalke",
        "id": 6399679,
        "node_id": "MDQ6VXNlcjYzOTk2Nzk=",
        "avatar_url": "https://avatars.githubusercontent.com/u/6399679?v=4",
        "gravatar_id": "",
        "url": "https://api.github.com/users/MarcoFalke",
        "html_url": "https://github.com/MarcoFalke",
        "followers_url": "https://api.github.com/users/MarcoFalke/followers",
        "following_url": "https://api.github.com/users/MarcoFalke/following%7B/other_user%7D",
        "gists_url": "https://api.github.com/users/MarcoFalke/gists%7B/gist_id%7D",
        "starred_url": "https://api.github.com/users/MarcoFalke/starred%7B/owner%7D%7B/repo%7D",
        "subscriptions_url": "https://api.github.com/users/MarcoFalke/subscriptions",
        "organizations_url": "https://api.github.com/users/MarcoFalke/orgs",
        "repos_url": "https://api.github.com/users/MarcoFalke/repos",
        "events_url": "https://api.github.com/users/MarcoFalke/events%7B/privacy%7D",
        "received_events_url": "https://api.github.com/users/MarcoFalke/received_events",
        "type": "User",
        "site_admin": false
      },
      "commit_id": null,
      "commit_url": null,
      "created_at": "2023-01-12T11:54:20Z"
    },
    {
      "event": "head_ref_deleted",
      "id": 8210631994,
      "node_id": "HRDE_lADOABII585a7yC7zwAAAAHpZE06",
      "url": "https://api.github.com/repos/bitcoin/bitcoin/issues/events/8210631994",
      "actor": {
        "login": "MarcoFalke",
        "id": 6399679,
        "node_id": "MDQ6VXNlcjYzOTk2Nzk=",
        "avatar_url": "https://avatars.githubusercontent.com/u/6399679?v=4",
        "gravatar_id": "",
        "url": "https://api.github.com/users/MarcoFalke",
        "html_url": "https://github.com/MarcoFalke",
        "followers_url": "https://api.github.com/users/MarcoFalke/followers",
        "following_url": "https://api.github.com/users/MarcoFalke/following%7B/other_user%7D",
        "gists_url": "https://api.github.com/users/MarcoFalke/gists%7B/gist_id%7D",
        "starred_url": "https://api.github.com/users/MarcoFalke/starred%7B/owner%7D%7B/repo%7D",
        "subscriptions_url": "https://api.github.com/users/MarcoFalke/subscriptions",
        "organizations_url": "https://api.github.com/users/MarcoFalke/orgs",
        "repos_url": "https://api.github.com/users/MarcoFalke/repos",
        "events_url": "https://api.github.com/users/MarcoFalke/events%7B/privacy%7D",
        "received_events_url": "https://api.github.com/users/MarcoFalke/received_events",
        "type": "User",
        "site_admin": false
      },
      "commit_id": null,
      "commit_url": null,
      "created_at": "2023-01-12T12:00:35Z"
    },
    {
      "event": "referenced",
      "id": 8216117041,
      "node_id": "REFE_lADOABII585a7yC7zwAAAAHpt_8x",
      "url": "https://api.github.com/repos/bitcoin/bitcoin/issues/events/8216117041",
      "actor": {
        "login": "sidhujag",
        "id": 6238042,
        "node_id": "MDQ6VXNlcjYyMzgwNDI=",
        "avatar_url": "https://avatars.githubusercontent.com/u/6238042?v=4",
        "gravatar_id": "",
        "url": "https://api.github.com/users/sidhujag",
        "html_url": "https://github.com/sidhujag",
        "followers_url": "https://api.github.com/users/sidhujag/followers",
        "following_url": "https://api.github.com/users/sidhujag/following%7B/other_user%7D",
        "gists_url": "https://api.github.com/users/sidhujag/gists%7B/gist_id%7D",
        "starred_url": "https://api.github.com/users/sidhujag/starred%7B/owner%7D%7B/repo%7D",
        "subscriptions_url": "https://api.github.com/users/sidhujag/subscriptions",
        "organizations_url": "https://api.github.com/users/sidhujag/orgs",
        "repos_url": "https://api.github.com/users/sidhujag/repos",
        "events_url": "https://api.github.com/users/sidhujag/events%7B/privacy%7D",
        "received_events_url": "https://api.github.com/users/sidhujag/received_events",
        "type": "User",
        "site_admin": false
      },
      "commit_id": "cb433cfd2d8f62e966eded6a6fe949b2fc40fc80",
      "commit_url": "https://api.github.com/repos/syscoin/syscoin/commits/cb433cfd2d8f62e966eded6a6fe949b2fc40fc80",
      "created_at": "2023-01-12T23:38:31Z"
    }
  ],
  "comments": []
}