{
  "type": "pull",
  "pull": {
    "url": "https://api.github.com/repos/bitcoin/bitcoin/pulls/26872",
    "id": 1193952551,
    "node_id": "PR_kwDOABII585HKkUn",
    "html_url": "https://github.com/bitcoin/bitcoin/pull/26872",
    "diff_url": "https://github.com/bitcoin/bitcoin/pull/26872.diff",
    "patch_url": "https://github.com/bitcoin/bitcoin/pull/26872.patch",
    "issue_url": "https://api.github.com/repos/bitcoin/bitcoin/issues/26872",
    "commits_url": "https://api.github.com/repos/bitcoin/bitcoin/pulls/26872/commits",
    "review_comments_url": "https://api.github.com/repos/bitcoin/bitcoin/pulls/26872/comments",
    "review_comment_url": "https://api.github.com/repos/bitcoin/bitcoin/pulls/comments%7B/number%7D",
    "comments_url": "https://api.github.com/repos/bitcoin/bitcoin/issues/26872/comments",
    "statuses_url": "https://api.github.com/repos/bitcoin/bitcoin/statuses/d45f1eba709eac3e0516be52c7690cd73ee7a30f",
    "number": 26872,
    "state": "closed",
    "locked": false,
    "maintainer_can_modify": false,
    "title": "fuzz: Mock CMainSignals in process_message(s) targets",
    "user": {
      "login": "dergoegge",
      "id": 8077169,
      "node_id": "MDQ6VXNlcjgwNzcxNjk=",
      "avatar_url": "https://avatars.githubusercontent.com/u/8077169?v=4",
      "gravatar_id": "",
      "url": "https://api.github.com/users/dergoegge",
      "html_url": "https://github.com/dergoegge",
      "followers_url": "https://api.github.com/users/dergoegge/followers",
      "following_url": "https://api.github.com/users/dergoegge/following%7B/other_user%7D",
      "gists_url": "https://api.github.com/users/dergoegge/gists%7B/gist_id%7D",
      "starred_url": "https://api.github.com/users/dergoegge/starred%7B/owner%7D%7B/repo%7D",
      "subscriptions_url": "https://api.github.com/users/dergoegge/subscriptions",
      "organizations_url": "https://api.github.com/users/dergoegge/orgs",
      "repos_url": "https://api.github.com/users/dergoegge/repos",
      "events_url": "https://api.github.com/users/dergoegge/events%7B/privacy%7D",
      "received_events_url": "https://api.github.com/users/dergoegge/received_events",
      "type": "User",
      "site_admin": false
    },
    "body": "Mocking `CMainSignals` gives us the ability to control when the `CValidationInterface` callbacks are called on `PeerManager` in the `process_message(s)` targets. It thereby makes these targets more deterministic/reproducable and slightly faster (per eyeball measurements 5%-10% more execs/s on my machine).\r\n\r\nMostly looking for conceptual review on this because there is an argument to be made about fuzzing with the real `CMainSignals` in combination with TSan, so maybe preserving that behavior in another target could also make sense.",
    "labels": [],
    "created_at": "2023-01-11T14:47:17Z",
    "updated_at": "2023-01-11T15:31:40Z",
    "closed_at": "2023-01-11T15:31:40Z",
    "mergeable_state": "unknown",
    "merge_commit_sha": "469dc470a258fe3a3e09c2915bee6ada452ae716",
    "assignees": [],
    "requested_reviewers": [],
    "requested_teams": [],
    "head": {
      "label": "dergoegge:2023-01-fuzz-mock-signals",
      "ref": "2023-01-fuzz-mock-signals",
      "sha": "d45f1eba709eac3e0516be52c7690cd73ee7a30f",
      "user": {
        "login": "dergoegge",
        "id": 8077169,
        "node_id": "MDQ6VXNlcjgwNzcxNjk=",
        "avatar_url": "https://avatars.githubusercontent.com/u/8077169?v=4",
        "gravatar_id": "",
        "url": "https://api.github.com/users/dergoegge",
        "html_url": "https://github.com/dergoegge",
        "followers_url": "https://api.github.com/users/dergoegge/followers",
        "following_url": "https://api.github.com/users/dergoegge/following%7B/other_user%7D",
        "gists_url": "https://api.github.com/users/dergoegge/gists%7B/gist_id%7D",
        "starred_url": "https://api.github.com/users/dergoegge/starred%7B/owner%7D%7B/repo%7D",
        "subscriptions_url": "https://api.github.com/users/dergoegge/subscriptions",
        "organizations_url": "https://api.github.com/users/dergoegge/orgs",
        "repos_url": "https://api.github.com/users/dergoegge/repos",
        "events_url": "https://api.github.com/users/dergoegge/events%7B/privacy%7D",
        "received_events_url": "https://api.github.com/users/dergoegge/received_events",
        "type": "User",
        "site_admin": false
      },
      "repo": {
        "id": 315023492,
        "node_id": "MDEwOlJlcG9zaXRvcnkzMTUwMjM0OTI=",
        "name": "bitcoin",
        "full_name": "dergoegge/bitcoin",
        "owner": {
          "login": "dergoegge",
          "id": 8077169,
          "node_id": "MDQ6VXNlcjgwNzcxNjk=",
          "avatar_url": "https://avatars.githubusercontent.com/u/8077169?v=4",
          "gravatar_id": "",
          "url": "https://api.github.com/users/dergoegge",
          "html_url": "https://github.com/dergoegge",
          "followers_url": "https://api.github.com/users/dergoegge/followers",
          "following_url": "https://api.github.com/users/dergoegge/following%7B/other_user%7D",
          "gists_url": "https://api.github.com/users/dergoegge/gists%7B/gist_id%7D",
          "starred_url": "https://api.github.com/users/dergoegge/starred%7B/owner%7D%7B/repo%7D",
          "subscriptions_url": "https://api.github.com/users/dergoegge/subscriptions",
          "organizations_url": "https://api.github.com/users/dergoegge/orgs",
          "repos_url": "https://api.github.com/users/dergoegge/repos",
          "events_url": "https://api.github.com/users/dergoegge/events%7B/privacy%7D",
          "received_events_url": "https://api.github.com/users/dergoegge/received_events",
          "type": "User",
          "site_admin": false
        },
        "private": false,
        "html_url": "https://github.com/dergoegge/bitcoin",
        "description": "Bitcoin Core integration/staging tree",
        "fork": true,
        "url": "https://api.github.com/repos/dergoegge/bitcoin",
        "archive_url": "https://api.github.com/repos/dergoegge/bitcoin/%7Barchive_format%7D%7B/ref%7D",
        "assignees_url": "https://api.github.com/repos/dergoegge/bitcoin/assignees%7B/user%7D",
        "blobs_url": "https://api.github.com/repos/dergoegge/bitcoin/git/blobs%7B/sha%7D",
        "branches_url": "https://api.github.com/repos/dergoegge/bitcoin/branches%7B/branch%7D",
        "collaborators_url": "https://api.github.com/repos/dergoegge/bitcoin/collaborators%7B/collaborator%7D",
        "comments_url": "https://api.github.com/repos/dergoegge/bitcoin/comments%7B/number%7D",
        "commits_url": "https://api.github.com/repos/dergoegge/bitcoin/commits%7B/sha%7D",
        "compare_url": "https://api.github.com/repos/dergoegge/bitcoin/compare/%7Bbase%7D...%7Bhead%7D",
        "contents_url": "https://api.github.com/repos/dergoegge/bitcoin/contents/%7B+path%7D",
        "contributors_url": "https://api.github.com/repos/dergoegge/bitcoin/contributors",
        "deployments_url": "https://api.github.com/repos/dergoegge/bitcoin/deployments",
        "downloads_url": "https://api.github.com/repos/dergoegge/bitcoin/downloads",
        "events_url": "https://api.github.com/repos/dergoegge/bitcoin/events",
        "forks_url": "https://api.github.com/repos/dergoegge/bitcoin/forks",
        "git_commits_url": "https://api.github.com/repos/dergoegge/bitcoin/git/commits%7B/sha%7D",
        "git_refs_url": "https://api.github.com/repos/dergoegge/bitcoin/git/refs%7B/sha%7D",
        "git_tags_url": "https://api.github.com/repos/dergoegge/bitcoin/git/tags%7B/sha%7D",
        "git_url": "git://github.com/dergoegge/bitcoin.git",
        "issue_comment_url": "https://api.github.com/repos/dergoegge/bitcoin/issues/comments%7B/number%7D",
        "issue_events_url": "https://api.github.com/repos/dergoegge/bitcoin/issues/events%7B/number%7D",
        "issues_url": "https://api.github.com/repos/dergoegge/bitcoin/issues%7B/number%7D",
        "keys_url": "https://api.github.com/repos/dergoegge/bitcoin/keys%7B/key_id%7D",
        "labels_url": "https://api.github.com/repos/dergoegge/bitcoin/labels%7B/name%7D",
        "languages_url": "https://api.github.com/repos/dergoegge/bitcoin/languages",
        "merges_url": "https://api.github.com/repos/dergoegge/bitcoin/merges",
        "milestones_url": "https://api.github.com/repos/dergoegge/bitcoin/milestones%7B/number%7D",
        "notifications_url": "https://api.github.com/repos/dergoegge/bitcoin/notifications%7B?since,all,participating}",
        "pulls_url": "https://api.github.com/repos/dergoegge/bitcoin/pulls%7B/number%7D",
        "releases_url": "https://api.github.com/repos/dergoegge/bitcoin/releases%7B/id%7D",
        "ssh_url": "git@github.com:dergoegge/bitcoin.git",
        "stargazers_url": "https://api.github.com/repos/dergoegge/bitcoin/stargazers",
        "statuses_url": "https://api.github.com/repos/dergoegge/bitcoin/statuses/%7Bsha%7D",
        "subscribers_url": "https://api.github.com/repos/dergoegge/bitcoin/subscribers",
        "subscription_url": "https://api.github.com/repos/dergoegge/bitcoin/subscription",
        "tags_url": "https://api.github.com/repos/dergoegge/bitcoin/tags",
        "teams_url": "https://api.github.com/repos/dergoegge/bitcoin/teams",
        "trees_url": "https://api.github.com/repos/dergoegge/bitcoin/git/trees%7B/sha%7D",
        "clone_url": "https://github.com/dergoegge/bitcoin.git",
        "hooks_url": "https://api.github.com/repos/dergoegge/bitcoin/hooks",
        "svn_url": "https://github.com/dergoegge/bitcoin",
        "homepage": "https://bitcoincore.org/en/download",
        "language": "C++",
        "forks_count": 0,
        "stargazers_count": 1,
        "watchers_count": 1,
        "size": 224628,
        "default_branch": "master",
        "open_issues_count": 0,
        "is_template": false,
        "topics": [],
        "has_issues": true,
        "has_projects": true,
        "has_wiki": false,
        "has_pages": false,
        "has_downloads": false,
        "archived": false,
        "disabled": false,
        "visibility": "public",
        "pushed_at": "2023-08-02T12:43:06Z",
        "created_at": "2020-11-22T11:41:30Z",
        "updated_at": "2023-05-05T12:10:28Z",
        "license": {
          "key": "mit",
          "name": "MIT License",
          "node_id": "MDc6TGljZW5zZTEz",
          "spdx_id": "MIT",
          "url": "https://api.github.com/licenses/mit",
          "html_url": null,
          "description": null,
          "implementation": null,
          "permissions": null,
          "conditions": null,
          "limitations": null,
          "body": null,
          "featured": null
        }
      }
    },
    "base": {
      "label": "bitcoin:master",
      "ref": "master",
      "sha": "b168b71a5d30c1441737cace281ffa3cce0357fc",
      "user": {
        "login": "bitcoin",
        "id": 528860,
        "node_id": "MDEyOk9yZ2FuaXphdGlvbjUyODg2MA==",
        "avatar_url": "https://avatars.githubusercontent.com/u/528860?v=4",
        "gravatar_id": "",
        "url": "https://api.github.com/users/bitcoin",
        "html_url": "https://github.com/bitcoin",
        "followers_url": "https://api.github.com/users/bitcoin/followers",
        "following_url": "https://api.github.com/users/bitcoin/following%7B/other_user%7D",
        "gists_url": "https://api.github.com/users/bitcoin/gists%7B/gist_id%7D",
        "starred_url": "https://api.github.com/users/bitcoin/starred%7B/owner%7D%7B/repo%7D",
        "subscriptions_url": "https://api.github.com/users/bitcoin/subscriptions",
        "organizations_url": "https://api.github.com/users/bitcoin/orgs",
        "repos_url": "https://api.github.com/users/bitcoin/repos",
        "events_url": "https://api.github.com/users/bitcoin/events%7B/privacy%7D",
        "received_events_url": "https://api.github.com/users/bitcoin/received_events",
        "type": "Organization",
        "site_admin": false
      },
      "repo": {
        "id": 1181927,
        "node_id": "MDEwOlJlcG9zaXRvcnkxMTgxOTI3",
        "name": "bitcoin",
        "full_name": "bitcoin/bitcoin",
        "owner": {
          "login": "bitcoin",
          "id": 528860,
          "node_id": "MDEyOk9yZ2FuaXphdGlvbjUyODg2MA==",
          "avatar_url": "https://avatars.githubusercontent.com/u/528860?v=4",
          "gravatar_id": "",
          "url": "https://api.github.com/users/bitcoin",
          "html_url": "https://github.com/bitcoin",
          "followers_url": "https://api.github.com/users/bitcoin/followers",
          "following_url": "https://api.github.com/users/bitcoin/following%7B/other_user%7D",
          "gists_url": "https://api.github.com/users/bitcoin/gists%7B/gist_id%7D",
          "starred_url": "https://api.github.com/users/bitcoin/starred%7B/owner%7D%7B/repo%7D",
          "subscriptions_url": "https://api.github.com/users/bitcoin/subscriptions",
          "organizations_url": "https://api.github.com/users/bitcoin/orgs",
          "repos_url": "https://api.github.com/users/bitcoin/repos",
          "events_url": "https://api.github.com/users/bitcoin/events%7B/privacy%7D",
          "received_events_url": "https://api.github.com/users/bitcoin/received_events",
          "type": "Organization",
          "site_admin": false
        },
        "private": false,
        "html_url": "https://github.com/bitcoin/bitcoin",
        "description": "Bitcoin Core integration/staging tree",
        "fork": false,
        "url": "https://api.github.com/repos/bitcoin/bitcoin",
        "archive_url": "https://api.github.com/repos/bitcoin/bitcoin/%7Barchive_format%7D%7B/ref%7D",
        "assignees_url": "https://api.github.com/repos/bitcoin/bitcoin/assignees%7B/user%7D",
        "blobs_url": "https://api.github.com/repos/bitcoin/bitcoin/git/blobs%7B/sha%7D",
        "branches_url": "https://api.github.com/repos/bitcoin/bitcoin/branches%7B/branch%7D",
        "collaborators_url": "https://api.github.com/repos/bitcoin/bitcoin/collaborators%7B/collaborator%7D",
        "comments_url": "https://api.github.com/repos/bitcoin/bitcoin/comments%7B/number%7D",
        "commits_url": "https://api.github.com/repos/bitcoin/bitcoin/commits%7B/sha%7D",
        "compare_url": "https://api.github.com/repos/bitcoin/bitcoin/compare/%7Bbase%7D...%7Bhead%7D",
        "contents_url": "https://api.github.com/repos/bitcoin/bitcoin/contents/%7B+path%7D",
        "contributors_url": "https://api.github.com/repos/bitcoin/bitcoin/contributors",
        "deployments_url": "https://api.github.com/repos/bitcoin/bitcoin/deployments",
        "downloads_url": "https://api.github.com/repos/bitcoin/bitcoin/downloads",
        "events_url": "https://api.github.com/repos/bitcoin/bitcoin/events",
        "forks_url": "https://api.github.com/repos/bitcoin/bitcoin/forks",
        "git_commits_url": "https://api.github.com/repos/bitcoin/bitcoin/git/commits%7B/sha%7D",
        "git_refs_url": "https://api.github.com/repos/bitcoin/bitcoin/git/refs%7B/sha%7D",
        "git_tags_url": "https://api.github.com/repos/bitcoin/bitcoin/git/tags%7B/sha%7D",
        "git_url": "git://github.com/bitcoin/bitcoin.git",
        "issue_comment_url": "https://api.github.com/repos/bitcoin/bitcoin/issues/comments%7B/number%7D",
        "issue_events_url": "https://api.github.com/repos/bitcoin/bitcoin/issues/events%7B/number%7D",
        "issues_url": "https://api.github.com/repos/bitcoin/bitcoin/issues%7B/number%7D",
        "keys_url": "https://api.github.com/repos/bitcoin/bitcoin/keys%7B/key_id%7D",
        "labels_url": "https://api.github.com/repos/bitcoin/bitcoin/labels%7B/name%7D",
        "languages_url": "https://api.github.com/repos/bitcoin/bitcoin/languages",
        "merges_url": "https://api.github.com/repos/bitcoin/bitcoin/merges",
        "milestones_url": "https://api.github.com/repos/bitcoin/bitcoin/milestones%7B/number%7D",
        "notifications_url": "https://api.github.com/repos/bitcoin/bitcoin/notifications%7B?since,all,participating}",
        "pulls_url": "https://api.github.com/repos/bitcoin/bitcoin/pulls%7B/number%7D",
        "releases_url": "https://api.github.com/repos/bitcoin/bitcoin/releases%7B/id%7D",
        "ssh_url": "git@github.com:bitcoin/bitcoin.git",
        "stargazers_url": "https://api.github.com/repos/bitcoin/bitcoin/stargazers",
        "statuses_url": "https://api.github.com/repos/bitcoin/bitcoin/statuses/%7Bsha%7D",
        "subscribers_url": "https://api.github.com/repos/bitcoin/bitcoin/subscribers",
        "subscription_url": "https://api.github.com/repos/bitcoin/bitcoin/subscription",
        "tags_url": "https://api.github.com/repos/bitcoin/bitcoin/tags",
        "teams_url": "https://api.github.com/repos/bitcoin/bitcoin/teams",
        "trees_url": "https://api.github.com/repos/bitcoin/bitcoin/git/trees%7B/sha%7D",
        "clone_url": "https://github.com/bitcoin/bitcoin.git",
        "hooks_url": "https://api.github.com/repos/bitcoin/bitcoin/hooks",
        "svn_url": "https://github.com/bitcoin/bitcoin",
        "homepage": "https://bitcoincore.org/en/download",
        "language": "C++",
        "forks_count": 35476,
        "stargazers_count": 70608,
        "watchers_count": 70608,
        "size": 236222,
        "default_branch": "master",
        "open_issues_count": 673,
        "is_template": false,
        "topics": [
          "bitcoin",
          "c-plus-plus",
          "cryptocurrency",
          "cryptography",
          "p2p"
        ],
        "has_issues": true,
        "has_projects": true,
        "has_wiki": false,
        "has_pages": false,
        "has_downloads": false,
        "archived": false,
        "disabled": false,
        "visibility": "public",
        "pushed_at": "2023-08-03T00:03:27Z",
        "created_at": "2010-12-19T15:16:43Z",
        "updated_at": "2023-08-02T18:21:18Z",
        "license": {
          "key": "mit",
          "name": "MIT License",
          "node_id": "MDc6TGljZW5zZTEz",
          "spdx_id": "MIT",
          "url": "https://api.github.com/licenses/mit",
          "html_url": null,
          "description": null,
          "implementation": null,
          "permissions": null,
          "conditions": null,
          "limitations": null,
          "body": null,
          "featured": null
        }
      }
    },
    "_links": {
      "self": {
        "href": "https://api.github.com/repos/bitcoin/bitcoin/pulls/26872"
      }
    },
    "author_association": "MEMBER",
    "draft": true,
    "additions": 113,
    "deletions": 10,
    "changed_files": 5,
    "commits": 3,
    "review_comments": 0,
    "comments": 4
  },
  "events": [
    {
      "event": "committed",
      "id": null,
      "node_id": "C_kwDOABII59oAKGI2NTIwZmE4ZjVlNGJjMzhiNmYxM2I1NjRhN2M4MTQyZjE1MDJhZDE",
      "url": "https://api.github.com/repos/bitcoin/bitcoin/git/commits/b6520fa8f5e4bc38b6f13b564a7c8142f1502ad1",
      "actor": null,
      "commit_id": null,
      "commit_url": null,
      "created_at": null,
      "html_url": "https://github.com/bitcoin/bitcoin/commit/b6520fa8f5e4bc38b6f13b564a7c8142f1502ad1",
      "tree": {
        "sha": "47b9f93df06a8c0eaf2a1f479965a78f46f28126",
        "url": "https://api.github.com/repos/bitcoin/bitcoin/git/trees/47b9f93df06a8c0eaf2a1f479965a78f46f28126"
      },
      "verification": {
        "verified": false,
        "reason": "unsigned",
        "payload": null,
        "signature": null
      },
      "parents": [
        {
          "url": "https://api.github.com/repos/bitcoin/bitcoin/git/commits/dbca00ef76e5a004555dbd4cdc9209492f02e358",
          "sha": "dbca00ef76e5a004555dbd4cdc9209492f02e358",
          "html_url": "https://github.com/bitcoin/bitcoin/commit/dbca00ef76e5a004555dbd4cdc9209492f02e358"
        }
      ],
      "message": "[validation] Enable mocking GetMainSignals",
      "committer": {
        "name": "dergoegge",
        "email": "n.goeggi@gmail.com",
        "date": "2023-01-11T14:21:06Z"
      },
      "author": {
        "name": "dergoegge",
        "email": "n.goeggi@gmail.com",
        "date": "2023-01-11T12:50:51Z"
      },
      "sha": "b6520fa8f5e4bc38b6f13b564a7c8142f1502ad1"
    },
    {
      "event": "committed",
      "id": null,
      "node_id": "C_kwDOABII59oAKDExMjAyZjhiMjI3YzMzOTM0Njc2NWFiYmJhOGI2ODFlYjc1ZjU5MDU",
      "url": "https://api.github.com/repos/bitcoin/bitcoin/git/commits/11202f8b227c339346765abbba8b681eb75f5905",
      "actor": null,
      "commit_id": null,
      "commit_url": null,
      "created_at": null,
      "html_url": "https://github.com/bitcoin/bitcoin/commit/11202f8b227c339346765abbba8b681eb75f5905",
      "tree": {
        "sha": "3e689374812fe509303ee52c0f219133703e74a9",
        "url": "https://api.github.com/repos/bitcoin/bitcoin/git/trees/3e689374812fe509303ee52c0f219133703e74a9"
      },
      "verification": {
        "verified": false,
        "reason": "unsigned",
        "payload": null,
        "signature": null
      },
      "parents": [
        {
          "url": "https://api.github.com/repos/bitcoin/bitcoin/git/commits/b6520fa8f5e4bc38b6f13b564a7c8142f1502ad1",
          "sha": "b6520fa8f5e4bc38b6f13b564a7c8142f1502ad1",
          "html_url": "https://github.com/bitcoin/bitcoin/commit/b6520fa8f5e4bc38b6f13b564a7c8142f1502ad1"
        }
      ],
      "message": "[fuzz] Mock GetMainSignals in process_message",
      "committer": {
        "name": "dergoegge",
        "email": "n.goeggi@gmail.com",
        "date": "2023-01-11T14:22:34Z"
      },
      "author": {
        "name": "dergoegge",
        "email": "n.goeggi@gmail.com",
        "date": "2023-01-11T14:15:11Z"
      },
      "sha": "11202f8b227c339346765abbba8b681eb75f5905"
    },
    {
      "event": "committed",
      "id": null,
      "node_id": "C_kwDOABII59oAKGQ0NWYxZWJhNzA5ZWFjM2UwNTE2YmU1MmM3NjkwY2Q3M2VlN2EzMGY",
      "url": "https://api.github.com/repos/bitcoin/bitcoin/git/commits/d45f1eba709eac3e0516be52c7690cd73ee7a30f",
      "actor": null,
      "commit_id": null,
      "commit_url": null,
      "created_at": null,
      "html_url": "https://github.com/bitcoin/bitcoin/commit/d45f1eba709eac3e0516be52c7690cd73ee7a30f",
      "tree": {
        "sha": "6055c71e49ebe435ae7b5c899c40f68ed7b07afc",
        "url": "https://api.github.com/repos/bitcoin/bitcoin/git/trees/6055c71e49ebe435ae7b5c899c40f68ed7b07afc"
      },
      "verification": {
        "verified": false,
        "reason": "unsigned",
        "payload": null,
        "signature": null
      },
      "parents": [
        {
          "url": "https://api.github.com/repos/bitcoin/bitcoin/git/commits/11202f8b227c339346765abbba8b681eb75f5905",
          "sha": "11202f8b227c339346765abbba8b681eb75f5905",
          "html_url": "https://github.com/bitcoin/bitcoin/commit/11202f8b227c339346765abbba8b681eb75f5905"
        }
      ],
      "message": "[fuzz] Mock GetMainSignals in process_messages",
      "committer": {
        "name": "dergoegge",
        "email": "n.goeggi@gmail.com",
        "date": "2023-01-11T14:22:35Z"
      },
      "author": {
        "name": "dergoegge",
        "email": "n.goeggi@gmail.com",
        "date": "2023-01-11T14:15:28Z"
      },
      "sha": "d45f1eba709eac3e0516be52c7690cd73ee7a30f"
    },
    {
      "event": "commented",
      "id": 1378863333,
      "node_id": "IC_kwDOABII585SL8jl",
      "url": "https://api.github.com/repos/bitcoin/bitcoin/issues/comments/1378863333",
      "actor": {
        "login": "dergoegge",
        "id": 8077169,
        "node_id": "MDQ6VXNlcjgwNzcxNjk=",
        "avatar_url": "https://avatars.githubusercontent.com/u/8077169?v=4",
        "gravatar_id": "",
        "url": "https://api.github.com/users/dergoegge",
        "html_url": "https://github.com/dergoegge",
        "followers_url": "https://api.github.com/users/dergoegge/followers",
        "following_url": "https://api.github.com/users/dergoegge/following%7B/other_user%7D",
        "gists_url": "https://api.github.com/users/dergoegge/gists%7B/gist_id%7D",
        "starred_url": "https://api.github.com/users/dergoegge/starred%7B/owner%7D%7B/repo%7D",
        "subscriptions_url": "https://api.github.com/users/dergoegge/subscriptions",
        "organizations_url": "https://api.github.com/users/dergoegge/orgs",
        "repos_url": "https://api.github.com/users/dergoegge/repos",
        "events_url": "https://api.github.com/users/dergoegge/events%7B/privacy%7D",
        "received_events_url": "https://api.github.com/users/dergoegge/received_events",
        "type": "User",
        "site_admin": false
      },
      "commit_id": null,
      "commit_url": null,
      "created_at": "2023-01-11T14:48:09Z",
      "updated_at": "2023-01-11T14:48:09Z",
      "author_association": "MEMBER",
      "body": "@MarcoFalke curious about your opinion on this (maybe this has been discussed before?)",
      "user": {
        "login": "dergoegge",
        "id": 8077169,
        "node_id": "MDQ6VXNlcjgwNzcxNjk=",
        "avatar_url": "https://avatars.githubusercontent.com/u/8077169?v=4",
        "gravatar_id": "",
        "url": "https://api.github.com/users/dergoegge",
        "html_url": "https://github.com/dergoegge",
        "followers_url": "https://api.github.com/users/dergoegge/followers",
        "following_url": "https://api.github.com/users/dergoegge/following%7B/other_user%7D",
        "gists_url": "https://api.github.com/users/dergoegge/gists%7B/gist_id%7D",
        "starred_url": "https://api.github.com/users/dergoegge/starred%7B/owner%7D%7B/repo%7D",
        "subscriptions_url": "https://api.github.com/users/dergoegge/subscriptions",
        "organizations_url": "https://api.github.com/users/dergoegge/orgs",
        "repos_url": "https://api.github.com/users/dergoegge/repos",
        "events_url": "https://api.github.com/users/dergoegge/events%7B/privacy%7D",
        "received_events_url": "https://api.github.com/users/dergoegge/received_events",
        "type": "User",
        "site_admin": false
      },
      "html_url": "https://github.com/bitcoin/bitcoin/pull/26872#issuecomment-1378863333",
      "issue_url": "https://api.github.com/repos/bitcoin/bitcoin/issues/26872"
    },
    {
      "event": "mentioned",
      "id": 8202462121,
      "node_id": "MEE_lADOABII585bJZI6zwAAAAHo56Op",
      "url": "https://api.github.com/repos/bitcoin/bitcoin/issues/events/8202462121",
      "actor": {
        "login": "MarcoFalke",
        "id": 6399679,
        "node_id": "MDQ6VXNlcjYzOTk2Nzk=",
        "avatar_url": "https://avatars.githubusercontent.com/u/6399679?v=4",
        "gravatar_id": "",
        "url": "https://api.github.com/users/MarcoFalke",
        "html_url": "https://github.com/MarcoFalke",
        "followers_url": "https://api.github.com/users/MarcoFalke/followers",
        "following_url": "https://api.github.com/users/MarcoFalke/following%7B/other_user%7D",
        "gists_url": "https://api.github.com/users/MarcoFalke/gists%7B/gist_id%7D",
        "starred_url": "https://api.github.com/users/MarcoFalke/starred%7B/owner%7D%7B/repo%7D",
        "subscriptions_url": "https://api.github.com/users/MarcoFalke/subscriptions",
        "organizations_url": "https://api.github.com/users/MarcoFalke/orgs",
        "repos_url": "https://api.github.com/users/MarcoFalke/repos",
        "events_url": "https://api.github.com/users/MarcoFalke/events%7B/privacy%7D",
        "received_events_url": "https://api.github.com/users/MarcoFalke/received_events",
        "type": "User",
        "site_admin": false
      },
      "commit_id": null,
      "commit_url": null,
      "created_at": "2023-01-11T14:48:09Z"
    },
    {
      "event": "subscribed",
      "id": 8202462137,
      "node_id": "SE_lADOABII585bJZI6zwAAAAHo56O5",
      "url": "https://api.github.com/repos/bitcoin/bitcoin/issues/events/8202462137",
      "actor": {
        "login": "MarcoFalke",
        "id": 6399679,
        "node_id": "MDQ6VXNlcjYzOTk2Nzk=",
        "avatar_url": "https://avatars.githubusercontent.com/u/6399679?v=4",
        "gravatar_id": "",
        "url": "https://api.github.com/users/MarcoFalke",
        "html_url": "https://github.com/MarcoFalke",
        "followers_url": "https://api.github.com/users/MarcoFalke/followers",
        "following_url": "https://api.github.com/users/MarcoFalke/following%7B/other_user%7D",
        "gists_url": "https://api.github.com/users/MarcoFalke/gists%7B/gist_id%7D",
        "starred_url": "https://api.github.com/users/MarcoFalke/starred%7B/owner%7D%7B/repo%7D",
        "subscriptions_url": "https://api.github.com/users/MarcoFalke/subscriptions",
        "organizations_url": "https://api.github.com/users/MarcoFalke/orgs",
        "repos_url": "https://api.github.com/users/MarcoFalke/repos",
        "events_url": "https://api.github.com/users/MarcoFalke/events%7B/privacy%7D",
        "received_events_url": "https://api.github.com/users/MarcoFalke/received_events",
        "type": "User",
        "site_admin": false
      },
      "commit_id": null,
      "commit_url": null,
      "created_at": "2023-01-11T14:48:09Z"
    },
    {
      "event": "commented",
      "id": 1378863410,
      "node_id": "IC_kwDOABII585SL8ky",
      "url": "https://api.github.com/repos/bitcoin/bitcoin/issues/comments/1378863410",
      "actor": {
        "login": "DrahtBot",
        "id": 39886733,
        "node_id": "MDQ6VXNlcjM5ODg2NzMz",
        "avatar_url": "https://avatars.githubusercontent.com/u/39886733?v=4",
        "gravatar_id": "",
        "url": "https://api.github.com/users/DrahtBot",
        "html_url": "https://github.com/DrahtBot",
        "followers_url": "https://api.github.com/users/DrahtBot/followers",
        "following_url": "https://api.github.com/users/DrahtBot/following%7B/other_user%7D",
        "gists_url": "https://api.github.com/users/DrahtBot/gists%7B/gist_id%7D",
        "starred_url": "https://api.github.com/users/DrahtBot/starred%7B/owner%7D%7B/repo%7D",
        "subscriptions_url": "https://api.github.com/users/DrahtBot/subscriptions",
        "organizations_url": "https://api.github.com/users/DrahtBot/orgs",
        "repos_url": "https://api.github.com/users/DrahtBot/repos",
        "events_url": "https://api.github.com/users/DrahtBot/events%7B/privacy%7D",
        "received_events_url": "https://api.github.com/users/DrahtBot/received_events",
        "type": "User",
        "site_admin": false
      },
      "commit_id": null,
      "commit_url": null,
      "created_at": "2023-01-11T14:48:12Z",
      "updated_at": "2023-01-11T14:48:12Z",
      "author_association": "CONTRIBUTOR",
      "body": "<!--e57a25ab6845829454e8d69fc972939a-->\n\nThe following sections might be updated with supplementary metadata relevant to reviewers and maintainers.\n\n<!--021abf342d371248e50ceaed478a90ca-->\n### Reviews\nSee [the guideline](https://github.com/bitcoin/bitcoin/blob/master/CONTRIBUTING.md#code-review) for information on the review process.\nA summary of reviews will appear here.\n",
      "user": {
        "login": "DrahtBot",
        "id": 39886733,
        "node_id": "MDQ6VXNlcjM5ODg2NzMz",
        "avatar_url": "https://avatars.githubusercontent.com/u/39886733?v=4",
        "gravatar_id": "",
        "url": "https://api.github.com/users/DrahtBot",
        "html_url": "https://github.com/DrahtBot",
        "followers_url": "https://api.github.com/users/DrahtBot/followers",
        "following_url": "https://api.github.com/users/DrahtBot/following%7B/other_user%7D",
        "gists_url": "https://api.github.com/users/DrahtBot/gists%7B/gist_id%7D",
        "starred_url": "https://api.github.com/users/DrahtBot/starred%7B/owner%7D%7B/repo%7D",
        "subscriptions_url": "https://api.github.com/users/DrahtBot/subscriptions",
        "organizations_url": "https://api.github.com/users/DrahtBot/orgs",
        "repos_url": "https://api.github.com/users/DrahtBot/repos",
        "events_url": "https://api.github.com/users/DrahtBot/events%7B/privacy%7D",
        "received_events_url": "https://api.github.com/users/DrahtBot/received_events",
        "type": "User",
        "site_admin": false
      },
      "html_url": "https://github.com/bitcoin/bitcoin/pull/26872#issuecomment-1378863410",
      "issue_url": "https://api.github.com/repos/bitcoin/bitcoin/issues/26872"
    },
    {
      "event": "commented",
      "id": 1378882962,
      "node_id": "IC_kwDOABII585SMBWS",
      "url": "https://api.github.com/repos/bitcoin/bitcoin/issues/comments/1378882962",
      "actor": {
        "login": "MarcoFalke",
        "id": 6399679,
        "node_id": "MDQ6VXNlcjYzOTk2Nzk=",
        "avatar_url": "https://avatars.githubusercontent.com/u/6399679?v=4",
        "gravatar_id": "",
        "url": "https://api.github.com/users/MarcoFalke",
        "html_url": "https://github.com/MarcoFalke",
        "followers_url": "https://api.github.com/users/MarcoFalke/followers",
        "following_url": "https://api.github.com/users/MarcoFalke/following%7B/other_user%7D",
        "gists_url": "https://api.github.com/users/MarcoFalke/gists%7B/gist_id%7D",
        "starred_url": "https://api.github.com/users/MarcoFalke/starred%7B/owner%7D%7B/repo%7D",
        "subscriptions_url": "https://api.github.com/users/MarcoFalke/subscriptions",
        "organizations_url": "https://api.github.com/users/MarcoFalke/orgs",
        "repos_url": "https://api.github.com/users/MarcoFalke/repos",
        "events_url": "https://api.github.com/users/MarcoFalke/events%7B/privacy%7D",
        "received_events_url": "https://api.github.com/users/MarcoFalke/received_events",
        "type": "User",
        "site_admin": false
      },
      "commit_id": null,
      "commit_url": null,
      "created_at": "2023-01-11T14:56:53Z",
      "updated_at": "2023-01-11T14:56:53Z",
      "author_association": "MEMBER",
      "body": "For those targets, none of them should be ever hit, practically speaking. It might be better to add a new validationinterface fuzz target",
      "user": {
        "login": "MarcoFalke",
        "id": 6399679,
        "node_id": "MDQ6VXNlcjYzOTk2Nzk=",
        "avatar_url": "https://avatars.githubusercontent.com/u/6399679?v=4",
        "gravatar_id": "",
        "url": "https://api.github.com/users/MarcoFalke",
        "html_url": "https://github.com/MarcoFalke",
        "followers_url": "https://api.github.com/users/MarcoFalke/followers",
        "following_url": "https://api.github.com/users/MarcoFalke/following%7B/other_user%7D",
        "gists_url": "https://api.github.com/users/MarcoFalke/gists%7B/gist_id%7D",
        "starred_url": "https://api.github.com/users/MarcoFalke/starred%7B/owner%7D%7B/repo%7D",
        "subscriptions_url": "https://api.github.com/users/MarcoFalke/subscriptions",
        "organizations_url": "https://api.github.com/users/MarcoFalke/orgs",
        "repos_url": "https://api.github.com/users/MarcoFalke/repos",
        "events_url": "https://api.github.com/users/MarcoFalke/events%7B/privacy%7D",
        "received_events_url": "https://api.github.com/users/MarcoFalke/received_events",
        "type": "User",
        "site_admin": false
      },
      "html_url": "https://github.com/bitcoin/bitcoin/pull/26872#issuecomment-1378882962",
      "issue_url": "https://api.github.com/repos/bitcoin/bitcoin/issues/26872"
    },
    {
      "event": "commented",
      "id": 1378956782,
      "node_id": "IC_kwDOABII585SMTXu",
      "url": "https://api.github.com/repos/bitcoin/bitcoin/issues/comments/1378956782",
      "actor": {
        "login": "dergoegge",
        "id": 8077169,
        "node_id": "MDQ6VXNlcjgwNzcxNjk=",
        "avatar_url": "https://avatars.githubusercontent.com/u/8077169?v=4",
        "gravatar_id": "",
        "url": "https://api.github.com/users/dergoegge",
        "html_url": "https://github.com/dergoegge",
        "followers_url": "https://api.github.com/users/dergoegge/followers",
        "following_url": "https://api.github.com/users/dergoegge/following%7B/other_user%7D",
        "gists_url": "https://api.github.com/users/dergoegge/gists%7B/gist_id%7D",
        "starred_url": "https://api.github.com/users/dergoegge/starred%7B/owner%7D%7B/repo%7D",
        "subscriptions_url": "https://api.github.com/users/dergoegge/subscriptions",
        "organizations_url": "https://api.github.com/users/dergoegge/orgs",
        "repos_url": "https://api.github.com/users/dergoegge/repos",
        "events_url": "https://api.github.com/users/dergoegge/events%7B/privacy%7D",
        "received_events_url": "https://api.github.com/users/dergoegge/received_events",
        "type": "User",
        "site_admin": false
      },
      "commit_id": null,
      "commit_url": null,
      "created_at": "2023-01-11T15:31:40Z",
      "updated_at": "2023-01-11T15:31:40Z",
      "author_association": "MEMBER",
      "body": "> For those targets, none of them should be ever hit, practically speaking.\r\n\r\nUgh, I assumed it's possible because we add those easily spendable coinbase outputs and call `SyncWithValidationInterfaceQueue`, but yeah looking at the coverage there is no coverage for any of the validation callbacks. The `SyncWithValidationInterfaceQueue` does slow down the targets, so it's a little annoying to have that when it's practically never needed.\r\n\r\nI have been working on targets that more specifically fuzz certain protocol flows (e.g. the version handshake, block/tx relay). These targets mostly submit valid headers/blocks/txs to net_processing, so I guess what I am suggesting here makes more sense for them.",
      "user": {
        "login": "dergoegge",
        "id": 8077169,
        "node_id": "MDQ6VXNlcjgwNzcxNjk=",
        "avatar_url": "https://avatars.githubusercontent.com/u/8077169?v=4",
        "gravatar_id": "",
        "url": "https://api.github.com/users/dergoegge",
        "html_url": "https://github.com/dergoegge",
        "followers_url": "https://api.github.com/users/dergoegge/followers",
        "following_url": "https://api.github.com/users/dergoegge/following%7B/other_user%7D",
        "gists_url": "https://api.github.com/users/dergoegge/gists%7B/gist_id%7D",
        "starred_url": "https://api.github.com/users/dergoegge/starred%7B/owner%7D%7B/repo%7D",
        "subscriptions_url": "https://api.github.com/users/dergoegge/subscriptions",
        "organizations_url": "https://api.github.com/users/dergoegge/orgs",
        "repos_url": "https://api.github.com/users/dergoegge/repos",
        "events_url": "https://api.github.com/users/dergoegge/events%7B/privacy%7D",
        "received_events_url": "https://api.github.com/users/dergoegge/received_events",
        "type": "User",
        "site_admin": false
      },
      "html_url": "https://github.com/bitcoin/bitcoin/pull/26872#issuecomment-1378956782",
      "issue_url": "https://api.github.com/repos/bitcoin/bitcoin/issues/26872"
    },
    {
      "event": "closed",
      "id": 8202888150,
      "node_id": "CE_lADOABII585bJZI6zwAAAAHo7iPW",
      "url": "https://api.github.com/repos/bitcoin/bitcoin/issues/events/8202888150",
      "actor": {
        "login": "dergoegge",
        "id": 8077169,
        "node_id": "MDQ6VXNlcjgwNzcxNjk=",
        "avatar_url": "https://avatars.githubusercontent.com/u/8077169?v=4",
        "gravatar_id": "",
        "url": "https://api.github.com/users/dergoegge",
        "html_url": "https://github.com/dergoegge",
        "followers_url": "https://api.github.com/users/dergoegge/followers",
        "following_url": "https://api.github.com/users/dergoegge/following%7B/other_user%7D",
        "gists_url": "https://api.github.com/users/dergoegge/gists%7B/gist_id%7D",
        "starred_url": "https://api.github.com/users/dergoegge/starred%7B/owner%7D%7B/repo%7D",
        "subscriptions_url": "https://api.github.com/users/dergoegge/subscriptions",
        "organizations_url": "https://api.github.com/users/dergoegge/orgs",
        "repos_url": "https://api.github.com/users/dergoegge/repos",
        "events_url": "https://api.github.com/users/dergoegge/events%7B/privacy%7D",
        "received_events_url": "https://api.github.com/users/dergoegge/received_events",
        "type": "User",
        "site_admin": false
      },
      "commit_id": null,
      "commit_url": null,
      "created_at": "2023-01-11T15:31:40Z"
    }
  ],
  "comments": []
}