{
  "type": "pull",
  "pull": {
    "url": "https://api.github.com/repos/bitcoin/bitcoin/pulls/26887",
    "id": 1196619573,
    "node_id": "PR_kwDOABII585HUvc1",
    "html_url": "https://github.com/bitcoin/bitcoin/pull/26887",
    "diff_url": "https://github.com/bitcoin/bitcoin/pull/26887.diff",
    "patch_url": "https://github.com/bitcoin/bitcoin/pull/26887.patch",
    "issue_url": "https://api.github.com/repos/bitcoin/bitcoin/issues/26887",
    "commits_url": "https://api.github.com/repos/bitcoin/bitcoin/pulls/26887/commits",
    "review_comments_url": "https://api.github.com/repos/bitcoin/bitcoin/pulls/26887/comments",
    "review_comment_url": "https://api.github.com/repos/bitcoin/bitcoin/pulls/comments%7B/number%7D",
    "comments_url": "https://api.github.com/repos/bitcoin/bitcoin/issues/26887/comments",
    "statuses_url": "https://api.github.com/repos/bitcoin/bitcoin/statuses/3d1a4d8a45cd91bdfe0ef107c2e9c5e882b34155",
    "number": 26887,
    "state": "closed",
    "locked": false,
    "maintainer_can_modify": false,
    "title": "RPC: make RPCResult::MatchesType return useful errors",
    "user": {
      "login": "ajtowns",
      "id": 127186,
      "node_id": "MDQ6VXNlcjEyNzE4Ng==",
      "avatar_url": "https://avatars.githubusercontent.com/u/127186?v=4",
      "gravatar_id": "",
      "url": "https://api.github.com/users/ajtowns",
      "html_url": "https://github.com/ajtowns",
      "followers_url": "https://api.github.com/users/ajtowns/followers",
      "following_url": "https://api.github.com/users/ajtowns/following%7B/other_user%7D",
      "gists_url": "https://api.github.com/users/ajtowns/gists%7B/gist_id%7D",
      "starred_url": "https://api.github.com/users/ajtowns/starred%7B/owner%7D%7B/repo%7D",
      "subscriptions_url": "https://api.github.com/users/ajtowns/subscriptions",
      "organizations_url": "https://api.github.com/users/ajtowns/orgs",
      "repos_url": "https://api.github.com/users/ajtowns/repos",
      "events_url": "https://api.github.com/users/ajtowns/events%7B/privacy%7D",
      "received_events_url": "https://api.github.com/users/ajtowns/received_events",
      "type": "User",
      "site_admin": false
    },
    "body": "Currently if you don't correctly update the description of the return value for an RPC call, you essentially just get an assertion failure with no useful information; this generates a description of the problems instead.",
    "labels": [
      {
        "id": 98279177,
        "node_id": "MDU6TGFiZWw5ODI3OTE3Nw==",
        "url": "https://api.github.com/repos/bitcoin/bitcoin/labels/RPC/REST/ZMQ",
        "name": "RPC/REST/ZMQ",
        "color": "0052cc",
        "default": false
      }
    ],
    "created_at": "2023-01-13T11:51:31Z",
    "updated_at": "2023-01-20T11:12:50Z",
    "closed_at": "2023-01-20T09:39:41Z",
    "mergeable_state": "unknown",
    "merged_at": "2023-01-20T09:39:41Z",
    "merge_commit_sha": "eebc24bfc6d2d809952e27c7fe269452f319455f",
    "assignees": [],
    "requested_reviewers": [],
    "requested_teams": [],
    "head": {
      "label": "ajtowns:202301-rpc-matchestype",
      "ref": "202301-rpc-matchestype",
      "sha": "3d1a4d8a45cd91bdfe0ef107c2e9c5e882b34155",
      "user": {
        "login": "ajtowns",
        "id": 127186,
        "node_id": "MDQ6VXNlcjEyNzE4Ng==",
        "avatar_url": "https://avatars.githubusercontent.com/u/127186?v=4",
        "gravatar_id": "",
        "url": "https://api.github.com/users/ajtowns",
        "html_url": "https://github.com/ajtowns",
        "followers_url": "https://api.github.com/users/ajtowns/followers",
        "following_url": "https://api.github.com/users/ajtowns/following%7B/other_user%7D",
        "gists_url": "https://api.github.com/users/ajtowns/gists%7B/gist_id%7D",
        "starred_url": "https://api.github.com/users/ajtowns/starred%7B/owner%7D%7B/repo%7D",
        "subscriptions_url": "https://api.github.com/users/ajtowns/subscriptions",
        "organizations_url": "https://api.github.com/users/ajtowns/orgs",
        "repos_url": "https://api.github.com/users/ajtowns/repos",
        "events_url": "https://api.github.com/users/ajtowns/events%7B/privacy%7D",
        "received_events_url": "https://api.github.com/users/ajtowns/received_events",
        "type": "User",
        "site_admin": false
      },
      "repo": {
        "id": 53941525,
        "node_id": "MDEwOlJlcG9zaXRvcnk1Mzk0MTUyNQ==",
        "name": "bitcoin",
        "full_name": "ajtowns/bitcoin",
        "owner": {
          "login": "ajtowns",
          "id": 127186,
          "node_id": "MDQ6VXNlcjEyNzE4Ng==",
          "avatar_url": "https://avatars.githubusercontent.com/u/127186?v=4",
          "gravatar_id": "",
          "url": "https://api.github.com/users/ajtowns",
          "html_url": "https://github.com/ajtowns",
          "followers_url": "https://api.github.com/users/ajtowns/followers",
          "following_url": "https://api.github.com/users/ajtowns/following%7B/other_user%7D",
          "gists_url": "https://api.github.com/users/ajtowns/gists%7B/gist_id%7D",
          "starred_url": "https://api.github.com/users/ajtowns/starred%7B/owner%7D%7B/repo%7D",
          "subscriptions_url": "https://api.github.com/users/ajtowns/subscriptions",
          "organizations_url": "https://api.github.com/users/ajtowns/orgs",
          "repos_url": "https://api.github.com/users/ajtowns/repos",
          "events_url": "https://api.github.com/users/ajtowns/events%7B/privacy%7D",
          "received_events_url": "https://api.github.com/users/ajtowns/received_events",
          "type": "User",
          "site_admin": false
        },
        "private": false,
        "html_url": "https://github.com/ajtowns/bitcoin",
        "description": "Bitcoin Core integration/staging tree",
        "fork": true,
        "url": "https://api.github.com/repos/ajtowns/bitcoin",
        "archive_url": "https://api.github.com/repos/ajtowns/bitcoin/%7Barchive_format%7D%7B/ref%7D",
        "assignees_url": "https://api.github.com/repos/ajtowns/bitcoin/assignees%7B/user%7D",
        "blobs_url": "https://api.github.com/repos/ajtowns/bitcoin/git/blobs%7B/sha%7D",
        "branches_url": "https://api.github.com/repos/ajtowns/bitcoin/branches%7B/branch%7D",
        "collaborators_url": "https://api.github.com/repos/ajtowns/bitcoin/collaborators%7B/collaborator%7D",
        "comments_url": "https://api.github.com/repos/ajtowns/bitcoin/comments%7B/number%7D",
        "commits_url": "https://api.github.com/repos/ajtowns/bitcoin/commits%7B/sha%7D",
        "compare_url": "https://api.github.com/repos/ajtowns/bitcoin/compare/%7Bbase%7D...%7Bhead%7D",
        "contents_url": "https://api.github.com/repos/ajtowns/bitcoin/contents/%7B+path%7D",
        "contributors_url": "https://api.github.com/repos/ajtowns/bitcoin/contributors",
        "deployments_url": "https://api.github.com/repos/ajtowns/bitcoin/deployments",
        "downloads_url": "https://api.github.com/repos/ajtowns/bitcoin/downloads",
        "events_url": "https://api.github.com/repos/ajtowns/bitcoin/events",
        "forks_url": "https://api.github.com/repos/ajtowns/bitcoin/forks",
        "git_commits_url": "https://api.github.com/repos/ajtowns/bitcoin/git/commits%7B/sha%7D",
        "git_refs_url": "https://api.github.com/repos/ajtowns/bitcoin/git/refs%7B/sha%7D",
        "git_tags_url": "https://api.github.com/repos/ajtowns/bitcoin/git/tags%7B/sha%7D",
        "git_url": "git://github.com/ajtowns/bitcoin.git",
        "issue_comment_url": "https://api.github.com/repos/ajtowns/bitcoin/issues/comments%7B/number%7D",
        "issue_events_url": "https://api.github.com/repos/ajtowns/bitcoin/issues/events%7B/number%7D",
        "issues_url": "https://api.github.com/repos/ajtowns/bitcoin/issues%7B/number%7D",
        "keys_url": "https://api.github.com/repos/ajtowns/bitcoin/keys%7B/key_id%7D",
        "labels_url": "https://api.github.com/repos/ajtowns/bitcoin/labels%7B/name%7D",
        "languages_url": "https://api.github.com/repos/ajtowns/bitcoin/languages",
        "merges_url": "https://api.github.com/repos/ajtowns/bitcoin/merges",
        "milestones_url": "https://api.github.com/repos/ajtowns/bitcoin/milestones%7B/number%7D",
        "notifications_url": "https://api.github.com/repos/ajtowns/bitcoin/notifications%7B?since,all,participating}",
        "pulls_url": "https://api.github.com/repos/ajtowns/bitcoin/pulls%7B/number%7D",
        "releases_url": "https://api.github.com/repos/ajtowns/bitcoin/releases%7B/id%7D",
        "ssh_url": "git@github.com:ajtowns/bitcoin.git",
        "stargazers_url": "https://api.github.com/repos/ajtowns/bitcoin/stargazers",
        "statuses_url": "https://api.github.com/repos/ajtowns/bitcoin/statuses/%7Bsha%7D",
        "subscribers_url": "https://api.github.com/repos/ajtowns/bitcoin/subscribers",
        "subscription_url": "https://api.github.com/repos/ajtowns/bitcoin/subscription",
        "tags_url": "https://api.github.com/repos/ajtowns/bitcoin/tags",
        "teams_url": "https://api.github.com/repos/ajtowns/bitcoin/teams",
        "trees_url": "https://api.github.com/repos/ajtowns/bitcoin/git/trees%7B/sha%7D",
        "clone_url": "https://github.com/ajtowns/bitcoin.git",
        "hooks_url": "https://api.github.com/repos/ajtowns/bitcoin/hooks",
        "svn_url": "https://github.com/ajtowns/bitcoin",
        "homepage": "https://bitcoin.org/en/download",
        "language": "C++",
        "forks_count": 2,
        "stargazers_count": 7,
        "watchers_count": 7,
        "size": 263761,
        "default_branch": "master",
        "open_issues_count": 0,
        "is_template": false,
        "topics": [],
        "has_issues": false,
        "has_projects": true,
        "has_wiki": false,
        "has_pages": false,
        "has_downloads": false,
        "archived": false,
        "disabled": false,
        "visibility": "public",
        "pushed_at": "2023-07-27T02:52:21Z",
        "created_at": "2016-03-15T12:11:24Z",
        "updated_at": "2023-03-19T19:22:46Z",
        "license": {
          "key": "mit",
          "name": "MIT License",
          "node_id": "MDc6TGljZW5zZTEz",
          "spdx_id": "MIT",
          "url": "https://api.github.com/licenses/mit",
          "html_url": null,
          "description": null,
          "implementation": null,
          "permissions": null,
          "conditions": null,
          "limitations": null,
          "body": null,
          "featured": null
        }
      }
    },
    "base": {
      "label": "bitcoin:master",
      "ref": "master",
      "sha": "250598a905a7be74d4064495c22e2423e371fe8a",
      "user": {
        "login": "bitcoin",
        "id": 528860,
        "node_id": "MDEyOk9yZ2FuaXphdGlvbjUyODg2MA==",
        "avatar_url": "https://avatars.githubusercontent.com/u/528860?v=4",
        "gravatar_id": "",
        "url": "https://api.github.com/users/bitcoin",
        "html_url": "https://github.com/bitcoin",
        "followers_url": "https://api.github.com/users/bitcoin/followers",
        "following_url": "https://api.github.com/users/bitcoin/following%7B/other_user%7D",
        "gists_url": "https://api.github.com/users/bitcoin/gists%7B/gist_id%7D",
        "starred_url": "https://api.github.com/users/bitcoin/starred%7B/owner%7D%7B/repo%7D",
        "subscriptions_url": "https://api.github.com/users/bitcoin/subscriptions",
        "organizations_url": "https://api.github.com/users/bitcoin/orgs",
        "repos_url": "https://api.github.com/users/bitcoin/repos",
        "events_url": "https://api.github.com/users/bitcoin/events%7B/privacy%7D",
        "received_events_url": "https://api.github.com/users/bitcoin/received_events",
        "type": "Organization",
        "site_admin": false
      },
      "repo": {
        "id": 1181927,
        "node_id": "MDEwOlJlcG9zaXRvcnkxMTgxOTI3",
        "name": "bitcoin",
        "full_name": "bitcoin/bitcoin",
        "owner": {
          "login": "bitcoin",
          "id": 528860,
          "node_id": "MDEyOk9yZ2FuaXphdGlvbjUyODg2MA==",
          "avatar_url": "https://avatars.githubusercontent.com/u/528860?v=4",
          "gravatar_id": "",
          "url": "https://api.github.com/users/bitcoin",
          "html_url": "https://github.com/bitcoin",
          "followers_url": "https://api.github.com/users/bitcoin/followers",
          "following_url": "https://api.github.com/users/bitcoin/following%7B/other_user%7D",
          "gists_url": "https://api.github.com/users/bitcoin/gists%7B/gist_id%7D",
          "starred_url": "https://api.github.com/users/bitcoin/starred%7B/owner%7D%7B/repo%7D",
          "subscriptions_url": "https://api.github.com/users/bitcoin/subscriptions",
          "organizations_url": "https://api.github.com/users/bitcoin/orgs",
          "repos_url": "https://api.github.com/users/bitcoin/repos",
          "events_url": "https://api.github.com/users/bitcoin/events%7B/privacy%7D",
          "received_events_url": "https://api.github.com/users/bitcoin/received_events",
          "type": "Organization",
          "site_admin": false
        },
        "private": false,
        "html_url": "https://github.com/bitcoin/bitcoin",
        "description": "Bitcoin Core integration/staging tree",
        "fork": false,
        "url": "https://api.github.com/repos/bitcoin/bitcoin",
        "archive_url": "https://api.github.com/repos/bitcoin/bitcoin/%7Barchive_format%7D%7B/ref%7D",
        "assignees_url": "https://api.github.com/repos/bitcoin/bitcoin/assignees%7B/user%7D",
        "blobs_url": "https://api.github.com/repos/bitcoin/bitcoin/git/blobs%7B/sha%7D",
        "branches_url": "https://api.github.com/repos/bitcoin/bitcoin/branches%7B/branch%7D",
        "collaborators_url": "https://api.github.com/repos/bitcoin/bitcoin/collaborators%7B/collaborator%7D",
        "comments_url": "https://api.github.com/repos/bitcoin/bitcoin/comments%7B/number%7D",
        "commits_url": "https://api.github.com/repos/bitcoin/bitcoin/commits%7B/sha%7D",
        "compare_url": "https://api.github.com/repos/bitcoin/bitcoin/compare/%7Bbase%7D...%7Bhead%7D",
        "contents_url": "https://api.github.com/repos/bitcoin/bitcoin/contents/%7B+path%7D",
        "contributors_url": "https://api.github.com/repos/bitcoin/bitcoin/contributors",
        "deployments_url": "https://api.github.com/repos/bitcoin/bitcoin/deployments",
        "downloads_url": "https://api.github.com/repos/bitcoin/bitcoin/downloads",
        "events_url": "https://api.github.com/repos/bitcoin/bitcoin/events",
        "forks_url": "https://api.github.com/repos/bitcoin/bitcoin/forks",
        "git_commits_url": "https://api.github.com/repos/bitcoin/bitcoin/git/commits%7B/sha%7D",
        "git_refs_url": "https://api.github.com/repos/bitcoin/bitcoin/git/refs%7B/sha%7D",
        "git_tags_url": "https://api.github.com/repos/bitcoin/bitcoin/git/tags%7B/sha%7D",
        "git_url": "git://github.com/bitcoin/bitcoin.git",
        "issue_comment_url": "https://api.github.com/repos/bitcoin/bitcoin/issues/comments%7B/number%7D",
        "issue_events_url": "https://api.github.com/repos/bitcoin/bitcoin/issues/events%7B/number%7D",
        "issues_url": "https://api.github.com/repos/bitcoin/bitcoin/issues%7B/number%7D",
        "keys_url": "https://api.github.com/repos/bitcoin/bitcoin/keys%7B/key_id%7D",
        "labels_url": "https://api.github.com/repos/bitcoin/bitcoin/labels%7B/name%7D",
        "languages_url": "https://api.github.com/repos/bitcoin/bitcoin/languages",
        "merges_url": "https://api.github.com/repos/bitcoin/bitcoin/merges",
        "milestones_url": "https://api.github.com/repos/bitcoin/bitcoin/milestones%7B/number%7D",
        "notifications_url": "https://api.github.com/repos/bitcoin/bitcoin/notifications%7B?since,all,participating}",
        "pulls_url": "https://api.github.com/repos/bitcoin/bitcoin/pulls%7B/number%7D",
        "releases_url": "https://api.github.com/repos/bitcoin/bitcoin/releases%7B/id%7D",
        "ssh_url": "git@github.com:bitcoin/bitcoin.git",
        "stargazers_url": "https://api.github.com/repos/bitcoin/bitcoin/stargazers",
        "statuses_url": "https://api.github.com/repos/bitcoin/bitcoin/statuses/%7Bsha%7D",
        "subscribers_url": "https://api.github.com/repos/bitcoin/bitcoin/subscribers",
        "subscription_url": "https://api.github.com/repos/bitcoin/bitcoin/subscription",
        "tags_url": "https://api.github.com/repos/bitcoin/bitcoin/tags",
        "teams_url": "https://api.github.com/repos/bitcoin/bitcoin/teams",
        "trees_url": "https://api.github.com/repos/bitcoin/bitcoin/git/trees%7B/sha%7D",
        "clone_url": "https://github.com/bitcoin/bitcoin.git",
        "hooks_url": "https://api.github.com/repos/bitcoin/bitcoin/hooks",
        "svn_url": "https://github.com/bitcoin/bitcoin",
        "homepage": "https://bitcoincore.org/en/download",
        "language": "C++",
        "forks_count": 35476,
        "stargazers_count": 70608,
        "watchers_count": 70608,
        "size": 236222,
        "default_branch": "master",
        "open_issues_count": 673,
        "is_template": false,
        "topics": [
          "bitcoin",
          "c-plus-plus",
          "cryptocurrency",
          "cryptography",
          "p2p"
        ],
        "has_issues": true,
        "has_projects": true,
        "has_wiki": false,
        "has_pages": false,
        "has_downloads": false,
        "archived": false,
        "disabled": false,
        "visibility": "public",
        "pushed_at": "2023-08-03T00:03:27Z",
        "created_at": "2010-12-19T15:16:43Z",
        "updated_at": "2023-08-02T18:21:18Z",
        "license": {
          "key": "mit",
          "name": "MIT License",
          "node_id": "MDc6TGljZW5zZTEz",
          "spdx_id": "MIT",
          "url": "https://api.github.com/licenses/mit",
          "html_url": null,
          "description": null,
          "implementation": null,
          "permissions": null,
          "conditions": null,
          "limitations": null,
          "body": null,
          "featured": null
        }
      }
    },
    "_links": {
      "self": {
        "href": "https://api.github.com/repos/bitcoin/bitcoin/pulls/26887"
      }
    },
    "author_association": "CONTRIBUTOR",
    "draft": false,
    "additions": 77,
    "deletions": 31,
    "changed_files": 2,
    "commits": 1,
    "review_comments": 11,
    "comments": 4
  },
  "events": [
    {
      "event": "commented",
      "id": 1381749606,
      "node_id": "IC_kwDOABII585SW9Nm",
      "url": "https://api.github.com/repos/bitcoin/bitcoin/issues/comments/1381749606",
      "actor": {
        "login": "DrahtBot",
        "id": 39886733,
        "node_id": "MDQ6VXNlcjM5ODg2NzMz",
        "avatar_url": "https://avatars.githubusercontent.com/u/39886733?v=4",
        "gravatar_id": "",
        "url": "https://api.github.com/users/DrahtBot",
        "html_url": "https://github.com/DrahtBot",
        "followers_url": "https://api.github.com/users/DrahtBot/followers",
        "following_url": "https://api.github.com/users/DrahtBot/following%7B/other_user%7D",
        "gists_url": "https://api.github.com/users/DrahtBot/gists%7B/gist_id%7D",
        "starred_url": "https://api.github.com/users/DrahtBot/starred%7B/owner%7D%7B/repo%7D",
        "subscriptions_url": "https://api.github.com/users/DrahtBot/subscriptions",
        "organizations_url": "https://api.github.com/users/DrahtBot/orgs",
        "repos_url": "https://api.github.com/users/DrahtBot/repos",
        "events_url": "https://api.github.com/users/DrahtBot/events%7B/privacy%7D",
        "received_events_url": "https://api.github.com/users/DrahtBot/received_events",
        "type": "User",
        "site_admin": false
      },
      "commit_id": null,
      "commit_url": null,
      "created_at": "2023-01-13T11:51:33Z",
      "updated_at": "2023-01-20T09:37:02Z",
      "author_association": "CONTRIBUTOR",
      "body": "<!--e57a25ab6845829454e8d69fc972939a-->\n\nThe following sections might be updated with supplementary metadata relevant to reviewers and maintainers.\n\n<!--021abf342d371248e50ceaed478a90ca-->\n### Reviews\nSee [the guideline](https://github.com/bitcoin/bitcoin/blob/master/CONTRIBUTING.md#code-review) for information on the review process.\n| Type | Reviewers |\n| ---- | --------- |\n| ACK | [MarcoFalke](https://github.com/bitcoin/bitcoin/pull/26887#issuecomment-1398136056) |\n| Concept ACK | [brunoerg](https://github.com/bitcoin/bitcoin/pull/26887#pullrequestreview-1247794449) |\n\nIf your review is incorrectly listed, please react with 👎 to this comment and the bot will ignore it on the next update.\n<!--174a7506f384e20aa4161008e828411d-->\n### Conflicts\nReviewers, this pull request conflicts with the following ones:\n\n* [#25429](https://github.com/bitcoin/bitcoin/pull/25429) (refactor: Avoid UniValue copies by MarcoFalke)\n\nIf you consider this pull request important, please also help to review the conflicting pull requests. Ideally, start with the one that should be merged first.\n",
      "user": {
        "login": "DrahtBot",
        "id": 39886733,
        "node_id": "MDQ6VXNlcjM5ODg2NzMz",
        "avatar_url": "https://avatars.githubusercontent.com/u/39886733?v=4",
        "gravatar_id": "",
        "url": "https://api.github.com/users/DrahtBot",
        "html_url": "https://github.com/DrahtBot",
        "followers_url": "https://api.github.com/users/DrahtBot/followers",
        "following_url": "https://api.github.com/users/DrahtBot/following%7B/other_user%7D",
        "gists_url": "https://api.github.com/users/DrahtBot/gists%7B/gist_id%7D",
        "starred_url": "https://api.github.com/users/DrahtBot/starred%7B/owner%7D%7B/repo%7D",
        "subscriptions_url": "https://api.github.com/users/DrahtBot/subscriptions",
        "organizations_url": "https://api.github.com/users/DrahtBot/orgs",
        "repos_url": "https://api.github.com/users/DrahtBot/repos",
        "events_url": "https://api.github.com/users/DrahtBot/events%7B/privacy%7D",
        "received_events_url": "https://api.github.com/users/DrahtBot/received_events",
        "type": "User",
        "site_admin": false
      },
      "html_url": "https://github.com/bitcoin/bitcoin/pull/26887#issuecomment-1381749606",
      "issue_url": "https://api.github.com/repos/bitcoin/bitcoin/issues/26887"
    },
    {
      "event": "labeled",
      "id": 8220125195,
      "node_id": "LE_lADOABII585bU1IbzwAAAAHp9SgL",
      "url": "https://api.github.com/repos/bitcoin/bitcoin/issues/events/8220125195",
      "actor": {
        "login": "DrahtBot",
        "id": 39886733,
        "node_id": "MDQ6VXNlcjM5ODg2NzMz",
        "avatar_url": "https://avatars.githubusercontent.com/u/39886733?v=4",
        "gravatar_id": "",
        "url": "https://api.github.com/users/DrahtBot",
        "html_url": "https://github.com/DrahtBot",
        "followers_url": "https://api.github.com/users/DrahtBot/followers",
        "following_url": "https://api.github.com/users/DrahtBot/following%7B/other_user%7D",
        "gists_url": "https://api.github.com/users/DrahtBot/gists%7B/gist_id%7D",
        "starred_url": "https://api.github.com/users/DrahtBot/starred%7B/owner%7D%7B/repo%7D",
        "subscriptions_url": "https://api.github.com/users/DrahtBot/subscriptions",
        "organizations_url": "https://api.github.com/users/DrahtBot/orgs",
        "repos_url": "https://api.github.com/users/DrahtBot/repos",
        "events_url": "https://api.github.com/users/DrahtBot/events%7B/privacy%7D",
        "received_events_url": "https://api.github.com/users/DrahtBot/received_events",
        "type": "User",
        "site_admin": false
      },
      "commit_id": null,
      "commit_url": null,
      "created_at": "2023-01-13T11:51:35Z",
      "label": {
        "name": "RPC/REST/ZMQ",
        "color": "0052cc"
      }
    },
    {
      "event": "commented",
      "id": 1381750328,
      "node_id": "IC_kwDOABII585SW9Y4",
      "url": "https://api.github.com/repos/bitcoin/bitcoin/issues/comments/1381750328",
      "actor": {
        "login": "ajtowns",
        "id": 127186,
        "node_id": "MDQ6VXNlcjEyNzE4Ng==",
        "avatar_url": "https://avatars.githubusercontent.com/u/127186?v=4",
        "gravatar_id": "",
        "url": "https://api.github.com/users/ajtowns",
        "html_url": "https://github.com/ajtowns",
        "followers_url": "https://api.github.com/users/ajtowns/followers",
        "following_url": "https://api.github.com/users/ajtowns/following%7B/other_user%7D",
        "gists_url": "https://api.github.com/users/ajtowns/gists%7B/gist_id%7D",
        "starred_url": "https://api.github.com/users/ajtowns/starred%7B/owner%7D%7B/repo%7D",
        "subscriptions_url": "https://api.github.com/users/ajtowns/subscriptions",
        "organizations_url": "https://api.github.com/users/ajtowns/orgs",
        "repos_url": "https://api.github.com/users/ajtowns/repos",
        "events_url": "https://api.github.com/users/ajtowns/events%7B/privacy%7D",
        "received_events_url": "https://api.github.com/users/ajtowns/received_events",
        "type": "User",
        "site_admin": false
      },
      "commit_id": null,
      "commit_url": null,
      "created_at": "2023-01-13T11:52:23Z",
      "updated_at": "2023-01-13T11:52:23Z",
      "author_association": "CONTRIBUTOR",
      "body": "eg if I garble up the results of getdeploymentinfo, and run rpc_blockchain.py, prior to this PR, I just get:\r\n\r\n> test_framework.authproxy.JSONRPCException: Internal bug detected: \"std::any_of(m_results.m_results.begin(), m_results.m_results.end(), [&ret](const RPCResult& res) { return res.MatchesType(ret); })\"\r\n> rpc/util.cpp:584 (HandleRequest)\r\n> Bitcoin Core v24.99.0-38d883a41078\r\n> Please report this issue here: https://github.com/bitcoin/bitcoin/issues\r\n\r\nwith this PR, I instead get:\r\n\r\n```\r\ntest_framework.authproxy.JSONRPCException: Internal bug detected: RPC call \"getdeploymentinfo\" returned incorrect type:\r\n{\r\n    \"deployments\": {\r\n        \"testdummy\": {\r\n            \"bip9\": {\r\n                \"awesomeness\": \"unexpected key\",\r\n                \"status_next\": \"non-optional key missing\",\r\n                \"statistics\": {\r\n                    \"period\": \"expected number got null\",\r\n                    \"threshold\": \"expected number got string\"\r\n                }\r\n            }\r\n        },\r\n        \"taproot\": {\r\n            \"bip9\": {\r\n                \"awesomeness\": \"unexpected key\",\r\n                \"status_next\": \"non-optional key missing\"\r\n            }\r\n        }\r\n    }\r\n}\r\nBitcoin Core v24.99.0-51b4318e76d3-dirty\r\nPlease report this issue here: https://github.com/bitcoin/bitcoin/issues\r\n```\r\n\r\nwhich seems much more helpful for fixing the problem.\r\n\r\ncc @MarcoFalke \r\n",
      "user": {
        "login": "ajtowns",
        "id": 127186,
        "node_id": "MDQ6VXNlcjEyNzE4Ng==",
        "avatar_url": "https://avatars.githubusercontent.com/u/127186?v=4",
        "gravatar_id": "",
        "url": "https://api.github.com/users/ajtowns",
        "html_url": "https://github.com/ajtowns",
        "followers_url": "https://api.github.com/users/ajtowns/followers",
        "following_url": "https://api.github.com/users/ajtowns/following%7B/other_user%7D",
        "gists_url": "https://api.github.com/users/ajtowns/gists%7B/gist_id%7D",
        "starred_url": "https://api.github.com/users/ajtowns/starred%7B/owner%7D%7B/repo%7D",
        "subscriptions_url": "https://api.github.com/users/ajtowns/subscriptions",
        "organizations_url": "https://api.github.com/users/ajtowns/orgs",
        "repos_url": "https://api.github.com/users/ajtowns/repos",
        "events_url": "https://api.github.com/users/ajtowns/events%7B/privacy%7D",
        "received_events_url": "https://api.github.com/users/ajtowns/received_events",
        "type": "User",
        "site_admin": false
      },
      "html_url": "https://github.com/bitcoin/bitcoin/pull/26887#issuecomment-1381750328",
      "issue_url": "https://api.github.com/repos/bitcoin/bitcoin/issues/26887"
    },
    {
      "event": "mentioned",
      "id": 8220130294,
      "node_id": "MEE_lADOABII585bU1IbzwAAAAHp9Tv2",
      "url": "https://api.github.com/repos/bitcoin/bitcoin/issues/events/8220130294",
      "actor": {
        "login": "MarcoFalke",
        "id": 6399679,
        "node_id": "MDQ6VXNlcjYzOTk2Nzk=",
        "avatar_url": "https://avatars.githubusercontent.com/u/6399679?v=4",
        "gravatar_id": "",
        "url": "https://api.github.com/users/MarcoFalke",
        "html_url": "https://github.com/MarcoFalke",
        "followers_url": "https://api.github.com/users/MarcoFalke/followers",
        "following_url": "https://api.github.com/users/MarcoFalke/following%7B/other_user%7D",
        "gists_url": "https://api.github.com/users/MarcoFalke/gists%7B/gist_id%7D",
        "starred_url": "https://api.github.com/users/MarcoFalke/starred%7B/owner%7D%7B/repo%7D",
        "subscriptions_url": "https://api.github.com/users/MarcoFalke/subscriptions",
        "organizations_url": "https://api.github.com/users/MarcoFalke/orgs",
        "repos_url": "https://api.github.com/users/MarcoFalke/repos",
        "events_url": "https://api.github.com/users/MarcoFalke/events%7B/privacy%7D",
        "received_events_url": "https://api.github.com/users/MarcoFalke/received_events",
        "type": "User",
        "site_admin": false
      },
      "commit_id": null,
      "commit_url": null,
      "created_at": "2023-01-13T11:52:23Z"
    },
    {
      "event": "subscribed",
      "id": 8220130307,
      "node_id": "SE_lADOABII585bU1IbzwAAAAHp9TwD",
      "url": "https://api.github.com/repos/bitcoin/bitcoin/issues/events/8220130307",
      "actor": {
        "login": "MarcoFalke",
        "id": 6399679,
        "node_id": "MDQ6VXNlcjYzOTk2Nzk=",
        "avatar_url": "https://avatars.githubusercontent.com/u/6399679?v=4",
        "gravatar_id": "",
        "url": "https://api.github.com/users/MarcoFalke",
        "html_url": "https://github.com/MarcoFalke",
        "followers_url": "https://api.github.com/users/MarcoFalke/followers",
        "following_url": "https://api.github.com/users/MarcoFalke/following%7B/other_user%7D",
        "gists_url": "https://api.github.com/users/MarcoFalke/gists%7B/gist_id%7D",
        "starred_url": "https://api.github.com/users/MarcoFalke/starred%7B/owner%7D%7B/repo%7D",
        "subscriptions_url": "https://api.github.com/users/MarcoFalke/subscriptions",
        "organizations_url": "https://api.github.com/users/MarcoFalke/orgs",
        "repos_url": "https://api.github.com/users/MarcoFalke/repos",
        "events_url": "https://api.github.com/users/MarcoFalke/events%7B/privacy%7D",
        "received_events_url": "https://api.github.com/users/MarcoFalke/received_events",
        "type": "User",
        "site_admin": false
      },
      "commit_id": null,
      "commit_url": null,
      "created_at": "2023-01-13T11:52:24Z"
    },
    {
      "event": "reviewed",
      "id": 1247554474,
      "node_id": "PRR_kwDOABII585KXCuq",
      "url": null,
      "actor": null,
      "commit_id": "2a92980593e8336e0646324af76c729f93523f9d",
      "commit_url": null,
      "created_at": null,
      "author_association": "MEMBER",
      "body": "Nice. Concept ACK",
      "user": {
        "login": "MarcoFalke",
        "id": 6399679,
        "node_id": "MDQ6VXNlcjYzOTk2Nzk=",
        "avatar_url": "https://avatars.githubusercontent.com/u/6399679?v=4",
        "gravatar_id": "",
        "url": "https://api.github.com/users/MarcoFalke",
        "html_url": "https://github.com/MarcoFalke",
        "followers_url": "https://api.github.com/users/MarcoFalke/followers",
        "following_url": "https://api.github.com/users/MarcoFalke/following%7B/other_user%7D",
        "gists_url": "https://api.github.com/users/MarcoFalke/gists%7B/gist_id%7D",
        "starred_url": "https://api.github.com/users/MarcoFalke/starred%7B/owner%7D%7B/repo%7D",
        "subscriptions_url": "https://api.github.com/users/MarcoFalke/subscriptions",
        "organizations_url": "https://api.github.com/users/MarcoFalke/orgs",
        "repos_url": "https://api.github.com/users/MarcoFalke/repos",
        "events_url": "https://api.github.com/users/MarcoFalke/events%7B/privacy%7D",
        "received_events_url": "https://api.github.com/users/MarcoFalke/received_events",
        "type": "User",
        "site_admin": false
      },
      "html_url": "https://github.com/bitcoin/bitcoin/pull/26887#pullrequestreview-1247554474",
      "submitted_at": "2023-01-13T12:25:26Z",
      "state": "APPROVED",
      "pull_request_url": "https://api.github.com/repos/bitcoin/bitcoin/pulls/26887"
    },
    {
      "event": "reviewed",
      "id": 1247794449,
      "node_id": "PRR_kwDOABII585KX9UR",
      "url": null,
      "actor": null,
      "commit_id": "2a92980593e8336e0646324af76c729f93523f9d",
      "commit_url": null,
      "created_at": null,
      "author_association": "CONTRIBUTOR",
      "body": "Concept ACK\r\n\r\nIt had helped me to save a lot of time recently btw :)",
      "user": {
        "login": "brunoerg",
        "id": 19480819,
        "node_id": "MDQ6VXNlcjE5NDgwODE5",
        "avatar_url": "https://avatars.githubusercontent.com/u/19480819?v=4",
        "gravatar_id": "",
        "url": "https://api.github.com/users/brunoerg",
        "html_url": "https://github.com/brunoerg",
        "followers_url": "https://api.github.com/users/brunoerg/followers",
        "following_url": "https://api.github.com/users/brunoerg/following%7B/other_user%7D",
        "gists_url": "https://api.github.com/users/brunoerg/gists%7B/gist_id%7D",
        "starred_url": "https://api.github.com/users/brunoerg/starred%7B/owner%7D%7B/repo%7D",
        "subscriptions_url": "https://api.github.com/users/brunoerg/subscriptions",
        "organizations_url": "https://api.github.com/users/brunoerg/orgs",
        "repos_url": "https://api.github.com/users/brunoerg/repos",
        "events_url": "https://api.github.com/users/brunoerg/events%7B/privacy%7D",
        "received_events_url": "https://api.github.com/users/brunoerg/received_events",
        "type": "User",
        "site_admin": false
      },
      "html_url": "https://github.com/bitcoin/bitcoin/pull/26887#pullrequestreview-1247794449",
      "submitted_at": "2023-01-13T15:10:34Z",
      "state": "COMMENTED",
      "pull_request_url": "https://api.github.com/repos/bitcoin/bitcoin/pulls/26887"
    },
    {
      "event": "head_ref_force_pushed",
      "id": 8222290539,
      "node_id": "HRFPE_lADOABII585bU1IbzwAAAAHqFjJr",
      "url": "https://api.github.com/repos/bitcoin/bitcoin/issues/events/8222290539",
      "actor": {
        "login": "ajtowns",
        "id": 127186,
        "node_id": "MDQ6VXNlcjEyNzE4Ng==",
        "avatar_url": "https://avatars.githubusercontent.com/u/127186?v=4",
        "gravatar_id": "",
        "url": "https://api.github.com/users/ajtowns",
        "html_url": "https://github.com/ajtowns",
        "followers_url": "https://api.github.com/users/ajtowns/followers",
        "following_url": "https://api.github.com/users/ajtowns/following%7B/other_user%7D",
        "gists_url": "https://api.github.com/users/ajtowns/gists%7B/gist_id%7D",
        "starred_url": "https://api.github.com/users/ajtowns/starred%7B/owner%7D%7B/repo%7D",
        "subscriptions_url": "https://api.github.com/users/ajtowns/subscriptions",
        "organizations_url": "https://api.github.com/users/ajtowns/orgs",
        "repos_url": "https://api.github.com/users/ajtowns/repos",
        "events_url": "https://api.github.com/users/ajtowns/events%7B/privacy%7D",
        "received_events_url": "https://api.github.com/users/ajtowns/received_events",
        "type": "User",
        "site_admin": false
      },
      "commit_id": null,
      "commit_url": null,
      "created_at": "2023-01-13T16:14:59Z"
    },
    {
      "event": "cross-referenced",
      "id": null,
      "node_id": null,
      "url": null,
      "actor": {
        "login": "DrahtBot",
        "id": 39886733,
        "node_id": "MDQ6VXNlcjM5ODg2NzMz",
        "avatar_url": "https://avatars.githubusercontent.com/u/39886733?v=4",
        "gravatar_id": "",
        "url": "https://api.github.com/users/DrahtBot",
        "html_url": "https://github.com/DrahtBot",
        "followers_url": "https://api.github.com/users/DrahtBot/followers",
        "following_url": "https://api.github.com/users/DrahtBot/following%7B/other_user%7D",
        "gists_url": "https://api.github.com/users/DrahtBot/gists%7B/gist_id%7D",
        "starred_url": "https://api.github.com/users/DrahtBot/starred%7B/owner%7D%7B/repo%7D",
        "subscriptions_url": "https://api.github.com/users/DrahtBot/subscriptions",
        "organizations_url": "https://api.github.com/users/DrahtBot/orgs",
        "repos_url": "https://api.github.com/users/DrahtBot/repos",
        "events_url": "https://api.github.com/users/DrahtBot/events%7B/privacy%7D",
        "received_events_url": "https://api.github.com/users/DrahtBot/received_events",
        "type": "User",
        "site_admin": false
      },
      "commit_id": null,
      "commit_url": null,
      "created_at": "2023-01-14T00:22:44Z",
      "updated_at": "2023-01-14T00:22:44Z",
      "source": {
        "issue": {
          "id": 1277080263,
          "node_id": "PR_kwDOABII58459Rfx",
          "url": "https://api.github.com/repos/bitcoin/bitcoin/issues/25429",
          "repository_url": "https://api.github.com/repos/bitcoin/bitcoin",
          "labels_url": "https://api.github.com/repos/bitcoin/bitcoin/issues/25429/labels%7B/name%7D",
          "comments_url": "https://api.github.com/repos/bitcoin/bitcoin/issues/25429/comments",
          "events_url": "https://api.github.com/repos/bitcoin/bitcoin/issues/25429/events",
          "html_url": "https://github.com/bitcoin/bitcoin/pull/25429",
          "number": 25429,
          "state": "closed",
          "state_reason": null,
          "title": "refactor: Avoid UniValue copies",
          "body": "UniValue copies have been a source of performance related bugs and regressions, so it would be good to remove the copy constructors.\r\n\r\nThis is the first change toward the goal. This change uses a `const UniValue&` where possible.\r\n\r\nSee also:\r\n\r\n* https://github.com/bitcoin-core/univalue-subtree/pull/27\r\n* https://github.com/bitcoin/bitcoin/pull/15974",
          "user": {
            "login": "MarcoFalke",
            "id": 6399679,
            "node_id": "MDQ6VXNlcjYzOTk2Nzk=",
            "avatar_url": "https://avatars.githubusercontent.com/u/6399679?v=4",
            "gravatar_id": "",
            "url": "https://api.github.com/users/MarcoFalke",
            "html_url": "https://github.com/MarcoFalke",
            "followers_url": "https://api.github.com/users/MarcoFalke/followers",
            "following_url": "https://api.github.com/users/MarcoFalke/following%7B/other_user%7D",
            "gists_url": "https://api.github.com/users/MarcoFalke/gists%7B/gist_id%7D",
            "starred_url": "https://api.github.com/users/MarcoFalke/starred%7B/owner%7D%7B/repo%7D",
            "subscriptions_url": "https://api.github.com/users/MarcoFalke/subscriptions",
            "organizations_url": "https://api.github.com/users/MarcoFalke/orgs",
            "repos_url": "https://api.github.com/users/MarcoFalke/repos",
            "events_url": "https://api.github.com/users/MarcoFalke/events%7B/privacy%7D",
            "received_events_url": "https://api.github.com/users/MarcoFalke/received_events",
            "type": "User",
            "site_admin": false
          },
          "labels": [
            {
              "id": 135961,
              "node_id": "MDU6TGFiZWwxMzU5NjE=",
              "url": "https://api.github.com/repos/bitcoin/bitcoin/labels/Refactoring",
              "name": "Refactoring",
              "color": "E6F6D6",
              "default": false
            },
            {
              "id": 955867938,
              "node_id": "MDU6TGFiZWw5NTU4Njc5Mzg=",
              "url": "https://api.github.com/repos/bitcoin/bitcoin/labels/Needs%20rebase",
              "name": "Needs rebase",
              "description": "",
              "color": "cccccc",
              "default": false
            }
          ],
          "assignees": [],
          "author_association": "MEMBER",
          "locked": false,
          "comments": 12,
          "pull_request": {
            "url": "https://api.github.com/repos/bitcoin/bitcoin/pulls/25429",
            "html_url": "https://github.com/bitcoin/bitcoin/pull/25429",
            "diff_url": "https://github.com/bitcoin/bitcoin/pull/25429.diff",
            "patch_url": "https://github.com/bitcoin/bitcoin/pull/25429.patch"
          },
          "closed_at": "2023-02-23T17:51:57Z",
          "created_at": "2022-06-20T15:17:09Z",
          "updated_at": "2023-02-23T17:52:03Z"
        },
        "type": "issue"
      }
    },
    {
      "event": "reviewed",
      "id": 1253681143,
      "node_id": "PRR_kwDOABII585Kuaf3",
      "url": null,
      "actor": null,
      "commit_id": "94adb442fac9da04063a57897b44a9623c4fe39e",
      "commit_url": null,
      "created_at": null,
      "author_association": "MEMBER",
      "body": "There is one typo. Also, in the presence of bugs it could be confusing to call something \"expected\". Instead, it could make more sense to just say there is an error and mention the *doc*-type and the *result*-type.\r\n\r\n\r\nACK 94adb442fac9da04063a57897b44a9623c4fe39e 🔎\r\n\r\n<details><summary>Show signature</summary>\r\n\r\nSignature:\r\n\r\n```\r\n-----BEGIN PGP SIGNED MESSAGE-----\r\nHash: SHA512\r\n\r\nACK 94adb442fac9da04063a57897b44a9623c4fe39e 🔎\r\n-----BEGIN PGP SIGNATURE-----\r\n\r\niQGzBAEBCgAdFiEE+rVPoUahrI9sLGYTzit1aX5ppUgFAlwqrYAACgkQzit1aX5p\r\npUjBLAv+KtPRXStO2Xnup245psxH0FXERsW5S+crdH2b/fqi+vWqAi0KhOXo6BSw\r\nLMANJug1Ynkx+b9Dr8+hBVbTS4EMSHx3LeabuUdVGVPZKBhVV/+PLhT8E0nnCHy9\r\nYj0c4s+QXkk0Y1bhM7obILGlohrlVRtJ74btQ7ZyUaM7sZnrHAnBr1FkiQvsUA7f\r\nX5TTm1gwC80akEkRRlpf1UkdAjU0O8hrRdg2oIVngj4ADPm03wFAfa3W1b+b0Wyd\r\nwmQgfuzntpAifsZ0KhxA2hBObCmai/7YArkjGnuDMnpi2PnxIk2KxKllCmN6jAOx\r\nfpk+cZ+sHX6XjxFWRnuS7WI2v/NwVe144526u9dK00qAqjwCzHCgwEt1wJm1jqsn\r\nrHELAjaqPkfXGrOnujw08TGeQ+b+FThcxqduTPhfxyFzeB4/lJX+oOKcxcqdjKef\r\ngzxxz/wbJmJEcFCfWbLXE7+bSfX/9hs+XRkv+q75+7TfjNkyhhWM4VYGFOI0EaQl\r\nfRyWhmTw\r\n=3pbv\r\n-----END PGP SIGNATURE-----\r\n```\r\n\r\n\r\n</details>\r\n",
      "user": {
        "login": "MarcoFalke",
        "id": 6399679,
        "node_id": "MDQ6VXNlcjYzOTk2Nzk=",
        "avatar_url": "https://avatars.githubusercontent.com/u/6399679?v=4",
        "gravatar_id": "",
        "url": "https://api.github.com/users/MarcoFalke",
        "html_url": "https://github.com/MarcoFalke",
        "followers_url": "https://api.github.com/users/MarcoFalke/followers",
        "following_url": "https://api.github.com/users/MarcoFalke/following%7B/other_user%7D",
        "gists_url": "https://api.github.com/users/MarcoFalke/gists%7B/gist_id%7D",
        "starred_url": "https://api.github.com/users/MarcoFalke/starred%7B/owner%7D%7B/repo%7D",
        "subscriptions_url": "https://api.github.com/users/MarcoFalke/subscriptions",
        "organizations_url": "https://api.github.com/users/MarcoFalke/orgs",
        "repos_url": "https://api.github.com/users/MarcoFalke/repos",
        "events_url": "https://api.github.com/users/MarcoFalke/events%7B/privacy%7D",
        "received_events_url": "https://api.github.com/users/MarcoFalke/received_events",
        "type": "User",
        "site_admin": false
      },
      "html_url": "https://github.com/bitcoin/bitcoin/pull/26887#pullrequestreview-1253681143",
      "submitted_at": "2023-01-18T15:43:25Z",
      "state": "APPROVED",
      "pull_request_url": "https://api.github.com/repos/bitcoin/bitcoin/pulls/26887"
    },
    {
      "event": "committed",
      "id": null,
      "node_id": "C_kwDOABII59oAKDNkMWE0ZDhhNDVjZDkxYmRmZTBlZjEwN2MyZTljNWU4ODJiMzQxNTU",
      "url": "https://api.github.com/repos/bitcoin/bitcoin/git/commits/3d1a4d8a45cd91bdfe0ef107c2e9c5e882b34155",
      "actor": null,
      "commit_id": null,
      "commit_url": null,
      "created_at": null,
      "html_url": "https://github.com/bitcoin/bitcoin/commit/3d1a4d8a45cd91bdfe0ef107c2e9c5e882b34155",
      "tree": {
        "sha": "1df5a96cea64a12ec64c533cd3ebbfc3c845ccdc",
        "url": "https://api.github.com/repos/bitcoin/bitcoin/git/trees/1df5a96cea64a12ec64c533cd3ebbfc3c845ccdc"
      },
      "verification": {
        "verified": false,
        "reason": "unsigned",
        "payload": null,
        "signature": null
      },
      "parents": [
        {
          "url": "https://api.github.com/repos/bitcoin/bitcoin/git/commits/f4ef856375c5b295d78169b136c6aee928c19bc9",
          "sha": "f4ef856375c5b295d78169b136c6aee928c19bc9",
          "html_url": "https://github.com/bitcoin/bitcoin/commit/f4ef856375c5b295d78169b136c6aee928c19bc9"
        }
      ],
      "message": "RPC: make RPCResult::MatchesType return useful errors",
      "committer": {
        "name": "Anthony Towns",
        "email": "aj@erisian.com.au",
        "date": "2023-01-19T20:24:15Z"
      },
      "author": {
        "name": "Anthony Towns",
        "email": "aj@erisian.com.au",
        "date": "2023-01-13T10:27:59Z"
      },
      "sha": "3d1a4d8a45cd91bdfe0ef107c2e9c5e882b34155"
    },
    {
      "event": "head_ref_force_pushed",
      "id": 8315947580,
      "node_id": "HRFPE_lADOABII585bU1IbzwAAAAHvq0o8",
      "url": "https://api.github.com/repos/bitcoin/bitcoin/issues/events/8315947580",
      "actor": {
        "login": "ajtowns",
        "id": 127186,
        "node_id": "MDQ6VXNlcjEyNzE4Ng==",
        "avatar_url": "https://avatars.githubusercontent.com/u/127186?v=4",
        "gravatar_id": "",
        "url": "https://api.github.com/users/ajtowns",
        "html_url": "https://github.com/ajtowns",
        "followers_url": "https://api.github.com/users/ajtowns/followers",
        "following_url": "https://api.github.com/users/ajtowns/following%7B/other_user%7D",
        "gists_url": "https://api.github.com/users/ajtowns/gists%7B/gist_id%7D",
        "starred_url": "https://api.github.com/users/ajtowns/starred%7B/owner%7D%7B/repo%7D",
        "subscriptions_url": "https://api.github.com/users/ajtowns/subscriptions",
        "organizations_url": "https://api.github.com/users/ajtowns/orgs",
        "repos_url": "https://api.github.com/users/ajtowns/repos",
        "events_url": "https://api.github.com/users/ajtowns/events%7B/privacy%7D",
        "received_events_url": "https://api.github.com/users/ajtowns/received_events",
        "type": "User",
        "site_admin": false
      },
      "commit_id": null,
      "commit_url": null,
      "created_at": "2023-01-19T20:34:10Z"
    },
    {
      "event": "commented",
      "id": 1397569267,
      "node_id": "IC_kwDOABII585TTTbz",
      "url": "https://api.github.com/repos/bitcoin/bitcoin/issues/comments/1397569267",
      "actor": {
        "login": "ajtowns",
        "id": 127186,
        "node_id": "MDQ6VXNlcjEyNzE4Ng==",
        "avatar_url": "https://avatars.githubusercontent.com/u/127186?v=4",
        "gravatar_id": "",
        "url": "https://api.github.com/users/ajtowns",
        "html_url": "https://github.com/ajtowns",
        "followers_url": "https://api.github.com/users/ajtowns/followers",
        "following_url": "https://api.github.com/users/ajtowns/following%7B/other_user%7D",
        "gists_url": "https://api.github.com/users/ajtowns/gists%7B/gist_id%7D",
        "starred_url": "https://api.github.com/users/ajtowns/starred%7B/owner%7D%7B/repo%7D",
        "subscriptions_url": "https://api.github.com/users/ajtowns/subscriptions",
        "organizations_url": "https://api.github.com/users/ajtowns/orgs",
        "repos_url": "https://api.github.com/users/ajtowns/repos",
        "events_url": "https://api.github.com/users/ajtowns/events%7B/privacy%7D",
        "received_events_url": "https://api.github.com/users/ajtowns/received_events",
        "type": "User",
        "site_admin": false
      },
      "commit_id": null,
      "commit_url": null,
      "created_at": "2023-01-19T20:35:26Z",
      "updated_at": "2023-01-19T20:35:26Z",
      "author_association": "CONTRIBUTOR",
      "body": "Took @MarcoFalke's suggestions (albeit with some wording changes)",
      "user": {
        "login": "ajtowns",
        "id": 127186,
        "node_id": "MDQ6VXNlcjEyNzE4Ng==",
        "avatar_url": "https://avatars.githubusercontent.com/u/127186?v=4",
        "gravatar_id": "",
        "url": "https://api.github.com/users/ajtowns",
        "html_url": "https://github.com/ajtowns",
        "followers_url": "https://api.github.com/users/ajtowns/followers",
        "following_url": "https://api.github.com/users/ajtowns/following%7B/other_user%7D",
        "gists_url": "https://api.github.com/users/ajtowns/gists%7B/gist_id%7D",
        "starred_url": "https://api.github.com/users/ajtowns/starred%7B/owner%7D%7B/repo%7D",
        "subscriptions_url": "https://api.github.com/users/ajtowns/subscriptions",
        "organizations_url": "https://api.github.com/users/ajtowns/orgs",
        "repos_url": "https://api.github.com/users/ajtowns/repos",
        "events_url": "https://api.github.com/users/ajtowns/events%7B/privacy%7D",
        "received_events_url": "https://api.github.com/users/ajtowns/received_events",
        "type": "User",
        "site_admin": false
      },
      "html_url": "https://github.com/bitcoin/bitcoin/pull/26887#issuecomment-1397569267",
      "issue_url": "https://api.github.com/repos/bitcoin/bitcoin/issues/26887"
    },
    {
      "event": "mentioned",
      "id": 8315956717,
      "node_id": "MEE_lADOABII585bU1IbzwAAAAHvq23t",
      "url": "https://api.github.com/repos/bitcoin/bitcoin/issues/events/8315956717",
      "actor": {
        "login": "MarcoFalke",
        "id": 6399679,
        "node_id": "MDQ6VXNlcjYzOTk2Nzk=",
        "avatar_url": "https://avatars.githubusercontent.com/u/6399679?v=4",
        "gravatar_id": "",
        "url": "https://api.github.com/users/MarcoFalke",
        "html_url": "https://github.com/MarcoFalke",
        "followers_url": "https://api.github.com/users/MarcoFalke/followers",
        "following_url": "https://api.github.com/users/MarcoFalke/following%7B/other_user%7D",
        "gists_url": "https://api.github.com/users/MarcoFalke/gists%7B/gist_id%7D",
        "starred_url": "https://api.github.com/users/MarcoFalke/starred%7B/owner%7D%7B/repo%7D",
        "subscriptions_url": "https://api.github.com/users/MarcoFalke/subscriptions",
        "organizations_url": "https://api.github.com/users/MarcoFalke/orgs",
        "repos_url": "https://api.github.com/users/MarcoFalke/repos",
        "events_url": "https://api.github.com/users/MarcoFalke/events%7B/privacy%7D",
        "received_events_url": "https://api.github.com/users/MarcoFalke/received_events",
        "type": "User",
        "site_admin": false
      },
      "commit_id": null,
      "commit_url": null,
      "created_at": "2023-01-19T20:35:27Z"
    },
    {
      "event": "subscribed",
      "id": 8315956724,
      "node_id": "SE_lADOABII585bU1IbzwAAAAHvq230",
      "url": "https://api.github.com/repos/bitcoin/bitcoin/issues/events/8315956724",
      "actor": {
        "login": "MarcoFalke",
        "id": 6399679,
        "node_id": "MDQ6VXNlcjYzOTk2Nzk=",
        "avatar_url": "https://avatars.githubusercontent.com/u/6399679?v=4",
        "gravatar_id": "",
        "url": "https://api.github.com/users/MarcoFalke",
        "html_url": "https://github.com/MarcoFalke",
        "followers_url": "https://api.github.com/users/MarcoFalke/followers",
        "following_url": "https://api.github.com/users/MarcoFalke/following%7B/other_user%7D",
        "gists_url": "https://api.github.com/users/MarcoFalke/gists%7B/gist_id%7D",
        "starred_url": "https://api.github.com/users/MarcoFalke/starred%7B/owner%7D%7B/repo%7D",
        "subscriptions_url": "https://api.github.com/users/MarcoFalke/subscriptions",
        "organizations_url": "https://api.github.com/users/MarcoFalke/orgs",
        "repos_url": "https://api.github.com/users/MarcoFalke/repos",
        "events_url": "https://api.github.com/users/MarcoFalke/events%7B/privacy%7D",
        "received_events_url": "https://api.github.com/users/MarcoFalke/received_events",
        "type": "User",
        "site_admin": false
      },
      "commit_id": null,
      "commit_url": null,
      "created_at": "2023-01-19T20:35:27Z"
    },
    {
      "event": "commented",
      "id": 1398136056,
      "node_id": "IC_kwDOABII585TVdz4",
      "url": "https://api.github.com/repos/bitcoin/bitcoin/issues/comments/1398136056",
      "actor": {
        "login": "MarcoFalke",
        "id": 6399679,
        "node_id": "MDQ6VXNlcjYzOTk2Nzk=",
        "avatar_url": "https://avatars.githubusercontent.com/u/6399679?v=4",
        "gravatar_id": "",
        "url": "https://api.github.com/users/MarcoFalke",
        "html_url": "https://github.com/MarcoFalke",
        "followers_url": "https://api.github.com/users/MarcoFalke/followers",
        "following_url": "https://api.github.com/users/MarcoFalke/following%7B/other_user%7D",
        "gists_url": "https://api.github.com/users/MarcoFalke/gists%7B/gist_id%7D",
        "starred_url": "https://api.github.com/users/MarcoFalke/starred%7B/owner%7D%7B/repo%7D",
        "subscriptions_url": "https://api.github.com/users/MarcoFalke/subscriptions",
        "organizations_url": "https://api.github.com/users/MarcoFalke/orgs",
        "repos_url": "https://api.github.com/users/MarcoFalke/repos",
        "events_url": "https://api.github.com/users/MarcoFalke/events%7B/privacy%7D",
        "received_events_url": "https://api.github.com/users/MarcoFalke/received_events",
        "type": "User",
        "site_admin": false
      },
      "commit_id": null,
      "commit_url": null,
      "created_at": "2023-01-20T09:36:59Z",
      "updated_at": "2023-01-20T09:36:59Z",
      "author_association": "MEMBER",
      "body": "Very nice.\r\n\r\nre-ACK 3d1a4d8a45cd91bdfe0ef107c2e9c5e882b34155 🌷\r\n\r\n<details><summary>Show signature</summary>\r\n\r\nSignature:\r\n\r\n```\r\n-----BEGIN PGP SIGNED MESSAGE-----\r\nHash: SHA512\r\n\r\nre-ACK 3d1a4d8a45cd91bdfe0ef107c2e9c5e882b34155 🌷\r\n-----BEGIN PGP SIGNATURE-----\r\n\r\niQGzBAEBCgAdFiEE+rVPoUahrI9sLGYTzit1aX5ppUgFAlwqrYAACgkQzit1aX5p\r\npUh5ogwAqFK3gSDeY/HTfF78yN2cKwY7LyA3KhtWtki4DRFiJ9ouLVEnvo+U+n9S\r\njLrNMgMC9j3m79ra7xKG4chBq0mQDiMSO3aLvJNDt/elq9gJLUHjL9fW/0ZaTdlb\r\njSNOWjZ+PjycMg45K1yLTVEa8QS+1tCoF6yb+80lCXWWZvLn34iTp5FB7OM/V7kL\r\nltZRJ5uQFg0k4rR05C7m6ovr1h9XrvEEEd7sUV7ODrHKRHEKRTZsMOJZEC6LT02a\r\nxQi92XHQOtxMynXMNPlJEFEr9SRtvumukkbLrV1v4WJB8rcaUlmV7PCKHpB2OHoJ\r\nJIZe7tjNNxxF1wMgMJkHBWT6X+ZGXMkd5QqYcxuj1Jyz6hw++HVkgHg8Ectiu7zx\r\ngMh3efJWD2XUp8DGSvxw31AVV/xcNLz54eSazTS4B42lDYL8ikA+3AVg5bjkRZkI\r\nDCjmFQH56tzc61OKo3ROQC2/cf4pO35i91zijCWmcGMFhYx3/Ln+F7P6pChqHZ1o\r\nOYXNIklr\r\n=nm1n\r\n-----END PGP SIGNATURE-----\r\n```\r\n\r\n\r\n</details>\r\n",
      "user": {
        "login": "MarcoFalke",
        "id": 6399679,
        "node_id": "MDQ6VXNlcjYzOTk2Nzk=",
        "avatar_url": "https://avatars.githubusercontent.com/u/6399679?v=4",
        "gravatar_id": "",
        "url": "https://api.github.com/users/MarcoFalke",
        "html_url": "https://github.com/MarcoFalke",
        "followers_url": "https://api.github.com/users/MarcoFalke/followers",
        "following_url": "https://api.github.com/users/MarcoFalke/following%7B/other_user%7D",
        "gists_url": "https://api.github.com/users/MarcoFalke/gists%7B/gist_id%7D",
        "starred_url": "https://api.github.com/users/MarcoFalke/starred%7B/owner%7D%7B/repo%7D",
        "subscriptions_url": "https://api.github.com/users/MarcoFalke/subscriptions",
        "organizations_url": "https://api.github.com/users/MarcoFalke/orgs",
        "repos_url": "https://api.github.com/users/MarcoFalke/repos",
        "events_url": "https://api.github.com/users/MarcoFalke/events%7B/privacy%7D",
        "received_events_url": "https://api.github.com/users/MarcoFalke/received_events",
        "type": "User",
        "site_admin": false
      },
      "html_url": "https://github.com/bitcoin/bitcoin/pull/26887#issuecomment-1398136056",
      "issue_url": "https://api.github.com/repos/bitcoin/bitcoin/issues/26887"
    },
    {
      "event": "merged",
      "id": 8319810060,
      "node_id": "ME_lADOABII585bU1IbzwAAAAHv5joM",
      "url": "https://api.github.com/repos/bitcoin/bitcoin/issues/events/8319810060",
      "actor": {
        "login": "MarcoFalke",
        "id": 6399679,
        "node_id": "MDQ6VXNlcjYzOTk2Nzk=",
        "avatar_url": "https://avatars.githubusercontent.com/u/6399679?v=4",
        "gravatar_id": "",
        "url": "https://api.github.com/users/MarcoFalke",
        "html_url": "https://github.com/MarcoFalke",
        "followers_url": "https://api.github.com/users/MarcoFalke/followers",
        "following_url": "https://api.github.com/users/MarcoFalke/following%7B/other_user%7D",
        "gists_url": "https://api.github.com/users/MarcoFalke/gists%7B/gist_id%7D",
        "starred_url": "https://api.github.com/users/MarcoFalke/starred%7B/owner%7D%7B/repo%7D",
        "subscriptions_url": "https://api.github.com/users/MarcoFalke/subscriptions",
        "organizations_url": "https://api.github.com/users/MarcoFalke/orgs",
        "repos_url": "https://api.github.com/users/MarcoFalke/repos",
        "events_url": "https://api.github.com/users/MarcoFalke/events%7B/privacy%7D",
        "received_events_url": "https://api.github.com/users/MarcoFalke/received_events",
        "type": "User",
        "site_admin": false
      },
      "commit_id": "eebc24bfc6d2d809952e27c7fe269452f319455f",
      "commit_url": "https://api.github.com/repos/bitcoin/bitcoin/commits/eebc24bfc6d2d809952e27c7fe269452f319455f",
      "created_at": "2023-01-20T09:39:41Z"
    },
    {
      "event": "closed",
      "id": 8319810093,
      "node_id": "CE_lADOABII585bU1IbzwAAAAHv5jot",
      "url": "https://api.github.com/repos/bitcoin/bitcoin/issues/events/8319810093",
      "actor": {
        "login": "MarcoFalke",
        "id": 6399679,
        "node_id": "MDQ6VXNlcjYzOTk2Nzk=",
        "avatar_url": "https://avatars.githubusercontent.com/u/6399679?v=4",
        "gravatar_id": "",
        "url": "https://api.github.com/users/MarcoFalke",
        "html_url": "https://github.com/MarcoFalke",
        "followers_url": "https://api.github.com/users/MarcoFalke/followers",
        "following_url": "https://api.github.com/users/MarcoFalke/following%7B/other_user%7D",
        "gists_url": "https://api.github.com/users/MarcoFalke/gists%7B/gist_id%7D",
        "starred_url": "https://api.github.com/users/MarcoFalke/starred%7B/owner%7D%7B/repo%7D",
        "subscriptions_url": "https://api.github.com/users/MarcoFalke/subscriptions",
        "organizations_url": "https://api.github.com/users/MarcoFalke/orgs",
        "repos_url": "https://api.github.com/users/MarcoFalke/repos",
        "events_url": "https://api.github.com/users/MarcoFalke/events%7B/privacy%7D",
        "received_events_url": "https://api.github.com/users/MarcoFalke/received_events",
        "type": "User",
        "site_admin": false
      },
      "commit_id": null,
      "commit_url": null,
      "created_at": "2023-01-20T09:39:41Z"
    },
    {
      "event": "reviewed",
      "id": 1263323320,
      "node_id": "PRR_kwDOABII585LTMi4",
      "url": null,
      "actor": null,
      "commit_id": "3d1a4d8a45cd91bdfe0ef107c2e9c5e882b34155",
      "commit_url": null,
      "created_at": null,
      "author_association": "MEMBER",
      "user": {
        "login": "MarcoFalke",
        "id": 6399679,
        "node_id": "MDQ6VXNlcjYzOTk2Nzk=",
        "avatar_url": "https://avatars.githubusercontent.com/u/6399679?v=4",
        "gravatar_id": "",
        "url": "https://api.github.com/users/MarcoFalke",
        "html_url": "https://github.com/MarcoFalke",
        "followers_url": "https://api.github.com/users/MarcoFalke/followers",
        "following_url": "https://api.github.com/users/MarcoFalke/following%7B/other_user%7D",
        "gists_url": "https://api.github.com/users/MarcoFalke/gists%7B/gist_id%7D",
        "starred_url": "https://api.github.com/users/MarcoFalke/starred%7B/owner%7D%7B/repo%7D",
        "subscriptions_url": "https://api.github.com/users/MarcoFalke/subscriptions",
        "organizations_url": "https://api.github.com/users/MarcoFalke/orgs",
        "repos_url": "https://api.github.com/users/MarcoFalke/repos",
        "events_url": "https://api.github.com/users/MarcoFalke/events%7B/privacy%7D",
        "received_events_url": "https://api.github.com/users/MarcoFalke/received_events",
        "type": "User",
        "site_admin": false
      },
      "html_url": "https://github.com/bitcoin/bitcoin/pull/26887#pullrequestreview-1263323320",
      "submitted_at": "2023-01-20T10:50:15Z",
      "state": "COMMENTED",
      "pull_request_url": "https://api.github.com/repos/bitcoin/bitcoin/pulls/26887"
    },
    {
      "event": "referenced",
      "id": 8322793268,
      "node_id": "REFE_lADOABII585bU1IbzwAAAAHwE780",
      "url": "https://api.github.com/repos/bitcoin/bitcoin/issues/events/8322793268",
      "actor": {
        "login": "sidhujag",
        "id": 6238042,
        "node_id": "MDQ6VXNlcjYyMzgwNDI=",
        "avatar_url": "https://avatars.githubusercontent.com/u/6238042?v=4",
        "gravatar_id": "",
        "url": "https://api.github.com/users/sidhujag",
        "html_url": "https://github.com/sidhujag",
        "followers_url": "https://api.github.com/users/sidhujag/followers",
        "following_url": "https://api.github.com/users/sidhujag/following%7B/other_user%7D",
        "gists_url": "https://api.github.com/users/sidhujag/gists%7B/gist_id%7D",
        "starred_url": "https://api.github.com/users/sidhujag/starred%7B/owner%7D%7B/repo%7D",
        "subscriptions_url": "https://api.github.com/users/sidhujag/subscriptions",
        "organizations_url": "https://api.github.com/users/sidhujag/orgs",
        "repos_url": "https://api.github.com/users/sidhujag/repos",
        "events_url": "https://api.github.com/users/sidhujag/events%7B/privacy%7D",
        "received_events_url": "https://api.github.com/users/sidhujag/received_events",
        "type": "User",
        "site_admin": false
      },
      "commit_id": "11fb1d2c797872107d2ca8746757bcaa1686c0f5",
      "commit_url": "https://api.github.com/repos/syscoin/syscoin/commits/11fb1d2c797872107d2ca8746757bcaa1686c0f5",
      "created_at": "2023-01-20T15:56:18Z"
    }
  ],
  "comments": [
    {
      "url": "https://api.github.com/repos/bitcoin/bitcoin/pulls/comments/1069366976",
      "pull_request_review_id": 1247554474,
      "id": 1069366976,
      "node_id": "PRRC_kwDOABII584_vT7A",
      "diff_hunk": "@@ -324,8 +324,11 @@ struct RPCResult {\n     std::string ToStringObj() const;\n     /** Return the description string, including the result type. */\n     std::string ToDescriptionString() const;\n-    /** Check whether the result JSON type matches. */\n-    bool MatchesType(const UniValue& result) const;\n+    /** Check whether the result JSON type matches.\n+     * Returns value where .isTrue() passes is type matches,\n+     * or object describind error(s) if not.",
      "path": "src/rpc/util.h",
      "position": null,
      "original_position": 8,
      "commit_id": "3d1a4d8a45cd91bdfe0ef107c2e9c5e882b34155",
      "original_commit_id": "2a92980593e8336e0646324af76c729f93523f9d",
      "in_reply_to_id": null,
      "user": {
        "login": "MarcoFalke",
        "id": 6399679,
        "node_id": "MDQ6VXNlcjYzOTk2Nzk=",
        "avatar_url": "https://avatars.githubusercontent.com/u/6399679?v=4",
        "gravatar_id": "",
        "url": "https://api.github.com/users/MarcoFalke",
        "html_url": "https://github.com/MarcoFalke",
        "followers_url": "https://api.github.com/users/MarcoFalke/followers",
        "following_url": "https://api.github.com/users/MarcoFalke/following%7B/other_user%7D",
        "gists_url": "https://api.github.com/users/MarcoFalke/gists%7B/gist_id%7D",
        "starred_url": "https://api.github.com/users/MarcoFalke/starred%7B/owner%7D%7B/repo%7D",
        "subscriptions_url": "https://api.github.com/users/MarcoFalke/subscriptions",
        "organizations_url": "https://api.github.com/users/MarcoFalke/orgs",
        "repos_url": "https://api.github.com/users/MarcoFalke/repos",
        "events_url": "https://api.github.com/users/MarcoFalke/events%7B/privacy%7D",
        "received_events_url": "https://api.github.com/users/MarcoFalke/received_events",
        "type": "User",
        "site_admin": false
      },
      "body": "```suggestion\r\n     * or object describing error(s) if not.\r\n```",
      "created_at": "2023-01-13T12:24:13Z",
      "updated_at": "2023-01-13T12:25:26Z",
      "html_url": "https://github.com/bitcoin/bitcoin/pull/26887#discussion_r1069366976",
      "author_association": "MEMBER",
      "_links": {
        "self": {
          "href": "https://api.github.com/repos/bitcoin/bitcoin/pulls/comments/1069366976"
        },
        "pull_request": {
          "href": "https://api.github.com/repos/bitcoin/bitcoin/pulls/26887"
        }
      },
      "start_line": null,
      "original_start_line": null,
      "start_side": null,
      "line": null,
      "original_line": 329,
      "side": "RIGHT"
    },
    {
      "url": "https://api.github.com/repos/bitcoin/bitcoin/pulls/comments/1069368099",
      "pull_request_review_id": 1247554474,
      "id": 1069368099,
      "node_id": "PRRC_kwDOABII584_vUMj",
      "diff_hunk": "@@ -2,6 +2,7 @@\n // Distributed under the MIT software license, see the accompanying\n // file COPYING or http://www.opensource.org/licenses/mit-license.php.\n \n+#include <clientversion.h>",
      "path": "src/rpc/util.cpp",
      "position": 4,
      "original_position": 4,
      "commit_id": "3d1a4d8a45cd91bdfe0ef107c2e9c5e882b34155",
      "original_commit_id": "2a92980593e8336e0646324af76c729f93523f9d",
      "in_reply_to_id": null,
      "user": {
        "login": "MarcoFalke",
        "id": 6399679,
        "node_id": "MDQ6VXNlcjYzOTk2Nzk=",
        "avatar_url": "https://avatars.githubusercontent.com/u/6399679?v=4",
        "gravatar_id": "",
        "url": "https://api.github.com/users/MarcoFalke",
        "html_url": "https://github.com/MarcoFalke",
        "followers_url": "https://api.github.com/users/MarcoFalke/followers",
        "following_url": "https://api.github.com/users/MarcoFalke/following%7B/other_user%7D",
        "gists_url": "https://api.github.com/users/MarcoFalke/gists%7B/gist_id%7D",
        "starred_url": "https://api.github.com/users/MarcoFalke/starred%7B/owner%7D%7B/repo%7D",
        "subscriptions_url": "https://api.github.com/users/MarcoFalke/subscriptions",
        "organizations_url": "https://api.github.com/users/MarcoFalke/orgs",
        "repos_url": "https://api.github.com/users/MarcoFalke/repos",
        "events_url": "https://api.github.com/users/MarcoFalke/events%7B/privacy%7D",
        "received_events_url": "https://api.github.com/users/MarcoFalke/received_events",
        "type": "User",
        "site_admin": false
      },
      "body": "Not sure. Wouldn't it be better to use one of the existing checks or formatters from `util/check`?",
      "created_at": "2023-01-13T12:25:05Z",
      "updated_at": "2023-01-13T12:25:26Z",
      "html_url": "https://github.com/bitcoin/bitcoin/pull/26887#discussion_r1069368099",
      "author_association": "MEMBER",
      "_links": {
        "self": {
          "href": "https://api.github.com/repos/bitcoin/bitcoin/pulls/comments/1069368099"
        },
        "pull_request": {
          "href": "https://api.github.com/repos/bitcoin/bitcoin/pulls/26887"
        }
      },
      "start_line": null,
      "original_start_line": null,
      "start_side": null,
      "line": 5,
      "original_line": 5,
      "side": "RIGHT"
    },
    {
      "url": "https://api.github.com/repos/bitcoin/bitcoin/pulls/comments/1069428526",
      "pull_request_review_id": 1247610646,
      "id": 1069428526,
      "node_id": "PRRC_kwDOABII584_vi8u",
      "diff_hunk": "@@ -2,6 +2,7 @@\n // Distributed under the MIT software license, see the accompanying\n // file COPYING or http://www.opensource.org/licenses/mit-license.php.\n \n+#include <clientversion.h>",
      "path": "src/rpc/util.cpp",
      "position": 4,
      "original_position": 4,
      "commit_id": "3d1a4d8a45cd91bdfe0ef107c2e9c5e882b34155",
      "original_commit_id": "2a92980593e8336e0646324af76c729f93523f9d",
      "in_reply_to_id": 1069368099,
      "user": {
        "login": "ajtowns",
        "id": 127186,
        "node_id": "MDQ6VXNlcjEyNzE4Ng==",
        "avatar_url": "https://avatars.githubusercontent.com/u/127186?v=4",
        "gravatar_id": "",
        "url": "https://api.github.com/users/ajtowns",
        "html_url": "https://github.com/ajtowns",
        "followers_url": "https://api.github.com/users/ajtowns/followers",
        "following_url": "https://api.github.com/users/ajtowns/following%7B/other_user%7D",
        "gists_url": "https://api.github.com/users/ajtowns/gists%7B/gist_id%7D",
        "starred_url": "https://api.github.com/users/ajtowns/starred%7B/owner%7D%7B/repo%7D",
        "subscriptions_url": "https://api.github.com/users/ajtowns/subscriptions",
        "organizations_url": "https://api.github.com/users/ajtowns/orgs",
        "repos_url": "https://api.github.com/users/ajtowns/repos",
        "events_url": "https://api.github.com/users/ajtowns/events%7B/privacy%7D",
        "received_events_url": "https://api.github.com/users/ajtowns/received_events",
        "type": "User",
        "site_admin": false
      },
      "body": "Maybe? Could just use `StrFormatInternalBug` I guess, but the file/line/func info would be kind of misleading as to where the bug is?\r\n\r\n(As it is, it backports cleanly to 24.0, which was convenient for what I was trying to debug)",
      "created_at": "2023-01-13T13:09:38Z",
      "updated_at": "2023-01-13T13:09:39Z",
      "html_url": "https://github.com/bitcoin/bitcoin/pull/26887#discussion_r1069428526",
      "author_association": "CONTRIBUTOR",
      "_links": {
        "self": {
          "href": "https://api.github.com/repos/bitcoin/bitcoin/pulls/comments/1069428526"
        },
        "pull_request": {
          "href": "https://api.github.com/repos/bitcoin/bitcoin/pulls/26887"
        }
      },
      "start_line": null,
      "original_start_line": null,
      "start_side": null,
      "line": 5,
      "original_line": 5,
      "side": "RIGHT"
    },
    {
      "url": "https://api.github.com/repos/bitcoin/bitcoin/pulls/comments/1073667816",
      "pull_request_review_id": 1253681143,
      "id": 1073667816,
      "node_id": "PRRC_kwDOABII584__t7o",
      "diff_hunk": "@@ -324,8 +324,11 @@ struct RPCResult {\n     std::string ToStringObj() const;\n     /** Return the description string, including the result type. */\n     std::string ToDescriptionString() const;\n-    /** Check whether the result JSON type matches. */\n-    bool MatchesType(const UniValue& result) const;\n+    /** Check whether the result JSON type matches.\n+     * Returns value where .isTrue() passes is type matches,",
      "path": "src/rpc/util.h",
      "position": null,
      "original_position": 7,
      "commit_id": "3d1a4d8a45cd91bdfe0ef107c2e9c5e882b34155",
      "original_commit_id": "94adb442fac9da04063a57897b44a9623c4fe39e",
      "in_reply_to_id": null,
      "user": {
        "login": "MarcoFalke",
        "id": 6399679,
        "node_id": "MDQ6VXNlcjYzOTk2Nzk=",
        "avatar_url": "https://avatars.githubusercontent.com/u/6399679?v=4",
        "gravatar_id": "",
        "url": "https://api.github.com/users/MarcoFalke",
        "html_url": "https://github.com/MarcoFalke",
        "followers_url": "https://api.github.com/users/MarcoFalke/followers",
        "following_url": "https://api.github.com/users/MarcoFalke/following%7B/other_user%7D",
        "gists_url": "https://api.github.com/users/MarcoFalke/gists%7B/gist_id%7D",
        "starred_url": "https://api.github.com/users/MarcoFalke/starred%7B/owner%7D%7B/repo%7D",
        "subscriptions_url": "https://api.github.com/users/MarcoFalke/subscriptions",
        "organizations_url": "https://api.github.com/users/MarcoFalke/orgs",
        "repos_url": "https://api.github.com/users/MarcoFalke/repos",
        "events_url": "https://api.github.com/users/MarcoFalke/events%7B/privacy%7D",
        "received_events_url": "https://api.github.com/users/MarcoFalke/received_events",
        "type": "User",
        "site_admin": false
      },
      "body": "```suggestion\r\n     * Returns true if type matches,\r\n```\r\n\r\nnit: Use simple English?",
      "created_at": "2023-01-18T15:13:52Z",
      "updated_at": "2023-01-18T15:43:25Z",
      "html_url": "https://github.com/bitcoin/bitcoin/pull/26887#discussion_r1073667816",
      "author_association": "MEMBER",
      "_links": {
        "self": {
          "href": "https://api.github.com/repos/bitcoin/bitcoin/pulls/comments/1073667816"
        },
        "pull_request": {
          "href": "https://api.github.com/repos/bitcoin/bitcoin/pulls/26887"
        }
      },
      "start_line": null,
      "original_start_line": null,
      "start_side": null,
      "line": null,
      "original_line": 328,
      "side": "RIGHT"
    },
    {
      "url": "https://api.github.com/repos/bitcoin/bitcoin/pulls/comments/1073689077",
      "pull_request_review_id": 1253681143,
      "id": 1073689077,
      "node_id": "PRRC_kwDOABII584__zH1",
      "diff_hunk": "@@ -860,53 +880,75 @@ void RPCResult::ToSections(Sections& sections, const OuterType outer_type, const\n     NONFATAL_UNREACHABLE();\n }\n \n-bool RPCResult::MatchesType(const UniValue& result) const\n+static const std::optional<UniValue::VType> ExpectedType(RPCResult::Type type)\n {\n-    if (m_skip_type_check) {\n-        return true;\n+    switch (type) {\n+    case RPCResult::Type::ELISION:",
      "path": "src/rpc/util.cpp",
      "position": null,
      "original_position": 46,
      "commit_id": "3d1a4d8a45cd91bdfe0ef107c2e9c5e882b34155",
      "original_commit_id": "94adb442fac9da04063a57897b44a9623c4fe39e",
      "in_reply_to_id": null,
      "user": {
        "login": "MarcoFalke",
        "id": 6399679,
        "node_id": "MDQ6VXNlcjYzOTk2Nzk=",
        "avatar_url": "https://avatars.githubusercontent.com/u/6399679?v=4",
        "gravatar_id": "",
        "url": "https://api.github.com/users/MarcoFalke",
        "html_url": "https://github.com/MarcoFalke",
        "followers_url": "https://api.github.com/users/MarcoFalke/followers",
        "following_url": "https://api.github.com/users/MarcoFalke/following%7B/other_user%7D",
        "gists_url": "https://api.github.com/users/MarcoFalke/gists%7B/gist_id%7D",
        "starred_url": "https://api.github.com/users/MarcoFalke/starred%7B/owner%7D%7B/repo%7D",
        "subscriptions_url": "https://api.github.com/users/MarcoFalke/subscriptions",
        "organizations_url": "https://api.github.com/users/MarcoFalke/orgs",
        "repos_url": "https://api.github.com/users/MarcoFalke/repos",
        "events_url": "https://api.github.com/users/MarcoFalke/events%7B/privacy%7D",
        "received_events_url": "https://api.github.com/users/MarcoFalke/received_events",
        "type": "User",
        "site_admin": false
      },
      "body": "```suggestion\r\n    using Type = RPCResult::Type;\r\n    switch (type) {\r\n    case Type::ELISION:\r\n```\r\n\r\nnit: not sure if it compiles, though",
      "created_at": "2023-01-18T15:27:49Z",
      "updated_at": "2023-01-18T15:43:25Z",
      "html_url": "https://github.com/bitcoin/bitcoin/pull/26887#discussion_r1073689077",
      "author_association": "MEMBER",
      "_links": {
        "self": {
          "href": "https://api.github.com/repos/bitcoin/bitcoin/pulls/comments/1073689077"
        },
        "pull_request": {
          "href": "https://api.github.com/repos/bitcoin/bitcoin/pulls/26887"
        }
      },
      "start_line": null,
      "original_start_line": 885,
      "start_side": "RIGHT",
      "line": null,
      "original_line": 886,
      "side": "RIGHT"
    },
    {
      "url": "https://api.github.com/repos/bitcoin/bitcoin/pulls/comments/1073696870",
      "pull_request_review_id": 1253681143,
      "id": 1073696870,
      "node_id": "PRRC_kwDOABII584__1Bm",
      "diff_hunk": "@@ -860,53 +880,75 @@ void RPCResult::ToSections(Sections& sections, const OuterType outer_type, const\n     NONFATAL_UNREACHABLE();\n }\n \n-bool RPCResult::MatchesType(const UniValue& result) const\n+static const std::optional<UniValue::VType> ExpectedType(RPCResult::Type type)\n {\n-    if (m_skip_type_check) {\n-        return true;\n+    switch (type) {\n+    case RPCResult::Type::ELISION:\n+    case RPCResult::Type::ANY: {\n+        return std::nullopt;\n     }\n-    switch (m_type) {\n-    case Type::ELISION:\n-    case Type::ANY: {\n-        return true;\n+    case RPCResult::Type::NONE: {\n+        return UniValue::VNULL;\n     }\n-    case Type::NONE: {\n-        return UniValue::VNULL == result.getType();\n+    case RPCResult::Type::STR:\n+    case RPCResult::Type::STR_HEX: {\n+        return UniValue::VSTR;\n     }\n-    case Type::STR:\n-    case Type::STR_HEX: {\n-        return UniValue::VSTR == result.getType();\n+    case RPCResult::Type::NUM:\n+    case RPCResult::Type::STR_AMOUNT:\n+    case RPCResult::Type::NUM_TIME: {\n+        return UniValue::VNUM;\n     }\n-    case Type::NUM:\n-    case Type::STR_AMOUNT:\n-    case Type::NUM_TIME: {\n-        return UniValue::VNUM == result.getType();\n+    case RPCResult::Type::BOOL: {\n+        return UniValue::VBOOL;\n     }\n-    case Type::BOOL: {\n-        return UniValue::VBOOL == result.getType();\n+    case RPCResult::Type::ARR_FIXED:\n+    case RPCResult::Type::ARR: {\n+        return UniValue::VARR;\n     }\n-    case Type::ARR_FIXED:\n-    case Type::ARR: {\n-        if (UniValue::VARR != result.getType()) return false;\n+    case RPCResult::Type::OBJ_DYN:\n+    case RPCResult::Type::OBJ: {\n+        return UniValue::VOBJ;\n+    }\n+    } // no default case, so the compiler can warn about missing cases\n+    NONFATAL_UNREACHABLE();\n+}\n+\n+UniValue RPCResult::MatchesType(const UniValue& result) const\n+{\n+    if (m_skip_type_check) {\n+        return true;\n+    }\n+\n+    const auto exp_type = ExpectedType(m_type);\n+    if (!exp_type) return true;\n+    if (*exp_type != result.getType()) {\n+        return strprintf(\"expected %s got %s\", uvTypeName(*exp_type), uvTypeName(result.getType()));\n+    }\n+\n+    if (UniValue::VARR == result.getType()) {\n+        UniValue errors(UniValue::VOBJ);\n         for (size_t i{0}; i < result.get_array().size(); ++i) {\n             // If there are more results than documented, re-use the last doc_inner.\n             const RPCResult& doc_inner{m_inner.at(std::min(m_inner.size() - 1, i))};\n-            if (!doc_inner.MatchesType(result.get_array()[i])) return false;\n+            UniValue match{doc_inner.MatchesType(result.get_array()[i]).isTrue()};",
      "path": "src/rpc/util.cpp",
      "position": null,
      "original_position": 113,
      "commit_id": "3d1a4d8a45cd91bdfe0ef107c2e9c5e882b34155",
      "original_commit_id": "94adb442fac9da04063a57897b44a9623c4fe39e",
      "in_reply_to_id": null,
      "user": {
        "login": "MarcoFalke",
        "id": 6399679,
        "node_id": "MDQ6VXNlcjYzOTk2Nzk=",
        "avatar_url": "https://avatars.githubusercontent.com/u/6399679?v=4",
        "gravatar_id": "",
        "url": "https://api.github.com/users/MarcoFalke",
        "html_url": "https://github.com/MarcoFalke",
        "followers_url": "https://api.github.com/users/MarcoFalke/followers",
        "following_url": "https://api.github.com/users/MarcoFalke/following%7B/other_user%7D",
        "gists_url": "https://api.github.com/users/MarcoFalke/gists%7B/gist_id%7D",
        "starred_url": "https://api.github.com/users/MarcoFalke/starred%7B/owner%7D%7B/repo%7D",
        "subscriptions_url": "https://api.github.com/users/MarcoFalke/subscriptions",
        "organizations_url": "https://api.github.com/users/MarcoFalke/orgs",
        "repos_url": "https://api.github.com/users/MarcoFalke/repos",
        "events_url": "https://api.github.com/users/MarcoFalke/events%7B/privacy%7D",
        "received_events_url": "https://api.github.com/users/MarcoFalke/received_events",
        "type": "User",
        "site_admin": false
      },
      "body": "```suggestion\r\n            UniValue match{doc_inner.MatchesType(result.get_array()[i])};\r\n```\r\n\r\n?",
      "created_at": "2023-01-18T15:33:29Z",
      "updated_at": "2023-01-18T15:43:25Z",
      "html_url": "https://github.com/bitcoin/bitcoin/pull/26887#discussion_r1073696870",
      "author_association": "MEMBER",
      "_links": {
        "self": {
          "href": "https://api.github.com/repos/bitcoin/bitcoin/pulls/comments/1073696870"
        },
        "pull_request": {
          "href": "https://api.github.com/repos/bitcoin/bitcoin/pulls/26887"
        }
      },
      "start_line": null,
      "original_start_line": null,
      "start_side": null,
      "line": null,
      "original_line": 934,
      "side": "RIGHT"
    },
    {
      "url": "https://api.github.com/repos/bitcoin/bitcoin/pulls/comments/1073701349",
      "pull_request_review_id": 1253681143,
      "id": 1073701349,
      "node_id": "PRRC_kwDOABII584__2Hl",
      "diff_hunk": "@@ -916,26 +958,26 @@ bool RPCResult::MatchesType(const UniValue& result) const\n         result.getObjMap(result_obj);\n         for (const auto& result_entry : result_obj) {\n             if (doc_keys.find(result_entry.first) == doc_keys.end()) {\n-                return false; // missing documentation\n+                errors.pushKV(result_entry.first, \"unexpected key\");",
      "path": "src/rpc/util.cpp",
      "position": null,
      "original_position": 147,
      "commit_id": "3d1a4d8a45cd91bdfe0ef107c2e9c5e882b34155",
      "original_commit_id": "94adb442fac9da04063a57897b44a9623c4fe39e",
      "in_reply_to_id": null,
      "user": {
        "login": "MarcoFalke",
        "id": 6399679,
        "node_id": "MDQ6VXNlcjYzOTk2Nzk=",
        "avatar_url": "https://avatars.githubusercontent.com/u/6399679?v=4",
        "gravatar_id": "",
        "url": "https://api.github.com/users/MarcoFalke",
        "html_url": "https://github.com/MarcoFalke",
        "followers_url": "https://api.github.com/users/MarcoFalke/followers",
        "following_url": "https://api.github.com/users/MarcoFalke/following%7B/other_user%7D",
        "gists_url": "https://api.github.com/users/MarcoFalke/gists%7B/gist_id%7D",
        "starred_url": "https://api.github.com/users/MarcoFalke/starred%7B/owner%7D%7B/repo%7D",
        "subscriptions_url": "https://api.github.com/users/MarcoFalke/subscriptions",
        "organizations_url": "https://api.github.com/users/MarcoFalke/orgs",
        "repos_url": "https://api.github.com/users/MarcoFalke/repos",
        "events_url": "https://api.github.com/users/MarcoFalke/events%7B/privacy%7D",
        "received_events_url": "https://api.github.com/users/MarcoFalke/received_events",
        "type": "User",
        "site_admin": false
      },
      "body": "```suggestion\r\n                errors.pushKV(result_entry.first, \"unexpected key: Returned key not found in doc\");\r\n```",
      "created_at": "2023-01-18T15:36:51Z",
      "updated_at": "2023-01-18T15:43:26Z",
      "html_url": "https://github.com/bitcoin/bitcoin/pull/26887#discussion_r1073701349",
      "author_association": "MEMBER",
      "_links": {
        "self": {
          "href": "https://api.github.com/repos/bitcoin/bitcoin/pulls/comments/1073701349"
        },
        "pull_request": {
          "href": "https://api.github.com/repos/bitcoin/bitcoin/pulls/26887"
        }
      },
      "start_line": null,
      "original_start_line": null,
      "start_side": null,
      "line": null,
      "original_line": 961,
      "side": "RIGHT"
    },
    {
      "url": "https://api.github.com/repos/bitcoin/bitcoin/pulls/comments/1073703392",
      "pull_request_review_id": 1253681143,
      "id": 1073703392,
      "node_id": "PRRC_kwDOABII584__2ng",
      "diff_hunk": "@@ -860,53 +880,75 @@ void RPCResult::ToSections(Sections& sections, const OuterType outer_type, const\n     NONFATAL_UNREACHABLE();\n }\n \n-bool RPCResult::MatchesType(const UniValue& result) const\n+static const std::optional<UniValue::VType> ExpectedType(RPCResult::Type type)\n {\n-    if (m_skip_type_check) {\n-        return true;\n+    switch (type) {\n+    case RPCResult::Type::ELISION:\n+    case RPCResult::Type::ANY: {\n+        return std::nullopt;\n     }\n-    switch (m_type) {\n-    case Type::ELISION:\n-    case Type::ANY: {\n-        return true;\n+    case RPCResult::Type::NONE: {\n+        return UniValue::VNULL;\n     }\n-    case Type::NONE: {\n-        return UniValue::VNULL == result.getType();\n+    case RPCResult::Type::STR:\n+    case RPCResult::Type::STR_HEX: {\n+        return UniValue::VSTR;\n     }\n-    case Type::STR:\n-    case Type::STR_HEX: {\n-        return UniValue::VSTR == result.getType();\n+    case RPCResult::Type::NUM:\n+    case RPCResult::Type::STR_AMOUNT:\n+    case RPCResult::Type::NUM_TIME: {\n+        return UniValue::VNUM;\n     }\n-    case Type::NUM:\n-    case Type::STR_AMOUNT:\n-    case Type::NUM_TIME: {\n-        return UniValue::VNUM == result.getType();\n+    case RPCResult::Type::BOOL: {\n+        return UniValue::VBOOL;\n     }\n-    case Type::BOOL: {\n-        return UniValue::VBOOL == result.getType();\n+    case RPCResult::Type::ARR_FIXED:\n+    case RPCResult::Type::ARR: {\n+        return UniValue::VARR;\n     }\n-    case Type::ARR_FIXED:\n-    case Type::ARR: {\n-        if (UniValue::VARR != result.getType()) return false;\n+    case RPCResult::Type::OBJ_DYN:\n+    case RPCResult::Type::OBJ: {\n+        return UniValue::VOBJ;\n+    }\n+    } // no default case, so the compiler can warn about missing cases\n+    NONFATAL_UNREACHABLE();\n+}\n+\n+UniValue RPCResult::MatchesType(const UniValue& result) const\n+{\n+    if (m_skip_type_check) {\n+        return true;\n+    }\n+\n+    const auto exp_type = ExpectedType(m_type);\n+    if (!exp_type) return true;\n+    if (*exp_type != result.getType()) {\n+        return strprintf(\"expected %s got %s\", uvTypeName(*exp_type), uvTypeName(result.getType()));",
      "path": "src/rpc/util.cpp",
      "position": null,
      "original_position": 104,
      "commit_id": "3d1a4d8a45cd91bdfe0ef107c2e9c5e882b34155",
      "original_commit_id": "94adb442fac9da04063a57897b44a9623c4fe39e",
      "in_reply_to_id": null,
      "user": {
        "login": "MarcoFalke",
        "id": 6399679,
        "node_id": "MDQ6VXNlcjYzOTk2Nzk=",
        "avatar_url": "https://avatars.githubusercontent.com/u/6399679?v=4",
        "gravatar_id": "",
        "url": "https://api.github.com/users/MarcoFalke",
        "html_url": "https://github.com/MarcoFalke",
        "followers_url": "https://api.github.com/users/MarcoFalke/followers",
        "following_url": "https://api.github.com/users/MarcoFalke/following%7B/other_user%7D",
        "gists_url": "https://api.github.com/users/MarcoFalke/gists%7B/gist_id%7D",
        "starred_url": "https://api.github.com/users/MarcoFalke/starred%7B/owner%7D%7B/repo%7D",
        "subscriptions_url": "https://api.github.com/users/MarcoFalke/subscriptions",
        "organizations_url": "https://api.github.com/users/MarcoFalke/orgs",
        "repos_url": "https://api.github.com/users/MarcoFalke/repos",
        "events_url": "https://api.github.com/users/MarcoFalke/events%7B/privacy%7D",
        "received_events_url": "https://api.github.com/users/MarcoFalke/received_events",
        "type": "User",
        "site_admin": false
      },
      "body": "```suggestion\r\n        return strprintf(\"documented type is %s, but returned %s\", uvTypeName(*exp_type), uvTypeName(result.getType()));\r\n```",
      "created_at": "2023-01-18T15:38:25Z",
      "updated_at": "2023-01-18T15:43:26Z",
      "html_url": "https://github.com/bitcoin/bitcoin/pull/26887#discussion_r1073703392",
      "author_association": "MEMBER",
      "_links": {
        "self": {
          "href": "https://api.github.com/repos/bitcoin/bitcoin/pulls/comments/1073703392"
        },
        "pull_request": {
          "href": "https://api.github.com/repos/bitcoin/bitcoin/pulls/26887"
        }
      },
      "start_line": null,
      "original_start_line": null,
      "start_side": null,
      "line": null,
      "original_line": 926,
      "side": "RIGHT"
    },
    {
      "url": "https://api.github.com/repos/bitcoin/bitcoin/pulls/comments/1073705316",
      "pull_request_review_id": 1253681143,
      "id": 1073705316,
      "node_id": "PRRC_kwDOABII584__3Fk",
      "diff_hunk": "@@ -916,26 +958,26 @@ bool RPCResult::MatchesType(const UniValue& result) const\n         result.getObjMap(result_obj);\n         for (const auto& result_entry : result_obj) {\n             if (doc_keys.find(result_entry.first) == doc_keys.end()) {\n-                return false; // missing documentation\n+                errors.pushKV(result_entry.first, \"unexpected key\");\n             }\n         }\n \n         for (const auto& doc_entry : m_inner) {\n             const auto result_it{result_obj.find(doc_entry.m_key_name)};\n             if (result_it == result_obj.end()) {\n                 if (!doc_entry.m_optional) {\n-                    return false; // result is missing a required key\n+                    errors.pushKV(doc_entry.m_key_name, \"non-optional key missing\");",
      "path": "src/rpc/util.cpp",
      "position": null,
      "original_position": 156,
      "commit_id": "3d1a4d8a45cd91bdfe0ef107c2e9c5e882b34155",
      "original_commit_id": "94adb442fac9da04063a57897b44a9623c4fe39e",
      "in_reply_to_id": null,
      "user": {
        "login": "MarcoFalke",
        "id": 6399679,
        "node_id": "MDQ6VXNlcjYzOTk2Nzk=",
        "avatar_url": "https://avatars.githubusercontent.com/u/6399679?v=4",
        "gravatar_id": "",
        "url": "https://api.github.com/users/MarcoFalke",
        "html_url": "https://github.com/MarcoFalke",
        "followers_url": "https://api.github.com/users/MarcoFalke/followers",
        "following_url": "https://api.github.com/users/MarcoFalke/following%7B/other_user%7D",
        "gists_url": "https://api.github.com/users/MarcoFalke/gists%7B/gist_id%7D",
        "starred_url": "https://api.github.com/users/MarcoFalke/starred%7B/owner%7D%7B/repo%7D",
        "subscriptions_url": "https://api.github.com/users/MarcoFalke/subscriptions",
        "organizations_url": "https://api.github.com/users/MarcoFalke/orgs",
        "repos_url": "https://api.github.com/users/MarcoFalke/repos",
        "events_url": "https://api.github.com/users/MarcoFalke/events%7B/privacy%7D",
        "received_events_url": "https://api.github.com/users/MarcoFalke/received_events",
        "type": "User",
        "site_admin": false
      },
      "body": "```suggestion\r\n                    errors.pushKV(doc_entry.m_key_name, \"Key is documented as required, but missing from the result\");\r\n```",
      "created_at": "2023-01-18T15:39:50Z",
      "updated_at": "2023-01-18T15:43:26Z",
      "html_url": "https://github.com/bitcoin/bitcoin/pull/26887#discussion_r1073705316",
      "author_association": "MEMBER",
      "_links": {
        "self": {
          "href": "https://api.github.com/repos/bitcoin/bitcoin/pulls/comments/1073705316"
        },
        "pull_request": {
          "href": "https://api.github.com/repos/bitcoin/bitcoin/pulls/26887"
        }
      },
      "start_line": null,
      "original_start_line": null,
      "start_side": null,
      "line": null,
      "original_line": 969,
      "side": "RIGHT"
    },
    {
      "url": "https://api.github.com/repos/bitcoin/bitcoin/pulls/comments/1082356752",
      "pull_request_review_id": 1263323320,
      "id": 1082356752,
      "node_id": "PRRC_kwDOABII585Ag3QQ",
      "diff_hunk": "@@ -860,53 +880,77 @@ void RPCResult::ToSections(Sections& sections, const OuterType outer_type, const\n     NONFATAL_UNREACHABLE();\n }\n \n-bool RPCResult::MatchesType(const UniValue& result) const\n+static const std::optional<UniValue::VType> ExpectedType(RPCResult::Type type)",
      "path": "src/rpc/util.cpp",
      "position": 41,
      "original_position": 41,
      "commit_id": "3d1a4d8a45cd91bdfe0ef107c2e9c5e882b34155",
      "original_commit_id": "3d1a4d8a45cd91bdfe0ef107c2e9c5e882b34155",
      "in_reply_to_id": null,
      "user": {
        "login": "MarcoFalke",
        "id": 6399679,
        "node_id": "MDQ6VXNlcjYzOTk2Nzk=",
        "avatar_url": "https://avatars.githubusercontent.com/u/6399679?v=4",
        "gravatar_id": "",
        "url": "https://api.github.com/users/MarcoFalke",
        "html_url": "https://github.com/MarcoFalke",
        "followers_url": "https://api.github.com/users/MarcoFalke/followers",
        "following_url": "https://api.github.com/users/MarcoFalke/following%7B/other_user%7D",
        "gists_url": "https://api.github.com/users/MarcoFalke/gists%7B/gist_id%7D",
        "starred_url": "https://api.github.com/users/MarcoFalke/starred%7B/owner%7D%7B/repo%7D",
        "subscriptions_url": "https://api.github.com/users/MarcoFalke/subscriptions",
        "organizations_url": "https://api.github.com/users/MarcoFalke/orgs",
        "repos_url": "https://api.github.com/users/MarcoFalke/repos",
        "events_url": "https://api.github.com/users/MarcoFalke/events%7B/privacy%7D",
        "received_events_url": "https://api.github.com/users/MarcoFalke/received_events",
        "type": "User",
        "site_admin": false
      },
      "body": "nit: `const` is confusing and thus wrong?",
      "created_at": "2023-01-20T10:50:15Z",
      "updated_at": "2023-01-20T10:50:15Z",
      "html_url": "https://github.com/bitcoin/bitcoin/pull/26887#discussion_r1082356752",
      "author_association": "MEMBER",
      "_links": {
        "self": {
          "href": "https://api.github.com/repos/bitcoin/bitcoin/pulls/comments/1082356752"
        },
        "pull_request": {
          "href": "https://api.github.com/repos/bitcoin/bitcoin/pulls/26887"
        }
      },
      "start_line": null,
      "original_start_line": null,
      "start_side": null,
      "line": 883,
      "original_line": 883,
      "side": "RIGHT"
    },
    {
      "url": "https://api.github.com/repos/bitcoin/bitcoin/pulls/comments/1082376643",
      "pull_request_review_id": 1263371194,
      "id": 1082376643,
      "node_id": "PRRC_kwDOABII585Ag8HD",
      "diff_hunk": "@@ -860,53 +880,77 @@ void RPCResult::ToSections(Sections& sections, const OuterType outer_type, const\n     NONFATAL_UNREACHABLE();\n }\n \n-bool RPCResult::MatchesType(const UniValue& result) const\n+static const std::optional<UniValue::VType> ExpectedType(RPCResult::Type type)",
      "path": "src/rpc/util.cpp",
      "position": 41,
      "original_position": 41,
      "commit_id": "3d1a4d8a45cd91bdfe0ef107c2e9c5e882b34155",
      "original_commit_id": "3d1a4d8a45cd91bdfe0ef107c2e9c5e882b34155",
      "in_reply_to_id": 1082356752,
      "user": {
        "login": "MarcoFalke",
        "id": 6399679,
        "node_id": "MDQ6VXNlcjYzOTk2Nzk=",
        "avatar_url": "https://avatars.githubusercontent.com/u/6399679?v=4",
        "gravatar_id": "",
        "url": "https://api.github.com/users/MarcoFalke",
        "html_url": "https://github.com/MarcoFalke",
        "followers_url": "https://api.github.com/users/MarcoFalke/followers",
        "following_url": "https://api.github.com/users/MarcoFalke/following%7B/other_user%7D",
        "gists_url": "https://api.github.com/users/MarcoFalke/gists%7B/gist_id%7D",
        "starred_url": "https://api.github.com/users/MarcoFalke/starred%7B/owner%7D%7B/repo%7D",
        "subscriptions_url": "https://api.github.com/users/MarcoFalke/subscriptions",
        "organizations_url": "https://api.github.com/users/MarcoFalke/orgs",
        "repos_url": "https://api.github.com/users/MarcoFalke/repos",
        "events_url": "https://api.github.com/users/MarcoFalke/events%7B/privacy%7D",
        "received_events_url": "https://api.github.com/users/MarcoFalke/received_events",
        "type": "User",
        "site_admin": false
      },
      "body": "Done in https://github.com/bitcoin/bitcoin/pull/26929",
      "created_at": "2023-01-20T11:12:49Z",
      "updated_at": "2023-01-20T11:12:50Z",
      "html_url": "https://github.com/bitcoin/bitcoin/pull/26887#discussion_r1082376643",
      "author_association": "MEMBER",
      "_links": {
        "self": {
          "href": "https://api.github.com/repos/bitcoin/bitcoin/pulls/comments/1082376643"
        },
        "pull_request": {
          "href": "https://api.github.com/repos/bitcoin/bitcoin/pulls/26887"
        }
      },
      "start_line": null,
      "original_start_line": null,
      "start_side": null,
      "line": 883,
      "original_line": 883,
      "side": "RIGHT"
    }
  ]
}