{
  "type": "pull",
  "pull": {
    "url": "https://api.github.com/repos/bitcoin/bitcoin/pulls/26884",
    "id": 1196139623,
    "node_id": "PR_kwDOABII585HS6Rn",
    "html_url": "https://github.com/bitcoin/bitcoin/pull/26884",
    "diff_url": "https://github.com/bitcoin/bitcoin/pull/26884.diff",
    "patch_url": "https://github.com/bitcoin/bitcoin/pull/26884.patch",
    "issue_url": "https://api.github.com/repos/bitcoin/bitcoin/issues/26884",
    "commits_url": "https://api.github.com/repos/bitcoin/bitcoin/pulls/26884/commits",
    "review_comments_url": "https://api.github.com/repos/bitcoin/bitcoin/pulls/26884/comments",
    "review_comment_url": "https://api.github.com/repos/bitcoin/bitcoin/pulls/comments%7B/number%7D",
    "comments_url": "https://api.github.com/repos/bitcoin/bitcoin/issues/26884/comments",
    "statuses_url": "https://api.github.com/repos/bitcoin/bitcoin/statuses/603d29519931e6ab6a58db09b9d3eb9b355fe566",
    "number": 26884,
    "state": "closed",
    "locked": false,
    "maintainer_can_modify": false,
    "title": "test: wallet: add coverage for `-spendzeroconfchange` setting",
    "user": {
      "login": "theStack",
      "id": 91535,
      "node_id": "MDQ6VXNlcjkxNTM1",
      "avatar_url": "https://avatars.githubusercontent.com/u/91535?v=4",
      "gravatar_id": "",
      "url": "https://api.github.com/users/theStack",
      "html_url": "https://github.com/theStack",
      "followers_url": "https://api.github.com/users/theStack/followers",
      "following_url": "https://api.github.com/users/theStack/following%7B/other_user%7D",
      "gists_url": "https://api.github.com/users/theStack/gists%7B/gist_id%7D",
      "starred_url": "https://api.github.com/users/theStack/starred%7B/owner%7D%7B/repo%7D",
      "subscriptions_url": "https://api.github.com/users/theStack/subscriptions",
      "organizations_url": "https://api.github.com/users/theStack/orgs",
      "repos_url": "https://api.github.com/users/theStack/repos",
      "events_url": "https://api.github.com/users/theStack/events%7B/privacy%7D",
      "received_events_url": "https://api.github.com/users/theStack/received_events",
      "type": "User",
      "site_admin": false
    },
    "body": "This PR adds missing test coverage for the `-spendzeroconfchange` setting (in particular the non-default case `=0`). Note that in contrast to the name, the setting does not only apply to change outputs, but in fact to _all_ unconfirmed outputs that we sent to ourselves, i.e. we can trigger the testing path simply with a single recipient address. The first commit removes the setting from the functional test mempool_limit.py, where it doesn't have any effect, since the test was changed to use MiniWallet in commit dddca3899c4738e512313a85aeb006310e34e31f.",
    "labels": [
      {
        "id": 62963516,
        "node_id": "MDU6TGFiZWw2Mjk2MzUxNg==",
        "url": "https://api.github.com/repos/bitcoin/bitcoin/labels/Tests",
        "name": "Tests",
        "color": "d4c5f9",
        "default": false
      }
    ],
    "created_at": "2023-01-13T03:13:35Z",
    "updated_at": "2023-01-17T10:40:07Z",
    "closed_at": "2023-01-17T10:15:24Z",
    "mergeable_state": "unknown",
    "merged_at": "2023-01-17T10:15:24Z",
    "merge_commit_sha": "635f1900d048e41d18cc1df7e8305a5f397c87a3",
    "assignees": [],
    "requested_reviewers": [],
    "requested_teams": [],
    "head": {
      "label": "theStack:202301-test-add_nospendzeroconfchange_coverage",
      "ref": "202301-test-add_nospendzeroconfchange_coverage",
      "sha": "603d29519931e6ab6a58db09b9d3eb9b355fe566",
      "user": {
        "login": "theStack",
        "id": 91535,
        "node_id": "MDQ6VXNlcjkxNTM1",
        "avatar_url": "https://avatars.githubusercontent.com/u/91535?v=4",
        "gravatar_id": "",
        "url": "https://api.github.com/users/theStack",
        "html_url": "https://github.com/theStack",
        "followers_url": "https://api.github.com/users/theStack/followers",
        "following_url": "https://api.github.com/users/theStack/following%7B/other_user%7D",
        "gists_url": "https://api.github.com/users/theStack/gists%7B/gist_id%7D",
        "starred_url": "https://api.github.com/users/theStack/starred%7B/owner%7D%7B/repo%7D",
        "subscriptions_url": "https://api.github.com/users/theStack/subscriptions",
        "organizations_url": "https://api.github.com/users/theStack/orgs",
        "repos_url": "https://api.github.com/users/theStack/repos",
        "events_url": "https://api.github.com/users/theStack/events%7B/privacy%7D",
        "received_events_url": "https://api.github.com/users/theStack/received_events",
        "type": "User",
        "site_admin": false
      },
      "repo": {
        "id": 204970720,
        "node_id": "MDEwOlJlcG9zaXRvcnkyMDQ5NzA3MjA=",
        "name": "bitcoin",
        "full_name": "theStack/bitcoin",
        "owner": {
          "login": "theStack",
          "id": 91535,
          "node_id": "MDQ6VXNlcjkxNTM1",
          "avatar_url": "https://avatars.githubusercontent.com/u/91535?v=4",
          "gravatar_id": "",
          "url": "https://api.github.com/users/theStack",
          "html_url": "https://github.com/theStack",
          "followers_url": "https://api.github.com/users/theStack/followers",
          "following_url": "https://api.github.com/users/theStack/following%7B/other_user%7D",
          "gists_url": "https://api.github.com/users/theStack/gists%7B/gist_id%7D",
          "starred_url": "https://api.github.com/users/theStack/starred%7B/owner%7D%7B/repo%7D",
          "subscriptions_url": "https://api.github.com/users/theStack/subscriptions",
          "organizations_url": "https://api.github.com/users/theStack/orgs",
          "repos_url": "https://api.github.com/users/theStack/repos",
          "events_url": "https://api.github.com/users/theStack/events%7B/privacy%7D",
          "received_events_url": "https://api.github.com/users/theStack/received_events",
          "type": "User",
          "site_admin": false
        },
        "private": false,
        "html_url": "https://github.com/theStack/bitcoin",
        "description": "Bitcoin Core integration/staging tree",
        "fork": true,
        "url": "https://api.github.com/repos/theStack/bitcoin",
        "archive_url": "https://api.github.com/repos/theStack/bitcoin/%7Barchive_format%7D%7B/ref%7D",
        "assignees_url": "https://api.github.com/repos/theStack/bitcoin/assignees%7B/user%7D",
        "blobs_url": "https://api.github.com/repos/theStack/bitcoin/git/blobs%7B/sha%7D",
        "branches_url": "https://api.github.com/repos/theStack/bitcoin/branches%7B/branch%7D",
        "collaborators_url": "https://api.github.com/repos/theStack/bitcoin/collaborators%7B/collaborator%7D",
        "comments_url": "https://api.github.com/repos/theStack/bitcoin/comments%7B/number%7D",
        "commits_url": "https://api.github.com/repos/theStack/bitcoin/commits%7B/sha%7D",
        "compare_url": "https://api.github.com/repos/theStack/bitcoin/compare/%7Bbase%7D...%7Bhead%7D",
        "contents_url": "https://api.github.com/repos/theStack/bitcoin/contents/%7B+path%7D",
        "contributors_url": "https://api.github.com/repos/theStack/bitcoin/contributors",
        "deployments_url": "https://api.github.com/repos/theStack/bitcoin/deployments",
        "downloads_url": "https://api.github.com/repos/theStack/bitcoin/downloads",
        "events_url": "https://api.github.com/repos/theStack/bitcoin/events",
        "forks_url": "https://api.github.com/repos/theStack/bitcoin/forks",
        "git_commits_url": "https://api.github.com/repos/theStack/bitcoin/git/commits%7B/sha%7D",
        "git_refs_url": "https://api.github.com/repos/theStack/bitcoin/git/refs%7B/sha%7D",
        "git_tags_url": "https://api.github.com/repos/theStack/bitcoin/git/tags%7B/sha%7D",
        "git_url": "git://github.com/theStack/bitcoin.git",
        "issue_comment_url": "https://api.github.com/repos/theStack/bitcoin/issues/comments%7B/number%7D",
        "issue_events_url": "https://api.github.com/repos/theStack/bitcoin/issues/events%7B/number%7D",
        "issues_url": "https://api.github.com/repos/theStack/bitcoin/issues%7B/number%7D",
        "keys_url": "https://api.github.com/repos/theStack/bitcoin/keys%7B/key_id%7D",
        "labels_url": "https://api.github.com/repos/theStack/bitcoin/labels%7B/name%7D",
        "languages_url": "https://api.github.com/repos/theStack/bitcoin/languages",
        "merges_url": "https://api.github.com/repos/theStack/bitcoin/merges",
        "milestones_url": "https://api.github.com/repos/theStack/bitcoin/milestones%7B/number%7D",
        "notifications_url": "https://api.github.com/repos/theStack/bitcoin/notifications%7B?since,all,participating}",
        "pulls_url": "https://api.github.com/repos/theStack/bitcoin/pulls%7B/number%7D",
        "releases_url": "https://api.github.com/repos/theStack/bitcoin/releases%7B/id%7D",
        "ssh_url": "git@github.com:theStack/bitcoin.git",
        "stargazers_url": "https://api.github.com/repos/theStack/bitcoin/stargazers",
        "statuses_url": "https://api.github.com/repos/theStack/bitcoin/statuses/%7Bsha%7D",
        "subscribers_url": "https://api.github.com/repos/theStack/bitcoin/subscribers",
        "subscription_url": "https://api.github.com/repos/theStack/bitcoin/subscription",
        "tags_url": "https://api.github.com/repos/theStack/bitcoin/tags",
        "teams_url": "https://api.github.com/repos/theStack/bitcoin/teams",
        "trees_url": "https://api.github.com/repos/theStack/bitcoin/git/trees%7B/sha%7D",
        "clone_url": "https://github.com/theStack/bitcoin.git",
        "hooks_url": "https://api.github.com/repos/theStack/bitcoin/hooks",
        "svn_url": "https://github.com/theStack/bitcoin",
        "homepage": "https://bitcoincore.org/en/download",
        "language": "C++",
        "forks_count": 0,
        "stargazers_count": 0,
        "watchers_count": 0,
        "size": 219313,
        "default_branch": "master",
        "open_issues_count": 0,
        "is_template": false,
        "topics": [],
        "has_issues": false,
        "has_projects": true,
        "has_wiki": false,
        "has_pages": false,
        "has_downloads": false,
        "archived": false,
        "disabled": false,
        "visibility": "public",
        "pushed_at": "2023-08-02T23:26:22Z",
        "created_at": "2019-08-28T15:59:29Z",
        "updated_at": "2022-12-07T18:05:55Z",
        "license": {
          "key": "mit",
          "name": "MIT License",
          "node_id": "MDc6TGljZW5zZTEz",
          "spdx_id": "MIT",
          "url": "https://api.github.com/licenses/mit",
          "html_url": null,
          "description": null,
          "implementation": null,
          "permissions": null,
          "conditions": null,
          "limitations": null,
          "body": null,
          "featured": null
        }
      }
    },
    "base": {
      "label": "bitcoin:master",
      "ref": "master",
      "sha": "8915e4d9f5b7e360f70d2f67baa99cca451a10da",
      "user": {
        "login": "bitcoin",
        "id": 528860,
        "node_id": "MDEyOk9yZ2FuaXphdGlvbjUyODg2MA==",
        "avatar_url": "https://avatars.githubusercontent.com/u/528860?v=4",
        "gravatar_id": "",
        "url": "https://api.github.com/users/bitcoin",
        "html_url": "https://github.com/bitcoin",
        "followers_url": "https://api.github.com/users/bitcoin/followers",
        "following_url": "https://api.github.com/users/bitcoin/following%7B/other_user%7D",
        "gists_url": "https://api.github.com/users/bitcoin/gists%7B/gist_id%7D",
        "starred_url": "https://api.github.com/users/bitcoin/starred%7B/owner%7D%7B/repo%7D",
        "subscriptions_url": "https://api.github.com/users/bitcoin/subscriptions",
        "organizations_url": "https://api.github.com/users/bitcoin/orgs",
        "repos_url": "https://api.github.com/users/bitcoin/repos",
        "events_url": "https://api.github.com/users/bitcoin/events%7B/privacy%7D",
        "received_events_url": "https://api.github.com/users/bitcoin/received_events",
        "type": "Organization",
        "site_admin": false
      },
      "repo": {
        "id": 1181927,
        "node_id": "MDEwOlJlcG9zaXRvcnkxMTgxOTI3",
        "name": "bitcoin",
        "full_name": "bitcoin/bitcoin",
        "owner": {
          "login": "bitcoin",
          "id": 528860,
          "node_id": "MDEyOk9yZ2FuaXphdGlvbjUyODg2MA==",
          "avatar_url": "https://avatars.githubusercontent.com/u/528860?v=4",
          "gravatar_id": "",
          "url": "https://api.github.com/users/bitcoin",
          "html_url": "https://github.com/bitcoin",
          "followers_url": "https://api.github.com/users/bitcoin/followers",
          "following_url": "https://api.github.com/users/bitcoin/following%7B/other_user%7D",
          "gists_url": "https://api.github.com/users/bitcoin/gists%7B/gist_id%7D",
          "starred_url": "https://api.github.com/users/bitcoin/starred%7B/owner%7D%7B/repo%7D",
          "subscriptions_url": "https://api.github.com/users/bitcoin/subscriptions",
          "organizations_url": "https://api.github.com/users/bitcoin/orgs",
          "repos_url": "https://api.github.com/users/bitcoin/repos",
          "events_url": "https://api.github.com/users/bitcoin/events%7B/privacy%7D",
          "received_events_url": "https://api.github.com/users/bitcoin/received_events",
          "type": "Organization",
          "site_admin": false
        },
        "private": false,
        "html_url": "https://github.com/bitcoin/bitcoin",
        "description": "Bitcoin Core integration/staging tree",
        "fork": false,
        "url": "https://api.github.com/repos/bitcoin/bitcoin",
        "archive_url": "https://api.github.com/repos/bitcoin/bitcoin/%7Barchive_format%7D%7B/ref%7D",
        "assignees_url": "https://api.github.com/repos/bitcoin/bitcoin/assignees%7B/user%7D",
        "blobs_url": "https://api.github.com/repos/bitcoin/bitcoin/git/blobs%7B/sha%7D",
        "branches_url": "https://api.github.com/repos/bitcoin/bitcoin/branches%7B/branch%7D",
        "collaborators_url": "https://api.github.com/repos/bitcoin/bitcoin/collaborators%7B/collaborator%7D",
        "comments_url": "https://api.github.com/repos/bitcoin/bitcoin/comments%7B/number%7D",
        "commits_url": "https://api.github.com/repos/bitcoin/bitcoin/commits%7B/sha%7D",
        "compare_url": "https://api.github.com/repos/bitcoin/bitcoin/compare/%7Bbase%7D...%7Bhead%7D",
        "contents_url": "https://api.github.com/repos/bitcoin/bitcoin/contents/%7B+path%7D",
        "contributors_url": "https://api.github.com/repos/bitcoin/bitcoin/contributors",
        "deployments_url": "https://api.github.com/repos/bitcoin/bitcoin/deployments",
        "downloads_url": "https://api.github.com/repos/bitcoin/bitcoin/downloads",
        "events_url": "https://api.github.com/repos/bitcoin/bitcoin/events",
        "forks_url": "https://api.github.com/repos/bitcoin/bitcoin/forks",
        "git_commits_url": "https://api.github.com/repos/bitcoin/bitcoin/git/commits%7B/sha%7D",
        "git_refs_url": "https://api.github.com/repos/bitcoin/bitcoin/git/refs%7B/sha%7D",
        "git_tags_url": "https://api.github.com/repos/bitcoin/bitcoin/git/tags%7B/sha%7D",
        "git_url": "git://github.com/bitcoin/bitcoin.git",
        "issue_comment_url": "https://api.github.com/repos/bitcoin/bitcoin/issues/comments%7B/number%7D",
        "issue_events_url": "https://api.github.com/repos/bitcoin/bitcoin/issues/events%7B/number%7D",
        "issues_url": "https://api.github.com/repos/bitcoin/bitcoin/issues%7B/number%7D",
        "keys_url": "https://api.github.com/repos/bitcoin/bitcoin/keys%7B/key_id%7D",
        "labels_url": "https://api.github.com/repos/bitcoin/bitcoin/labels%7B/name%7D",
        "languages_url": "https://api.github.com/repos/bitcoin/bitcoin/languages",
        "merges_url": "https://api.github.com/repos/bitcoin/bitcoin/merges",
        "milestones_url": "https://api.github.com/repos/bitcoin/bitcoin/milestones%7B/number%7D",
        "notifications_url": "https://api.github.com/repos/bitcoin/bitcoin/notifications%7B?since,all,participating}",
        "pulls_url": "https://api.github.com/repos/bitcoin/bitcoin/pulls%7B/number%7D",
        "releases_url": "https://api.github.com/repos/bitcoin/bitcoin/releases%7B/id%7D",
        "ssh_url": "git@github.com:bitcoin/bitcoin.git",
        "stargazers_url": "https://api.github.com/repos/bitcoin/bitcoin/stargazers",
        "statuses_url": "https://api.github.com/repos/bitcoin/bitcoin/statuses/%7Bsha%7D",
        "subscribers_url": "https://api.github.com/repos/bitcoin/bitcoin/subscribers",
        "subscription_url": "https://api.github.com/repos/bitcoin/bitcoin/subscription",
        "tags_url": "https://api.github.com/repos/bitcoin/bitcoin/tags",
        "teams_url": "https://api.github.com/repos/bitcoin/bitcoin/teams",
        "trees_url": "https://api.github.com/repos/bitcoin/bitcoin/git/trees%7B/sha%7D",
        "clone_url": "https://github.com/bitcoin/bitcoin.git",
        "hooks_url": "https://api.github.com/repos/bitcoin/bitcoin/hooks",
        "svn_url": "https://github.com/bitcoin/bitcoin",
        "homepage": "https://bitcoincore.org/en/download",
        "language": "C++",
        "forks_count": 35476,
        "stargazers_count": 70608,
        "watchers_count": 70608,
        "size": 236222,
        "default_branch": "master",
        "open_issues_count": 673,
        "is_template": false,
        "topics": [
          "bitcoin",
          "c-plus-plus",
          "cryptocurrency",
          "cryptography",
          "p2p"
        ],
        "has_issues": true,
        "has_projects": true,
        "has_wiki": false,
        "has_pages": false,
        "has_downloads": false,
        "archived": false,
        "disabled": false,
        "visibility": "public",
        "pushed_at": "2023-08-03T00:03:27Z",
        "created_at": "2010-12-19T15:16:43Z",
        "updated_at": "2023-08-02T18:21:18Z",
        "license": {
          "key": "mit",
          "name": "MIT License",
          "node_id": "MDc6TGljZW5zZTEz",
          "spdx_id": "MIT",
          "url": "https://api.github.com/licenses/mit",
          "html_url": null,
          "description": null,
          "implementation": null,
          "permissions": null,
          "conditions": null,
          "limitations": null,
          "body": null,
          "featured": null
        }
      }
    },
    "_links": {
      "self": {
        "href": "https://api.github.com/repos/bitcoin/bitcoin/pulls/26884"
      }
    },
    "author_association": "CONTRIBUTOR",
    "draft": false,
    "additions": 39,
    "deletions": 1,
    "changed_files": 2,
    "commits": 2,
    "review_comments": 0,
    "comments": 3
  },
  "events": [
    {
      "event": "committed",
      "id": null,
      "node_id": "C_kwDOABII59oAKDUwMTEyMDM0YmNkZDE3NzMxMTY3OTYxMGVmMmYzYzJjNDJkNjgxOWU",
      "url": "https://api.github.com/repos/bitcoin/bitcoin/git/commits/50112034bcdd177311679610ef2f3c2c42d6819e",
      "actor": null,
      "commit_id": null,
      "commit_url": null,
      "created_at": null,
      "html_url": "https://github.com/bitcoin/bitcoin/commit/50112034bcdd177311679610ef2f3c2c42d6819e",
      "tree": {
        "sha": "c1c8d176412dd6a83ec734b7137564e9c4a04027",
        "url": "https://api.github.com/repos/bitcoin/bitcoin/git/trees/c1c8d176412dd6a83ec734b7137564e9c4a04027"
      },
      "verification": {
        "verified": false,
        "reason": "unsigned",
        "payload": null,
        "signature": null
      },
      "parents": [
        {
          "url": "https://api.github.com/repos/bitcoin/bitcoin/git/commits/f4ef856375c5b295d78169b136c6aee928c19bc9",
          "sha": "f4ef856375c5b295d78169b136c6aee928c19bc9",
          "html_url": "https://github.com/bitcoin/bitcoin/commit/f4ef856375c5b295d78169b136c6aee928c19bc9"
        }
      ],
      "message": "test: remove `-spendzeroconfchange` setting from mempool_limit.py\n\nSince this test was changed to use MiniWallet instead of the Bitcoin\nCore wallet (see commit d447ded6babebe7c7948e585c9e78bf34dbef226),\nthe setting doesn't have any effect and hence can be removed.",
      "committer": {
        "name": "Sebastian Falbesoner",
        "email": "sebastian.falbesoner@gmail.com",
        "date": "2023-01-13T02:41:42Z"
      },
      "author": {
        "name": "Sebastian Falbesoner",
        "email": "sebastian.falbesoner@gmail.com",
        "date": "2023-01-13T02:41:42Z"
      },
      "sha": "50112034bcdd177311679610ef2f3c2c42d6819e"
    },
    {
      "event": "commented",
      "id": 1381260738,
      "node_id": "IC_kwDOABII585SVF3C",
      "url": "https://api.github.com/repos/bitcoin/bitcoin/issues/comments/1381260738",
      "actor": {
        "login": "DrahtBot",
        "id": 39886733,
        "node_id": "MDQ6VXNlcjM5ODg2NzMz",
        "avatar_url": "https://avatars.githubusercontent.com/u/39886733?v=4",
        "gravatar_id": "",
        "url": "https://api.github.com/users/DrahtBot",
        "html_url": "https://github.com/DrahtBot",
        "followers_url": "https://api.github.com/users/DrahtBot/followers",
        "following_url": "https://api.github.com/users/DrahtBot/following%7B/other_user%7D",
        "gists_url": "https://api.github.com/users/DrahtBot/gists%7B/gist_id%7D",
        "starred_url": "https://api.github.com/users/DrahtBot/starred%7B/owner%7D%7B/repo%7D",
        "subscriptions_url": "https://api.github.com/users/DrahtBot/subscriptions",
        "organizations_url": "https://api.github.com/users/DrahtBot/orgs",
        "repos_url": "https://api.github.com/users/DrahtBot/repos",
        "events_url": "https://api.github.com/users/DrahtBot/events%7B/privacy%7D",
        "received_events_url": "https://api.github.com/users/DrahtBot/received_events",
        "type": "User",
        "site_admin": false
      },
      "commit_id": null,
      "commit_url": null,
      "created_at": "2023-01-13T03:13:37Z",
      "updated_at": "2023-01-16T16:42:02Z",
      "author_association": "CONTRIBUTOR",
      "body": "<!--e57a25ab6845829454e8d69fc972939a-->\n\nThe following sections might be updated with supplementary metadata relevant to reviewers and maintainers.\n\n<!--021abf342d371248e50ceaed478a90ca-->\n### Reviews\nSee [the guideline](https://github.com/bitcoin/bitcoin/blob/master/CONTRIBUTING.md#code-review) for information on the review process.\n| Type | Reviewers |\n| ---- | --------- |\n| ACK | [brunoerg](https://github.com/bitcoin/bitcoin/pull/26884#pullrequestreview-1250450531) |\n\nIf your review is incorrectly listed, please react with 👎 to this comment and the bot will ignore it on the next update.\n",
      "user": {
        "login": "DrahtBot",
        "id": 39886733,
        "node_id": "MDQ6VXNlcjM5ODg2NzMz",
        "avatar_url": "https://avatars.githubusercontent.com/u/39886733?v=4",
        "gravatar_id": "",
        "url": "https://api.github.com/users/DrahtBot",
        "html_url": "https://github.com/DrahtBot",
        "followers_url": "https://api.github.com/users/DrahtBot/followers",
        "following_url": "https://api.github.com/users/DrahtBot/following%7B/other_user%7D",
        "gists_url": "https://api.github.com/users/DrahtBot/gists%7B/gist_id%7D",
        "starred_url": "https://api.github.com/users/DrahtBot/starred%7B/owner%7D%7B/repo%7D",
        "subscriptions_url": "https://api.github.com/users/DrahtBot/subscriptions",
        "organizations_url": "https://api.github.com/users/DrahtBot/orgs",
        "repos_url": "https://api.github.com/users/DrahtBot/repos",
        "events_url": "https://api.github.com/users/DrahtBot/events%7B/privacy%7D",
        "received_events_url": "https://api.github.com/users/DrahtBot/received_events",
        "type": "User",
        "site_admin": false
      },
      "html_url": "https://github.com/bitcoin/bitcoin/pull/26884#issuecomment-1381260738",
      "issue_url": "https://api.github.com/repos/bitcoin/bitcoin/issues/26884"
    },
    {
      "event": "labeled",
      "id": 8216970980,
      "node_id": "LE_lADOABII585bSwr5zwAAAAHpxQbk",
      "url": "https://api.github.com/repos/bitcoin/bitcoin/issues/events/8216970980",
      "actor": {
        "login": "DrahtBot",
        "id": 39886733,
        "node_id": "MDQ6VXNlcjM5ODg2NzMz",
        "avatar_url": "https://avatars.githubusercontent.com/u/39886733?v=4",
        "gravatar_id": "",
        "url": "https://api.github.com/users/DrahtBot",
        "html_url": "https://github.com/DrahtBot",
        "followers_url": "https://api.github.com/users/DrahtBot/followers",
        "following_url": "https://api.github.com/users/DrahtBot/following%7B/other_user%7D",
        "gists_url": "https://api.github.com/users/DrahtBot/gists%7B/gist_id%7D",
        "starred_url": "https://api.github.com/users/DrahtBot/starred%7B/owner%7D%7B/repo%7D",
        "subscriptions_url": "https://api.github.com/users/DrahtBot/subscriptions",
        "organizations_url": "https://api.github.com/users/DrahtBot/orgs",
        "repos_url": "https://api.github.com/users/DrahtBot/repos",
        "events_url": "https://api.github.com/users/DrahtBot/events%7B/privacy%7D",
        "received_events_url": "https://api.github.com/users/DrahtBot/received_events",
        "type": "User",
        "site_admin": false
      },
      "commit_id": null,
      "commit_url": null,
      "created_at": "2023-01-13T03:13:39Z",
      "label": {
        "name": "Tests",
        "color": "d4c5f9"
      }
    },
    {
      "event": "reviewed",
      "id": 1247763227,
      "node_id": "PRR_kwDOABII585KX1sb",
      "url": null,
      "actor": null,
      "commit_id": "4c046f649134bce940d31ab8ce17e94d2b1ca7f7",
      "commit_url": null,
      "created_at": null,
      "author_association": "CONTRIBUTOR",
      "body": "Concept ACK",
      "user": {
        "login": "brunoerg",
        "id": 19480819,
        "node_id": "MDQ6VXNlcjE5NDgwODE5",
        "avatar_url": "https://avatars.githubusercontent.com/u/19480819?v=4",
        "gravatar_id": "",
        "url": "https://api.github.com/users/brunoerg",
        "html_url": "https://github.com/brunoerg",
        "followers_url": "https://api.github.com/users/brunoerg/followers",
        "following_url": "https://api.github.com/users/brunoerg/following%7B/other_user%7D",
        "gists_url": "https://api.github.com/users/brunoerg/gists%7B/gist_id%7D",
        "starred_url": "https://api.github.com/users/brunoerg/starred%7B/owner%7D%7B/repo%7D",
        "subscriptions_url": "https://api.github.com/users/brunoerg/subscriptions",
        "organizations_url": "https://api.github.com/users/brunoerg/orgs",
        "repos_url": "https://api.github.com/users/brunoerg/repos",
        "events_url": "https://api.github.com/users/brunoerg/events%7B/privacy%7D",
        "received_events_url": "https://api.github.com/users/brunoerg/received_events",
        "type": "User",
        "site_admin": false
      },
      "html_url": "https://github.com/bitcoin/bitcoin/pull/26884#pullrequestreview-1247763227",
      "submitted_at": "2023-01-13T14:51:18Z",
      "state": "COMMENTED",
      "pull_request_url": "https://api.github.com/repos/bitcoin/bitcoin/pulls/26884"
    },
    {
      "event": "commented",
      "id": 1381982794,
      "node_id": "IC_kwDOABII585SX2JK",
      "url": "https://api.github.com/repos/bitcoin/bitcoin/issues/comments/1381982794",
      "actor": {
        "login": "brunoerg",
        "id": 19480819,
        "node_id": "MDQ6VXNlcjE5NDgwODE5",
        "avatar_url": "https://avatars.githubusercontent.com/u/19480819?v=4",
        "gravatar_id": "",
        "url": "https://api.github.com/users/brunoerg",
        "html_url": "https://github.com/brunoerg",
        "followers_url": "https://api.github.com/users/brunoerg/followers",
        "following_url": "https://api.github.com/users/brunoerg/following%7B/other_user%7D",
        "gists_url": "https://api.github.com/users/brunoerg/gists%7B/gist_id%7D",
        "starred_url": "https://api.github.com/users/brunoerg/starred%7B/owner%7D%7B/repo%7D",
        "subscriptions_url": "https://api.github.com/users/brunoerg/subscriptions",
        "organizations_url": "https://api.github.com/users/brunoerg/orgs",
        "repos_url": "https://api.github.com/users/brunoerg/repos",
        "events_url": "https://api.github.com/users/brunoerg/events%7B/privacy%7D",
        "received_events_url": "https://api.github.com/users/brunoerg/received_events",
        "type": "User",
        "site_admin": false
      },
      "commit_id": null,
      "commit_url": null,
      "created_at": "2023-01-13T14:58:46Z",
      "updated_at": "2023-01-13T14:58:46Z",
      "author_association": "CONTRIBUTOR",
      "body": "I think we could also test the behavior of `getbalance` with `spendzeroconfchange`.",
      "user": {
        "login": "brunoerg",
        "id": 19480819,
        "node_id": "MDQ6VXNlcjE5NDgwODE5",
        "avatar_url": "https://avatars.githubusercontent.com/u/19480819?v=4",
        "gravatar_id": "",
        "url": "https://api.github.com/users/brunoerg",
        "html_url": "https://github.com/brunoerg",
        "followers_url": "https://api.github.com/users/brunoerg/followers",
        "following_url": "https://api.github.com/users/brunoerg/following%7B/other_user%7D",
        "gists_url": "https://api.github.com/users/brunoerg/gists%7B/gist_id%7D",
        "starred_url": "https://api.github.com/users/brunoerg/starred%7B/owner%7D%7B/repo%7D",
        "subscriptions_url": "https://api.github.com/users/brunoerg/subscriptions",
        "organizations_url": "https://api.github.com/users/brunoerg/orgs",
        "repos_url": "https://api.github.com/users/brunoerg/repos",
        "events_url": "https://api.github.com/users/brunoerg/events%7B/privacy%7D",
        "received_events_url": "https://api.github.com/users/brunoerg/received_events",
        "type": "User",
        "site_admin": false
      },
      "html_url": "https://github.com/bitcoin/bitcoin/pull/26884#issuecomment-1381982794",
      "issue_url": "https://api.github.com/repos/bitcoin/bitcoin/issues/26884"
    },
    {
      "event": "committed",
      "id": null,
      "node_id": "C_kwDOABII59oAKDYwM2QyOTUxOTkzMWU2YWI2YTU4ZGIwOWI5ZDNlYjliMzU1ZmU1NjY",
      "url": "https://api.github.com/repos/bitcoin/bitcoin/git/commits/603d29519931e6ab6a58db09b9d3eb9b355fe566",
      "actor": null,
      "commit_id": null,
      "commit_url": null,
      "created_at": null,
      "html_url": "https://github.com/bitcoin/bitcoin/commit/603d29519931e6ab6a58db09b9d3eb9b355fe566",
      "tree": {
        "sha": "38fda648e9c09cbafbed61e9a5653735729c2aa6",
        "url": "https://api.github.com/repos/bitcoin/bitcoin/git/trees/38fda648e9c09cbafbed61e9a5653735729c2aa6"
      },
      "verification": {
        "verified": false,
        "reason": "unsigned",
        "payload": null,
        "signature": null
      },
      "parents": [
        {
          "url": "https://api.github.com/repos/bitcoin/bitcoin/git/commits/50112034bcdd177311679610ef2f3c2c42d6819e",
          "sha": "50112034bcdd177311679610ef2f3c2c42d6819e",
          "html_url": "https://github.com/bitcoin/bitcoin/commit/50112034bcdd177311679610ef2f3c2c42d6819e"
        }
      ],
      "message": "test: wallet: add coverage for `-spendzeroconfchange` setting",
      "committer": {
        "name": "Sebastian Falbesoner",
        "email": "sebastian.falbesoner@gmail.com",
        "date": "2023-01-13T20:56:17Z"
      },
      "author": {
        "name": "Sebastian Falbesoner",
        "email": "sebastian.falbesoner@gmail.com",
        "date": "2023-01-13T02:50:56Z"
      },
      "sha": "603d29519931e6ab6a58db09b9d3eb9b355fe566"
    },
    {
      "event": "head_ref_force_pushed",
      "id": 8224359129,
      "node_id": "HRFPE_lADOABII585bSwr5zwAAAAHqNcLZ",
      "url": "https://api.github.com/repos/bitcoin/bitcoin/issues/events/8224359129",
      "actor": {
        "login": "theStack",
        "id": 91535,
        "node_id": "MDQ6VXNlcjkxNTM1",
        "avatar_url": "https://avatars.githubusercontent.com/u/91535?v=4",
        "gravatar_id": "",
        "url": "https://api.github.com/users/theStack",
        "html_url": "https://github.com/theStack",
        "followers_url": "https://api.github.com/users/theStack/followers",
        "following_url": "https://api.github.com/users/theStack/following%7B/other_user%7D",
        "gists_url": "https://api.github.com/users/theStack/gists%7B/gist_id%7D",
        "starred_url": "https://api.github.com/users/theStack/starred%7B/owner%7D%7B/repo%7D",
        "subscriptions_url": "https://api.github.com/users/theStack/subscriptions",
        "organizations_url": "https://api.github.com/users/theStack/orgs",
        "repos_url": "https://api.github.com/users/theStack/repos",
        "events_url": "https://api.github.com/users/theStack/events%7B/privacy%7D",
        "received_events_url": "https://api.github.com/users/theStack/received_events",
        "type": "User",
        "site_admin": false
      },
      "commit_id": null,
      "commit_url": null,
      "created_at": "2023-01-13T20:57:27Z"
    },
    {
      "event": "commented",
      "id": 1382379864,
      "node_id": "IC_kwDOABII585SZXFY",
      "url": "https://api.github.com/repos/bitcoin/bitcoin/issues/comments/1382379864",
      "actor": {
        "login": "theStack",
        "id": 91535,
        "node_id": "MDQ6VXNlcjkxNTM1",
        "avatar_url": "https://avatars.githubusercontent.com/u/91535?v=4",
        "gravatar_id": "",
        "url": "https://api.github.com/users/theStack",
        "html_url": "https://github.com/theStack",
        "followers_url": "https://api.github.com/users/theStack/followers",
        "following_url": "https://api.github.com/users/theStack/following%7B/other_user%7D",
        "gists_url": "https://api.github.com/users/theStack/gists%7B/gist_id%7D",
        "starred_url": "https://api.github.com/users/theStack/starred%7B/owner%7D%7B/repo%7D",
        "subscriptions_url": "https://api.github.com/users/theStack/subscriptions",
        "organizations_url": "https://api.github.com/users/theStack/orgs",
        "repos_url": "https://api.github.com/users/theStack/repos",
        "events_url": "https://api.github.com/users/theStack/events%7B/privacy%7D",
        "received_events_url": "https://api.github.com/users/theStack/received_events",
        "type": "User",
        "site_admin": false
      },
      "commit_id": null,
      "commit_url": null,
      "created_at": "2023-01-13T20:59:19Z",
      "updated_at": "2023-01-13T20:59:19Z",
      "author_association": "CONTRIBUTOR",
      "body": "> I think we could also test the behavior of `getbalance` with `spendzeroconfchange`.\r\n\r\nGood idea, done. Used `getbalances` rather than `getbalance` to check in which category unconfirmed self-sent coins fall (trusted or untrusted_pending) depending on the `-spendzeroconfchange` setting.",
      "user": {
        "login": "theStack",
        "id": 91535,
        "node_id": "MDQ6VXNlcjkxNTM1",
        "avatar_url": "https://avatars.githubusercontent.com/u/91535?v=4",
        "gravatar_id": "",
        "url": "https://api.github.com/users/theStack",
        "html_url": "https://github.com/theStack",
        "followers_url": "https://api.github.com/users/theStack/followers",
        "following_url": "https://api.github.com/users/theStack/following%7B/other_user%7D",
        "gists_url": "https://api.github.com/users/theStack/gists%7B/gist_id%7D",
        "starred_url": "https://api.github.com/users/theStack/starred%7B/owner%7D%7B/repo%7D",
        "subscriptions_url": "https://api.github.com/users/theStack/subscriptions",
        "organizations_url": "https://api.github.com/users/theStack/orgs",
        "repos_url": "https://api.github.com/users/theStack/repos",
        "events_url": "https://api.github.com/users/theStack/events%7B/privacy%7D",
        "received_events_url": "https://api.github.com/users/theStack/received_events",
        "type": "User",
        "site_admin": false
      },
      "html_url": "https://github.com/bitcoin/bitcoin/pull/26884#issuecomment-1382379864",
      "issue_url": "https://api.github.com/repos/bitcoin/bitcoin/issues/26884"
    },
    {
      "event": "reviewed",
      "id": 1250450531,
      "node_id": "PRR_kwDOABII585KiFxj",
      "url": null,
      "actor": null,
      "commit_id": "603d29519931e6ab6a58db09b9d3eb9b355fe566",
      "commit_url": null,
      "created_at": null,
      "author_association": "CONTRIBUTOR",
      "body": "crACK 603d29519931e6ab6a58db09b9d3eb9b355fe566\r\n\r\nNice!",
      "user": {
        "login": "brunoerg",
        "id": 19480819,
        "node_id": "MDQ6VXNlcjE5NDgwODE5",
        "avatar_url": "https://avatars.githubusercontent.com/u/19480819?v=4",
        "gravatar_id": "",
        "url": "https://api.github.com/users/brunoerg",
        "html_url": "https://github.com/brunoerg",
        "followers_url": "https://api.github.com/users/brunoerg/followers",
        "following_url": "https://api.github.com/users/brunoerg/following%7B/other_user%7D",
        "gists_url": "https://api.github.com/users/brunoerg/gists%7B/gist_id%7D",
        "starred_url": "https://api.github.com/users/brunoerg/starred%7B/owner%7D%7B/repo%7D",
        "subscriptions_url": "https://api.github.com/users/brunoerg/subscriptions",
        "organizations_url": "https://api.github.com/users/brunoerg/orgs",
        "repos_url": "https://api.github.com/users/brunoerg/repos",
        "events_url": "https://api.github.com/users/brunoerg/events%7B/privacy%7D",
        "received_events_url": "https://api.github.com/users/brunoerg/received_events",
        "type": "User",
        "site_admin": false
      },
      "html_url": "https://github.com/bitcoin/bitcoin/pull/26884#pullrequestreview-1250450531",
      "submitted_at": "2023-01-16T16:41:57Z",
      "state": "APPROVED",
      "pull_request_url": "https://api.github.com/repos/bitcoin/bitcoin/pulls/26884"
    },
    {
      "event": "merged",
      "id": 8244016454,
      "node_id": "ME_lADOABII585bSwr5zwAAAAHrYbVG",
      "url": "https://api.github.com/repos/bitcoin/bitcoin/issues/events/8244016454",
      "actor": {
        "login": "MarcoFalke",
        "id": 6399679,
        "node_id": "MDQ6VXNlcjYzOTk2Nzk=",
        "avatar_url": "https://avatars.githubusercontent.com/u/6399679?v=4",
        "gravatar_id": "",
        "url": "https://api.github.com/users/MarcoFalke",
        "html_url": "https://github.com/MarcoFalke",
        "followers_url": "https://api.github.com/users/MarcoFalke/followers",
        "following_url": "https://api.github.com/users/MarcoFalke/following%7B/other_user%7D",
        "gists_url": "https://api.github.com/users/MarcoFalke/gists%7B/gist_id%7D",
        "starred_url": "https://api.github.com/users/MarcoFalke/starred%7B/owner%7D%7B/repo%7D",
        "subscriptions_url": "https://api.github.com/users/MarcoFalke/subscriptions",
        "organizations_url": "https://api.github.com/users/MarcoFalke/orgs",
        "repos_url": "https://api.github.com/users/MarcoFalke/repos",
        "events_url": "https://api.github.com/users/MarcoFalke/events%7B/privacy%7D",
        "received_events_url": "https://api.github.com/users/MarcoFalke/received_events",
        "type": "User",
        "site_admin": false
      },
      "commit_id": "635f1900d048e41d18cc1df7e8305a5f397c87a3",
      "commit_url": "https://api.github.com/repos/bitcoin/bitcoin/commits/635f1900d048e41d18cc1df7e8305a5f397c87a3",
      "created_at": "2023-01-17T10:15:24Z"
    },
    {
      "event": "closed",
      "id": 8244016506,
      "node_id": "CE_lADOABII585bSwr5zwAAAAHrYbV6",
      "url": "https://api.github.com/repos/bitcoin/bitcoin/issues/events/8244016506",
      "actor": {
        "login": "MarcoFalke",
        "id": 6399679,
        "node_id": "MDQ6VXNlcjYzOTk2Nzk=",
        "avatar_url": "https://avatars.githubusercontent.com/u/6399679?v=4",
        "gravatar_id": "",
        "url": "https://api.github.com/users/MarcoFalke",
        "html_url": "https://github.com/MarcoFalke",
        "followers_url": "https://api.github.com/users/MarcoFalke/followers",
        "following_url": "https://api.github.com/users/MarcoFalke/following%7B/other_user%7D",
        "gists_url": "https://api.github.com/users/MarcoFalke/gists%7B/gist_id%7D",
        "starred_url": "https://api.github.com/users/MarcoFalke/starred%7B/owner%7D%7B/repo%7D",
        "subscriptions_url": "https://api.github.com/users/MarcoFalke/subscriptions",
        "organizations_url": "https://api.github.com/users/MarcoFalke/orgs",
        "repos_url": "https://api.github.com/users/MarcoFalke/repos",
        "events_url": "https://api.github.com/users/MarcoFalke/events%7B/privacy%7D",
        "received_events_url": "https://api.github.com/users/MarcoFalke/received_events",
        "type": "User",
        "site_admin": false
      },
      "commit_id": null,
      "commit_url": null,
      "created_at": "2023-01-17T10:15:25Z"
    },
    {
      "event": "head_ref_deleted",
      "id": 8244242247,
      "node_id": "HRDE_lADOABII585bSwr5zwAAAAHrZSdH",
      "url": "https://api.github.com/repos/bitcoin/bitcoin/issues/events/8244242247",
      "actor": {
        "login": "theStack",
        "id": 91535,
        "node_id": "MDQ6VXNlcjkxNTM1",
        "avatar_url": "https://avatars.githubusercontent.com/u/91535?v=4",
        "gravatar_id": "",
        "url": "https://api.github.com/users/theStack",
        "html_url": "https://github.com/theStack",
        "followers_url": "https://api.github.com/users/theStack/followers",
        "following_url": "https://api.github.com/users/theStack/following%7B/other_user%7D",
        "gists_url": "https://api.github.com/users/theStack/gists%7B/gist_id%7D",
        "starred_url": "https://api.github.com/users/theStack/starred%7B/owner%7D%7B/repo%7D",
        "subscriptions_url": "https://api.github.com/users/theStack/subscriptions",
        "organizations_url": "https://api.github.com/users/theStack/orgs",
        "repos_url": "https://api.github.com/users/theStack/repos",
        "events_url": "https://api.github.com/users/theStack/events%7B/privacy%7D",
        "received_events_url": "https://api.github.com/users/theStack/received_events",
        "type": "User",
        "site_admin": false
      },
      "commit_id": null,
      "commit_url": null,
      "created_at": "2023-01-17T10:40:07Z"
    },
    {
      "event": "referenced",
      "id": 8248598532,
      "node_id": "REFE_lADOABII585bSwr5zwAAAAHrp6AE",
      "url": "https://api.github.com/repos/bitcoin/bitcoin/issues/events/8248598532",
      "actor": {
        "login": "sidhujag",
        "id": 6238042,
        "node_id": "MDQ6VXNlcjYyMzgwNDI=",
        "avatar_url": "https://avatars.githubusercontent.com/u/6238042?v=4",
        "gravatar_id": "",
        "url": "https://api.github.com/users/sidhujag",
        "html_url": "https://github.com/sidhujag",
        "followers_url": "https://api.github.com/users/sidhujag/followers",
        "following_url": "https://api.github.com/users/sidhujag/following%7B/other_user%7D",
        "gists_url": "https://api.github.com/users/sidhujag/gists%7B/gist_id%7D",
        "starred_url": "https://api.github.com/users/sidhujag/starred%7B/owner%7D%7B/repo%7D",
        "subscriptions_url": "https://api.github.com/users/sidhujag/subscriptions",
        "organizations_url": "https://api.github.com/users/sidhujag/orgs",
        "repos_url": "https://api.github.com/users/sidhujag/repos",
        "events_url": "https://api.github.com/users/sidhujag/events%7B/privacy%7D",
        "received_events_url": "https://api.github.com/users/sidhujag/received_events",
        "type": "User",
        "site_admin": false
      },
      "commit_id": "6782c9b317c553fcb66959e6c8dc0af9a325564a",
      "commit_url": "https://api.github.com/repos/syscoin/syscoin/commits/6782c9b317c553fcb66959e6c8dc0af9a325564a",
      "created_at": "2023-01-17T18:33:48Z"
    }
  ],
  "comments": []
}