{
  "type": "pull",
  "pull": {
    "url": "https://api.github.com/repos/bitcoin/bitcoin/pulls/26904",
    "id": 1200178390,
    "node_id": "PR_kwDOABII585HiUTW",
    "html_url": "https://github.com/bitcoin/bitcoin/pull/26904",
    "diff_url": "https://github.com/bitcoin/bitcoin/pull/26904.diff",
    "patch_url": "https://github.com/bitcoin/bitcoin/pull/26904.patch",
    "issue_url": "https://api.github.com/repos/bitcoin/bitcoin/issues/26904",
    "commits_url": "https://api.github.com/repos/bitcoin/bitcoin/pulls/26904/commits",
    "review_comments_url": "https://api.github.com/repos/bitcoin/bitcoin/pulls/26904/comments",
    "review_comment_url": "https://api.github.com/repos/bitcoin/bitcoin/pulls/comments%7B/number%7D",
    "comments_url": "https://api.github.com/repos/bitcoin/bitcoin/issues/26904/comments",
    "statuses_url": "https://api.github.com/repos/bitcoin/bitcoin/statuses/87a08cba43f8dc427efccbd45d28acc652db2cb6",
    "number": 26904,
    "state": "closed",
    "locked": false,
    "maintainer_can_modify": false,
    "title": "build: move rpc/request from util lib to common",
    "user": {
      "login": "fanquake",
      "id": 863730,
      "node_id": "MDQ6VXNlcjg2MzczMA==",
      "avatar_url": "https://avatars.githubusercontent.com/u/863730?v=4",
      "gravatar_id": "",
      "url": "https://api.github.com/users/fanquake",
      "html_url": "https://github.com/fanquake",
      "followers_url": "https://api.github.com/users/fanquake/followers",
      "following_url": "https://api.github.com/users/fanquake/following%7B/other_user%7D",
      "gists_url": "https://api.github.com/users/fanquake/gists%7B/gist_id%7D",
      "starred_url": "https://api.github.com/users/fanquake/starred%7B/owner%7D%7B/repo%7D",
      "subscriptions_url": "https://api.github.com/users/fanquake/subscriptions",
      "organizations_url": "https://api.github.com/users/fanquake/orgs",
      "repos_url": "https://api.github.com/users/fanquake/repos",
      "events_url": "https://api.github.com/users/fanquake/events%7B/privacy%7D",
      "received_events_url": "https://api.github.com/users/fanquake/received_events",
      "type": "User",
      "site_admin": false
    },
    "body": "This is JSON RPC related code that doesn't need to be in util, and should not be required by the kernel.",
    "labels": [
      {
        "id": 61889416,
        "node_id": "MDU6TGFiZWw2MTg4OTQxNg==",
        "url": "https://api.github.com/repos/bitcoin/bitcoin/labels/Build%20system",
        "name": "Build system",
        "color": "5319e7",
        "default": false
      }
    ],
    "created_at": "2023-01-17T12:05:02Z",
    "updated_at": "2023-01-18T10:02:40Z",
    "closed_at": "2023-01-18T08:29:11Z",
    "mergeable_state": "unknown",
    "merged_at": "2023-01-18T08:29:11Z",
    "merge_commit_sha": "52d6509497a717cb01154aa05aa2b69f99ed5391",
    "assignees": [],
    "requested_reviewers": [],
    "requested_teams": [],
    "head": {
      "label": "fanquake:move_rpc_request_out_util",
      "ref": "move_rpc_request_out_util",
      "sha": "87a08cba43f8dc427efccbd45d28acc652db2cb6",
      "user": {
        "login": "fanquake",
        "id": 863730,
        "node_id": "MDQ6VXNlcjg2MzczMA==",
        "avatar_url": "https://avatars.githubusercontent.com/u/863730?v=4",
        "gravatar_id": "",
        "url": "https://api.github.com/users/fanquake",
        "html_url": "https://github.com/fanquake",
        "followers_url": "https://api.github.com/users/fanquake/followers",
        "following_url": "https://api.github.com/users/fanquake/following%7B/other_user%7D",
        "gists_url": "https://api.github.com/users/fanquake/gists%7B/gist_id%7D",
        "starred_url": "https://api.github.com/users/fanquake/starred%7B/owner%7D%7B/repo%7D",
        "subscriptions_url": "https://api.github.com/users/fanquake/subscriptions",
        "organizations_url": "https://api.github.com/users/fanquake/orgs",
        "repos_url": "https://api.github.com/users/fanquake/repos",
        "events_url": "https://api.github.com/users/fanquake/events%7B/privacy%7D",
        "received_events_url": "https://api.github.com/users/fanquake/received_events",
        "type": "User",
        "site_admin": false
      },
      "repo": {
        "id": 5910539,
        "node_id": "MDEwOlJlcG9zaXRvcnk1OTEwNTM5",
        "name": "bitcoin",
        "full_name": "fanquake/bitcoin",
        "owner": {
          "login": "fanquake",
          "id": 863730,
          "node_id": "MDQ6VXNlcjg2MzczMA==",
          "avatar_url": "https://avatars.githubusercontent.com/u/863730?v=4",
          "gravatar_id": "",
          "url": "https://api.github.com/users/fanquake",
          "html_url": "https://github.com/fanquake",
          "followers_url": "https://api.github.com/users/fanquake/followers",
          "following_url": "https://api.github.com/users/fanquake/following%7B/other_user%7D",
          "gists_url": "https://api.github.com/users/fanquake/gists%7B/gist_id%7D",
          "starred_url": "https://api.github.com/users/fanquake/starred%7B/owner%7D%7B/repo%7D",
          "subscriptions_url": "https://api.github.com/users/fanquake/subscriptions",
          "organizations_url": "https://api.github.com/users/fanquake/orgs",
          "repos_url": "https://api.github.com/users/fanquake/repos",
          "events_url": "https://api.github.com/users/fanquake/events%7B/privacy%7D",
          "received_events_url": "https://api.github.com/users/fanquake/received_events",
          "type": "User",
          "site_admin": false
        },
        "private": false,
        "html_url": "https://github.com/fanquake/bitcoin",
        "description": "Bitcoin integration/staging tree",
        "fork": true,
        "url": "https://api.github.com/repos/fanquake/bitcoin",
        "archive_url": "https://api.github.com/repos/fanquake/bitcoin/%7Barchive_format%7D%7B/ref%7D",
        "assignees_url": "https://api.github.com/repos/fanquake/bitcoin/assignees%7B/user%7D",
        "blobs_url": "https://api.github.com/repos/fanquake/bitcoin/git/blobs%7B/sha%7D",
        "branches_url": "https://api.github.com/repos/fanquake/bitcoin/branches%7B/branch%7D",
        "collaborators_url": "https://api.github.com/repos/fanquake/bitcoin/collaborators%7B/collaborator%7D",
        "comments_url": "https://api.github.com/repos/fanquake/bitcoin/comments%7B/number%7D",
        "commits_url": "https://api.github.com/repos/fanquake/bitcoin/commits%7B/sha%7D",
        "compare_url": "https://api.github.com/repos/fanquake/bitcoin/compare/%7Bbase%7D...%7Bhead%7D",
        "contents_url": "https://api.github.com/repos/fanquake/bitcoin/contents/%7B+path%7D",
        "contributors_url": "https://api.github.com/repos/fanquake/bitcoin/contributors",
        "deployments_url": "https://api.github.com/repos/fanquake/bitcoin/deployments",
        "downloads_url": "https://api.github.com/repos/fanquake/bitcoin/downloads",
        "events_url": "https://api.github.com/repos/fanquake/bitcoin/events",
        "forks_url": "https://api.github.com/repos/fanquake/bitcoin/forks",
        "git_commits_url": "https://api.github.com/repos/fanquake/bitcoin/git/commits%7B/sha%7D",
        "git_refs_url": "https://api.github.com/repos/fanquake/bitcoin/git/refs%7B/sha%7D",
        "git_tags_url": "https://api.github.com/repos/fanquake/bitcoin/git/tags%7B/sha%7D",
        "git_url": "git://github.com/fanquake/bitcoin.git",
        "issue_comment_url": "https://api.github.com/repos/fanquake/bitcoin/issues/comments%7B/number%7D",
        "issue_events_url": "https://api.github.com/repos/fanquake/bitcoin/issues/events%7B/number%7D",
        "issues_url": "https://api.github.com/repos/fanquake/bitcoin/issues%7B/number%7D",
        "keys_url": "https://api.github.com/repos/fanquake/bitcoin/keys%7B/key_id%7D",
        "labels_url": "https://api.github.com/repos/fanquake/bitcoin/labels%7B/name%7D",
        "languages_url": "https://api.github.com/repos/fanquake/bitcoin/languages",
        "merges_url": "https://api.github.com/repos/fanquake/bitcoin/merges",
        "milestones_url": "https://api.github.com/repos/fanquake/bitcoin/milestones%7B/number%7D",
        "notifications_url": "https://api.github.com/repos/fanquake/bitcoin/notifications%7B?since,all,participating}",
        "pulls_url": "https://api.github.com/repos/fanquake/bitcoin/pulls%7B/number%7D",
        "releases_url": "https://api.github.com/repos/fanquake/bitcoin/releases%7B/id%7D",
        "ssh_url": "git@github.com:fanquake/bitcoin.git",
        "stargazers_url": "https://api.github.com/repos/fanquake/bitcoin/stargazers",
        "statuses_url": "https://api.github.com/repos/fanquake/bitcoin/statuses/%7Bsha%7D",
        "subscribers_url": "https://api.github.com/repos/fanquake/bitcoin/subscribers",
        "subscription_url": "https://api.github.com/repos/fanquake/bitcoin/subscription",
        "tags_url": "https://api.github.com/repos/fanquake/bitcoin/tags",
        "teams_url": "https://api.github.com/repos/fanquake/bitcoin/teams",
        "trees_url": "https://api.github.com/repos/fanquake/bitcoin/git/trees%7B/sha%7D",
        "clone_url": "https://github.com/fanquake/bitcoin.git",
        "hooks_url": "https://api.github.com/repos/fanquake/bitcoin/hooks",
        "svn_url": "https://github.com/fanquake/bitcoin",
        "homepage": "http://www.bitcoincore.org",
        "language": "C++",
        "forks_count": 5,
        "stargazers_count": 13,
        "watchers_count": 13,
        "size": 215355,
        "default_branch": "master",
        "open_issues_count": 0,
        "is_template": false,
        "topics": [],
        "has_issues": false,
        "has_projects": false,
        "has_wiki": false,
        "has_pages": false,
        "has_downloads": false,
        "archived": false,
        "disabled": false,
        "visibility": "public",
        "pushed_at": "2023-08-02T12:28:14Z",
        "created_at": "2012-09-22T05:28:42Z",
        "updated_at": "2023-04-27T19:34:01Z",
        "license": {
          "key": "mit",
          "name": "MIT License",
          "node_id": "MDc6TGljZW5zZTEz",
          "spdx_id": "MIT",
          "url": "https://api.github.com/licenses/mit",
          "html_url": null,
          "description": null,
          "implementation": null,
          "permissions": null,
          "conditions": null,
          "limitations": null,
          "body": null,
          "featured": null
        }
      }
    },
    "base": {
      "label": "bitcoin:master",
      "ref": "master",
      "sha": "635f1900d048e41d18cc1df7e8305a5f397c87a3",
      "user": {
        "login": "bitcoin",
        "id": 528860,
        "node_id": "MDEyOk9yZ2FuaXphdGlvbjUyODg2MA==",
        "avatar_url": "https://avatars.githubusercontent.com/u/528860?v=4",
        "gravatar_id": "",
        "url": "https://api.github.com/users/bitcoin",
        "html_url": "https://github.com/bitcoin",
        "followers_url": "https://api.github.com/users/bitcoin/followers",
        "following_url": "https://api.github.com/users/bitcoin/following%7B/other_user%7D",
        "gists_url": "https://api.github.com/users/bitcoin/gists%7B/gist_id%7D",
        "starred_url": "https://api.github.com/users/bitcoin/starred%7B/owner%7D%7B/repo%7D",
        "subscriptions_url": "https://api.github.com/users/bitcoin/subscriptions",
        "organizations_url": "https://api.github.com/users/bitcoin/orgs",
        "repos_url": "https://api.github.com/users/bitcoin/repos",
        "events_url": "https://api.github.com/users/bitcoin/events%7B/privacy%7D",
        "received_events_url": "https://api.github.com/users/bitcoin/received_events",
        "type": "Organization",
        "site_admin": false
      },
      "repo": {
        "id": 1181927,
        "node_id": "MDEwOlJlcG9zaXRvcnkxMTgxOTI3",
        "name": "bitcoin",
        "full_name": "bitcoin/bitcoin",
        "owner": {
          "login": "bitcoin",
          "id": 528860,
          "node_id": "MDEyOk9yZ2FuaXphdGlvbjUyODg2MA==",
          "avatar_url": "https://avatars.githubusercontent.com/u/528860?v=4",
          "gravatar_id": "",
          "url": "https://api.github.com/users/bitcoin",
          "html_url": "https://github.com/bitcoin",
          "followers_url": "https://api.github.com/users/bitcoin/followers",
          "following_url": "https://api.github.com/users/bitcoin/following%7B/other_user%7D",
          "gists_url": "https://api.github.com/users/bitcoin/gists%7B/gist_id%7D",
          "starred_url": "https://api.github.com/users/bitcoin/starred%7B/owner%7D%7B/repo%7D",
          "subscriptions_url": "https://api.github.com/users/bitcoin/subscriptions",
          "organizations_url": "https://api.github.com/users/bitcoin/orgs",
          "repos_url": "https://api.github.com/users/bitcoin/repos",
          "events_url": "https://api.github.com/users/bitcoin/events%7B/privacy%7D",
          "received_events_url": "https://api.github.com/users/bitcoin/received_events",
          "type": "Organization",
          "site_admin": false
        },
        "private": false,
        "html_url": "https://github.com/bitcoin/bitcoin",
        "description": "Bitcoin Core integration/staging tree",
        "fork": false,
        "url": "https://api.github.com/repos/bitcoin/bitcoin",
        "archive_url": "https://api.github.com/repos/bitcoin/bitcoin/%7Barchive_format%7D%7B/ref%7D",
        "assignees_url": "https://api.github.com/repos/bitcoin/bitcoin/assignees%7B/user%7D",
        "blobs_url": "https://api.github.com/repos/bitcoin/bitcoin/git/blobs%7B/sha%7D",
        "branches_url": "https://api.github.com/repos/bitcoin/bitcoin/branches%7B/branch%7D",
        "collaborators_url": "https://api.github.com/repos/bitcoin/bitcoin/collaborators%7B/collaborator%7D",
        "comments_url": "https://api.github.com/repos/bitcoin/bitcoin/comments%7B/number%7D",
        "commits_url": "https://api.github.com/repos/bitcoin/bitcoin/commits%7B/sha%7D",
        "compare_url": "https://api.github.com/repos/bitcoin/bitcoin/compare/%7Bbase%7D...%7Bhead%7D",
        "contents_url": "https://api.github.com/repos/bitcoin/bitcoin/contents/%7B+path%7D",
        "contributors_url": "https://api.github.com/repos/bitcoin/bitcoin/contributors",
        "deployments_url": "https://api.github.com/repos/bitcoin/bitcoin/deployments",
        "downloads_url": "https://api.github.com/repos/bitcoin/bitcoin/downloads",
        "events_url": "https://api.github.com/repos/bitcoin/bitcoin/events",
        "forks_url": "https://api.github.com/repos/bitcoin/bitcoin/forks",
        "git_commits_url": "https://api.github.com/repos/bitcoin/bitcoin/git/commits%7B/sha%7D",
        "git_refs_url": "https://api.github.com/repos/bitcoin/bitcoin/git/refs%7B/sha%7D",
        "git_tags_url": "https://api.github.com/repos/bitcoin/bitcoin/git/tags%7B/sha%7D",
        "git_url": "git://github.com/bitcoin/bitcoin.git",
        "issue_comment_url": "https://api.github.com/repos/bitcoin/bitcoin/issues/comments%7B/number%7D",
        "issue_events_url": "https://api.github.com/repos/bitcoin/bitcoin/issues/events%7B/number%7D",
        "issues_url": "https://api.github.com/repos/bitcoin/bitcoin/issues%7B/number%7D",
        "keys_url": "https://api.github.com/repos/bitcoin/bitcoin/keys%7B/key_id%7D",
        "labels_url": "https://api.github.com/repos/bitcoin/bitcoin/labels%7B/name%7D",
        "languages_url": "https://api.github.com/repos/bitcoin/bitcoin/languages",
        "merges_url": "https://api.github.com/repos/bitcoin/bitcoin/merges",
        "milestones_url": "https://api.github.com/repos/bitcoin/bitcoin/milestones%7B/number%7D",
        "notifications_url": "https://api.github.com/repos/bitcoin/bitcoin/notifications%7B?since,all,participating}",
        "pulls_url": "https://api.github.com/repos/bitcoin/bitcoin/pulls%7B/number%7D",
        "releases_url": "https://api.github.com/repos/bitcoin/bitcoin/releases%7B/id%7D",
        "ssh_url": "git@github.com:bitcoin/bitcoin.git",
        "stargazers_url": "https://api.github.com/repos/bitcoin/bitcoin/stargazers",
        "statuses_url": "https://api.github.com/repos/bitcoin/bitcoin/statuses/%7Bsha%7D",
        "subscribers_url": "https://api.github.com/repos/bitcoin/bitcoin/subscribers",
        "subscription_url": "https://api.github.com/repos/bitcoin/bitcoin/subscription",
        "tags_url": "https://api.github.com/repos/bitcoin/bitcoin/tags",
        "teams_url": "https://api.github.com/repos/bitcoin/bitcoin/teams",
        "trees_url": "https://api.github.com/repos/bitcoin/bitcoin/git/trees%7B/sha%7D",
        "clone_url": "https://github.com/bitcoin/bitcoin.git",
        "hooks_url": "https://api.github.com/repos/bitcoin/bitcoin/hooks",
        "svn_url": "https://github.com/bitcoin/bitcoin",
        "homepage": "https://bitcoincore.org/en/download",
        "language": "C++",
        "forks_count": 35476,
        "stargazers_count": 70608,
        "watchers_count": 70608,
        "size": 236222,
        "default_branch": "master",
        "open_issues_count": 673,
        "is_template": false,
        "topics": [
          "bitcoin",
          "c-plus-plus",
          "cryptocurrency",
          "cryptography",
          "p2p"
        ],
        "has_issues": true,
        "has_projects": true,
        "has_wiki": false,
        "has_pages": false,
        "has_downloads": false,
        "archived": false,
        "disabled": false,
        "visibility": "public",
        "pushed_at": "2023-08-03T00:03:27Z",
        "created_at": "2010-12-19T15:16:43Z",
        "updated_at": "2023-08-02T18:21:18Z",
        "license": {
          "key": "mit",
          "name": "MIT License",
          "node_id": "MDc6TGljZW5zZTEz",
          "spdx_id": "MIT",
          "url": "https://api.github.com/licenses/mit",
          "html_url": null,
          "description": null,
          "implementation": null,
          "permissions": null,
          "conditions": null,
          "limitations": null,
          "body": null,
          "featured": null
        }
      }
    },
    "_links": {
      "self": {
        "href": "https://api.github.com/repos/bitcoin/bitcoin/pulls/26904"
      }
    },
    "author_association": "MEMBER",
    "draft": false,
    "additions": 2,
    "deletions": 2,
    "changed_files": 1,
    "commits": 1,
    "review_comments": 0,
    "comments": 3
  },
  "events": [
    {
      "event": "committed",
      "id": null,
      "node_id": "C_kwDOABII59oAKDg3YTA4Y2JhNDNmOGRjNDI3ZWZjY2JkNDVkMjhhY2M2NTJkYjJjYjY",
      "url": "https://api.github.com/repos/bitcoin/bitcoin/git/commits/87a08cba43f8dc427efccbd45d28acc652db2cb6",
      "actor": null,
      "commit_id": null,
      "commit_url": null,
      "created_at": null,
      "html_url": "https://github.com/bitcoin/bitcoin/commit/87a08cba43f8dc427efccbd45d28acc652db2cb6",
      "tree": {
        "sha": "f29824bcf8712c860725f8bf3757d77d52c056e6",
        "url": "https://api.github.com/repos/bitcoin/bitcoin/git/trees/f29824bcf8712c860725f8bf3757d77d52c056e6"
      },
      "verification": {
        "verified": true,
        "reason": "valid",
        "payload": "tree f29824bcf8712c860725f8bf3757d77d52c056e6\nparent 635f1900d048e41d18cc1df7e8305a5f397c87a3\nauthor fanquake <fanquake@gmail.com> 1673953328 +0000\ncommitter fanquake <fanquake@gmail.com> 1673953328 +0000\n\nbuild: move rpc/request from util lib to common\n\nThis is JSON RPC request code that doesn't need to be in util, and\nshould not be required by the kernel.\n",
        "signature": "-----BEGIN PGP SIGNATURE-----\n\niQIzBAABCAAdFiEEz7FuIclQ9n+pXlWPLuufXMCVJsEFAmPGgI0ACgkQLuufXMCV\nJsEE/RAApplzNfXoOkJwAy20gTN8f5BkHcizapw6lc0CL4OoCsz4NQbKvOs5D/4q\nbjjgkWqgjPsvfwc1IVxT3enwn5D6SGM7nZ2CpPsfufJPpW3BaI9G6fJPWdjyvyIu\nFz8wb96BEvWoyBULi7QfkM/EgwyKCSVM3QgFrM366dSiSBeYNUlhZfbP2jlDcF7E\nacFT75gFD7vHDOGfun7hwPjNHXU/I4tJNYECkbU/ExjFKT2iIuOKG3F1HQgv+/gz\nstgvbeBIjCUin9KDWwEwrELJgqW6naYGgBNZVfuWbbbtmyo6UiKTYxXZZmfVvyrR\nSuXqWeEEoplwstZZc4waKup8rbu2ZUh45J/VN0aKDHVUTwjtIWe52SDclb8atitu\nlRSKNaAAxUeogEZOMNm3tq6JD4NGr/dh9TbOnTsVdNLS/s3PCBqQHgKBSPzjPrOQ\n6oTKkrGkAVvq1Wb6sATYBonYHweXr9vJw+JDl9j7+u/74G2obXkz0i4/18ylnrgK\ngqxPSiDo8FezkZEck8g9SoYpi97yGYkcpF2OYt3FRZrHxeA+Yx1XXIFN25Itthp7\nV29vfrakFg05L0ACyb1zx1oesvML+/rzGXTngzwRVyYPX0+lZtHQva7yBT/c+79a\n72YB/AVoJnQ8N8kQJxRFfx9Mu+OOWv3Pyn6thQNgjZE66GxilYs=\n=ULgv\n-----END PGP SIGNATURE-----"
      },
      "parents": [
        {
          "url": "https://api.github.com/repos/bitcoin/bitcoin/git/commits/635f1900d048e41d18cc1df7e8305a5f397c87a3",
          "sha": "635f1900d048e41d18cc1df7e8305a5f397c87a3",
          "html_url": "https://github.com/bitcoin/bitcoin/commit/635f1900d048e41d18cc1df7e8305a5f397c87a3"
        }
      ],
      "message": "build: move rpc/request from util lib to common\n\nThis is JSON RPC request code that doesn't need to be in util, and\nshould not be required by the kernel.",
      "committer": {
        "name": "fanquake",
        "email": "fanquake@gmail.com",
        "date": "2023-01-17T11:02:08Z"
      },
      "author": {
        "name": "fanquake",
        "email": "fanquake@gmail.com",
        "date": "2023-01-17T11:02:08Z"
      },
      "sha": "87a08cba43f8dc427efccbd45d28acc652db2cb6"
    },
    {
      "event": "labeled",
      "id": 8245016314,
      "node_id": "LE_lADOABII585bkZxrzwAAAAHrcPb6",
      "url": "https://api.github.com/repos/bitcoin/bitcoin/issues/events/8245016314",
      "actor": {
        "login": "fanquake",
        "id": 863730,
        "node_id": "MDQ6VXNlcjg2MzczMA==",
        "avatar_url": "https://avatars.githubusercontent.com/u/863730?v=4",
        "gravatar_id": "",
        "url": "https://api.github.com/users/fanquake",
        "html_url": "https://github.com/fanquake",
        "followers_url": "https://api.github.com/users/fanquake/followers",
        "following_url": "https://api.github.com/users/fanquake/following%7B/other_user%7D",
        "gists_url": "https://api.github.com/users/fanquake/gists%7B/gist_id%7D",
        "starred_url": "https://api.github.com/users/fanquake/starred%7B/owner%7D%7B/repo%7D",
        "subscriptions_url": "https://api.github.com/users/fanquake/subscriptions",
        "organizations_url": "https://api.github.com/users/fanquake/orgs",
        "repos_url": "https://api.github.com/users/fanquake/repos",
        "events_url": "https://api.github.com/users/fanquake/events%7B/privacy%7D",
        "received_events_url": "https://api.github.com/users/fanquake/received_events",
        "type": "User",
        "site_admin": false
      },
      "commit_id": null,
      "commit_url": null,
      "created_at": "2023-01-17T12:05:02Z",
      "label": {
        "name": "Build system",
        "color": "5319e7"
      }
    },
    {
      "event": "commented",
      "id": 1385324856,
      "node_id": "IC_kwDOABII585SkmE4",
      "url": "https://api.github.com/repos/bitcoin/bitcoin/issues/comments/1385324856",
      "actor": {
        "login": "DrahtBot",
        "id": 39886733,
        "node_id": "MDQ6VXNlcjM5ODg2NzMz",
        "avatar_url": "https://avatars.githubusercontent.com/u/39886733?v=4",
        "gravatar_id": "",
        "url": "https://api.github.com/users/DrahtBot",
        "html_url": "https://github.com/DrahtBot",
        "followers_url": "https://api.github.com/users/DrahtBot/followers",
        "following_url": "https://api.github.com/users/DrahtBot/following%7B/other_user%7D",
        "gists_url": "https://api.github.com/users/DrahtBot/gists%7B/gist_id%7D",
        "starred_url": "https://api.github.com/users/DrahtBot/starred%7B/owner%7D%7B/repo%7D",
        "subscriptions_url": "https://api.github.com/users/DrahtBot/subscriptions",
        "organizations_url": "https://api.github.com/users/DrahtBot/orgs",
        "repos_url": "https://api.github.com/users/DrahtBot/repos",
        "events_url": "https://api.github.com/users/DrahtBot/events%7B/privacy%7D",
        "received_events_url": "https://api.github.com/users/DrahtBot/received_events",
        "type": "User",
        "site_admin": false
      },
      "commit_id": null,
      "commit_url": null,
      "created_at": "2023-01-17T12:05:05Z",
      "updated_at": "2023-01-17T17:43:08Z",
      "author_association": "CONTRIBUTOR",
      "body": "<!--e57a25ab6845829454e8d69fc972939a-->\n\nThe following sections might be updated with supplementary metadata relevant to reviewers and maintainers.\n\n<!--021abf342d371248e50ceaed478a90ca-->\n### Reviews\nSee [the guideline](https://github.com/bitcoin/bitcoin/blob/master/CONTRIBUTING.md#code-review) for information on the review process.\n| Type | Reviewers |\n| ---- | --------- |\n| ACK | [TheCharlatan](https://github.com/bitcoin/bitcoin/pull/26904#pullrequestreview-1252123237) |\n\nIf your review is incorrectly listed, please react with 👎 to this comment and the bot will ignore it on the next update.\n",
      "user": {
        "login": "DrahtBot",
        "id": 39886733,
        "node_id": "MDQ6VXNlcjM5ODg2NzMz",
        "avatar_url": "https://avatars.githubusercontent.com/u/39886733?v=4",
        "gravatar_id": "",
        "url": "https://api.github.com/users/DrahtBot",
        "html_url": "https://github.com/DrahtBot",
        "followers_url": "https://api.github.com/users/DrahtBot/followers",
        "following_url": "https://api.github.com/users/DrahtBot/following%7B/other_user%7D",
        "gists_url": "https://api.github.com/users/DrahtBot/gists%7B/gist_id%7D",
        "starred_url": "https://api.github.com/users/DrahtBot/starred%7B/owner%7D%7B/repo%7D",
        "subscriptions_url": "https://api.github.com/users/DrahtBot/subscriptions",
        "organizations_url": "https://api.github.com/users/DrahtBot/orgs",
        "repos_url": "https://api.github.com/users/DrahtBot/repos",
        "events_url": "https://api.github.com/users/DrahtBot/events%7B/privacy%7D",
        "received_events_url": "https://api.github.com/users/DrahtBot/received_events",
        "type": "User",
        "site_admin": false
      },
      "html_url": "https://github.com/bitcoin/bitcoin/pull/26904#issuecomment-1385324856",
      "issue_url": "https://api.github.com/repos/bitcoin/bitcoin/issues/26904"
    },
    {
      "event": "labeled",
      "id": 8245158591,
      "node_id": "LE_lADOABII585bkZxrzwAAAAHrcyK_",
      "url": "https://api.github.com/repos/bitcoin/bitcoin/issues/events/8245158591",
      "actor": {
        "login": "MarcoFalke",
        "id": 6399679,
        "node_id": "MDQ6VXNlcjYzOTk2Nzk=",
        "avatar_url": "https://avatars.githubusercontent.com/u/6399679?v=4",
        "gravatar_id": "",
        "url": "https://api.github.com/users/MarcoFalke",
        "html_url": "https://github.com/MarcoFalke",
        "followers_url": "https://api.github.com/users/MarcoFalke/followers",
        "following_url": "https://api.github.com/users/MarcoFalke/following%7B/other_user%7D",
        "gists_url": "https://api.github.com/users/MarcoFalke/gists%7B/gist_id%7D",
        "starred_url": "https://api.github.com/users/MarcoFalke/starred%7B/owner%7D%7B/repo%7D",
        "subscriptions_url": "https://api.github.com/users/MarcoFalke/subscriptions",
        "organizations_url": "https://api.github.com/users/MarcoFalke/orgs",
        "repos_url": "https://api.github.com/users/MarcoFalke/repos",
        "events_url": "https://api.github.com/users/MarcoFalke/events%7B/privacy%7D",
        "received_events_url": "https://api.github.com/users/MarcoFalke/received_events",
        "type": "User",
        "site_admin": false
      },
      "commit_id": null,
      "commit_url": null,
      "created_at": "2023-01-17T12:22:20Z",
      "label": {
        "name": "DrahtBot Guix build requested",
        "color": "bfd4f2"
      }
    },
    {
      "event": "commented",
      "id": 1385511941,
      "node_id": "IC_kwDOABII585SlTwF",
      "url": "https://api.github.com/repos/bitcoin/bitcoin/issues/comments/1385511941",
      "actor": {
        "login": "fanquake",
        "id": 863730,
        "node_id": "MDQ6VXNlcjg2MzczMA==",
        "avatar_url": "https://avatars.githubusercontent.com/u/863730?v=4",
        "gravatar_id": "",
        "url": "https://api.github.com/users/fanquake",
        "html_url": "https://github.com/fanquake",
        "followers_url": "https://api.github.com/users/fanquake/followers",
        "following_url": "https://api.github.com/users/fanquake/following%7B/other_user%7D",
        "gists_url": "https://api.github.com/users/fanquake/gists%7B/gist_id%7D",
        "starred_url": "https://api.github.com/users/fanquake/starred%7B/owner%7D%7B/repo%7D",
        "subscriptions_url": "https://api.github.com/users/fanquake/subscriptions",
        "organizations_url": "https://api.github.com/users/fanquake/orgs",
        "repos_url": "https://api.github.com/users/fanquake/repos",
        "events_url": "https://api.github.com/users/fanquake/events%7B/privacy%7D",
        "received_events_url": "https://api.github.com/users/fanquake/received_events",
        "type": "User",
        "site_admin": false
      },
      "commit_id": null,
      "commit_url": null,
      "created_at": "2023-01-17T14:28:30Z",
      "updated_at": "2023-01-17T14:28:30Z",
      "author_association": "MEMBER",
      "body": "Guix Build:\r\n```bash\r\n6ba469c1a8862af7e9113ac1129cb81b78ca0f2c5cebde74d7c405fd21741eaf  guix-build-87a08cba43f8/output/aarch64-linux-gnu/SHA256SUMS.part\r\na7bc04e3019e8e234979ea5213b58d420d7753cfd3649ab13dda39cf9adfd491  guix-build-87a08cba43f8/output/aarch64-linux-gnu/bitcoin-87a08cba43f8-aarch64-linux-gnu-debug.tar.gz\r\n23cdf73cfe982b155049c208d87d666d601e8b29636ba3f2c1c7d37d04ae863c  guix-build-87a08cba43f8/output/aarch64-linux-gnu/bitcoin-87a08cba43f8-aarch64-linux-gnu.tar.gz\r\n1ea20d42602066777673fde0e3155cb445623f624df059e94ad17c94ad43344e  guix-build-87a08cba43f8/output/arm-linux-gnueabihf/SHA256SUMS.part\r\nc1faa5eb352b121aecd08c62b6401a7e32940bbf8667fb839d8da5138621ce9b  guix-build-87a08cba43f8/output/arm-linux-gnueabihf/bitcoin-87a08cba43f8-arm-linux-gnueabihf-debug.tar.gz\r\n01a06f2cb35e88020fb322b93a9e454a9ea3e9b2af3cb75294e96128e48859ad  guix-build-87a08cba43f8/output/arm-linux-gnueabihf/bitcoin-87a08cba43f8-arm-linux-gnueabihf.tar.gz\r\n1d18c0a97ae3639f4f8e0311649c9e6ae8dfbca1dc68d1821ab1cfdd691206f0  guix-build-87a08cba43f8/output/arm64-apple-darwin/SHA256SUMS.part\r\n48c55dc55000f7d930488c1ee802425c862b2cea50d89ed6cb729b81e28038a7  guix-build-87a08cba43f8/output/arm64-apple-darwin/bitcoin-87a08cba43f8-arm64-apple-darwin-unsigned.dmg\r\n9ff10c8c0e84a1e352111685d26a1d7125f8d03eb4b58adab9280d3f700d14e3  guix-build-87a08cba43f8/output/arm64-apple-darwin/bitcoin-87a08cba43f8-arm64-apple-darwin-unsigned.tar.gz\r\na79494c1941a0ca2579ac740a92620cb5bf486574816eb8b11100ebc85069833  guix-build-87a08cba43f8/output/arm64-apple-darwin/bitcoin-87a08cba43f8-arm64-apple-darwin.tar.gz\r\n572c228d4c7aa9c89f54d2e5bd32c0f3391a29a9312f769bdc9e6a752cd257f7  guix-build-87a08cba43f8/output/dist-archive/bitcoin-87a08cba43f8.tar.gz\r\nd9ee48244ff6f95d29011789a959cb2ddae144d294562f779b430ca38deb447d  guix-build-87a08cba43f8/output/powerpc64-linux-gnu/SHA256SUMS.part\r\ne8a4dbce02364cec2b3a3823576fe0fd8e52bba4b6cec2818be880339e1490dd  guix-build-87a08cba43f8/output/powerpc64-linux-gnu/bitcoin-87a08cba43f8-powerpc64-linux-gnu-debug.tar.gz\r\n71d0e0419576b670b384a95e559266c1a1085b0bb97fe627484b1444652ef95e  guix-build-87a08cba43f8/output/powerpc64-linux-gnu/bitcoin-87a08cba43f8-powerpc64-linux-gnu.tar.gz\r\nbe0b23285bfc1e0225226729c520596ab53e79d9c2d49836580c03be6b8bdb81  guix-build-87a08cba43f8/output/powerpc64le-linux-gnu/SHA256SUMS.part\r\nd71a08ac852703cd5266eda1cec0823621108bc255bd9c1f76e154be291a3709  guix-build-87a08cba43f8/output/powerpc64le-linux-gnu/bitcoin-87a08cba43f8-powerpc64le-linux-gnu-debug.tar.gz\r\n2639370302ea81ff7b3b28facf4b69629bd9da24b3913ffd4575fefc44d0afb3  guix-build-87a08cba43f8/output/powerpc64le-linux-gnu/bitcoin-87a08cba43f8-powerpc64le-linux-gnu.tar.gz\r\n4799408e111e848e160d77d6a0ba98bdb2c5e46606820be3e2b802d57ba352a0  guix-build-87a08cba43f8/output/riscv64-linux-gnu/SHA256SUMS.part\r\nb66215601c5fe68092f9500f07cc43ba56f27f09167bf2a3fb0e3758656c79a8  guix-build-87a08cba43f8/output/riscv64-linux-gnu/bitcoin-87a08cba43f8-riscv64-linux-gnu-debug.tar.gz\r\n7714afc79ee6c9c794f1e713238a2999c2c4b01a6cff0006824eb3cbd01da6ca  guix-build-87a08cba43f8/output/riscv64-linux-gnu/bitcoin-87a08cba43f8-riscv64-linux-gnu.tar.gz\r\ne8bb0ed4f9b9abd5fb33f14863a5208a9d21ecccdac9015b070045c8a5996d85  guix-build-87a08cba43f8/output/x86_64-apple-darwin/SHA256SUMS.part\r\n3121b3d67ad0e24290cb1c65e3785bcd89a880d4677a76f33693d976fdbc6a50  guix-build-87a08cba43f8/output/x86_64-apple-darwin/bitcoin-87a08cba43f8-x86_64-apple-darwin-unsigned.dmg\r\ne29c6eca53b295fef07c84a1d7af8611db5d14a572eaa39e5899bd8679d0840e  guix-build-87a08cba43f8/output/x86_64-apple-darwin/bitcoin-87a08cba43f8-x86_64-apple-darwin-unsigned.tar.gz\r\n849054a82d3aa0facce4d5a1a46649ac8198cb9c2c6205193662cacf5030efc1  guix-build-87a08cba43f8/output/x86_64-apple-darwin/bitcoin-87a08cba43f8-x86_64-apple-darwin.tar.gz\r\nb81ca1abe213a212cd6211fb8d046e0e12c407c47476392eeaf6e85bd1222394  guix-build-87a08cba43f8/output/x86_64-linux-gnu/SHA256SUMS.part\r\nf74147c7cd2aa20f37340c71829c5a5cf0ccb3f24fddf015f4f7c3b26997cd33  guix-build-87a08cba43f8/output/x86_64-linux-gnu/bitcoin-87a08cba43f8-x86_64-linux-gnu-debug.tar.gz\r\n28fd5b9d395d6f90607eb91f4cc677ee27c2b636e307b84edde90b7cfabf6c31  guix-build-87a08cba43f8/output/x86_64-linux-gnu/bitcoin-87a08cba43f8-x86_64-linux-gnu.tar.gz\r\nbe5dcfb490c14dc810bf936b62dc0144bc28cfcd6caec01a7295baed5b9b7f30  guix-build-87a08cba43f8/output/x86_64-w64-mingw32/SHA256SUMS.part\r\nde3fea65ee56e0ee56e7caa285908ffac04a58300cf344042b742ebb038b1248  guix-build-87a08cba43f8/output/x86_64-w64-mingw32/bitcoin-87a08cba43f8-win64-debug.zip\r\na0e4ab1bb59624d4cb9f9eadf3e21c320daf7a249779082ab0357cd223849631  guix-build-87a08cba43f8/output/x86_64-w64-mingw32/bitcoin-87a08cba43f8-win64-setup-unsigned.exe\r\nc74f0c722ca43b06a01cd4e48d9ff21ee6ceb5be7c1df1c33d739214b657e38c  guix-build-87a08cba43f8/output/x86_64-w64-mingw32/bitcoin-87a08cba43f8-win64-unsigned.tar.gz\r\n0ce4b7fb3fd0d681892ef52672e1a4a3011726450f7087774be9a6601df0a60b  guix-build-87a08cba43f8/output/x86_64-w64-mingw32/bitcoin-87a08cba43f8-win64.zip\r\n```",
      "user": {
        "login": "fanquake",
        "id": 863730,
        "node_id": "MDQ6VXNlcjg2MzczMA==",
        "avatar_url": "https://avatars.githubusercontent.com/u/863730?v=4",
        "gravatar_id": "",
        "url": "https://api.github.com/users/fanquake",
        "html_url": "https://github.com/fanquake",
        "followers_url": "https://api.github.com/users/fanquake/followers",
        "following_url": "https://api.github.com/users/fanquake/following%7B/other_user%7D",
        "gists_url": "https://api.github.com/users/fanquake/gists%7B/gist_id%7D",
        "starred_url": "https://api.github.com/users/fanquake/starred%7B/owner%7D%7B/repo%7D",
        "subscriptions_url": "https://api.github.com/users/fanquake/subscriptions",
        "organizations_url": "https://api.github.com/users/fanquake/orgs",
        "repos_url": "https://api.github.com/users/fanquake/repos",
        "events_url": "https://api.github.com/users/fanquake/events%7B/privacy%7D",
        "received_events_url": "https://api.github.com/users/fanquake/received_events",
        "type": "User",
        "site_admin": false
      },
      "html_url": "https://github.com/bitcoin/bitcoin/pull/26904#issuecomment-1385511941",
      "issue_url": "https://api.github.com/repos/bitcoin/bitcoin/issues/26904"
    },
    {
      "event": "reviewed",
      "id": 1252123237,
      "node_id": "PRR_kwDOABII585KoeJl",
      "url": null,
      "actor": null,
      "commit_id": "87a08cba43f8dc427efccbd45d28acc652db2cb6",
      "commit_url": null,
      "created_at": null,
      "author_association": "CONTRIBUTOR",
      "body": "ACK 87a08cba43f8dc427efccbd45d28acc652db2cb6",
      "user": {
        "login": "TheCharlatan",
        "id": 8421793,
        "node_id": "MDQ6VXNlcjg0MjE3OTM=",
        "avatar_url": "https://avatars.githubusercontent.com/u/8421793?v=4",
        "gravatar_id": "",
        "url": "https://api.github.com/users/TheCharlatan",
        "html_url": "https://github.com/TheCharlatan",
        "followers_url": "https://api.github.com/users/TheCharlatan/followers",
        "following_url": "https://api.github.com/users/TheCharlatan/following%7B/other_user%7D",
        "gists_url": "https://api.github.com/users/TheCharlatan/gists%7B/gist_id%7D",
        "starred_url": "https://api.github.com/users/TheCharlatan/starred%7B/owner%7D%7B/repo%7D",
        "subscriptions_url": "https://api.github.com/users/TheCharlatan/subscriptions",
        "organizations_url": "https://api.github.com/users/TheCharlatan/orgs",
        "repos_url": "https://api.github.com/users/TheCharlatan/repos",
        "events_url": "https://api.github.com/users/TheCharlatan/events%7B/privacy%7D",
        "received_events_url": "https://api.github.com/users/TheCharlatan/received_events",
        "type": "User",
        "site_admin": false
      },
      "html_url": "https://github.com/bitcoin/bitcoin/pull/26904#pullrequestreview-1252123237",
      "submitted_at": "2023-01-17T17:43:05Z",
      "state": "APPROVED",
      "pull_request_url": "https://api.github.com/repos/bitcoin/bitcoin/pulls/26904"
    },
    {
      "event": "commented",
      "id": 1386331222,
      "node_id": "IC_kwDOABII585SobxW",
      "url": "https://api.github.com/repos/bitcoin/bitcoin/issues/comments/1386331222",
      "actor": {
        "login": "DrahtBot",
        "id": 39886733,
        "node_id": "MDQ6VXNlcjM5ODg2NzMz",
        "avatar_url": "https://avatars.githubusercontent.com/u/39886733?v=4",
        "gravatar_id": "",
        "url": "https://api.github.com/users/DrahtBot",
        "html_url": "https://github.com/DrahtBot",
        "followers_url": "https://api.github.com/users/DrahtBot/followers",
        "following_url": "https://api.github.com/users/DrahtBot/following%7B/other_user%7D",
        "gists_url": "https://api.github.com/users/DrahtBot/gists%7B/gist_id%7D",
        "starred_url": "https://api.github.com/users/DrahtBot/starred%7B/owner%7D%7B/repo%7D",
        "subscriptions_url": "https://api.github.com/users/DrahtBot/subscriptions",
        "organizations_url": "https://api.github.com/users/DrahtBot/orgs",
        "repos_url": "https://api.github.com/users/DrahtBot/repos",
        "events_url": "https://api.github.com/users/DrahtBot/events%7B/privacy%7D",
        "received_events_url": "https://api.github.com/users/DrahtBot/received_events",
        "type": "User",
        "site_admin": false
      },
      "commit_id": null,
      "commit_url": null,
      "created_at": "2023-01-18T01:25:27Z",
      "updated_at": "2023-01-18T01:25:27Z",
      "author_association": "CONTRIBUTOR",
      "body": "<!--9cd9c72976c961c55c7acef8f6ba82cd-->\n### Guix builds\n\n| File | commit 635f1900d048e41d18cc1df7e8305a5f397c87a3<br>(master) | commit 9c9717b966c3dbd08aeaea22a615b259631d0c4b<br>(master and this pull) |\n|--|--|--|\n| SHA256SUMS.part | [`3c9318cef0545624...`](https://drahtbot.space/guix/bitcoin/bitcoin/635f1900d048e41d18cc1df7e8305a5f397c87a3/SHA256SUMS.part) | [`fd4431c16822ae47...`](https://drahtbot.space/guix/bitcoin/bitcoin/9c9717b966c3dbd08aeaea22a615b259631d0c4b/SHA256SUMS.part) |\n| *-aarch64-linux-gnu-debug.tar.gz | [`1d293f8fa4aa7e95...`](https://drahtbot.space/guix/bitcoin/bitcoin/635f1900d048e41d18cc1df7e8305a5f397c87a3/bitcoin-635f1900d048-aarch64-linux-gnu-debug.tar.gz) | [`1705abcfd809f925...`](https://drahtbot.space/guix/bitcoin/bitcoin/9c9717b966c3dbd08aeaea22a615b259631d0c4b/bitcoin-9c9717b966c3-aarch64-linux-gnu-debug.tar.gz) |\n| *-aarch64-linux-gnu.tar.gz | [`89f8101a24bc7045...`](https://drahtbot.space/guix/bitcoin/bitcoin/635f1900d048e41d18cc1df7e8305a5f397c87a3/bitcoin-635f1900d048-aarch64-linux-gnu.tar.gz) | [`ace160900e6a9198...`](https://drahtbot.space/guix/bitcoin/bitcoin/9c9717b966c3dbd08aeaea22a615b259631d0c4b/bitcoin-9c9717b966c3-aarch64-linux-gnu.tar.gz) |\n| *-arm-linux-gnueabihf-debug.tar.gz | [`cc40667d6ed9597a...`](https://drahtbot.space/guix/bitcoin/bitcoin/635f1900d048e41d18cc1df7e8305a5f397c87a3/bitcoin-635f1900d048-arm-linux-gnueabihf-debug.tar.gz) | [`e2c25857ec382e8b...`](https://drahtbot.space/guix/bitcoin/bitcoin/9c9717b966c3dbd08aeaea22a615b259631d0c4b/bitcoin-9c9717b966c3-arm-linux-gnueabihf-debug.tar.gz) |\n| *-arm-linux-gnueabihf.tar.gz | [`fdc82712af8a9005...`](https://drahtbot.space/guix/bitcoin/bitcoin/635f1900d048e41d18cc1df7e8305a5f397c87a3/bitcoin-635f1900d048-arm-linux-gnueabihf.tar.gz) | [`c7bbedb83ee270d9...`](https://drahtbot.space/guix/bitcoin/bitcoin/9c9717b966c3dbd08aeaea22a615b259631d0c4b/bitcoin-9c9717b966c3-arm-linux-gnueabihf.tar.gz) |\n| *-arm64-apple-darwin-unsigned.dmg | [`5617f077002d9a92...`](https://drahtbot.space/guix/bitcoin/bitcoin/635f1900d048e41d18cc1df7e8305a5f397c87a3/bitcoin-635f1900d048-arm64-apple-darwin-unsigned.dmg) | [`f6f76cad3f7a601e...`](https://drahtbot.space/guix/bitcoin/bitcoin/9c9717b966c3dbd08aeaea22a615b259631d0c4b/bitcoin-9c9717b966c3-arm64-apple-darwin-unsigned.dmg) |\n| *-arm64-apple-darwin-unsigned.tar.gz | [`485c4af0335ff134...`](https://drahtbot.space/guix/bitcoin/bitcoin/635f1900d048e41d18cc1df7e8305a5f397c87a3/bitcoin-635f1900d048-arm64-apple-darwin-unsigned.tar.gz) | [`fbb3832ca73f1192...`](https://drahtbot.space/guix/bitcoin/bitcoin/9c9717b966c3dbd08aeaea22a615b259631d0c4b/bitcoin-9c9717b966c3-arm64-apple-darwin-unsigned.tar.gz) |\n| *-arm64-apple-darwin.tar.gz | [`f6e3ea097c133612...`](https://drahtbot.space/guix/bitcoin/bitcoin/635f1900d048e41d18cc1df7e8305a5f397c87a3/bitcoin-635f1900d048-arm64-apple-darwin.tar.gz) | [`c2021008caea9128...`](https://drahtbot.space/guix/bitcoin/bitcoin/9c9717b966c3dbd08aeaea22a615b259631d0c4b/bitcoin-9c9717b966c3-arm64-apple-darwin.tar.gz) |\n| *-powerpc64-linux-gnu-debug.tar.gz | [`e2731051eb516242...`](https://drahtbot.space/guix/bitcoin/bitcoin/635f1900d048e41d18cc1df7e8305a5f397c87a3/bitcoin-635f1900d048-powerpc64-linux-gnu-debug.tar.gz) | [`7eb22b5a6f0133a7...`](https://drahtbot.space/guix/bitcoin/bitcoin/9c9717b966c3dbd08aeaea22a615b259631d0c4b/bitcoin-9c9717b966c3-powerpc64-linux-gnu-debug.tar.gz) |\n| *-powerpc64-linux-gnu.tar.gz | [`3b1d771ae42f70d5...`](https://drahtbot.space/guix/bitcoin/bitcoin/635f1900d048e41d18cc1df7e8305a5f397c87a3/bitcoin-635f1900d048-powerpc64-linux-gnu.tar.gz) | [`1e64c1712c13011c...`](https://drahtbot.space/guix/bitcoin/bitcoin/9c9717b966c3dbd08aeaea22a615b259631d0c4b/bitcoin-9c9717b966c3-powerpc64-linux-gnu.tar.gz) |\n| *-powerpc64le-linux-gnu-debug.tar.gz | [`c17f3f66658a5a0d...`](https://drahtbot.space/guix/bitcoin/bitcoin/635f1900d048e41d18cc1df7e8305a5f397c87a3/bitcoin-635f1900d048-powerpc64le-linux-gnu-debug.tar.gz) | [`fd61990ecca3386f...`](https://drahtbot.space/guix/bitcoin/bitcoin/9c9717b966c3dbd08aeaea22a615b259631d0c4b/bitcoin-9c9717b966c3-powerpc64le-linux-gnu-debug.tar.gz) |\n| *-powerpc64le-linux-gnu.tar.gz | [`40c6b28d196806ce...`](https://drahtbot.space/guix/bitcoin/bitcoin/635f1900d048e41d18cc1df7e8305a5f397c87a3/bitcoin-635f1900d048-powerpc64le-linux-gnu.tar.gz) | [`51f0bbaff7bce32c...`](https://drahtbot.space/guix/bitcoin/bitcoin/9c9717b966c3dbd08aeaea22a615b259631d0c4b/bitcoin-9c9717b966c3-powerpc64le-linux-gnu.tar.gz) |\n| *-riscv64-linux-gnu-debug.tar.gz | [`2a1a9566950d644c...`](https://drahtbot.space/guix/bitcoin/bitcoin/635f1900d048e41d18cc1df7e8305a5f397c87a3/bitcoin-635f1900d048-riscv64-linux-gnu-debug.tar.gz) | [`1ce04790a8fdf109...`](https://drahtbot.space/guix/bitcoin/bitcoin/9c9717b966c3dbd08aeaea22a615b259631d0c4b/bitcoin-9c9717b966c3-riscv64-linux-gnu-debug.tar.gz) |\n| *-riscv64-linux-gnu.tar.gz | [`54b020e75cb6f9d4...`](https://drahtbot.space/guix/bitcoin/bitcoin/635f1900d048e41d18cc1df7e8305a5f397c87a3/bitcoin-635f1900d048-riscv64-linux-gnu.tar.gz) | [`1d23d87758f4d9f0...`](https://drahtbot.space/guix/bitcoin/bitcoin/9c9717b966c3dbd08aeaea22a615b259631d0c4b/bitcoin-9c9717b966c3-riscv64-linux-gnu.tar.gz) |\n| *-win64-debug.zip | [`3ca8a7bb2a0d4e8e...`](https://drahtbot.space/guix/bitcoin/bitcoin/635f1900d048e41d18cc1df7e8305a5f397c87a3/bitcoin-635f1900d048-win64-debug.zip) | [`06a9f08da3578455...`](https://drahtbot.space/guix/bitcoin/bitcoin/9c9717b966c3dbd08aeaea22a615b259631d0c4b/bitcoin-9c9717b966c3-win64-debug.zip) |\n| *-win64-setup-unsigned.exe | [`3221971d81b9a61d...`](https://drahtbot.space/guix/bitcoin/bitcoin/635f1900d048e41d18cc1df7e8305a5f397c87a3/bitcoin-635f1900d048-win64-setup-unsigned.exe) | [`8701436f0d19e170...`](https://drahtbot.space/guix/bitcoin/bitcoin/9c9717b966c3dbd08aeaea22a615b259631d0c4b/bitcoin-9c9717b966c3-win64-setup-unsigned.exe) |\n| *-win64-unsigned.tar.gz | [`aaa68f0ce8c42a9c...`](https://drahtbot.space/guix/bitcoin/bitcoin/635f1900d048e41d18cc1df7e8305a5f397c87a3/bitcoin-635f1900d048-win64-unsigned.tar.gz) | [`bcb3c02547b13528...`](https://drahtbot.space/guix/bitcoin/bitcoin/9c9717b966c3dbd08aeaea22a615b259631d0c4b/bitcoin-9c9717b966c3-win64-unsigned.tar.gz) |\n| *-win64.zip | [`73bb8dc3d076b94b...`](https://drahtbot.space/guix/bitcoin/bitcoin/635f1900d048e41d18cc1df7e8305a5f397c87a3/bitcoin-635f1900d048-win64.zip) | [`7c0b49f09b7faa27...`](https://drahtbot.space/guix/bitcoin/bitcoin/9c9717b966c3dbd08aeaea22a615b259631d0c4b/bitcoin-9c9717b966c3-win64.zip) |\n| *-x86_64-apple-darwin-unsigned.dmg | [`e7718aabb5ba7c3a...`](https://drahtbot.space/guix/bitcoin/bitcoin/635f1900d048e41d18cc1df7e8305a5f397c87a3/bitcoin-635f1900d048-x86_64-apple-darwin-unsigned.dmg) | [`d76e0cedd35892da...`](https://drahtbot.space/guix/bitcoin/bitcoin/9c9717b966c3dbd08aeaea22a615b259631d0c4b/bitcoin-9c9717b966c3-x86_64-apple-darwin-unsigned.dmg) |\n| *-x86_64-apple-darwin-unsigned.tar.gz | [`cfbb4248ea5c22d8...`](https://drahtbot.space/guix/bitcoin/bitcoin/635f1900d048e41d18cc1df7e8305a5f397c87a3/bitcoin-635f1900d048-x86_64-apple-darwin-unsigned.tar.gz) | [`9230e768569ec3d0...`](https://drahtbot.space/guix/bitcoin/bitcoin/9c9717b966c3dbd08aeaea22a615b259631d0c4b/bitcoin-9c9717b966c3-x86_64-apple-darwin-unsigned.tar.gz) |\n| *-x86_64-apple-darwin.tar.gz | [`ff7d1c67b39561a4...`](https://drahtbot.space/guix/bitcoin/bitcoin/635f1900d048e41d18cc1df7e8305a5f397c87a3/bitcoin-635f1900d048-x86_64-apple-darwin.tar.gz) | [`5e93877111c81e7b...`](https://drahtbot.space/guix/bitcoin/bitcoin/9c9717b966c3dbd08aeaea22a615b259631d0c4b/bitcoin-9c9717b966c3-x86_64-apple-darwin.tar.gz) |\n| *-x86_64-linux-gnu-debug.tar.gz | [`491b7e93eac7ce9e...`](https://drahtbot.space/guix/bitcoin/bitcoin/635f1900d048e41d18cc1df7e8305a5f397c87a3/bitcoin-635f1900d048-x86_64-linux-gnu-debug.tar.gz) | [`d56e76cfbc9a47ec...`](https://drahtbot.space/guix/bitcoin/bitcoin/9c9717b966c3dbd08aeaea22a615b259631d0c4b/bitcoin-9c9717b966c3-x86_64-linux-gnu-debug.tar.gz) |\n| *-x86_64-linux-gnu.tar.gz | [`26afd1a0dc6e8371...`](https://drahtbot.space/guix/bitcoin/bitcoin/635f1900d048e41d18cc1df7e8305a5f397c87a3/bitcoin-635f1900d048-x86_64-linux-gnu.tar.gz) | [`c2c209884f86bc22...`](https://drahtbot.space/guix/bitcoin/bitcoin/9c9717b966c3dbd08aeaea22a615b259631d0c4b/bitcoin-9c9717b966c3-x86_64-linux-gnu.tar.gz) |\n| *.tar.gz | [`5a564c7456f10bb6...`](https://drahtbot.space/guix/bitcoin/bitcoin/635f1900d048e41d18cc1df7e8305a5f397c87a3/bitcoin-635f1900d048.tar.gz) | [`5000144dcf71d7f9...`](https://drahtbot.space/guix/bitcoin/bitcoin/9c9717b966c3dbd08aeaea22a615b259631d0c4b/bitcoin-9c9717b966c3.tar.gz) |\n| guix_build.log | [`268252a3201156b6...`](https://drahtbot.space/guix/bitcoin/bitcoin/635f1900d048e41d18cc1df7e8305a5f397c87a3/guix_build.log) | [`d43f22380c1fa53a...`](https://drahtbot.space/guix/bitcoin/bitcoin/9c9717b966c3dbd08aeaea22a615b259631d0c4b/guix_build.log) |\n| guix_build.log.diff |  | [`ae184f39ea8f353b...`](https://drahtbot.space/guix/bitcoin/bitcoin/9c9717b966c3dbd08aeaea22a615b259631d0c4b/guix_build.log.diff) |\n\n",
      "user": {
        "login": "DrahtBot",
        "id": 39886733,
        "node_id": "MDQ6VXNlcjM5ODg2NzMz",
        "avatar_url": "https://avatars.githubusercontent.com/u/39886733?v=4",
        "gravatar_id": "",
        "url": "https://api.github.com/users/DrahtBot",
        "html_url": "https://github.com/DrahtBot",
        "followers_url": "https://api.github.com/users/DrahtBot/followers",
        "following_url": "https://api.github.com/users/DrahtBot/following%7B/other_user%7D",
        "gists_url": "https://api.github.com/users/DrahtBot/gists%7B/gist_id%7D",
        "starred_url": "https://api.github.com/users/DrahtBot/starred%7B/owner%7D%7B/repo%7D",
        "subscriptions_url": "https://api.github.com/users/DrahtBot/subscriptions",
        "organizations_url": "https://api.github.com/users/DrahtBot/orgs",
        "repos_url": "https://api.github.com/users/DrahtBot/repos",
        "events_url": "https://api.github.com/users/DrahtBot/events%7B/privacy%7D",
        "received_events_url": "https://api.github.com/users/DrahtBot/received_events",
        "type": "User",
        "site_admin": false
      },
      "html_url": "https://github.com/bitcoin/bitcoin/pull/26904#issuecomment-1386331222",
      "issue_url": "https://api.github.com/repos/bitcoin/bitcoin/issues/26904"
    },
    {
      "event": "unlabeled",
      "id": 8251329033,
      "node_id": "UNLE_lADOABII585bkZxrzwAAAAHr0UoJ",
      "url": "https://api.github.com/repos/bitcoin/bitcoin/issues/events/8251329033",
      "actor": {
        "login": "DrahtBot",
        "id": 39886733,
        "node_id": "MDQ6VXNlcjM5ODg2NzMz",
        "avatar_url": "https://avatars.githubusercontent.com/u/39886733?v=4",
        "gravatar_id": "",
        "url": "https://api.github.com/users/DrahtBot",
        "html_url": "https://github.com/DrahtBot",
        "followers_url": "https://api.github.com/users/DrahtBot/followers",
        "following_url": "https://api.github.com/users/DrahtBot/following%7B/other_user%7D",
        "gists_url": "https://api.github.com/users/DrahtBot/gists%7B/gist_id%7D",
        "starred_url": "https://api.github.com/users/DrahtBot/starred%7B/owner%7D%7B/repo%7D",
        "subscriptions_url": "https://api.github.com/users/DrahtBot/subscriptions",
        "organizations_url": "https://api.github.com/users/DrahtBot/orgs",
        "repos_url": "https://api.github.com/users/DrahtBot/repos",
        "events_url": "https://api.github.com/users/DrahtBot/events%7B/privacy%7D",
        "received_events_url": "https://api.github.com/users/DrahtBot/received_events",
        "type": "User",
        "site_admin": false
      },
      "commit_id": null,
      "commit_url": null,
      "created_at": "2023-01-18T01:25:28Z",
      "label": {
        "name": "DrahtBot Guix build requested",
        "color": "bfd4f2"
      }
    },
    {
      "event": "merged",
      "id": 8253264763,
      "node_id": "ME_lADOABII585bkZxrzwAAAAHr7tN7",
      "url": "https://api.github.com/repos/bitcoin/bitcoin/issues/events/8253264763",
      "actor": {
        "login": "MarcoFalke",
        "id": 6399679,
        "node_id": "MDQ6VXNlcjYzOTk2Nzk=",
        "avatar_url": "https://avatars.githubusercontent.com/u/6399679?v=4",
        "gravatar_id": "",
        "url": "https://api.github.com/users/MarcoFalke",
        "html_url": "https://github.com/MarcoFalke",
        "followers_url": "https://api.github.com/users/MarcoFalke/followers",
        "following_url": "https://api.github.com/users/MarcoFalke/following%7B/other_user%7D",
        "gists_url": "https://api.github.com/users/MarcoFalke/gists%7B/gist_id%7D",
        "starred_url": "https://api.github.com/users/MarcoFalke/starred%7B/owner%7D%7B/repo%7D",
        "subscriptions_url": "https://api.github.com/users/MarcoFalke/subscriptions",
        "organizations_url": "https://api.github.com/users/MarcoFalke/orgs",
        "repos_url": "https://api.github.com/users/MarcoFalke/repos",
        "events_url": "https://api.github.com/users/MarcoFalke/events%7B/privacy%7D",
        "received_events_url": "https://api.github.com/users/MarcoFalke/received_events",
        "type": "User",
        "site_admin": false
      },
      "commit_id": "52d6509497a717cb01154aa05aa2b69f99ed5391",
      "commit_url": "https://api.github.com/repos/bitcoin/bitcoin/commits/52d6509497a717cb01154aa05aa2b69f99ed5391",
      "created_at": "2023-01-18T08:29:11Z"
    },
    {
      "event": "closed",
      "id": 8253264824,
      "node_id": "CE_lADOABII585bkZxrzwAAAAHr7tO4",
      "url": "https://api.github.com/repos/bitcoin/bitcoin/issues/events/8253264824",
      "actor": {
        "login": "MarcoFalke",
        "id": 6399679,
        "node_id": "MDQ6VXNlcjYzOTk2Nzk=",
        "avatar_url": "https://avatars.githubusercontent.com/u/6399679?v=4",
        "gravatar_id": "",
        "url": "https://api.github.com/users/MarcoFalke",
        "html_url": "https://github.com/MarcoFalke",
        "followers_url": "https://api.github.com/users/MarcoFalke/followers",
        "following_url": "https://api.github.com/users/MarcoFalke/following%7B/other_user%7D",
        "gists_url": "https://api.github.com/users/MarcoFalke/gists%7B/gist_id%7D",
        "starred_url": "https://api.github.com/users/MarcoFalke/starred%7B/owner%7D%7B/repo%7D",
        "subscriptions_url": "https://api.github.com/users/MarcoFalke/subscriptions",
        "organizations_url": "https://api.github.com/users/MarcoFalke/orgs",
        "repos_url": "https://api.github.com/users/MarcoFalke/repos",
        "events_url": "https://api.github.com/users/MarcoFalke/events%7B/privacy%7D",
        "received_events_url": "https://api.github.com/users/MarcoFalke/received_events",
        "type": "User",
        "site_admin": false
      },
      "commit_id": null,
      "commit_url": null,
      "created_at": "2023-01-18T08:29:12Z"
    },
    {
      "event": "head_ref_deleted",
      "id": 8254077477,
      "node_id": "HRDE_lADOABII585bkZxrzwAAAAHr-zol",
      "url": "https://api.github.com/repos/bitcoin/bitcoin/issues/events/8254077477",
      "actor": {
        "login": "fanquake",
        "id": 863730,
        "node_id": "MDQ6VXNlcjg2MzczMA==",
        "avatar_url": "https://avatars.githubusercontent.com/u/863730?v=4",
        "gravatar_id": "",
        "url": "https://api.github.com/users/fanquake",
        "html_url": "https://github.com/fanquake",
        "followers_url": "https://api.github.com/users/fanquake/followers",
        "following_url": "https://api.github.com/users/fanquake/following%7B/other_user%7D",
        "gists_url": "https://api.github.com/users/fanquake/gists%7B/gist_id%7D",
        "starred_url": "https://api.github.com/users/fanquake/starred%7B/owner%7D%7B/repo%7D",
        "subscriptions_url": "https://api.github.com/users/fanquake/subscriptions",
        "organizations_url": "https://api.github.com/users/fanquake/orgs",
        "repos_url": "https://api.github.com/users/fanquake/repos",
        "events_url": "https://api.github.com/users/fanquake/events%7B/privacy%7D",
        "received_events_url": "https://api.github.com/users/fanquake/received_events",
        "type": "User",
        "site_admin": false
      },
      "commit_id": null,
      "commit_url": null,
      "created_at": "2023-01-18T10:02:40Z"
    },
    {
      "event": "referenced",
      "id": 8306304170,
      "node_id": "REFE_lADOABII585bkZxrzwAAAAHvGCSq",
      "url": "https://api.github.com/repos/bitcoin/bitcoin/issues/events/8306304170",
      "actor": {
        "login": "sidhujag",
        "id": 6238042,
        "node_id": "MDQ6VXNlcjYyMzgwNDI=",
        "avatar_url": "https://avatars.githubusercontent.com/u/6238042?v=4",
        "gravatar_id": "",
        "url": "https://api.github.com/users/sidhujag",
        "html_url": "https://github.com/sidhujag",
        "followers_url": "https://api.github.com/users/sidhujag/followers",
        "following_url": "https://api.github.com/users/sidhujag/following%7B/other_user%7D",
        "gists_url": "https://api.github.com/users/sidhujag/gists%7B/gist_id%7D",
        "starred_url": "https://api.github.com/users/sidhujag/starred%7B/owner%7D%7B/repo%7D",
        "subscriptions_url": "https://api.github.com/users/sidhujag/subscriptions",
        "organizations_url": "https://api.github.com/users/sidhujag/orgs",
        "repos_url": "https://api.github.com/users/sidhujag/repos",
        "events_url": "https://api.github.com/users/sidhujag/events%7B/privacy%7D",
        "received_events_url": "https://api.github.com/users/sidhujag/received_events",
        "type": "User",
        "site_admin": false
      },
      "commit_id": "ccb5997af563ef618f32801f21eb83284ffccf7e",
      "commit_url": "https://api.github.com/repos/syscoin/syscoin/commits/ccb5997af563ef618f32801f21eb83284ffccf7e",
      "created_at": "2023-01-18T22:00:12Z"
    }
  ],
  "comments": []
}