{
  "type": "pull",
  "pull": {
    "url": "https://api.github.com/repos/bitcoin/bitcoin/pulls/26912",
    "id": 1201330794,
    "node_id": "PR_kwDOABII585Hmtpq",
    "html_url": "https://github.com/bitcoin/bitcoin/pull/26912",
    "diff_url": "https://github.com/bitcoin/bitcoin/pull/26912.diff",
    "patch_url": "https://github.com/bitcoin/bitcoin/pull/26912.patch",
    "issue_url": "https://api.github.com/repos/bitcoin/bitcoin/issues/26912",
    "commits_url": "https://api.github.com/repos/bitcoin/bitcoin/pulls/26912/commits",
    "review_comments_url": "https://api.github.com/repos/bitcoin/bitcoin/pulls/26912/comments",
    "review_comment_url": "https://api.github.com/repos/bitcoin/bitcoin/pulls/comments%7B/number%7D",
    "comments_url": "https://api.github.com/repos/bitcoin/bitcoin/issues/26912/comments",
    "statuses_url": "https://api.github.com/repos/bitcoin/bitcoin/statuses/faddb7373ad3ff22f88ccc97913168ec76073618",
    "number": 26912,
    "state": "closed",
    "locked": false,
    "maintainer_can_modify": false,
    "title": "ci: Bump --combinedlogslen to debug intermittent issues",
    "user": {
      "login": "MarcoFalke",
      "id": 6399679,
      "node_id": "MDQ6VXNlcjYzOTk2Nzk=",
      "avatar_url": "https://avatars.githubusercontent.com/u/6399679?v=4",
      "gravatar_id": "",
      "url": "https://api.github.com/users/MarcoFalke",
      "html_url": "https://github.com/MarcoFalke",
      "followers_url": "https://api.github.com/users/MarcoFalke/followers",
      "following_url": "https://api.github.com/users/MarcoFalke/following%7B/other_user%7D",
      "gists_url": "https://api.github.com/users/MarcoFalke/gists%7B/gist_id%7D",
      "starred_url": "https://api.github.com/users/MarcoFalke/starred%7B/owner%7D%7B/repo%7D",
      "subscriptions_url": "https://api.github.com/users/MarcoFalke/subscriptions",
      "organizations_url": "https://api.github.com/users/MarcoFalke/orgs",
      "repos_url": "https://api.github.com/users/MarcoFalke/repos",
      "events_url": "https://api.github.com/users/MarcoFalke/events%7B/privacy%7D",
      "received_events_url": "https://api.github.com/users/MarcoFalke/received_events",
      "type": "User",
      "site_admin": false
    },
    "body": "May help to debug intermittent issues such as https://github.com/bitcoin/bitcoin/issues/26808",
    "labels": [
      {
        "id": 62963516,
        "node_id": "MDU6TGFiZWw2Mjk2MzUxNg==",
        "url": "https://api.github.com/repos/bitcoin/bitcoin/labels/Tests",
        "name": "Tests",
        "color": "d4c5f9",
        "default": false
      }
    ],
    "created_at": "2023-01-18T08:37:31Z",
    "updated_at": "2023-01-18T11:52:42Z",
    "closed_at": "2023-01-18T11:05:22Z",
    "mergeable_state": "unknown",
    "merged_at": "2023-01-18T11:05:22Z",
    "merge_commit_sha": "d91364fdd95c5350ce1365247ce8463a9af62b78",
    "assignees": [],
    "requested_reviewers": [],
    "requested_teams": [],
    "head": {
      "label": "MarcoFalke:2301-ci-logs-len-🏈",
      "ref": "2301-ci-logs-len-🏈",
      "sha": "faddb7373ad3ff22f88ccc97913168ec76073618",
      "user": {
        "login": "MarcoFalke",
        "id": 6399679,
        "node_id": "MDQ6VXNlcjYzOTk2Nzk=",
        "avatar_url": "https://avatars.githubusercontent.com/u/6399679?v=4",
        "gravatar_id": "",
        "url": "https://api.github.com/users/MarcoFalke",
        "html_url": "https://github.com/MarcoFalke",
        "followers_url": "https://api.github.com/users/MarcoFalke/followers",
        "following_url": "https://api.github.com/users/MarcoFalke/following%7B/other_user%7D",
        "gists_url": "https://api.github.com/users/MarcoFalke/gists%7B/gist_id%7D",
        "starred_url": "https://api.github.com/users/MarcoFalke/starred%7B/owner%7D%7B/repo%7D",
        "subscriptions_url": "https://api.github.com/users/MarcoFalke/subscriptions",
        "organizations_url": "https://api.github.com/users/MarcoFalke/orgs",
        "repos_url": "https://api.github.com/users/MarcoFalke/repos",
        "events_url": "https://api.github.com/users/MarcoFalke/events%7B/privacy%7D",
        "received_events_url": "https://api.github.com/users/MarcoFalke/received_events",
        "type": "User",
        "site_admin": false
      },
      "repo": {
        "id": 40046254,
        "node_id": "MDEwOlJlcG9zaXRvcnk0MDA0NjI1NA==",
        "name": "b-c",
        "full_name": "MarcoFalke/b-c",
        "owner": {
          "login": "MarcoFalke",
          "id": 6399679,
          "node_id": "MDQ6VXNlcjYzOTk2Nzk=",
          "avatar_url": "https://avatars.githubusercontent.com/u/6399679?v=4",
          "gravatar_id": "",
          "url": "https://api.github.com/users/MarcoFalke",
          "html_url": "https://github.com/MarcoFalke",
          "followers_url": "https://api.github.com/users/MarcoFalke/followers",
          "following_url": "https://api.github.com/users/MarcoFalke/following%7B/other_user%7D",
          "gists_url": "https://api.github.com/users/MarcoFalke/gists%7B/gist_id%7D",
          "starred_url": "https://api.github.com/users/MarcoFalke/starred%7B/owner%7D%7B/repo%7D",
          "subscriptions_url": "https://api.github.com/users/MarcoFalke/subscriptions",
          "organizations_url": "https://api.github.com/users/MarcoFalke/orgs",
          "repos_url": "https://api.github.com/users/MarcoFalke/repos",
          "events_url": "https://api.github.com/users/MarcoFalke/events%7B/privacy%7D",
          "received_events_url": "https://api.github.com/users/MarcoFalke/received_events",
          "type": "User",
          "site_admin": false
        },
        "private": false,
        "html_url": "https://github.com/MarcoFalke/b-c",
        "fork": true,
        "url": "https://api.github.com/repos/MarcoFalke/b-c",
        "archive_url": "https://api.github.com/repos/MarcoFalke/b-c/%7Barchive_format%7D%7B/ref%7D",
        "assignees_url": "https://api.github.com/repos/MarcoFalke/b-c/assignees%7B/user%7D",
        "blobs_url": "https://api.github.com/repos/MarcoFalke/b-c/git/blobs%7B/sha%7D",
        "branches_url": "https://api.github.com/repos/MarcoFalke/b-c/branches%7B/branch%7D",
        "collaborators_url": "https://api.github.com/repos/MarcoFalke/b-c/collaborators%7B/collaborator%7D",
        "comments_url": "https://api.github.com/repos/MarcoFalke/b-c/comments%7B/number%7D",
        "commits_url": "https://api.github.com/repos/MarcoFalke/b-c/commits%7B/sha%7D",
        "compare_url": "https://api.github.com/repos/MarcoFalke/b-c/compare/%7Bbase%7D...%7Bhead%7D",
        "contents_url": "https://api.github.com/repos/MarcoFalke/b-c/contents/%7B+path%7D",
        "contributors_url": "https://api.github.com/repos/MarcoFalke/b-c/contributors",
        "deployments_url": "https://api.github.com/repos/MarcoFalke/b-c/deployments",
        "downloads_url": "https://api.github.com/repos/MarcoFalke/b-c/downloads",
        "events_url": "https://api.github.com/repos/MarcoFalke/b-c/events",
        "forks_url": "https://api.github.com/repos/MarcoFalke/b-c/forks",
        "git_commits_url": "https://api.github.com/repos/MarcoFalke/b-c/git/commits%7B/sha%7D",
        "git_refs_url": "https://api.github.com/repos/MarcoFalke/b-c/git/refs%7B/sha%7D",
        "git_tags_url": "https://api.github.com/repos/MarcoFalke/b-c/git/tags%7B/sha%7D",
        "git_url": "git://github.com/MarcoFalke/b-c.git",
        "issue_comment_url": "https://api.github.com/repos/MarcoFalke/b-c/issues/comments%7B/number%7D",
        "issue_events_url": "https://api.github.com/repos/MarcoFalke/b-c/issues/events%7B/number%7D",
        "issues_url": "https://api.github.com/repos/MarcoFalke/b-c/issues%7B/number%7D",
        "keys_url": "https://api.github.com/repos/MarcoFalke/b-c/keys%7B/key_id%7D",
        "labels_url": "https://api.github.com/repos/MarcoFalke/b-c/labels%7B/name%7D",
        "languages_url": "https://api.github.com/repos/MarcoFalke/b-c/languages",
        "merges_url": "https://api.github.com/repos/MarcoFalke/b-c/merges",
        "milestones_url": "https://api.github.com/repos/MarcoFalke/b-c/milestones%7B/number%7D",
        "notifications_url": "https://api.github.com/repos/MarcoFalke/b-c/notifications%7B?since,all,participating}",
        "pulls_url": "https://api.github.com/repos/MarcoFalke/b-c/pulls%7B/number%7D",
        "releases_url": "https://api.github.com/repos/MarcoFalke/b-c/releases%7B/id%7D",
        "ssh_url": "git@github.com:MarcoFalke/b-c.git",
        "stargazers_url": "https://api.github.com/repos/MarcoFalke/b-c/stargazers",
        "statuses_url": "https://api.github.com/repos/MarcoFalke/b-c/statuses/%7Bsha%7D",
        "subscribers_url": "https://api.github.com/repos/MarcoFalke/b-c/subscribers",
        "subscription_url": "https://api.github.com/repos/MarcoFalke/b-c/subscription",
        "tags_url": "https://api.github.com/repos/MarcoFalke/b-c/tags",
        "teams_url": "https://api.github.com/repos/MarcoFalke/b-c/teams",
        "trees_url": "https://api.github.com/repos/MarcoFalke/b-c/git/trees%7B/sha%7D",
        "clone_url": "https://github.com/MarcoFalke/b-c.git",
        "hooks_url": "https://api.github.com/repos/MarcoFalke/b-c/hooks",
        "svn_url": "https://github.com/MarcoFalke/b-c",
        "homepage": "",
        "language": "C++",
        "forks_count": 12,
        "stargazers_count": 25,
        "watchers_count": 25,
        "size": 207848,
        "default_branch": "master",
        "open_issues_count": 25,
        "is_template": false,
        "topics": [],
        "has_issues": true,
        "has_projects": true,
        "has_wiki": false,
        "has_pages": false,
        "has_downloads": false,
        "archived": false,
        "disabled": false,
        "visibility": "public",
        "pushed_at": "2023-08-02T15:31:58Z",
        "created_at": "2015-08-01T12:42:47Z",
        "updated_at": "2023-05-28T20:12:34Z",
        "license": {
          "key": "mit",
          "name": "MIT License",
          "node_id": "MDc6TGljZW5zZTEz",
          "spdx_id": "MIT",
          "url": "https://api.github.com/licenses/mit",
          "html_url": null,
          "description": null,
          "implementation": null,
          "permissions": null,
          "conditions": null,
          "limitations": null,
          "body": null,
          "featured": null
        }
      }
    },
    "base": {
      "label": "bitcoin:master",
      "ref": "master",
      "sha": "52d6509497a717cb01154aa05aa2b69f99ed5391",
      "user": {
        "login": "bitcoin",
        "id": 528860,
        "node_id": "MDEyOk9yZ2FuaXphdGlvbjUyODg2MA==",
        "avatar_url": "https://avatars.githubusercontent.com/u/528860?v=4",
        "gravatar_id": "",
        "url": "https://api.github.com/users/bitcoin",
        "html_url": "https://github.com/bitcoin",
        "followers_url": "https://api.github.com/users/bitcoin/followers",
        "following_url": "https://api.github.com/users/bitcoin/following%7B/other_user%7D",
        "gists_url": "https://api.github.com/users/bitcoin/gists%7B/gist_id%7D",
        "starred_url": "https://api.github.com/users/bitcoin/starred%7B/owner%7D%7B/repo%7D",
        "subscriptions_url": "https://api.github.com/users/bitcoin/subscriptions",
        "organizations_url": "https://api.github.com/users/bitcoin/orgs",
        "repos_url": "https://api.github.com/users/bitcoin/repos",
        "events_url": "https://api.github.com/users/bitcoin/events%7B/privacy%7D",
        "received_events_url": "https://api.github.com/users/bitcoin/received_events",
        "type": "Organization",
        "site_admin": false
      },
      "repo": {
        "id": 1181927,
        "node_id": "MDEwOlJlcG9zaXRvcnkxMTgxOTI3",
        "name": "bitcoin",
        "full_name": "bitcoin/bitcoin",
        "owner": {
          "login": "bitcoin",
          "id": 528860,
          "node_id": "MDEyOk9yZ2FuaXphdGlvbjUyODg2MA==",
          "avatar_url": "https://avatars.githubusercontent.com/u/528860?v=4",
          "gravatar_id": "",
          "url": "https://api.github.com/users/bitcoin",
          "html_url": "https://github.com/bitcoin",
          "followers_url": "https://api.github.com/users/bitcoin/followers",
          "following_url": "https://api.github.com/users/bitcoin/following%7B/other_user%7D",
          "gists_url": "https://api.github.com/users/bitcoin/gists%7B/gist_id%7D",
          "starred_url": "https://api.github.com/users/bitcoin/starred%7B/owner%7D%7B/repo%7D",
          "subscriptions_url": "https://api.github.com/users/bitcoin/subscriptions",
          "organizations_url": "https://api.github.com/users/bitcoin/orgs",
          "repos_url": "https://api.github.com/users/bitcoin/repos",
          "events_url": "https://api.github.com/users/bitcoin/events%7B/privacy%7D",
          "received_events_url": "https://api.github.com/users/bitcoin/received_events",
          "type": "Organization",
          "site_admin": false
        },
        "private": false,
        "html_url": "https://github.com/bitcoin/bitcoin",
        "description": "Bitcoin Core integration/staging tree",
        "fork": false,
        "url": "https://api.github.com/repos/bitcoin/bitcoin",
        "archive_url": "https://api.github.com/repos/bitcoin/bitcoin/%7Barchive_format%7D%7B/ref%7D",
        "assignees_url": "https://api.github.com/repos/bitcoin/bitcoin/assignees%7B/user%7D",
        "blobs_url": "https://api.github.com/repos/bitcoin/bitcoin/git/blobs%7B/sha%7D",
        "branches_url": "https://api.github.com/repos/bitcoin/bitcoin/branches%7B/branch%7D",
        "collaborators_url": "https://api.github.com/repos/bitcoin/bitcoin/collaborators%7B/collaborator%7D",
        "comments_url": "https://api.github.com/repos/bitcoin/bitcoin/comments%7B/number%7D",
        "commits_url": "https://api.github.com/repos/bitcoin/bitcoin/commits%7B/sha%7D",
        "compare_url": "https://api.github.com/repos/bitcoin/bitcoin/compare/%7Bbase%7D...%7Bhead%7D",
        "contents_url": "https://api.github.com/repos/bitcoin/bitcoin/contents/%7B+path%7D",
        "contributors_url": "https://api.github.com/repos/bitcoin/bitcoin/contributors",
        "deployments_url": "https://api.github.com/repos/bitcoin/bitcoin/deployments",
        "downloads_url": "https://api.github.com/repos/bitcoin/bitcoin/downloads",
        "events_url": "https://api.github.com/repos/bitcoin/bitcoin/events",
        "forks_url": "https://api.github.com/repos/bitcoin/bitcoin/forks",
        "git_commits_url": "https://api.github.com/repos/bitcoin/bitcoin/git/commits%7B/sha%7D",
        "git_refs_url": "https://api.github.com/repos/bitcoin/bitcoin/git/refs%7B/sha%7D",
        "git_tags_url": "https://api.github.com/repos/bitcoin/bitcoin/git/tags%7B/sha%7D",
        "git_url": "git://github.com/bitcoin/bitcoin.git",
        "issue_comment_url": "https://api.github.com/repos/bitcoin/bitcoin/issues/comments%7B/number%7D",
        "issue_events_url": "https://api.github.com/repos/bitcoin/bitcoin/issues/events%7B/number%7D",
        "issues_url": "https://api.github.com/repos/bitcoin/bitcoin/issues%7B/number%7D",
        "keys_url": "https://api.github.com/repos/bitcoin/bitcoin/keys%7B/key_id%7D",
        "labels_url": "https://api.github.com/repos/bitcoin/bitcoin/labels%7B/name%7D",
        "languages_url": "https://api.github.com/repos/bitcoin/bitcoin/languages",
        "merges_url": "https://api.github.com/repos/bitcoin/bitcoin/merges",
        "milestones_url": "https://api.github.com/repos/bitcoin/bitcoin/milestones%7B/number%7D",
        "notifications_url": "https://api.github.com/repos/bitcoin/bitcoin/notifications%7B?since,all,participating}",
        "pulls_url": "https://api.github.com/repos/bitcoin/bitcoin/pulls%7B/number%7D",
        "releases_url": "https://api.github.com/repos/bitcoin/bitcoin/releases%7B/id%7D",
        "ssh_url": "git@github.com:bitcoin/bitcoin.git",
        "stargazers_url": "https://api.github.com/repos/bitcoin/bitcoin/stargazers",
        "statuses_url": "https://api.github.com/repos/bitcoin/bitcoin/statuses/%7Bsha%7D",
        "subscribers_url": "https://api.github.com/repos/bitcoin/bitcoin/subscribers",
        "subscription_url": "https://api.github.com/repos/bitcoin/bitcoin/subscription",
        "tags_url": "https://api.github.com/repos/bitcoin/bitcoin/tags",
        "teams_url": "https://api.github.com/repos/bitcoin/bitcoin/teams",
        "trees_url": "https://api.github.com/repos/bitcoin/bitcoin/git/trees%7B/sha%7D",
        "clone_url": "https://github.com/bitcoin/bitcoin.git",
        "hooks_url": "https://api.github.com/repos/bitcoin/bitcoin/hooks",
        "svn_url": "https://github.com/bitcoin/bitcoin",
        "homepage": "https://bitcoincore.org/en/download",
        "language": "C++",
        "forks_count": 35476,
        "stargazers_count": 70608,
        "watchers_count": 70608,
        "size": 236222,
        "default_branch": "master",
        "open_issues_count": 673,
        "is_template": false,
        "topics": [
          "bitcoin",
          "c-plus-plus",
          "cryptocurrency",
          "cryptography",
          "p2p"
        ],
        "has_issues": true,
        "has_projects": true,
        "has_wiki": false,
        "has_pages": false,
        "has_downloads": false,
        "archived": false,
        "disabled": false,
        "visibility": "public",
        "pushed_at": "2023-08-03T00:03:27Z",
        "created_at": "2010-12-19T15:16:43Z",
        "updated_at": "2023-08-02T18:21:18Z",
        "license": {
          "key": "mit",
          "name": "MIT License",
          "node_id": "MDc6TGljZW5zZTEz",
          "spdx_id": "MIT",
          "url": "https://api.github.com/licenses/mit",
          "html_url": null,
          "description": null,
          "implementation": null,
          "permissions": null,
          "conditions": null,
          "limitations": null,
          "body": null,
          "featured": null
        }
      }
    },
    "_links": {
      "self": {
        "href": "https://api.github.com/repos/bitcoin/bitcoin/pulls/26912"
      }
    },
    "author_association": "MEMBER",
    "draft": false,
    "additions": 2,
    "deletions": 2,
    "changed_files": 2,
    "commits": 1,
    "review_comments": 0,
    "comments": 1
  },
  "events": [
    {
      "event": "committed",
      "id": null,
      "node_id": "C_kwDOABII59oAKGZhZGRiNzM3M2FkM2ZmMjJmODhjY2M5NzkxMzE2OGVjNzYwNzM2MTg",
      "url": "https://api.github.com/repos/bitcoin/bitcoin/git/commits/faddb7373ad3ff22f88ccc97913168ec76073618",
      "actor": null,
      "commit_id": null,
      "commit_url": null,
      "created_at": null,
      "html_url": "https://github.com/bitcoin/bitcoin/commit/faddb7373ad3ff22f88ccc97913168ec76073618",
      "tree": {
        "sha": "61582407490d31e29ca2def8d46938bbcaa5ac05",
        "url": "https://api.github.com/repos/bitcoin/bitcoin/git/trees/61582407490d31e29ca2def8d46938bbcaa5ac05"
      },
      "verification": {
        "verified": false,
        "reason": "no_user",
        "payload": "tree 61582407490d31e29ca2def8d46938bbcaa5ac05\nparent 52d6509497a717cb01154aa05aa2b69f99ed5391\nauthor MarcoFalke <*~=`'#}+{/-|&$^_@721217.xyz> 1674031035 +0100\ncommitter MarcoFalke <*~=`'#}+{/-|&$^_@721217.xyz> 1674030947 +0100\n\nci: Bump --combinedlogslen to debug intermittent issues\n",
        "signature": "-----BEGIN PGP SIGNATURE-----\n\niQGzBAABCgAdFiEE+rVPoUahrI9sLGYTzit1aX5ppUgFAlwqrYAACgkQzit1aX5p\npUjN5gv/bfyd+v+g1P3c8XwNzP9/xhsocPrgk5VMYOuYwnGoQSeCqucWia596rgg\n36jlrWi5vrhNR6p0AZmAw35sLp/v2m/qi+0qMZT4O+3fNjlq6T+pPP9DYDFbiIQ4\nFzaTpo+hR74aDzxMnKU7k7nbajg25BwR/6cdd7H1ZN4PXMSh+P+kGLXPy/EkO/7T\ndrMB9e/KmktfUBOIjFeEyozXFM5QdBZezGaXK/PC3CY3dFapX6sDB2BPm9ca6AHl\nO/G1+R+VYdGy+pZoAiGA9MMTtxctJinR5WhUQZzSF7/0Ly6VPysc6dIzHXC6DWke\npe6tS/XXvHU7xyRmsOMf3K0epBZbgeEQ7D2qG0s9zn8U9k8ChM9LBzpprhB07fpQ\nOyw3sOS2o8s9M3MMDmhGKnFBB64cMNuhj/QDn7Jv62QdeaULjlQkINGhHzhFSsBK\nL4aBs8I58HKAwYGtOlmT7UpkXSxYzjXVB6/E4lCrHj4QolJNxbM4+JTdHW9jC7dC\nAmAVKR+U\n=EQw/\n-----END PGP SIGNATURE-----"
      },
      "parents": [
        {
          "url": "https://api.github.com/repos/bitcoin/bitcoin/git/commits/52d6509497a717cb01154aa05aa2b69f99ed5391",
          "sha": "52d6509497a717cb01154aa05aa2b69f99ed5391",
          "html_url": "https://github.com/bitcoin/bitcoin/commit/52d6509497a717cb01154aa05aa2b69f99ed5391"
        }
      ],
      "message": "ci: Bump --combinedlogslen to debug intermittent issues",
      "committer": {
        "name": "MarcoFalke",
        "email": "*~=`'#}+{/-|&$^_@721217.xyz",
        "date": "2023-01-18T08:35:47Z"
      },
      "author": {
        "name": "MarcoFalke",
        "email": "*~=`'#}+{/-|&$^_@721217.xyz",
        "date": "2023-01-18T08:37:15Z"
      },
      "sha": "faddb7373ad3ff22f88ccc97913168ec76073618"
    },
    {
      "event": "commented",
      "id": 1386677428,
      "node_id": "IC_kwDOABII585SpwS0",
      "url": "https://api.github.com/repos/bitcoin/bitcoin/issues/comments/1386677428",
      "actor": {
        "login": "DrahtBot",
        "id": 39886733,
        "node_id": "MDQ6VXNlcjM5ODg2NzMz",
        "avatar_url": "https://avatars.githubusercontent.com/u/39886733?v=4",
        "gravatar_id": "",
        "url": "https://api.github.com/users/DrahtBot",
        "html_url": "https://github.com/DrahtBot",
        "followers_url": "https://api.github.com/users/DrahtBot/followers",
        "following_url": "https://api.github.com/users/DrahtBot/following%7B/other_user%7D",
        "gists_url": "https://api.github.com/users/DrahtBot/gists%7B/gist_id%7D",
        "starred_url": "https://api.github.com/users/DrahtBot/starred%7B/owner%7D%7B/repo%7D",
        "subscriptions_url": "https://api.github.com/users/DrahtBot/subscriptions",
        "organizations_url": "https://api.github.com/users/DrahtBot/orgs",
        "repos_url": "https://api.github.com/users/DrahtBot/repos",
        "events_url": "https://api.github.com/users/DrahtBot/events%7B/privacy%7D",
        "received_events_url": "https://api.github.com/users/DrahtBot/received_events",
        "type": "User",
        "site_admin": false
      },
      "commit_id": null,
      "commit_url": null,
      "created_at": "2023-01-18T08:37:34Z",
      "updated_at": "2023-01-18T10:34:23Z",
      "author_association": "CONTRIBUTOR",
      "body": "<!--e57a25ab6845829454e8d69fc972939a-->\n\nThe following sections might be updated with supplementary metadata relevant to reviewers and maintainers.\n\n<!--021abf342d371248e50ceaed478a90ca-->\n### Reviews\nSee [the guideline](https://github.com/bitcoin/bitcoin/blob/master/CONTRIBUTING.md#code-review) for information on the review process.\n| Type | Reviewers |\n| ---- | --------- |\n| ACK | [fanquake](https://github.com/bitcoin/bitcoin/pull/26912#pullrequestreview-1253221551) |\n\nIf your review is incorrectly listed, please react with 👎 to this comment and the bot will ignore it on the next update.\n",
      "user": {
        "login": "DrahtBot",
        "id": 39886733,
        "node_id": "MDQ6VXNlcjM5ODg2NzMz",
        "avatar_url": "https://avatars.githubusercontent.com/u/39886733?v=4",
        "gravatar_id": "",
        "url": "https://api.github.com/users/DrahtBot",
        "html_url": "https://github.com/DrahtBot",
        "followers_url": "https://api.github.com/users/DrahtBot/followers",
        "following_url": "https://api.github.com/users/DrahtBot/following%7B/other_user%7D",
        "gists_url": "https://api.github.com/users/DrahtBot/gists%7B/gist_id%7D",
        "starred_url": "https://api.github.com/users/DrahtBot/starred%7B/owner%7D%7B/repo%7D",
        "subscriptions_url": "https://api.github.com/users/DrahtBot/subscriptions",
        "organizations_url": "https://api.github.com/users/DrahtBot/orgs",
        "repos_url": "https://api.github.com/users/DrahtBot/repos",
        "events_url": "https://api.github.com/users/DrahtBot/events%7B/privacy%7D",
        "received_events_url": "https://api.github.com/users/DrahtBot/received_events",
        "type": "User",
        "site_admin": false
      },
      "html_url": "https://github.com/bitcoin/bitcoin/pull/26912#issuecomment-1386677428",
      "issue_url": "https://api.github.com/repos/bitcoin/bitcoin/issues/26912"
    },
    {
      "event": "labeled",
      "id": 8253328023,
      "node_id": "LE_lADOABII585bpfCqzwAAAAHr78qX",
      "url": "https://api.github.com/repos/bitcoin/bitcoin/issues/events/8253328023",
      "actor": {
        "login": "DrahtBot",
        "id": 39886733,
        "node_id": "MDQ6VXNlcjM5ODg2NzMz",
        "avatar_url": "https://avatars.githubusercontent.com/u/39886733?v=4",
        "gravatar_id": "",
        "url": "https://api.github.com/users/DrahtBot",
        "html_url": "https://github.com/DrahtBot",
        "followers_url": "https://api.github.com/users/DrahtBot/followers",
        "following_url": "https://api.github.com/users/DrahtBot/following%7B/other_user%7D",
        "gists_url": "https://api.github.com/users/DrahtBot/gists%7B/gist_id%7D",
        "starred_url": "https://api.github.com/users/DrahtBot/starred%7B/owner%7D%7B/repo%7D",
        "subscriptions_url": "https://api.github.com/users/DrahtBot/subscriptions",
        "organizations_url": "https://api.github.com/users/DrahtBot/orgs",
        "repos_url": "https://api.github.com/users/DrahtBot/repos",
        "events_url": "https://api.github.com/users/DrahtBot/events%7B/privacy%7D",
        "received_events_url": "https://api.github.com/users/DrahtBot/received_events",
        "type": "User",
        "site_admin": false
      },
      "commit_id": null,
      "commit_url": null,
      "created_at": "2023-01-18T08:37:36Z",
      "label": {
        "name": "Tests",
        "color": "d4c5f9"
      }
    },
    {
      "event": "reviewed",
      "id": 1253221551,
      "node_id": "PRR_kwDOABII585KsqSv",
      "url": null,
      "actor": null,
      "commit_id": "faddb7373ad3ff22f88ccc97913168ec76073618",
      "commit_url": null,
      "created_at": null,
      "author_association": "MEMBER",
      "body": "ACK faddb7373ad3ff22f88ccc97913168ec76073618 - if this is going to improve the chance of tracking down intermittent failures.",
      "user": {
        "login": "fanquake",
        "id": 863730,
        "node_id": "MDQ6VXNlcjg2MzczMA==",
        "avatar_url": "https://avatars.githubusercontent.com/u/863730?v=4",
        "gravatar_id": "",
        "url": "https://api.github.com/users/fanquake",
        "html_url": "https://github.com/fanquake",
        "followers_url": "https://api.github.com/users/fanquake/followers",
        "following_url": "https://api.github.com/users/fanquake/following%7B/other_user%7D",
        "gists_url": "https://api.github.com/users/fanquake/gists%7B/gist_id%7D",
        "starred_url": "https://api.github.com/users/fanquake/starred%7B/owner%7D%7B/repo%7D",
        "subscriptions_url": "https://api.github.com/users/fanquake/subscriptions",
        "organizations_url": "https://api.github.com/users/fanquake/orgs",
        "repos_url": "https://api.github.com/users/fanquake/repos",
        "events_url": "https://api.github.com/users/fanquake/events%7B/privacy%7D",
        "received_events_url": "https://api.github.com/users/fanquake/received_events",
        "type": "User",
        "site_admin": false
      },
      "html_url": "https://github.com/bitcoin/bitcoin/pull/26912#pullrequestreview-1253221551",
      "submitted_at": "2023-01-18T10:34:20Z",
      "state": "APPROVED",
      "pull_request_url": "https://api.github.com/repos/bitcoin/bitcoin/pulls/26912"
    },
    {
      "event": "merged",
      "id": 8254617894,
      "node_id": "ME_lADOABII585bpfCqzwAAAAHsA3km",
      "url": "https://api.github.com/repos/bitcoin/bitcoin/issues/events/8254617894",
      "actor": {
        "login": "MarcoFalke",
        "id": 6399679,
        "node_id": "MDQ6VXNlcjYzOTk2Nzk=",
        "avatar_url": "https://avatars.githubusercontent.com/u/6399679?v=4",
        "gravatar_id": "",
        "url": "https://api.github.com/users/MarcoFalke",
        "html_url": "https://github.com/MarcoFalke",
        "followers_url": "https://api.github.com/users/MarcoFalke/followers",
        "following_url": "https://api.github.com/users/MarcoFalke/following%7B/other_user%7D",
        "gists_url": "https://api.github.com/users/MarcoFalke/gists%7B/gist_id%7D",
        "starred_url": "https://api.github.com/users/MarcoFalke/starred%7B/owner%7D%7B/repo%7D",
        "subscriptions_url": "https://api.github.com/users/MarcoFalke/subscriptions",
        "organizations_url": "https://api.github.com/users/MarcoFalke/orgs",
        "repos_url": "https://api.github.com/users/MarcoFalke/repos",
        "events_url": "https://api.github.com/users/MarcoFalke/events%7B/privacy%7D",
        "received_events_url": "https://api.github.com/users/MarcoFalke/received_events",
        "type": "User",
        "site_admin": false
      },
      "commit_id": "d91364fdd95c5350ce1365247ce8463a9af62b78",
      "commit_url": "https://api.github.com/repos/bitcoin/bitcoin/commits/d91364fdd95c5350ce1365247ce8463a9af62b78",
      "created_at": "2023-01-18T11:05:22Z"
    },
    {
      "event": "closed",
      "id": 8254617951,
      "node_id": "CE_lADOABII585bpfCqzwAAAAHsA3lf",
      "url": "https://api.github.com/repos/bitcoin/bitcoin/issues/events/8254617951",
      "actor": {
        "login": "MarcoFalke",
        "id": 6399679,
        "node_id": "MDQ6VXNlcjYzOTk2Nzk=",
        "avatar_url": "https://avatars.githubusercontent.com/u/6399679?v=4",
        "gravatar_id": "",
        "url": "https://api.github.com/users/MarcoFalke",
        "html_url": "https://github.com/MarcoFalke",
        "followers_url": "https://api.github.com/users/MarcoFalke/followers",
        "following_url": "https://api.github.com/users/MarcoFalke/following%7B/other_user%7D",
        "gists_url": "https://api.github.com/users/MarcoFalke/gists%7B/gist_id%7D",
        "starred_url": "https://api.github.com/users/MarcoFalke/starred%7B/owner%7D%7B/repo%7D",
        "subscriptions_url": "https://api.github.com/users/MarcoFalke/subscriptions",
        "organizations_url": "https://api.github.com/users/MarcoFalke/orgs",
        "repos_url": "https://api.github.com/users/MarcoFalke/repos",
        "events_url": "https://api.github.com/users/MarcoFalke/events%7B/privacy%7D",
        "received_events_url": "https://api.github.com/users/MarcoFalke/received_events",
        "type": "User",
        "site_admin": false
      },
      "commit_id": null,
      "commit_url": null,
      "created_at": "2023-01-18T11:05:22Z"
    },
    {
      "event": "head_ref_deleted",
      "id": 8254977788,
      "node_id": "HRDE_lADOABII585bpfCqzwAAAAHsCPb8",
      "url": "https://api.github.com/repos/bitcoin/bitcoin/issues/events/8254977788",
      "actor": {
        "login": "MarcoFalke",
        "id": 6399679,
        "node_id": "MDQ6VXNlcjYzOTk2Nzk=",
        "avatar_url": "https://avatars.githubusercontent.com/u/6399679?v=4",
        "gravatar_id": "",
        "url": "https://api.github.com/users/MarcoFalke",
        "html_url": "https://github.com/MarcoFalke",
        "followers_url": "https://api.github.com/users/MarcoFalke/followers",
        "following_url": "https://api.github.com/users/MarcoFalke/following%7B/other_user%7D",
        "gists_url": "https://api.github.com/users/MarcoFalke/gists%7B/gist_id%7D",
        "starred_url": "https://api.github.com/users/MarcoFalke/starred%7B/owner%7D%7B/repo%7D",
        "subscriptions_url": "https://api.github.com/users/MarcoFalke/subscriptions",
        "organizations_url": "https://api.github.com/users/MarcoFalke/orgs",
        "repos_url": "https://api.github.com/users/MarcoFalke/repos",
        "events_url": "https://api.github.com/users/MarcoFalke/events%7B/privacy%7D",
        "received_events_url": "https://api.github.com/users/MarcoFalke/received_events",
        "type": "User",
        "site_admin": false
      },
      "commit_id": null,
      "commit_url": null,
      "created_at": "2023-01-18T11:52:42Z"
    },
    {
      "event": "referenced",
      "id": 8306304197,
      "node_id": "REFE_lADOABII585bpfCqzwAAAAHvGCTF",
      "url": "https://api.github.com/repos/bitcoin/bitcoin/issues/events/8306304197",
      "actor": {
        "login": "sidhujag",
        "id": 6238042,
        "node_id": "MDQ6VXNlcjYyMzgwNDI=",
        "avatar_url": "https://avatars.githubusercontent.com/u/6238042?v=4",
        "gravatar_id": "",
        "url": "https://api.github.com/users/sidhujag",
        "html_url": "https://github.com/sidhujag",
        "followers_url": "https://api.github.com/users/sidhujag/followers",
        "following_url": "https://api.github.com/users/sidhujag/following%7B/other_user%7D",
        "gists_url": "https://api.github.com/users/sidhujag/gists%7B/gist_id%7D",
        "starred_url": "https://api.github.com/users/sidhujag/starred%7B/owner%7D%7B/repo%7D",
        "subscriptions_url": "https://api.github.com/users/sidhujag/subscriptions",
        "organizations_url": "https://api.github.com/users/sidhujag/orgs",
        "repos_url": "https://api.github.com/users/sidhujag/repos",
        "events_url": "https://api.github.com/users/sidhujag/events%7B/privacy%7D",
        "received_events_url": "https://api.github.com/users/sidhujag/received_events",
        "type": "User",
        "site_admin": false
      },
      "commit_id": "a33e7cc16b26ab82927f1c6745ae637059d5c0a4",
      "commit_url": "https://api.github.com/repos/syscoin/syscoin/commits/a33e7cc16b26ab82927f1c6745ae637059d5c0a4",
      "created_at": "2023-01-18T22:00:12Z"
    }
  ],
  "comments": []
}