{
  "type": "pull",
  "pull": {
    "url": "https://api.github.com/repos/bitcoin/bitcoin/pulls/27027",
    "id": 1226777845,
    "node_id": "PR_kwDOABII585JHyT1",
    "html_url": "https://github.com/bitcoin/bitcoin/pull/27027",
    "diff_url": "https://github.com/bitcoin/bitcoin/pull/27027.diff",
    "patch_url": "https://github.com/bitcoin/bitcoin/pull/27027.patch",
    "issue_url": "https://api.github.com/repos/bitcoin/bitcoin/issues/27027",
    "commits_url": "https://api.github.com/repos/bitcoin/bitcoin/pulls/27027/commits",
    "review_comments_url": "https://api.github.com/repos/bitcoin/bitcoin/pulls/27027/comments",
    "review_comment_url": "https://api.github.com/repos/bitcoin/bitcoin/pulls/comments%7B/number%7D",
    "comments_url": "https://api.github.com/repos/bitcoin/bitcoin/issues/27027/comments",
    "statuses_url": "https://api.github.com/repos/bitcoin/bitcoin/statuses/4faa4e37a6511c6ada303ef7929ac99c7462f083",
    "number": 27027,
    "state": "closed",
    "locked": false,
    "maintainer_can_modify": false,
    "title": "build: use _FORTIFY_SOURCE=3",
    "user": {
      "login": "fanquake",
      "id": 863730,
      "node_id": "MDQ6VXNlcjg2MzczMA==",
      "avatar_url": "https://avatars.githubusercontent.com/u/863730?v=4",
      "gravatar_id": "",
      "url": "https://api.github.com/users/fanquake",
      "html_url": "https://github.com/fanquake",
      "followers_url": "https://api.github.com/users/fanquake/followers",
      "following_url": "https://api.github.com/users/fanquake/following%7B/other_user%7D",
      "gists_url": "https://api.github.com/users/fanquake/gists%7B/gist_id%7D",
      "starred_url": "https://api.github.com/users/fanquake/starred%7B/owner%7D%7B/repo%7D",
      "subscriptions_url": "https://api.github.com/users/fanquake/subscriptions",
      "organizations_url": "https://api.github.com/users/fanquake/orgs",
      "repos_url": "https://api.github.com/users/fanquake/repos",
      "events_url": "https://api.github.com/users/fanquake/events%7B/privacy%7D",
      "received_events_url": "https://api.github.com/users/fanquake/received_events",
      "type": "User",
      "site_admin": false
    },
    "body": "[glibc 2.33](https://sourceware.org/pipermail/libc-alpha/2021-February/122207.html) introduced a new fortification level, `_FORTIFY_SOURCE=3`. It improves the coverage of cases where `_FORTIFY_SOURCE` can use `_chk` functions. \r\n\r\nFor example, using GCC 13 and glibc 2.36 (Fedora Rawhide), compiling master:\r\n```bash\r\nnm -C src/bitcoind | grep _chk\r\n                 U __fprintf_chk@GLIBC_2.17\r\n                 U __memcpy_chk@GLIBC_2.17\r\n                 U __snprintf_chk@GLIBC_2.17\r\n                 U __sprintf_chk@GLIBC_2.17\r\n                 U __stack_chk_fail@GLIBC_2.17\r\n                 U __stack_chk_guard@GLIBC_2.17\r\n                 U __vsnprintf_chk@GLIBC_2.17\r\n\r\nobjdump -d src/bitcoind | grep \"_chk@plt\" | wc -l\r\n33\r\n```\r\n\r\nvs this branch:\r\n```bash\r\nnm -C src/bitcoind | grep _chk\r\n                 U __fprintf_chk@GLIBC_2.17\r\n                 U __memcpy_chk@GLIBC_2.17\r\n                 U __memset_chk@GLIBC_2.17\r\n                 U __snprintf_chk@GLIBC_2.17\r\n                 U __sprintf_chk@GLIBC_2.17\r\n                 U __stack_chk_fail@GLIBC_2.17\r\n                 U __stack_chk_guard@GLIBC_2.17\r\n                 U __vsnprintf_chk@GLIBC_2.17\r\n\r\nobjdump -d src/bitcoind | grep \"_chk@plt\" | wc -l\r\n61\r\n```\r\n\r\nUsage of level 3 requires LLVM/Clang 9+, or GCC 12+. Older compilers/glibc will still use _FORTIFY_SOURCE=2. For example, in the glibc we currently use for Linux release builds (2.24), `__USE_FORTIFY_LEVEL` is determined using the following:\r\n```c\r\n#if defined _FORTIFY_SOURCE && _FORTIFY_SOURCE > 0\r\n# if !defined __OPTIMIZE__ || __OPTIMIZE__ <= 0\r\n#  warning _FORTIFY_SOURCE requires compiling with optimization (-O)\r\n# elif !__GNUC_PREREQ (4, 1)\r\n#  warning _FORTIFY_SOURCE requires GCC 4.1 or later\r\n# elif _FORTIFY_SOURCE > 1\r\n#  define __USE_FORTIFY_LEVEL 2\r\n# else\r\n#  define __USE_FORTIFY_LEVEL 1\r\n# endif\r\n#endif\r\n#ifndef __USE_FORTIFY_LEVEL\r\n# define __USE_FORTIFY_LEVEL 0\r\n#endif\r\n```\r\nso any value > 1 will turn on `_FORTIFY_SOURCE=2`. This value detection logic has become slightly more complex in later versions of glibc.\r\n\r\nhttps://sourceware.org/pipermail/libc-alpha/2021-February/122207.html\r\nhttps://developers.redhat.com/blog/2021/04/16/broadening-compiler-checks-for-buffer-overflows-in-_fortify_source",
    "labels": [
      {
        "id": 61889416,
        "node_id": "MDU6TGFiZWw2MTg4OTQxNg==",
        "url": "https://api.github.com/repos/bitcoin/bitcoin/labels/Build%20system",
        "name": "Build system",
        "color": "5319e7",
        "default": false
      }
    ],
    "created_at": "2023-02-02T15:34:22Z",
    "updated_at": "2023-03-08T11:16:38Z",
    "closed_at": "2023-02-20T16:35:59Z",
    "mergeable_state": "unknown",
    "merged_at": "2023-02-20T16:35:59Z",
    "merge_commit_sha": "0561f344e0ecce2a9a1492c188c5813e075c67c0",
    "assignees": [],
    "requested_reviewers": [],
    "requested_teams": [],
    "head": {
      "label": "fanquake:fortify_source_3",
      "ref": "fortify_source_3",
      "sha": "4faa4e37a6511c6ada303ef7929ac99c7462f083",
      "user": {
        "login": "fanquake",
        "id": 863730,
        "node_id": "MDQ6VXNlcjg2MzczMA==",
        "avatar_url": "https://avatars.githubusercontent.com/u/863730?v=4",
        "gravatar_id": "",
        "url": "https://api.github.com/users/fanquake",
        "html_url": "https://github.com/fanquake",
        "followers_url": "https://api.github.com/users/fanquake/followers",
        "following_url": "https://api.github.com/users/fanquake/following%7B/other_user%7D",
        "gists_url": "https://api.github.com/users/fanquake/gists%7B/gist_id%7D",
        "starred_url": "https://api.github.com/users/fanquake/starred%7B/owner%7D%7B/repo%7D",
        "subscriptions_url": "https://api.github.com/users/fanquake/subscriptions",
        "organizations_url": "https://api.github.com/users/fanquake/orgs",
        "repos_url": "https://api.github.com/users/fanquake/repos",
        "events_url": "https://api.github.com/users/fanquake/events%7B/privacy%7D",
        "received_events_url": "https://api.github.com/users/fanquake/received_events",
        "type": "User",
        "site_admin": false
      },
      "repo": {
        "id": 5910539,
        "node_id": "MDEwOlJlcG9zaXRvcnk1OTEwNTM5",
        "name": "bitcoin",
        "full_name": "fanquake/bitcoin",
        "owner": {
          "login": "fanquake",
          "id": 863730,
          "node_id": "MDQ6VXNlcjg2MzczMA==",
          "avatar_url": "https://avatars.githubusercontent.com/u/863730?v=4",
          "gravatar_id": "",
          "url": "https://api.github.com/users/fanquake",
          "html_url": "https://github.com/fanquake",
          "followers_url": "https://api.github.com/users/fanquake/followers",
          "following_url": "https://api.github.com/users/fanquake/following%7B/other_user%7D",
          "gists_url": "https://api.github.com/users/fanquake/gists%7B/gist_id%7D",
          "starred_url": "https://api.github.com/users/fanquake/starred%7B/owner%7D%7B/repo%7D",
          "subscriptions_url": "https://api.github.com/users/fanquake/subscriptions",
          "organizations_url": "https://api.github.com/users/fanquake/orgs",
          "repos_url": "https://api.github.com/users/fanquake/repos",
          "events_url": "https://api.github.com/users/fanquake/events%7B/privacy%7D",
          "received_events_url": "https://api.github.com/users/fanquake/received_events",
          "type": "User",
          "site_admin": false
        },
        "private": false,
        "html_url": "https://github.com/fanquake/bitcoin",
        "description": "Bitcoin integration/staging tree",
        "fork": true,
        "url": "https://api.github.com/repos/fanquake/bitcoin",
        "archive_url": "https://api.github.com/repos/fanquake/bitcoin/%7Barchive_format%7D%7B/ref%7D",
        "assignees_url": "https://api.github.com/repos/fanquake/bitcoin/assignees%7B/user%7D",
        "blobs_url": "https://api.github.com/repos/fanquake/bitcoin/git/blobs%7B/sha%7D",
        "branches_url": "https://api.github.com/repos/fanquake/bitcoin/branches%7B/branch%7D",
        "collaborators_url": "https://api.github.com/repos/fanquake/bitcoin/collaborators%7B/collaborator%7D",
        "comments_url": "https://api.github.com/repos/fanquake/bitcoin/comments%7B/number%7D",
        "commits_url": "https://api.github.com/repos/fanquake/bitcoin/commits%7B/sha%7D",
        "compare_url": "https://api.github.com/repos/fanquake/bitcoin/compare/%7Bbase%7D...%7Bhead%7D",
        "contents_url": "https://api.github.com/repos/fanquake/bitcoin/contents/%7B+path%7D",
        "contributors_url": "https://api.github.com/repos/fanquake/bitcoin/contributors",
        "deployments_url": "https://api.github.com/repos/fanquake/bitcoin/deployments",
        "downloads_url": "https://api.github.com/repos/fanquake/bitcoin/downloads",
        "events_url": "https://api.github.com/repos/fanquake/bitcoin/events",
        "forks_url": "https://api.github.com/repos/fanquake/bitcoin/forks",
        "git_commits_url": "https://api.github.com/repos/fanquake/bitcoin/git/commits%7B/sha%7D",
        "git_refs_url": "https://api.github.com/repos/fanquake/bitcoin/git/refs%7B/sha%7D",
        "git_tags_url": "https://api.github.com/repos/fanquake/bitcoin/git/tags%7B/sha%7D",
        "git_url": "git://github.com/fanquake/bitcoin.git",
        "issue_comment_url": "https://api.github.com/repos/fanquake/bitcoin/issues/comments%7B/number%7D",
        "issue_events_url": "https://api.github.com/repos/fanquake/bitcoin/issues/events%7B/number%7D",
        "issues_url": "https://api.github.com/repos/fanquake/bitcoin/issues%7B/number%7D",
        "keys_url": "https://api.github.com/repos/fanquake/bitcoin/keys%7B/key_id%7D",
        "labels_url": "https://api.github.com/repos/fanquake/bitcoin/labels%7B/name%7D",
        "languages_url": "https://api.github.com/repos/fanquake/bitcoin/languages",
        "merges_url": "https://api.github.com/repos/fanquake/bitcoin/merges",
        "milestones_url": "https://api.github.com/repos/fanquake/bitcoin/milestones%7B/number%7D",
        "notifications_url": "https://api.github.com/repos/fanquake/bitcoin/notifications%7B?since,all,participating}",
        "pulls_url": "https://api.github.com/repos/fanquake/bitcoin/pulls%7B/number%7D",
        "releases_url": "https://api.github.com/repos/fanquake/bitcoin/releases%7B/id%7D",
        "ssh_url": "git@github.com:fanquake/bitcoin.git",
        "stargazers_url": "https://api.github.com/repos/fanquake/bitcoin/stargazers",
        "statuses_url": "https://api.github.com/repos/fanquake/bitcoin/statuses/%7Bsha%7D",
        "subscribers_url": "https://api.github.com/repos/fanquake/bitcoin/subscribers",
        "subscription_url": "https://api.github.com/repos/fanquake/bitcoin/subscription",
        "tags_url": "https://api.github.com/repos/fanquake/bitcoin/tags",
        "teams_url": "https://api.github.com/repos/fanquake/bitcoin/teams",
        "trees_url": "https://api.github.com/repos/fanquake/bitcoin/git/trees%7B/sha%7D",
        "clone_url": "https://github.com/fanquake/bitcoin.git",
        "hooks_url": "https://api.github.com/repos/fanquake/bitcoin/hooks",
        "svn_url": "https://github.com/fanquake/bitcoin",
        "homepage": "http://www.bitcoincore.org",
        "language": "C++",
        "forks_count": 5,
        "stargazers_count": 13,
        "watchers_count": 13,
        "size": 215355,
        "default_branch": "master",
        "open_issues_count": 0,
        "is_template": false,
        "topics": [],
        "has_issues": false,
        "has_projects": false,
        "has_wiki": false,
        "has_pages": false,
        "has_downloads": false,
        "archived": false,
        "disabled": false,
        "visibility": "public",
        "pushed_at": "2023-08-02T12:28:14Z",
        "created_at": "2012-09-22T05:28:42Z",
        "updated_at": "2023-04-27T19:34:01Z",
        "license": {
          "key": "mit",
          "name": "MIT License",
          "node_id": "MDc6TGljZW5zZTEz",
          "spdx_id": "MIT",
          "url": "https://api.github.com/licenses/mit",
          "html_url": null,
          "description": null,
          "implementation": null,
          "permissions": null,
          "conditions": null,
          "limitations": null,
          "body": null,
          "featured": null
        }
      }
    },
    "base": {
      "label": "bitcoin:master",
      "ref": "master",
      "sha": "fe1b3256888bd0e70d0c9655f565e139ec87b606",
      "user": {
        "login": "bitcoin",
        "id": 528860,
        "node_id": "MDEyOk9yZ2FuaXphdGlvbjUyODg2MA==",
        "avatar_url": "https://avatars.githubusercontent.com/u/528860?v=4",
        "gravatar_id": "",
        "url": "https://api.github.com/users/bitcoin",
        "html_url": "https://github.com/bitcoin",
        "followers_url": "https://api.github.com/users/bitcoin/followers",
        "following_url": "https://api.github.com/users/bitcoin/following%7B/other_user%7D",
        "gists_url": "https://api.github.com/users/bitcoin/gists%7B/gist_id%7D",
        "starred_url": "https://api.github.com/users/bitcoin/starred%7B/owner%7D%7B/repo%7D",
        "subscriptions_url": "https://api.github.com/users/bitcoin/subscriptions",
        "organizations_url": "https://api.github.com/users/bitcoin/orgs",
        "repos_url": "https://api.github.com/users/bitcoin/repos",
        "events_url": "https://api.github.com/users/bitcoin/events%7B/privacy%7D",
        "received_events_url": "https://api.github.com/users/bitcoin/received_events",
        "type": "Organization",
        "site_admin": false
      },
      "repo": {
        "id": 1181927,
        "node_id": "MDEwOlJlcG9zaXRvcnkxMTgxOTI3",
        "name": "bitcoin",
        "full_name": "bitcoin/bitcoin",
        "owner": {
          "login": "bitcoin",
          "id": 528860,
          "node_id": "MDEyOk9yZ2FuaXphdGlvbjUyODg2MA==",
          "avatar_url": "https://avatars.githubusercontent.com/u/528860?v=4",
          "gravatar_id": "",
          "url": "https://api.github.com/users/bitcoin",
          "html_url": "https://github.com/bitcoin",
          "followers_url": "https://api.github.com/users/bitcoin/followers",
          "following_url": "https://api.github.com/users/bitcoin/following%7B/other_user%7D",
          "gists_url": "https://api.github.com/users/bitcoin/gists%7B/gist_id%7D",
          "starred_url": "https://api.github.com/users/bitcoin/starred%7B/owner%7D%7B/repo%7D",
          "subscriptions_url": "https://api.github.com/users/bitcoin/subscriptions",
          "organizations_url": "https://api.github.com/users/bitcoin/orgs",
          "repos_url": "https://api.github.com/users/bitcoin/repos",
          "events_url": "https://api.github.com/users/bitcoin/events%7B/privacy%7D",
          "received_events_url": "https://api.github.com/users/bitcoin/received_events",
          "type": "Organization",
          "site_admin": false
        },
        "private": false,
        "html_url": "https://github.com/bitcoin/bitcoin",
        "description": "Bitcoin Core integration/staging tree",
        "fork": false,
        "url": "https://api.github.com/repos/bitcoin/bitcoin",
        "archive_url": "https://api.github.com/repos/bitcoin/bitcoin/%7Barchive_format%7D%7B/ref%7D",
        "assignees_url": "https://api.github.com/repos/bitcoin/bitcoin/assignees%7B/user%7D",
        "blobs_url": "https://api.github.com/repos/bitcoin/bitcoin/git/blobs%7B/sha%7D",
        "branches_url": "https://api.github.com/repos/bitcoin/bitcoin/branches%7B/branch%7D",
        "collaborators_url": "https://api.github.com/repos/bitcoin/bitcoin/collaborators%7B/collaborator%7D",
        "comments_url": "https://api.github.com/repos/bitcoin/bitcoin/comments%7B/number%7D",
        "commits_url": "https://api.github.com/repos/bitcoin/bitcoin/commits%7B/sha%7D",
        "compare_url": "https://api.github.com/repos/bitcoin/bitcoin/compare/%7Bbase%7D...%7Bhead%7D",
        "contents_url": "https://api.github.com/repos/bitcoin/bitcoin/contents/%7B+path%7D",
        "contributors_url": "https://api.github.com/repos/bitcoin/bitcoin/contributors",
        "deployments_url": "https://api.github.com/repos/bitcoin/bitcoin/deployments",
        "downloads_url": "https://api.github.com/repos/bitcoin/bitcoin/downloads",
        "events_url": "https://api.github.com/repos/bitcoin/bitcoin/events",
        "forks_url": "https://api.github.com/repos/bitcoin/bitcoin/forks",
        "git_commits_url": "https://api.github.com/repos/bitcoin/bitcoin/git/commits%7B/sha%7D",
        "git_refs_url": "https://api.github.com/repos/bitcoin/bitcoin/git/refs%7B/sha%7D",
        "git_tags_url": "https://api.github.com/repos/bitcoin/bitcoin/git/tags%7B/sha%7D",
        "git_url": "git://github.com/bitcoin/bitcoin.git",
        "issue_comment_url": "https://api.github.com/repos/bitcoin/bitcoin/issues/comments%7B/number%7D",
        "issue_events_url": "https://api.github.com/repos/bitcoin/bitcoin/issues/events%7B/number%7D",
        "issues_url": "https://api.github.com/repos/bitcoin/bitcoin/issues%7B/number%7D",
        "keys_url": "https://api.github.com/repos/bitcoin/bitcoin/keys%7B/key_id%7D",
        "labels_url": "https://api.github.com/repos/bitcoin/bitcoin/labels%7B/name%7D",
        "languages_url": "https://api.github.com/repos/bitcoin/bitcoin/languages",
        "merges_url": "https://api.github.com/repos/bitcoin/bitcoin/merges",
        "milestones_url": "https://api.github.com/repos/bitcoin/bitcoin/milestones%7B/number%7D",
        "notifications_url": "https://api.github.com/repos/bitcoin/bitcoin/notifications%7B?since,all,participating}",
        "pulls_url": "https://api.github.com/repos/bitcoin/bitcoin/pulls%7B/number%7D",
        "releases_url": "https://api.github.com/repos/bitcoin/bitcoin/releases%7B/id%7D",
        "ssh_url": "git@github.com:bitcoin/bitcoin.git",
        "stargazers_url": "https://api.github.com/repos/bitcoin/bitcoin/stargazers",
        "statuses_url": "https://api.github.com/repos/bitcoin/bitcoin/statuses/%7Bsha%7D",
        "subscribers_url": "https://api.github.com/repos/bitcoin/bitcoin/subscribers",
        "subscription_url": "https://api.github.com/repos/bitcoin/bitcoin/subscription",
        "tags_url": "https://api.github.com/repos/bitcoin/bitcoin/tags",
        "teams_url": "https://api.github.com/repos/bitcoin/bitcoin/teams",
        "trees_url": "https://api.github.com/repos/bitcoin/bitcoin/git/trees%7B/sha%7D",
        "clone_url": "https://github.com/bitcoin/bitcoin.git",
        "hooks_url": "https://api.github.com/repos/bitcoin/bitcoin/hooks",
        "svn_url": "https://github.com/bitcoin/bitcoin",
        "homepage": "https://bitcoincore.org/en/download",
        "language": "C++",
        "forks_count": 35476,
        "stargazers_count": 70608,
        "watchers_count": 70608,
        "size": 236222,
        "default_branch": "master",
        "open_issues_count": 673,
        "is_template": false,
        "topics": [
          "bitcoin",
          "c-plus-plus",
          "cryptocurrency",
          "cryptography",
          "p2p"
        ],
        "has_issues": true,
        "has_projects": true,
        "has_wiki": false,
        "has_pages": false,
        "has_downloads": false,
        "archived": false,
        "disabled": false,
        "visibility": "public",
        "pushed_at": "2023-08-03T00:03:27Z",
        "created_at": "2010-12-19T15:16:43Z",
        "updated_at": "2023-08-02T18:21:18Z",
        "license": {
          "key": "mit",
          "name": "MIT License",
          "node_id": "MDc6TGljZW5zZTEz",
          "spdx_id": "MIT",
          "url": "https://api.github.com/licenses/mit",
          "html_url": null,
          "description": null,
          "implementation": null,
          "permissions": null,
          "conditions": null,
          "limitations": null,
          "body": null,
          "featured": null
        }
      }
    },
    "_links": {
      "self": {
        "href": "https://api.github.com/repos/bitcoin/bitcoin/pulls/27027"
      }
    },
    "author_association": "MEMBER",
    "draft": false,
    "additions": 2,
    "deletions": 2,
    "changed_files": 1,
    "commits": 1,
    "review_comments": 0,
    "comments": 13
  },
  "events": [
    {
      "event": "commented",
      "id": 1413935730,
      "node_id": "IC_kwDOABII585URvJy",
      "url": "https://api.github.com/repos/bitcoin/bitcoin/issues/comments/1413935730",
      "actor": {
        "login": "DrahtBot",
        "id": 39886733,
        "node_id": "MDQ6VXNlcjM5ODg2NzMz",
        "avatar_url": "https://avatars.githubusercontent.com/u/39886733?v=4",
        "gravatar_id": "",
        "url": "https://api.github.com/users/DrahtBot",
        "html_url": "https://github.com/DrahtBot",
        "followers_url": "https://api.github.com/users/DrahtBot/followers",
        "following_url": "https://api.github.com/users/DrahtBot/following%7B/other_user%7D",
        "gists_url": "https://api.github.com/users/DrahtBot/gists%7B/gist_id%7D",
        "starred_url": "https://api.github.com/users/DrahtBot/starred%7B/owner%7D%7B/repo%7D",
        "subscriptions_url": "https://api.github.com/users/DrahtBot/subscriptions",
        "organizations_url": "https://api.github.com/users/DrahtBot/orgs",
        "repos_url": "https://api.github.com/users/DrahtBot/repos",
        "events_url": "https://api.github.com/users/DrahtBot/events%7B/privacy%7D",
        "received_events_url": "https://api.github.com/users/DrahtBot/received_events",
        "type": "User",
        "site_admin": false
      },
      "commit_id": null,
      "commit_url": null,
      "created_at": "2023-02-02T15:34:27Z",
      "updated_at": "2023-02-17T15:18:23Z",
      "author_association": "CONTRIBUTOR",
      "body": "<!--e57a25ab6845829454e8d69fc972939a-->\n\nThe following sections might be updated with supplementary metadata relevant to reviewers and maintainers.\n\n<!--021abf342d371248e50ceaed478a90ca-->\n### Reviews\nSee [the guideline](https://github.com/bitcoin/bitcoin/blob/master/CONTRIBUTING.md#code-review) for information on the review process.\n| Type | Reviewers |\n| ---- | --------- |\n| ACK | [theuni](https://github.com/bitcoin/bitcoin/pull/27027#issuecomment-1434792804) |\n| Concept ACK | [john-moffett](https://github.com/bitcoin/bitcoin/pull/27027#issuecomment-1414412882), [TheCharlatan](https://github.com/bitcoin/bitcoin/pull/27027#issuecomment-1429435999) |\n\nIf your review is incorrectly listed, please react with 👎 to this comment and the bot will ignore it on the next update.\n",
      "user": {
        "login": "DrahtBot",
        "id": 39886733,
        "node_id": "MDQ6VXNlcjM5ODg2NzMz",
        "avatar_url": "https://avatars.githubusercontent.com/u/39886733?v=4",
        "gravatar_id": "",
        "url": "https://api.github.com/users/DrahtBot",
        "html_url": "https://github.com/DrahtBot",
        "followers_url": "https://api.github.com/users/DrahtBot/followers",
        "following_url": "https://api.github.com/users/DrahtBot/following%7B/other_user%7D",
        "gists_url": "https://api.github.com/users/DrahtBot/gists%7B/gist_id%7D",
        "starred_url": "https://api.github.com/users/DrahtBot/starred%7B/owner%7D%7B/repo%7D",
        "subscriptions_url": "https://api.github.com/users/DrahtBot/subscriptions",
        "organizations_url": "https://api.github.com/users/DrahtBot/orgs",
        "repos_url": "https://api.github.com/users/DrahtBot/repos",
        "events_url": "https://api.github.com/users/DrahtBot/events%7B/privacy%7D",
        "received_events_url": "https://api.github.com/users/DrahtBot/received_events",
        "type": "User",
        "site_admin": false
      },
      "html_url": "https://github.com/bitcoin/bitcoin/pull/27027#issuecomment-1413935730",
      "issue_url": "https://api.github.com/repos/bitcoin/bitcoin/issues/27027"
    },
    {
      "event": "labeled",
      "id": 8422573509,
      "node_id": "LE_lADOABII585dee_WzwAAAAH2BkXF",
      "url": "https://api.github.com/repos/bitcoin/bitcoin/issues/events/8422573509",
      "actor": {
        "login": "DrahtBot",
        "id": 39886733,
        "node_id": "MDQ6VXNlcjM5ODg2NzMz",
        "avatar_url": "https://avatars.githubusercontent.com/u/39886733?v=4",
        "gravatar_id": "",
        "url": "https://api.github.com/users/DrahtBot",
        "html_url": "https://github.com/DrahtBot",
        "followers_url": "https://api.github.com/users/DrahtBot/followers",
        "following_url": "https://api.github.com/users/DrahtBot/following%7B/other_user%7D",
        "gists_url": "https://api.github.com/users/DrahtBot/gists%7B/gist_id%7D",
        "starred_url": "https://api.github.com/users/DrahtBot/starred%7B/owner%7D%7B/repo%7D",
        "subscriptions_url": "https://api.github.com/users/DrahtBot/subscriptions",
        "organizations_url": "https://api.github.com/users/DrahtBot/orgs",
        "repos_url": "https://api.github.com/users/DrahtBot/repos",
        "events_url": "https://api.github.com/users/DrahtBot/events%7B/privacy%7D",
        "received_events_url": "https://api.github.com/users/DrahtBot/received_events",
        "type": "User",
        "site_admin": false
      },
      "commit_id": null,
      "commit_url": null,
      "created_at": "2023-02-02T15:34:29Z",
      "label": {
        "name": "Build system",
        "color": "5319e7"
      }
    },
    {
      "event": "commented",
      "id": 1413947314,
      "node_id": "IC_kwDOABII585URx-y",
      "url": "https://api.github.com/repos/bitcoin/bitcoin/issues/comments/1413947314",
      "actor": {
        "login": "hebasto",
        "id": 32963518,
        "node_id": "MDQ6VXNlcjMyOTYzNTE4",
        "avatar_url": "https://avatars.githubusercontent.com/u/32963518?v=4",
        "gravatar_id": "",
        "url": "https://api.github.com/users/hebasto",
        "html_url": "https://github.com/hebasto",
        "followers_url": "https://api.github.com/users/hebasto/followers",
        "following_url": "https://api.github.com/users/hebasto/following%7B/other_user%7D",
        "gists_url": "https://api.github.com/users/hebasto/gists%7B/gist_id%7D",
        "starred_url": "https://api.github.com/users/hebasto/starred%7B/owner%7D%7B/repo%7D",
        "subscriptions_url": "https://api.github.com/users/hebasto/subscriptions",
        "organizations_url": "https://api.github.com/users/hebasto/orgs",
        "repos_url": "https://api.github.com/users/hebasto/repos",
        "events_url": "https://api.github.com/users/hebasto/events%7B/privacy%7D",
        "received_events_url": "https://api.github.com/users/hebasto/received_events",
        "type": "User",
        "site_admin": false
      },
      "commit_id": null,
      "commit_url": null,
      "created_at": "2023-02-02T15:42:05Z",
      "updated_at": "2023-02-02T15:42:05Z",
      "author_association": "MEMBER",
      "body": "https://sourceware.org/pipermail/libc-alpha/2021-February/122207.html:\r\n> At this level, glibc may use additional checks that may have an additional performance overhead.\r\n\r\nAny estimations of the mentioned \"additional performance overhead\" for our binaries?",
      "user": {
        "login": "hebasto",
        "id": 32963518,
        "node_id": "MDQ6VXNlcjMyOTYzNTE4",
        "avatar_url": "https://avatars.githubusercontent.com/u/32963518?v=4",
        "gravatar_id": "",
        "url": "https://api.github.com/users/hebasto",
        "html_url": "https://github.com/hebasto",
        "followers_url": "https://api.github.com/users/hebasto/followers",
        "following_url": "https://api.github.com/users/hebasto/following%7B/other_user%7D",
        "gists_url": "https://api.github.com/users/hebasto/gists%7B/gist_id%7D",
        "starred_url": "https://api.github.com/users/hebasto/starred%7B/owner%7D%7B/repo%7D",
        "subscriptions_url": "https://api.github.com/users/hebasto/subscriptions",
        "organizations_url": "https://api.github.com/users/hebasto/orgs",
        "repos_url": "https://api.github.com/users/hebasto/repos",
        "events_url": "https://api.github.com/users/hebasto/events%7B/privacy%7D",
        "received_events_url": "https://api.github.com/users/hebasto/received_events",
        "type": "User",
        "site_admin": false
      },
      "html_url": "https://github.com/bitcoin/bitcoin/pull/27027#issuecomment-1413947314",
      "issue_url": "https://api.github.com/repos/bitcoin/bitcoin/issues/27027"
    },
    {
      "event": "commented",
      "id": 1414338822,
      "node_id": "IC_kwDOABII585UTRkG",
      "url": "https://api.github.com/repos/bitcoin/bitcoin/issues/comments/1414338822",
      "actor": {
        "login": "theuni",
        "id": 417043,
        "node_id": "MDQ6VXNlcjQxNzA0Mw==",
        "avatar_url": "https://avatars.githubusercontent.com/u/417043?v=4",
        "gravatar_id": "",
        "url": "https://api.github.com/users/theuni",
        "html_url": "https://github.com/theuni",
        "followers_url": "https://api.github.com/users/theuni/followers",
        "following_url": "https://api.github.com/users/theuni/following%7B/other_user%7D",
        "gists_url": "https://api.github.com/users/theuni/gists%7B/gist_id%7D",
        "starred_url": "https://api.github.com/users/theuni/starred%7B/owner%7D%7B/repo%7D",
        "subscriptions_url": "https://api.github.com/users/theuni/subscriptions",
        "organizations_url": "https://api.github.com/users/theuni/orgs",
        "repos_url": "https://api.github.com/users/theuni/repos",
        "events_url": "https://api.github.com/users/theuni/events%7B/privacy%7D",
        "received_events_url": "https://api.github.com/users/theuni/received_events",
        "type": "User",
        "site_admin": false
      },
      "commit_id": null,
      "commit_url": null,
      "created_at": "2023-02-02T20:33:26Z",
      "updated_at": "2023-02-02T20:35:31Z",
      "author_association": "MEMBER",
      "body": "Hahaha, I was just [poking at this myself today](https://github.com/theuni/bitcoin/commit/9ced5df9a97eb2c4329a19d90e56a1ec609dcd7d).\r\n\r\nFYI support has been recently proposed to mingw as well: https://sourceforge.net/p/mingw-w64/mailman/message/37772473/\r\n\r\n> > At this level, glibc may use additional checks that may have an additional performance overhead.\r\n> \r\n> Any estimations of the mentioned \"additional performance overhead\" for our binaries?\r\n\r\nThis was my hesitation as well. It'd be nice to have a before/after for our benches at least.\r\n\r\nEdit: Concept ACK, btw. And ACK after a quick bench shows it doesn't tank performace.",
      "user": {
        "login": "theuni",
        "id": 417043,
        "node_id": "MDQ6VXNlcjQxNzA0Mw==",
        "avatar_url": "https://avatars.githubusercontent.com/u/417043?v=4",
        "gravatar_id": "",
        "url": "https://api.github.com/users/theuni",
        "html_url": "https://github.com/theuni",
        "followers_url": "https://api.github.com/users/theuni/followers",
        "following_url": "https://api.github.com/users/theuni/following%7B/other_user%7D",
        "gists_url": "https://api.github.com/users/theuni/gists%7B/gist_id%7D",
        "starred_url": "https://api.github.com/users/theuni/starred%7B/owner%7D%7B/repo%7D",
        "subscriptions_url": "https://api.github.com/users/theuni/subscriptions",
        "organizations_url": "https://api.github.com/users/theuni/orgs",
        "repos_url": "https://api.github.com/users/theuni/repos",
        "events_url": "https://api.github.com/users/theuni/events%7B/privacy%7D",
        "received_events_url": "https://api.github.com/users/theuni/received_events",
        "type": "User",
        "site_admin": false
      },
      "html_url": "https://github.com/bitcoin/bitcoin/pull/27027#issuecomment-1414338822",
      "issue_url": "https://api.github.com/repos/bitcoin/bitcoin/issues/27027"
    },
    {
      "event": "commented",
      "id": 1414412882,
      "node_id": "IC_kwDOABII585UTjpS",
      "url": "https://api.github.com/repos/bitcoin/bitcoin/issues/comments/1414412882",
      "actor": {
        "login": "john-moffett",
        "id": 116917595,
        "node_id": "U_kgDOBvgFWw",
        "avatar_url": "https://avatars.githubusercontent.com/u/116917595?v=4",
        "gravatar_id": "",
        "url": "https://api.github.com/users/john-moffett",
        "html_url": "https://github.com/john-moffett",
        "followers_url": "https://api.github.com/users/john-moffett/followers",
        "following_url": "https://api.github.com/users/john-moffett/following%7B/other_user%7D",
        "gists_url": "https://api.github.com/users/john-moffett/gists%7B/gist_id%7D",
        "starred_url": "https://api.github.com/users/john-moffett/starred%7B/owner%7D%7B/repo%7D",
        "subscriptions_url": "https://api.github.com/users/john-moffett/subscriptions",
        "organizations_url": "https://api.github.com/users/john-moffett/orgs",
        "repos_url": "https://api.github.com/users/john-moffett/repos",
        "events_url": "https://api.github.com/users/john-moffett/events%7B/privacy%7D",
        "received_events_url": "https://api.github.com/users/john-moffett/received_events",
        "type": "User",
        "site_admin": false
      },
      "commit_id": null,
      "commit_url": null,
      "created_at": "2023-02-02T21:42:05Z",
      "updated_at": "2023-02-02T21:45:29Z",
      "author_association": "CONTRIBUTOR",
      "body": "Concept ACK\r\n\r\nYeah, I ran the benchmarks before and after with both a Linux (GCC) and macOS (Clang) build and couldn’t see a significant change, not that I was expecting it on macOS at least. I may try more extensive measurements soon. ",
      "user": {
        "login": "john-moffett",
        "id": 116917595,
        "node_id": "U_kgDOBvgFWw",
        "avatar_url": "https://avatars.githubusercontent.com/u/116917595?v=4",
        "gravatar_id": "",
        "url": "https://api.github.com/users/john-moffett",
        "html_url": "https://github.com/john-moffett",
        "followers_url": "https://api.github.com/users/john-moffett/followers",
        "following_url": "https://api.github.com/users/john-moffett/following%7B/other_user%7D",
        "gists_url": "https://api.github.com/users/john-moffett/gists%7B/gist_id%7D",
        "starred_url": "https://api.github.com/users/john-moffett/starred%7B/owner%7D%7B/repo%7D",
        "subscriptions_url": "https://api.github.com/users/john-moffett/subscriptions",
        "organizations_url": "https://api.github.com/users/john-moffett/orgs",
        "repos_url": "https://api.github.com/users/john-moffett/repos",
        "events_url": "https://api.github.com/users/john-moffett/events%7B/privacy%7D",
        "received_events_url": "https://api.github.com/users/john-moffett/received_events",
        "type": "User",
        "site_admin": false
      },
      "html_url": "https://github.com/bitcoin/bitcoin/pull/27027#issuecomment-1414412882",
      "issue_url": "https://api.github.com/repos/bitcoin/bitcoin/issues/27027"
    },
    {
      "event": "cross-referenced",
      "id": null,
      "node_id": null,
      "url": null,
      "actor": {
        "login": "john-moffett",
        "id": 116917595,
        "node_id": "U_kgDOBvgFWw",
        "avatar_url": "https://avatars.githubusercontent.com/u/116917595?v=4",
        "gravatar_id": "",
        "url": "https://api.github.com/users/john-moffett",
        "html_url": "https://github.com/john-moffett",
        "followers_url": "https://api.github.com/users/john-moffett/followers",
        "following_url": "https://api.github.com/users/john-moffett/following%7B/other_user%7D",
        "gists_url": "https://api.github.com/users/john-moffett/gists%7B/gist_id%7D",
        "starred_url": "https://api.github.com/users/john-moffett/starred%7B/owner%7D%7B/repo%7D",
        "subscriptions_url": "https://api.github.com/users/john-moffett/subscriptions",
        "organizations_url": "https://api.github.com/users/john-moffett/orgs",
        "repos_url": "https://api.github.com/users/john-moffett/repos",
        "events_url": "https://api.github.com/users/john-moffett/events%7B/privacy%7D",
        "received_events_url": "https://api.github.com/users/john-moffett/received_events",
        "type": "User",
        "site_admin": false
      },
      "commit_id": null,
      "commit_url": null,
      "created_at": "2023-02-03T16:54:52Z",
      "updated_at": "2023-02-03T16:54:52Z",
      "source": {
        "issue": {
          "id": 1566161668,
          "node_id": "I_kwDOABII585dWbsE",
          "url": "https://api.github.com/repos/bitcoin/bitcoin/issues/27014",
          "repository_url": "https://api.github.com/repos/bitcoin/bitcoin",
          "labels_url": "https://api.github.com/repos/bitcoin/bitcoin/issues/27014/labels%7B/name%7D",
          "comments_url": "https://api.github.com/repos/bitcoin/bitcoin/issues/27014/comments",
          "events_url": "https://api.github.com/repos/bitcoin/bitcoin/issues/27014/events",
          "html_url": "https://github.com/bitcoin/bitcoin/issues/27014",
          "number": 27014,
          "state": "closed",
          "state_reason": "completed",
          "title": "test: format-truncation warning in dbwrapper_tests",
          "body": "Compiling master at e1bf5470f919cf212703466411968916db8ae61f on Ubuntu 22.10 (with depends):\r\n\r\n```cpp\r\n  CXX      test/test_bitcoin-dbwrapper_tests.o\r\ntest/dbwrapper_tests.cpp: In member function ‘void dbwrapper_tests::iterator_string_ordering::test_method()’:\r\ntest/dbwrapper_tests.cpp:365:41: error: ‘%d’ directive output may be truncated writing between 1 and 11 bytes into a region of size 10 [-Werror=format-truncation=]\r\n  365 |             snprintf(buf, sizeof(buf), \"%d\", x);\r\n      |                                         ^~\r\ntest/dbwrapper_tests.cpp:365:40: note: directive argument in the range [-2147483648, 9]\r\n  365 |             snprintf(buf, sizeof(buf), \"%d\", x);\r\n      |                                        ^~~~\r\nIn file included from /usr/include/stdio.h:906,\r\n                 from /usr/include/c++/12/cstdio:42,\r\n                 from /usr/include/c++/12/ext/string_conversions.h:43,\r\n                 from /usr/include/c++/12/bits/basic_string.h:3960,\r\n                 from /usr/include/c++/12/string:53,\r\n                 from ./clientversion.h:30,\r\n                 from ./dbwrapper.h:8,\r\n                 from test/dbwrapper_tests.cpp:5:\r\nIn function ‘int snprintf(char*, size_t, const char*, ...)’,\r\n    inlined from ‘void dbwrapper_tests::iterator_string_ordering::test_method()’ at test/dbwrapper_tests.cpp:365:21:\r\n/usr/include/x86_64-linux-gnu/bits/stdio2.h:54:35: note: ‘__builtin___snprintf_chk’ output between 2 and 12 bytes into a destination of size 10\r\n   54 |   return __builtin___snprintf_chk (__s, __n, __USE_FORTIFY_LEVEL - 1,\r\n      |          ~~~~~~~~~~~~~~~~~~~~~~~~~^~~~~~~~~~~~~~~~~~~~~~~~~~~~~~~~~~~\r\n   55 |                                    __glibc_objsize (__s), __fmt,\r\n      |                                    ~~~~~~~~~~~~~~~~~~~~~~~~~~~~~\r\n   56 |                                    __va_arg_pack ());\r\n      |                                    ~~~~~~~~~~~~~~~~~\r\n```\r\n\r\n(I ran with `--enable-werror`, otherwise it's merely a warning)\r\n\r\ncc @achow101 ",
          "user": {
            "login": "Sjors",
            "id": 10217,
            "node_id": "MDQ6VXNlcjEwMjE3",
            "avatar_url": "https://avatars.githubusercontent.com/u/10217?v=4",
            "gravatar_id": "",
            "url": "https://api.github.com/users/Sjors",
            "html_url": "https://github.com/Sjors",
            "followers_url": "https://api.github.com/users/Sjors/followers",
            "following_url": "https://api.github.com/users/Sjors/following%7B/other_user%7D",
            "gists_url": "https://api.github.com/users/Sjors/gists%7B/gist_id%7D",
            "starred_url": "https://api.github.com/users/Sjors/starred%7B/owner%7D%7B/repo%7D",
            "subscriptions_url": "https://api.github.com/users/Sjors/subscriptions",
            "organizations_url": "https://api.github.com/users/Sjors/orgs",
            "repos_url": "https://api.github.com/users/Sjors/repos",
            "events_url": "https://api.github.com/users/Sjors/events%7B/privacy%7D",
            "received_events_url": "https://api.github.com/users/Sjors/received_events",
            "type": "User",
            "site_admin": false
          },
          "labels": [
            {
              "id": 64585,
              "node_id": "MDU6TGFiZWw2NDU4NQ==",
              "url": "https://api.github.com/repos/bitcoin/bitcoin/labels/Bug",
              "name": "Bug",
              "color": "FBBAAB",
              "default": false
            }
          ],
          "assignees": [],
          "author_association": "MEMBER",
          "locked": false,
          "comments": 5,
          "closed_at": "2023-02-06T09:34:46Z",
          "created_at": "2023-02-01T13:57:12Z",
          "updated_at": "2023-02-06T09:34:46Z"
        },
        "type": "issue"
      }
    },
    {
      "event": "cross-referenced",
      "id": null,
      "node_id": null,
      "url": null,
      "actor": {
        "login": "fanquake",
        "id": 863730,
        "node_id": "MDQ6VXNlcjg2MzczMA==",
        "avatar_url": "https://avatars.githubusercontent.com/u/863730?v=4",
        "gravatar_id": "",
        "url": "https://api.github.com/users/fanquake",
        "html_url": "https://github.com/fanquake",
        "followers_url": "https://api.github.com/users/fanquake/followers",
        "following_url": "https://api.github.com/users/fanquake/following%7B/other_user%7D",
        "gists_url": "https://api.github.com/users/fanquake/gists%7B/gist_id%7D",
        "starred_url": "https://api.github.com/users/fanquake/starred%7B/owner%7D%7B/repo%7D",
        "subscriptions_url": "https://api.github.com/users/fanquake/subscriptions",
        "organizations_url": "https://api.github.com/users/fanquake/orgs",
        "repos_url": "https://api.github.com/users/fanquake/repos",
        "events_url": "https://api.github.com/users/fanquake/events%7B/privacy%7D",
        "received_events_url": "https://api.github.com/users/fanquake/received_events",
        "type": "User",
        "site_admin": false
      },
      "commit_id": null,
      "commit_url": null,
      "created_at": "2023-02-03T17:05:08Z",
      "updated_at": "2023-02-03T17:05:08Z",
      "source": {
        "issue": {
          "id": 1570161380,
          "node_id": "PR_kwDOABII585JODjy",
          "url": "https://api.github.com/repos/bitcoin/bitcoin/issues/27038",
          "repository_url": "https://api.github.com/repos/bitcoin/bitcoin",
          "labels_url": "https://api.github.com/repos/bitcoin/bitcoin/issues/27038/labels%7B/name%7D",
          "comments_url": "https://api.github.com/repos/bitcoin/bitcoin/issues/27038/comments",
          "events_url": "https://api.github.com/repos/bitcoin/bitcoin/issues/27038/events",
          "html_url": "https://github.com/bitcoin/bitcoin/pull/27038",
          "number": 27038,
          "state": "open",
          "state_reason": null,
          "title": "security-check: test for `_FORTIFY_SOURCE` usage in release binaries",
          "body": "Test for the existence of fortified functions in the ELF release binaries. Related to #27027.\r\nCan't be done yet because we don't end up with any fortified funcs in `bitcoin-util`.",
          "user": {
            "login": "fanquake",
            "id": 863730,
            "node_id": "MDQ6VXNlcjg2MzczMA==",
            "avatar_url": "https://avatars.githubusercontent.com/u/863730?v=4",
            "gravatar_id": "",
            "url": "https://api.github.com/users/fanquake",
            "html_url": "https://github.com/fanquake",
            "followers_url": "https://api.github.com/users/fanquake/followers",
            "following_url": "https://api.github.com/users/fanquake/following%7B/other_user%7D",
            "gists_url": "https://api.github.com/users/fanquake/gists%7B/gist_id%7D",
            "starred_url": "https://api.github.com/users/fanquake/starred%7B/owner%7D%7B/repo%7D",
            "subscriptions_url": "https://api.github.com/users/fanquake/subscriptions",
            "organizations_url": "https://api.github.com/users/fanquake/orgs",
            "repos_url": "https://api.github.com/users/fanquake/repos",
            "events_url": "https://api.github.com/users/fanquake/events%7B/privacy%7D",
            "received_events_url": "https://api.github.com/users/fanquake/received_events",
            "type": "User",
            "site_admin": false
          },
          "labels": [],
          "assignees": [],
          "author_association": "MEMBER",
          "locked": false,
          "comments": 4,
          "pull_request": {
            "url": "https://api.github.com/repos/bitcoin/bitcoin/pulls/27038",
            "html_url": "https://github.com/bitcoin/bitcoin/pull/27038",
            "diff_url": "https://github.com/bitcoin/bitcoin/pull/27038.diff",
            "patch_url": "https://github.com/bitcoin/bitcoin/pull/27038.patch"
          },
          "created_at": "2023-02-03T17:05:08Z",
          "updated_at": "2023-07-27T09:37:40Z"
        },
        "type": "issue"
      }
    },
    {
      "event": "commented",
      "id": 1416396969,
      "node_id": "IC_kwDOABII585UbICp",
      "url": "https://api.github.com/repos/bitcoin/bitcoin/issues/comments/1416396969",
      "actor": {
        "login": "theuni",
        "id": 417043,
        "node_id": "MDQ6VXNlcjQxNzA0Mw==",
        "avatar_url": "https://avatars.githubusercontent.com/u/417043?v=4",
        "gravatar_id": "",
        "url": "https://api.github.com/users/theuni",
        "html_url": "https://github.com/theuni",
        "followers_url": "https://api.github.com/users/theuni/followers",
        "following_url": "https://api.github.com/users/theuni/following%7B/other_user%7D",
        "gists_url": "https://api.github.com/users/theuni/gists%7B/gist_id%7D",
        "starred_url": "https://api.github.com/users/theuni/starred%7B/owner%7D%7B/repo%7D",
        "subscriptions_url": "https://api.github.com/users/theuni/subscriptions",
        "organizations_url": "https://api.github.com/users/theuni/orgs",
        "repos_url": "https://api.github.com/users/theuni/repos",
        "events_url": "https://api.github.com/users/theuni/events%7B/privacy%7D",
        "received_events_url": "https://api.github.com/users/theuni/received_events",
        "type": "User",
        "site_admin": false
      },
      "commit_id": null,
      "commit_url": null,
      "created_at": "2023-02-03T21:00:28Z",
      "updated_at": "2023-02-03T21:00:28Z",
      "author_association": "MEMBER",
      "body": "In order to test this, I decided to try out the recommended [fortify metrics plugin for gcc](https://github.com/siddhesh/fortify-metrics).\r\n\r\nI spent all day tracking down a bug in the plugin (PR'd what I believe to be the fix [here](https://github.com/siddhesh/fortify-metrics/pull/1)). Next week I'll use it to gather some statistics on `_FORTIFY_SOURCE=2` vs `=3`.\r\n\r\nIt will also be usable to test how much additional fortification we'd get if we built depends that way as well.",
      "user": {
        "login": "theuni",
        "id": 417043,
        "node_id": "MDQ6VXNlcjQxNzA0Mw==",
        "avatar_url": "https://avatars.githubusercontent.com/u/417043?v=4",
        "gravatar_id": "",
        "url": "https://api.github.com/users/theuni",
        "html_url": "https://github.com/theuni",
        "followers_url": "https://api.github.com/users/theuni/followers",
        "following_url": "https://api.github.com/users/theuni/following%7B/other_user%7D",
        "gists_url": "https://api.github.com/users/theuni/gists%7B/gist_id%7D",
        "starred_url": "https://api.github.com/users/theuni/starred%7B/owner%7D%7B/repo%7D",
        "subscriptions_url": "https://api.github.com/users/theuni/subscriptions",
        "organizations_url": "https://api.github.com/users/theuni/orgs",
        "repos_url": "https://api.github.com/users/theuni/repos",
        "events_url": "https://api.github.com/users/theuni/events%7B/privacy%7D",
        "received_events_url": "https://api.github.com/users/theuni/received_events",
        "type": "User",
        "site_admin": false
      },
      "html_url": "https://github.com/bitcoin/bitcoin/pull/27027#issuecomment-1416396969",
      "issue_url": "https://api.github.com/repos/bitcoin/bitcoin/issues/27027"
    },
    {
      "event": "commented",
      "id": 1418050883,
      "node_id": "IC_kwDOABII585Uhb1D",
      "url": "https://api.github.com/repos/bitcoin/bitcoin/issues/comments/1418050883",
      "actor": {
        "login": "fanquake",
        "id": 863730,
        "node_id": "MDQ6VXNlcjg2MzczMA==",
        "avatar_url": "https://avatars.githubusercontent.com/u/863730?v=4",
        "gravatar_id": "",
        "url": "https://api.github.com/users/fanquake",
        "html_url": "https://github.com/fanquake",
        "followers_url": "https://api.github.com/users/fanquake/followers",
        "following_url": "https://api.github.com/users/fanquake/following%7B/other_user%7D",
        "gists_url": "https://api.github.com/users/fanquake/gists%7B/gist_id%7D",
        "starred_url": "https://api.github.com/users/fanquake/starred%7B/owner%7D%7B/repo%7D",
        "subscriptions_url": "https://api.github.com/users/fanquake/subscriptions",
        "organizations_url": "https://api.github.com/users/fanquake/orgs",
        "repos_url": "https://api.github.com/users/fanquake/repos",
        "events_url": "https://api.github.com/users/fanquake/events%7B/privacy%7D",
        "received_events_url": "https://api.github.com/users/fanquake/received_events",
        "type": "User",
        "site_admin": false
      },
      "commit_id": null,
      "commit_url": null,
      "created_at": "2023-02-05T15:34:20Z",
      "updated_at": "2023-02-05T15:34:20Z",
      "author_association": "MEMBER",
      "body": "> Hahaha, I was just [poking at this myself today](https://github.com/theuni/bitcoin/commit/9ced5df9a97eb2c4329a19d90e56a1ec609dcd7d).\r\n\r\nheh. I had just sent a doc change up to glibc before opening: https://github.com/bminor/glibc/commit/1423a26a488aae1c6fa7210e20c147a242f40f47.\r\n\r\n> FYI support has been recently proposed to mingw as well:\r\n\r\nLooks like this has gone in https://github.com/mirror/mingw-w64/commit/e34c747fa6a3fb1def1518d1953a7ba516d24ab1.\r\n\r\nNote I've also opened #27038 to add a sanity check that foritification (like other haardneing) is being used in the release binaries.",
      "user": {
        "login": "fanquake",
        "id": 863730,
        "node_id": "MDQ6VXNlcjg2MzczMA==",
        "avatar_url": "https://avatars.githubusercontent.com/u/863730?v=4",
        "gravatar_id": "",
        "url": "https://api.github.com/users/fanquake",
        "html_url": "https://github.com/fanquake",
        "followers_url": "https://api.github.com/users/fanquake/followers",
        "following_url": "https://api.github.com/users/fanquake/following%7B/other_user%7D",
        "gists_url": "https://api.github.com/users/fanquake/gists%7B/gist_id%7D",
        "starred_url": "https://api.github.com/users/fanquake/starred%7B/owner%7D%7B/repo%7D",
        "subscriptions_url": "https://api.github.com/users/fanquake/subscriptions",
        "organizations_url": "https://api.github.com/users/fanquake/orgs",
        "repos_url": "https://api.github.com/users/fanquake/repos",
        "events_url": "https://api.github.com/users/fanquake/events%7B/privacy%7D",
        "received_events_url": "https://api.github.com/users/fanquake/received_events",
        "type": "User",
        "site_admin": false
      },
      "html_url": "https://github.com/bitcoin/bitcoin/pull/27027#issuecomment-1418050883",
      "issue_url": "https://api.github.com/repos/bitcoin/bitcoin/issues/27027"
    },
    {
      "event": "commented",
      "id": 1429435999,
      "node_id": "IC_kwDOABII585VM3Zf",
      "url": "https://api.github.com/repos/bitcoin/bitcoin/issues/comments/1429435999",
      "actor": {
        "login": "TheCharlatan",
        "id": 8421793,
        "node_id": "MDQ6VXNlcjg0MjE3OTM=",
        "avatar_url": "https://avatars.githubusercontent.com/u/8421793?v=4",
        "gravatar_id": "",
        "url": "https://api.github.com/users/TheCharlatan",
        "html_url": "https://github.com/TheCharlatan",
        "followers_url": "https://api.github.com/users/TheCharlatan/followers",
        "following_url": "https://api.github.com/users/TheCharlatan/following%7B/other_user%7D",
        "gists_url": "https://api.github.com/users/TheCharlatan/gists%7B/gist_id%7D",
        "starred_url": "https://api.github.com/users/TheCharlatan/starred%7B/owner%7D%7B/repo%7D",
        "subscriptions_url": "https://api.github.com/users/TheCharlatan/subscriptions",
        "organizations_url": "https://api.github.com/users/TheCharlatan/orgs",
        "repos_url": "https://api.github.com/users/TheCharlatan/repos",
        "events_url": "https://api.github.com/users/TheCharlatan/events%7B/privacy%7D",
        "received_events_url": "https://api.github.com/users/TheCharlatan/received_events",
        "type": "User",
        "site_admin": false
      },
      "commit_id": null,
      "commit_url": null,
      "created_at": "2023-02-14T09:49:13Z",
      "updated_at": "2023-02-14T09:49:13Z",
      "author_association": "CONTRIBUTOR",
      "body": "Concept ACK\r\n\r\nRan this on Ubuntu 22.04 with glibc 2.35 and clang 14. Also did not observe a significant slowdown of the benchmarks.\r\nOn master:\r\n```\r\nobjdump -d src/bitcoind | grep \"_chk@plt\" | wc -l\r\n...\r\n36\r\n```\r\nThis branch:\r\n```\r\nobjdump -d src/bitcoind | grep \"_chk@plt\" | wc -l\r\n...\r\n76\r\n```",
      "user": {
        "login": "TheCharlatan",
        "id": 8421793,
        "node_id": "MDQ6VXNlcjg0MjE3OTM=",
        "avatar_url": "https://avatars.githubusercontent.com/u/8421793?v=4",
        "gravatar_id": "",
        "url": "https://api.github.com/users/TheCharlatan",
        "html_url": "https://github.com/TheCharlatan",
        "followers_url": "https://api.github.com/users/TheCharlatan/followers",
        "following_url": "https://api.github.com/users/TheCharlatan/following%7B/other_user%7D",
        "gists_url": "https://api.github.com/users/TheCharlatan/gists%7B/gist_id%7D",
        "starred_url": "https://api.github.com/users/TheCharlatan/starred%7B/owner%7D%7B/repo%7D",
        "subscriptions_url": "https://api.github.com/users/TheCharlatan/subscriptions",
        "organizations_url": "https://api.github.com/users/TheCharlatan/orgs",
        "repos_url": "https://api.github.com/users/TheCharlatan/repos",
        "events_url": "https://api.github.com/users/TheCharlatan/events%7B/privacy%7D",
        "received_events_url": "https://api.github.com/users/TheCharlatan/received_events",
        "type": "User",
        "site_admin": false
      },
      "html_url": "https://github.com/bitcoin/bitcoin/pull/27027#issuecomment-1429435999",
      "issue_url": "https://api.github.com/repos/bitcoin/bitcoin/issues/27027"
    },
    {
      "event": "committed",
      "id": null,
      "node_id": "C_kwDOABII59oAKDRmYWE0ZTM3YTY1MTFjNmFkYTMwM2VmNzkyOWFjOTljNzQ2MmYwODM",
      "url": "https://api.github.com/repos/bitcoin/bitcoin/git/commits/4faa4e37a6511c6ada303ef7929ac99c7462f083",
      "actor": null,
      "commit_id": null,
      "commit_url": null,
      "created_at": null,
      "html_url": "https://github.com/bitcoin/bitcoin/commit/4faa4e37a6511c6ada303ef7929ac99c7462f083",
      "tree": {
        "sha": "13562808f36b34067fae4610ca1ecd6214a13658",
        "url": "https://api.github.com/repos/bitcoin/bitcoin/git/trees/13562808f36b34067fae4610ca1ecd6214a13658"
      },
      "verification": {
        "verified": true,
        "reason": "valid",
        "payload": "tree 13562808f36b34067fae4610ca1ecd6214a13658\nparent fe1b3256888bd0e70d0c9655f565e139ec87b606\nauthor fanquake <fanquake@gmail.com> 1675253408 +0000\ncommitter fanquake <fanquake@gmail.com> 1676630957 +0000\n\nbuild: use _FORTIFY_SOURCE=3\n\nglibc 2.33 introduced a new fortification level, _FORTIFY_SOURCE=3.\nWhich improves the coverage of cases where _FORTIFY_SOURCE can use _chk\nfunctions. For example, using GCC 13 and glibc 2.36 (Fedora Rawhide),\ncompiling master:\n```bash\nnm -C src/bitcoind | grep _chk\n                 U __fprintf_chk@GLIBC_2.17\n                 U __memcpy_chk@GLIBC_2.17\n                 U __snprintf_chk@GLIBC_2.17\n                 U __sprintf_chk@GLIBC_2.17\n                 U __stack_chk_fail@GLIBC_2.17\n                 U __stack_chk_guard@GLIBC_2.17\n                 U __vsnprintf_chk@GLIBC_2.17\n\nobjdump -d src/bitcoind | grep \"_chk@plt\" | wc -l\n33\n```\n\nvs this branch:\n```bash\nnm -C src/bitcoind | grep _chk\n                 U __fprintf_chk@GLIBC_2.17\n                 U __memcpy_chk@GLIBC_2.17\n                 U __memset_chk@GLIBC_2.17\n                 U __snprintf_chk@GLIBC_2.17\n                 U __sprintf_chk@GLIBC_2.17\n                 U __stack_chk_fail@GLIBC_2.17\n                 U __stack_chk_guard@GLIBC_2.17\n                 U __vsnprintf_chk@GLIBC_2.17\n\nobjdump -d src/bitcoind | grep \"_chk@plt\" | wc -l\n61\n```\n\nUsage of level 3 requires LLVM/Clang 9+, or GCC 12+. Older\ncompilers/glibc will still use _FORTIFY_SOURCE=2. For example, in the\nglibc we currently use for Linux release builds (2.24), FORTIFY_LEVEL is\ndetermined using the following:\n```c\n```\nso any value > 1 will turn on _FORTIFY_SOURCE=2.\n\nhttps://sourceware.org/pipermail/libc-alpha/2021-February/122207.html\nhttps://developers.redhat.com/blog/2021/04/16/broadening-compiler-checks-for-buffer-overflows-in-_fortify_source\n",
        "signature": "-----BEGIN PGP SIGNATURE-----\n\niQIzBAABCAAdFiEEz7FuIclQ9n+pXlWPLuufXMCVJsEFAmPvW60ACgkQLuufXMCV\nJsGuXhAAqxNUECz/Zt+ZWxxvGCYWF5EpWGJdFOEYM84toEWqVZckP3NWPu23ID8G\nzZ/C7q3lKvXSFIlVip1A+9jKY9gPWg3RQR3lCY3SaVHUzxbzyBrKP10D8Dwf5T56\nZ9bueQ/sr+hB71g2Z+zok8WECsnXp4Ds6TG+YeCYAm9g1d3kiv/jDBg7FckAxMH5\n8LR/7jr33PRAOXzwwx1bZo9HFradzKOC23DkFNuPyoAqgIIXinGwFd1239dHLyLN\nu1K+zoaMcrGtJ8vlmJXxzQMMYMgYSpxpMr9jbissNOZ8+kib3fJNiaYfFhQz+NjV\neD1WupKAuAyWq6Qdf0PxXyw1wlRyFhoXPa4wUq2rl2OqBh4UKKEthiPlpYUQtQvF\nXt4+pycXU9LedyF7eUJfEpEmW/LRi+Fjy3IoYEL/HA8q5d9zWvKRBDicm1BgKY7l\nCAGYXH0/DyDhF/8iU8GZcQlDFgS9PUrVuC++civzZHhEpFCJhqp3ncMUfZWMFj3c\nQ2MariU+6kUd9xD4GY/HuRDSjzNKj/q553IhxP0T3NPFfF0J59mMm9q1Zr8b1+7O\nyTmr9o8MVgJBirau/eJyunA0tgOZ6wWN1RKvhUo9GDal1GBz7IJDS4TAsgKhiuih\n5vRH+JxQIe7tXvJFDq4yll7qRUOH6eeZhiVzSFP/geIYDFqeh/Q=\n=O+uo\n-----END PGP SIGNATURE-----"
      },
      "parents": [
        {
          "url": "https://api.github.com/repos/bitcoin/bitcoin/git/commits/fe1b3256888bd0e70d0c9655f565e139ec87b606",
          "sha": "fe1b3256888bd0e70d0c9655f565e139ec87b606",
          "html_url": "https://github.com/bitcoin/bitcoin/commit/fe1b3256888bd0e70d0c9655f565e139ec87b606"
        }
      ],
      "message": "build: use _FORTIFY_SOURCE=3\n\nglibc 2.33 introduced a new fortification level, _FORTIFY_SOURCE=3.\nWhich improves the coverage of cases where _FORTIFY_SOURCE can use _chk\nfunctions. For example, using GCC 13 and glibc 2.36 (Fedora Rawhide),\ncompiling master:\n```bash\nnm -C src/bitcoind | grep _chk\n                 U __fprintf_chk@GLIBC_2.17\n                 U __memcpy_chk@GLIBC_2.17\n                 U __snprintf_chk@GLIBC_2.17\n                 U __sprintf_chk@GLIBC_2.17\n                 U __stack_chk_fail@GLIBC_2.17\n                 U __stack_chk_guard@GLIBC_2.17\n                 U __vsnprintf_chk@GLIBC_2.17\n\nobjdump -d src/bitcoind | grep \"_chk@plt\" | wc -l\n33\n```\n\nvs this branch:\n```bash\nnm -C src/bitcoind | grep _chk\n                 U __fprintf_chk@GLIBC_2.17\n                 U __memcpy_chk@GLIBC_2.17\n                 U __memset_chk@GLIBC_2.17\n                 U __snprintf_chk@GLIBC_2.17\n                 U __sprintf_chk@GLIBC_2.17\n                 U __stack_chk_fail@GLIBC_2.17\n                 U __stack_chk_guard@GLIBC_2.17\n                 U __vsnprintf_chk@GLIBC_2.17\n\nobjdump -d src/bitcoind | grep \"_chk@plt\" | wc -l\n61\n```\n\nUsage of level 3 requires LLVM/Clang 9+, or GCC 12+. Older\ncompilers/glibc will still use _FORTIFY_SOURCE=2. For example, in the\nglibc we currently use for Linux release builds (2.24), FORTIFY_LEVEL is\ndetermined using the following:\n```c\n```\nso any value > 1 will turn on _FORTIFY_SOURCE=2.\n\nhttps://sourceware.org/pipermail/libc-alpha/2021-February/122207.html\nhttps://developers.redhat.com/blog/2021/04/16/broadening-compiler-checks-for-buffer-overflows-in-_fortify_source",
      "committer": {
        "name": "fanquake",
        "email": "fanquake@gmail.com",
        "date": "2023-02-17T10:49:17Z"
      },
      "author": {
        "name": "fanquake",
        "email": "fanquake@gmail.com",
        "date": "2023-02-01T12:10:08Z"
      },
      "sha": "4faa4e37a6511c6ada303ef7929ac99c7462f083"
    },
    {
      "event": "head_ref_force_pushed",
      "id": 8546008156,
      "node_id": "HRFPE_lADOABII585dee_WzwAAAAH9Ybxc",
      "url": "https://api.github.com/repos/bitcoin/bitcoin/issues/events/8546008156",
      "actor": {
        "login": "fanquake",
        "id": 863730,
        "node_id": "MDQ6VXNlcjg2MzczMA==",
        "avatar_url": "https://avatars.githubusercontent.com/u/863730?v=4",
        "gravatar_id": "",
        "url": "https://api.github.com/users/fanquake",
        "html_url": "https://github.com/fanquake",
        "followers_url": "https://api.github.com/users/fanquake/followers",
        "following_url": "https://api.github.com/users/fanquake/following%7B/other_user%7D",
        "gists_url": "https://api.github.com/users/fanquake/gists%7B/gist_id%7D",
        "starred_url": "https://api.github.com/users/fanquake/starred%7B/owner%7D%7B/repo%7D",
        "subscriptions_url": "https://api.github.com/users/fanquake/subscriptions",
        "organizations_url": "https://api.github.com/users/fanquake/orgs",
        "repos_url": "https://api.github.com/users/fanquake/repos",
        "events_url": "https://api.github.com/users/fanquake/events%7B/privacy%7D",
        "received_events_url": "https://api.github.com/users/fanquake/received_events",
        "type": "User",
        "site_admin": false
      },
      "commit_id": null,
      "commit_url": null,
      "created_at": "2023-02-17T10:50:10Z"
    },
    {
      "event": "cross-referenced",
      "id": null,
      "node_id": null,
      "url": null,
      "actor": {
        "login": "fanquake",
        "id": 863730,
        "node_id": "MDQ6VXNlcjg2MzczMA==",
        "avatar_url": "https://avatars.githubusercontent.com/u/863730?v=4",
        "gravatar_id": "",
        "url": "https://api.github.com/users/fanquake",
        "html_url": "https://github.com/fanquake",
        "followers_url": "https://api.github.com/users/fanquake/followers",
        "following_url": "https://api.github.com/users/fanquake/following%7B/other_user%7D",
        "gists_url": "https://api.github.com/users/fanquake/gists%7B/gist_id%7D",
        "starred_url": "https://api.github.com/users/fanquake/starred%7B/owner%7D%7B/repo%7D",
        "subscriptions_url": "https://api.github.com/users/fanquake/subscriptions",
        "organizations_url": "https://api.github.com/users/fanquake/orgs",
        "repos_url": "https://api.github.com/users/fanquake/repos",
        "events_url": "https://api.github.com/users/fanquake/events%7B/privacy%7D",
        "received_events_url": "https://api.github.com/users/fanquake/received_events",
        "type": "User",
        "site_admin": false
      },
      "commit_id": null,
      "commit_url": null,
      "created_at": "2023-02-17T12:14:43Z",
      "updated_at": "2023-02-17T12:14:43Z",
      "source": {
        "issue": {
          "id": 1589268769,
          "node_id": "PR_kwDOABII585KNr29",
          "url": "https://api.github.com/repos/bitcoin/bitcoin/issues/27118",
          "repository_url": "https://api.github.com/repos/bitcoin/bitcoin",
          "labels_url": "https://api.github.com/repos/bitcoin/bitcoin/issues/27118/labels%7B/name%7D",
          "comments_url": "https://api.github.com/repos/bitcoin/bitcoin/issues/27118/comments",
          "events_url": "https://api.github.com/repos/bitcoin/bitcoin/issues/27118/events",
          "html_url": "https://github.com/bitcoin/bitcoin/pull/27118",
          "number": 27118,
          "state": "closed",
          "state_reason": null,
          "title": "depends: harden libevent",
          "body": "Use `FORTIFY_SOURCE=3` when building libevent in depends. I've upstreamed a change to switch libevent from using =2 to =3 as well: https://github.com/libevent/libevent/pull/1418.\r\n\r\nSolves half of #27038, by giving us some fortified funcs in `bitcoin-cli`.",
          "user": {
            "login": "fanquake",
            "id": 863730,
            "node_id": "MDQ6VXNlcjg2MzczMA==",
            "avatar_url": "https://avatars.githubusercontent.com/u/863730?v=4",
            "gravatar_id": "",
            "url": "https://api.github.com/users/fanquake",
            "html_url": "https://github.com/fanquake",
            "followers_url": "https://api.github.com/users/fanquake/followers",
            "following_url": "https://api.github.com/users/fanquake/following%7B/other_user%7D",
            "gists_url": "https://api.github.com/users/fanquake/gists%7B/gist_id%7D",
            "starred_url": "https://api.github.com/users/fanquake/starred%7B/owner%7D%7B/repo%7D",
            "subscriptions_url": "https://api.github.com/users/fanquake/subscriptions",
            "organizations_url": "https://api.github.com/users/fanquake/orgs",
            "repos_url": "https://api.github.com/users/fanquake/repos",
            "events_url": "https://api.github.com/users/fanquake/events%7B/privacy%7D",
            "received_events_url": "https://api.github.com/users/fanquake/received_events",
            "type": "User",
            "site_admin": false
          },
          "labels": [
            {
              "id": 61889416,
              "node_id": "MDU6TGFiZWw2MTg4OTQxNg==",
              "url": "https://api.github.com/repos/bitcoin/bitcoin/labels/Build%20system",
              "name": "Build system",
              "color": "5319e7",
              "default": false
            }
          ],
          "assignees": [],
          "author_association": "MEMBER",
          "locked": false,
          "comments": 10,
          "pull_request": {
            "url": "https://api.github.com/repos/bitcoin/bitcoin/pulls/27118",
            "html_url": "https://github.com/bitcoin/bitcoin/pull/27118",
            "diff_url": "https://github.com/bitcoin/bitcoin/pull/27118.diff",
            "patch_url": "https://github.com/bitcoin/bitcoin/pull/27118.patch"
          },
          "closed_at": "2023-02-28T10:29:32Z",
          "created_at": "2023-02-17T12:14:42Z",
          "updated_at": "2023-04-03T13:19:36Z"
        },
        "type": "issue"
      }
    },
    {
      "event": "commented",
      "id": 1434792804,
      "node_id": "IC_kwDOABII585VhTNk",
      "url": "https://api.github.com/repos/bitcoin/bitcoin/issues/comments/1434792804",
      "actor": {
        "login": "theuni",
        "id": 417043,
        "node_id": "MDQ6VXNlcjQxNzA0Mw==",
        "avatar_url": "https://avatars.githubusercontent.com/u/417043?v=4",
        "gravatar_id": "",
        "url": "https://api.github.com/users/theuni",
        "html_url": "https://github.com/theuni",
        "followers_url": "https://api.github.com/users/theuni/followers",
        "following_url": "https://api.github.com/users/theuni/following%7B/other_user%7D",
        "gists_url": "https://api.github.com/users/theuni/gists%7B/gist_id%7D",
        "starred_url": "https://api.github.com/users/theuni/starred%7B/owner%7D%7B/repo%7D",
        "subscriptions_url": "https://api.github.com/users/theuni/subscriptions",
        "organizations_url": "https://api.github.com/users/theuni/orgs",
        "repos_url": "https://api.github.com/users/theuni/repos",
        "events_url": "https://api.github.com/users/theuni/events%7B/privacy%7D",
        "received_events_url": "https://api.github.com/users/theuni/received_events",
        "type": "User",
        "site_admin": false
      },
      "commit_id": null,
      "commit_url": null,
      "created_at": "2023-02-17T15:18:20Z",
      "updated_at": "2023-02-17T15:18:20Z",
      "author_association": "MEMBER",
      "body": "ACK 4faa4e37a6511c6ada303ef7929ac99c7462f083. After playing with this quite a bit I didn't observe any noticeable pitfalls.\r\n\r\nI'd expect this to matter more in low-level code, so I'm interested to see how much #27118 affects the numbers.",
      "user": {
        "login": "theuni",
        "id": 417043,
        "node_id": "MDQ6VXNlcjQxNzA0Mw==",
        "avatar_url": "https://avatars.githubusercontent.com/u/417043?v=4",
        "gravatar_id": "",
        "url": "https://api.github.com/users/theuni",
        "html_url": "https://github.com/theuni",
        "followers_url": "https://api.github.com/users/theuni/followers",
        "following_url": "https://api.github.com/users/theuni/following%7B/other_user%7D",
        "gists_url": "https://api.github.com/users/theuni/gists%7B/gist_id%7D",
        "starred_url": "https://api.github.com/users/theuni/starred%7B/owner%7D%7B/repo%7D",
        "subscriptions_url": "https://api.github.com/users/theuni/subscriptions",
        "organizations_url": "https://api.github.com/users/theuni/orgs",
        "repos_url": "https://api.github.com/users/theuni/repos",
        "events_url": "https://api.github.com/users/theuni/events%7B/privacy%7D",
        "received_events_url": "https://api.github.com/users/theuni/received_events",
        "type": "User",
        "site_admin": false
      },
      "html_url": "https://github.com/bitcoin/bitcoin/pull/27027#issuecomment-1434792804",
      "issue_url": "https://api.github.com/repos/bitcoin/bitcoin/issues/27027"
    },
    {
      "event": "merged",
      "id": 8563494349,
      "node_id": "ME_lADOABII585dee_WzwAAAAH-bI3N",
      "url": "https://api.github.com/repos/bitcoin/bitcoin/issues/events/8563494349",
      "actor": {
        "login": "fanquake",
        "id": 863730,
        "node_id": "MDQ6VXNlcjg2MzczMA==",
        "avatar_url": "https://avatars.githubusercontent.com/u/863730?v=4",
        "gravatar_id": "",
        "url": "https://api.github.com/users/fanquake",
        "html_url": "https://github.com/fanquake",
        "followers_url": "https://api.github.com/users/fanquake/followers",
        "following_url": "https://api.github.com/users/fanquake/following%7B/other_user%7D",
        "gists_url": "https://api.github.com/users/fanquake/gists%7B/gist_id%7D",
        "starred_url": "https://api.github.com/users/fanquake/starred%7B/owner%7D%7B/repo%7D",
        "subscriptions_url": "https://api.github.com/users/fanquake/subscriptions",
        "organizations_url": "https://api.github.com/users/fanquake/orgs",
        "repos_url": "https://api.github.com/users/fanquake/repos",
        "events_url": "https://api.github.com/users/fanquake/events%7B/privacy%7D",
        "received_events_url": "https://api.github.com/users/fanquake/received_events",
        "type": "User",
        "site_admin": false
      },
      "commit_id": "0561f344e0ecce2a9a1492c188c5813e075c67c0",
      "commit_url": "https://api.github.com/repos/bitcoin/bitcoin/commits/0561f344e0ecce2a9a1492c188c5813e075c67c0",
      "created_at": "2023-02-20T16:35:59Z"
    },
    {
      "event": "closed",
      "id": 8563494389,
      "node_id": "CE_lADOABII585dee_WzwAAAAH-bI31",
      "url": "https://api.github.com/repos/bitcoin/bitcoin/issues/events/8563494389",
      "actor": {
        "login": "fanquake",
        "id": 863730,
        "node_id": "MDQ6VXNlcjg2MzczMA==",
        "avatar_url": "https://avatars.githubusercontent.com/u/863730?v=4",
        "gravatar_id": "",
        "url": "https://api.github.com/users/fanquake",
        "html_url": "https://github.com/fanquake",
        "followers_url": "https://api.github.com/users/fanquake/followers",
        "following_url": "https://api.github.com/users/fanquake/following%7B/other_user%7D",
        "gists_url": "https://api.github.com/users/fanquake/gists%7B/gist_id%7D",
        "starred_url": "https://api.github.com/users/fanquake/starred%7B/owner%7D%7B/repo%7D",
        "subscriptions_url": "https://api.github.com/users/fanquake/subscriptions",
        "organizations_url": "https://api.github.com/users/fanquake/orgs",
        "repos_url": "https://api.github.com/users/fanquake/repos",
        "events_url": "https://api.github.com/users/fanquake/events%7B/privacy%7D",
        "received_events_url": "https://api.github.com/users/fanquake/received_events",
        "type": "User",
        "site_admin": false
      },
      "commit_id": null,
      "commit_url": null,
      "created_at": "2023-02-20T16:36:00Z"
    },
    {
      "event": "head_ref_deleted",
      "id": 8563495029,
      "node_id": "HRDE_lADOABII585dee_WzwAAAAH-bJB1",
      "url": "https://api.github.com/repos/bitcoin/bitcoin/issues/events/8563495029",
      "actor": {
        "login": "fanquake",
        "id": 863730,
        "node_id": "MDQ6VXNlcjg2MzczMA==",
        "avatar_url": "https://avatars.githubusercontent.com/u/863730?v=4",
        "gravatar_id": "",
        "url": "https://api.github.com/users/fanquake",
        "html_url": "https://github.com/fanquake",
        "followers_url": "https://api.github.com/users/fanquake/followers",
        "following_url": "https://api.github.com/users/fanquake/following%7B/other_user%7D",
        "gists_url": "https://api.github.com/users/fanquake/gists%7B/gist_id%7D",
        "starred_url": "https://api.github.com/users/fanquake/starred%7B/owner%7D%7B/repo%7D",
        "subscriptions_url": "https://api.github.com/users/fanquake/subscriptions",
        "organizations_url": "https://api.github.com/users/fanquake/orgs",
        "repos_url": "https://api.github.com/users/fanquake/repos",
        "events_url": "https://api.github.com/users/fanquake/events%7B/privacy%7D",
        "received_events_url": "https://api.github.com/users/fanquake/received_events",
        "type": "User",
        "site_admin": false
      },
      "commit_id": null,
      "commit_url": null,
      "created_at": "2023-02-20T16:36:03Z"
    },
    {
      "event": "referenced",
      "id": 8608348904,
      "node_id": "REFE_lADOABII585dee_WzwAAAAIBGPro",
      "url": "https://api.github.com/repos/bitcoin/bitcoin/issues/events/8608348904",
      "actor": {
        "login": "sidhujag",
        "id": 6238042,
        "node_id": "MDQ6VXNlcjYyMzgwNDI=",
        "avatar_url": "https://avatars.githubusercontent.com/u/6238042?v=4",
        "gravatar_id": "",
        "url": "https://api.github.com/users/sidhujag",
        "html_url": "https://github.com/sidhujag",
        "followers_url": "https://api.github.com/users/sidhujag/followers",
        "following_url": "https://api.github.com/users/sidhujag/following%7B/other_user%7D",
        "gists_url": "https://api.github.com/users/sidhujag/gists%7B/gist_id%7D",
        "starred_url": "https://api.github.com/users/sidhujag/starred%7B/owner%7D%7B/repo%7D",
        "subscriptions_url": "https://api.github.com/users/sidhujag/subscriptions",
        "organizations_url": "https://api.github.com/users/sidhujag/orgs",
        "repos_url": "https://api.github.com/users/sidhujag/repos",
        "events_url": "https://api.github.com/users/sidhujag/events%7B/privacy%7D",
        "received_events_url": "https://api.github.com/users/sidhujag/received_events",
        "type": "User",
        "site_admin": false
      },
      "commit_id": "80d6385ec34b4f5357e9fdae5c454ee2d6b4dbe4",
      "commit_url": "https://api.github.com/repos/syscoin/syscoin/commits/80d6385ec34b4f5357e9fdae5c454ee2d6b4dbe4",
      "created_at": "2023-02-25T19:13:17Z"
    },
    {
      "event": "commented",
      "id": 1451572322,
      "node_id": "IC_kwDOABII585WhTxi",
      "url": "https://api.github.com/repos/bitcoin/bitcoin/issues/comments/1451572322",
      "actor": {
        "login": "MarcoFalke",
        "id": 6399679,
        "node_id": "MDQ6VXNlcjYzOTk2Nzk=",
        "avatar_url": "https://avatars.githubusercontent.com/u/6399679?v=4",
        "gravatar_id": "",
        "url": "https://api.github.com/users/MarcoFalke",
        "html_url": "https://github.com/MarcoFalke",
        "followers_url": "https://api.github.com/users/MarcoFalke/followers",
        "following_url": "https://api.github.com/users/MarcoFalke/following%7B/other_user%7D",
        "gists_url": "https://api.github.com/users/MarcoFalke/gists%7B/gist_id%7D",
        "starred_url": "https://api.github.com/users/MarcoFalke/starred%7B/owner%7D%7B/repo%7D",
        "subscriptions_url": "https://api.github.com/users/MarcoFalke/subscriptions",
        "organizations_url": "https://api.github.com/users/MarcoFalke/orgs",
        "repos_url": "https://api.github.com/users/MarcoFalke/repos",
        "events_url": "https://api.github.com/users/MarcoFalke/events%7B/privacy%7D",
        "received_events_url": "https://api.github.com/users/MarcoFalke/received_events",
        "type": "User",
        "site_admin": false
      },
      "commit_id": null,
      "commit_url": null,
      "created_at": "2023-03-02T09:37:22Z",
      "updated_at": "2023-03-02T09:37:22Z",
      "author_association": "MEMBER",
      "body": "This triggered https://bugs.chromium.org/p/oss-fuzz/issues/detail?id=56529 ?",
      "user": {
        "login": "MarcoFalke",
        "id": 6399679,
        "node_id": "MDQ6VXNlcjYzOTk2Nzk=",
        "avatar_url": "https://avatars.githubusercontent.com/u/6399679?v=4",
        "gravatar_id": "",
        "url": "https://api.github.com/users/MarcoFalke",
        "html_url": "https://github.com/MarcoFalke",
        "followers_url": "https://api.github.com/users/MarcoFalke/followers",
        "following_url": "https://api.github.com/users/MarcoFalke/following%7B/other_user%7D",
        "gists_url": "https://api.github.com/users/MarcoFalke/gists%7B/gist_id%7D",
        "starred_url": "https://api.github.com/users/MarcoFalke/starred%7B/owner%7D%7B/repo%7D",
        "subscriptions_url": "https://api.github.com/users/MarcoFalke/subscriptions",
        "organizations_url": "https://api.github.com/users/MarcoFalke/orgs",
        "repos_url": "https://api.github.com/users/MarcoFalke/repos",
        "events_url": "https://api.github.com/users/MarcoFalke/events%7B/privacy%7D",
        "received_events_url": "https://api.github.com/users/MarcoFalke/received_events",
        "type": "User",
        "site_admin": false
      },
      "html_url": "https://github.com/bitcoin/bitcoin/pull/27027#issuecomment-1451572322",
      "issue_url": "https://api.github.com/repos/bitcoin/bitcoin/issues/27027"
    },
    {
      "event": "commented",
      "id": 1459847062,
      "node_id": "IC_kwDOABII585XA3-W",
      "url": "https://api.github.com/repos/bitcoin/bitcoin/issues/comments/1459847062",
      "actor": {
        "login": "kristapsk",
        "id": 4500994,
        "node_id": "MDQ6VXNlcjQ1MDA5OTQ=",
        "avatar_url": "https://avatars.githubusercontent.com/u/4500994?v=4",
        "gravatar_id": "",
        "url": "https://api.github.com/users/kristapsk",
        "html_url": "https://github.com/kristapsk",
        "followers_url": "https://api.github.com/users/kristapsk/followers",
        "following_url": "https://api.github.com/users/kristapsk/following%7B/other_user%7D",
        "gists_url": "https://api.github.com/users/kristapsk/gists%7B/gist_id%7D",
        "starred_url": "https://api.github.com/users/kristapsk/starred%7B/owner%7D%7B/repo%7D",
        "subscriptions_url": "https://api.github.com/users/kristapsk/subscriptions",
        "organizations_url": "https://api.github.com/users/kristapsk/orgs",
        "repos_url": "https://api.github.com/users/kristapsk/repos",
        "events_url": "https://api.github.com/users/kristapsk/events%7B/privacy%7D",
        "received_events_url": "https://api.github.com/users/kristapsk/received_events",
        "type": "User",
        "site_admin": false
      },
      "commit_id": null,
      "commit_url": null,
      "created_at": "2023-03-08T09:26:33Z",
      "updated_at": "2023-03-08T09:26:33Z",
      "author_association": "CONTRIBUTOR",
      "body": "On my Gentoo system with GCC 11.3.1 and glibc 2.36 this now gives me these warnings for each .cpp file when building Bitcoin Core:\r\n```\r\n  CXX      bitcoind-bitcoind.o\r\nIn file included from /usr/lib/gcc/x86_64-pc-linux-gnu/11/include/g++-v11/x86_64-pc-linux-gnu/bits/os_defines.h:39,\r\n                 from /usr/lib/gcc/x86_64-pc-linux-gnu/11/include/g++-v11/x86_64-pc-linux-gnu/bits/c++config.h:586,\r\n                 from /usr/lib/gcc/x86_64-pc-linux-gnu/11/include/g++-v11/bits/stl_algobase.h:59,\r\n                 from /usr/lib/gcc/x86_64-pc-linux-gnu/11/include/g++-v11/memory:63,\r\n                 from ./chainparamsbase.h:8,\r\n                 from ./chainparams.h:9,\r\n                 from bitcoind.cpp:10:\r\n/usr/include/features.h:424:5: warning: #warning _FORTIFY_SOURCE > 2 is treated like 2 on this platform [-Wcpp]\r\n  424 | #   warning _FORTIFY_SOURCE > 2 is treated like 2 on this platform\r\n      |     ^~~~~~~\r\n```",
      "user": {
        "login": "kristapsk",
        "id": 4500994,
        "node_id": "MDQ6VXNlcjQ1MDA5OTQ=",
        "avatar_url": "https://avatars.githubusercontent.com/u/4500994?v=4",
        "gravatar_id": "",
        "url": "https://api.github.com/users/kristapsk",
        "html_url": "https://github.com/kristapsk",
        "followers_url": "https://api.github.com/users/kristapsk/followers",
        "following_url": "https://api.github.com/users/kristapsk/following%7B/other_user%7D",
        "gists_url": "https://api.github.com/users/kristapsk/gists%7B/gist_id%7D",
        "starred_url": "https://api.github.com/users/kristapsk/starred%7B/owner%7D%7B/repo%7D",
        "subscriptions_url": "https://api.github.com/users/kristapsk/subscriptions",
        "organizations_url": "https://api.github.com/users/kristapsk/orgs",
        "repos_url": "https://api.github.com/users/kristapsk/repos",
        "events_url": "https://api.github.com/users/kristapsk/events%7B/privacy%7D",
        "received_events_url": "https://api.github.com/users/kristapsk/received_events",
        "type": "User",
        "site_admin": false
      },
      "html_url": "https://github.com/bitcoin/bitcoin/pull/27027#issuecomment-1459847062",
      "issue_url": "https://api.github.com/repos/bitcoin/bitcoin/issues/27027"
    },
    {
      "event": "commented",
      "id": 1459864966,
      "node_id": "IC_kwDOABII585XA8WG",
      "url": "https://api.github.com/repos/bitcoin/bitcoin/issues/comments/1459864966",
      "actor": {
        "login": "kristapsk",
        "id": 4500994,
        "node_id": "MDQ6VXNlcjQ1MDA5OTQ=",
        "avatar_url": "https://avatars.githubusercontent.com/u/4500994?v=4",
        "gravatar_id": "",
        "url": "https://api.github.com/users/kristapsk",
        "html_url": "https://github.com/kristapsk",
        "followers_url": "https://api.github.com/users/kristapsk/followers",
        "following_url": "https://api.github.com/users/kristapsk/following%7B/other_user%7D",
        "gists_url": "https://api.github.com/users/kristapsk/gists%7B/gist_id%7D",
        "starred_url": "https://api.github.com/users/kristapsk/starred%7B/owner%7D%7B/repo%7D",
        "subscriptions_url": "https://api.github.com/users/kristapsk/subscriptions",
        "organizations_url": "https://api.github.com/users/kristapsk/orgs",
        "repos_url": "https://api.github.com/users/kristapsk/repos",
        "events_url": "https://api.github.com/users/kristapsk/events%7B/privacy%7D",
        "received_events_url": "https://api.github.com/users/kristapsk/received_events",
        "type": "User",
        "site_admin": false
      },
      "commit_id": null,
      "commit_url": null,
      "created_at": "2023-03-08T09:35:02Z",
      "updated_at": "2023-03-08T09:35:02Z",
      "author_association": "CONTRIBUTOR",
      "body": "> This triggered https://bugs.chromium.org/p/oss-fuzz/issues/detail?id=56529 ?\r\n\r\nWhat's there?\r\n\r\n![image](https://user-images.githubusercontent.com/4500994/223676520-5f92cbef-6ac4-4fe5-ab26-95417316a41c.png)\r\n",
      "user": {
        "login": "kristapsk",
        "id": 4500994,
        "node_id": "MDQ6VXNlcjQ1MDA5OTQ=",
        "avatar_url": "https://avatars.githubusercontent.com/u/4500994?v=4",
        "gravatar_id": "",
        "url": "https://api.github.com/users/kristapsk",
        "html_url": "https://github.com/kristapsk",
        "followers_url": "https://api.github.com/users/kristapsk/followers",
        "following_url": "https://api.github.com/users/kristapsk/following%7B/other_user%7D",
        "gists_url": "https://api.github.com/users/kristapsk/gists%7B/gist_id%7D",
        "starred_url": "https://api.github.com/users/kristapsk/starred%7B/owner%7D%7B/repo%7D",
        "subscriptions_url": "https://api.github.com/users/kristapsk/subscriptions",
        "organizations_url": "https://api.github.com/users/kristapsk/orgs",
        "repos_url": "https://api.github.com/users/kristapsk/repos",
        "events_url": "https://api.github.com/users/kristapsk/events%7B/privacy%7D",
        "received_events_url": "https://api.github.com/users/kristapsk/received_events",
        "type": "User",
        "site_admin": false
      },
      "html_url": "https://github.com/bitcoin/bitcoin/pull/27027#issuecomment-1459864966",
      "issue_url": "https://api.github.com/repos/bitcoin/bitcoin/issues/27027"
    },
    {
      "event": "commented",
      "id": 1459992955,
      "node_id": "IC_kwDOABII585XBbl7",
      "url": "https://api.github.com/repos/bitcoin/bitcoin/issues/comments/1459992955",
      "actor": {
        "login": "fanquake",
        "id": 863730,
        "node_id": "MDQ6VXNlcjg2MzczMA==",
        "avatar_url": "https://avatars.githubusercontent.com/u/863730?v=4",
        "gravatar_id": "",
        "url": "https://api.github.com/users/fanquake",
        "html_url": "https://github.com/fanquake",
        "followers_url": "https://api.github.com/users/fanquake/followers",
        "following_url": "https://api.github.com/users/fanquake/following%7B/other_user%7D",
        "gists_url": "https://api.github.com/users/fanquake/gists%7B/gist_id%7D",
        "starred_url": "https://api.github.com/users/fanquake/starred%7B/owner%7D%7B/repo%7D",
        "subscriptions_url": "https://api.github.com/users/fanquake/subscriptions",
        "organizations_url": "https://api.github.com/users/fanquake/orgs",
        "repos_url": "https://api.github.com/users/fanquake/repos",
        "events_url": "https://api.github.com/users/fanquake/events%7B/privacy%7D",
        "received_events_url": "https://api.github.com/users/fanquake/received_events",
        "type": "User",
        "site_admin": false
      },
      "commit_id": null,
      "commit_url": null,
      "created_at": "2023-03-08T11:04:13Z",
      "updated_at": "2023-03-08T11:04:44Z",
      "author_association": "MEMBER",
      "body": "> This triggered https://bugs.chromium.org/p/oss-fuzz/issues/detail?id=56529 ?\r\n\r\nIt will have been #27118 that triggered it. I can't look at this in more detail right now, but will by next week. It's possible that this is already fixed, and there is a patch/similar we can drop into depends.\r\n\r\n> On my Gentoo system with GCC 11.3.1 and glibc 2.36 this now gives me these warnings for each .cpp file when building Bitcoin Core\r\n\r\nLooks like that's because you're using GCC 11.x, which doesn't support >=3 (it is supported with Clang >= 9). Somewhat annoying that glibc is going to warn like that, but they are also harmless, and fortification (level 2) is still being applied.",
      "user": {
        "login": "fanquake",
        "id": 863730,
        "node_id": "MDQ6VXNlcjg2MzczMA==",
        "avatar_url": "https://avatars.githubusercontent.com/u/863730?v=4",
        "gravatar_id": "",
        "url": "https://api.github.com/users/fanquake",
        "html_url": "https://github.com/fanquake",
        "followers_url": "https://api.github.com/users/fanquake/followers",
        "following_url": "https://api.github.com/users/fanquake/following%7B/other_user%7D",
        "gists_url": "https://api.github.com/users/fanquake/gists%7B/gist_id%7D",
        "starred_url": "https://api.github.com/users/fanquake/starred%7B/owner%7D%7B/repo%7D",
        "subscriptions_url": "https://api.github.com/users/fanquake/subscriptions",
        "organizations_url": "https://api.github.com/users/fanquake/orgs",
        "repos_url": "https://api.github.com/users/fanquake/repos",
        "events_url": "https://api.github.com/users/fanquake/events%7B/privacy%7D",
        "received_events_url": "https://api.github.com/users/fanquake/received_events",
        "type": "User",
        "site_admin": false
      },
      "html_url": "https://github.com/bitcoin/bitcoin/pull/27027#issuecomment-1459992955",
      "issue_url": "https://api.github.com/repos/bitcoin/bitcoin/issues/27027"
    },
    {
      "event": "commented",
      "id": 1460007675,
      "node_id": "IC_kwDOABII585XBfL7",
      "url": "https://api.github.com/repos/bitcoin/bitcoin/issues/comments/1460007675",
      "actor": {
        "login": "kristapsk",
        "id": 4500994,
        "node_id": "MDQ6VXNlcjQ1MDA5OTQ=",
        "avatar_url": "https://avatars.githubusercontent.com/u/4500994?v=4",
        "gravatar_id": "",
        "url": "https://api.github.com/users/kristapsk",
        "html_url": "https://github.com/kristapsk",
        "followers_url": "https://api.github.com/users/kristapsk/followers",
        "following_url": "https://api.github.com/users/kristapsk/following%7B/other_user%7D",
        "gists_url": "https://api.github.com/users/kristapsk/gists%7B/gist_id%7D",
        "starred_url": "https://api.github.com/users/kristapsk/starred%7B/owner%7D%7B/repo%7D",
        "subscriptions_url": "https://api.github.com/users/kristapsk/subscriptions",
        "organizations_url": "https://api.github.com/users/kristapsk/orgs",
        "repos_url": "https://api.github.com/users/kristapsk/repos",
        "events_url": "https://api.github.com/users/kristapsk/events%7B/privacy%7D",
        "received_events_url": "https://api.github.com/users/kristapsk/received_events",
        "type": "User",
        "site_admin": false
      },
      "commit_id": null,
      "commit_url": null,
      "created_at": "2023-03-08T11:16:37Z",
      "updated_at": "2023-03-08T11:16:37Z",
      "author_association": "CONTRIBUTOR",
      "body": "> Looks like that's because you're using GCC 11.x, which doesn't support >=3 (it is supported with Clang >= 9). Somewhat annoying that glibc is going to warn like that, but they are also harmless, and fortification (level 2) is still being applied.\r\n\r\nCould we somehow detect this at configure stage and apply fortification 3 only if it is supported?",
      "user": {
        "login": "kristapsk",
        "id": 4500994,
        "node_id": "MDQ6VXNlcjQ1MDA5OTQ=",
        "avatar_url": "https://avatars.githubusercontent.com/u/4500994?v=4",
        "gravatar_id": "",
        "url": "https://api.github.com/users/kristapsk",
        "html_url": "https://github.com/kristapsk",
        "followers_url": "https://api.github.com/users/kristapsk/followers",
        "following_url": "https://api.github.com/users/kristapsk/following%7B/other_user%7D",
        "gists_url": "https://api.github.com/users/kristapsk/gists%7B/gist_id%7D",
        "starred_url": "https://api.github.com/users/kristapsk/starred%7B/owner%7D%7B/repo%7D",
        "subscriptions_url": "https://api.github.com/users/kristapsk/subscriptions",
        "organizations_url": "https://api.github.com/users/kristapsk/orgs",
        "repos_url": "https://api.github.com/users/kristapsk/repos",
        "events_url": "https://api.github.com/users/kristapsk/events%7B/privacy%7D",
        "received_events_url": "https://api.github.com/users/kristapsk/received_events",
        "type": "User",
        "site_admin": false
      },
      "html_url": "https://github.com/bitcoin/bitcoin/pull/27027#issuecomment-1460007675",
      "issue_url": "https://api.github.com/repos/bitcoin/bitcoin/issues/27027"
    }
  ],
  "comments": []
}