{
  "type": "pull",
  "pull": {
    "url": "https://api.github.com/repos/bitcoin/bitcoin/pulls/27036",
    "id": 1228394779,
    "node_id": "PR_kwDOABII585JN9Eb",
    "html_url": "https://github.com/bitcoin/bitcoin/pull/27036",
    "diff_url": "https://github.com/bitcoin/bitcoin/pull/27036.diff",
    "patch_url": "https://github.com/bitcoin/bitcoin/pull/27036.patch",
    "issue_url": "https://api.github.com/repos/bitcoin/bitcoin/issues/27036",
    "commits_url": "https://api.github.com/repos/bitcoin/bitcoin/pulls/27036/commits",
    "review_comments_url": "https://api.github.com/repos/bitcoin/bitcoin/pulls/27036/comments",
    "review_comment_url": "https://api.github.com/repos/bitcoin/bitcoin/pulls/comments%7B/number%7D",
    "comments_url": "https://api.github.com/repos/bitcoin/bitcoin/issues/27036/comments",
    "statuses_url": "https://api.github.com/repos/bitcoin/bitcoin/statuses/b8032293e67a3b61ecad531412be5330f7cb39e3",
    "number": 27036,
    "state": "closed",
    "locked": false,
    "maintainer_can_modify": false,
    "title": "test: Remove last uses of snprintf and simplify",
    "user": {
      "login": "john-moffett",
      "id": 116917595,
      "node_id": "U_kgDOBvgFWw",
      "avatar_url": "https://avatars.githubusercontent.com/u/116917595?v=4",
      "gravatar_id": "",
      "url": "https://api.github.com/users/john-moffett",
      "html_url": "https://github.com/john-moffett",
      "followers_url": "https://api.github.com/users/john-moffett/followers",
      "following_url": "https://api.github.com/users/john-moffett/following%7B/other_user%7D",
      "gists_url": "https://api.github.com/users/john-moffett/gists%7B/gist_id%7D",
      "starred_url": "https://api.github.com/users/john-moffett/starred%7B/owner%7D%7B/repo%7D",
      "subscriptions_url": "https://api.github.com/users/john-moffett/subscriptions",
      "organizations_url": "https://api.github.com/users/john-moffett/orgs",
      "repos_url": "https://api.github.com/users/john-moffett/repos",
      "events_url": "https://api.github.com/users/john-moffett/events%7B/privacy%7D",
      "received_events_url": "https://api.github.com/users/john-moffett/received_events",
      "type": "User",
      "site_admin": false
    },
    "body": "These are the only remaining uses of `snprintf` in our project, and they can cause unexpected issues -- for example, see https://github.com/bitcoin/bitcoin/issues/27014. Change them to use our `ToString` (which uses a locale-independent version of `std::to_string`) to convert an `int` to `std::string`. Also remove resulting unused parts of `StringContentsSerializer`.\r\n\r\nCloses https://github.com/bitcoin/bitcoin/issues/27014",
    "labels": [
      {
        "id": 62963516,
        "node_id": "MDU6TGFiZWw2Mjk2MzUxNg==",
        "url": "https://api.github.com/repos/bitcoin/bitcoin/labels/Tests",
        "name": "Tests",
        "color": "d4c5f9",
        "default": false
      }
    ],
    "created_at": "2023-02-03T16:48:18Z",
    "updated_at": "2023-02-06T09:35:36Z",
    "closed_at": "2023-02-06T09:35:36Z",
    "mergeable_state": "unknown",
    "merged_at": "2023-02-06T09:35:36Z",
    "merge_commit_sha": "aff75463e2c75a7a969cdaa535c7be05fd146420",
    "assignees": [],
    "requested_reviewers": [],
    "requested_teams": [],
    "head": {
      "label": "john-moffett:2023_02_FixDBWrapperTest",
      "ref": "2023_02_FixDBWrapperTest",
      "sha": "b8032293e67a3b61ecad531412be5330f7cb39e3",
      "user": {
        "login": "john-moffett",
        "id": 116917595,
        "node_id": "U_kgDOBvgFWw",
        "avatar_url": "https://avatars.githubusercontent.com/u/116917595?v=4",
        "gravatar_id": "",
        "url": "https://api.github.com/users/john-moffett",
        "html_url": "https://github.com/john-moffett",
        "followers_url": "https://api.github.com/users/john-moffett/followers",
        "following_url": "https://api.github.com/users/john-moffett/following%7B/other_user%7D",
        "gists_url": "https://api.github.com/users/john-moffett/gists%7B/gist_id%7D",
        "starred_url": "https://api.github.com/users/john-moffett/starred%7B/owner%7D%7B/repo%7D",
        "subscriptions_url": "https://api.github.com/users/john-moffett/subscriptions",
        "organizations_url": "https://api.github.com/users/john-moffett/orgs",
        "repos_url": "https://api.github.com/users/john-moffett/repos",
        "events_url": "https://api.github.com/users/john-moffett/events%7B/privacy%7D",
        "received_events_url": "https://api.github.com/users/john-moffett/received_events",
        "type": "User",
        "site_admin": false
      },
      "repo": {
        "id": 559004828,
        "node_id": "R_kgDOIVG8nA",
        "name": "bitcoin",
        "full_name": "john-moffett/bitcoin",
        "owner": {
          "login": "john-moffett",
          "id": 116917595,
          "node_id": "U_kgDOBvgFWw",
          "avatar_url": "https://avatars.githubusercontent.com/u/116917595?v=4",
          "gravatar_id": "",
          "url": "https://api.github.com/users/john-moffett",
          "html_url": "https://github.com/john-moffett",
          "followers_url": "https://api.github.com/users/john-moffett/followers",
          "following_url": "https://api.github.com/users/john-moffett/following%7B/other_user%7D",
          "gists_url": "https://api.github.com/users/john-moffett/gists%7B/gist_id%7D",
          "starred_url": "https://api.github.com/users/john-moffett/starred%7B/owner%7D%7B/repo%7D",
          "subscriptions_url": "https://api.github.com/users/john-moffett/subscriptions",
          "organizations_url": "https://api.github.com/users/john-moffett/orgs",
          "repos_url": "https://api.github.com/users/john-moffett/repos",
          "events_url": "https://api.github.com/users/john-moffett/events%7B/privacy%7D",
          "received_events_url": "https://api.github.com/users/john-moffett/received_events",
          "type": "User",
          "site_admin": false
        },
        "private": false,
        "html_url": "https://github.com/john-moffett/bitcoin",
        "description": "Bitcoin Core integration/staging tree",
        "fork": true,
        "url": "https://api.github.com/repos/john-moffett/bitcoin",
        "archive_url": "https://api.github.com/repos/john-moffett/bitcoin/%7Barchive_format%7D%7B/ref%7D",
        "assignees_url": "https://api.github.com/repos/john-moffett/bitcoin/assignees%7B/user%7D",
        "blobs_url": "https://api.github.com/repos/john-moffett/bitcoin/git/blobs%7B/sha%7D",
        "branches_url": "https://api.github.com/repos/john-moffett/bitcoin/branches%7B/branch%7D",
        "collaborators_url": "https://api.github.com/repos/john-moffett/bitcoin/collaborators%7B/collaborator%7D",
        "comments_url": "https://api.github.com/repos/john-moffett/bitcoin/comments%7B/number%7D",
        "commits_url": "https://api.github.com/repos/john-moffett/bitcoin/commits%7B/sha%7D",
        "compare_url": "https://api.github.com/repos/john-moffett/bitcoin/compare/%7Bbase%7D...%7Bhead%7D",
        "contents_url": "https://api.github.com/repos/john-moffett/bitcoin/contents/%7B+path%7D",
        "contributors_url": "https://api.github.com/repos/john-moffett/bitcoin/contributors",
        "deployments_url": "https://api.github.com/repos/john-moffett/bitcoin/deployments",
        "downloads_url": "https://api.github.com/repos/john-moffett/bitcoin/downloads",
        "events_url": "https://api.github.com/repos/john-moffett/bitcoin/events",
        "forks_url": "https://api.github.com/repos/john-moffett/bitcoin/forks",
        "git_commits_url": "https://api.github.com/repos/john-moffett/bitcoin/git/commits%7B/sha%7D",
        "git_refs_url": "https://api.github.com/repos/john-moffett/bitcoin/git/refs%7B/sha%7D",
        "git_tags_url": "https://api.github.com/repos/john-moffett/bitcoin/git/tags%7B/sha%7D",
        "git_url": "git://github.com/john-moffett/bitcoin.git",
        "issue_comment_url": "https://api.github.com/repos/john-moffett/bitcoin/issues/comments%7B/number%7D",
        "issue_events_url": "https://api.github.com/repos/john-moffett/bitcoin/issues/events%7B/number%7D",
        "issues_url": "https://api.github.com/repos/john-moffett/bitcoin/issues%7B/number%7D",
        "keys_url": "https://api.github.com/repos/john-moffett/bitcoin/keys%7B/key_id%7D",
        "labels_url": "https://api.github.com/repos/john-moffett/bitcoin/labels%7B/name%7D",
        "languages_url": "https://api.github.com/repos/john-moffett/bitcoin/languages",
        "merges_url": "https://api.github.com/repos/john-moffett/bitcoin/merges",
        "milestones_url": "https://api.github.com/repos/john-moffett/bitcoin/milestones%7B/number%7D",
        "notifications_url": "https://api.github.com/repos/john-moffett/bitcoin/notifications%7B?since,all,participating}",
        "pulls_url": "https://api.github.com/repos/john-moffett/bitcoin/pulls%7B/number%7D",
        "releases_url": "https://api.github.com/repos/john-moffett/bitcoin/releases%7B/id%7D",
        "ssh_url": "git@github.com:john-moffett/bitcoin.git",
        "stargazers_url": "https://api.github.com/repos/john-moffett/bitcoin/stargazers",
        "statuses_url": "https://api.github.com/repos/john-moffett/bitcoin/statuses/%7Bsha%7D",
        "subscribers_url": "https://api.github.com/repos/john-moffett/bitcoin/subscribers",
        "subscription_url": "https://api.github.com/repos/john-moffett/bitcoin/subscription",
        "tags_url": "https://api.github.com/repos/john-moffett/bitcoin/tags",
        "teams_url": "https://api.github.com/repos/john-moffett/bitcoin/teams",
        "trees_url": "https://api.github.com/repos/john-moffett/bitcoin/git/trees%7B/sha%7D",
        "clone_url": "https://github.com/john-moffett/bitcoin.git",
        "hooks_url": "https://api.github.com/repos/john-moffett/bitcoin/hooks",
        "svn_url": "https://github.com/john-moffett/bitcoin",
        "homepage": "https://bitcoincore.org/en/download",
        "language": "C++",
        "forks_count": 0,
        "stargazers_count": 0,
        "watchers_count": 0,
        "size": 194607,
        "default_branch": "master",
        "open_issues_count": 0,
        "is_template": false,
        "topics": [],
        "has_issues": false,
        "has_projects": true,
        "has_wiki": false,
        "has_pages": false,
        "has_downloads": false,
        "archived": false,
        "disabled": false,
        "visibility": "public",
        "pushed_at": "2023-06-30T13:52:04Z",
        "created_at": "2022-10-28T19:57:36Z",
        "updated_at": "2022-10-31T12:32:30Z",
        "license": {
          "key": "mit",
          "name": "MIT License",
          "node_id": "MDc6TGljZW5zZTEz",
          "spdx_id": "MIT",
          "url": "https://api.github.com/licenses/mit",
          "html_url": null,
          "description": null,
          "implementation": null,
          "permissions": null,
          "conditions": null,
          "limitations": null,
          "body": null,
          "featured": null
        }
      }
    },
    "base": {
      "label": "bitcoin:master",
      "ref": "master",
      "sha": "aaa55971f6af3f19b22c28103630b856df266ebb",
      "user": {
        "login": "bitcoin",
        "id": 528860,
        "node_id": "MDEyOk9yZ2FuaXphdGlvbjUyODg2MA==",
        "avatar_url": "https://avatars.githubusercontent.com/u/528860?v=4",
        "gravatar_id": "",
        "url": "https://api.github.com/users/bitcoin",
        "html_url": "https://github.com/bitcoin",
        "followers_url": "https://api.github.com/users/bitcoin/followers",
        "following_url": "https://api.github.com/users/bitcoin/following%7B/other_user%7D",
        "gists_url": "https://api.github.com/users/bitcoin/gists%7B/gist_id%7D",
        "starred_url": "https://api.github.com/users/bitcoin/starred%7B/owner%7D%7B/repo%7D",
        "subscriptions_url": "https://api.github.com/users/bitcoin/subscriptions",
        "organizations_url": "https://api.github.com/users/bitcoin/orgs",
        "repos_url": "https://api.github.com/users/bitcoin/repos",
        "events_url": "https://api.github.com/users/bitcoin/events%7B/privacy%7D",
        "received_events_url": "https://api.github.com/users/bitcoin/received_events",
        "type": "Organization",
        "site_admin": false
      },
      "repo": {
        "id": 1181927,
        "node_id": "MDEwOlJlcG9zaXRvcnkxMTgxOTI3",
        "name": "bitcoin",
        "full_name": "bitcoin/bitcoin",
        "owner": {
          "login": "bitcoin",
          "id": 528860,
          "node_id": "MDEyOk9yZ2FuaXphdGlvbjUyODg2MA==",
          "avatar_url": "https://avatars.githubusercontent.com/u/528860?v=4",
          "gravatar_id": "",
          "url": "https://api.github.com/users/bitcoin",
          "html_url": "https://github.com/bitcoin",
          "followers_url": "https://api.github.com/users/bitcoin/followers",
          "following_url": "https://api.github.com/users/bitcoin/following%7B/other_user%7D",
          "gists_url": "https://api.github.com/users/bitcoin/gists%7B/gist_id%7D",
          "starred_url": "https://api.github.com/users/bitcoin/starred%7B/owner%7D%7B/repo%7D",
          "subscriptions_url": "https://api.github.com/users/bitcoin/subscriptions",
          "organizations_url": "https://api.github.com/users/bitcoin/orgs",
          "repos_url": "https://api.github.com/users/bitcoin/repos",
          "events_url": "https://api.github.com/users/bitcoin/events%7B/privacy%7D",
          "received_events_url": "https://api.github.com/users/bitcoin/received_events",
          "type": "Organization",
          "site_admin": false
        },
        "private": false,
        "html_url": "https://github.com/bitcoin/bitcoin",
        "description": "Bitcoin Core integration/staging tree",
        "fork": false,
        "url": "https://api.github.com/repos/bitcoin/bitcoin",
        "archive_url": "https://api.github.com/repos/bitcoin/bitcoin/%7Barchive_format%7D%7B/ref%7D",
        "assignees_url": "https://api.github.com/repos/bitcoin/bitcoin/assignees%7B/user%7D",
        "blobs_url": "https://api.github.com/repos/bitcoin/bitcoin/git/blobs%7B/sha%7D",
        "branches_url": "https://api.github.com/repos/bitcoin/bitcoin/branches%7B/branch%7D",
        "collaborators_url": "https://api.github.com/repos/bitcoin/bitcoin/collaborators%7B/collaborator%7D",
        "comments_url": "https://api.github.com/repos/bitcoin/bitcoin/comments%7B/number%7D",
        "commits_url": "https://api.github.com/repos/bitcoin/bitcoin/commits%7B/sha%7D",
        "compare_url": "https://api.github.com/repos/bitcoin/bitcoin/compare/%7Bbase%7D...%7Bhead%7D",
        "contents_url": "https://api.github.com/repos/bitcoin/bitcoin/contents/%7B+path%7D",
        "contributors_url": "https://api.github.com/repos/bitcoin/bitcoin/contributors",
        "deployments_url": "https://api.github.com/repos/bitcoin/bitcoin/deployments",
        "downloads_url": "https://api.github.com/repos/bitcoin/bitcoin/downloads",
        "events_url": "https://api.github.com/repos/bitcoin/bitcoin/events",
        "forks_url": "https://api.github.com/repos/bitcoin/bitcoin/forks",
        "git_commits_url": "https://api.github.com/repos/bitcoin/bitcoin/git/commits%7B/sha%7D",
        "git_refs_url": "https://api.github.com/repos/bitcoin/bitcoin/git/refs%7B/sha%7D",
        "git_tags_url": "https://api.github.com/repos/bitcoin/bitcoin/git/tags%7B/sha%7D",
        "git_url": "git://github.com/bitcoin/bitcoin.git",
        "issue_comment_url": "https://api.github.com/repos/bitcoin/bitcoin/issues/comments%7B/number%7D",
        "issue_events_url": "https://api.github.com/repos/bitcoin/bitcoin/issues/events%7B/number%7D",
        "issues_url": "https://api.github.com/repos/bitcoin/bitcoin/issues%7B/number%7D",
        "keys_url": "https://api.github.com/repos/bitcoin/bitcoin/keys%7B/key_id%7D",
        "labels_url": "https://api.github.com/repos/bitcoin/bitcoin/labels%7B/name%7D",
        "languages_url": "https://api.github.com/repos/bitcoin/bitcoin/languages",
        "merges_url": "https://api.github.com/repos/bitcoin/bitcoin/merges",
        "milestones_url": "https://api.github.com/repos/bitcoin/bitcoin/milestones%7B/number%7D",
        "notifications_url": "https://api.github.com/repos/bitcoin/bitcoin/notifications%7B?since,all,participating}",
        "pulls_url": "https://api.github.com/repos/bitcoin/bitcoin/pulls%7B/number%7D",
        "releases_url": "https://api.github.com/repos/bitcoin/bitcoin/releases%7B/id%7D",
        "ssh_url": "git@github.com:bitcoin/bitcoin.git",
        "stargazers_url": "https://api.github.com/repos/bitcoin/bitcoin/stargazers",
        "statuses_url": "https://api.github.com/repos/bitcoin/bitcoin/statuses/%7Bsha%7D",
        "subscribers_url": "https://api.github.com/repos/bitcoin/bitcoin/subscribers",
        "subscription_url": "https://api.github.com/repos/bitcoin/bitcoin/subscription",
        "tags_url": "https://api.github.com/repos/bitcoin/bitcoin/tags",
        "teams_url": "https://api.github.com/repos/bitcoin/bitcoin/teams",
        "trees_url": "https://api.github.com/repos/bitcoin/bitcoin/git/trees%7B/sha%7D",
        "clone_url": "https://github.com/bitcoin/bitcoin.git",
        "hooks_url": "https://api.github.com/repos/bitcoin/bitcoin/hooks",
        "svn_url": "https://github.com/bitcoin/bitcoin",
        "homepage": "https://bitcoincore.org/en/download",
        "language": "C++",
        "forks_count": 35476,
        "stargazers_count": 70608,
        "watchers_count": 70608,
        "size": 236222,
        "default_branch": "master",
        "open_issues_count": 673,
        "is_template": false,
        "topics": [
          "bitcoin",
          "c-plus-plus",
          "cryptocurrency",
          "cryptography",
          "p2p"
        ],
        "has_issues": true,
        "has_projects": true,
        "has_wiki": false,
        "has_pages": false,
        "has_downloads": false,
        "archived": false,
        "disabled": false,
        "visibility": "public",
        "pushed_at": "2023-08-03T00:03:27Z",
        "created_at": "2010-12-19T15:16:43Z",
        "updated_at": "2023-08-02T18:21:18Z",
        "license": {
          "key": "mit",
          "name": "MIT License",
          "node_id": "MDc6TGljZW5zZTEz",
          "spdx_id": "MIT",
          "url": "https://api.github.com/licenses/mit",
          "html_url": null,
          "description": null,
          "implementation": null,
          "permissions": null,
          "conditions": null,
          "limitations": null,
          "body": null,
          "featured": null
        }
      }
    },
    "_links": {
      "self": {
        "href": "https://api.github.com/repos/bitcoin/bitcoin/pulls/27036"
      }
    },
    "author_association": "CONTRIBUTOR",
    "draft": false,
    "additions": 14,
    "deletions": 30,
    "changed_files": 2,
    "commits": 1,
    "review_comments": 0,
    "comments": 4
  },
  "events": [
    {
      "event": "commented",
      "id": 1416129577,
      "node_id": "IC_kwDOABII585UaGwp",
      "url": "https://api.github.com/repos/bitcoin/bitcoin/issues/comments/1416129577",
      "actor": {
        "login": "DrahtBot",
        "id": 39886733,
        "node_id": "MDQ6VXNlcjM5ODg2NzMz",
        "avatar_url": "https://avatars.githubusercontent.com/u/39886733?v=4",
        "gravatar_id": "",
        "url": "https://api.github.com/users/DrahtBot",
        "html_url": "https://github.com/DrahtBot",
        "followers_url": "https://api.github.com/users/DrahtBot/followers",
        "following_url": "https://api.github.com/users/DrahtBot/following%7B/other_user%7D",
        "gists_url": "https://api.github.com/users/DrahtBot/gists%7B/gist_id%7D",
        "starred_url": "https://api.github.com/users/DrahtBot/starred%7B/owner%7D%7B/repo%7D",
        "subscriptions_url": "https://api.github.com/users/DrahtBot/subscriptions",
        "organizations_url": "https://api.github.com/users/DrahtBot/orgs",
        "repos_url": "https://api.github.com/users/DrahtBot/repos",
        "events_url": "https://api.github.com/users/DrahtBot/events%7B/privacy%7D",
        "received_events_url": "https://api.github.com/users/DrahtBot/received_events",
        "type": "User",
        "site_admin": false
      },
      "commit_id": null,
      "commit_url": null,
      "created_at": "2023-02-03T16:48:21Z",
      "updated_at": "2023-02-06T09:17:16Z",
      "author_association": "CONTRIBUTOR",
      "body": "<!--e57a25ab6845829454e8d69fc972939a-->\n\nThe following sections might be updated with supplementary metadata relevant to reviewers and maintainers.\n\n<!--021abf342d371248e50ceaed478a90ca-->\n### Reviews\nSee [the guideline](https://github.com/bitcoin/bitcoin/blob/master/CONTRIBUTING.md#code-review) for information on the review process.\n| Type | Reviewers |\n| ---- | --------- |\n| ACK | [Sjors](https://github.com/bitcoin/bitcoin/pull/27036#issuecomment-1418756616) |\n| Concept ACK | [jonatack](https://github.com/bitcoin/bitcoin/pull/27036#issuecomment-1416219411), [brunoerg](https://github.com/bitcoin/bitcoin/pull/27036#pullrequestreview-1283689403) |\n\nIf your review is incorrectly listed, please react with 👎 to this comment and the bot will ignore it on the next update.\n",
      "user": {
        "login": "DrahtBot",
        "id": 39886733,
        "node_id": "MDQ6VXNlcjM5ODg2NzMz",
        "avatar_url": "https://avatars.githubusercontent.com/u/39886733?v=4",
        "gravatar_id": "",
        "url": "https://api.github.com/users/DrahtBot",
        "html_url": "https://github.com/DrahtBot",
        "followers_url": "https://api.github.com/users/DrahtBot/followers",
        "following_url": "https://api.github.com/users/DrahtBot/following%7B/other_user%7D",
        "gists_url": "https://api.github.com/users/DrahtBot/gists%7B/gist_id%7D",
        "starred_url": "https://api.github.com/users/DrahtBot/starred%7B/owner%7D%7B/repo%7D",
        "subscriptions_url": "https://api.github.com/users/DrahtBot/subscriptions",
        "organizations_url": "https://api.github.com/users/DrahtBot/orgs",
        "repos_url": "https://api.github.com/users/DrahtBot/repos",
        "events_url": "https://api.github.com/users/DrahtBot/events%7B/privacy%7D",
        "received_events_url": "https://api.github.com/users/DrahtBot/received_events",
        "type": "User",
        "site_admin": false
      },
      "html_url": "https://github.com/bitcoin/bitcoin/pull/27036#issuecomment-1416129577",
      "issue_url": "https://api.github.com/repos/bitcoin/bitcoin/issues/27036"
    },
    {
      "event": "labeled",
      "id": 8434277121,
      "node_id": "LE_lADOABII585dllAgzwAAAAH2uNsB",
      "url": "https://api.github.com/repos/bitcoin/bitcoin/issues/events/8434277121",
      "actor": {
        "login": "DrahtBot",
        "id": 39886733,
        "node_id": "MDQ6VXNlcjM5ODg2NzMz",
        "avatar_url": "https://avatars.githubusercontent.com/u/39886733?v=4",
        "gravatar_id": "",
        "url": "https://api.github.com/users/DrahtBot",
        "html_url": "https://github.com/DrahtBot",
        "followers_url": "https://api.github.com/users/DrahtBot/followers",
        "following_url": "https://api.github.com/users/DrahtBot/following%7B/other_user%7D",
        "gists_url": "https://api.github.com/users/DrahtBot/gists%7B/gist_id%7D",
        "starred_url": "https://api.github.com/users/DrahtBot/starred%7B/owner%7D%7B/repo%7D",
        "subscriptions_url": "https://api.github.com/users/DrahtBot/subscriptions",
        "organizations_url": "https://api.github.com/users/DrahtBot/orgs",
        "repos_url": "https://api.github.com/users/DrahtBot/repos",
        "events_url": "https://api.github.com/users/DrahtBot/events%7B/privacy%7D",
        "received_events_url": "https://api.github.com/users/DrahtBot/received_events",
        "type": "User",
        "site_admin": false
      },
      "commit_id": null,
      "commit_url": null,
      "created_at": "2023-02-03T16:48:23Z",
      "label": {
        "name": "Tests",
        "color": "d4c5f9"
      }
    },
    {
      "event": "committed",
      "id": null,
      "node_id": "C_kwDOABII59oAKGI4MDMyMjkzZTY3YTNiNjFlY2FkNTMxNDEyYmU1MzMwZjdjYjM5ZTM",
      "url": "https://api.github.com/repos/bitcoin/bitcoin/git/commits/b8032293e67a3b61ecad531412be5330f7cb39e3",
      "actor": null,
      "commit_id": null,
      "commit_url": null,
      "created_at": null,
      "html_url": "https://github.com/bitcoin/bitcoin/commit/b8032293e67a3b61ecad531412be5330f7cb39e3",
      "tree": {
        "sha": "967a04d675832561f84829fed760a511a8a8196d",
        "url": "https://api.github.com/repos/bitcoin/bitcoin/git/trees/967a04d675832561f84829fed760a511a8a8196d"
      },
      "verification": {
        "verified": false,
        "reason": "unsigned",
        "payload": null,
        "signature": null
      },
      "parents": [
        {
          "url": "https://api.github.com/repos/bitcoin/bitcoin/git/commits/aaa55971f6af3f19b22c28103630b856df266ebb",
          "sha": "aaa55971f6af3f19b22c28103630b856df266ebb",
          "html_url": "https://github.com/bitcoin/bitcoin/commit/aaa55971f6af3f19b22c28103630b856df266ebb"
        }
      ],
      "message": "Remove use of snprintf and simplify\n\nOne test case uses snprintf to convert an\nint to a string. Change it to use ToString\n(which uses a locale-independent version of\nstd::to_string). Also remove unnecessary\nparts of StringContentsSerializer.",
      "committer": {
        "name": "John Moffett",
        "email": "john.moff@gmail.com",
        "date": "2023-02-03T17:35:54Z"
      },
      "author": {
        "name": "John Moffett",
        "email": "john.moff@gmail.com",
        "date": "2023-02-03T15:49:12Z"
      },
      "sha": "b8032293e67a3b61ecad531412be5330f7cb39e3"
    },
    {
      "event": "head_ref_force_pushed",
      "id": 8434740818,
      "node_id": "HRFPE_lADOABII585dllAgzwAAAAH2v-5S",
      "url": "https://api.github.com/repos/bitcoin/bitcoin/issues/events/8434740818",
      "actor": {
        "login": "john-moffett",
        "id": 116917595,
        "node_id": "U_kgDOBvgFWw",
        "avatar_url": "https://avatars.githubusercontent.com/u/116917595?v=4",
        "gravatar_id": "",
        "url": "https://api.github.com/users/john-moffett",
        "html_url": "https://github.com/john-moffett",
        "followers_url": "https://api.github.com/users/john-moffett/followers",
        "following_url": "https://api.github.com/users/john-moffett/following%7B/other_user%7D",
        "gists_url": "https://api.github.com/users/john-moffett/gists%7B/gist_id%7D",
        "starred_url": "https://api.github.com/users/john-moffett/starred%7B/owner%7D%7B/repo%7D",
        "subscriptions_url": "https://api.github.com/users/john-moffett/subscriptions",
        "organizations_url": "https://api.github.com/users/john-moffett/orgs",
        "repos_url": "https://api.github.com/users/john-moffett/repos",
        "events_url": "https://api.github.com/users/john-moffett/events%7B/privacy%7D",
        "received_events_url": "https://api.github.com/users/john-moffett/received_events",
        "type": "User",
        "site_admin": false
      },
      "commit_id": null,
      "commit_url": null,
      "created_at": "2023-02-03T17:37:23Z"
    },
    {
      "event": "commented",
      "id": 1416219411,
      "node_id": "IC_kwDOABII585UacsT",
      "url": "https://api.github.com/repos/bitcoin/bitcoin/issues/comments/1416219411",
      "actor": {
        "login": "jonatack",
        "id": 2415484,
        "node_id": "MDQ6VXNlcjI0MTU0ODQ=",
        "avatar_url": "https://avatars.githubusercontent.com/u/2415484?v=4",
        "gravatar_id": "",
        "url": "https://api.github.com/users/jonatack",
        "html_url": "https://github.com/jonatack",
        "followers_url": "https://api.github.com/users/jonatack/followers",
        "following_url": "https://api.github.com/users/jonatack/following%7B/other_user%7D",
        "gists_url": "https://api.github.com/users/jonatack/gists%7B/gist_id%7D",
        "starred_url": "https://api.github.com/users/jonatack/starred%7B/owner%7D%7B/repo%7D",
        "subscriptions_url": "https://api.github.com/users/jonatack/subscriptions",
        "organizations_url": "https://api.github.com/users/jonatack/orgs",
        "repos_url": "https://api.github.com/users/jonatack/repos",
        "events_url": "https://api.github.com/users/jonatack/events%7B/privacy%7D",
        "received_events_url": "https://api.github.com/users/jonatack/received_events",
        "type": "User",
        "site_admin": false
      },
      "commit_id": null,
      "commit_url": null,
      "created_at": "2023-02-03T18:04:47Z",
      "updated_at": "2023-02-03T18:04:47Z",
      "author_association": "CONTRIBUTOR",
      "body": "Concept ACK. Maybe verify if the linter files need updating (test/lint/lint-locale-dependence.py?)",
      "user": {
        "login": "jonatack",
        "id": 2415484,
        "node_id": "MDQ6VXNlcjI0MTU0ODQ=",
        "avatar_url": "https://avatars.githubusercontent.com/u/2415484?v=4",
        "gravatar_id": "",
        "url": "https://api.github.com/users/jonatack",
        "html_url": "https://github.com/jonatack",
        "followers_url": "https://api.github.com/users/jonatack/followers",
        "following_url": "https://api.github.com/users/jonatack/following%7B/other_user%7D",
        "gists_url": "https://api.github.com/users/jonatack/gists%7B/gist_id%7D",
        "starred_url": "https://api.github.com/users/jonatack/starred%7B/owner%7D%7B/repo%7D",
        "subscriptions_url": "https://api.github.com/users/jonatack/subscriptions",
        "organizations_url": "https://api.github.com/users/jonatack/orgs",
        "repos_url": "https://api.github.com/users/jonatack/repos",
        "events_url": "https://api.github.com/users/jonatack/events%7B/privacy%7D",
        "received_events_url": "https://api.github.com/users/jonatack/received_events",
        "type": "User",
        "site_admin": false
      },
      "html_url": "https://github.com/bitcoin/bitcoin/pull/27036#issuecomment-1416219411",
      "issue_url": "https://api.github.com/repos/bitcoin/bitcoin/issues/27036"
    },
    {
      "event": "commented",
      "id": 1416222017,
      "node_id": "IC_kwDOABII585UadVB",
      "url": "https://api.github.com/repos/bitcoin/bitcoin/issues/comments/1416222017",
      "actor": {
        "login": "john-moffett",
        "id": 116917595,
        "node_id": "U_kgDOBvgFWw",
        "avatar_url": "https://avatars.githubusercontent.com/u/116917595?v=4",
        "gravatar_id": "",
        "url": "https://api.github.com/users/john-moffett",
        "html_url": "https://github.com/john-moffett",
        "followers_url": "https://api.github.com/users/john-moffett/followers",
        "following_url": "https://api.github.com/users/john-moffett/following%7B/other_user%7D",
        "gists_url": "https://api.github.com/users/john-moffett/gists%7B/gist_id%7D",
        "starred_url": "https://api.github.com/users/john-moffett/starred%7B/owner%7D%7B/repo%7D",
        "subscriptions_url": "https://api.github.com/users/john-moffett/subscriptions",
        "organizations_url": "https://api.github.com/users/john-moffett/orgs",
        "repos_url": "https://api.github.com/users/john-moffett/repos",
        "events_url": "https://api.github.com/users/john-moffett/events%7B/privacy%7D",
        "received_events_url": "https://api.github.com/users/john-moffett/received_events",
        "type": "User",
        "site_admin": false
      },
      "commit_id": null,
      "commit_url": null,
      "created_at": "2023-02-03T18:07:12Z",
      "updated_at": "2023-02-03T18:07:12Z",
      "author_association": "CONTRIBUTOR",
      "body": "> Maybe verify if the linter files need updating (test/lint/lint-locale-dependence.py?)\r\n\r\nThanks! Pushed that change about a half hour ago. You were too quick 😄 ",
      "user": {
        "login": "john-moffett",
        "id": 116917595,
        "node_id": "U_kgDOBvgFWw",
        "avatar_url": "https://avatars.githubusercontent.com/u/116917595?v=4",
        "gravatar_id": "",
        "url": "https://api.github.com/users/john-moffett",
        "html_url": "https://github.com/john-moffett",
        "followers_url": "https://api.github.com/users/john-moffett/followers",
        "following_url": "https://api.github.com/users/john-moffett/following%7B/other_user%7D",
        "gists_url": "https://api.github.com/users/john-moffett/gists%7B/gist_id%7D",
        "starred_url": "https://api.github.com/users/john-moffett/starred%7B/owner%7D%7B/repo%7D",
        "subscriptions_url": "https://api.github.com/users/john-moffett/subscriptions",
        "organizations_url": "https://api.github.com/users/john-moffett/orgs",
        "repos_url": "https://api.github.com/users/john-moffett/repos",
        "events_url": "https://api.github.com/users/john-moffett/events%7B/privacy%7D",
        "received_events_url": "https://api.github.com/users/john-moffett/received_events",
        "type": "User",
        "site_admin": false
      },
      "html_url": "https://github.com/bitcoin/bitcoin/pull/27036#issuecomment-1416222017",
      "issue_url": "https://api.github.com/repos/bitcoin/bitcoin/issues/27036"
    },
    {
      "event": "reviewed",
      "id": 1283689403,
      "node_id": "PRR_kwDOABII585Mg4u7",
      "url": null,
      "actor": null,
      "commit_id": "b8032293e67a3b61ecad531412be5330f7cb39e3",
      "commit_url": null,
      "created_at": null,
      "author_association": "CONTRIBUTOR",
      "body": "Concept ACK",
      "user": {
        "login": "brunoerg",
        "id": 19480819,
        "node_id": "MDQ6VXNlcjE5NDgwODE5",
        "avatar_url": "https://avatars.githubusercontent.com/u/19480819?v=4",
        "gravatar_id": "",
        "url": "https://api.github.com/users/brunoerg",
        "html_url": "https://github.com/brunoerg",
        "followers_url": "https://api.github.com/users/brunoerg/followers",
        "following_url": "https://api.github.com/users/brunoerg/following%7B/other_user%7D",
        "gists_url": "https://api.github.com/users/brunoerg/gists%7B/gist_id%7D",
        "starred_url": "https://api.github.com/users/brunoerg/starred%7B/owner%7D%7B/repo%7D",
        "subscriptions_url": "https://api.github.com/users/brunoerg/subscriptions",
        "organizations_url": "https://api.github.com/users/brunoerg/orgs",
        "repos_url": "https://api.github.com/users/brunoerg/repos",
        "events_url": "https://api.github.com/users/brunoerg/events%7B/privacy%7D",
        "received_events_url": "https://api.github.com/users/brunoerg/received_events",
        "type": "User",
        "site_admin": false
      },
      "html_url": "https://github.com/bitcoin/bitcoin/pull/27036#pullrequestreview-1283689403",
      "submitted_at": "2023-02-03T20:38:43Z",
      "state": "COMMENTED",
      "pull_request_url": "https://api.github.com/repos/bitcoin/bitcoin/pulls/27036"
    },
    {
      "event": "commented",
      "id": 1418756616,
      "node_id": "IC_kwDOABII585UkIII",
      "url": "https://api.github.com/repos/bitcoin/bitcoin/issues/comments/1418756616",
      "actor": {
        "login": "Sjors",
        "id": 10217,
        "node_id": "MDQ6VXNlcjEwMjE3",
        "avatar_url": "https://avatars.githubusercontent.com/u/10217?v=4",
        "gravatar_id": "",
        "url": "https://api.github.com/users/Sjors",
        "html_url": "https://github.com/Sjors",
        "followers_url": "https://api.github.com/users/Sjors/followers",
        "following_url": "https://api.github.com/users/Sjors/following%7B/other_user%7D",
        "gists_url": "https://api.github.com/users/Sjors/gists%7B/gist_id%7D",
        "starred_url": "https://api.github.com/users/Sjors/starred%7B/owner%7D%7B/repo%7D",
        "subscriptions_url": "https://api.github.com/users/Sjors/subscriptions",
        "organizations_url": "https://api.github.com/users/Sjors/orgs",
        "repos_url": "https://api.github.com/users/Sjors/repos",
        "events_url": "https://api.github.com/users/Sjors/events%7B/privacy%7D",
        "received_events_url": "https://api.github.com/users/Sjors/received_events",
        "type": "User",
        "site_admin": false
      },
      "commit_id": null,
      "commit_url": null,
      "created_at": "2023-02-06T09:17:13Z",
      "updated_at": "2023-02-06T09:17:13Z",
      "author_association": "MEMBER",
      "body": "tACK b8032293e67a3b61ecad531412be5330f7cb39e3, fixes #27014.",
      "user": {
        "login": "Sjors",
        "id": 10217,
        "node_id": "MDQ6VXNlcjEwMjE3",
        "avatar_url": "https://avatars.githubusercontent.com/u/10217?v=4",
        "gravatar_id": "",
        "url": "https://api.github.com/users/Sjors",
        "html_url": "https://github.com/Sjors",
        "followers_url": "https://api.github.com/users/Sjors/followers",
        "following_url": "https://api.github.com/users/Sjors/following%7B/other_user%7D",
        "gists_url": "https://api.github.com/users/Sjors/gists%7B/gist_id%7D",
        "starred_url": "https://api.github.com/users/Sjors/starred%7B/owner%7D%7B/repo%7D",
        "subscriptions_url": "https://api.github.com/users/Sjors/subscriptions",
        "organizations_url": "https://api.github.com/users/Sjors/orgs",
        "repos_url": "https://api.github.com/users/Sjors/repos",
        "events_url": "https://api.github.com/users/Sjors/events%7B/privacy%7D",
        "received_events_url": "https://api.github.com/users/Sjors/received_events",
        "type": "User",
        "site_admin": false
      },
      "html_url": "https://github.com/bitcoin/bitcoin/pull/27036#issuecomment-1418756616",
      "issue_url": "https://api.github.com/repos/bitcoin/bitcoin/issues/27036"
    },
    {
      "event": "merged",
      "id": 8445410311,
      "node_id": "ME_lADOABII585dllAgzwAAAAH3YrwH",
      "url": "https://api.github.com/repos/bitcoin/bitcoin/issues/events/8445410311",
      "actor": {
        "login": "MarcoFalke",
        "id": 6399679,
        "node_id": "MDQ6VXNlcjYzOTk2Nzk=",
        "avatar_url": "https://avatars.githubusercontent.com/u/6399679?v=4",
        "gravatar_id": "",
        "url": "https://api.github.com/users/MarcoFalke",
        "html_url": "https://github.com/MarcoFalke",
        "followers_url": "https://api.github.com/users/MarcoFalke/followers",
        "following_url": "https://api.github.com/users/MarcoFalke/following%7B/other_user%7D",
        "gists_url": "https://api.github.com/users/MarcoFalke/gists%7B/gist_id%7D",
        "starred_url": "https://api.github.com/users/MarcoFalke/starred%7B/owner%7D%7B/repo%7D",
        "subscriptions_url": "https://api.github.com/users/MarcoFalke/subscriptions",
        "organizations_url": "https://api.github.com/users/MarcoFalke/orgs",
        "repos_url": "https://api.github.com/users/MarcoFalke/repos",
        "events_url": "https://api.github.com/users/MarcoFalke/events%7B/privacy%7D",
        "received_events_url": "https://api.github.com/users/MarcoFalke/received_events",
        "type": "User",
        "site_admin": false
      },
      "commit_id": "aff75463e2c75a7a969cdaa535c7be05fd146420",
      "commit_url": "https://api.github.com/repos/bitcoin/bitcoin/commits/aff75463e2c75a7a969cdaa535c7be05fd146420",
      "created_at": "2023-02-06T09:35:36Z"
    },
    {
      "event": "closed",
      "id": 8445410371,
      "node_id": "CE_lADOABII585dllAgzwAAAAH3YrxD",
      "url": "https://api.github.com/repos/bitcoin/bitcoin/issues/events/8445410371",
      "actor": {
        "login": "MarcoFalke",
        "id": 6399679,
        "node_id": "MDQ6VXNlcjYzOTk2Nzk=",
        "avatar_url": "https://avatars.githubusercontent.com/u/6399679?v=4",
        "gravatar_id": "",
        "url": "https://api.github.com/users/MarcoFalke",
        "html_url": "https://github.com/MarcoFalke",
        "followers_url": "https://api.github.com/users/MarcoFalke/followers",
        "following_url": "https://api.github.com/users/MarcoFalke/following%7B/other_user%7D",
        "gists_url": "https://api.github.com/users/MarcoFalke/gists%7B/gist_id%7D",
        "starred_url": "https://api.github.com/users/MarcoFalke/starred%7B/owner%7D%7B/repo%7D",
        "subscriptions_url": "https://api.github.com/users/MarcoFalke/subscriptions",
        "organizations_url": "https://api.github.com/users/MarcoFalke/orgs",
        "repos_url": "https://api.github.com/users/MarcoFalke/repos",
        "events_url": "https://api.github.com/users/MarcoFalke/events%7B/privacy%7D",
        "received_events_url": "https://api.github.com/users/MarcoFalke/received_events",
        "type": "User",
        "site_admin": false
      },
      "commit_id": null,
      "commit_url": null,
      "created_at": "2023-02-06T09:35:36Z"
    },
    {
      "event": "referenced",
      "id": 8448615736,
      "node_id": "REFE_lADOABII585dllAgzwAAAAH3k6U4",
      "url": "https://api.github.com/repos/bitcoin/bitcoin/issues/events/8448615736",
      "actor": {
        "login": "sidhujag",
        "id": 6238042,
        "node_id": "MDQ6VXNlcjYyMzgwNDI=",
        "avatar_url": "https://avatars.githubusercontent.com/u/6238042?v=4",
        "gravatar_id": "",
        "url": "https://api.github.com/users/sidhujag",
        "html_url": "https://github.com/sidhujag",
        "followers_url": "https://api.github.com/users/sidhujag/followers",
        "following_url": "https://api.github.com/users/sidhujag/following%7B/other_user%7D",
        "gists_url": "https://api.github.com/users/sidhujag/gists%7B/gist_id%7D",
        "starred_url": "https://api.github.com/users/sidhujag/starred%7B/owner%7D%7B/repo%7D",
        "subscriptions_url": "https://api.github.com/users/sidhujag/subscriptions",
        "organizations_url": "https://api.github.com/users/sidhujag/orgs",
        "repos_url": "https://api.github.com/users/sidhujag/repos",
        "events_url": "https://api.github.com/users/sidhujag/events%7B/privacy%7D",
        "received_events_url": "https://api.github.com/users/sidhujag/received_events",
        "type": "User",
        "site_admin": false
      },
      "commit_id": "5dc32bdc366c5fb33d98bc8b04ba0e745fc5c326",
      "commit_url": "https://api.github.com/repos/syscoin/syscoin/commits/5dc32bdc366c5fb33d98bc8b04ba0e745fc5c326",
      "created_at": "2023-02-06T15:20:10Z"
    },
    {
      "event": "cross-referenced",
      "id": null,
      "node_id": null,
      "url": null,
      "actor": {
        "login": "ryanofsky",
        "id": 7133040,
        "node_id": "MDQ6VXNlcjcxMzMwNDA=",
        "avatar_url": "https://avatars.githubusercontent.com/u/7133040?v=4",
        "gravatar_id": "",
        "url": "https://api.github.com/users/ryanofsky",
        "html_url": "https://github.com/ryanofsky",
        "followers_url": "https://api.github.com/users/ryanofsky/followers",
        "following_url": "https://api.github.com/users/ryanofsky/following%7B/other_user%7D",
        "gists_url": "https://api.github.com/users/ryanofsky/gists%7B/gist_id%7D",
        "starred_url": "https://api.github.com/users/ryanofsky/starred%7B/owner%7D%7B/repo%7D",
        "subscriptions_url": "https://api.github.com/users/ryanofsky/subscriptions",
        "organizations_url": "https://api.github.com/users/ryanofsky/orgs",
        "repos_url": "https://api.github.com/users/ryanofsky/repos",
        "events_url": "https://api.github.com/users/ryanofsky/events%7B/privacy%7D",
        "received_events_url": "https://api.github.com/users/ryanofsky/received_events",
        "type": "User",
        "site_admin": false
      },
      "commit_id": null,
      "commit_url": null,
      "created_at": "2023-02-13T18:04:15Z",
      "updated_at": "2023-02-13T18:04:15Z",
      "source": {
        "issue": {
          "id": 230539233,
          "node_id": "MDExOlB1bGxSZXF1ZXN0MTIxODgwMDE0",
          "url": "https://api.github.com/repos/bitcoin/bitcoin/issues/10443",
          "repository_url": "https://api.github.com/repos/bitcoin/bitcoin",
          "labels_url": "https://api.github.com/repos/bitcoin/bitcoin/issues/10443/labels%7B/name%7D",
          "comments_url": "https://api.github.com/repos/bitcoin/bitcoin/issues/10443/comments",
          "events_url": "https://api.github.com/repos/bitcoin/bitcoin/issues/10443/events",
          "html_url": "https://github.com/bitcoin/bitcoin/pull/10443",
          "number": 10443,
          "state": "open",
          "state_reason": null,
          "title": "Add fee_est tool for debugging fee estimation code",
          "body": "This PR adds an `-estlog` option for saving live fee estimation data from a bitcoin node, and a `fee_est` command line tool for processing the data and testing fee estimation code.\r\n\r\nThe idea is to make it easier to test improvements to fee estimation like https://github.com/bitcoin/bitcoin/pull/10199 in a more systematic and reproducible way.\r\n\r\nSome documentation is in [`src/test/fee_est/README.md`](https://github.com/ryanofsky/bitcoin/blob/pr/fee/src/test/fee_est/README.md)\r\n\r\nSample log file: [`est.log.xz`](https://storage.googleapis.com/ryanofsky/est.log.xz) (65M)\r\n\r\nSample [`fee_est.cpp`](https://github.com/ryanofsky/bitcoin/blob/pr/fee/src/test/fee_est/fee_est.cpp)  graph output: \r\n\r\n![graph](https://cloud.githubusercontent.com/assets/7133040/26331057/f2de8d0c-3f1c-11e7-99ea-de1801d13b05.png)\r\n\r\n",
          "user": {
            "login": "ryanofsky",
            "id": 7133040,
            "node_id": "MDQ6VXNlcjcxMzMwNDA=",
            "avatar_url": "https://avatars.githubusercontent.com/u/7133040?v=4",
            "gravatar_id": "",
            "url": "https://api.github.com/users/ryanofsky",
            "html_url": "https://github.com/ryanofsky",
            "followers_url": "https://api.github.com/users/ryanofsky/followers",
            "following_url": "https://api.github.com/users/ryanofsky/following%7B/other_user%7D",
            "gists_url": "https://api.github.com/users/ryanofsky/gists%7B/gist_id%7D",
            "starred_url": "https://api.github.com/users/ryanofsky/starred%7B/owner%7D%7B/repo%7D",
            "subscriptions_url": "https://api.github.com/users/ryanofsky/subscriptions",
            "organizations_url": "https://api.github.com/users/ryanofsky/orgs",
            "repos_url": "https://api.github.com/users/ryanofsky/repos",
            "events_url": "https://api.github.com/users/ryanofsky/events%7B/privacy%7D",
            "received_events_url": "https://api.github.com/users/ryanofsky/received_events",
            "type": "User",
            "site_admin": false
          },
          "labels": [
            {
              "id": 64583,
              "node_id": "MDU6TGFiZWw2NDU4Mw==",
              "url": "https://api.github.com/repos/bitcoin/bitcoin/labels/Feature",
              "name": "Feature",
              "color": "7cf575",
              "default": false
            },
            {
              "id": 82428251,
              "node_id": "MDU6TGFiZWw4MjQyODI1MQ==",
              "url": "https://api.github.com/repos/bitcoin/bitcoin/labels/TX%20fees%20and%20policy",
              "name": "TX fees and policy",
              "color": "5319e7",
              "default": false
            },
            {
              "id": 955867938,
              "node_id": "MDU6TGFiZWw5NTU4Njc5Mzg=",
              "url": "https://api.github.com/repos/bitcoin/bitcoin/labels/Needs%20rebase",
              "name": "Needs rebase",
              "description": "",
              "color": "cccccc",
              "default": false
            },
            {
              "id": 5334691551,
              "node_id": "LA_kwDOABII588AAAABPfju3w",
              "url": "https://api.github.com/repos/bitcoin/bitcoin/labels/CI%20failed",
              "name": "CI failed",
              "description": "",
              "color": "cccccc",
              "default": false
            }
          ],
          "assignees": [],
          "author_association": "CONTRIBUTOR",
          "locked": false,
          "comments": 20,
          "pull_request": {
            "url": "https://api.github.com/repos/bitcoin/bitcoin/pulls/10443",
            "html_url": "https://github.com/bitcoin/bitcoin/pull/10443",
            "diff_url": "https://github.com/bitcoin/bitcoin/pull/10443.diff",
            "patch_url": "https://github.com/bitcoin/bitcoin/pull/10443.patch"
          },
          "created_at": "2017-05-22T22:40:55Z",
          "updated_at": "2023-06-20T17:24:07Z"
        },
        "type": "issue"
      }
    },
    {
      "event": "cross-referenced",
      "id": null,
      "node_id": null,
      "url": null,
      "actor": {
        "login": "jonatack",
        "id": 2415484,
        "node_id": "MDQ6VXNlcjI0MTU0ODQ=",
        "avatar_url": "https://avatars.githubusercontent.com/u/2415484?v=4",
        "gravatar_id": "",
        "url": "https://api.github.com/users/jonatack",
        "html_url": "https://github.com/jonatack",
        "followers_url": "https://api.github.com/users/jonatack/followers",
        "following_url": "https://api.github.com/users/jonatack/following%7B/other_user%7D",
        "gists_url": "https://api.github.com/users/jonatack/gists%7B/gist_id%7D",
        "starred_url": "https://api.github.com/users/jonatack/starred%7B/owner%7D%7B/repo%7D",
        "subscriptions_url": "https://api.github.com/users/jonatack/subscriptions",
        "organizations_url": "https://api.github.com/users/jonatack/orgs",
        "repos_url": "https://api.github.com/users/jonatack/repos",
        "events_url": "https://api.github.com/users/jonatack/events%7B/privacy%7D",
        "received_events_url": "https://api.github.com/users/jonatack/received_events",
        "type": "User",
        "site_admin": false
      },
      "commit_id": null,
      "commit_url": null,
      "created_at": "2023-02-15T22:46:40Z",
      "updated_at": "2023-02-15T22:46:40Z",
      "source": {
        "issue": {
          "id": 1586690946,
          "node_id": "PR_kwDOABII585KFAS-",
          "url": "https://api.github.com/repos/bitcoin/bitcoin/issues/27106",
          "repository_url": "https://api.github.com/repos/bitcoin/bitcoin",
          "labels_url": "https://api.github.com/repos/bitcoin/bitcoin/issues/27106/labels%7B/name%7D",
          "comments_url": "https://api.github.com/repos/bitcoin/bitcoin/issues/27106/comments",
          "events_url": "https://api.github.com/repos/bitcoin/bitcoin/issues/27106/events",
          "html_url": "https://github.com/bitcoin/bitcoin/pull/27106",
          "number": 27106,
          "state": "closed",
          "state_reason": null,
          "title": "net: remove orphaned CSubNet::SanityCheck()",
          "body": "`CSubNet::SanityCheck()` was added in #20140, and not removed in #22570 when it became orphaned code.\r\n\r\nAlso, remove an out-of-date `snprintf` TODO that was resolved in #27036, and fix up 2 words to make the spelling linter green again.\r\n",
          "user": {
            "login": "jonatack",
            "id": 2415484,
            "node_id": "MDQ6VXNlcjI0MTU0ODQ=",
            "avatar_url": "https://avatars.githubusercontent.com/u/2415484?v=4",
            "gravatar_id": "",
            "url": "https://api.github.com/users/jonatack",
            "html_url": "https://github.com/jonatack",
            "followers_url": "https://api.github.com/users/jonatack/followers",
            "following_url": "https://api.github.com/users/jonatack/following%7B/other_user%7D",
            "gists_url": "https://api.github.com/users/jonatack/gists%7B/gist_id%7D",
            "starred_url": "https://api.github.com/users/jonatack/starred%7B/owner%7D%7B/repo%7D",
            "subscriptions_url": "https://api.github.com/users/jonatack/subscriptions",
            "organizations_url": "https://api.github.com/users/jonatack/orgs",
            "repos_url": "https://api.github.com/users/jonatack/repos",
            "events_url": "https://api.github.com/users/jonatack/events%7B/privacy%7D",
            "received_events_url": "https://api.github.com/users/jonatack/received_events",
            "type": "User",
            "site_admin": false
          },
          "labels": [
            {
              "id": 98298007,
              "node_id": "MDU6TGFiZWw5ODI5ODAwNw==",
              "url": "https://api.github.com/repos/bitcoin/bitcoin/labels/P2P",
              "name": "P2P",
              "color": "006b75",
              "default": false
            }
          ],
          "assignees": [],
          "author_association": "CONTRIBUTOR",
          "locked": false,
          "comments": 1,
          "pull_request": {
            "url": "https://api.github.com/repos/bitcoin/bitcoin/pulls/27106",
            "html_url": "https://github.com/bitcoin/bitcoin/pull/27106",
            "diff_url": "https://github.com/bitcoin/bitcoin/pull/27106.diff",
            "patch_url": "https://github.com/bitcoin/bitcoin/pull/27106.patch"
          },
          "closed_at": "2023-02-17T10:31:47Z",
          "created_at": "2023-02-15T22:46:40Z",
          "updated_at": "2023-02-17T12:58:47Z"
        },
        "type": "issue"
      }
    },
    {
      "event": "referenced",
      "id": 8545856871,
      "node_id": "REFE_lADOABII585dllAgzwAAAAH9X21n",
      "url": "https://api.github.com/repos/bitcoin/bitcoin/issues/events/8545856871",
      "actor": {
        "login": "fanquake",
        "id": 863730,
        "node_id": "MDQ6VXNlcjg2MzczMA==",
        "avatar_url": "https://avatars.githubusercontent.com/u/863730?v=4",
        "gravatar_id": "",
        "url": "https://api.github.com/users/fanquake",
        "html_url": "https://github.com/fanquake",
        "followers_url": "https://api.github.com/users/fanquake/followers",
        "following_url": "https://api.github.com/users/fanquake/following%7B/other_user%7D",
        "gists_url": "https://api.github.com/users/fanquake/gists%7B/gist_id%7D",
        "starred_url": "https://api.github.com/users/fanquake/starred%7B/owner%7D%7B/repo%7D",
        "subscriptions_url": "https://api.github.com/users/fanquake/subscriptions",
        "organizations_url": "https://api.github.com/users/fanquake/orgs",
        "repos_url": "https://api.github.com/users/fanquake/repos",
        "events_url": "https://api.github.com/users/fanquake/events%7B/privacy%7D",
        "received_events_url": "https://api.github.com/users/fanquake/received_events",
        "type": "User",
        "site_admin": false
      },
      "commit_id": "bc35c4f58c509093cbcf7fac7fdb0ca6c23d867d",
      "commit_url": "https://api.github.com/repos/bitcoin/bitcoin/commits/bc35c4f58c509093cbcf7fac7fdb0ca6c23d867d",
      "created_at": "2023-02-17T10:31:46Z"
    },
    {
      "event": "referenced",
      "id": 8549430011,
      "node_id": "REFE_lADOABII585dllAgzwAAAAH9lfL7",
      "url": "https://api.github.com/repos/bitcoin/bitcoin/issues/events/8549430011",
      "actor": {
        "login": "sidhujag",
        "id": 6238042,
        "node_id": "MDQ6VXNlcjYyMzgwNDI=",
        "avatar_url": "https://avatars.githubusercontent.com/u/6238042?v=4",
        "gravatar_id": "",
        "url": "https://api.github.com/users/sidhujag",
        "html_url": "https://github.com/sidhujag",
        "followers_url": "https://api.github.com/users/sidhujag/followers",
        "following_url": "https://api.github.com/users/sidhujag/following%7B/other_user%7D",
        "gists_url": "https://api.github.com/users/sidhujag/gists%7B/gist_id%7D",
        "starred_url": "https://api.github.com/users/sidhujag/starred%7B/owner%7D%7B/repo%7D",
        "subscriptions_url": "https://api.github.com/users/sidhujag/subscriptions",
        "organizations_url": "https://api.github.com/users/sidhujag/orgs",
        "repos_url": "https://api.github.com/users/sidhujag/repos",
        "events_url": "https://api.github.com/users/sidhujag/events%7B/privacy%7D",
        "received_events_url": "https://api.github.com/users/sidhujag/received_events",
        "type": "User",
        "site_admin": false
      },
      "commit_id": "ef111be3dd9f6191a7b870f204b54ade83b11e4a",
      "commit_url": "https://api.github.com/repos/syscoin/syscoin/commits/ef111be3dd9f6191a7b870f204b54ade83b11e4a",
      "created_at": "2023-02-17T17:36:28Z"
    }
  ],
  "comments": []
}