{
  "type": "pull",
  "pull": {
    "url": "https://api.github.com/repos/bitcoin/bitcoin/pulls/27287",
    "id": 1283835883,
    "node_id": "PR_kwDOABII585Mhcfr",
    "html_url": "https://github.com/bitcoin/bitcoin/pull/27287",
    "diff_url": "https://github.com/bitcoin/bitcoin/pull/27287.diff",
    "patch_url": "https://github.com/bitcoin/bitcoin/pull/27287.patch",
    "issue_url": "https://api.github.com/repos/bitcoin/bitcoin/issues/27287",
    "commits_url": "https://api.github.com/repos/bitcoin/bitcoin/pulls/27287/commits",
    "review_comments_url": "https://api.github.com/repos/bitcoin/bitcoin/pulls/27287/comments",
    "review_comment_url": "https://api.github.com/repos/bitcoin/bitcoin/pulls/comments%7B/number%7D",
    "comments_url": "https://api.github.com/repos/bitcoin/bitcoin/issues/27287/comments",
    "statuses_url": "https://api.github.com/repos/bitcoin/bitcoin/statuses/fa0696e7863af03efbffa026c2060ff2b5720fb1",
    "number": 27287,
    "state": "closed",
    "locked": false,
    "maintainer_can_modify": false,
    "title": "test: Replace threading with concurrent.futures",
    "user": {
      "login": "MarcoFalke",
      "id": 6399679,
      "node_id": "MDQ6VXNlcjYzOTk2Nzk=",
      "avatar_url": "https://avatars.githubusercontent.com/u/6399679?v=4",
      "gravatar_id": "",
      "url": "https://api.github.com/users/MarcoFalke",
      "html_url": "https://github.com/MarcoFalke",
      "followers_url": "https://api.github.com/users/MarcoFalke/followers",
      "following_url": "https://api.github.com/users/MarcoFalke/following%7B/other_user%7D",
      "gists_url": "https://api.github.com/users/MarcoFalke/gists%7B/gist_id%7D",
      "starred_url": "https://api.github.com/users/MarcoFalke/starred%7B/owner%7D%7B/repo%7D",
      "subscriptions_url": "https://api.github.com/users/MarcoFalke/subscriptions",
      "organizations_url": "https://api.github.com/users/MarcoFalke/orgs",
      "repos_url": "https://api.github.com/users/MarcoFalke/repos",
      "events_url": "https://api.github.com/users/MarcoFalke/events%7B/privacy%7D",
      "received_events_url": "https://api.github.com/users/MarcoFalke/received_events",
      "type": "User",
      "site_admin": false
    },
    "body": "`threading` has no easy way to get the return value or exception once the target function stops. Not checking the return value or exception can make tests more fragile and failures harder to debug.\r\n\r\nFix this by checking the return value (or exception) by wrapping the function execution into a future and calling `result()` on it.\r\n\r\nCan be reviewed with `--ignore-all-space`.\r\n\r\n(There are still some uses of `threading` around, because some tests do expect an exception to be thrown and caught in the target function)",
    "labels": [
      {
        "id": 62963516,
        "node_id": "MDU6TGFiZWw2Mjk2MzUxNg==",
        "url": "https://api.github.com/repos/bitcoin/bitcoin/labels/Tests",
        "name": "Tests",
        "color": "d4c5f9",
        "default": false
      }
    ],
    "created_at": "2023-03-21T08:59:56Z",
    "updated_at": "2023-03-23T17:00:50Z",
    "closed_at": "2023-03-23T15:10:00Z",
    "mergeable_state": "unknown",
    "merged_at": "2023-03-23T15:10:00Z",
    "merge_commit_sha": "483fb8d2165bacafe9c12a829afca248feeeb42f",
    "assignee": {
      "login": "fanquake",
      "id": 863730,
      "node_id": "MDQ6VXNlcjg2MzczMA==",
      "avatar_url": "https://avatars.githubusercontent.com/u/863730?v=4",
      "gravatar_id": "",
      "url": "https://api.github.com/users/fanquake",
      "html_url": "https://github.com/fanquake",
      "followers_url": "https://api.github.com/users/fanquake/followers",
      "following_url": "https://api.github.com/users/fanquake/following%7B/other_user%7D",
      "gists_url": "https://api.github.com/users/fanquake/gists%7B/gist_id%7D",
      "starred_url": "https://api.github.com/users/fanquake/starred%7B/owner%7D%7B/repo%7D",
      "subscriptions_url": "https://api.github.com/users/fanquake/subscriptions",
      "organizations_url": "https://api.github.com/users/fanquake/orgs",
      "repos_url": "https://api.github.com/users/fanquake/repos",
      "events_url": "https://api.github.com/users/fanquake/events%7B/privacy%7D",
      "received_events_url": "https://api.github.com/users/fanquake/received_events",
      "type": "User",
      "site_admin": false
    },
    "assignees": [
      {
        "login": "fanquake",
        "id": 863730,
        "node_id": "MDQ6VXNlcjg2MzczMA==",
        "avatar_url": "https://avatars.githubusercontent.com/u/863730?v=4",
        "gravatar_id": "",
        "url": "https://api.github.com/users/fanquake",
        "html_url": "https://github.com/fanquake",
        "followers_url": "https://api.github.com/users/fanquake/followers",
        "following_url": "https://api.github.com/users/fanquake/following%7B/other_user%7D",
        "gists_url": "https://api.github.com/users/fanquake/gists%7B/gist_id%7D",
        "starred_url": "https://api.github.com/users/fanquake/starred%7B/owner%7D%7B/repo%7D",
        "subscriptions_url": "https://api.github.com/users/fanquake/subscriptions",
        "organizations_url": "https://api.github.com/users/fanquake/orgs",
        "repos_url": "https://api.github.com/users/fanquake/repos",
        "events_url": "https://api.github.com/users/fanquake/events%7B/privacy%7D",
        "received_events_url": "https://api.github.com/users/fanquake/received_events",
        "type": "User",
        "site_admin": false
      }
    ],
    "requested_reviewers": [],
    "requested_teams": [],
    "head": {
      "label": "MarcoFalke:2303-test-check-return-value-😝",
      "ref": "2303-test-check-return-value-😝",
      "sha": "fa0696e7863af03efbffa026c2060ff2b5720fb1",
      "user": {
        "login": "MarcoFalke",
        "id": 6399679,
        "node_id": "MDQ6VXNlcjYzOTk2Nzk=",
        "avatar_url": "https://avatars.githubusercontent.com/u/6399679?v=4",
        "gravatar_id": "",
        "url": "https://api.github.com/users/MarcoFalke",
        "html_url": "https://github.com/MarcoFalke",
        "followers_url": "https://api.github.com/users/MarcoFalke/followers",
        "following_url": "https://api.github.com/users/MarcoFalke/following%7B/other_user%7D",
        "gists_url": "https://api.github.com/users/MarcoFalke/gists%7B/gist_id%7D",
        "starred_url": "https://api.github.com/users/MarcoFalke/starred%7B/owner%7D%7B/repo%7D",
        "subscriptions_url": "https://api.github.com/users/MarcoFalke/subscriptions",
        "organizations_url": "https://api.github.com/users/MarcoFalke/orgs",
        "repos_url": "https://api.github.com/users/MarcoFalke/repos",
        "events_url": "https://api.github.com/users/MarcoFalke/events%7B/privacy%7D",
        "received_events_url": "https://api.github.com/users/MarcoFalke/received_events",
        "type": "User",
        "site_admin": false
      },
      "repo": {
        "id": 40046254,
        "node_id": "MDEwOlJlcG9zaXRvcnk0MDA0NjI1NA==",
        "name": "b-c",
        "full_name": "MarcoFalke/b-c",
        "owner": {
          "login": "MarcoFalke",
          "id": 6399679,
          "node_id": "MDQ6VXNlcjYzOTk2Nzk=",
          "avatar_url": "https://avatars.githubusercontent.com/u/6399679?v=4",
          "gravatar_id": "",
          "url": "https://api.github.com/users/MarcoFalke",
          "html_url": "https://github.com/MarcoFalke",
          "followers_url": "https://api.github.com/users/MarcoFalke/followers",
          "following_url": "https://api.github.com/users/MarcoFalke/following%7B/other_user%7D",
          "gists_url": "https://api.github.com/users/MarcoFalke/gists%7B/gist_id%7D",
          "starred_url": "https://api.github.com/users/MarcoFalke/starred%7B/owner%7D%7B/repo%7D",
          "subscriptions_url": "https://api.github.com/users/MarcoFalke/subscriptions",
          "organizations_url": "https://api.github.com/users/MarcoFalke/orgs",
          "repos_url": "https://api.github.com/users/MarcoFalke/repos",
          "events_url": "https://api.github.com/users/MarcoFalke/events%7B/privacy%7D",
          "received_events_url": "https://api.github.com/users/MarcoFalke/received_events",
          "type": "User",
          "site_admin": false
        },
        "private": false,
        "html_url": "https://github.com/MarcoFalke/b-c",
        "fork": true,
        "url": "https://api.github.com/repos/MarcoFalke/b-c",
        "archive_url": "https://api.github.com/repos/MarcoFalke/b-c/%7Barchive_format%7D%7B/ref%7D",
        "assignees_url": "https://api.github.com/repos/MarcoFalke/b-c/assignees%7B/user%7D",
        "blobs_url": "https://api.github.com/repos/MarcoFalke/b-c/git/blobs%7B/sha%7D",
        "branches_url": "https://api.github.com/repos/MarcoFalke/b-c/branches%7B/branch%7D",
        "collaborators_url": "https://api.github.com/repos/MarcoFalke/b-c/collaborators%7B/collaborator%7D",
        "comments_url": "https://api.github.com/repos/MarcoFalke/b-c/comments%7B/number%7D",
        "commits_url": "https://api.github.com/repos/MarcoFalke/b-c/commits%7B/sha%7D",
        "compare_url": "https://api.github.com/repos/MarcoFalke/b-c/compare/%7Bbase%7D...%7Bhead%7D",
        "contents_url": "https://api.github.com/repos/MarcoFalke/b-c/contents/%7B+path%7D",
        "contributors_url": "https://api.github.com/repos/MarcoFalke/b-c/contributors",
        "deployments_url": "https://api.github.com/repos/MarcoFalke/b-c/deployments",
        "downloads_url": "https://api.github.com/repos/MarcoFalke/b-c/downloads",
        "events_url": "https://api.github.com/repos/MarcoFalke/b-c/events",
        "forks_url": "https://api.github.com/repos/MarcoFalke/b-c/forks",
        "git_commits_url": "https://api.github.com/repos/MarcoFalke/b-c/git/commits%7B/sha%7D",
        "git_refs_url": "https://api.github.com/repos/MarcoFalke/b-c/git/refs%7B/sha%7D",
        "git_tags_url": "https://api.github.com/repos/MarcoFalke/b-c/git/tags%7B/sha%7D",
        "git_url": "git://github.com/MarcoFalke/b-c.git",
        "issue_comment_url": "https://api.github.com/repos/MarcoFalke/b-c/issues/comments%7B/number%7D",
        "issue_events_url": "https://api.github.com/repos/MarcoFalke/b-c/issues/events%7B/number%7D",
        "issues_url": "https://api.github.com/repos/MarcoFalke/b-c/issues%7B/number%7D",
        "keys_url": "https://api.github.com/repos/MarcoFalke/b-c/keys%7B/key_id%7D",
        "labels_url": "https://api.github.com/repos/MarcoFalke/b-c/labels%7B/name%7D",
        "languages_url": "https://api.github.com/repos/MarcoFalke/b-c/languages",
        "merges_url": "https://api.github.com/repos/MarcoFalke/b-c/merges",
        "milestones_url": "https://api.github.com/repos/MarcoFalke/b-c/milestones%7B/number%7D",
        "notifications_url": "https://api.github.com/repos/MarcoFalke/b-c/notifications%7B?since,all,participating}",
        "pulls_url": "https://api.github.com/repos/MarcoFalke/b-c/pulls%7B/number%7D",
        "releases_url": "https://api.github.com/repos/MarcoFalke/b-c/releases%7B/id%7D",
        "ssh_url": "git@github.com:MarcoFalke/b-c.git",
        "stargazers_url": "https://api.github.com/repos/MarcoFalke/b-c/stargazers",
        "statuses_url": "https://api.github.com/repos/MarcoFalke/b-c/statuses/%7Bsha%7D",
        "subscribers_url": "https://api.github.com/repos/MarcoFalke/b-c/subscribers",
        "subscription_url": "https://api.github.com/repos/MarcoFalke/b-c/subscription",
        "tags_url": "https://api.github.com/repos/MarcoFalke/b-c/tags",
        "teams_url": "https://api.github.com/repos/MarcoFalke/b-c/teams",
        "trees_url": "https://api.github.com/repos/MarcoFalke/b-c/git/trees%7B/sha%7D",
        "clone_url": "https://github.com/MarcoFalke/b-c.git",
        "hooks_url": "https://api.github.com/repos/MarcoFalke/b-c/hooks",
        "svn_url": "https://github.com/MarcoFalke/b-c",
        "homepage": "",
        "language": "C++",
        "forks_count": 12,
        "stargazers_count": 25,
        "watchers_count": 25,
        "size": 207848,
        "default_branch": "master",
        "open_issues_count": 25,
        "is_template": false,
        "topics": [],
        "has_issues": true,
        "has_projects": true,
        "has_wiki": false,
        "has_pages": false,
        "has_downloads": false,
        "archived": false,
        "disabled": false,
        "visibility": "public",
        "pushed_at": "2023-08-02T15:31:58Z",
        "created_at": "2015-08-01T12:42:47Z",
        "updated_at": "2023-05-28T20:12:34Z",
        "license": {
          "key": "mit",
          "name": "MIT License",
          "node_id": "MDc6TGljZW5zZTEz",
          "spdx_id": "MIT",
          "url": "https://api.github.com/licenses/mit",
          "html_url": null,
          "description": null,
          "implementation": null,
          "permissions": null,
          "conditions": null,
          "limitations": null,
          "body": null,
          "featured": null
        }
      }
    },
    "base": {
      "label": "bitcoin:master",
      "ref": "master",
      "sha": "f4e42a78c75719ad6a99962360ec67d92a563a9d",
      "user": {
        "login": "bitcoin",
        "id": 528860,
        "node_id": "MDEyOk9yZ2FuaXphdGlvbjUyODg2MA==",
        "avatar_url": "https://avatars.githubusercontent.com/u/528860?v=4",
        "gravatar_id": "",
        "url": "https://api.github.com/users/bitcoin",
        "html_url": "https://github.com/bitcoin",
        "followers_url": "https://api.github.com/users/bitcoin/followers",
        "following_url": "https://api.github.com/users/bitcoin/following%7B/other_user%7D",
        "gists_url": "https://api.github.com/users/bitcoin/gists%7B/gist_id%7D",
        "starred_url": "https://api.github.com/users/bitcoin/starred%7B/owner%7D%7B/repo%7D",
        "subscriptions_url": "https://api.github.com/users/bitcoin/subscriptions",
        "organizations_url": "https://api.github.com/users/bitcoin/orgs",
        "repos_url": "https://api.github.com/users/bitcoin/repos",
        "events_url": "https://api.github.com/users/bitcoin/events%7B/privacy%7D",
        "received_events_url": "https://api.github.com/users/bitcoin/received_events",
        "type": "Organization",
        "site_admin": false
      },
      "repo": {
        "id": 1181927,
        "node_id": "MDEwOlJlcG9zaXRvcnkxMTgxOTI3",
        "name": "bitcoin",
        "full_name": "bitcoin/bitcoin",
        "owner": {
          "login": "bitcoin",
          "id": 528860,
          "node_id": "MDEyOk9yZ2FuaXphdGlvbjUyODg2MA==",
          "avatar_url": "https://avatars.githubusercontent.com/u/528860?v=4",
          "gravatar_id": "",
          "url": "https://api.github.com/users/bitcoin",
          "html_url": "https://github.com/bitcoin",
          "followers_url": "https://api.github.com/users/bitcoin/followers",
          "following_url": "https://api.github.com/users/bitcoin/following%7B/other_user%7D",
          "gists_url": "https://api.github.com/users/bitcoin/gists%7B/gist_id%7D",
          "starred_url": "https://api.github.com/users/bitcoin/starred%7B/owner%7D%7B/repo%7D",
          "subscriptions_url": "https://api.github.com/users/bitcoin/subscriptions",
          "organizations_url": "https://api.github.com/users/bitcoin/orgs",
          "repos_url": "https://api.github.com/users/bitcoin/repos",
          "events_url": "https://api.github.com/users/bitcoin/events%7B/privacy%7D",
          "received_events_url": "https://api.github.com/users/bitcoin/received_events",
          "type": "Organization",
          "site_admin": false
        },
        "private": false,
        "html_url": "https://github.com/bitcoin/bitcoin",
        "description": "Bitcoin Core integration/staging tree",
        "fork": false,
        "url": "https://api.github.com/repos/bitcoin/bitcoin",
        "archive_url": "https://api.github.com/repos/bitcoin/bitcoin/%7Barchive_format%7D%7B/ref%7D",
        "assignees_url": "https://api.github.com/repos/bitcoin/bitcoin/assignees%7B/user%7D",
        "blobs_url": "https://api.github.com/repos/bitcoin/bitcoin/git/blobs%7B/sha%7D",
        "branches_url": "https://api.github.com/repos/bitcoin/bitcoin/branches%7B/branch%7D",
        "collaborators_url": "https://api.github.com/repos/bitcoin/bitcoin/collaborators%7B/collaborator%7D",
        "comments_url": "https://api.github.com/repos/bitcoin/bitcoin/comments%7B/number%7D",
        "commits_url": "https://api.github.com/repos/bitcoin/bitcoin/commits%7B/sha%7D",
        "compare_url": "https://api.github.com/repos/bitcoin/bitcoin/compare/%7Bbase%7D...%7Bhead%7D",
        "contents_url": "https://api.github.com/repos/bitcoin/bitcoin/contents/%7B+path%7D",
        "contributors_url": "https://api.github.com/repos/bitcoin/bitcoin/contributors",
        "deployments_url": "https://api.github.com/repos/bitcoin/bitcoin/deployments",
        "downloads_url": "https://api.github.com/repos/bitcoin/bitcoin/downloads",
        "events_url": "https://api.github.com/repos/bitcoin/bitcoin/events",
        "forks_url": "https://api.github.com/repos/bitcoin/bitcoin/forks",
        "git_commits_url": "https://api.github.com/repos/bitcoin/bitcoin/git/commits%7B/sha%7D",
        "git_refs_url": "https://api.github.com/repos/bitcoin/bitcoin/git/refs%7B/sha%7D",
        "git_tags_url": "https://api.github.com/repos/bitcoin/bitcoin/git/tags%7B/sha%7D",
        "git_url": "git://github.com/bitcoin/bitcoin.git",
        "issue_comment_url": "https://api.github.com/repos/bitcoin/bitcoin/issues/comments%7B/number%7D",
        "issue_events_url": "https://api.github.com/repos/bitcoin/bitcoin/issues/events%7B/number%7D",
        "issues_url": "https://api.github.com/repos/bitcoin/bitcoin/issues%7B/number%7D",
        "keys_url": "https://api.github.com/repos/bitcoin/bitcoin/keys%7B/key_id%7D",
        "labels_url": "https://api.github.com/repos/bitcoin/bitcoin/labels%7B/name%7D",
        "languages_url": "https://api.github.com/repos/bitcoin/bitcoin/languages",
        "merges_url": "https://api.github.com/repos/bitcoin/bitcoin/merges",
        "milestones_url": "https://api.github.com/repos/bitcoin/bitcoin/milestones%7B/number%7D",
        "notifications_url": "https://api.github.com/repos/bitcoin/bitcoin/notifications%7B?since,all,participating}",
        "pulls_url": "https://api.github.com/repos/bitcoin/bitcoin/pulls%7B/number%7D",
        "releases_url": "https://api.github.com/repos/bitcoin/bitcoin/releases%7B/id%7D",
        "ssh_url": "git@github.com:bitcoin/bitcoin.git",
        "stargazers_url": "https://api.github.com/repos/bitcoin/bitcoin/stargazers",
        "statuses_url": "https://api.github.com/repos/bitcoin/bitcoin/statuses/%7Bsha%7D",
        "subscribers_url": "https://api.github.com/repos/bitcoin/bitcoin/subscribers",
        "subscription_url": "https://api.github.com/repos/bitcoin/bitcoin/subscription",
        "tags_url": "https://api.github.com/repos/bitcoin/bitcoin/tags",
        "teams_url": "https://api.github.com/repos/bitcoin/bitcoin/teams",
        "trees_url": "https://api.github.com/repos/bitcoin/bitcoin/git/trees%7B/sha%7D",
        "clone_url": "https://github.com/bitcoin/bitcoin.git",
        "hooks_url": "https://api.github.com/repos/bitcoin/bitcoin/hooks",
        "svn_url": "https://github.com/bitcoin/bitcoin",
        "homepage": "https://bitcoincore.org/en/download",
        "language": "C++",
        "forks_count": 35476,
        "stargazers_count": 70608,
        "watchers_count": 70608,
        "size": 236222,
        "default_branch": "master",
        "open_issues_count": 673,
        "is_template": false,
        "topics": [
          "bitcoin",
          "c-plus-plus",
          "cryptocurrency",
          "cryptography",
          "p2p"
        ],
        "has_issues": true,
        "has_projects": true,
        "has_wiki": false,
        "has_pages": false,
        "has_downloads": false,
        "archived": false,
        "disabled": false,
        "visibility": "public",
        "pushed_at": "2023-08-03T00:03:27Z",
        "created_at": "2010-12-19T15:16:43Z",
        "updated_at": "2023-08-02T18:21:18Z",
        "license": {
          "key": "mit",
          "name": "MIT License",
          "node_id": "MDc6TGljZW5zZTEz",
          "spdx_id": "MIT",
          "url": "https://api.github.com/licenses/mit",
          "html_url": null,
          "description": null,
          "implementation": null,
          "permissions": null,
          "conditions": null,
          "limitations": null,
          "body": null,
          "featured": null
        }
      }
    },
    "_links": {
      "self": {
        "href": "https://api.github.com/repos/bitcoin/bitcoin/pulls/27287"
      }
    },
    "author_association": "MEMBER",
    "draft": false,
    "additions": 30,
    "deletions": 32,
    "changed_files": 2,
    "commits": 1,
    "review_comments": 1,
    "comments": 1
  },
  "events": [
    {
      "event": "committed",
      "id": null,
      "node_id": "C_kwDOABII59oAKGZhMDY5NmU3ODYzYWYwM2VmYmZmYTAyNmMyMDYwZmYyYjU3MjBmYjE",
      "url": "https://api.github.com/repos/bitcoin/bitcoin/git/commits/fa0696e7863af03efbffa026c2060ff2b5720fb1",
      "actor": null,
      "commit_id": null,
      "commit_url": null,
      "created_at": null,
      "html_url": "https://github.com/bitcoin/bitcoin/commit/fa0696e7863af03efbffa026c2060ff2b5720fb1",
      "tree": {
        "sha": "1e328f00c18251f94deac43322e7db47d2729ec0",
        "url": "https://api.github.com/repos/bitcoin/bitcoin/git/trees/1e328f00c18251f94deac43322e7db47d2729ec0"
      },
      "verification": {
        "verified": false,
        "reason": "no_user",
        "payload": "tree 1e328f00c18251f94deac43322e7db47d2729ec0\nparent 40e1c4d4024b8ad35f2511b2e10bf80c5531dfde\nauthor MarcoFalke <*~=`'#}+{/-|&$^_@721217.xyz> 1679388422 +0100\ncommitter MarcoFalke <*~=`'#}+{/-|&$^_@721217.xyz> 1679388579 +0100\n\ntest: Replace threading with concurrent.futures\n",
        "signature": "-----BEGIN SSH SIGNATURE-----\nU1NIU0lHAAAAAQAAADMAAAALc3NoLWVkMjU1MTkAAAAgqxY/aMPiuXoCFn6iAEyAhvUqFX\njanTudd31Jtt35ct0AAAADZ2l0AAAAAAAAAAZzaGE1MTIAAABTAAAAC3NzaC1lZDI1NTE5\nAAAAQC80oetJFJPD+OLFCjDunQNSUQnT4QB1QxIXntEI0/v8whbBz78Y8NIxdiUGmcz3fT\nzhgw2/L9fPSIlrmo8IsA0=\n-----END SSH SIGNATURE-----"
      },
      "parents": [
        {
          "url": "https://api.github.com/repos/bitcoin/bitcoin/git/commits/40e1c4d4024b8ad35f2511b2e10bf80c5531dfde",
          "sha": "40e1c4d4024b8ad35f2511b2e10bf80c5531dfde",
          "html_url": "https://github.com/bitcoin/bitcoin/commit/40e1c4d4024b8ad35f2511b2e10bf80c5531dfde"
        }
      ],
      "message": "test: Replace threading with concurrent.futures",
      "committer": {
        "name": "MarcoFalke",
        "email": "*~=`'#}+{/-|&$^_@721217.xyz",
        "date": "2023-03-21T08:49:39Z"
      },
      "author": {
        "name": "MarcoFalke",
        "email": "*~=`'#}+{/-|&$^_@721217.xyz",
        "date": "2023-03-21T08:47:02Z"
      },
      "sha": "fa0696e7863af03efbffa026c2060ff2b5720fb1"
    },
    {
      "event": "commented",
      "id": 1477475720,
      "node_id": "IC_kwDOABII585YEH2I",
      "url": "https://api.github.com/repos/bitcoin/bitcoin/issues/comments/1477475720",
      "actor": {
        "login": "DrahtBot",
        "id": 39886733,
        "node_id": "MDQ6VXNlcjM5ODg2NzMz",
        "avatar_url": "https://avatars.githubusercontent.com/u/39886733?v=4",
        "gravatar_id": "",
        "url": "https://api.github.com/users/DrahtBot",
        "html_url": "https://github.com/DrahtBot",
        "followers_url": "https://api.github.com/users/DrahtBot/followers",
        "following_url": "https://api.github.com/users/DrahtBot/following%7B/other_user%7D",
        "gists_url": "https://api.github.com/users/DrahtBot/gists%7B/gist_id%7D",
        "starred_url": "https://api.github.com/users/DrahtBot/starred%7B/owner%7D%7B/repo%7D",
        "subscriptions_url": "https://api.github.com/users/DrahtBot/subscriptions",
        "organizations_url": "https://api.github.com/users/DrahtBot/orgs",
        "repos_url": "https://api.github.com/users/DrahtBot/repos",
        "events_url": "https://api.github.com/users/DrahtBot/events%7B/privacy%7D",
        "received_events_url": "https://api.github.com/users/DrahtBot/received_events",
        "type": "User",
        "site_admin": false
      },
      "commit_id": null,
      "commit_url": null,
      "created_at": "2023-03-21T08:59:59Z",
      "updated_at": "2023-03-23T14:11:23Z",
      "author_association": "CONTRIBUTOR",
      "body": "<!--e57a25ab6845829454e8d69fc972939a-->\n\nThe following sections might be updated with supplementary metadata relevant to reviewers and maintainers.\n\n<!--021abf342d371248e50ceaed478a90ca-->\n### Reviews\nSee [the guideline](https://github.com/bitcoin/bitcoin/blob/master/CONTRIBUTING.md#code-review) for information on the review process.\n| Type | Reviewers |\n| ---- | --------- |\n| ACK | [ishaanam](https://github.com/bitcoin/bitcoin/pull/27287#pullrequestreview-1351516436), [stickies-v](https://github.com/bitcoin/bitcoin/pull/27287#pullrequestreview-1354697003) |\n\nIf your review is incorrectly listed, please react with 👎 to this comment and the bot will ignore it on the next update.\n<!--174a7506f384e20aa4161008e828411d-->\n### Conflicts\nReviewers, this pull request conflicts with the following ones:\n\n* [#22838](https://github.com/bitcoin/bitcoin/pull/22838) (descriptors: Be able to specify change and receiving in a single descriptor string by achow101)\n\nIf you consider this pull request important, please also help to review the conflicting pull requests. Ideally, start with the one that should be merged first.\n",
      "user": {
        "login": "DrahtBot",
        "id": 39886733,
        "node_id": "MDQ6VXNlcjM5ODg2NzMz",
        "avatar_url": "https://avatars.githubusercontent.com/u/39886733?v=4",
        "gravatar_id": "",
        "url": "https://api.github.com/users/DrahtBot",
        "html_url": "https://github.com/DrahtBot",
        "followers_url": "https://api.github.com/users/DrahtBot/followers",
        "following_url": "https://api.github.com/users/DrahtBot/following%7B/other_user%7D",
        "gists_url": "https://api.github.com/users/DrahtBot/gists%7B/gist_id%7D",
        "starred_url": "https://api.github.com/users/DrahtBot/starred%7B/owner%7D%7B/repo%7D",
        "subscriptions_url": "https://api.github.com/users/DrahtBot/subscriptions",
        "organizations_url": "https://api.github.com/users/DrahtBot/orgs",
        "repos_url": "https://api.github.com/users/DrahtBot/repos",
        "events_url": "https://api.github.com/users/DrahtBot/events%7B/privacy%7D",
        "received_events_url": "https://api.github.com/users/DrahtBot/received_events",
        "type": "User",
        "site_admin": false
      },
      "html_url": "https://github.com/bitcoin/bitcoin/pull/27287#issuecomment-1477475720",
      "issue_url": "https://api.github.com/repos/bitcoin/bitcoin/issues/27287"
    },
    {
      "event": "labeled",
      "id": 8802855984,
      "node_id": "LE_lADOABII585hXM9jzwAAAAIMsOww",
      "url": "https://api.github.com/repos/bitcoin/bitcoin/issues/events/8802855984",
      "actor": {
        "login": "DrahtBot",
        "id": 39886733,
        "node_id": "MDQ6VXNlcjM5ODg2NzMz",
        "avatar_url": "https://avatars.githubusercontent.com/u/39886733?v=4",
        "gravatar_id": "",
        "url": "https://api.github.com/users/DrahtBot",
        "html_url": "https://github.com/DrahtBot",
        "followers_url": "https://api.github.com/users/DrahtBot/followers",
        "following_url": "https://api.github.com/users/DrahtBot/following%7B/other_user%7D",
        "gists_url": "https://api.github.com/users/DrahtBot/gists%7B/gist_id%7D",
        "starred_url": "https://api.github.com/users/DrahtBot/starred%7B/owner%7D%7B/repo%7D",
        "subscriptions_url": "https://api.github.com/users/DrahtBot/subscriptions",
        "organizations_url": "https://api.github.com/users/DrahtBot/orgs",
        "repos_url": "https://api.github.com/users/DrahtBot/repos",
        "events_url": "https://api.github.com/users/DrahtBot/events%7B/privacy%7D",
        "received_events_url": "https://api.github.com/users/DrahtBot/received_events",
        "type": "User",
        "site_admin": false
      },
      "commit_id": null,
      "commit_url": null,
      "created_at": "2023-03-21T09:00:01Z",
      "label": {
        "name": "Tests",
        "color": "d4c5f9"
      }
    },
    {
      "event": "cross-referenced",
      "id": null,
      "node_id": null,
      "url": null,
      "actor": {
        "login": "MarcoFalke",
        "id": 6399679,
        "node_id": "MDQ6VXNlcjYzOTk2Nzk=",
        "avatar_url": "https://avatars.githubusercontent.com/u/6399679?v=4",
        "gravatar_id": "",
        "url": "https://api.github.com/users/MarcoFalke",
        "html_url": "https://github.com/MarcoFalke",
        "followers_url": "https://api.github.com/users/MarcoFalke/followers",
        "following_url": "https://api.github.com/users/MarcoFalke/following%7B/other_user%7D",
        "gists_url": "https://api.github.com/users/MarcoFalke/gists%7B/gist_id%7D",
        "starred_url": "https://api.github.com/users/MarcoFalke/starred%7B/owner%7D%7B/repo%7D",
        "subscriptions_url": "https://api.github.com/users/MarcoFalke/subscriptions",
        "organizations_url": "https://api.github.com/users/MarcoFalke/orgs",
        "repos_url": "https://api.github.com/users/MarcoFalke/repos",
        "events_url": "https://api.github.com/users/MarcoFalke/events%7B/privacy%7D",
        "received_events_url": "https://api.github.com/users/MarcoFalke/received_events",
        "type": "User",
        "site_admin": false
      },
      "commit_id": null,
      "commit_url": null,
      "created_at": "2023-03-21T09:03:01Z",
      "updated_at": "2023-03-21T09:03:01Z",
      "source": {
        "issue": {
          "id": 1631892545,
          "node_id": "I_kwDOABII585hRLRB",
          "url": "https://api.github.com/repos/bitcoin/bitcoin/issues/27282",
          "repository_url": "https://api.github.com/repos/bitcoin/bitcoin",
          "labels_url": "https://api.github.com/repos/bitcoin/bitcoin/issues/27282/labels%7B/name%7D",
          "comments_url": "https://api.github.com/repos/bitcoin/bitcoin/issues/27282/comments",
          "events_url": "https://api.github.com/repos/bitcoin/bitcoin/issues/27282/events",
          "html_url": "https://github.com/bitcoin/bitcoin/issues/27282",
          "number": 27282,
          "state": "closed",
          "state_reason": "completed",
          "title": "test: `wallet_importdescriptors.py --descriptors` failure",
          "body": "Seen on a aarch64 Alpine box. Master @ https://github.com/bitcoin/bitcoin/commit/40e1c4d4024b8ad35f2511b2e10bf80c5531dfde. Binaries compiled with Clang 15.0.7. Valgrind `valgrind-3.21.0.GIT`.\r\n\r\nWe saw some issues with this test recently (#27229), but this looks like a different issue:\r\n\r\n```bash\r\n261/262 - wallet_importdescriptors.py --descriptors failed, Duration: 411 s\r\n\r\nstdout:\r\n2023-03-20T10:39:03.422000Z TestFramework (INFO): PRNG seed is: 4441145092714460381\r\n2023-03-20T10:39:03.423000Z TestFramework (INFO): Initializing test directory /tmp/test_runner_₿_🏃_20230320_101936/wallet_importdescriptors_88\r\n2023-03-20T10:39:08.174000Z TestFramework (INFO): Setting up wallets\r\n2023-03-20T10:39:09.056000Z TestFramework (INFO): Mining coins\r\n2023-03-20T10:39:10.636000Z TestFramework (INFO): Import should fail if a descriptor is not provided\r\n2023-03-20T10:39:10.649000Z TestFramework (INFO): Should import a p2pkh descriptor\r\n2023-03-20T10:39:10.799000Z TestFramework (INFO): Test can import same descriptor with public key twice\r\n2023-03-20T10:39:10.835000Z TestFramework (INFO): Test can update descriptor label\r\n2023-03-20T10:39:10.870000Z TestFramework (INFO): Internal addresses cannot have labels\r\n2023-03-20T10:39:10.874000Z TestFramework (INFO): Internal addresses should be detected as such\r\n2023-03-20T10:39:10.915000Z TestFramework (INFO): Should not import a p2sh-p2wpkh descriptor without checksum\r\n2023-03-20T10:39:10.919000Z TestFramework (INFO): Should not import a p2sh-p2wpkh descriptor that has range specified\r\n2023-03-20T10:39:10.926000Z TestFramework (INFO): Should not import a p2sh-p2wpkh descriptor and have it set to active\r\n2023-03-20T10:39:10.930000Z TestFramework (INFO): Should import a (non-active) p2sh-p2wpkh descriptor\r\n2023-03-20T10:39:11.107000Z TestFramework (INFO): Should import a 1-of-2 bare multisig from descriptor\r\n2023-03-20T10:39:11.147000Z TestFramework (INFO): Should not treat individual keys from the imported bare multisig as watchonly\r\n2023-03-20T10:39:11.151000Z TestFramework (INFO): Ranged descriptors cannot have labels\r\n2023-03-20T10:39:11.160000Z TestFramework (INFO): Private keys required for private keys enabled wallet\r\n2023-03-20T10:39:11.177000Z TestFramework (INFO): Ranged descriptor import should warn without a specified range\r\n2023-03-20T10:39:11.234000Z TestFramework (INFO): Should not import a ranged descriptor that includes xpriv into a watch-only wallet\r\n2023-03-20T10:39:11.242000Z TestFramework (INFO): Should not import a descriptor with hardened derivations when private keys are disabled\r\n2023-03-20T10:39:11.281000Z TestFramework (INFO): Verify we can only extend descriptor's range\r\n2023-03-20T10:39:11.765000Z TestFramework (INFO): Check we can change descriptor internal flag\r\n2023-03-20T10:39:12.046000Z TestFramework (INFO): Key ranges should be imported in order\r\n2023-03-20T10:39:12.431000Z TestFramework (INFO): Check we can change next_index\r\n2023-03-20T10:39:12.709000Z TestFramework (INFO): Check imported descriptors are not active by default\r\n2023-03-20T10:39:12.754000Z TestFramework (INFO): Check can activate inactive descriptor\r\n2023-03-20T10:39:12.811000Z TestFramework (INFO): Check can deactivate active descriptor\r\n2023-03-20T10:39:12.862000Z TestFramework (INFO): Verify activation state is persistent\r\n2023-03-20T10:39:12.942000Z TestFramework (INFO): Should import a descriptor with a WIF private key as spendable\r\n2023-03-20T10:39:12.978000Z TestFramework (INFO): Test can import same descriptor with private key twice\r\n2023-03-20T10:39:14.574000Z TestFramework (INFO): Test that multisigs can be imported, signed for, and getnewaddress'd\r\n2023-03-20T10:39:35.707000Z TestFramework (INFO): Multisig with distributed keys\r\n2023-03-20T10:39:46.670000Z TestFramework (INFO): We can create and use a huge multisig under P2WSH\r\n2023-03-20T10:40:19.550000Z TestFramework (INFO): Under P2SH, multisig are standard with up to 15 compressed keys\r\n2023-03-20T10:40:45.496000Z TestFramework (INFO): Amending multisig with new private keys\r\n2023-03-20T10:40:51.063000Z TestFramework (INFO): Combo descriptors cannot be active\r\n2023-03-20T10:40:51.068000Z TestFramework (INFO): Descriptors with no type cannot be active\r\n2023-03-20T10:40:51.127000Z TestFramework (INFO): Test importing a descriptor to an encrypted wallet\r\n2023-03-20T10:41:54.188000Z TestFramework (INFO): Stopping nodes\r\n2023-03-20T10:45:54.240000Z TestFramework.utils (ERROR): wait_until() failed. Predicate: ''''\r\n    def is_node_stopped(self):\r\n        \"\"\"Checks whether the node has stopped.\r\n\r\n        Returns True if the node has stopped. False otherwise.\r\n        This method is responsible for freeing resources (self.process).\"\"\"\r\n        if not self.running:\r\n            return True\r\n        return_code = self.process.poll()\r\n        if return_code is None:\r\n            return False\r\n\r\n        # process has stopped. Assert that it didn't return an error code.\r\n        assert return_code == 0, self._node_msg(\r\n            \"Node returned non-zero exit code (%d) when stopping\" % return_code)\r\n        self.running = False\r\n        self.process = None\r\n        self.rpc_connected = False\r\n        self.rpc = None\r\n        self.log.debug(\"Node stopped\")\r\n        return True\r\n'''\r\n[node 1] Cleaning up leftover process\r\n[node 0] Cleaning up leftover process\r\n\r\n\r\nstderr:\r\nException in thread Thread-1:\r\nTraceback (most recent call last):\r\n  File \"/usr/lib/python3.10/threading.py\", line 1016, in _bootstrap_inner\r\n    self.run()\r\n  File \"/usr/lib/python3.10/threading.py\", line 953, in run\r\n    self._target(*self._args, **self._kwargs)\r\n  File \"/bitcoin/test/functional/test_framework/coverage.py\", line 49, in __call__\r\n    return_val = self.auth_service_proxy_instance.__call__(*args, **kwargs)\r\n  File \"/bitcoin/test/functional/test_framework/authproxy.py\", line 149, in __call__\r\n    raise JSONRPCException(response['error'], status)\r\ntest_framework.authproxy.JSONRPCException: Error: Please enter the wallet passphrase with walletpassphrase first. (-13)\r\nTraceback (most recent call last):\r\n  File \"/bitcoin/test/functional/wallet_importdescriptors.py\", line 717, in <module>\r\n    ImportDescriptorsTest().main()\r\n  File \"/bitcoin/test/functional/test_framework/test_framework.py\", line 155, in main\r\n    exit_code = self.shutdown()\r\n  File \"/bitcoin/test/functional/test_framework/test_framework.py\", line 314, in shutdown\r\n    self.stop_nodes()\r\n  File \"/bitcoin/test/functional/test_framework/test_framework.py\", line 582, in stop_nodes\r\n    node.wait_until_stopped()\r\n  File \"/bitcoin/test/functional/test_framework/test_node.py\", line 388, in wait_until_stopped\r\n    wait_until_helper(self.is_node_stopped, timeout=timeout, timeout_factor=self.timeout_factor)\r\n  File \"/bitcoin/test/functional/test_framework/util.py\", line 281, in wait_until_helper\r\n    raise AssertionError(\"Predicate {} not true after {} seconds\".format(predicate_source, timeout))\r\nAssertionError: Predicate ''''\r\n    def is_node_stopped(self):\r\n        \"\"\"Checks whether the node has stopped.\r\n\r\n        Returns True if the node has stopped. False otherwise.\r\n        This method is responsible for freeing resources (self.process).\"\"\"\r\n        if not self.running:\r\n            return True\r\n        return_code = self.process.poll()\r\n        if return_code is None:\r\n            return False\r\n\r\n        # process has stopped. Assert that it didn't return an error code.\r\n        assert return_code == 0, self._node_msg(\r\n            \"Node returned non-zero exit code (%d) when stopping\" % return_code)\r\n        self.running = False\r\n        self.process = None\r\n        self.rpc_connected = False\r\n        self.rpc = None\r\n        self.log.debug(\"Node stopped\")\r\n        return True\r\n''' not true after 240 seconds\r\n```",
          "user": {
            "login": "fanquake",
            "id": 863730,
            "node_id": "MDQ6VXNlcjg2MzczMA==",
            "avatar_url": "https://avatars.githubusercontent.com/u/863730?v=4",
            "gravatar_id": "",
            "url": "https://api.github.com/users/fanquake",
            "html_url": "https://github.com/fanquake",
            "followers_url": "https://api.github.com/users/fanquake/followers",
            "following_url": "https://api.github.com/users/fanquake/following%7B/other_user%7D",
            "gists_url": "https://api.github.com/users/fanquake/gists%7B/gist_id%7D",
            "starred_url": "https://api.github.com/users/fanquake/starred%7B/owner%7D%7B/repo%7D",
            "subscriptions_url": "https://api.github.com/users/fanquake/subscriptions",
            "organizations_url": "https://api.github.com/users/fanquake/orgs",
            "repos_url": "https://api.github.com/users/fanquake/repos",
            "events_url": "https://api.github.com/users/fanquake/events%7B/privacy%7D",
            "received_events_url": "https://api.github.com/users/fanquake/received_events",
            "type": "User",
            "site_admin": false
          },
          "labels": [
            {
              "id": 149424,
              "node_id": "MDU6TGFiZWwxNDk0MjQ=",
              "url": "https://api.github.com/repos/bitcoin/bitcoin/labels/Wallet",
              "name": "Wallet",
              "color": "08a781",
              "default": false
            },
            {
              "id": 62963516,
              "node_id": "MDU6TGFiZWw2Mjk2MzUxNg==",
              "url": "https://api.github.com/repos/bitcoin/bitcoin/labels/Tests",
              "name": "Tests",
              "color": "d4c5f9",
              "default": false
            }
          ],
          "assignees": [],
          "author_association": "MEMBER",
          "locked": false,
          "comments": 13,
          "closed_at": "2023-04-15T11:48:49Z",
          "created_at": "2023-03-20T11:11:40Z",
          "updated_at": "2023-04-15T11:48:49Z"
        },
        "type": "issue"
      }
    },
    {
      "event": "review_requested",
      "id": 8804937079,
      "node_id": "RRE_lADOABII585hXM9jzwAAAAIM0K13",
      "url": "https://api.github.com/repos/bitcoin/bitcoin/issues/events/8804937079",
      "actor": {
        "login": "fanquake",
        "id": 863730,
        "node_id": "MDQ6VXNlcjg2MzczMA==",
        "avatar_url": "https://avatars.githubusercontent.com/u/863730?v=4",
        "gravatar_id": "",
        "url": "https://api.github.com/users/fanquake",
        "html_url": "https://github.com/fanquake",
        "followers_url": "https://api.github.com/users/fanquake/followers",
        "following_url": "https://api.github.com/users/fanquake/following%7B/other_user%7D",
        "gists_url": "https://api.github.com/users/fanquake/gists%7B/gist_id%7D",
        "starred_url": "https://api.github.com/users/fanquake/starred%7B/owner%7D%7B/repo%7D",
        "subscriptions_url": "https://api.github.com/users/fanquake/subscriptions",
        "organizations_url": "https://api.github.com/users/fanquake/orgs",
        "repos_url": "https://api.github.com/users/fanquake/repos",
        "events_url": "https://api.github.com/users/fanquake/events%7B/privacy%7D",
        "received_events_url": "https://api.github.com/users/fanquake/received_events",
        "type": "User",
        "site_admin": false
      },
      "commit_id": null,
      "commit_url": null,
      "created_at": "2023-03-21T12:27:52Z",
      "requested_reviewer": {
        "login": "ishaanam",
        "id": 75942586,
        "node_id": "MDQ6VXNlcjc1OTQyNTg2",
        "avatar_url": "https://avatars.githubusercontent.com/u/75942586?v=4",
        "gravatar_id": "",
        "url": "https://api.github.com/users/ishaanam",
        "html_url": "https://github.com/ishaanam",
        "followers_url": "https://api.github.com/users/ishaanam/followers",
        "following_url": "https://api.github.com/users/ishaanam/following%7B/other_user%7D",
        "gists_url": "https://api.github.com/users/ishaanam/gists%7B/gist_id%7D",
        "starred_url": "https://api.github.com/users/ishaanam/starred%7B/owner%7D%7B/repo%7D",
        "subscriptions_url": "https://api.github.com/users/ishaanam/subscriptions",
        "organizations_url": "https://api.github.com/users/ishaanam/orgs",
        "repos_url": "https://api.github.com/users/ishaanam/repos",
        "events_url": "https://api.github.com/users/ishaanam/events%7B/privacy%7D",
        "received_events_url": "https://api.github.com/users/ishaanam/received_events",
        "type": "User",
        "site_admin": false
      },
      "review_requester": {
        "login": "fanquake",
        "id": 863730,
        "node_id": "MDQ6VXNlcjg2MzczMA==",
        "avatar_url": "https://avatars.githubusercontent.com/u/863730?v=4",
        "gravatar_id": "",
        "url": "https://api.github.com/users/fanquake",
        "html_url": "https://github.com/fanquake",
        "followers_url": "https://api.github.com/users/fanquake/followers",
        "following_url": "https://api.github.com/users/fanquake/following%7B/other_user%7D",
        "gists_url": "https://api.github.com/users/fanquake/gists%7B/gist_id%7D",
        "starred_url": "https://api.github.com/users/fanquake/starred%7B/owner%7D%7B/repo%7D",
        "subscriptions_url": "https://api.github.com/users/fanquake/subscriptions",
        "organizations_url": "https://api.github.com/users/fanquake/orgs",
        "repos_url": "https://api.github.com/users/fanquake/repos",
        "events_url": "https://api.github.com/users/fanquake/events%7B/privacy%7D",
        "received_events_url": "https://api.github.com/users/fanquake/received_events",
        "type": "User",
        "site_admin": false
      }
    },
    {
      "event": "cross-referenced",
      "id": null,
      "node_id": null,
      "url": null,
      "actor": {
        "login": "DrahtBot",
        "id": 39886733,
        "node_id": "MDQ6VXNlcjM5ODg2NzMz",
        "avatar_url": "https://avatars.githubusercontent.com/u/39886733?v=4",
        "gravatar_id": "",
        "url": "https://api.github.com/users/DrahtBot",
        "html_url": "https://github.com/DrahtBot",
        "followers_url": "https://api.github.com/users/DrahtBot/followers",
        "following_url": "https://api.github.com/users/DrahtBot/following%7B/other_user%7D",
        "gists_url": "https://api.github.com/users/DrahtBot/gists%7B/gist_id%7D",
        "starred_url": "https://api.github.com/users/DrahtBot/starred%7B/owner%7D%7B/repo%7D",
        "subscriptions_url": "https://api.github.com/users/DrahtBot/subscriptions",
        "organizations_url": "https://api.github.com/users/DrahtBot/orgs",
        "repos_url": "https://api.github.com/users/DrahtBot/repos",
        "events_url": "https://api.github.com/users/DrahtBot/events%7B/privacy%7D",
        "received_events_url": "https://api.github.com/users/DrahtBot/received_events",
        "type": "User",
        "site_admin": false
      },
      "commit_id": null,
      "commit_url": null,
      "created_at": "2023-03-21T19:50:52Z",
      "updated_at": "2023-03-21T19:50:52Z",
      "source": {
        "issue": {
          "id": 983140832,
          "node_id": "MDExOlB1bGxSZXF1ZXN0NzIyNzY4MTc5",
          "url": "https://api.github.com/repos/bitcoin/bitcoin/issues/22838",
          "repository_url": "https://api.github.com/repos/bitcoin/bitcoin",
          "labels_url": "https://api.github.com/repos/bitcoin/bitcoin/issues/22838/labels%7B/name%7D",
          "comments_url": "https://api.github.com/repos/bitcoin/bitcoin/issues/22838/comments",
          "events_url": "https://api.github.com/repos/bitcoin/bitcoin/issues/22838/events",
          "html_url": "https://github.com/bitcoin/bitcoin/pull/22838",
          "number": 22838,
          "state": "open",
          "state_reason": null,
          "title": "descriptors: Be able to specify change and receiving in a single descriptor string",
          "body": "It is convenient to have a descriptor which specifies both receiving and change addresses in a single string. However, as discussed in https://github.com/bitcoin/bitcoin/issues/17190#issuecomment-895515768, it is not feasible to use a generic multipath specification like BIP 88 due to combinatorial blow up and that it would result in unexpected descriptors.\r\n\r\nTo resolve that problem, this PR proposes a targeted solution which allows only a single pair of 2 derivation indexes to be inserted in the place of a single derivation index. So instead of two descriptor `wpkh(xpub.../0/0/*)` and `wpkh(xpub.../0/1/*)` to represent receive and change addresses, this could be written as `wpkh(xpub.../0/<0;1>/*)`. The multipath specifier is of the form `<NUM;NUM>`. Each `NUM` can have its own hardened specifier, e.g. `<0;1h>` is valid. The multipath specifier can also only appear in one path index in the derivation path.\r\n\r\nThis results in the parser returning two descriptors. The first descriptor uses the first `NUM` in all pairs present, and the second uses the second `NUM`. In our implementation, if a multipath descriptor is not provided, a pair is still returned, but the second element is just `nullptr`.\r\n\r\nThe wallet will not output the multipath descriptors (yet). Furthermore, when a multipath descriptor is imported, it is expanded to the two descriptors and each imported on its own, with the second descriptor being implicitly for internal (change) addresses. There is no change to how the wallet stores or outputs descriptors (yet).\r\n\r\nNote that the path specifier is different from what was proposed. It uses angle brackets and the semicolon because these are unused characters available in the character set and I wanted to avoid conflicts with characters already in use in descriptors.\r\n\r\nCloses #17190 ",
          "user": {
            "login": "achow101",
            "id": 3782274,
            "node_id": "MDQ6VXNlcjM3ODIyNzQ=",
            "avatar_url": "https://avatars.githubusercontent.com/u/3782274?v=4",
            "gravatar_id": "",
            "url": "https://api.github.com/users/achow101",
            "html_url": "https://github.com/achow101",
            "followers_url": "https://api.github.com/users/achow101/followers",
            "following_url": "https://api.github.com/users/achow101/following%7B/other_user%7D",
            "gists_url": "https://api.github.com/users/achow101/gists%7B/gist_id%7D",
            "starred_url": "https://api.github.com/users/achow101/starred%7B/owner%7D%7B/repo%7D",
            "subscriptions_url": "https://api.github.com/users/achow101/subscriptions",
            "organizations_url": "https://api.github.com/users/achow101/orgs",
            "repos_url": "https://api.github.com/users/achow101/repos",
            "events_url": "https://api.github.com/users/achow101/events%7B/privacy%7D",
            "received_events_url": "https://api.github.com/users/achow101/received_events",
            "type": "User",
            "site_admin": false
          },
          "labels": [
            {
              "id": 149424,
              "node_id": "MDU6TGFiZWwxNDk0MjQ=",
              "url": "https://api.github.com/repos/bitcoin/bitcoin/labels/Wallet",
              "name": "Wallet",
              "color": "08a781",
              "default": false
            },
            {
              "id": 98279177,
              "node_id": "MDU6TGFiZWw5ODI3OTE3Nw==",
              "url": "https://api.github.com/repos/bitcoin/bitcoin/labels/RPC/REST/ZMQ",
              "name": "RPC/REST/ZMQ",
              "color": "0052cc",
              "default": false
            },
            {
              "id": 1482182044,
              "node_id": "MDU6TGFiZWwxNDgyMTgyMDQ0",
              "url": "https://api.github.com/repos/bitcoin/bitcoin/labels/Descriptors",
              "name": "Descriptors",
              "description": "",
              "color": "e9f76c",
              "default": false
            }
          ],
          "assignees": [],
          "author_association": "MEMBER",
          "locked": false,
          "comments": 32,
          "pull_request": {
            "url": "https://api.github.com/repos/bitcoin/bitcoin/pulls/22838",
            "html_url": "https://github.com/bitcoin/bitcoin/pull/22838",
            "diff_url": "https://github.com/bitcoin/bitcoin/pull/22838.diff",
            "patch_url": "https://github.com/bitcoin/bitcoin/pull/22838.patch"
          },
          "created_at": "2021-08-30T19:46:34Z",
          "updated_at": "2023-08-01T13:03:04Z"
        },
        "type": "issue"
      }
    },
    {
      "event": "reviewed",
      "id": 1351516436,
      "node_id": "PRR_kwDOABII585QjoEU",
      "url": null,
      "actor": null,
      "commit_id": "fa0696e7863af03efbffa026c2060ff2b5720fb1",
      "commit_url": null,
      "created_at": null,
      "author_association": "CONTRIBUTOR",
      "body": "ACK fa0696e7863af03efbffa026c2060ff2b5720fb1\r\nThanks for working on this, these changes should help figure out the occasional failures.",
      "user": {
        "login": "ishaanam",
        "id": 75942586,
        "node_id": "MDQ6VXNlcjc1OTQyNTg2",
        "avatar_url": "https://avatars.githubusercontent.com/u/75942586?v=4",
        "gravatar_id": "",
        "url": "https://api.github.com/users/ishaanam",
        "html_url": "https://github.com/ishaanam",
        "followers_url": "https://api.github.com/users/ishaanam/followers",
        "following_url": "https://api.github.com/users/ishaanam/following%7B/other_user%7D",
        "gists_url": "https://api.github.com/users/ishaanam/gists%7B/gist_id%7D",
        "starred_url": "https://api.github.com/users/ishaanam/starred%7B/owner%7D%7B/repo%7D",
        "subscriptions_url": "https://api.github.com/users/ishaanam/subscriptions",
        "organizations_url": "https://api.github.com/users/ishaanam/orgs",
        "repos_url": "https://api.github.com/users/ishaanam/repos",
        "events_url": "https://api.github.com/users/ishaanam/events%7B/privacy%7D",
        "received_events_url": "https://api.github.com/users/ishaanam/received_events",
        "type": "User",
        "site_admin": false
      },
      "html_url": "https://github.com/bitcoin/bitcoin/pull/27287#pullrequestreview-1351516436",
      "submitted_at": "2023-03-21T23:23:08Z",
      "state": "COMMENTED",
      "pull_request_url": "https://api.github.com/repos/bitcoin/bitcoin/pulls/27287"
    },
    {
      "event": "assigned",
      "id": 8813515531,
      "node_id": "AE_lADOABII585hXM9jzwAAAAINU5ML",
      "url": "https://api.github.com/repos/bitcoin/bitcoin/issues/events/8813515531",
      "actor": {
        "login": "MarcoFalke",
        "id": 6399679,
        "node_id": "MDQ6VXNlcjYzOTk2Nzk=",
        "avatar_url": "https://avatars.githubusercontent.com/u/6399679?v=4",
        "gravatar_id": "",
        "url": "https://api.github.com/users/MarcoFalke",
        "html_url": "https://github.com/MarcoFalke",
        "followers_url": "https://api.github.com/users/MarcoFalke/followers",
        "following_url": "https://api.github.com/users/MarcoFalke/following%7B/other_user%7D",
        "gists_url": "https://api.github.com/users/MarcoFalke/gists%7B/gist_id%7D",
        "starred_url": "https://api.github.com/users/MarcoFalke/starred%7B/owner%7D%7B/repo%7D",
        "subscriptions_url": "https://api.github.com/users/MarcoFalke/subscriptions",
        "organizations_url": "https://api.github.com/users/MarcoFalke/orgs",
        "repos_url": "https://api.github.com/users/MarcoFalke/repos",
        "events_url": "https://api.github.com/users/MarcoFalke/events%7B/privacy%7D",
        "received_events_url": "https://api.github.com/users/MarcoFalke/received_events",
        "type": "User",
        "site_admin": false
      },
      "commit_id": null,
      "commit_url": null,
      "created_at": "2023-03-22T08:02:11Z",
      "assignee": {
        "login": "fanquake",
        "id": 863730,
        "node_id": "MDQ6VXNlcjg2MzczMA==",
        "avatar_url": "https://avatars.githubusercontent.com/u/863730?v=4",
        "gravatar_id": "",
        "url": "https://api.github.com/users/fanquake",
        "html_url": "https://github.com/fanquake",
        "followers_url": "https://api.github.com/users/fanquake/followers",
        "following_url": "https://api.github.com/users/fanquake/following%7B/other_user%7D",
        "gists_url": "https://api.github.com/users/fanquake/gists%7B/gist_id%7D",
        "starred_url": "https://api.github.com/users/fanquake/starred%7B/owner%7D%7B/repo%7D",
        "subscriptions_url": "https://api.github.com/users/fanquake/subscriptions",
        "organizations_url": "https://api.github.com/users/fanquake/orgs",
        "repos_url": "https://api.github.com/users/fanquake/repos",
        "events_url": "https://api.github.com/users/fanquake/events%7B/privacy%7D",
        "received_events_url": "https://api.github.com/users/fanquake/received_events",
        "type": "User",
        "site_admin": false
      }
    },
    {
      "event": "reviewed",
      "id": 1354697003,
      "node_id": "PRR_kwDOABII585Qvwkr",
      "url": null,
      "actor": null,
      "commit_id": "fa0696e7863af03efbffa026c2060ff2b5720fb1",
      "commit_url": null,
      "created_at": null,
      "author_association": "CONTRIBUTOR",
      "body": "ACK fa0696e7863af03efbffa026c2060ff2b5720fb1",
      "user": {
        "login": "stickies-v",
        "id": 69010457,
        "node_id": "MDQ6VXNlcjY5MDEwNDU3",
        "avatar_url": "https://avatars.githubusercontent.com/u/69010457?v=4",
        "gravatar_id": "",
        "url": "https://api.github.com/users/stickies-v",
        "html_url": "https://github.com/stickies-v",
        "followers_url": "https://api.github.com/users/stickies-v/followers",
        "following_url": "https://api.github.com/users/stickies-v/following%7B/other_user%7D",
        "gists_url": "https://api.github.com/users/stickies-v/gists%7B/gist_id%7D",
        "starred_url": "https://api.github.com/users/stickies-v/starred%7B/owner%7D%7B/repo%7D",
        "subscriptions_url": "https://api.github.com/users/stickies-v/subscriptions",
        "organizations_url": "https://api.github.com/users/stickies-v/orgs",
        "repos_url": "https://api.github.com/users/stickies-v/repos",
        "events_url": "https://api.github.com/users/stickies-v/events%7B/privacy%7D",
        "received_events_url": "https://api.github.com/users/stickies-v/received_events",
        "type": "User",
        "site_admin": false
      },
      "html_url": "https://github.com/bitcoin/bitcoin/pull/27287#pullrequestreview-1354697003",
      "submitted_at": "2023-03-23T14:11:20Z",
      "state": "APPROVED",
      "pull_request_url": "https://api.github.com/repos/bitcoin/bitcoin/pulls/27287"
    },
    {
      "event": "merged",
      "id": 8828722844,
      "node_id": "ME_lADOABII585hXM9jzwAAAAIOO56c",
      "url": "https://api.github.com/repos/bitcoin/bitcoin/issues/events/8828722844",
      "actor": {
        "login": "fanquake",
        "id": 863730,
        "node_id": "MDQ6VXNlcjg2MzczMA==",
        "avatar_url": "https://avatars.githubusercontent.com/u/863730?v=4",
        "gravatar_id": "",
        "url": "https://api.github.com/users/fanquake",
        "html_url": "https://github.com/fanquake",
        "followers_url": "https://api.github.com/users/fanquake/followers",
        "following_url": "https://api.github.com/users/fanquake/following%7B/other_user%7D",
        "gists_url": "https://api.github.com/users/fanquake/gists%7B/gist_id%7D",
        "starred_url": "https://api.github.com/users/fanquake/starred%7B/owner%7D%7B/repo%7D",
        "subscriptions_url": "https://api.github.com/users/fanquake/subscriptions",
        "organizations_url": "https://api.github.com/users/fanquake/orgs",
        "repos_url": "https://api.github.com/users/fanquake/repos",
        "events_url": "https://api.github.com/users/fanquake/events%7B/privacy%7D",
        "received_events_url": "https://api.github.com/users/fanquake/received_events",
        "type": "User",
        "site_admin": false
      },
      "commit_id": "483fb8d2165bacafe9c12a829afca248feeeb42f",
      "commit_url": "https://api.github.com/repos/bitcoin/bitcoin/commits/483fb8d2165bacafe9c12a829afca248feeeb42f",
      "created_at": "2023-03-23T15:10:00Z"
    },
    {
      "event": "closed",
      "id": 8828722891,
      "node_id": "CE_lADOABII585hXM9jzwAAAAIOO57L",
      "url": "https://api.github.com/repos/bitcoin/bitcoin/issues/events/8828722891",
      "actor": {
        "login": "fanquake",
        "id": 863730,
        "node_id": "MDQ6VXNlcjg2MzczMA==",
        "avatar_url": "https://avatars.githubusercontent.com/u/863730?v=4",
        "gravatar_id": "",
        "url": "https://api.github.com/users/fanquake",
        "html_url": "https://github.com/fanquake",
        "followers_url": "https://api.github.com/users/fanquake/followers",
        "following_url": "https://api.github.com/users/fanquake/following%7B/other_user%7D",
        "gists_url": "https://api.github.com/users/fanquake/gists%7B/gist_id%7D",
        "starred_url": "https://api.github.com/users/fanquake/starred%7B/owner%7D%7B/repo%7D",
        "subscriptions_url": "https://api.github.com/users/fanquake/subscriptions",
        "organizations_url": "https://api.github.com/users/fanquake/orgs",
        "repos_url": "https://api.github.com/users/fanquake/repos",
        "events_url": "https://api.github.com/users/fanquake/events%7B/privacy%7D",
        "received_events_url": "https://api.github.com/users/fanquake/received_events",
        "type": "User",
        "site_admin": false
      },
      "commit_id": null,
      "commit_url": null,
      "created_at": "2023-03-23T15:10:00Z"
    },
    {
      "event": "head_ref_deleted",
      "id": 8829936511,
      "node_id": "HRDE_lADOABII585hXM9jzwAAAAIOTiN_",
      "url": "https://api.github.com/repos/bitcoin/bitcoin/issues/events/8829936511",
      "actor": {
        "login": "MarcoFalke",
        "id": 6399679,
        "node_id": "MDQ6VXNlcjYzOTk2Nzk=",
        "avatar_url": "https://avatars.githubusercontent.com/u/6399679?v=4",
        "gravatar_id": "",
        "url": "https://api.github.com/users/MarcoFalke",
        "html_url": "https://github.com/MarcoFalke",
        "followers_url": "https://api.github.com/users/MarcoFalke/followers",
        "following_url": "https://api.github.com/users/MarcoFalke/following%7B/other_user%7D",
        "gists_url": "https://api.github.com/users/MarcoFalke/gists%7B/gist_id%7D",
        "starred_url": "https://api.github.com/users/MarcoFalke/starred%7B/owner%7D%7B/repo%7D",
        "subscriptions_url": "https://api.github.com/users/MarcoFalke/subscriptions",
        "organizations_url": "https://api.github.com/users/MarcoFalke/orgs",
        "repos_url": "https://api.github.com/users/MarcoFalke/repos",
        "events_url": "https://api.github.com/users/MarcoFalke/events%7B/privacy%7D",
        "received_events_url": "https://api.github.com/users/MarcoFalke/received_events",
        "type": "User",
        "site_admin": false
      },
      "commit_id": null,
      "commit_url": null,
      "created_at": "2023-03-23T17:00:49Z"
    },
    {
      "event": "referenced",
      "id": 8841755809,
      "node_id": "REFE_lADOABII585hXM9jzwAAAAIPAnyh",
      "url": "https://api.github.com/repos/bitcoin/bitcoin/issues/events/8841755809",
      "actor": {
        "login": "sidhujag",
        "id": 6238042,
        "node_id": "MDQ6VXNlcjYyMzgwNDI=",
        "avatar_url": "https://avatars.githubusercontent.com/u/6238042?v=4",
        "gravatar_id": "",
        "url": "https://api.github.com/users/sidhujag",
        "html_url": "https://github.com/sidhujag",
        "followers_url": "https://api.github.com/users/sidhujag/followers",
        "following_url": "https://api.github.com/users/sidhujag/following%7B/other_user%7D",
        "gists_url": "https://api.github.com/users/sidhujag/gists%7B/gist_id%7D",
        "starred_url": "https://api.github.com/users/sidhujag/starred%7B/owner%7D%7B/repo%7D",
        "subscriptions_url": "https://api.github.com/users/sidhujag/subscriptions",
        "organizations_url": "https://api.github.com/users/sidhujag/orgs",
        "repos_url": "https://api.github.com/users/sidhujag/repos",
        "events_url": "https://api.github.com/users/sidhujag/events%7B/privacy%7D",
        "received_events_url": "https://api.github.com/users/sidhujag/received_events",
        "type": "User",
        "site_admin": false
      },
      "commit_id": "e08d5bf0bb137a867f160e2be0332eb5ccebeef0",
      "commit_url": "https://api.github.com/repos/syscoin/syscoin/commits/e08d5bf0bb137a867f160e2be0332eb5ccebeef0",
      "created_at": "2023-03-24T18:38:32Z"
    }
  ],
  "comments": [
    {
      "url": "https://api.github.com/repos/bitcoin/bitcoin/pulls/comments/1146243249",
      "pull_request_review_id": 1354697003,
      "id": 1146243249,
      "node_id": "PRRC_kwDOABII585EUkix",
      "diff_hunk": "@@ -691,25 +691,24 @@ def run_test(self):\n         descriptor[\"next_index\"] = 0\n \n         encrypted_wallet.walletpassphrase(\"passphrase\", 99999)\n-        t = threading.Thread(target=encrypted_wallet.importdescriptors, args=([descriptor],))\n+        with concurrent.futures.ThreadPoolExecutor(max_workers=1) as thread:",
      "path": "test/functional/wallet_importdescriptors.py",
      "position": 14,
      "original_position": 14,
      "commit_id": "fa0696e7863af03efbffa026c2060ff2b5720fb1",
      "original_commit_id": "fa0696e7863af03efbffa026c2060ff2b5720fb1",
      "in_reply_to_id": null,
      "user": {
        "login": "stickies-v",
        "id": 69010457,
        "node_id": "MDQ6VXNlcjY5MDEwNDU3",
        "avatar_url": "https://avatars.githubusercontent.com/u/69010457?v=4",
        "gravatar_id": "",
        "url": "https://api.github.com/users/stickies-v",
        "html_url": "https://github.com/stickies-v",
        "followers_url": "https://api.github.com/users/stickies-v/followers",
        "following_url": "https://api.github.com/users/stickies-v/following%7B/other_user%7D",
        "gists_url": "https://api.github.com/users/stickies-v/gists%7B/gist_id%7D",
        "starred_url": "https://api.github.com/users/stickies-v/starred%7B/owner%7D%7B/repo%7D",
        "subscriptions_url": "https://api.github.com/users/stickies-v/subscriptions",
        "organizations_url": "https://api.github.com/users/stickies-v/orgs",
        "repos_url": "https://api.github.com/users/stickies-v/repos",
        "events_url": "https://api.github.com/users/stickies-v/events%7B/privacy%7D",
        "received_events_url": "https://api.github.com/users/stickies-v/received_events",
        "type": "User",
        "site_admin": false
      },
      "body": "nit: I think `thread` is a misnomer, even with just 1 worker it's still a `pool` or `executor`. ",
      "created_at": "2023-03-23T13:58:09Z",
      "updated_at": "2023-03-23T14:11:20Z",
      "html_url": "https://github.com/bitcoin/bitcoin/pull/27287#discussion_r1146243249",
      "author_association": "CONTRIBUTOR",
      "_links": {
        "self": {
          "href": "https://api.github.com/repos/bitcoin/bitcoin/pulls/comments/1146243249"
        },
        "pull_request": {
          "href": "https://api.github.com/repos/bitcoin/bitcoin/pulls/27287"
        }
      },
      "start_line": null,
      "original_start_line": null,
      "start_side": null,
      "line": 694,
      "original_line": 694,
      "side": "RIGHT"
    }
  ]
}