{
  "type": "pull",
  "pull": {
    "url": "https://api.github.com/repos/bitcoin/bitcoin/pulls/27379",
    "id": 1297601136,
    "node_id": "PR_kwDOABII585NV9Jw",
    "html_url": "https://github.com/bitcoin/bitcoin/pull/27379",
    "diff_url": "https://github.com/bitcoin/bitcoin/pull/27379.diff",
    "patch_url": "https://github.com/bitcoin/bitcoin/pull/27379.patch",
    "issue_url": "https://api.github.com/repos/bitcoin/bitcoin/issues/27379",
    "commits_url": "https://api.github.com/repos/bitcoin/bitcoin/pulls/27379/commits",
    "review_comments_url": "https://api.github.com/repos/bitcoin/bitcoin/pulls/27379/comments",
    "review_comment_url": "https://api.github.com/repos/bitcoin/bitcoin/pulls/comments%7B/number%7D",
    "comments_url": "https://api.github.com/repos/bitcoin/bitcoin/issues/27379/comments",
    "statuses_url": "https://api.github.com/repos/bitcoin/bitcoin/statuses/3fa4c54ac54b2d738e0c43b57b5c232ee02fe3b3",
    "number": 27379,
    "state": "closed",
    "locked": false,
    "maintainer_can_modify": false,
    "title": "net processing: #26140 follow-ups",
    "user": {
      "login": "dergoegge",
      "id": 8077169,
      "node_id": "MDQ6VXNlcjgwNzcxNjk=",
      "avatar_url": "https://avatars.githubusercontent.com/u/8077169?v=4",
      "gravatar_id": "",
      "url": "https://api.github.com/users/dergoegge",
      "html_url": "https://github.com/dergoegge",
      "followers_url": "https://api.github.com/users/dergoegge/followers",
      "following_url": "https://api.github.com/users/dergoegge/following%7B/other_user%7D",
      "gists_url": "https://api.github.com/users/dergoegge/gists%7B/gist_id%7D",
      "starred_url": "https://api.github.com/users/dergoegge/starred%7B/owner%7D%7B/repo%7D",
      "subscriptions_url": "https://api.github.com/users/dergoegge/subscriptions",
      "organizations_url": "https://api.github.com/users/dergoegge/orgs",
      "repos_url": "https://api.github.com/users/dergoegge/repos",
      "events_url": "https://api.github.com/users/dergoegge/events%7B/privacy%7D",
      "received_events_url": "https://api.github.com/users/dergoegge/received_events",
      "type": "User",
      "site_admin": false
    },
    "body": "Addresses left over feedback from #26140.\r\n\r\n* https://github.com/bitcoin/bitcoin/pull/26140#discussion_r1153498543\r\n* https://github.com/bitcoin/bitcoin/pull/26140#discussion_r1153499627\r\n\r\n`mapRelay` is only accessed from the message processing thread and does not need to be kept in sync with anything validation specific, it is therfore perfectly fine to have it guarded by `g_msgproc_mutex`.",
    "labels": [
      {
        "id": 98298007,
        "node_id": "MDU6TGFiZWw5ODI5ODAwNw==",
        "url": "https://api.github.com/repos/bitcoin/bitcoin/labels/P2P",
        "name": "P2P",
        "color": "006b75",
        "default": false
      }
    ],
    "created_at": "2023-03-31T11:21:32Z",
    "updated_at": "2023-04-02T11:42:17Z",
    "closed_at": "2023-04-02T11:42:17Z",
    "mergeable_state": "unknown",
    "merged_at": "2023-04-02T11:42:17Z",
    "merge_commit_sha": "8e9e2b4cb36dda0d5d04dc60e87fc11bc87fc803",
    "assignees": [],
    "requested_reviewers": [],
    "requested_teams": [],
    "head": {
      "label": "dergoegge:2023-03-26140-followup",
      "ref": "2023-03-26140-followup",
      "sha": "3fa4c54ac54b2d738e0c43b57b5c232ee02fe3b3",
      "user": {
        "login": "dergoegge",
        "id": 8077169,
        "node_id": "MDQ6VXNlcjgwNzcxNjk=",
        "avatar_url": "https://avatars.githubusercontent.com/u/8077169?v=4",
        "gravatar_id": "",
        "url": "https://api.github.com/users/dergoegge",
        "html_url": "https://github.com/dergoegge",
        "followers_url": "https://api.github.com/users/dergoegge/followers",
        "following_url": "https://api.github.com/users/dergoegge/following%7B/other_user%7D",
        "gists_url": "https://api.github.com/users/dergoegge/gists%7B/gist_id%7D",
        "starred_url": "https://api.github.com/users/dergoegge/starred%7B/owner%7D%7B/repo%7D",
        "subscriptions_url": "https://api.github.com/users/dergoegge/subscriptions",
        "organizations_url": "https://api.github.com/users/dergoegge/orgs",
        "repos_url": "https://api.github.com/users/dergoegge/repos",
        "events_url": "https://api.github.com/users/dergoegge/events%7B/privacy%7D",
        "received_events_url": "https://api.github.com/users/dergoegge/received_events",
        "type": "User",
        "site_admin": false
      },
      "repo": {
        "id": 315023492,
        "node_id": "MDEwOlJlcG9zaXRvcnkzMTUwMjM0OTI=",
        "name": "bitcoin",
        "full_name": "dergoegge/bitcoin",
        "owner": {
          "login": "dergoegge",
          "id": 8077169,
          "node_id": "MDQ6VXNlcjgwNzcxNjk=",
          "avatar_url": "https://avatars.githubusercontent.com/u/8077169?v=4",
          "gravatar_id": "",
          "url": "https://api.github.com/users/dergoegge",
          "html_url": "https://github.com/dergoegge",
          "followers_url": "https://api.github.com/users/dergoegge/followers",
          "following_url": "https://api.github.com/users/dergoegge/following%7B/other_user%7D",
          "gists_url": "https://api.github.com/users/dergoegge/gists%7B/gist_id%7D",
          "starred_url": "https://api.github.com/users/dergoegge/starred%7B/owner%7D%7B/repo%7D",
          "subscriptions_url": "https://api.github.com/users/dergoegge/subscriptions",
          "organizations_url": "https://api.github.com/users/dergoegge/orgs",
          "repos_url": "https://api.github.com/users/dergoegge/repos",
          "events_url": "https://api.github.com/users/dergoegge/events%7B/privacy%7D",
          "received_events_url": "https://api.github.com/users/dergoegge/received_events",
          "type": "User",
          "site_admin": false
        },
        "private": false,
        "html_url": "https://github.com/dergoegge/bitcoin",
        "description": "Bitcoin Core integration/staging tree",
        "fork": true,
        "url": "https://api.github.com/repos/dergoegge/bitcoin",
        "archive_url": "https://api.github.com/repos/dergoegge/bitcoin/%7Barchive_format%7D%7B/ref%7D",
        "assignees_url": "https://api.github.com/repos/dergoegge/bitcoin/assignees%7B/user%7D",
        "blobs_url": "https://api.github.com/repos/dergoegge/bitcoin/git/blobs%7B/sha%7D",
        "branches_url": "https://api.github.com/repos/dergoegge/bitcoin/branches%7B/branch%7D",
        "collaborators_url": "https://api.github.com/repos/dergoegge/bitcoin/collaborators%7B/collaborator%7D",
        "comments_url": "https://api.github.com/repos/dergoegge/bitcoin/comments%7B/number%7D",
        "commits_url": "https://api.github.com/repos/dergoegge/bitcoin/commits%7B/sha%7D",
        "compare_url": "https://api.github.com/repos/dergoegge/bitcoin/compare/%7Bbase%7D...%7Bhead%7D",
        "contents_url": "https://api.github.com/repos/dergoegge/bitcoin/contents/%7B+path%7D",
        "contributors_url": "https://api.github.com/repos/dergoegge/bitcoin/contributors",
        "deployments_url": "https://api.github.com/repos/dergoegge/bitcoin/deployments",
        "downloads_url": "https://api.github.com/repos/dergoegge/bitcoin/downloads",
        "events_url": "https://api.github.com/repos/dergoegge/bitcoin/events",
        "forks_url": "https://api.github.com/repos/dergoegge/bitcoin/forks",
        "git_commits_url": "https://api.github.com/repos/dergoegge/bitcoin/git/commits%7B/sha%7D",
        "git_refs_url": "https://api.github.com/repos/dergoegge/bitcoin/git/refs%7B/sha%7D",
        "git_tags_url": "https://api.github.com/repos/dergoegge/bitcoin/git/tags%7B/sha%7D",
        "git_url": "git://github.com/dergoegge/bitcoin.git",
        "issue_comment_url": "https://api.github.com/repos/dergoegge/bitcoin/issues/comments%7B/number%7D",
        "issue_events_url": "https://api.github.com/repos/dergoegge/bitcoin/issues/events%7B/number%7D",
        "issues_url": "https://api.github.com/repos/dergoegge/bitcoin/issues%7B/number%7D",
        "keys_url": "https://api.github.com/repos/dergoegge/bitcoin/keys%7B/key_id%7D",
        "labels_url": "https://api.github.com/repos/dergoegge/bitcoin/labels%7B/name%7D",
        "languages_url": "https://api.github.com/repos/dergoegge/bitcoin/languages",
        "merges_url": "https://api.github.com/repos/dergoegge/bitcoin/merges",
        "milestones_url": "https://api.github.com/repos/dergoegge/bitcoin/milestones%7B/number%7D",
        "notifications_url": "https://api.github.com/repos/dergoegge/bitcoin/notifications%7B?since,all,participating}",
        "pulls_url": "https://api.github.com/repos/dergoegge/bitcoin/pulls%7B/number%7D",
        "releases_url": "https://api.github.com/repos/dergoegge/bitcoin/releases%7B/id%7D",
        "ssh_url": "git@github.com:dergoegge/bitcoin.git",
        "stargazers_url": "https://api.github.com/repos/dergoegge/bitcoin/stargazers",
        "statuses_url": "https://api.github.com/repos/dergoegge/bitcoin/statuses/%7Bsha%7D",
        "subscribers_url": "https://api.github.com/repos/dergoegge/bitcoin/subscribers",
        "subscription_url": "https://api.github.com/repos/dergoegge/bitcoin/subscription",
        "tags_url": "https://api.github.com/repos/dergoegge/bitcoin/tags",
        "teams_url": "https://api.github.com/repos/dergoegge/bitcoin/teams",
        "trees_url": "https://api.github.com/repos/dergoegge/bitcoin/git/trees%7B/sha%7D",
        "clone_url": "https://github.com/dergoegge/bitcoin.git",
        "hooks_url": "https://api.github.com/repos/dergoegge/bitcoin/hooks",
        "svn_url": "https://github.com/dergoegge/bitcoin",
        "homepage": "https://bitcoincore.org/en/download",
        "language": "C++",
        "forks_count": 0,
        "stargazers_count": 1,
        "watchers_count": 1,
        "size": 224628,
        "default_branch": "master",
        "open_issues_count": 0,
        "is_template": false,
        "topics": [],
        "has_issues": true,
        "has_projects": true,
        "has_wiki": false,
        "has_pages": false,
        "has_downloads": false,
        "archived": false,
        "disabled": false,
        "visibility": "public",
        "pushed_at": "2023-08-02T12:43:06Z",
        "created_at": "2020-11-22T11:41:30Z",
        "updated_at": "2023-05-05T12:10:28Z",
        "license": {
          "key": "mit",
          "name": "MIT License",
          "node_id": "MDc6TGljZW5zZTEz",
          "spdx_id": "MIT",
          "url": "https://api.github.com/licenses/mit",
          "html_url": null,
          "description": null,
          "implementation": null,
          "permissions": null,
          "conditions": null,
          "limitations": null,
          "body": null,
          "featured": null
        }
      }
    },
    "base": {
      "label": "bitcoin:master",
      "ref": "master",
      "sha": "47184cfa2f62290c00f960ddf74a7c1b5d3578b0",
      "user": {
        "login": "bitcoin",
        "id": 528860,
        "node_id": "MDEyOk9yZ2FuaXphdGlvbjUyODg2MA==",
        "avatar_url": "https://avatars.githubusercontent.com/u/528860?v=4",
        "gravatar_id": "",
        "url": "https://api.github.com/users/bitcoin",
        "html_url": "https://github.com/bitcoin",
        "followers_url": "https://api.github.com/users/bitcoin/followers",
        "following_url": "https://api.github.com/users/bitcoin/following%7B/other_user%7D",
        "gists_url": "https://api.github.com/users/bitcoin/gists%7B/gist_id%7D",
        "starred_url": "https://api.github.com/users/bitcoin/starred%7B/owner%7D%7B/repo%7D",
        "subscriptions_url": "https://api.github.com/users/bitcoin/subscriptions",
        "organizations_url": "https://api.github.com/users/bitcoin/orgs",
        "repos_url": "https://api.github.com/users/bitcoin/repos",
        "events_url": "https://api.github.com/users/bitcoin/events%7B/privacy%7D",
        "received_events_url": "https://api.github.com/users/bitcoin/received_events",
        "type": "Organization",
        "site_admin": false
      },
      "repo": {
        "id": 1181927,
        "node_id": "MDEwOlJlcG9zaXRvcnkxMTgxOTI3",
        "name": "bitcoin",
        "full_name": "bitcoin/bitcoin",
        "owner": {
          "login": "bitcoin",
          "id": 528860,
          "node_id": "MDEyOk9yZ2FuaXphdGlvbjUyODg2MA==",
          "avatar_url": "https://avatars.githubusercontent.com/u/528860?v=4",
          "gravatar_id": "",
          "url": "https://api.github.com/users/bitcoin",
          "html_url": "https://github.com/bitcoin",
          "followers_url": "https://api.github.com/users/bitcoin/followers",
          "following_url": "https://api.github.com/users/bitcoin/following%7B/other_user%7D",
          "gists_url": "https://api.github.com/users/bitcoin/gists%7B/gist_id%7D",
          "starred_url": "https://api.github.com/users/bitcoin/starred%7B/owner%7D%7B/repo%7D",
          "subscriptions_url": "https://api.github.com/users/bitcoin/subscriptions",
          "organizations_url": "https://api.github.com/users/bitcoin/orgs",
          "repos_url": "https://api.github.com/users/bitcoin/repos",
          "events_url": "https://api.github.com/users/bitcoin/events%7B/privacy%7D",
          "received_events_url": "https://api.github.com/users/bitcoin/received_events",
          "type": "Organization",
          "site_admin": false
        },
        "private": false,
        "html_url": "https://github.com/bitcoin/bitcoin",
        "description": "Bitcoin Core integration/staging tree",
        "fork": false,
        "url": "https://api.github.com/repos/bitcoin/bitcoin",
        "archive_url": "https://api.github.com/repos/bitcoin/bitcoin/%7Barchive_format%7D%7B/ref%7D",
        "assignees_url": "https://api.github.com/repos/bitcoin/bitcoin/assignees%7B/user%7D",
        "blobs_url": "https://api.github.com/repos/bitcoin/bitcoin/git/blobs%7B/sha%7D",
        "branches_url": "https://api.github.com/repos/bitcoin/bitcoin/branches%7B/branch%7D",
        "collaborators_url": "https://api.github.com/repos/bitcoin/bitcoin/collaborators%7B/collaborator%7D",
        "comments_url": "https://api.github.com/repos/bitcoin/bitcoin/comments%7B/number%7D",
        "commits_url": "https://api.github.com/repos/bitcoin/bitcoin/commits%7B/sha%7D",
        "compare_url": "https://api.github.com/repos/bitcoin/bitcoin/compare/%7Bbase%7D...%7Bhead%7D",
        "contents_url": "https://api.github.com/repos/bitcoin/bitcoin/contents/%7B+path%7D",
        "contributors_url": "https://api.github.com/repos/bitcoin/bitcoin/contributors",
        "deployments_url": "https://api.github.com/repos/bitcoin/bitcoin/deployments",
        "downloads_url": "https://api.github.com/repos/bitcoin/bitcoin/downloads",
        "events_url": "https://api.github.com/repos/bitcoin/bitcoin/events",
        "forks_url": "https://api.github.com/repos/bitcoin/bitcoin/forks",
        "git_commits_url": "https://api.github.com/repos/bitcoin/bitcoin/git/commits%7B/sha%7D",
        "git_refs_url": "https://api.github.com/repos/bitcoin/bitcoin/git/refs%7B/sha%7D",
        "git_tags_url": "https://api.github.com/repos/bitcoin/bitcoin/git/tags%7B/sha%7D",
        "git_url": "git://github.com/bitcoin/bitcoin.git",
        "issue_comment_url": "https://api.github.com/repos/bitcoin/bitcoin/issues/comments%7B/number%7D",
        "issue_events_url": "https://api.github.com/repos/bitcoin/bitcoin/issues/events%7B/number%7D",
        "issues_url": "https://api.github.com/repos/bitcoin/bitcoin/issues%7B/number%7D",
        "keys_url": "https://api.github.com/repos/bitcoin/bitcoin/keys%7B/key_id%7D",
        "labels_url": "https://api.github.com/repos/bitcoin/bitcoin/labels%7B/name%7D",
        "languages_url": "https://api.github.com/repos/bitcoin/bitcoin/languages",
        "merges_url": "https://api.github.com/repos/bitcoin/bitcoin/merges",
        "milestones_url": "https://api.github.com/repos/bitcoin/bitcoin/milestones%7B/number%7D",
        "notifications_url": "https://api.github.com/repos/bitcoin/bitcoin/notifications%7B?since,all,participating}",
        "pulls_url": "https://api.github.com/repos/bitcoin/bitcoin/pulls%7B/number%7D",
        "releases_url": "https://api.github.com/repos/bitcoin/bitcoin/releases%7B/id%7D",
        "ssh_url": "git@github.com:bitcoin/bitcoin.git",
        "stargazers_url": "https://api.github.com/repos/bitcoin/bitcoin/stargazers",
        "statuses_url": "https://api.github.com/repos/bitcoin/bitcoin/statuses/%7Bsha%7D",
        "subscribers_url": "https://api.github.com/repos/bitcoin/bitcoin/subscribers",
        "subscription_url": "https://api.github.com/repos/bitcoin/bitcoin/subscription",
        "tags_url": "https://api.github.com/repos/bitcoin/bitcoin/tags",
        "teams_url": "https://api.github.com/repos/bitcoin/bitcoin/teams",
        "trees_url": "https://api.github.com/repos/bitcoin/bitcoin/git/trees%7B/sha%7D",
        "clone_url": "https://github.com/bitcoin/bitcoin.git",
        "hooks_url": "https://api.github.com/repos/bitcoin/bitcoin/hooks",
        "svn_url": "https://github.com/bitcoin/bitcoin",
        "homepage": "https://bitcoincore.org/en/download",
        "language": "C++",
        "forks_count": 35476,
        "stargazers_count": 70608,
        "watchers_count": 70608,
        "size": 236222,
        "default_branch": "master",
        "open_issues_count": 673,
        "is_template": false,
        "topics": [
          "bitcoin",
          "c-plus-plus",
          "cryptocurrency",
          "cryptography",
          "p2p"
        ],
        "has_issues": true,
        "has_projects": true,
        "has_wiki": false,
        "has_pages": false,
        "has_downloads": false,
        "archived": false,
        "disabled": false,
        "visibility": "public",
        "pushed_at": "2023-08-03T00:03:27Z",
        "created_at": "2010-12-19T15:16:43Z",
        "updated_at": "2023-08-02T18:21:18Z",
        "license": {
          "key": "mit",
          "name": "MIT License",
          "node_id": "MDc6TGljZW5zZTEz",
          "spdx_id": "MIT",
          "url": "https://api.github.com/licenses/mit",
          "html_url": null,
          "description": null,
          "implementation": null,
          "permissions": null,
          "conditions": null,
          "limitations": null,
          "body": null,
          "featured": null
        }
      }
    },
    "_links": {
      "self": {
        "href": "https://api.github.com/repos/bitcoin/bitcoin/pulls/27379"
      }
    },
    "author_association": "MEMBER",
    "draft": false,
    "additions": 13,
    "deletions": 20,
    "changed_files": 1,
    "commits": 2,
    "review_comments": 3,
    "comments": 4
  },
  "events": [
    {
      "event": "committed",
      "id": null,
      "node_id": "C_kwDOABII59oAKGM4NWVlNzZhMzY0N2E0MmQzYTU5YzI4NDQ0YzVjYTUyZTdkYjdjNWU",
      "url": "https://api.github.com/repos/bitcoin/bitcoin/git/commits/c85ee76a3647a42d3a59c28444c5ca52e7db7c5e",
      "actor": null,
      "commit_id": null,
      "commit_url": null,
      "created_at": null,
      "html_url": "https://github.com/bitcoin/bitcoin/commit/c85ee76a3647a42d3a59c28444c5ca52e7db7c5e",
      "tree": {
        "sha": "8cb0b51bdcab98841a6d8ab72379816c6d4e3670",
        "url": "https://api.github.com/repos/bitcoin/bitcoin/git/trees/8cb0b51bdcab98841a6d8ab72379816c6d4e3670"
      },
      "verification": {
        "verified": false,
        "reason": "unsigned",
        "payload": null,
        "signature": null
      },
      "parents": [
        {
          "url": "https://api.github.com/repos/bitcoin/bitcoin/git/commits/6b9fedd2211851a70d2d82dea04420e9b87bfff9",
          "sha": "6b9fedd2211851a70d2d82dea04420e9b87bfff9",
          "html_url": "https://github.com/bitcoin/bitcoin/commit/6b9fedd2211851a70d2d82dea04420e9b87bfff9"
        }
      ],
      "message": "[net processin] Don't take cs_main in FindTxForGetData\n\nTaking cs_main is no longer necessary since we moved\n`m_recently_announced_invs` to `Peer` and `mapRelay` is actually only\naccessed from the message processing thread.",
      "committer": {
        "name": "dergoegge",
        "email": "n.goeggi@gmail.com",
        "date": "2023-03-31T11:18:39Z"
      },
      "author": {
        "name": "dergoegge",
        "email": "n.goeggi@gmail.com",
        "date": "2023-03-31T10:53:46Z"
      },
      "sha": "c85ee76a3647a42d3a59c28444c5ca52e7db7c5e"
    },
    {
      "event": "committed",
      "id": null,
      "node_id": "C_kwDOABII59oAKDNmYTRjNTRhYzU0YjJkNzM4ZTBjNDNiNTdiNWMyMzJlZTAyZmUzYjM",
      "url": "https://api.github.com/repos/bitcoin/bitcoin/git/commits/3fa4c54ac54b2d738e0c43b57b5c232ee02fe3b3",
      "actor": null,
      "commit_id": null,
      "commit_url": null,
      "created_at": null,
      "html_url": "https://github.com/bitcoin/bitcoin/commit/3fa4c54ac54b2d738e0c43b57b5c232ee02fe3b3",
      "tree": {
        "sha": "dcf872d67004b6be4665e1db8e8b2903f9283d1d",
        "url": "https://api.github.com/repos/bitcoin/bitcoin/git/trees/dcf872d67004b6be4665e1db8e8b2903f9283d1d"
      },
      "verification": {
        "verified": false,
        "reason": "unsigned",
        "payload": null,
        "signature": null
      },
      "parents": [
        {
          "url": "https://api.github.com/repos/bitcoin/bitcoin/git/commits/c85ee76a3647a42d3a59c28444c5ca52e7db7c5e",
          "sha": "c85ee76a3647a42d3a59c28444c5ca52e7db7c5e",
          "html_url": "https://github.com/bitcoin/bitcoin/commit/c85ee76a3647a42d3a59c28444c5ca52e7db7c5e"
        }
      ],
      "message": "[net processing] Pass TxRelay to FindTxForGetData instead of Peer",
      "committer": {
        "name": "dergoegge",
        "email": "n.goeggi@gmail.com",
        "date": "2023-03-31T11:19:20Z"
      },
      "author": {
        "name": "dergoegge",
        "email": "n.goeggi@gmail.com",
        "date": "2023-03-31T11:15:22Z"
      },
      "sha": "3fa4c54ac54b2d738e0c43b57b5c232ee02fe3b3"
    },
    {
      "event": "review_requested",
      "id": 8897009248,
      "node_id": "RRE_lADOABII585iTIqgzwAAAAISTZZg",
      "url": "https://api.github.com/repos/bitcoin/bitcoin/issues/events/8897009248",
      "actor": {
        "login": "fanquake",
        "id": 863730,
        "node_id": "MDQ6VXNlcjg2MzczMA==",
        "avatar_url": "https://avatars.githubusercontent.com/u/863730?v=4",
        "gravatar_id": "",
        "url": "https://api.github.com/users/fanquake",
        "html_url": "https://github.com/fanquake",
        "followers_url": "https://api.github.com/users/fanquake/followers",
        "following_url": "https://api.github.com/users/fanquake/following%7B/other_user%7D",
        "gists_url": "https://api.github.com/users/fanquake/gists%7B/gist_id%7D",
        "starred_url": "https://api.github.com/users/fanquake/starred%7B/owner%7D%7B/repo%7D",
        "subscriptions_url": "https://api.github.com/users/fanquake/subscriptions",
        "organizations_url": "https://api.github.com/users/fanquake/orgs",
        "repos_url": "https://api.github.com/users/fanquake/repos",
        "events_url": "https://api.github.com/users/fanquake/events%7B/privacy%7D",
        "received_events_url": "https://api.github.com/users/fanquake/received_events",
        "type": "User",
        "site_admin": false
      },
      "commit_id": null,
      "commit_url": null,
      "created_at": "2023-03-31T11:22:30Z",
      "requested_reviewer": {
        "login": "jnewbery",
        "id": 1063656,
        "node_id": "MDQ6VXNlcjEwNjM2NTY=",
        "avatar_url": "https://avatars.githubusercontent.com/u/1063656?v=4",
        "gravatar_id": "",
        "url": "https://api.github.com/users/jnewbery",
        "html_url": "https://github.com/jnewbery",
        "followers_url": "https://api.github.com/users/jnewbery/followers",
        "following_url": "https://api.github.com/users/jnewbery/following%7B/other_user%7D",
        "gists_url": "https://api.github.com/users/jnewbery/gists%7B/gist_id%7D",
        "starred_url": "https://api.github.com/users/jnewbery/starred%7B/owner%7D%7B/repo%7D",
        "subscriptions_url": "https://api.github.com/users/jnewbery/subscriptions",
        "organizations_url": "https://api.github.com/users/jnewbery/orgs",
        "repos_url": "https://api.github.com/users/jnewbery/repos",
        "events_url": "https://api.github.com/users/jnewbery/events%7B/privacy%7D",
        "received_events_url": "https://api.github.com/users/jnewbery/received_events",
        "type": "User",
        "site_admin": false
      },
      "review_requester": {
        "login": "fanquake",
        "id": 863730,
        "node_id": "MDQ6VXNlcjg2MzczMA==",
        "avatar_url": "https://avatars.githubusercontent.com/u/863730?v=4",
        "gravatar_id": "",
        "url": "https://api.github.com/users/fanquake",
        "html_url": "https://github.com/fanquake",
        "followers_url": "https://api.github.com/users/fanquake/followers",
        "following_url": "https://api.github.com/users/fanquake/following%7B/other_user%7D",
        "gists_url": "https://api.github.com/users/fanquake/gists%7B/gist_id%7D",
        "starred_url": "https://api.github.com/users/fanquake/starred%7B/owner%7D%7B/repo%7D",
        "subscriptions_url": "https://api.github.com/users/fanquake/subscriptions",
        "organizations_url": "https://api.github.com/users/fanquake/orgs",
        "repos_url": "https://api.github.com/users/fanquake/repos",
        "events_url": "https://api.github.com/users/fanquake/events%7B/privacy%7D",
        "received_events_url": "https://api.github.com/users/fanquake/received_events",
        "type": "User",
        "site_admin": false
      }
    },
    {
      "event": "renamed",
      "id": 8897010836,
      "node_id": "RTE_lADOABII585iTIqgzwAAAAISTZyU",
      "url": "https://api.github.com/repos/bitcoin/bitcoin/issues/events/8897010836",
      "actor": {
        "login": "fanquake",
        "id": 863730,
        "node_id": "MDQ6VXNlcjg2MzczMA==",
        "avatar_url": "https://avatars.githubusercontent.com/u/863730?v=4",
        "gravatar_id": "",
        "url": "https://api.github.com/users/fanquake",
        "html_url": "https://github.com/fanquake",
        "followers_url": "https://api.github.com/users/fanquake/followers",
        "following_url": "https://api.github.com/users/fanquake/following%7B/other_user%7D",
        "gists_url": "https://api.github.com/users/fanquake/gists%7B/gist_id%7D",
        "starred_url": "https://api.github.com/users/fanquake/starred%7B/owner%7D%7B/repo%7D",
        "subscriptions_url": "https://api.github.com/users/fanquake/subscriptions",
        "organizations_url": "https://api.github.com/users/fanquake/orgs",
        "repos_url": "https://api.github.com/users/fanquake/repos",
        "events_url": "https://api.github.com/users/fanquake/events%7B/privacy%7D",
        "received_events_url": "https://api.github.com/users/fanquake/received_events",
        "type": "User",
        "site_admin": false
      },
      "commit_id": null,
      "commit_url": null,
      "created_at": "2023-03-31T11:22:43Z",
      "rename": {
        "from": "#26140 follow-ups",
        "to": "net: #26140 follow-ups"
      }
    },
    {
      "event": "labeled",
      "id": 8897032892,
      "node_id": "LE_lADOABII585iTIqgzwAAAAISTfK8",
      "url": "https://api.github.com/repos/bitcoin/bitcoin/issues/events/8897032892",
      "actor": {
        "login": "fanquake",
        "id": 863730,
        "node_id": "MDQ6VXNlcjg2MzczMA==",
        "avatar_url": "https://avatars.githubusercontent.com/u/863730?v=4",
        "gravatar_id": "",
        "url": "https://api.github.com/users/fanquake",
        "html_url": "https://github.com/fanquake",
        "followers_url": "https://api.github.com/users/fanquake/followers",
        "following_url": "https://api.github.com/users/fanquake/following%7B/other_user%7D",
        "gists_url": "https://api.github.com/users/fanquake/gists%7B/gist_id%7D",
        "starred_url": "https://api.github.com/users/fanquake/starred%7B/owner%7D%7B/repo%7D",
        "subscriptions_url": "https://api.github.com/users/fanquake/subscriptions",
        "organizations_url": "https://api.github.com/users/fanquake/orgs",
        "repos_url": "https://api.github.com/users/fanquake/repos",
        "events_url": "https://api.github.com/users/fanquake/events%7B/privacy%7D",
        "received_events_url": "https://api.github.com/users/fanquake/received_events",
        "type": "User",
        "site_admin": false
      },
      "commit_id": null,
      "commit_url": null,
      "created_at": "2023-03-31T11:25:42Z",
      "label": {
        "name": "P2P",
        "color": "006b75"
      }
    },
    {
      "event": "renamed",
      "id": 8897424028,
      "node_id": "RTE_lADOABII585iTIqgzwAAAAISU-qc",
      "url": "https://api.github.com/repos/bitcoin/bitcoin/issues/events/8897424028",
      "actor": {
        "login": "dergoegge",
        "id": 8077169,
        "node_id": "MDQ6VXNlcjgwNzcxNjk=",
        "avatar_url": "https://avatars.githubusercontent.com/u/8077169?v=4",
        "gravatar_id": "",
        "url": "https://api.github.com/users/dergoegge",
        "html_url": "https://github.com/dergoegge",
        "followers_url": "https://api.github.com/users/dergoegge/followers",
        "following_url": "https://api.github.com/users/dergoegge/following%7B/other_user%7D",
        "gists_url": "https://api.github.com/users/dergoegge/gists%7B/gist_id%7D",
        "starred_url": "https://api.github.com/users/dergoegge/starred%7B/owner%7D%7B/repo%7D",
        "subscriptions_url": "https://api.github.com/users/dergoegge/subscriptions",
        "organizations_url": "https://api.github.com/users/dergoegge/orgs",
        "repos_url": "https://api.github.com/users/dergoegge/repos",
        "events_url": "https://api.github.com/users/dergoegge/events%7B/privacy%7D",
        "received_events_url": "https://api.github.com/users/dergoegge/received_events",
        "type": "User",
        "site_admin": false
      },
      "commit_id": null,
      "commit_url": null,
      "created_at": "2023-03-31T12:14:24Z",
      "rename": {
        "from": "net: #26140 follow-ups",
        "to": "net processing: #26140 follow-ups"
      }
    },
    {
      "event": "reviewed",
      "id": 1366837799,
      "node_id": "PRR_kwDOABII585ReEon",
      "url": null,
      "actor": null,
      "commit_id": "3fa4c54ac54b2d738e0c43b57b5c232ee02fe3b3",
      "commit_url": null,
      "created_at": null,
      "author_association": "MEMBER",
      "user": {
        "login": "hebasto",
        "id": 32963518,
        "node_id": "MDQ6VXNlcjMyOTYzNTE4",
        "avatar_url": "https://avatars.githubusercontent.com/u/32963518?v=4",
        "gravatar_id": "",
        "url": "https://api.github.com/users/hebasto",
        "html_url": "https://github.com/hebasto",
        "followers_url": "https://api.github.com/users/hebasto/followers",
        "following_url": "https://api.github.com/users/hebasto/following%7B/other_user%7D",
        "gists_url": "https://api.github.com/users/hebasto/gists%7B/gist_id%7D",
        "starred_url": "https://api.github.com/users/hebasto/starred%7B/owner%7D%7B/repo%7D",
        "subscriptions_url": "https://api.github.com/users/hebasto/subscriptions",
        "organizations_url": "https://api.github.com/users/hebasto/orgs",
        "repos_url": "https://api.github.com/users/hebasto/repos",
        "events_url": "https://api.github.com/users/hebasto/events%7B/privacy%7D",
        "received_events_url": "https://api.github.com/users/hebasto/received_events",
        "type": "User",
        "site_admin": false
      },
      "html_url": "https://github.com/bitcoin/bitcoin/pull/27379#pullrequestreview-1366837799",
      "submitted_at": "2023-03-31T12:22:07Z",
      "state": "COMMENTED",
      "pull_request_url": "https://api.github.com/repos/bitcoin/bitcoin/pulls/27379"
    },
    {
      "event": "commented",
      "id": 1491847033,
      "node_id": "IC_kwDOABII585Y68d5",
      "url": "https://api.github.com/repos/bitcoin/bitcoin/issues/comments/1491847033",
      "actor": {
        "login": "DrahtBot",
        "id": 39886733,
        "node_id": "MDQ6VXNlcjM5ODg2NzMz",
        "avatar_url": "https://avatars.githubusercontent.com/u/39886733?v=4",
        "gravatar_id": "",
        "url": "https://api.github.com/users/DrahtBot",
        "html_url": "https://github.com/DrahtBot",
        "followers_url": "https://api.github.com/users/DrahtBot/followers",
        "following_url": "https://api.github.com/users/DrahtBot/following%7B/other_user%7D",
        "gists_url": "https://api.github.com/users/DrahtBot/gists%7B/gist_id%7D",
        "starred_url": "https://api.github.com/users/DrahtBot/starred%7B/owner%7D%7B/repo%7D",
        "subscriptions_url": "https://api.github.com/users/DrahtBot/subscriptions",
        "organizations_url": "https://api.github.com/users/DrahtBot/orgs",
        "repos_url": "https://api.github.com/users/DrahtBot/repos",
        "events_url": "https://api.github.com/users/DrahtBot/events%7B/privacy%7D",
        "received_events_url": "https://api.github.com/users/DrahtBot/received_events",
        "type": "User",
        "site_admin": false
      },
      "commit_id": null,
      "commit_url": null,
      "created_at": "2023-03-31T12:22:09Z",
      "updated_at": "2023-03-31T18:44:31Z",
      "author_association": "CONTRIBUTOR",
      "body": "<!--e57a25ab6845829454e8d69fc972939a-->\n\nThe following sections might be updated with supplementary metadata relevant to reviewers and maintainers.\n\n<!--021abf342d371248e50ceaed478a90ca-->\n### Reviews\nSee [the guideline](https://github.com/bitcoin/bitcoin/blob/master/CONTRIBUTING.md#code-review) for information on the review process.\n| Type | Reviewers |\n| ---- | --------- |\n| ACK | [jnewbery](https://github.com/bitcoin/bitcoin/pull/27379#issuecomment-1492199212), [hebasto](https://github.com/bitcoin/bitcoin/pull/27379#pullrequestreview-1367411560) |\n\nIf your review is incorrectly listed, please react with 👎 to this comment and the bot will ignore it on the next update.\n",
      "user": {
        "login": "DrahtBot",
        "id": 39886733,
        "node_id": "MDQ6VXNlcjM5ODg2NzMz",
        "avatar_url": "https://avatars.githubusercontent.com/u/39886733?v=4",
        "gravatar_id": "",
        "url": "https://api.github.com/users/DrahtBot",
        "html_url": "https://github.com/DrahtBot",
        "followers_url": "https://api.github.com/users/DrahtBot/followers",
        "following_url": "https://api.github.com/users/DrahtBot/following%7B/other_user%7D",
        "gists_url": "https://api.github.com/users/DrahtBot/gists%7B/gist_id%7D",
        "starred_url": "https://api.github.com/users/DrahtBot/starred%7B/owner%7D%7B/repo%7D",
        "subscriptions_url": "https://api.github.com/users/DrahtBot/subscriptions",
        "organizations_url": "https://api.github.com/users/DrahtBot/orgs",
        "repos_url": "https://api.github.com/users/DrahtBot/repos",
        "events_url": "https://api.github.com/users/DrahtBot/events%7B/privacy%7D",
        "received_events_url": "https://api.github.com/users/DrahtBot/received_events",
        "type": "User",
        "site_admin": false
      },
      "html_url": "https://github.com/bitcoin/bitcoin/pull/27379#issuecomment-1491847033",
      "issue_url": "https://api.github.com/repos/bitcoin/bitcoin/issues/27379"
    },
    {
      "event": "unlabeled",
      "id": 8897554287,
      "node_id": "UNLE_lADOABII585iTIqgzwAAAAISVedv",
      "url": "https://api.github.com/repos/bitcoin/bitcoin/issues/events/8897554287",
      "actor": {
        "login": "MarcoFalke",
        "id": 6399679,
        "node_id": "MDQ6VXNlcjYzOTk2Nzk=",
        "avatar_url": "https://avatars.githubusercontent.com/u/6399679?v=4",
        "gravatar_id": "",
        "url": "https://api.github.com/users/MarcoFalke",
        "html_url": "https://github.com/MarcoFalke",
        "followers_url": "https://api.github.com/users/MarcoFalke/followers",
        "following_url": "https://api.github.com/users/MarcoFalke/following%7B/other_user%7D",
        "gists_url": "https://api.github.com/users/MarcoFalke/gists%7B/gist_id%7D",
        "starred_url": "https://api.github.com/users/MarcoFalke/starred%7B/owner%7D%7B/repo%7D",
        "subscriptions_url": "https://api.github.com/users/MarcoFalke/subscriptions",
        "organizations_url": "https://api.github.com/users/MarcoFalke/orgs",
        "repos_url": "https://api.github.com/users/MarcoFalke/repos",
        "events_url": "https://api.github.com/users/MarcoFalke/events%7B/privacy%7D",
        "received_events_url": "https://api.github.com/users/MarcoFalke/received_events",
        "type": "User",
        "site_admin": false
      },
      "commit_id": null,
      "commit_url": null,
      "created_at": "2023-03-31T12:30:27Z",
      "label": {
        "name": "P2P",
        "color": "006b75"
      }
    },
    {
      "event": "labeled",
      "id": 8897554643,
      "node_id": "LE_lADOABII585iTIqgzwAAAAISVejT",
      "url": "https://api.github.com/repos/bitcoin/bitcoin/issues/events/8897554643",
      "actor": {
        "login": "DrahtBot",
        "id": 39886733,
        "node_id": "MDQ6VXNlcjM5ODg2NzMz",
        "avatar_url": "https://avatars.githubusercontent.com/u/39886733?v=4",
        "gravatar_id": "",
        "url": "https://api.github.com/users/DrahtBot",
        "html_url": "https://github.com/DrahtBot",
        "followers_url": "https://api.github.com/users/DrahtBot/followers",
        "following_url": "https://api.github.com/users/DrahtBot/following%7B/other_user%7D",
        "gists_url": "https://api.github.com/users/DrahtBot/gists%7B/gist_id%7D",
        "starred_url": "https://api.github.com/users/DrahtBot/starred%7B/owner%7D%7B/repo%7D",
        "subscriptions_url": "https://api.github.com/users/DrahtBot/subscriptions",
        "organizations_url": "https://api.github.com/users/DrahtBot/orgs",
        "repos_url": "https://api.github.com/users/DrahtBot/repos",
        "events_url": "https://api.github.com/users/DrahtBot/events%7B/privacy%7D",
        "received_events_url": "https://api.github.com/users/DrahtBot/received_events",
        "type": "User",
        "site_admin": false
      },
      "commit_id": null,
      "commit_url": null,
      "created_at": "2023-03-31T12:30:29Z",
      "label": {
        "name": "P2P",
        "color": "006b75"
      }
    },
    {
      "event": "commented",
      "id": 1491873671,
      "node_id": "IC_kwDOABII585Y7C-H",
      "url": "https://api.github.com/repos/bitcoin/bitcoin/issues/comments/1491873671",
      "actor": {
        "login": "dergoegge",
        "id": 8077169,
        "node_id": "MDQ6VXNlcjgwNzcxNjk=",
        "avatar_url": "https://avatars.githubusercontent.com/u/8077169?v=4",
        "gravatar_id": "",
        "url": "https://api.github.com/users/dergoegge",
        "html_url": "https://github.com/dergoegge",
        "followers_url": "https://api.github.com/users/dergoegge/followers",
        "following_url": "https://api.github.com/users/dergoegge/following%7B/other_user%7D",
        "gists_url": "https://api.github.com/users/dergoegge/gists%7B/gist_id%7D",
        "starred_url": "https://api.github.com/users/dergoegge/starred%7B/owner%7D%7B/repo%7D",
        "subscriptions_url": "https://api.github.com/users/dergoegge/subscriptions",
        "organizations_url": "https://api.github.com/users/dergoegge/orgs",
        "repos_url": "https://api.github.com/users/dergoegge/repos",
        "events_url": "https://api.github.com/users/dergoegge/events%7B/privacy%7D",
        "received_events_url": "https://api.github.com/users/dergoegge/received_events",
        "type": "User",
        "site_admin": false
      },
      "commit_id": null,
      "commit_url": null,
      "created_at": "2023-03-31T12:45:53Z",
      "updated_at": "2023-03-31T12:45:53Z",
      "author_association": "MEMBER",
      "body": "CI failure is intermittent, see #27380",
      "user": {
        "login": "dergoegge",
        "id": 8077169,
        "node_id": "MDQ6VXNlcjgwNzcxNjk=",
        "avatar_url": "https://avatars.githubusercontent.com/u/8077169?v=4",
        "gravatar_id": "",
        "url": "https://api.github.com/users/dergoegge",
        "html_url": "https://github.com/dergoegge",
        "followers_url": "https://api.github.com/users/dergoegge/followers",
        "following_url": "https://api.github.com/users/dergoegge/following%7B/other_user%7D",
        "gists_url": "https://api.github.com/users/dergoegge/gists%7B/gist_id%7D",
        "starred_url": "https://api.github.com/users/dergoegge/starred%7B/owner%7D%7B/repo%7D",
        "subscriptions_url": "https://api.github.com/users/dergoegge/subscriptions",
        "organizations_url": "https://api.github.com/users/dergoegge/orgs",
        "repos_url": "https://api.github.com/users/dergoegge/repos",
        "events_url": "https://api.github.com/users/dergoegge/events%7B/privacy%7D",
        "received_events_url": "https://api.github.com/users/dergoegge/received_events",
        "type": "User",
        "site_admin": false
      },
      "html_url": "https://github.com/bitcoin/bitcoin/pull/27379#issuecomment-1491873671",
      "issue_url": "https://api.github.com/repos/bitcoin/bitcoin/issues/27379"
    },
    {
      "event": "commented",
      "id": 1492199212,
      "node_id": "IC_kwDOABII585Y8Scs",
      "url": "https://api.github.com/repos/bitcoin/bitcoin/issues/comments/1492199212",
      "actor": {
        "login": "jnewbery",
        "id": 1063656,
        "node_id": "MDQ6VXNlcjEwNjM2NTY=",
        "avatar_url": "https://avatars.githubusercontent.com/u/1063656?v=4",
        "gravatar_id": "",
        "url": "https://api.github.com/users/jnewbery",
        "html_url": "https://github.com/jnewbery",
        "followers_url": "https://api.github.com/users/jnewbery/followers",
        "following_url": "https://api.github.com/users/jnewbery/following%7B/other_user%7D",
        "gists_url": "https://api.github.com/users/jnewbery/gists%7B/gist_id%7D",
        "starred_url": "https://api.github.com/users/jnewbery/starred%7B/owner%7D%7B/repo%7D",
        "subscriptions_url": "https://api.github.com/users/jnewbery/subscriptions",
        "organizations_url": "https://api.github.com/users/jnewbery/orgs",
        "repos_url": "https://api.github.com/users/jnewbery/repos",
        "events_url": "https://api.github.com/users/jnewbery/events%7B/privacy%7D",
        "received_events_url": "https://api.github.com/users/jnewbery/received_events",
        "type": "User",
        "site_admin": false
      },
      "commit_id": null,
      "commit_url": null,
      "created_at": "2023-03-31T16:05:33Z",
      "updated_at": "2023-03-31T16:05:33Z",
      "author_association": "MEMBER",
      "body": "utACK 3fa4c54ac54b2d738e0c43b57b5c232ee02fe3b3",
      "user": {
        "login": "jnewbery",
        "id": 1063656,
        "node_id": "MDQ6VXNlcjEwNjM2NTY=",
        "avatar_url": "https://avatars.githubusercontent.com/u/1063656?v=4",
        "gravatar_id": "",
        "url": "https://api.github.com/users/jnewbery",
        "html_url": "https://github.com/jnewbery",
        "followers_url": "https://api.github.com/users/jnewbery/followers",
        "following_url": "https://api.github.com/users/jnewbery/following%7B/other_user%7D",
        "gists_url": "https://api.github.com/users/jnewbery/gists%7B/gist_id%7D",
        "starred_url": "https://api.github.com/users/jnewbery/starred%7B/owner%7D%7B/repo%7D",
        "subscriptions_url": "https://api.github.com/users/jnewbery/subscriptions",
        "organizations_url": "https://api.github.com/users/jnewbery/orgs",
        "repos_url": "https://api.github.com/users/jnewbery/repos",
        "events_url": "https://api.github.com/users/jnewbery/events%7B/privacy%7D",
        "received_events_url": "https://api.github.com/users/jnewbery/received_events",
        "type": "User",
        "site_admin": false
      },
      "html_url": "https://github.com/bitcoin/bitcoin/pull/27379#issuecomment-1492199212",
      "issue_url": "https://api.github.com/repos/bitcoin/bitcoin/issues/27379"
    },
    {
      "event": "review_request_removed",
      "id": 8899722079,
      "node_id": "RRRE_lADOABII585iTIqgzwAAAAISdvtf",
      "url": "https://api.github.com/repos/bitcoin/bitcoin/issues/events/8899722079",
      "actor": {
        "login": "DrahtBot",
        "id": 39886733,
        "node_id": "MDQ6VXNlcjM5ODg2NzMz",
        "avatar_url": "https://avatars.githubusercontent.com/u/39886733?v=4",
        "gravatar_id": "",
        "url": "https://api.github.com/users/DrahtBot",
        "html_url": "https://github.com/DrahtBot",
        "followers_url": "https://api.github.com/users/DrahtBot/followers",
        "following_url": "https://api.github.com/users/DrahtBot/following%7B/other_user%7D",
        "gists_url": "https://api.github.com/users/DrahtBot/gists%7B/gist_id%7D",
        "starred_url": "https://api.github.com/users/DrahtBot/starred%7B/owner%7D%7B/repo%7D",
        "subscriptions_url": "https://api.github.com/users/DrahtBot/subscriptions",
        "organizations_url": "https://api.github.com/users/DrahtBot/orgs",
        "repos_url": "https://api.github.com/users/DrahtBot/repos",
        "events_url": "https://api.github.com/users/DrahtBot/events%7B/privacy%7D",
        "received_events_url": "https://api.github.com/users/DrahtBot/received_events",
        "type": "User",
        "site_admin": false
      },
      "commit_id": null,
      "commit_url": null,
      "created_at": "2023-03-31T16:05:36Z",
      "requested_reviewer": {
        "login": "jnewbery",
        "id": 1063656,
        "node_id": "MDQ6VXNlcjEwNjM2NTY=",
        "avatar_url": "https://avatars.githubusercontent.com/u/1063656?v=4",
        "gravatar_id": "",
        "url": "https://api.github.com/users/jnewbery",
        "html_url": "https://github.com/jnewbery",
        "followers_url": "https://api.github.com/users/jnewbery/followers",
        "following_url": "https://api.github.com/users/jnewbery/following%7B/other_user%7D",
        "gists_url": "https://api.github.com/users/jnewbery/gists%7B/gist_id%7D",
        "starred_url": "https://api.github.com/users/jnewbery/starred%7B/owner%7D%7B/repo%7D",
        "subscriptions_url": "https://api.github.com/users/jnewbery/subscriptions",
        "organizations_url": "https://api.github.com/users/jnewbery/orgs",
        "repos_url": "https://api.github.com/users/jnewbery/repos",
        "events_url": "https://api.github.com/users/jnewbery/events%7B/privacy%7D",
        "received_events_url": "https://api.github.com/users/jnewbery/received_events",
        "type": "User",
        "site_admin": false
      },
      "review_requester": {
        "login": "DrahtBot",
        "id": 39886733,
        "node_id": "MDQ6VXNlcjM5ODg2NzMz",
        "avatar_url": "https://avatars.githubusercontent.com/u/39886733?v=4",
        "gravatar_id": "",
        "url": "https://api.github.com/users/DrahtBot",
        "html_url": "https://github.com/DrahtBot",
        "followers_url": "https://api.github.com/users/DrahtBot/followers",
        "following_url": "https://api.github.com/users/DrahtBot/following%7B/other_user%7D",
        "gists_url": "https://api.github.com/users/DrahtBot/gists%7B/gist_id%7D",
        "starred_url": "https://api.github.com/users/DrahtBot/starred%7B/owner%7D%7B/repo%7D",
        "subscriptions_url": "https://api.github.com/users/DrahtBot/subscriptions",
        "organizations_url": "https://api.github.com/users/DrahtBot/orgs",
        "repos_url": "https://api.github.com/users/DrahtBot/repos",
        "events_url": "https://api.github.com/users/DrahtBot/events%7B/privacy%7D",
        "received_events_url": "https://api.github.com/users/DrahtBot/received_events",
        "type": "User",
        "site_admin": false
      }
    },
    {
      "event": "commented",
      "id": 1492418189,
      "node_id": "IC_kwDOABII585Y9H6N",
      "url": "https://api.github.com/repos/bitcoin/bitcoin/issues/comments/1492418189",
      "actor": {
        "login": "hebasto",
        "id": 32963518,
        "node_id": "MDQ6VXNlcjMyOTYzNTE4",
        "avatar_url": "https://avatars.githubusercontent.com/u/32963518?v=4",
        "gravatar_id": "",
        "url": "https://api.github.com/users/hebasto",
        "html_url": "https://github.com/hebasto",
        "followers_url": "https://api.github.com/users/hebasto/followers",
        "following_url": "https://api.github.com/users/hebasto/following%7B/other_user%7D",
        "gists_url": "https://api.github.com/users/hebasto/gists%7B/gist_id%7D",
        "starred_url": "https://api.github.com/users/hebasto/starred%7B/owner%7D%7B/repo%7D",
        "subscriptions_url": "https://api.github.com/users/hebasto/subscriptions",
        "organizations_url": "https://api.github.com/users/hebasto/orgs",
        "repos_url": "https://api.github.com/users/hebasto/repos",
        "events_url": "https://api.github.com/users/hebasto/events%7B/privacy%7D",
        "received_events_url": "https://api.github.com/users/hebasto/received_events",
        "type": "User",
        "site_admin": false
      },
      "commit_id": null,
      "commit_url": null,
      "created_at": "2023-03-31T18:27:29Z",
      "updated_at": "2023-03-31T18:27:29Z",
      "author_association": "MEMBER",
      "body": "Concept ACK.",
      "user": {
        "login": "hebasto",
        "id": 32963518,
        "node_id": "MDQ6VXNlcjMyOTYzNTE4",
        "avatar_url": "https://avatars.githubusercontent.com/u/32963518?v=4",
        "gravatar_id": "",
        "url": "https://api.github.com/users/hebasto",
        "html_url": "https://github.com/hebasto",
        "followers_url": "https://api.github.com/users/hebasto/followers",
        "following_url": "https://api.github.com/users/hebasto/following%7B/other_user%7D",
        "gists_url": "https://api.github.com/users/hebasto/gists%7B/gist_id%7D",
        "starred_url": "https://api.github.com/users/hebasto/starred%7B/owner%7D%7B/repo%7D",
        "subscriptions_url": "https://api.github.com/users/hebasto/subscriptions",
        "organizations_url": "https://api.github.com/users/hebasto/orgs",
        "repos_url": "https://api.github.com/users/hebasto/repos",
        "events_url": "https://api.github.com/users/hebasto/events%7B/privacy%7D",
        "received_events_url": "https://api.github.com/users/hebasto/received_events",
        "type": "User",
        "site_admin": false
      },
      "html_url": "https://github.com/bitcoin/bitcoin/pull/27379#issuecomment-1492418189",
      "issue_url": "https://api.github.com/repos/bitcoin/bitcoin/issues/27379"
    },
    {
      "event": "reviewed",
      "id": 1367411560,
      "node_id": "PRR_kwDOABII585RgQto",
      "url": null,
      "actor": null,
      "commit_id": "3fa4c54ac54b2d738e0c43b57b5c232ee02fe3b3",
      "commit_url": null,
      "created_at": null,
      "author_association": "MEMBER",
      "body": "ACK 3fa4c54ac54b2d738e0c43b57b5c232ee02fe3b3, I have reviewed the code and it looks OK, I agree it can be merged.",
      "user": {
        "login": "hebasto",
        "id": 32963518,
        "node_id": "MDQ6VXNlcjMyOTYzNTE4",
        "avatar_url": "https://avatars.githubusercontent.com/u/32963518?v=4",
        "gravatar_id": "",
        "url": "https://api.github.com/users/hebasto",
        "html_url": "https://github.com/hebasto",
        "followers_url": "https://api.github.com/users/hebasto/followers",
        "following_url": "https://api.github.com/users/hebasto/following%7B/other_user%7D",
        "gists_url": "https://api.github.com/users/hebasto/gists%7B/gist_id%7D",
        "starred_url": "https://api.github.com/users/hebasto/starred%7B/owner%7D%7B/repo%7D",
        "subscriptions_url": "https://api.github.com/users/hebasto/subscriptions",
        "organizations_url": "https://api.github.com/users/hebasto/orgs",
        "repos_url": "https://api.github.com/users/hebasto/repos",
        "events_url": "https://api.github.com/users/hebasto/events%7B/privacy%7D",
        "received_events_url": "https://api.github.com/users/hebasto/received_events",
        "type": "User",
        "site_admin": false
      },
      "html_url": "https://github.com/bitcoin/bitcoin/pull/27379#pullrequestreview-1367411560",
      "submitted_at": "2023-03-31T18:44:27Z",
      "state": "APPROVED",
      "pull_request_url": "https://api.github.com/repos/bitcoin/bitcoin/pulls/27379"
    },
    {
      "event": "merged",
      "id": 8906272877,
      "node_id": "ME_lADOABII585iTIqgzwAAAAIS2vBt",
      "url": "https://api.github.com/repos/bitcoin/bitcoin/issues/events/8906272877",
      "actor": {
        "login": "fanquake",
        "id": 863730,
        "node_id": "MDQ6VXNlcjg2MzczMA==",
        "avatar_url": "https://avatars.githubusercontent.com/u/863730?v=4",
        "gravatar_id": "",
        "url": "https://api.github.com/users/fanquake",
        "html_url": "https://github.com/fanquake",
        "followers_url": "https://api.github.com/users/fanquake/followers",
        "following_url": "https://api.github.com/users/fanquake/following%7B/other_user%7D",
        "gists_url": "https://api.github.com/users/fanquake/gists%7B/gist_id%7D",
        "starred_url": "https://api.github.com/users/fanquake/starred%7B/owner%7D%7B/repo%7D",
        "subscriptions_url": "https://api.github.com/users/fanquake/subscriptions",
        "organizations_url": "https://api.github.com/users/fanquake/orgs",
        "repos_url": "https://api.github.com/users/fanquake/repos",
        "events_url": "https://api.github.com/users/fanquake/events%7B/privacy%7D",
        "received_events_url": "https://api.github.com/users/fanquake/received_events",
        "type": "User",
        "site_admin": false
      },
      "commit_id": "8e9e2b4cb36dda0d5d04dc60e87fc11bc87fc803",
      "commit_url": "https://api.github.com/repos/bitcoin/bitcoin/commits/8e9e2b4cb36dda0d5d04dc60e87fc11bc87fc803",
      "created_at": "2023-04-02T11:42:17Z"
    },
    {
      "event": "closed",
      "id": 8906272883,
      "node_id": "CE_lADOABII585iTIqgzwAAAAIS2vBz",
      "url": "https://api.github.com/repos/bitcoin/bitcoin/issues/events/8906272883",
      "actor": {
        "login": "fanquake",
        "id": 863730,
        "node_id": "MDQ6VXNlcjg2MzczMA==",
        "avatar_url": "https://avatars.githubusercontent.com/u/863730?v=4",
        "gravatar_id": "",
        "url": "https://api.github.com/users/fanquake",
        "html_url": "https://github.com/fanquake",
        "followers_url": "https://api.github.com/users/fanquake/followers",
        "following_url": "https://api.github.com/users/fanquake/following%7B/other_user%7D",
        "gists_url": "https://api.github.com/users/fanquake/gists%7B/gist_id%7D",
        "starred_url": "https://api.github.com/users/fanquake/starred%7B/owner%7D%7B/repo%7D",
        "subscriptions_url": "https://api.github.com/users/fanquake/subscriptions",
        "organizations_url": "https://api.github.com/users/fanquake/orgs",
        "repos_url": "https://api.github.com/users/fanquake/repos",
        "events_url": "https://api.github.com/users/fanquake/events%7B/privacy%7D",
        "received_events_url": "https://api.github.com/users/fanquake/received_events",
        "type": "User",
        "site_admin": false
      },
      "commit_id": null,
      "commit_url": null,
      "created_at": "2023-04-02T11:42:17Z"
    },
    {
      "event": "referenced",
      "id": 8906660281,
      "node_id": "REFE_lADOABII585iTIqgzwAAAAIS4Nm5",
      "url": "https://api.github.com/repos/bitcoin/bitcoin/issues/events/8906660281",
      "actor": {
        "login": "sidhujag",
        "id": 6238042,
        "node_id": "MDQ6VXNlcjYyMzgwNDI=",
        "avatar_url": "https://avatars.githubusercontent.com/u/6238042?v=4",
        "gravatar_id": "",
        "url": "https://api.github.com/users/sidhujag",
        "html_url": "https://github.com/sidhujag",
        "followers_url": "https://api.github.com/users/sidhujag/followers",
        "following_url": "https://api.github.com/users/sidhujag/following%7B/other_user%7D",
        "gists_url": "https://api.github.com/users/sidhujag/gists%7B/gist_id%7D",
        "starred_url": "https://api.github.com/users/sidhujag/starred%7B/owner%7D%7B/repo%7D",
        "subscriptions_url": "https://api.github.com/users/sidhujag/subscriptions",
        "organizations_url": "https://api.github.com/users/sidhujag/orgs",
        "repos_url": "https://api.github.com/users/sidhujag/repos",
        "events_url": "https://api.github.com/users/sidhujag/events%7B/privacy%7D",
        "received_events_url": "https://api.github.com/users/sidhujag/received_events",
        "type": "User",
        "site_admin": false
      },
      "commit_id": "ba4a379d5031febd81f6238124267d8d441b74d4",
      "commit_url": "https://api.github.com/repos/syscoin/syscoin/commits/ba4a379d5031febd81f6238124267d8d441b74d4",
      "created_at": "2023-04-02T15:51:26Z"
    }
  ],
  "comments": [
    {
      "url": "https://api.github.com/repos/bitcoin/bitcoin/pulls/comments/1154410052",
      "pull_request_review_id": 1366837799,
      "id": 1154410052,
      "node_id": "PRRC_kwDOABII585EzuZE",
      "diff_hunk": "@@ -920,9 +916,9 @@ class PeerManagerImpl final : public PeerManager\n \n     /** Relay map (txid or wtxid -> CTransactionRef) */\n     typedef std::map<uint256, CTransactionRef> MapRelay;\n-    MapRelay mapRelay GUARDED_BY(cs_main);\n+    MapRelay mapRelay GUARDED_BY(NetEventsInterface::g_msgproc_mutex);",
      "path": "src/net_processing.cpp",
      "position": 27,
      "original_position": 27,
      "commit_id": "3fa4c54ac54b2d738e0c43b57b5c232ee02fe3b3",
      "original_commit_id": "3fa4c54ac54b2d738e0c43b57b5c232ee02fe3b3",
      "in_reply_to_id": null,
      "user": {
        "login": "hebasto",
        "id": 32963518,
        "node_id": "MDQ6VXNlcjMyOTYzNTE4",
        "avatar_url": "https://avatars.githubusercontent.com/u/32963518?v=4",
        "gravatar_id": "",
        "url": "https://api.github.com/users/hebasto",
        "html_url": "https://github.com/hebasto",
        "followers_url": "https://api.github.com/users/hebasto/followers",
        "following_url": "https://api.github.com/users/hebasto/following%7B/other_user%7D",
        "gists_url": "https://api.github.com/users/hebasto/gists%7B/gist_id%7D",
        "starred_url": "https://api.github.com/users/hebasto/starred%7B/owner%7D%7B/repo%7D",
        "subscriptions_url": "https://api.github.com/users/hebasto/subscriptions",
        "organizations_url": "https://api.github.com/users/hebasto/orgs",
        "repos_url": "https://api.github.com/users/hebasto/repos",
        "events_url": "https://api.github.com/users/hebasto/events%7B/privacy%7D",
        "received_events_url": "https://api.github.com/users/hebasto/received_events",
        "type": "User",
        "site_admin": false
      },
      "body": "Mention this in the PR description?",
      "created_at": "2023-03-31T12:22:06Z",
      "updated_at": "2023-03-31T12:22:07Z",
      "html_url": "https://github.com/bitcoin/bitcoin/pull/27379#discussion_r1154410052",
      "author_association": "MEMBER",
      "_links": {
        "self": {
          "href": "https://api.github.com/repos/bitcoin/bitcoin/pulls/comments/1154410052"
        },
        "pull_request": {
          "href": "https://api.github.com/repos/bitcoin/bitcoin/pulls/27379"
        }
      },
      "start_line": 923,
      "original_start_line": 923,
      "start_side": "LEFT",
      "line": 919,
      "original_line": 919,
      "side": "RIGHT"
    },
    {
      "url": "https://api.github.com/repos/bitcoin/bitcoin/pulls/comments/1154414721",
      "pull_request_review_id": 1366845074,
      "id": 1154414721,
      "node_id": "PRRC_kwDOABII585EzviB",
      "diff_hunk": "@@ -920,9 +916,9 @@ class PeerManagerImpl final : public PeerManager\n \n     /** Relay map (txid or wtxid -> CTransactionRef) */\n     typedef std::map<uint256, CTransactionRef> MapRelay;\n-    MapRelay mapRelay GUARDED_BY(cs_main);\n+    MapRelay mapRelay GUARDED_BY(NetEventsInterface::g_msgproc_mutex);",
      "path": "src/net_processing.cpp",
      "position": 27,
      "original_position": 27,
      "commit_id": "3fa4c54ac54b2d738e0c43b57b5c232ee02fe3b3",
      "original_commit_id": "3fa4c54ac54b2d738e0c43b57b5c232ee02fe3b3",
      "in_reply_to_id": 1154410052,
      "user": {
        "login": "dergoegge",
        "id": 8077169,
        "node_id": "MDQ6VXNlcjgwNzcxNjk=",
        "avatar_url": "https://avatars.githubusercontent.com/u/8077169?v=4",
        "gravatar_id": "",
        "url": "https://api.github.com/users/dergoegge",
        "html_url": "https://github.com/dergoegge",
        "followers_url": "https://api.github.com/users/dergoegge/followers",
        "following_url": "https://api.github.com/users/dergoegge/following%7B/other_user%7D",
        "gists_url": "https://api.github.com/users/dergoegge/gists%7B/gist_id%7D",
        "starred_url": "https://api.github.com/users/dergoegge/starred%7B/owner%7D%7B/repo%7D",
        "subscriptions_url": "https://api.github.com/users/dergoegge/subscriptions",
        "organizations_url": "https://api.github.com/users/dergoegge/orgs",
        "repos_url": "https://api.github.com/users/dergoegge/repos",
        "events_url": "https://api.github.com/users/dergoegge/events%7B/privacy%7D",
        "received_events_url": "https://api.github.com/users/dergoegge/received_events",
        "type": "User",
        "site_admin": false
      },
      "body": "Done",
      "created_at": "2023-03-31T12:27:02Z",
      "updated_at": "2023-03-31T12:27:03Z",
      "html_url": "https://github.com/bitcoin/bitcoin/pull/27379#discussion_r1154414721",
      "author_association": "MEMBER",
      "_links": {
        "self": {
          "href": "https://api.github.com/repos/bitcoin/bitcoin/pulls/comments/1154414721"
        },
        "pull_request": {
          "href": "https://api.github.com/repos/bitcoin/bitcoin/pulls/27379"
        }
      },
      "start_line": 923,
      "original_start_line": 923,
      "start_side": "LEFT",
      "line": 919,
      "original_line": 919,
      "side": "RIGHT"
    },
    {
      "url": "https://api.github.com/repos/bitcoin/bitcoin/pulls/comments/1154779794",
      "pull_request_review_id": 1367411560,
      "id": 1154779794,
      "node_id": "PRRC_kwDOABII585E1IqS",
      "diff_hunk": "@@ -317,10 +317,6 @@ struct Peer {\n     {\n         return WITH_LOCK(m_tx_relay_mutex, return m_tx_relay.get());\n     };\n-    const TxRelay* GetTxRelay() const EXCLUSIVE_LOCKS_REQUIRED(!m_tx_relay_mutex)\n-    {\n-        return WITH_LOCK(m_tx_relay_mutex, return m_tx_relay.get());\n-    };",
      "path": "src/net_processing.cpp",
      "position": 7,
      "original_position": 7,
      "commit_id": "3fa4c54ac54b2d738e0c43b57b5c232ee02fe3b3",
      "original_commit_id": "3fa4c54ac54b2d738e0c43b57b5c232ee02fe3b3",
      "in_reply_to_id": null,
      "user": {
        "login": "hebasto",
        "id": 32963518,
        "node_id": "MDQ6VXNlcjMyOTYzNTE4",
        "avatar_url": "https://avatars.githubusercontent.com/u/32963518?v=4",
        "gravatar_id": "",
        "url": "https://api.github.com/users/hebasto",
        "html_url": "https://github.com/hebasto",
        "followers_url": "https://api.github.com/users/hebasto/followers",
        "following_url": "https://api.github.com/users/hebasto/following%7B/other_user%7D",
        "gists_url": "https://api.github.com/users/hebasto/gists%7B/gist_id%7D",
        "starred_url": "https://api.github.com/users/hebasto/starred%7B/owner%7D%7B/repo%7D",
        "subscriptions_url": "https://api.github.com/users/hebasto/subscriptions",
        "organizations_url": "https://api.github.com/users/hebasto/orgs",
        "repos_url": "https://api.github.com/users/hebasto/repos",
        "events_url": "https://api.github.com/users/hebasto/events%7B/privacy%7D",
        "received_events_url": "https://api.github.com/users/hebasto/received_events",
        "type": "User",
        "site_admin": false
      },
      "body": "Nice!",
      "created_at": "2023-03-31T18:32:09Z",
      "updated_at": "2023-03-31T18:44:28Z",
      "html_url": "https://github.com/bitcoin/bitcoin/pull/27379#discussion_r1154779794",
      "author_association": "MEMBER",
      "_links": {
        "self": {
          "href": "https://api.github.com/repos/bitcoin/bitcoin/pulls/comments/1154779794"
        },
        "pull_request": {
          "href": "https://api.github.com/repos/bitcoin/bitcoin/pulls/27379"
        }
      },
      "start_line": 320,
      "original_start_line": 320,
      "start_side": "LEFT",
      "line": 323,
      "original_line": 323,
      "side": "LEFT"
    }
  ]
}