{
  "type": "pull",
  "pull": {
    "url": "https://api.github.com/repos/bitcoin/bitcoin/pulls/27423",
    "id": 1303059587,
    "node_id": "PR_kwDOABII585NqxyD",
    "html_url": "https://github.com/bitcoin/bitcoin/pull/27423",
    "diff_url": "https://github.com/bitcoin/bitcoin/pull/27423.diff",
    "patch_url": "https://github.com/bitcoin/bitcoin/pull/27423.patch",
    "issue_url": "https://api.github.com/repos/bitcoin/bitcoin/issues/27423",
    "commits_url": "https://api.github.com/repos/bitcoin/bitcoin/pulls/27423/commits",
    "review_comments_url": "https://api.github.com/repos/bitcoin/bitcoin/pulls/27423/comments",
    "review_comment_url": "https://api.github.com/repos/bitcoin/bitcoin/pulls/comments%7B/number%7D",
    "comments_url": "https://api.github.com/repos/bitcoin/bitcoin/issues/27423/comments",
    "statuses_url": "https://api.github.com/repos/bitcoin/bitcoin/statuses/ed4a8339b8fe796b4668e206d7fb9c2b120f8eb2",
    "number": 27423,
    "state": "closed",
    "locked": false,
    "maintainer_can_modify": false,
    "title": "ci: fix git dubious permissions error",
    "user": {
      "login": "josibake",
      "id": 7444140,
      "node_id": "MDQ6VXNlcjc0NDQxNDA=",
      "avatar_url": "https://avatars.githubusercontent.com/u/7444140?v=4",
      "gravatar_id": "",
      "url": "https://api.github.com/users/josibake",
      "html_url": "https://github.com/josibake",
      "followers_url": "https://api.github.com/users/josibake/followers",
      "following_url": "https://api.github.com/users/josibake/following%7B/other_user%7D",
      "gists_url": "https://api.github.com/users/josibake/gists%7B/gist_id%7D",
      "starred_url": "https://api.github.com/users/josibake/starred%7B/owner%7D%7B/repo%7D",
      "subscriptions_url": "https://api.github.com/users/josibake/subscriptions",
      "organizations_url": "https://api.github.com/users/josibake/orgs",
      "repos_url": "https://api.github.com/users/josibake/repos",
      "events_url": "https://api.github.com/users/josibake/events%7B/privacy%7D",
      "received_events_url": "https://api.github.com/users/josibake/received_events",
      "type": "User",
      "site_admin": false
    },
    "body": "fixes https://github.com/bitcoin/bitcoin/pull/27376#issuecomment-1496449588\r\n\r\nthis appears to be caused by a more recent version of git being sensitive to mismatched permissions on directories. we didn't notice this before because we were using two separate user accounts to fix up dir permissions in the container , but the second account was removed in #27376 \r\n\r\nthere might be a more elegant way to do this, but this does the trick and seems to be the way others are fixing this issue around the internets.\r\n",
    "labels": [
      {
        "id": 62963516,
        "node_id": "MDU6TGFiZWw2Mjk2MzUxNg==",
        "url": "https://api.github.com/repos/bitcoin/bitcoin/labels/Tests",
        "name": "Tests",
        "color": "d4c5f9",
        "default": false
      }
    ],
    "created_at": "2023-04-05T11:40:52Z",
    "updated_at": "2023-04-06T09:13:07Z",
    "closed_at": "2023-04-06T09:04:12Z",
    "mergeable_state": "unknown",
    "merged_at": "2023-04-06T09:04:12Z",
    "merge_commit_sha": "5a8bd4505687a7ec76d731b1a8249ee04d641990",
    "assignees": [],
    "requested_reviewers": [],
    "requested_teams": [],
    "head": {
      "label": "josibake:josibake-git-dubious-dir-permissions",
      "ref": "josibake-git-dubious-dir-permissions",
      "sha": "ed4a8339b8fe796b4668e206d7fb9c2b120f8eb2",
      "user": {
        "login": "josibake",
        "id": 7444140,
        "node_id": "MDQ6VXNlcjc0NDQxNDA=",
        "avatar_url": "https://avatars.githubusercontent.com/u/7444140?v=4",
        "gravatar_id": "",
        "url": "https://api.github.com/users/josibake",
        "html_url": "https://github.com/josibake",
        "followers_url": "https://api.github.com/users/josibake/followers",
        "following_url": "https://api.github.com/users/josibake/following%7B/other_user%7D",
        "gists_url": "https://api.github.com/users/josibake/gists%7B/gist_id%7D",
        "starred_url": "https://api.github.com/users/josibake/starred%7B/owner%7D%7B/repo%7D",
        "subscriptions_url": "https://api.github.com/users/josibake/subscriptions",
        "organizations_url": "https://api.github.com/users/josibake/orgs",
        "repos_url": "https://api.github.com/users/josibake/repos",
        "events_url": "https://api.github.com/users/josibake/events%7B/privacy%7D",
        "received_events_url": "https://api.github.com/users/josibake/received_events",
        "type": "User",
        "site_admin": false
      },
      "repo": {
        "id": 344501009,
        "node_id": "MDEwOlJlcG9zaXRvcnkzNDQ1MDEwMDk=",
        "name": "bitcoin",
        "full_name": "josibake/bitcoin",
        "owner": {
          "login": "josibake",
          "id": 7444140,
          "node_id": "MDQ6VXNlcjc0NDQxNDA=",
          "avatar_url": "https://avatars.githubusercontent.com/u/7444140?v=4",
          "gravatar_id": "",
          "url": "https://api.github.com/users/josibake",
          "html_url": "https://github.com/josibake",
          "followers_url": "https://api.github.com/users/josibake/followers",
          "following_url": "https://api.github.com/users/josibake/following%7B/other_user%7D",
          "gists_url": "https://api.github.com/users/josibake/gists%7B/gist_id%7D",
          "starred_url": "https://api.github.com/users/josibake/starred%7B/owner%7D%7B/repo%7D",
          "subscriptions_url": "https://api.github.com/users/josibake/subscriptions",
          "organizations_url": "https://api.github.com/users/josibake/orgs",
          "repos_url": "https://api.github.com/users/josibake/repos",
          "events_url": "https://api.github.com/users/josibake/events%7B/privacy%7D",
          "received_events_url": "https://api.github.com/users/josibake/received_events",
          "type": "User",
          "site_admin": false
        },
        "private": false,
        "html_url": "https://github.com/josibake/bitcoin",
        "description": "Bitcoin Core integration/staging tree",
        "fork": true,
        "url": "https://api.github.com/repos/josibake/bitcoin",
        "archive_url": "https://api.github.com/repos/josibake/bitcoin/%7Barchive_format%7D%7B/ref%7D",
        "assignees_url": "https://api.github.com/repos/josibake/bitcoin/assignees%7B/user%7D",
        "blobs_url": "https://api.github.com/repos/josibake/bitcoin/git/blobs%7B/sha%7D",
        "branches_url": "https://api.github.com/repos/josibake/bitcoin/branches%7B/branch%7D",
        "collaborators_url": "https://api.github.com/repos/josibake/bitcoin/collaborators%7B/collaborator%7D",
        "comments_url": "https://api.github.com/repos/josibake/bitcoin/comments%7B/number%7D",
        "commits_url": "https://api.github.com/repos/josibake/bitcoin/commits%7B/sha%7D",
        "compare_url": "https://api.github.com/repos/josibake/bitcoin/compare/%7Bbase%7D...%7Bhead%7D",
        "contents_url": "https://api.github.com/repos/josibake/bitcoin/contents/%7B+path%7D",
        "contributors_url": "https://api.github.com/repos/josibake/bitcoin/contributors",
        "deployments_url": "https://api.github.com/repos/josibake/bitcoin/deployments",
        "downloads_url": "https://api.github.com/repos/josibake/bitcoin/downloads",
        "events_url": "https://api.github.com/repos/josibake/bitcoin/events",
        "forks_url": "https://api.github.com/repos/josibake/bitcoin/forks",
        "git_commits_url": "https://api.github.com/repos/josibake/bitcoin/git/commits%7B/sha%7D",
        "git_refs_url": "https://api.github.com/repos/josibake/bitcoin/git/refs%7B/sha%7D",
        "git_tags_url": "https://api.github.com/repos/josibake/bitcoin/git/tags%7B/sha%7D",
        "git_url": "git://github.com/josibake/bitcoin.git",
        "issue_comment_url": "https://api.github.com/repos/josibake/bitcoin/issues/comments%7B/number%7D",
        "issue_events_url": "https://api.github.com/repos/josibake/bitcoin/issues/events%7B/number%7D",
        "issues_url": "https://api.github.com/repos/josibake/bitcoin/issues%7B/number%7D",
        "keys_url": "https://api.github.com/repos/josibake/bitcoin/keys%7B/key_id%7D",
        "labels_url": "https://api.github.com/repos/josibake/bitcoin/labels%7B/name%7D",
        "languages_url": "https://api.github.com/repos/josibake/bitcoin/languages",
        "merges_url": "https://api.github.com/repos/josibake/bitcoin/merges",
        "milestones_url": "https://api.github.com/repos/josibake/bitcoin/milestones%7B/number%7D",
        "notifications_url": "https://api.github.com/repos/josibake/bitcoin/notifications%7B?since,all,participating}",
        "pulls_url": "https://api.github.com/repos/josibake/bitcoin/pulls%7B/number%7D",
        "releases_url": "https://api.github.com/repos/josibake/bitcoin/releases%7B/id%7D",
        "ssh_url": "git@github.com:josibake/bitcoin.git",
        "stargazers_url": "https://api.github.com/repos/josibake/bitcoin/stargazers",
        "statuses_url": "https://api.github.com/repos/josibake/bitcoin/statuses/%7Bsha%7D",
        "subscribers_url": "https://api.github.com/repos/josibake/bitcoin/subscribers",
        "subscription_url": "https://api.github.com/repos/josibake/bitcoin/subscription",
        "tags_url": "https://api.github.com/repos/josibake/bitcoin/tags",
        "teams_url": "https://api.github.com/repos/josibake/bitcoin/teams",
        "trees_url": "https://api.github.com/repos/josibake/bitcoin/git/trees%7B/sha%7D",
        "clone_url": "https://github.com/josibake/bitcoin.git",
        "hooks_url": "https://api.github.com/repos/josibake/bitcoin/hooks",
        "svn_url": "https://github.com/josibake/bitcoin",
        "homepage": "https://bitcoincore.org/en/download",
        "language": "C++",
        "forks_count": 0,
        "stargazers_count": 0,
        "watchers_count": 0,
        "size": 225840,
        "default_branch": "master",
        "open_issues_count": 0,
        "is_template": false,
        "topics": [],
        "has_issues": false,
        "has_projects": true,
        "has_wiki": false,
        "has_pages": false,
        "has_downloads": false,
        "archived": false,
        "disabled": false,
        "visibility": "public",
        "pushed_at": "2023-08-02T14:00:24Z",
        "created_at": "2021-03-04T14:24:20Z",
        "updated_at": "2022-01-04T15:38:49Z",
        "license": {
          "key": "mit",
          "name": "MIT License",
          "node_id": "MDc6TGljZW5zZTEz",
          "spdx_id": "MIT",
          "url": "https://api.github.com/licenses/mit",
          "html_url": null,
          "description": null,
          "implementation": null,
          "permissions": null,
          "conditions": null,
          "limitations": null,
          "body": null,
          "featured": null
        }
      }
    },
    "base": {
      "label": "bitcoin:master",
      "ref": "master",
      "sha": "75d807ac9af0a6ce9aa9279930f4ff7348517bdb",
      "user": {
        "login": "bitcoin",
        "id": 528860,
        "node_id": "MDEyOk9yZ2FuaXphdGlvbjUyODg2MA==",
        "avatar_url": "https://avatars.githubusercontent.com/u/528860?v=4",
        "gravatar_id": "",
        "url": "https://api.github.com/users/bitcoin",
        "html_url": "https://github.com/bitcoin",
        "followers_url": "https://api.github.com/users/bitcoin/followers",
        "following_url": "https://api.github.com/users/bitcoin/following%7B/other_user%7D",
        "gists_url": "https://api.github.com/users/bitcoin/gists%7B/gist_id%7D",
        "starred_url": "https://api.github.com/users/bitcoin/starred%7B/owner%7D%7B/repo%7D",
        "subscriptions_url": "https://api.github.com/users/bitcoin/subscriptions",
        "organizations_url": "https://api.github.com/users/bitcoin/orgs",
        "repos_url": "https://api.github.com/users/bitcoin/repos",
        "events_url": "https://api.github.com/users/bitcoin/events%7B/privacy%7D",
        "received_events_url": "https://api.github.com/users/bitcoin/received_events",
        "type": "Organization",
        "site_admin": false
      },
      "repo": {
        "id": 1181927,
        "node_id": "MDEwOlJlcG9zaXRvcnkxMTgxOTI3",
        "name": "bitcoin",
        "full_name": "bitcoin/bitcoin",
        "owner": {
          "login": "bitcoin",
          "id": 528860,
          "node_id": "MDEyOk9yZ2FuaXphdGlvbjUyODg2MA==",
          "avatar_url": "https://avatars.githubusercontent.com/u/528860?v=4",
          "gravatar_id": "",
          "url": "https://api.github.com/users/bitcoin",
          "html_url": "https://github.com/bitcoin",
          "followers_url": "https://api.github.com/users/bitcoin/followers",
          "following_url": "https://api.github.com/users/bitcoin/following%7B/other_user%7D",
          "gists_url": "https://api.github.com/users/bitcoin/gists%7B/gist_id%7D",
          "starred_url": "https://api.github.com/users/bitcoin/starred%7B/owner%7D%7B/repo%7D",
          "subscriptions_url": "https://api.github.com/users/bitcoin/subscriptions",
          "organizations_url": "https://api.github.com/users/bitcoin/orgs",
          "repos_url": "https://api.github.com/users/bitcoin/repos",
          "events_url": "https://api.github.com/users/bitcoin/events%7B/privacy%7D",
          "received_events_url": "https://api.github.com/users/bitcoin/received_events",
          "type": "Organization",
          "site_admin": false
        },
        "private": false,
        "html_url": "https://github.com/bitcoin/bitcoin",
        "description": "Bitcoin Core integration/staging tree",
        "fork": false,
        "url": "https://api.github.com/repos/bitcoin/bitcoin",
        "archive_url": "https://api.github.com/repos/bitcoin/bitcoin/%7Barchive_format%7D%7B/ref%7D",
        "assignees_url": "https://api.github.com/repos/bitcoin/bitcoin/assignees%7B/user%7D",
        "blobs_url": "https://api.github.com/repos/bitcoin/bitcoin/git/blobs%7B/sha%7D",
        "branches_url": "https://api.github.com/repos/bitcoin/bitcoin/branches%7B/branch%7D",
        "collaborators_url": "https://api.github.com/repos/bitcoin/bitcoin/collaborators%7B/collaborator%7D",
        "comments_url": "https://api.github.com/repos/bitcoin/bitcoin/comments%7B/number%7D",
        "commits_url": "https://api.github.com/repos/bitcoin/bitcoin/commits%7B/sha%7D",
        "compare_url": "https://api.github.com/repos/bitcoin/bitcoin/compare/%7Bbase%7D...%7Bhead%7D",
        "contents_url": "https://api.github.com/repos/bitcoin/bitcoin/contents/%7B+path%7D",
        "contributors_url": "https://api.github.com/repos/bitcoin/bitcoin/contributors",
        "deployments_url": "https://api.github.com/repos/bitcoin/bitcoin/deployments",
        "downloads_url": "https://api.github.com/repos/bitcoin/bitcoin/downloads",
        "events_url": "https://api.github.com/repos/bitcoin/bitcoin/events",
        "forks_url": "https://api.github.com/repos/bitcoin/bitcoin/forks",
        "git_commits_url": "https://api.github.com/repos/bitcoin/bitcoin/git/commits%7B/sha%7D",
        "git_refs_url": "https://api.github.com/repos/bitcoin/bitcoin/git/refs%7B/sha%7D",
        "git_tags_url": "https://api.github.com/repos/bitcoin/bitcoin/git/tags%7B/sha%7D",
        "git_url": "git://github.com/bitcoin/bitcoin.git",
        "issue_comment_url": "https://api.github.com/repos/bitcoin/bitcoin/issues/comments%7B/number%7D",
        "issue_events_url": "https://api.github.com/repos/bitcoin/bitcoin/issues/events%7B/number%7D",
        "issues_url": "https://api.github.com/repos/bitcoin/bitcoin/issues%7B/number%7D",
        "keys_url": "https://api.github.com/repos/bitcoin/bitcoin/keys%7B/key_id%7D",
        "labels_url": "https://api.github.com/repos/bitcoin/bitcoin/labels%7B/name%7D",
        "languages_url": "https://api.github.com/repos/bitcoin/bitcoin/languages",
        "merges_url": "https://api.github.com/repos/bitcoin/bitcoin/merges",
        "milestones_url": "https://api.github.com/repos/bitcoin/bitcoin/milestones%7B/number%7D",
        "notifications_url": "https://api.github.com/repos/bitcoin/bitcoin/notifications%7B?since,all,participating}",
        "pulls_url": "https://api.github.com/repos/bitcoin/bitcoin/pulls%7B/number%7D",
        "releases_url": "https://api.github.com/repos/bitcoin/bitcoin/releases%7B/id%7D",
        "ssh_url": "git@github.com:bitcoin/bitcoin.git",
        "stargazers_url": "https://api.github.com/repos/bitcoin/bitcoin/stargazers",
        "statuses_url": "https://api.github.com/repos/bitcoin/bitcoin/statuses/%7Bsha%7D",
        "subscribers_url": "https://api.github.com/repos/bitcoin/bitcoin/subscribers",
        "subscription_url": "https://api.github.com/repos/bitcoin/bitcoin/subscription",
        "tags_url": "https://api.github.com/repos/bitcoin/bitcoin/tags",
        "teams_url": "https://api.github.com/repos/bitcoin/bitcoin/teams",
        "trees_url": "https://api.github.com/repos/bitcoin/bitcoin/git/trees%7B/sha%7D",
        "clone_url": "https://github.com/bitcoin/bitcoin.git",
        "hooks_url": "https://api.github.com/repos/bitcoin/bitcoin/hooks",
        "svn_url": "https://github.com/bitcoin/bitcoin",
        "homepage": "https://bitcoincore.org/en/download",
        "language": "C++",
        "forks_count": 35476,
        "stargazers_count": 70608,
        "watchers_count": 70608,
        "size": 236222,
        "default_branch": "master",
        "open_issues_count": 673,
        "is_template": false,
        "topics": [
          "bitcoin",
          "c-plus-plus",
          "cryptocurrency",
          "cryptography",
          "p2p"
        ],
        "has_issues": true,
        "has_projects": true,
        "has_wiki": false,
        "has_pages": false,
        "has_downloads": false,
        "archived": false,
        "disabled": false,
        "visibility": "public",
        "pushed_at": "2023-08-03T00:03:27Z",
        "created_at": "2010-12-19T15:16:43Z",
        "updated_at": "2023-08-02T18:21:18Z",
        "license": {
          "key": "mit",
          "name": "MIT License",
          "node_id": "MDc6TGljZW5zZTEz",
          "spdx_id": "MIT",
          "url": "https://api.github.com/licenses/mit",
          "html_url": null,
          "description": null,
          "implementation": null,
          "permissions": null,
          "conditions": null,
          "limitations": null,
          "body": null,
          "featured": null
        }
      }
    },
    "_links": {
      "self": {
        "href": "https://api.github.com/repos/bitcoin/bitcoin/pulls/27423"
      }
    },
    "author_association": "CONTRIBUTOR",
    "draft": false,
    "additions": 3,
    "deletions": 0,
    "changed_files": 1,
    "commits": 1,
    "review_comments": 4,
    "comments": 4
  },
  "events": [
    {
      "event": "commented",
      "id": 1497345300,
      "node_id": "IC_kwDOABII585ZP60U",
      "url": "https://api.github.com/repos/bitcoin/bitcoin/issues/comments/1497345300",
      "actor": {
        "login": "DrahtBot",
        "id": 39886733,
        "node_id": "MDQ6VXNlcjM5ODg2NzMz",
        "avatar_url": "https://avatars.githubusercontent.com/u/39886733?v=4",
        "gravatar_id": "",
        "url": "https://api.github.com/users/DrahtBot",
        "html_url": "https://github.com/DrahtBot",
        "followers_url": "https://api.github.com/users/DrahtBot/followers",
        "following_url": "https://api.github.com/users/DrahtBot/following%7B/other_user%7D",
        "gists_url": "https://api.github.com/users/DrahtBot/gists%7B/gist_id%7D",
        "starred_url": "https://api.github.com/users/DrahtBot/starred%7B/owner%7D%7B/repo%7D",
        "subscriptions_url": "https://api.github.com/users/DrahtBot/subscriptions",
        "organizations_url": "https://api.github.com/users/DrahtBot/orgs",
        "repos_url": "https://api.github.com/users/DrahtBot/repos",
        "events_url": "https://api.github.com/users/DrahtBot/events%7B/privacy%7D",
        "received_events_url": "https://api.github.com/users/DrahtBot/received_events",
        "type": "User",
        "site_admin": false
      },
      "commit_id": null,
      "commit_url": null,
      "created_at": "2023-04-05T11:40:55Z",
      "updated_at": "2023-04-06T00:43:38Z",
      "author_association": "CONTRIBUTOR",
      "body": "<!--e57a25ab6845829454e8d69fc972939a-->\n\nThe following sections might be updated with supplementary metadata relevant to reviewers and maintainers.\n\n<!--021abf342d371248e50ceaed478a90ca-->\n### Reviews\nSee [the guideline](https://github.com/bitcoin/bitcoin/blob/master/CONTRIBUTING.md#code-review) for information on the review process.\n| Type | Reviewers |\n| ---- | --------- |\n| ACK | [hebasto](https://github.com/bitcoin/bitcoin/pull/27423#pullrequestreview-1372821348), [RandyMcMillan](https://github.com/bitcoin/bitcoin/pull/27423#issuecomment-1498134466) |\n| Concept ACK | [fanquake](https://github.com/bitcoin/bitcoin/pull/27423#issuecomment-1497996395) |\n\nIf your review is incorrectly listed, please react with 👎 to this comment and the bot will ignore it on the next update.\n<!--174a7506f384e20aa4161008e828411d-->\n### Conflicts\nReviewers, this pull request conflicts with the following ones:\n\n* [#27340](https://github.com/bitcoin/bitcoin/pull/27340) (ci: Use Cirrus CI dockerfile env by MarcoFalke)\n\nIf you consider this pull request important, please also help to review the conflicting pull requests. Ideally, start with the one that should be merged first.\n",
      "user": {
        "login": "DrahtBot",
        "id": 39886733,
        "node_id": "MDQ6VXNlcjM5ODg2NzMz",
        "avatar_url": "https://avatars.githubusercontent.com/u/39886733?v=4",
        "gravatar_id": "",
        "url": "https://api.github.com/users/DrahtBot",
        "html_url": "https://github.com/DrahtBot",
        "followers_url": "https://api.github.com/users/DrahtBot/followers",
        "following_url": "https://api.github.com/users/DrahtBot/following%7B/other_user%7D",
        "gists_url": "https://api.github.com/users/DrahtBot/gists%7B/gist_id%7D",
        "starred_url": "https://api.github.com/users/DrahtBot/starred%7B/owner%7D%7B/repo%7D",
        "subscriptions_url": "https://api.github.com/users/DrahtBot/subscriptions",
        "organizations_url": "https://api.github.com/users/DrahtBot/orgs",
        "repos_url": "https://api.github.com/users/DrahtBot/repos",
        "events_url": "https://api.github.com/users/DrahtBot/events%7B/privacy%7D",
        "received_events_url": "https://api.github.com/users/DrahtBot/received_events",
        "type": "User",
        "site_admin": false
      },
      "html_url": "https://github.com/bitcoin/bitcoin/pull/27423#issuecomment-1497345300",
      "issue_url": "https://api.github.com/repos/bitcoin/bitcoin/issues/27423"
    },
    {
      "event": "labeled",
      "id": 8934166384,
      "node_id": "LE_lADOABII585irFbbzwAAAAIUhI9w",
      "url": "https://api.github.com/repos/bitcoin/bitcoin/issues/events/8934166384",
      "actor": {
        "login": "DrahtBot",
        "id": 39886733,
        "node_id": "MDQ6VXNlcjM5ODg2NzMz",
        "avatar_url": "https://avatars.githubusercontent.com/u/39886733?v=4",
        "gravatar_id": "",
        "url": "https://api.github.com/users/DrahtBot",
        "html_url": "https://github.com/DrahtBot",
        "followers_url": "https://api.github.com/users/DrahtBot/followers",
        "following_url": "https://api.github.com/users/DrahtBot/following%7B/other_user%7D",
        "gists_url": "https://api.github.com/users/DrahtBot/gists%7B/gist_id%7D",
        "starred_url": "https://api.github.com/users/DrahtBot/starred%7B/owner%7D%7B/repo%7D",
        "subscriptions_url": "https://api.github.com/users/DrahtBot/subscriptions",
        "organizations_url": "https://api.github.com/users/DrahtBot/orgs",
        "repos_url": "https://api.github.com/users/DrahtBot/repos",
        "events_url": "https://api.github.com/users/DrahtBot/events%7B/privacy%7D",
        "received_events_url": "https://api.github.com/users/DrahtBot/received_events",
        "type": "User",
        "site_admin": false
      },
      "commit_id": null,
      "commit_url": null,
      "created_at": "2023-04-05T11:40:57Z",
      "label": {
        "name": "Tests",
        "color": "d4c5f9"
      }
    },
    {
      "event": "commented",
      "id": 1497346650,
      "node_id": "IC_kwDOABII585ZP7Ja",
      "url": "https://api.github.com/repos/bitcoin/bitcoin/issues/comments/1497346650",
      "actor": {
        "login": "josibake",
        "id": 7444140,
        "node_id": "MDQ6VXNlcjc0NDQxNDA=",
        "avatar_url": "https://avatars.githubusercontent.com/u/7444140?v=4",
        "gravatar_id": "",
        "url": "https://api.github.com/users/josibake",
        "html_url": "https://github.com/josibake",
        "followers_url": "https://api.github.com/users/josibake/followers",
        "following_url": "https://api.github.com/users/josibake/following%7B/other_user%7D",
        "gists_url": "https://api.github.com/users/josibake/gists%7B/gist_id%7D",
        "starred_url": "https://api.github.com/users/josibake/starred%7B/owner%7D%7B/repo%7D",
        "subscriptions_url": "https://api.github.com/users/josibake/subscriptions",
        "organizations_url": "https://api.github.com/users/josibake/orgs",
        "repos_url": "https://api.github.com/users/josibake/repos",
        "events_url": "https://api.github.com/users/josibake/events%7B/privacy%7D",
        "received_events_url": "https://api.github.com/users/josibake/received_events",
        "type": "User",
        "site_admin": false
      },
      "commit_id": null,
      "commit_url": null,
      "created_at": "2023-04-05T11:42:12Z",
      "updated_at": "2023-04-05T11:42:12Z",
      "author_association": "CONTRIBUTOR",
      "body": "cc @hebasto @MarcoFalke ",
      "user": {
        "login": "josibake",
        "id": 7444140,
        "node_id": "MDQ6VXNlcjc0NDQxNDA=",
        "avatar_url": "https://avatars.githubusercontent.com/u/7444140?v=4",
        "gravatar_id": "",
        "url": "https://api.github.com/users/josibake",
        "html_url": "https://github.com/josibake",
        "followers_url": "https://api.github.com/users/josibake/followers",
        "following_url": "https://api.github.com/users/josibake/following%7B/other_user%7D",
        "gists_url": "https://api.github.com/users/josibake/gists%7B/gist_id%7D",
        "starred_url": "https://api.github.com/users/josibake/starred%7B/owner%7D%7B/repo%7D",
        "subscriptions_url": "https://api.github.com/users/josibake/subscriptions",
        "organizations_url": "https://api.github.com/users/josibake/orgs",
        "repos_url": "https://api.github.com/users/josibake/repos",
        "events_url": "https://api.github.com/users/josibake/events%7B/privacy%7D",
        "received_events_url": "https://api.github.com/users/josibake/received_events",
        "type": "User",
        "site_admin": false
      },
      "html_url": "https://github.com/bitcoin/bitcoin/pull/27423#issuecomment-1497346650",
      "issue_url": "https://api.github.com/repos/bitcoin/bitcoin/issues/27423"
    },
    {
      "event": "mentioned",
      "id": 8934176526,
      "node_id": "MEE_lADOABII585irFbbzwAAAAIUhLcO",
      "url": "https://api.github.com/repos/bitcoin/bitcoin/issues/events/8934176526",
      "actor": {
        "login": "MarcoFalke",
        "id": 6399679,
        "node_id": "MDQ6VXNlcjYzOTk2Nzk=",
        "avatar_url": "https://avatars.githubusercontent.com/u/6399679?v=4",
        "gravatar_id": "",
        "url": "https://api.github.com/users/MarcoFalke",
        "html_url": "https://github.com/MarcoFalke",
        "followers_url": "https://api.github.com/users/MarcoFalke/followers",
        "following_url": "https://api.github.com/users/MarcoFalke/following%7B/other_user%7D",
        "gists_url": "https://api.github.com/users/MarcoFalke/gists%7B/gist_id%7D",
        "starred_url": "https://api.github.com/users/MarcoFalke/starred%7B/owner%7D%7B/repo%7D",
        "subscriptions_url": "https://api.github.com/users/MarcoFalke/subscriptions",
        "organizations_url": "https://api.github.com/users/MarcoFalke/orgs",
        "repos_url": "https://api.github.com/users/MarcoFalke/repos",
        "events_url": "https://api.github.com/users/MarcoFalke/events%7B/privacy%7D",
        "received_events_url": "https://api.github.com/users/MarcoFalke/received_events",
        "type": "User",
        "site_admin": false
      },
      "commit_id": null,
      "commit_url": null,
      "created_at": "2023-04-05T11:42:12Z"
    },
    {
      "event": "subscribed",
      "id": 8934176543,
      "node_id": "SE_lADOABII585irFbbzwAAAAIUhLcf",
      "url": "https://api.github.com/repos/bitcoin/bitcoin/issues/events/8934176543",
      "actor": {
        "login": "MarcoFalke",
        "id": 6399679,
        "node_id": "MDQ6VXNlcjYzOTk2Nzk=",
        "avatar_url": "https://avatars.githubusercontent.com/u/6399679?v=4",
        "gravatar_id": "",
        "url": "https://api.github.com/users/MarcoFalke",
        "html_url": "https://github.com/MarcoFalke",
        "followers_url": "https://api.github.com/users/MarcoFalke/followers",
        "following_url": "https://api.github.com/users/MarcoFalke/following%7B/other_user%7D",
        "gists_url": "https://api.github.com/users/MarcoFalke/gists%7B/gist_id%7D",
        "starred_url": "https://api.github.com/users/MarcoFalke/starred%7B/owner%7D%7B/repo%7D",
        "subscriptions_url": "https://api.github.com/users/MarcoFalke/subscriptions",
        "organizations_url": "https://api.github.com/users/MarcoFalke/orgs",
        "repos_url": "https://api.github.com/users/MarcoFalke/repos",
        "events_url": "https://api.github.com/users/MarcoFalke/events%7B/privacy%7D",
        "received_events_url": "https://api.github.com/users/MarcoFalke/received_events",
        "type": "User",
        "site_admin": false
      },
      "commit_id": null,
      "commit_url": null,
      "created_at": "2023-04-05T11:42:13Z"
    },
    {
      "event": "mentioned",
      "id": 8934176571,
      "node_id": "MEE_lADOABII585irFbbzwAAAAIUhLc7",
      "url": "https://api.github.com/repos/bitcoin/bitcoin/issues/events/8934176571",
      "actor": {
        "login": "hebasto",
        "id": 32963518,
        "node_id": "MDQ6VXNlcjMyOTYzNTE4",
        "avatar_url": "https://avatars.githubusercontent.com/u/32963518?v=4",
        "gravatar_id": "",
        "url": "https://api.github.com/users/hebasto",
        "html_url": "https://github.com/hebasto",
        "followers_url": "https://api.github.com/users/hebasto/followers",
        "following_url": "https://api.github.com/users/hebasto/following%7B/other_user%7D",
        "gists_url": "https://api.github.com/users/hebasto/gists%7B/gist_id%7D",
        "starred_url": "https://api.github.com/users/hebasto/starred%7B/owner%7D%7B/repo%7D",
        "subscriptions_url": "https://api.github.com/users/hebasto/subscriptions",
        "organizations_url": "https://api.github.com/users/hebasto/orgs",
        "repos_url": "https://api.github.com/users/hebasto/repos",
        "events_url": "https://api.github.com/users/hebasto/events%7B/privacy%7D",
        "received_events_url": "https://api.github.com/users/hebasto/received_events",
        "type": "User",
        "site_admin": false
      },
      "commit_id": null,
      "commit_url": null,
      "created_at": "2023-04-05T11:42:13Z"
    },
    {
      "event": "subscribed",
      "id": 8934176584,
      "node_id": "SE_lADOABII585irFbbzwAAAAIUhLdI",
      "url": "https://api.github.com/repos/bitcoin/bitcoin/issues/events/8934176584",
      "actor": {
        "login": "hebasto",
        "id": 32963518,
        "node_id": "MDQ6VXNlcjMyOTYzNTE4",
        "avatar_url": "https://avatars.githubusercontent.com/u/32963518?v=4",
        "gravatar_id": "",
        "url": "https://api.github.com/users/hebasto",
        "html_url": "https://github.com/hebasto",
        "followers_url": "https://api.github.com/users/hebasto/followers",
        "following_url": "https://api.github.com/users/hebasto/following%7B/other_user%7D",
        "gists_url": "https://api.github.com/users/hebasto/gists%7B/gist_id%7D",
        "starred_url": "https://api.github.com/users/hebasto/starred%7B/owner%7D%7B/repo%7D",
        "subscriptions_url": "https://api.github.com/users/hebasto/subscriptions",
        "organizations_url": "https://api.github.com/users/hebasto/orgs",
        "repos_url": "https://api.github.com/users/hebasto/repos",
        "events_url": "https://api.github.com/users/hebasto/events%7B/privacy%7D",
        "received_events_url": "https://api.github.com/users/hebasto/received_events",
        "type": "User",
        "site_admin": false
      },
      "commit_id": null,
      "commit_url": null,
      "created_at": "2023-04-05T11:42:13Z"
    },
    {
      "event": "reviewed",
      "id": 1372787226,
      "node_id": "PRR_kwDOABII585R0xIa",
      "url": null,
      "actor": null,
      "commit_id": "2c11e94131447bc605b7698a80d02c2523497a4b",
      "commit_url": null,
      "created_at": null,
      "author_association": "MEMBER",
      "body": "ACK 2c11e94131447bc605b7698a80d02c2523497a4b, tested on Ubuntu 22.04.",
      "user": {
        "login": "hebasto",
        "id": 32963518,
        "node_id": "MDQ6VXNlcjMyOTYzNTE4",
        "avatar_url": "https://avatars.githubusercontent.com/u/32963518?v=4",
        "gravatar_id": "",
        "url": "https://api.github.com/users/hebasto",
        "html_url": "https://github.com/hebasto",
        "followers_url": "https://api.github.com/users/hebasto/followers",
        "following_url": "https://api.github.com/users/hebasto/following%7B/other_user%7D",
        "gists_url": "https://api.github.com/users/hebasto/gists%7B/gist_id%7D",
        "starred_url": "https://api.github.com/users/hebasto/starred%7B/owner%7D%7B/repo%7D",
        "subscriptions_url": "https://api.github.com/users/hebasto/subscriptions",
        "organizations_url": "https://api.github.com/users/hebasto/orgs",
        "repos_url": "https://api.github.com/users/hebasto/repos",
        "events_url": "https://api.github.com/users/hebasto/events%7B/privacy%7D",
        "received_events_url": "https://api.github.com/users/hebasto/received_events",
        "type": "User",
        "site_admin": false
      },
      "html_url": "https://github.com/bitcoin/bitcoin/pull/27423#pullrequestreview-1372787226",
      "submitted_at": "2023-04-05T12:18:42Z",
      "state": "APPROVED",
      "pull_request_url": "https://api.github.com/repos/bitcoin/bitcoin/pulls/27423"
    },
    {
      "event": "committed",
      "id": null,
      "node_id": "C_kwDOABII59oAKGVkNGE4MzM5YjhmZTc5NmI0NjY4ZTIwNmQ3ZmI5YzJiMTIwZjhlYjI",
      "url": "https://api.github.com/repos/bitcoin/bitcoin/git/commits/ed4a8339b8fe796b4668e206d7fb9c2b120f8eb2",
      "actor": null,
      "commit_id": null,
      "commit_url": null,
      "created_at": null,
      "html_url": "https://github.com/bitcoin/bitcoin/commit/ed4a8339b8fe796b4668e206d7fb9c2b120f8eb2",
      "tree": {
        "sha": "71e8d2c8919dfb5bdfceec338bcb08d96faa1fc3",
        "url": "https://api.github.com/repos/bitcoin/bitcoin/git/trees/71e8d2c8919dfb5bdfceec338bcb08d96faa1fc3"
      },
      "verification": {
        "verified": true,
        "reason": "valid",
        "payload": "tree 71e8d2c8919dfb5bdfceec338bcb08d96faa1fc3\nparent 49b87bfe7e2799d25ce709123ecafa872b36e87a\nauthor josibake <josibake@protonmail.com> 1680693919 +0200\ncommitter josibake <josibake@protonmail.com> 1680697513 +0200\n\nci: fix git dubious permissions error\n",
        "signature": "-----BEGIN PGP SIGNATURE-----\n\niQIzBAABCgAdFiEEYWUWuOtu0CiC/Ep6ity1WMTzPWUFAmQtaKsACgkQity1WMTz\nPWXqWQ//aZZYbGcRq9y8JVJ019OJKkwitXSDvblDtTfnED4LFqE+PgghUKRt1Xhy\nU9hR0pOi+CySMszzoctCZC8JrXwEbRmGnhqnTn6bkWcKxQiEcvxLNOmdeHqFldNm\nFsrHqL/Tk069yYGUzofHumGcT7wiw/opyaZ3LNsXltinEINQsPIY67b0GE6zV+8p\nsyfo2EslhE+Zy0tAfbu8Y5iaxVAgV8JdkEjzLi7vh4yNQ/CWxMTWbUk6zmbNbJaM\nI20QNXIJlR56RypEMrQATDXU8XFNQYI/Mj39r2El+FN/ZZeT8kda8d+0sh8Sv5XW\nIIfj7wj1vn9P/97F75BcbkD/HjqEbbteH4N1K49u6mXr3m7KCojpZUxZDzWraJnK\nNH6YIAwvbJZF5eEdOvOowGa4rkLZUiFPq5pP81U9/3hBw1KGrHRjEOE3n8tQsiml\nAMLDsIDG+qa4wrfhvNzDfR8mPRnmmIaEvrTr5PNH/TJTAP1L6KTblGyK/NyWTTr/\nDmNcdjsUrIvolJpQRQnIUMun3Lepb98uzmReXZeeudUz3GvrmeDundWphTv8XWT4\nvilsD4v0TJjapfLMGXTfVCnN5xSakX9vt1ijRP89IuSz143cRY4vj/lZ9E7/QBKr\nKKX9X98AK7bYs/zrZCVdWipoxVSTiklQYWfR2NvwEAubifFEBX4=\n=xivw\n-----END PGP SIGNATURE-----"
      },
      "parents": [
        {
          "url": "https://api.github.com/repos/bitcoin/bitcoin/git/commits/49b87bfe7e2799d25ce709123ecafa872b36e87a",
          "sha": "49b87bfe7e2799d25ce709123ecafa872b36e87a",
          "html_url": "https://github.com/bitcoin/bitcoin/commit/49b87bfe7e2799d25ce709123ecafa872b36e87a"
        }
      ],
      "message": "ci: fix git dubious permissions error",
      "committer": {
        "name": "josibake",
        "email": "josibake@protonmail.com",
        "date": "2023-04-05T12:25:13Z"
      },
      "author": {
        "name": "josibake",
        "email": "josibake@protonmail.com",
        "date": "2023-04-05T11:25:19Z"
      },
      "sha": "ed4a8339b8fe796b4668e206d7fb9c2b120f8eb2"
    },
    {
      "event": "head_ref_force_pushed",
      "id": 8934580670,
      "node_id": "HRFPE_lADOABII585irFbbzwAAAAIUiuG-",
      "url": "https://api.github.com/repos/bitcoin/bitcoin/issues/events/8934580670",
      "actor": {
        "login": "josibake",
        "id": 7444140,
        "node_id": "MDQ6VXNlcjc0NDQxNDA=",
        "avatar_url": "https://avatars.githubusercontent.com/u/7444140?v=4",
        "gravatar_id": "",
        "url": "https://api.github.com/users/josibake",
        "html_url": "https://github.com/josibake",
        "followers_url": "https://api.github.com/users/josibake/followers",
        "following_url": "https://api.github.com/users/josibake/following%7B/other_user%7D",
        "gists_url": "https://api.github.com/users/josibake/gists%7B/gist_id%7D",
        "starred_url": "https://api.github.com/users/josibake/starred%7B/owner%7D%7B/repo%7D",
        "subscriptions_url": "https://api.github.com/users/josibake/subscriptions",
        "organizations_url": "https://api.github.com/users/josibake/orgs",
        "repos_url": "https://api.github.com/users/josibake/repos",
        "events_url": "https://api.github.com/users/josibake/events%7B/privacy%7D",
        "received_events_url": "https://api.github.com/users/josibake/received_events",
        "type": "User",
        "site_admin": false
      },
      "commit_id": null,
      "commit_url": null,
      "created_at": "2023-04-05T12:25:33Z"
    },
    {
      "event": "reviewed",
      "id": 1372821348,
      "node_id": "PRR_kwDOABII585R05dk",
      "url": null,
      "actor": null,
      "commit_id": "ed4a8339b8fe796b4668e206d7fb9c2b120f8eb2",
      "commit_url": null,
      "created_at": null,
      "author_association": "MEMBER",
      "body": "re-ACK ed4a8339b8fe796b4668e206d7fb9c2b120f8eb2",
      "user": {
        "login": "hebasto",
        "id": 32963518,
        "node_id": "MDQ6VXNlcjMyOTYzNTE4",
        "avatar_url": "https://avatars.githubusercontent.com/u/32963518?v=4",
        "gravatar_id": "",
        "url": "https://api.github.com/users/hebasto",
        "html_url": "https://github.com/hebasto",
        "followers_url": "https://api.github.com/users/hebasto/followers",
        "following_url": "https://api.github.com/users/hebasto/following%7B/other_user%7D",
        "gists_url": "https://api.github.com/users/hebasto/gists%7B/gist_id%7D",
        "starred_url": "https://api.github.com/users/hebasto/starred%7B/owner%7D%7B/repo%7D",
        "subscriptions_url": "https://api.github.com/users/hebasto/subscriptions",
        "organizations_url": "https://api.github.com/users/hebasto/orgs",
        "repos_url": "https://api.github.com/users/hebasto/repos",
        "events_url": "https://api.github.com/users/hebasto/events%7B/privacy%7D",
        "received_events_url": "https://api.github.com/users/hebasto/received_events",
        "type": "User",
        "site_admin": false
      },
      "html_url": "https://github.com/bitcoin/bitcoin/pull/27423#pullrequestreview-1372821348",
      "submitted_at": "2023-04-05T12:37:36Z",
      "state": "APPROVED",
      "pull_request_url": "https://api.github.com/repos/bitcoin/bitcoin/pulls/27423"
    },
    {
      "event": "commented",
      "id": 1497996395,
      "node_id": "IC_kwDOABII585ZSZxr",
      "url": "https://api.github.com/repos/bitcoin/bitcoin/issues/comments/1497996395",
      "actor": {
        "login": "fanquake",
        "id": 863730,
        "node_id": "MDQ6VXNlcjg2MzczMA==",
        "avatar_url": "https://avatars.githubusercontent.com/u/863730?v=4",
        "gravatar_id": "",
        "url": "https://api.github.com/users/fanquake",
        "html_url": "https://github.com/fanquake",
        "followers_url": "https://api.github.com/users/fanquake/followers",
        "following_url": "https://api.github.com/users/fanquake/following%7B/other_user%7D",
        "gists_url": "https://api.github.com/users/fanquake/gists%7B/gist_id%7D",
        "starred_url": "https://api.github.com/users/fanquake/starred%7B/owner%7D%7B/repo%7D",
        "subscriptions_url": "https://api.github.com/users/fanquake/subscriptions",
        "organizations_url": "https://api.github.com/users/fanquake/orgs",
        "repos_url": "https://api.github.com/users/fanquake/repos",
        "events_url": "https://api.github.com/users/fanquake/events%7B/privacy%7D",
        "received_events_url": "https://api.github.com/users/fanquake/received_events",
        "type": "User",
        "site_admin": false
      },
      "commit_id": null,
      "commit_url": null,
      "created_at": "2023-04-05T19:18:38Z",
      "updated_at": "2023-04-05T19:18:38Z",
      "author_association": "MEMBER",
      "body": "Concept ACK - will test",
      "user": {
        "login": "fanquake",
        "id": 863730,
        "node_id": "MDQ6VXNlcjg2MzczMA==",
        "avatar_url": "https://avatars.githubusercontent.com/u/863730?v=4",
        "gravatar_id": "",
        "url": "https://api.github.com/users/fanquake",
        "html_url": "https://github.com/fanquake",
        "followers_url": "https://api.github.com/users/fanquake/followers",
        "following_url": "https://api.github.com/users/fanquake/following%7B/other_user%7D",
        "gists_url": "https://api.github.com/users/fanquake/gists%7B/gist_id%7D",
        "starred_url": "https://api.github.com/users/fanquake/starred%7B/owner%7D%7B/repo%7D",
        "subscriptions_url": "https://api.github.com/users/fanquake/subscriptions",
        "organizations_url": "https://api.github.com/users/fanquake/orgs",
        "repos_url": "https://api.github.com/users/fanquake/repos",
        "events_url": "https://api.github.com/users/fanquake/events%7B/privacy%7D",
        "received_events_url": "https://api.github.com/users/fanquake/received_events",
        "type": "User",
        "site_admin": false
      },
      "html_url": "https://github.com/bitcoin/bitcoin/pull/27423#issuecomment-1497996395",
      "issue_url": "https://api.github.com/repos/bitcoin/bitcoin/issues/27423"
    },
    {
      "event": "commented",
      "id": 1498134466,
      "node_id": "IC_kwDOABII585ZS7fC",
      "url": "https://api.github.com/repos/bitcoin/bitcoin/issues/comments/1498134466",
      "actor": {
        "login": "RandyMcMillan",
        "id": 152159,
        "node_id": "MDQ6VXNlcjE1MjE1OQ==",
        "avatar_url": "https://avatars.githubusercontent.com/u/152159?v=4",
        "gravatar_id": "",
        "url": "https://api.github.com/users/RandyMcMillan",
        "html_url": "https://github.com/RandyMcMillan",
        "followers_url": "https://api.github.com/users/RandyMcMillan/followers",
        "following_url": "https://api.github.com/users/RandyMcMillan/following%7B/other_user%7D",
        "gists_url": "https://api.github.com/users/RandyMcMillan/gists%7B/gist_id%7D",
        "starred_url": "https://api.github.com/users/RandyMcMillan/starred%7B/owner%7D%7B/repo%7D",
        "subscriptions_url": "https://api.github.com/users/RandyMcMillan/subscriptions",
        "organizations_url": "https://api.github.com/users/RandyMcMillan/orgs",
        "repos_url": "https://api.github.com/users/RandyMcMillan/repos",
        "events_url": "https://api.github.com/users/RandyMcMillan/events%7B/privacy%7D",
        "received_events_url": "https://api.github.com/users/RandyMcMillan/received_events",
        "type": "User",
        "site_admin": false
      },
      "commit_id": null,
      "commit_url": null,
      "created_at": "2023-04-05T20:49:41Z",
      "updated_at": "2023-04-05T20:49:41Z",
      "author_association": "CONTRIBUTOR",
      "body": "ACK ed4a833",
      "user": {
        "login": "RandyMcMillan",
        "id": 152159,
        "node_id": "MDQ6VXNlcjE1MjE1OQ==",
        "avatar_url": "https://avatars.githubusercontent.com/u/152159?v=4",
        "gravatar_id": "",
        "url": "https://api.github.com/users/RandyMcMillan",
        "html_url": "https://github.com/RandyMcMillan",
        "followers_url": "https://api.github.com/users/RandyMcMillan/followers",
        "following_url": "https://api.github.com/users/RandyMcMillan/following%7B/other_user%7D",
        "gists_url": "https://api.github.com/users/RandyMcMillan/gists%7B/gist_id%7D",
        "starred_url": "https://api.github.com/users/RandyMcMillan/starred%7B/owner%7D%7B/repo%7D",
        "subscriptions_url": "https://api.github.com/users/RandyMcMillan/subscriptions",
        "organizations_url": "https://api.github.com/users/RandyMcMillan/orgs",
        "repos_url": "https://api.github.com/users/RandyMcMillan/repos",
        "events_url": "https://api.github.com/users/RandyMcMillan/events%7B/privacy%7D",
        "received_events_url": "https://api.github.com/users/RandyMcMillan/received_events",
        "type": "User",
        "site_admin": false
      },
      "html_url": "https://github.com/bitcoin/bitcoin/pull/27423#issuecomment-1498134466",
      "issue_url": "https://api.github.com/repos/bitcoin/bitcoin/issues/27423"
    },
    {
      "event": "cross-referenced",
      "id": null,
      "node_id": null,
      "url": null,
      "actor": {
        "login": "DrahtBot",
        "id": 39886733,
        "node_id": "MDQ6VXNlcjM5ODg2NzMz",
        "avatar_url": "https://avatars.githubusercontent.com/u/39886733?v=4",
        "gravatar_id": "",
        "url": "https://api.github.com/users/DrahtBot",
        "html_url": "https://github.com/DrahtBot",
        "followers_url": "https://api.github.com/users/DrahtBot/followers",
        "following_url": "https://api.github.com/users/DrahtBot/following%7B/other_user%7D",
        "gists_url": "https://api.github.com/users/DrahtBot/gists%7B/gist_id%7D",
        "starred_url": "https://api.github.com/users/DrahtBot/starred%7B/owner%7D%7B/repo%7D",
        "subscriptions_url": "https://api.github.com/users/DrahtBot/subscriptions",
        "organizations_url": "https://api.github.com/users/DrahtBot/orgs",
        "repos_url": "https://api.github.com/users/DrahtBot/repos",
        "events_url": "https://api.github.com/users/DrahtBot/events%7B/privacy%7D",
        "received_events_url": "https://api.github.com/users/DrahtBot/received_events",
        "type": "User",
        "site_admin": false
      },
      "commit_id": null,
      "commit_url": null,
      "created_at": "2023-04-06T01:16:28Z",
      "updated_at": "2023-04-06T01:16:28Z",
      "source": {
        "issue": {
          "id": 1641686349,
          "node_id": "PR_kwDOABII585M80C2",
          "url": "https://api.github.com/repos/bitcoin/bitcoin/issues/27340",
          "repository_url": "https://api.github.com/repos/bitcoin/bitcoin",
          "labels_url": "https://api.github.com/repos/bitcoin/bitcoin/issues/27340/labels%7B/name%7D",
          "comments_url": "https://api.github.com/repos/bitcoin/bitcoin/issues/27340/comments",
          "events_url": "https://api.github.com/repos/bitcoin/bitcoin/issues/27340/events",
          "html_url": "https://github.com/bitcoin/bitcoin/pull/27340",
          "number": 27340,
          "state": "closed",
          "state_reason": null,
          "title": "ci: Use Cirrus CI dockerfile env",
          "body": "Currently the CI env has many intermittent issues:\r\n\r\n* The Ubuntu package servers are frequently down\r\n* Occasionally other stuff is down, such as dnf, pip, or the android sdk\r\n* Installing packages is slower than downloading them, at least on Cirrus, which has a fast download speed\r\n\r\nFix all issues by using the Cirrus CI dockerfile env.",
          "user": {
            "login": "MarcoFalke",
            "id": 6399679,
            "node_id": "MDQ6VXNlcjYzOTk2Nzk=",
            "avatar_url": "https://avatars.githubusercontent.com/u/6399679?v=4",
            "gravatar_id": "",
            "url": "https://api.github.com/users/MarcoFalke",
            "html_url": "https://github.com/MarcoFalke",
            "followers_url": "https://api.github.com/users/MarcoFalke/followers",
            "following_url": "https://api.github.com/users/MarcoFalke/following%7B/other_user%7D",
            "gists_url": "https://api.github.com/users/MarcoFalke/gists%7B/gist_id%7D",
            "starred_url": "https://api.github.com/users/MarcoFalke/starred%7B/owner%7D%7B/repo%7D",
            "subscriptions_url": "https://api.github.com/users/MarcoFalke/subscriptions",
            "organizations_url": "https://api.github.com/users/MarcoFalke/orgs",
            "repos_url": "https://api.github.com/users/MarcoFalke/repos",
            "events_url": "https://api.github.com/users/MarcoFalke/events%7B/privacy%7D",
            "received_events_url": "https://api.github.com/users/MarcoFalke/received_events",
            "type": "User",
            "site_admin": false
          },
          "labels": [
            {
              "id": 62963516,
              "node_id": "MDU6TGFiZWw2Mjk2MzUxNg==",
              "url": "https://api.github.com/repos/bitcoin/bitcoin/labels/Tests",
              "name": "Tests",
              "color": "d4c5f9",
              "default": false
            }
          ],
          "assignees": [],
          "author_association": "MEMBER",
          "locked": false,
          "comments": 5,
          "pull_request": {
            "url": "https://api.github.com/repos/bitcoin/bitcoin/pulls/27340",
            "html_url": "https://github.com/bitcoin/bitcoin/pull/27340",
            "diff_url": "https://github.com/bitcoin/bitcoin/pull/27340.diff",
            "patch_url": "https://github.com/bitcoin/bitcoin/pull/27340.patch"
          },
          "closed_at": "2023-04-18T09:39:51Z",
          "created_at": "2023-03-27T08:57:47Z",
          "updated_at": "2023-04-18T10:38:08Z"
        },
        "type": "issue"
      }
    },
    {
      "event": "reviewed",
      "id": 1374219209,
      "node_id": "PRR_kwDOABII585R6OvJ",
      "url": null,
      "actor": null,
      "commit_id": "ed4a8339b8fe796b4668e206d7fb9c2b120f8eb2",
      "commit_url": null,
      "created_at": null,
      "author_association": "MEMBER",
      "user": {
        "login": "MarcoFalke",
        "id": 6399679,
        "node_id": "MDQ6VXNlcjYzOTk2Nzk=",
        "avatar_url": "https://avatars.githubusercontent.com/u/6399679?v=4",
        "gravatar_id": "",
        "url": "https://api.github.com/users/MarcoFalke",
        "html_url": "https://github.com/MarcoFalke",
        "followers_url": "https://api.github.com/users/MarcoFalke/followers",
        "following_url": "https://api.github.com/users/MarcoFalke/following%7B/other_user%7D",
        "gists_url": "https://api.github.com/users/MarcoFalke/gists%7B/gist_id%7D",
        "starred_url": "https://api.github.com/users/MarcoFalke/starred%7B/owner%7D%7B/repo%7D",
        "subscriptions_url": "https://api.github.com/users/MarcoFalke/subscriptions",
        "organizations_url": "https://api.github.com/users/MarcoFalke/orgs",
        "repos_url": "https://api.github.com/users/MarcoFalke/repos",
        "events_url": "https://api.github.com/users/MarcoFalke/events%7B/privacy%7D",
        "received_events_url": "https://api.github.com/users/MarcoFalke/received_events",
        "type": "User",
        "site_admin": false
      },
      "html_url": "https://github.com/bitcoin/bitcoin/pull/27423#pullrequestreview-1374219209",
      "submitted_at": "2023-04-06T07:31:06Z",
      "state": "COMMENTED",
      "pull_request_url": "https://api.github.com/repos/bitcoin/bitcoin/pulls/27423"
    },
    {
      "event": "reviewed",
      "id": 1374226548,
      "node_id": "PRR_kwDOABII585R6Qh0",
      "url": null,
      "actor": null,
      "commit_id": "ed4a8339b8fe796b4668e206d7fb9c2b120f8eb2",
      "commit_url": null,
      "created_at": null,
      "author_association": "MEMBER",
      "body": "lgtm ",
      "user": {
        "login": "MarcoFalke",
        "id": 6399679,
        "node_id": "MDQ6VXNlcjYzOTk2Nzk=",
        "avatar_url": "https://avatars.githubusercontent.com/u/6399679?v=4",
        "gravatar_id": "",
        "url": "https://api.github.com/users/MarcoFalke",
        "html_url": "https://github.com/MarcoFalke",
        "followers_url": "https://api.github.com/users/MarcoFalke/followers",
        "following_url": "https://api.github.com/users/MarcoFalke/following%7B/other_user%7D",
        "gists_url": "https://api.github.com/users/MarcoFalke/gists%7B/gist_id%7D",
        "starred_url": "https://api.github.com/users/MarcoFalke/starred%7B/owner%7D%7B/repo%7D",
        "subscriptions_url": "https://api.github.com/users/MarcoFalke/subscriptions",
        "organizations_url": "https://api.github.com/users/MarcoFalke/orgs",
        "repos_url": "https://api.github.com/users/MarcoFalke/repos",
        "events_url": "https://api.github.com/users/MarcoFalke/events%7B/privacy%7D",
        "received_events_url": "https://api.github.com/users/MarcoFalke/received_events",
        "type": "User",
        "site_admin": false
      },
      "html_url": "https://github.com/bitcoin/bitcoin/pull/27423#pullrequestreview-1374226548",
      "submitted_at": "2023-04-06T07:33:48Z",
      "state": "APPROVED",
      "pull_request_url": "https://api.github.com/repos/bitcoin/bitcoin/pulls/27423"
    },
    {
      "event": "merged",
      "id": 8943411138,
      "node_id": "ME_lADOABII585irFbbzwAAAAIVEZ_C",
      "url": "https://api.github.com/repos/bitcoin/bitcoin/issues/events/8943411138",
      "actor": {
        "login": "fanquake",
        "id": 863730,
        "node_id": "MDQ6VXNlcjg2MzczMA==",
        "avatar_url": "https://avatars.githubusercontent.com/u/863730?v=4",
        "gravatar_id": "",
        "url": "https://api.github.com/users/fanquake",
        "html_url": "https://github.com/fanquake",
        "followers_url": "https://api.github.com/users/fanquake/followers",
        "following_url": "https://api.github.com/users/fanquake/following%7B/other_user%7D",
        "gists_url": "https://api.github.com/users/fanquake/gists%7B/gist_id%7D",
        "starred_url": "https://api.github.com/users/fanquake/starred%7B/owner%7D%7B/repo%7D",
        "subscriptions_url": "https://api.github.com/users/fanquake/subscriptions",
        "organizations_url": "https://api.github.com/users/fanquake/orgs",
        "repos_url": "https://api.github.com/users/fanquake/repos",
        "events_url": "https://api.github.com/users/fanquake/events%7B/privacy%7D",
        "received_events_url": "https://api.github.com/users/fanquake/received_events",
        "type": "User",
        "site_admin": false
      },
      "commit_id": "5a8bd4505687a7ec76d731b1a8249ee04d641990",
      "commit_url": "https://api.github.com/repos/bitcoin/bitcoin/commits/5a8bd4505687a7ec76d731b1a8249ee04d641990",
      "created_at": "2023-04-06T09:04:12Z"
    },
    {
      "event": "closed",
      "id": 8943411220,
      "node_id": "CE_lADOABII585irFbbzwAAAAIVEaAU",
      "url": "https://api.github.com/repos/bitcoin/bitcoin/issues/events/8943411220",
      "actor": {
        "login": "fanquake",
        "id": 863730,
        "node_id": "MDQ6VXNlcjg2MzczMA==",
        "avatar_url": "https://avatars.githubusercontent.com/u/863730?v=4",
        "gravatar_id": "",
        "url": "https://api.github.com/users/fanquake",
        "html_url": "https://github.com/fanquake",
        "followers_url": "https://api.github.com/users/fanquake/followers",
        "following_url": "https://api.github.com/users/fanquake/following%7B/other_user%7D",
        "gists_url": "https://api.github.com/users/fanquake/gists%7B/gist_id%7D",
        "starred_url": "https://api.github.com/users/fanquake/starred%7B/owner%7D%7B/repo%7D",
        "subscriptions_url": "https://api.github.com/users/fanquake/subscriptions",
        "organizations_url": "https://api.github.com/users/fanquake/orgs",
        "repos_url": "https://api.github.com/users/fanquake/repos",
        "events_url": "https://api.github.com/users/fanquake/events%7B/privacy%7D",
        "received_events_url": "https://api.github.com/users/fanquake/received_events",
        "type": "User",
        "site_admin": false
      },
      "commit_id": null,
      "commit_url": null,
      "created_at": "2023-04-06T09:04:13Z"
    },
    {
      "event": "referenced",
      "id": 8946777027,
      "node_id": "REFE_lADOABII585irFbbzwAAAAIVRPvD",
      "url": "https://api.github.com/repos/bitcoin/bitcoin/issues/events/8946777027",
      "actor": {
        "login": "sidhujag",
        "id": 6238042,
        "node_id": "MDQ6VXNlcjYyMzgwNDI=",
        "avatar_url": "https://avatars.githubusercontent.com/u/6238042?v=4",
        "gravatar_id": "",
        "url": "https://api.github.com/users/sidhujag",
        "html_url": "https://github.com/sidhujag",
        "followers_url": "https://api.github.com/users/sidhujag/followers",
        "following_url": "https://api.github.com/users/sidhujag/following%7B/other_user%7D",
        "gists_url": "https://api.github.com/users/sidhujag/gists%7B/gist_id%7D",
        "starred_url": "https://api.github.com/users/sidhujag/starred%7B/owner%7D%7B/repo%7D",
        "subscriptions_url": "https://api.github.com/users/sidhujag/subscriptions",
        "organizations_url": "https://api.github.com/users/sidhujag/orgs",
        "repos_url": "https://api.github.com/users/sidhujag/repos",
        "events_url": "https://api.github.com/users/sidhujag/events%7B/privacy%7D",
        "received_events_url": "https://api.github.com/users/sidhujag/received_events",
        "type": "User",
        "site_admin": false
      },
      "commit_id": "9d5a44baca92c1321772e3409c408abec36d3354",
      "commit_url": "https://api.github.com/repos/syscoin/syscoin/commits/9d5a44baca92c1321772e3409c408abec36d3354",
      "created_at": "2023-04-06T14:44:22Z"
    }
  ],
  "comments": [
    {
      "url": "https://api.github.com/repos/bitcoin/bitcoin/pulls/comments/1158438615",
      "pull_request_review_id": 1372787226,
      "id": 1158438615,
      "node_id": "PRRC_kwDOABII585FDF7X",
      "diff_hunk": "@@ -57,6 +57,9 @@ if [ -z \"$DANGER_RUN_CI_ON_HOST\" ]; then\n   export CI_EXEC_CMD_PREFIX=\"docker exec ${CI_CONTAINER_ID}\"\n   $CI_EXEC_CMD_PREFIX rsync --archive --stats --human-readable /ci_base_install/ \"${BASE_ROOT_DIR}\"\n   $CI_EXEC_CMD_PREFIX rsync --archive --stats --human-readable /ro_base/ \"$BASE_ROOT_DIR\"\n+  # Fixes permission issues when there is a container UID/GID mismatch with the owner\n+  # # of the mounted bitcoin src dir.",
      "path": "ci/test/04_install.sh",
      "position": null,
      "original_position": 5,
      "commit_id": "ed4a8339b8fe796b4668e206d7fb9c2b120f8eb2",
      "original_commit_id": "2c11e94131447bc605b7698a80d02c2523497a4b",
      "in_reply_to_id": null,
      "user": {
        "login": "hebasto",
        "id": 32963518,
        "node_id": "MDQ6VXNlcjMyOTYzNTE4",
        "avatar_url": "https://avatars.githubusercontent.com/u/32963518?v=4",
        "gravatar_id": "",
        "url": "https://api.github.com/users/hebasto",
        "html_url": "https://github.com/hebasto",
        "followers_url": "https://api.github.com/users/hebasto/followers",
        "following_url": "https://api.github.com/users/hebasto/following%7B/other_user%7D",
        "gists_url": "https://api.github.com/users/hebasto/gists%7B/gist_id%7D",
        "starred_url": "https://api.github.com/users/hebasto/starred%7B/owner%7D%7B/repo%7D",
        "subscriptions_url": "https://api.github.com/users/hebasto/subscriptions",
        "organizations_url": "https://api.github.com/users/hebasto/orgs",
        "repos_url": "https://api.github.com/users/hebasto/repos",
        "events_url": "https://api.github.com/users/hebasto/events%7B/privacy%7D",
        "received_events_url": "https://api.github.com/users/hebasto/received_events",
        "type": "User",
        "site_admin": false
      },
      "body": "A stray `#`?",
      "created_at": "2023-04-05T12:18:26Z",
      "updated_at": "2023-04-05T12:18:43Z",
      "html_url": "https://github.com/bitcoin/bitcoin/pull/27423#discussion_r1158438615",
      "author_association": "MEMBER",
      "_links": {
        "self": {
          "href": "https://api.github.com/repos/bitcoin/bitcoin/pulls/comments/1158438615"
        },
        "pull_request": {
          "href": "https://api.github.com/repos/bitcoin/bitcoin/pulls/27423"
        }
      },
      "start_line": null,
      "original_start_line": null,
      "start_side": null,
      "line": null,
      "original_line": 61,
      "side": "RIGHT"
    },
    {
      "url": "https://api.github.com/repos/bitcoin/bitcoin/pulls/comments/1158448194",
      "pull_request_review_id": 1372800928,
      "id": 1158448194,
      "node_id": "PRRC_kwDOABII585FDIRC",
      "diff_hunk": "@@ -57,6 +57,9 @@ if [ -z \"$DANGER_RUN_CI_ON_HOST\" ]; then\n   export CI_EXEC_CMD_PREFIX=\"docker exec ${CI_CONTAINER_ID}\"\n   $CI_EXEC_CMD_PREFIX rsync --archive --stats --human-readable /ci_base_install/ \"${BASE_ROOT_DIR}\"\n   $CI_EXEC_CMD_PREFIX rsync --archive --stats --human-readable /ro_base/ \"$BASE_ROOT_DIR\"\n+  # Fixes permission issues when there is a container UID/GID mismatch with the owner\n+  # # of the mounted bitcoin src dir.",
      "path": "ci/test/04_install.sh",
      "position": null,
      "original_position": 5,
      "commit_id": "ed4a8339b8fe796b4668e206d7fb9c2b120f8eb2",
      "original_commit_id": "2c11e94131447bc605b7698a80d02c2523497a4b",
      "in_reply_to_id": 1158438615,
      "user": {
        "login": "josibake",
        "id": 7444140,
        "node_id": "MDQ6VXNlcjc0NDQxNDA=",
        "avatar_url": "https://avatars.githubusercontent.com/u/7444140?v=4",
        "gravatar_id": "",
        "url": "https://api.github.com/users/josibake",
        "html_url": "https://github.com/josibake",
        "followers_url": "https://api.github.com/users/josibake/followers",
        "following_url": "https://api.github.com/users/josibake/following%7B/other_user%7D",
        "gists_url": "https://api.github.com/users/josibake/gists%7B/gist_id%7D",
        "starred_url": "https://api.github.com/users/josibake/starred%7B/owner%7D%7B/repo%7D",
        "subscriptions_url": "https://api.github.com/users/josibake/subscriptions",
        "organizations_url": "https://api.github.com/users/josibake/orgs",
        "repos_url": "https://api.github.com/users/josibake/repos",
        "events_url": "https://api.github.com/users/josibake/events%7B/privacy%7D",
        "received_events_url": "https://api.github.com/users/josibake/received_events",
        "type": "User",
        "site_admin": false
      },
      "body": "fixed",
      "created_at": "2023-04-05T12:25:45Z",
      "updated_at": "2023-04-05T12:25:46Z",
      "html_url": "https://github.com/bitcoin/bitcoin/pull/27423#discussion_r1158448194",
      "author_association": "CONTRIBUTOR",
      "_links": {
        "self": {
          "href": "https://api.github.com/repos/bitcoin/bitcoin/pulls/comments/1158448194"
        },
        "pull_request": {
          "href": "https://api.github.com/repos/bitcoin/bitcoin/pulls/27423"
        }
      },
      "start_line": null,
      "original_start_line": null,
      "start_side": null,
      "line": null,
      "original_line": 61,
      "side": "RIGHT"
    },
    {
      "url": "https://api.github.com/repos/bitcoin/bitcoin/pulls/comments/1159391949",
      "pull_request_review_id": 1374219209,
      "id": 1159391949,
      "node_id": "PRRC_kwDOABII585FGurN",
      "diff_hunk": "@@ -57,6 +57,9 @@ if [ -z \"$DANGER_RUN_CI_ON_HOST\" ]; then\n   export CI_EXEC_CMD_PREFIX=\"docker exec ${CI_CONTAINER_ID}\"\n   $CI_EXEC_CMD_PREFIX rsync --archive --stats --human-readable /ci_base_install/ \"${BASE_ROOT_DIR}\"\n   $CI_EXEC_CMD_PREFIX rsync --archive --stats --human-readable /ro_base/ \"$BASE_ROOT_DIR\"\n+  # Fixes permission issues when there is a container UID/GID mismatch with the owner\n+  # of the mounted bitcoin src dir.\n+  $CI_EXEC_CMD_PREFIX git config --global --add safe.directory \"*\"",
      "path": "ci/test/04_install.sh",
      "position": 6,
      "original_position": 6,
      "commit_id": "ed4a8339b8fe796b4668e206d7fb9c2b120f8eb2",
      "original_commit_id": "ed4a8339b8fe796b4668e206d7fb9c2b120f8eb2",
      "in_reply_to_id": null,
      "user": {
        "login": "MarcoFalke",
        "id": 6399679,
        "node_id": "MDQ6VXNlcjYzOTk2Nzk=",
        "avatar_url": "https://avatars.githubusercontent.com/u/6399679?v=4",
        "gravatar_id": "",
        "url": "https://api.github.com/users/MarcoFalke",
        "html_url": "https://github.com/MarcoFalke",
        "followers_url": "https://api.github.com/users/MarcoFalke/followers",
        "following_url": "https://api.github.com/users/MarcoFalke/following%7B/other_user%7D",
        "gists_url": "https://api.github.com/users/MarcoFalke/gists%7B/gist_id%7D",
        "starred_url": "https://api.github.com/users/MarcoFalke/starred%7B/owner%7D%7B/repo%7D",
        "subscriptions_url": "https://api.github.com/users/MarcoFalke/subscriptions",
        "organizations_url": "https://api.github.com/users/MarcoFalke/orgs",
        "repos_url": "https://api.github.com/users/MarcoFalke/repos",
        "events_url": "https://api.github.com/users/MarcoFalke/events%7B/privacy%7D",
        "received_events_url": "https://api.github.com/users/MarcoFalke/received_events",
        "type": "User",
        "site_admin": false
      },
      "body": "Not sure if it matters, but it could make sense to run this even when CI is run without the docker wrapper. Probably this doesn't affect anyone, but less conditional code seems a win by itself.",
      "created_at": "2023-04-06T07:31:06Z",
      "updated_at": "2023-04-06T07:31:06Z",
      "html_url": "https://github.com/bitcoin/bitcoin/pull/27423#discussion_r1159391949",
      "author_association": "MEMBER",
      "_links": {
        "self": {
          "href": "https://api.github.com/repos/bitcoin/bitcoin/pulls/comments/1159391949"
        },
        "pull_request": {
          "href": "https://api.github.com/repos/bitcoin/bitcoin/pulls/27423"
        }
      },
      "start_line": null,
      "original_start_line": null,
      "start_side": null,
      "line": 62,
      "original_line": 62,
      "side": "RIGHT"
    },
    {
      "url": "https://api.github.com/repos/bitcoin/bitcoin/pulls/comments/1159511628",
      "pull_request_review_id": 1374406169,
      "id": 1159511628,
      "node_id": "PRRC_kwDOABII585FHL5M",
      "diff_hunk": "@@ -57,6 +57,9 @@ if [ -z \"$DANGER_RUN_CI_ON_HOST\" ]; then\n   export CI_EXEC_CMD_PREFIX=\"docker exec ${CI_CONTAINER_ID}\"\n   $CI_EXEC_CMD_PREFIX rsync --archive --stats --human-readable /ci_base_install/ \"${BASE_ROOT_DIR}\"\n   $CI_EXEC_CMD_PREFIX rsync --archive --stats --human-readable /ro_base/ \"$BASE_ROOT_DIR\"\n+  # Fixes permission issues when there is a container UID/GID mismatch with the owner\n+  # of the mounted bitcoin src dir.\n+  $CI_EXEC_CMD_PREFIX git config --global --add safe.directory \"*\"",
      "path": "ci/test/04_install.sh",
      "position": 6,
      "original_position": 6,
      "commit_id": "ed4a8339b8fe796b4668e206d7fb9c2b120f8eb2",
      "original_commit_id": "ed4a8339b8fe796b4668e206d7fb9c2b120f8eb2",
      "in_reply_to_id": 1159391949,
      "user": {
        "login": "MarcoFalke",
        "id": 6399679,
        "node_id": "MDQ6VXNlcjYzOTk2Nzk=",
        "avatar_url": "https://avatars.githubusercontent.com/u/6399679?v=4",
        "gravatar_id": "",
        "url": "https://api.github.com/users/MarcoFalke",
        "html_url": "https://github.com/MarcoFalke",
        "followers_url": "https://api.github.com/users/MarcoFalke/followers",
        "following_url": "https://api.github.com/users/MarcoFalke/following%7B/other_user%7D",
        "gists_url": "https://api.github.com/users/MarcoFalke/gists%7B/gist_id%7D",
        "starred_url": "https://api.github.com/users/MarcoFalke/starred%7B/owner%7D%7B/repo%7D",
        "subscriptions_url": "https://api.github.com/users/MarcoFalke/subscriptions",
        "organizations_url": "https://api.github.com/users/MarcoFalke/orgs",
        "repos_url": "https://api.github.com/users/MarcoFalke/repos",
        "events_url": "https://api.github.com/users/MarcoFalke/events%7B/privacy%7D",
        "received_events_url": "https://api.github.com/users/MarcoFalke/received_events",
        "type": "User",
        "site_admin": false
      },
      "body": "Had to do this here anyway: #27429",
      "created_at": "2023-04-06T09:13:06Z",
      "updated_at": "2023-04-06T09:13:06Z",
      "html_url": "https://github.com/bitcoin/bitcoin/pull/27423#discussion_r1159511628",
      "author_association": "MEMBER",
      "_links": {
        "self": {
          "href": "https://api.github.com/repos/bitcoin/bitcoin/pulls/comments/1159511628"
        },
        "pull_request": {
          "href": "https://api.github.com/repos/bitcoin/bitcoin/pulls/27423"
        }
      },
      "start_line": null,
      "original_start_line": null,
      "start_side": null,
      "line": 62,
      "original_line": 62,
      "side": "RIGHT"
    }
  ]
}