{
  "type": "pull",
  "pull": {
    "url": "https://api.github.com/repos/bitcoin/bitcoin/pulls/27453",
    "id": 1311115895,
    "node_id": "PR_kwDOABII585OJgp3",
    "html_url": "https://github.com/bitcoin/bitcoin/pull/27453",
    "diff_url": "https://github.com/bitcoin/bitcoin/pull/27453.diff",
    "patch_url": "https://github.com/bitcoin/bitcoin/pull/27453.patch",
    "issue_url": "https://api.github.com/repos/bitcoin/bitcoin/issues/27453",
    "commits_url": "https://api.github.com/repos/bitcoin/bitcoin/pulls/27453/commits",
    "review_comments_url": "https://api.github.com/repos/bitcoin/bitcoin/pulls/27453/comments",
    "review_comment_url": "https://api.github.com/repos/bitcoin/bitcoin/pulls/comments%7B/number%7D",
    "comments_url": "https://api.github.com/repos/bitcoin/bitcoin/issues/27453/comments",
    "statuses_url": "https://api.github.com/repos/bitcoin/bitcoin/statuses/24d55fb9cfab88f546df35be5c0069b9b645438c",
    "number": 27453,
    "state": "closed",
    "locked": false,
    "maintainer_can_modify": false,
    "title": "test: added coverage to rpc_scantxoutset.py",
    "user": {
      "login": "kevkevinpal",
      "id": 15950706,
      "node_id": "MDQ6VXNlcjE1OTUwNzA2",
      "avatar_url": "https://avatars.githubusercontent.com/u/15950706?v=4",
      "gravatar_id": "",
      "url": "https://api.github.com/users/kevkevinpal",
      "html_url": "https://github.com/kevkevinpal",
      "followers_url": "https://api.github.com/users/kevkevinpal/followers",
      "following_url": "https://api.github.com/users/kevkevinpal/following%7B/other_user%7D",
      "gists_url": "https://api.github.com/users/kevkevinpal/gists%7B/gist_id%7D",
      "starred_url": "https://api.github.com/users/kevkevinpal/starred%7B/owner%7D%7B/repo%7D",
      "subscriptions_url": "https://api.github.com/users/kevkevinpal/subscriptions",
      "organizations_url": "https://api.github.com/users/kevkevinpal/orgs",
      "repos_url": "https://api.github.com/users/kevkevinpal/repos",
      "events_url": "https://api.github.com/users/kevkevinpal/events%7B/privacy%7D",
      "received_events_url": "https://api.github.com/users/kevkevinpal/received_events",
      "type": "User",
      "site_admin": false
    },
    "body": "Included a test that checks if an invalid first argument is entered we receive a rpc error. The rpc should fail if \"start\", \"status\" or \"abort\" is not the first command.\r\n\r\nRelavant: mentioned in https://github.com/bitcoin/bitcoin/pull/27422\r\n",
    "labels": [
      {
        "id": 62963516,
        "node_id": "MDU6TGFiZWw2Mjk2MzUxNg==",
        "url": "https://api.github.com/repos/bitcoin/bitcoin/labels/Tests",
        "name": "Tests",
        "color": "d4c5f9",
        "default": false
      }
    ],
    "created_at": "2023-04-12T15:59:14Z",
    "updated_at": "2023-05-02T12:45:20Z",
    "closed_at": "2023-05-02T12:45:19Z",
    "mergeable": false,
    "mergeable_state": "dirty",
    "merged_at": "2023-05-02T12:45:19Z",
    "merge_commit_sha": "d654c762c82de25bc83bcb95c4783c8b6fe0b279",
    "assignees": [],
    "requested_reviewers": [],
    "requested_teams": [],
    "rebaseable": false,
    "head": {
      "label": "kevkevinpal:test/scantxoutsetInvalid",
      "ref": "test/scantxoutsetInvalid",
      "sha": "24d55fb9cfab88f546df35be5c0069b9b645438c",
      "user": {
        "login": "kevkevinpal",
        "id": 15950706,
        "node_id": "MDQ6VXNlcjE1OTUwNzA2",
        "avatar_url": "https://avatars.githubusercontent.com/u/15950706?v=4",
        "gravatar_id": "",
        "url": "https://api.github.com/users/kevkevinpal",
        "html_url": "https://github.com/kevkevinpal",
        "followers_url": "https://api.github.com/users/kevkevinpal/followers",
        "following_url": "https://api.github.com/users/kevkevinpal/following%7B/other_user%7D",
        "gists_url": "https://api.github.com/users/kevkevinpal/gists%7B/gist_id%7D",
        "starred_url": "https://api.github.com/users/kevkevinpal/starred%7B/owner%7D%7B/repo%7D",
        "subscriptions_url": "https://api.github.com/users/kevkevinpal/subscriptions",
        "organizations_url": "https://api.github.com/users/kevkevinpal/orgs",
        "repos_url": "https://api.github.com/users/kevkevinpal/repos",
        "events_url": "https://api.github.com/users/kevkevinpal/events%7B/privacy%7D",
        "received_events_url": "https://api.github.com/users/kevkevinpal/received_events",
        "type": "User",
        "site_admin": false
      },
      "repo": {
        "id": 492307769,
        "node_id": "R_kgDOHVgFOQ",
        "name": "bitcoin",
        "full_name": "kevkevinpal/bitcoin",
        "owner": {
          "login": "kevkevinpal",
          "id": 15950706,
          "node_id": "MDQ6VXNlcjE1OTUwNzA2",
          "avatar_url": "https://avatars.githubusercontent.com/u/15950706?v=4",
          "gravatar_id": "",
          "url": "https://api.github.com/users/kevkevinpal",
          "html_url": "https://github.com/kevkevinpal",
          "followers_url": "https://api.github.com/users/kevkevinpal/followers",
          "following_url": "https://api.github.com/users/kevkevinpal/following%7B/other_user%7D",
          "gists_url": "https://api.github.com/users/kevkevinpal/gists%7B/gist_id%7D",
          "starred_url": "https://api.github.com/users/kevkevinpal/starred%7B/owner%7D%7B/repo%7D",
          "subscriptions_url": "https://api.github.com/users/kevkevinpal/subscriptions",
          "organizations_url": "https://api.github.com/users/kevkevinpal/orgs",
          "repos_url": "https://api.github.com/users/kevkevinpal/repos",
          "events_url": "https://api.github.com/users/kevkevinpal/events%7B/privacy%7D",
          "received_events_url": "https://api.github.com/users/kevkevinpal/received_events",
          "type": "User",
          "site_admin": false
        },
        "private": false,
        "html_url": "https://github.com/kevkevinpal/bitcoin",
        "description": "Bitcoin Core integration/staging tree",
        "fork": true,
        "url": "https://api.github.com/repos/kevkevinpal/bitcoin",
        "archive_url": "https://api.github.com/repos/kevkevinpal/bitcoin/%7Barchive_format%7D%7B/ref%7D",
        "assignees_url": "https://api.github.com/repos/kevkevinpal/bitcoin/assignees%7B/user%7D",
        "blobs_url": "https://api.github.com/repos/kevkevinpal/bitcoin/git/blobs%7B/sha%7D",
        "branches_url": "https://api.github.com/repos/kevkevinpal/bitcoin/branches%7B/branch%7D",
        "collaborators_url": "https://api.github.com/repos/kevkevinpal/bitcoin/collaborators%7B/collaborator%7D",
        "comments_url": "https://api.github.com/repos/kevkevinpal/bitcoin/comments%7B/number%7D",
        "commits_url": "https://api.github.com/repos/kevkevinpal/bitcoin/commits%7B/sha%7D",
        "compare_url": "https://api.github.com/repos/kevkevinpal/bitcoin/compare/%7Bbase%7D...%7Bhead%7D",
        "contents_url": "https://api.github.com/repos/kevkevinpal/bitcoin/contents/%7B+path%7D",
        "contributors_url": "https://api.github.com/repos/kevkevinpal/bitcoin/contributors",
        "deployments_url": "https://api.github.com/repos/kevkevinpal/bitcoin/deployments",
        "downloads_url": "https://api.github.com/repos/kevkevinpal/bitcoin/downloads",
        "events_url": "https://api.github.com/repos/kevkevinpal/bitcoin/events",
        "forks_url": "https://api.github.com/repos/kevkevinpal/bitcoin/forks",
        "git_commits_url": "https://api.github.com/repos/kevkevinpal/bitcoin/git/commits%7B/sha%7D",
        "git_refs_url": "https://api.github.com/repos/kevkevinpal/bitcoin/git/refs%7B/sha%7D",
        "git_tags_url": "https://api.github.com/repos/kevkevinpal/bitcoin/git/tags%7B/sha%7D",
        "git_url": "git://github.com/kevkevinpal/bitcoin.git",
        "issue_comment_url": "https://api.github.com/repos/kevkevinpal/bitcoin/issues/comments%7B/number%7D",
        "issue_events_url": "https://api.github.com/repos/kevkevinpal/bitcoin/issues/events%7B/number%7D",
        "issues_url": "https://api.github.com/repos/kevkevinpal/bitcoin/issues%7B/number%7D",
        "keys_url": "https://api.github.com/repos/kevkevinpal/bitcoin/keys%7B/key_id%7D",
        "labels_url": "https://api.github.com/repos/kevkevinpal/bitcoin/labels%7B/name%7D",
        "languages_url": "https://api.github.com/repos/kevkevinpal/bitcoin/languages",
        "merges_url": "https://api.github.com/repos/kevkevinpal/bitcoin/merges",
        "milestones_url": "https://api.github.com/repos/kevkevinpal/bitcoin/milestones%7B/number%7D",
        "notifications_url": "https://api.github.com/repos/kevkevinpal/bitcoin/notifications%7B?since,all,participating}",
        "pulls_url": "https://api.github.com/repos/kevkevinpal/bitcoin/pulls%7B/number%7D",
        "releases_url": "https://api.github.com/repos/kevkevinpal/bitcoin/releases%7B/id%7D",
        "ssh_url": "git@github.com:kevkevinpal/bitcoin.git",
        "stargazers_url": "https://api.github.com/repos/kevkevinpal/bitcoin/stargazers",
        "statuses_url": "https://api.github.com/repos/kevkevinpal/bitcoin/statuses/%7Bsha%7D",
        "subscribers_url": "https://api.github.com/repos/kevkevinpal/bitcoin/subscribers",
        "subscription_url": "https://api.github.com/repos/kevkevinpal/bitcoin/subscription",
        "tags_url": "https://api.github.com/repos/kevkevinpal/bitcoin/tags",
        "teams_url": "https://api.github.com/repos/kevkevinpal/bitcoin/teams",
        "trees_url": "https://api.github.com/repos/kevkevinpal/bitcoin/git/trees%7B/sha%7D",
        "clone_url": "https://github.com/kevkevinpal/bitcoin.git",
        "hooks_url": "https://api.github.com/repos/kevkevinpal/bitcoin/hooks",
        "svn_url": "https://github.com/kevkevinpal/bitcoin",
        "homepage": "https://bitcoincore.org/en/download",
        "forks_count": 0,
        "stargazers_count": 1,
        "watchers_count": 1,
        "size": 229383,
        "default_branch": "master",
        "open_issues_count": 0,
        "is_template": false,
        "topics": [],
        "has_issues": false,
        "has_projects": true,
        "has_wiki": false,
        "has_pages": false,
        "has_downloads": false,
        "archived": false,
        "disabled": false,
        "visibility": "public",
        "pushed_at": "2023-07-28T04:33:35Z",
        "created_at": "2022-05-14T19:30:19Z",
        "updated_at": "2022-06-20T09:05:11Z",
        "license": {
          "key": "mit",
          "name": "MIT License",
          "node_id": "MDc6TGljZW5zZTEz",
          "spdx_id": "MIT",
          "url": "https://api.github.com/licenses/mit",
          "html_url": null,
          "description": null,
          "implementation": null,
          "permissions": null,
          "conditions": null,
          "limitations": null,
          "body": null,
          "featured": null
        }
      }
    },
    "base": {
      "label": "bitcoin:master",
      "ref": "master",
      "sha": "8a373a5c7f94dbb5903ae704ae6aab8c28999c08",
      "user": {
        "login": "bitcoin",
        "id": 528860,
        "node_id": "MDEyOk9yZ2FuaXphdGlvbjUyODg2MA==",
        "avatar_url": "https://avatars.githubusercontent.com/u/528860?v=4",
        "gravatar_id": "",
        "url": "https://api.github.com/users/bitcoin",
        "html_url": "https://github.com/bitcoin",
        "followers_url": "https://api.github.com/users/bitcoin/followers",
        "following_url": "https://api.github.com/users/bitcoin/following%7B/other_user%7D",
        "gists_url": "https://api.github.com/users/bitcoin/gists%7B/gist_id%7D",
        "starred_url": "https://api.github.com/users/bitcoin/starred%7B/owner%7D%7B/repo%7D",
        "subscriptions_url": "https://api.github.com/users/bitcoin/subscriptions",
        "organizations_url": "https://api.github.com/users/bitcoin/orgs",
        "repos_url": "https://api.github.com/users/bitcoin/repos",
        "events_url": "https://api.github.com/users/bitcoin/events%7B/privacy%7D",
        "received_events_url": "https://api.github.com/users/bitcoin/received_events",
        "type": "Organization",
        "site_admin": false
      },
      "repo": {
        "id": 1181927,
        "node_id": "MDEwOlJlcG9zaXRvcnkxMTgxOTI3",
        "name": "bitcoin",
        "full_name": "bitcoin/bitcoin",
        "owner": {
          "login": "bitcoin",
          "id": 528860,
          "node_id": "MDEyOk9yZ2FuaXphdGlvbjUyODg2MA==",
          "avatar_url": "https://avatars.githubusercontent.com/u/528860?v=4",
          "gravatar_id": "",
          "url": "https://api.github.com/users/bitcoin",
          "html_url": "https://github.com/bitcoin",
          "followers_url": "https://api.github.com/users/bitcoin/followers",
          "following_url": "https://api.github.com/users/bitcoin/following%7B/other_user%7D",
          "gists_url": "https://api.github.com/users/bitcoin/gists%7B/gist_id%7D",
          "starred_url": "https://api.github.com/users/bitcoin/starred%7B/owner%7D%7B/repo%7D",
          "subscriptions_url": "https://api.github.com/users/bitcoin/subscriptions",
          "organizations_url": "https://api.github.com/users/bitcoin/orgs",
          "repos_url": "https://api.github.com/users/bitcoin/repos",
          "events_url": "https://api.github.com/users/bitcoin/events%7B/privacy%7D",
          "received_events_url": "https://api.github.com/users/bitcoin/received_events",
          "type": "Organization",
          "site_admin": false
        },
        "private": false,
        "html_url": "https://github.com/bitcoin/bitcoin",
        "description": "Bitcoin Core integration/staging tree",
        "fork": false,
        "url": "https://api.github.com/repos/bitcoin/bitcoin",
        "archive_url": "https://api.github.com/repos/bitcoin/bitcoin/%7Barchive_format%7D%7B/ref%7D",
        "assignees_url": "https://api.github.com/repos/bitcoin/bitcoin/assignees%7B/user%7D",
        "blobs_url": "https://api.github.com/repos/bitcoin/bitcoin/git/blobs%7B/sha%7D",
        "branches_url": "https://api.github.com/repos/bitcoin/bitcoin/branches%7B/branch%7D",
        "collaborators_url": "https://api.github.com/repos/bitcoin/bitcoin/collaborators%7B/collaborator%7D",
        "comments_url": "https://api.github.com/repos/bitcoin/bitcoin/comments%7B/number%7D",
        "commits_url": "https://api.github.com/repos/bitcoin/bitcoin/commits%7B/sha%7D",
        "compare_url": "https://api.github.com/repos/bitcoin/bitcoin/compare/%7Bbase%7D...%7Bhead%7D",
        "contents_url": "https://api.github.com/repos/bitcoin/bitcoin/contents/%7B+path%7D",
        "contributors_url": "https://api.github.com/repos/bitcoin/bitcoin/contributors",
        "deployments_url": "https://api.github.com/repos/bitcoin/bitcoin/deployments",
        "downloads_url": "https://api.github.com/repos/bitcoin/bitcoin/downloads",
        "events_url": "https://api.github.com/repos/bitcoin/bitcoin/events",
        "forks_url": "https://api.github.com/repos/bitcoin/bitcoin/forks",
        "git_commits_url": "https://api.github.com/repos/bitcoin/bitcoin/git/commits%7B/sha%7D",
        "git_refs_url": "https://api.github.com/repos/bitcoin/bitcoin/git/refs%7B/sha%7D",
        "git_tags_url": "https://api.github.com/repos/bitcoin/bitcoin/git/tags%7B/sha%7D",
        "git_url": "git://github.com/bitcoin/bitcoin.git",
        "issue_comment_url": "https://api.github.com/repos/bitcoin/bitcoin/issues/comments%7B/number%7D",
        "issue_events_url": "https://api.github.com/repos/bitcoin/bitcoin/issues/events%7B/number%7D",
        "issues_url": "https://api.github.com/repos/bitcoin/bitcoin/issues%7B/number%7D",
        "keys_url": "https://api.github.com/repos/bitcoin/bitcoin/keys%7B/key_id%7D",
        "labels_url": "https://api.github.com/repos/bitcoin/bitcoin/labels%7B/name%7D",
        "languages_url": "https://api.github.com/repos/bitcoin/bitcoin/languages",
        "merges_url": "https://api.github.com/repos/bitcoin/bitcoin/merges",
        "milestones_url": "https://api.github.com/repos/bitcoin/bitcoin/milestones%7B/number%7D",
        "notifications_url": "https://api.github.com/repos/bitcoin/bitcoin/notifications%7B?since,all,participating}",
        "pulls_url": "https://api.github.com/repos/bitcoin/bitcoin/pulls%7B/number%7D",
        "releases_url": "https://api.github.com/repos/bitcoin/bitcoin/releases%7B/id%7D",
        "ssh_url": "git@github.com:bitcoin/bitcoin.git",
        "stargazers_url": "https://api.github.com/repos/bitcoin/bitcoin/stargazers",
        "statuses_url": "https://api.github.com/repos/bitcoin/bitcoin/statuses/%7Bsha%7D",
        "subscribers_url": "https://api.github.com/repos/bitcoin/bitcoin/subscribers",
        "subscription_url": "https://api.github.com/repos/bitcoin/bitcoin/subscription",
        "tags_url": "https://api.github.com/repos/bitcoin/bitcoin/tags",
        "teams_url": "https://api.github.com/repos/bitcoin/bitcoin/teams",
        "trees_url": "https://api.github.com/repos/bitcoin/bitcoin/git/trees%7B/sha%7D",
        "clone_url": "https://github.com/bitcoin/bitcoin.git",
        "hooks_url": "https://api.github.com/repos/bitcoin/bitcoin/hooks",
        "svn_url": "https://github.com/bitcoin/bitcoin",
        "homepage": "https://bitcoincore.org/en/download",
        "language": "C++",
        "forks_count": 35476,
        "stargazers_count": 70608,
        "watchers_count": 70608,
        "size": 236222,
        "default_branch": "master",
        "open_issues_count": 673,
        "is_template": false,
        "topics": [
          "bitcoin",
          "c-plus-plus",
          "cryptocurrency",
          "cryptography",
          "p2p"
        ],
        "has_issues": true,
        "has_projects": true,
        "has_wiki": false,
        "has_pages": false,
        "has_downloads": false,
        "archived": false,
        "disabled": false,
        "visibility": "public",
        "pushed_at": "2023-08-03T00:03:27Z",
        "created_at": "2010-12-19T15:16:43Z",
        "updated_at": "2023-08-02T18:21:18Z",
        "license": {
          "key": "mit",
          "name": "MIT License",
          "node_id": "MDc6TGljZW5zZTEz",
          "spdx_id": "MIT",
          "url": "https://api.github.com/licenses/mit",
          "html_url": null,
          "description": null,
          "implementation": null,
          "permissions": null,
          "conditions": null,
          "limitations": null,
          "body": null,
          "featured": null
        }
      }
    },
    "_links": {
      "self": {
        "href": "https://api.github.com/repos/bitcoin/bitcoin/pulls/27453"
      }
    },
    "author_association": "CONTRIBUTOR",
    "draft": false,
    "additions": 3,
    "deletions": 0,
    "changed_files": 1,
    "commits": 1,
    "review_comments": 0,
    "comments": 5
  },
  "events": [
    {
      "event": "commented",
      "id": 1505535344,
      "node_id": "IC_kwDOABII585ZvKVw",
      "url": "https://api.github.com/repos/bitcoin/bitcoin/issues/comments/1505535344",
      "actor": {
        "login": "DrahtBot",
        "id": 39886733,
        "node_id": "MDQ6VXNlcjM5ODg2NzMz",
        "avatar_url": "https://avatars.githubusercontent.com/u/39886733?v=4",
        "gravatar_id": "",
        "url": "https://api.github.com/users/DrahtBot",
        "html_url": "https://github.com/DrahtBot",
        "followers_url": "https://api.github.com/users/DrahtBot/followers",
        "following_url": "https://api.github.com/users/DrahtBot/following%7B/other_user%7D",
        "gists_url": "https://api.github.com/users/DrahtBot/gists%7B/gist_id%7D",
        "starred_url": "https://api.github.com/users/DrahtBot/starred%7B/owner%7D%7B/repo%7D",
        "subscriptions_url": "https://api.github.com/users/DrahtBot/subscriptions",
        "organizations_url": "https://api.github.com/users/DrahtBot/orgs",
        "repos_url": "https://api.github.com/users/DrahtBot/repos",
        "events_url": "https://api.github.com/users/DrahtBot/events%7B/privacy%7D",
        "received_events_url": "https://api.github.com/users/DrahtBot/received_events",
        "type": "User",
        "site_admin": false
      },
      "commit_id": null,
      "commit_url": null,
      "created_at": "2023-04-12T15:59:17Z",
      "updated_at": "2023-05-02T11:59:16Z",
      "author_association": "CONTRIBUTOR",
      "body": "<!--e57a25ab6845829454e8d69fc972939a-->\n\nThe following sections might be updated with supplementary metadata relevant to reviewers and maintainers.\n\n<!--021abf342d371248e50ceaed478a90ca-->\n### Reviews\nSee [the guideline](https://github.com/bitcoin/bitcoin/blob/master/CONTRIBUTING.md#code-review) for information on the review process.\n| Type | Reviewers |\n| ---- | --------- |\n| ACK | [MarcoFalke](https://github.com/bitcoin/bitcoin/pull/27453#issuecomment-1531333931), [theStack](https://github.com/bitcoin/bitcoin/pull/27453#pullrequestreview-1408953706) |\n\nIf your review is incorrectly listed, please react with 👎 to this comment and the bot will ignore it on the next update.\n",
      "user": {
        "login": "DrahtBot",
        "id": 39886733,
        "node_id": "MDQ6VXNlcjM5ODg2NzMz",
        "avatar_url": "https://avatars.githubusercontent.com/u/39886733?v=4",
        "gravatar_id": "",
        "url": "https://api.github.com/users/DrahtBot",
        "html_url": "https://github.com/DrahtBot",
        "followers_url": "https://api.github.com/users/DrahtBot/followers",
        "following_url": "https://api.github.com/users/DrahtBot/following%7B/other_user%7D",
        "gists_url": "https://api.github.com/users/DrahtBot/gists%7B/gist_id%7D",
        "starred_url": "https://api.github.com/users/DrahtBot/starred%7B/owner%7D%7B/repo%7D",
        "subscriptions_url": "https://api.github.com/users/DrahtBot/subscriptions",
        "organizations_url": "https://api.github.com/users/DrahtBot/orgs",
        "repos_url": "https://api.github.com/users/DrahtBot/repos",
        "events_url": "https://api.github.com/users/DrahtBot/events%7B/privacy%7D",
        "received_events_url": "https://api.github.com/users/DrahtBot/received_events",
        "type": "User",
        "site_admin": false
      },
      "html_url": "https://github.com/bitcoin/bitcoin/pull/27453#issuecomment-1505535344",
      "issue_url": "https://api.github.com/repos/bitcoin/bitcoin/issues/27453"
    },
    {
      "event": "labeled",
      "id": 8987373854,
      "node_id": "LE_lADOABII585jO2P2zwAAAAIXsHEe",
      "url": "https://api.github.com/repos/bitcoin/bitcoin/issues/events/8987373854",
      "actor": {
        "login": "DrahtBot",
        "id": 39886733,
        "node_id": "MDQ6VXNlcjM5ODg2NzMz",
        "avatar_url": "https://avatars.githubusercontent.com/u/39886733?v=4",
        "gravatar_id": "",
        "url": "https://api.github.com/users/DrahtBot",
        "html_url": "https://github.com/DrahtBot",
        "followers_url": "https://api.github.com/users/DrahtBot/followers",
        "following_url": "https://api.github.com/users/DrahtBot/following%7B/other_user%7D",
        "gists_url": "https://api.github.com/users/DrahtBot/gists%7B/gist_id%7D",
        "starred_url": "https://api.github.com/users/DrahtBot/starred%7B/owner%7D%7B/repo%7D",
        "subscriptions_url": "https://api.github.com/users/DrahtBot/subscriptions",
        "organizations_url": "https://api.github.com/users/DrahtBot/orgs",
        "repos_url": "https://api.github.com/users/DrahtBot/repos",
        "events_url": "https://api.github.com/users/DrahtBot/events%7B/privacy%7D",
        "received_events_url": "https://api.github.com/users/DrahtBot/received_events",
        "type": "User",
        "site_admin": false
      },
      "commit_id": null,
      "commit_url": null,
      "created_at": "2023-04-12T15:59:19Z",
      "label": {
        "name": "Tests",
        "color": "d4c5f9"
      }
    },
    {
      "event": "renamed",
      "id": 8987381857,
      "node_id": "RTE_lADOABII585jO2P2zwAAAAIXsJBh",
      "url": "https://api.github.com/repos/bitcoin/bitcoin/issues/events/8987381857",
      "actor": {
        "login": "fanquake",
        "id": 863730,
        "node_id": "MDQ6VXNlcjg2MzczMA==",
        "avatar_url": "https://avatars.githubusercontent.com/u/863730?v=4",
        "gravatar_id": "",
        "url": "https://api.github.com/users/fanquake",
        "html_url": "https://github.com/fanquake",
        "followers_url": "https://api.github.com/users/fanquake/followers",
        "following_url": "https://api.github.com/users/fanquake/following%7B/other_user%7D",
        "gists_url": "https://api.github.com/users/fanquake/gists%7B/gist_id%7D",
        "starred_url": "https://api.github.com/users/fanquake/starred%7B/owner%7D%7B/repo%7D",
        "subscriptions_url": "https://api.github.com/users/fanquake/subscriptions",
        "organizations_url": "https://api.github.com/users/fanquake/orgs",
        "repos_url": "https://api.github.com/users/fanquake/repos",
        "events_url": "https://api.github.com/users/fanquake/events%7B/privacy%7D",
        "received_events_url": "https://api.github.com/users/fanquake/received_events",
        "type": "User",
        "site_admin": false
      },
      "commit_id": null,
      "commit_url": null,
      "created_at": "2023-04-12T16:00:06Z",
      "rename": {
        "from": "test: added coverage to rpc_cantxoutset.py",
        "to": "test: added coverage to rpc_scantxoutset.py"
      }
    },
    {
      "event": "cross-referenced",
      "id": null,
      "node_id": null,
      "url": null,
      "actor": {
        "login": "kevkevinpal",
        "id": 15950706,
        "node_id": "MDQ6VXNlcjE1OTUwNzA2",
        "avatar_url": "https://avatars.githubusercontent.com/u/15950706?v=4",
        "gravatar_id": "",
        "url": "https://api.github.com/users/kevkevinpal",
        "html_url": "https://github.com/kevkevinpal",
        "followers_url": "https://api.github.com/users/kevkevinpal/followers",
        "following_url": "https://api.github.com/users/kevkevinpal/following%7B/other_user%7D",
        "gists_url": "https://api.github.com/users/kevkevinpal/gists%7B/gist_id%7D",
        "starred_url": "https://api.github.com/users/kevkevinpal/starred%7B/owner%7D%7B/repo%7D",
        "subscriptions_url": "https://api.github.com/users/kevkevinpal/subscriptions",
        "organizations_url": "https://api.github.com/users/kevkevinpal/orgs",
        "repos_url": "https://api.github.com/users/kevkevinpal/repos",
        "events_url": "https://api.github.com/users/kevkevinpal/events%7B/privacy%7D",
        "received_events_url": "https://api.github.com/users/kevkevinpal/received_events",
        "type": "User",
        "site_admin": false
      },
      "commit_id": null,
      "commit_url": null,
      "created_at": "2023-04-12T16:00:42Z",
      "updated_at": "2023-04-12T16:00:42Z",
      "source": {
        "issue": {
          "id": 1655340258,
          "node_id": "PR_kwDOABII585NqXTm",
          "url": "https://api.github.com/repos/bitcoin/bitcoin/issues/27422",
          "repository_url": "https://api.github.com/repos/bitcoin/bitcoin",
          "labels_url": "https://api.github.com/repos/bitcoin/bitcoin/issues/27422/labels%7B/name%7D",
          "comments_url": "https://api.github.com/repos/bitcoin/bitcoin/issues/27422/comments",
          "events_url": "https://api.github.com/repos/bitcoin/bitcoin/issues/27422/events",
          "html_url": "https://github.com/bitcoin/bitcoin/pull/27422",
          "number": 27422,
          "state": "closed",
          "state_reason": null,
          "title": "test: add coverage to rpc_scantxoutset.py",
          "body": "Include a test that checks whether the first argument of scantxoutset RPC call \"start\" is required. \r\nThe rpc call should fail if the \"start\" argument is not provided.",
          "user": {
            "login": "ismaelsadeeq",
            "id": 48946461,
            "node_id": "MDQ6VXNlcjQ4OTQ2NDYx",
            "avatar_url": "https://avatars.githubusercontent.com/u/48946461?v=4",
            "gravatar_id": "",
            "url": "https://api.github.com/users/ismaelsadeeq",
            "html_url": "https://github.com/ismaelsadeeq",
            "followers_url": "https://api.github.com/users/ismaelsadeeq/followers",
            "following_url": "https://api.github.com/users/ismaelsadeeq/following%7B/other_user%7D",
            "gists_url": "https://api.github.com/users/ismaelsadeeq/gists%7B/gist_id%7D",
            "starred_url": "https://api.github.com/users/ismaelsadeeq/starred%7B/owner%7D%7B/repo%7D",
            "subscriptions_url": "https://api.github.com/users/ismaelsadeeq/subscriptions",
            "organizations_url": "https://api.github.com/users/ismaelsadeeq/orgs",
            "repos_url": "https://api.github.com/users/ismaelsadeeq/repos",
            "events_url": "https://api.github.com/users/ismaelsadeeq/events%7B/privacy%7D",
            "received_events_url": "https://api.github.com/users/ismaelsadeeq/received_events",
            "type": "User",
            "site_admin": false
          },
          "labels": [
            {
              "id": 62963516,
              "node_id": "MDU6TGFiZWw2Mjk2MzUxNg==",
              "url": "https://api.github.com/repos/bitcoin/bitcoin/labels/Tests",
              "name": "Tests",
              "color": "d4c5f9",
              "default": false
            }
          ],
          "assignees": [],
          "author_association": "CONTRIBUTOR",
          "locked": false,
          "comments": 8,
          "pull_request": {
            "url": "https://api.github.com/repos/bitcoin/bitcoin/pulls/27422",
            "html_url": "https://github.com/bitcoin/bitcoin/pull/27422",
            "diff_url": "https://github.com/bitcoin/bitcoin/pull/27422.diff",
            "patch_url": "https://github.com/bitcoin/bitcoin/pull/27422.patch"
          },
          "closed_at": "2023-05-04T16:19:37Z",
          "created_at": "2023-04-05T10:18:07Z",
          "updated_at": "2023-05-04T16:19:37Z"
        },
        "type": "issue"
      }
    },
    {
      "event": "commented",
      "id": 1505878687,
      "node_id": "IC_kwDOABII585ZweKf",
      "url": "https://api.github.com/repos/bitcoin/bitcoin/issues/comments/1505878687",
      "actor": {
        "login": "ismaelsadeeq",
        "id": 48946461,
        "node_id": "MDQ6VXNlcjQ4OTQ2NDYx",
        "avatar_url": "https://avatars.githubusercontent.com/u/48946461?v=4",
        "gravatar_id": "",
        "url": "https://api.github.com/users/ismaelsadeeq",
        "html_url": "https://github.com/ismaelsadeeq",
        "followers_url": "https://api.github.com/users/ismaelsadeeq/followers",
        "following_url": "https://api.github.com/users/ismaelsadeeq/following%7B/other_user%7D",
        "gists_url": "https://api.github.com/users/ismaelsadeeq/gists%7B/gist_id%7D",
        "starred_url": "https://api.github.com/users/ismaelsadeeq/starred%7B/owner%7D%7B/repo%7D",
        "subscriptions_url": "https://api.github.com/users/ismaelsadeeq/subscriptions",
        "organizations_url": "https://api.github.com/users/ismaelsadeeq/orgs",
        "repos_url": "https://api.github.com/users/ismaelsadeeq/repos",
        "events_url": "https://api.github.com/users/ismaelsadeeq/events%7B/privacy%7D",
        "received_events_url": "https://api.github.com/users/ismaelsadeeq/received_events",
        "type": "User",
        "site_admin": false
      },
      "commit_id": null,
      "commit_url": null,
      "created_at": "2023-04-12T20:23:21Z",
      "updated_at": "2023-04-12T20:25:57Z",
      "author_association": "CONTRIBUTOR",
      "body": "LGTM \r\nAck ecb79aed4d847d8c95936ac80b7e137f9c17b6f8",
      "user": {
        "login": "ismaelsadeeq",
        "id": 48946461,
        "node_id": "MDQ6VXNlcjQ4OTQ2NDYx",
        "avatar_url": "https://avatars.githubusercontent.com/u/48946461?v=4",
        "gravatar_id": "",
        "url": "https://api.github.com/users/ismaelsadeeq",
        "html_url": "https://github.com/ismaelsadeeq",
        "followers_url": "https://api.github.com/users/ismaelsadeeq/followers",
        "following_url": "https://api.github.com/users/ismaelsadeeq/following%7B/other_user%7D",
        "gists_url": "https://api.github.com/users/ismaelsadeeq/gists%7B/gist_id%7D",
        "starred_url": "https://api.github.com/users/ismaelsadeeq/starred%7B/owner%7D%7B/repo%7D",
        "subscriptions_url": "https://api.github.com/users/ismaelsadeeq/subscriptions",
        "organizations_url": "https://api.github.com/users/ismaelsadeeq/orgs",
        "repos_url": "https://api.github.com/users/ismaelsadeeq/repos",
        "events_url": "https://api.github.com/users/ismaelsadeeq/events%7B/privacy%7D",
        "received_events_url": "https://api.github.com/users/ismaelsadeeq/received_events",
        "type": "User",
        "site_admin": false
      },
      "html_url": "https://github.com/bitcoin/bitcoin/pull/27453#issuecomment-1505878687",
      "issue_url": "https://api.github.com/repos/bitcoin/bitcoin/issues/27453"
    },
    {
      "event": "reviewed",
      "id": 1408719439,
      "node_id": "PRR_kwDOABII585T91pP",
      "url": null,
      "actor": null,
      "commit_id": "ecb79aed4d847d8c95936ac80b7e137f9c17b6f8",
      "commit_url": null,
      "created_at": null,
      "author_association": "CONTRIBUTOR",
      "body": "Concept ACK,\r\n\r\nand warm welcome as a new contributor!\r\n\r\nLooks good to me, just one nit: the commit subject line has a missing-character-typo in the functional test filename (rpc_cantxoutset.py -> should be rpc_scantxoutset.py), can you fix that please?",
      "user": {
        "login": "theStack",
        "id": 91535,
        "node_id": "MDQ6VXNlcjkxNTM1",
        "avatar_url": "https://avatars.githubusercontent.com/u/91535?v=4",
        "gravatar_id": "",
        "url": "https://api.github.com/users/theStack",
        "html_url": "https://github.com/theStack",
        "followers_url": "https://api.github.com/users/theStack/followers",
        "following_url": "https://api.github.com/users/theStack/following%7B/other_user%7D",
        "gists_url": "https://api.github.com/users/theStack/gists%7B/gist_id%7D",
        "starred_url": "https://api.github.com/users/theStack/starred%7B/owner%7D%7B/repo%7D",
        "subscriptions_url": "https://api.github.com/users/theStack/subscriptions",
        "organizations_url": "https://api.github.com/users/theStack/orgs",
        "repos_url": "https://api.github.com/users/theStack/repos",
        "events_url": "https://api.github.com/users/theStack/events%7B/privacy%7D",
        "received_events_url": "https://api.github.com/users/theStack/received_events",
        "type": "User",
        "site_admin": false
      },
      "html_url": "https://github.com/bitcoin/bitcoin/pull/27453#pullrequestreview-1408719439",
      "submitted_at": "2023-05-02T09:13:43Z",
      "state": "COMMENTED",
      "pull_request_url": "https://api.github.com/repos/bitcoin/bitcoin/pulls/27453"
    },
    {
      "event": "commented",
      "id": 1531226284,
      "node_id": "IC_kwDOABII585bRKis",
      "url": "https://api.github.com/repos/bitcoin/bitcoin/issues/comments/1531226284",
      "actor": {
        "login": "MarcoFalke",
        "id": 6399679,
        "node_id": "MDQ6VXNlcjYzOTk2Nzk=",
        "avatar_url": "https://avatars.githubusercontent.com/u/6399679?v=4",
        "gravatar_id": "",
        "url": "https://api.github.com/users/MarcoFalke",
        "html_url": "https://github.com/MarcoFalke",
        "followers_url": "https://api.github.com/users/MarcoFalke/followers",
        "following_url": "https://api.github.com/users/MarcoFalke/following%7B/other_user%7D",
        "gists_url": "https://api.github.com/users/MarcoFalke/gists%7B/gist_id%7D",
        "starred_url": "https://api.github.com/users/MarcoFalke/starred%7B/owner%7D%7B/repo%7D",
        "subscriptions_url": "https://api.github.com/users/MarcoFalke/subscriptions",
        "organizations_url": "https://api.github.com/users/MarcoFalke/orgs",
        "repos_url": "https://api.github.com/users/MarcoFalke/repos",
        "events_url": "https://api.github.com/users/MarcoFalke/events%7B/privacy%7D",
        "received_events_url": "https://api.github.com/users/MarcoFalke/received_events",
        "type": "User",
        "site_admin": false
      },
      "commit_id": null,
      "commit_url": null,
      "created_at": "2023-05-02T10:19:05Z",
      "updated_at": "2023-05-02T10:19:05Z",
      "author_association": "MEMBER",
      "body": "lgtm ACK ecb79aed4d847d8c95936ac80b7e137f9c17b6f8",
      "user": {
        "login": "MarcoFalke",
        "id": 6399679,
        "node_id": "MDQ6VXNlcjYzOTk2Nzk=",
        "avatar_url": "https://avatars.githubusercontent.com/u/6399679?v=4",
        "gravatar_id": "",
        "url": "https://api.github.com/users/MarcoFalke",
        "html_url": "https://github.com/MarcoFalke",
        "followers_url": "https://api.github.com/users/MarcoFalke/followers",
        "following_url": "https://api.github.com/users/MarcoFalke/following%7B/other_user%7D",
        "gists_url": "https://api.github.com/users/MarcoFalke/gists%7B/gist_id%7D",
        "starred_url": "https://api.github.com/users/MarcoFalke/starred%7B/owner%7D%7B/repo%7D",
        "subscriptions_url": "https://api.github.com/users/MarcoFalke/subscriptions",
        "organizations_url": "https://api.github.com/users/MarcoFalke/orgs",
        "repos_url": "https://api.github.com/users/MarcoFalke/repos",
        "events_url": "https://api.github.com/users/MarcoFalke/events%7B/privacy%7D",
        "received_events_url": "https://api.github.com/users/MarcoFalke/received_events",
        "type": "User",
        "site_admin": false
      },
      "html_url": "https://github.com/bitcoin/bitcoin/pull/27453#issuecomment-1531226284",
      "issue_url": "https://api.github.com/repos/bitcoin/bitcoin/issues/27453"
    },
    {
      "event": "comment_deleted",
      "id": 9144461589,
      "node_id": "CDE_lADOABII585jO2P2zwAAAAIhDWkV",
      "url": "https://api.github.com/repos/bitcoin/bitcoin/issues/events/9144461589",
      "actor": {
        "login": "bitcoin",
        "id": 528860,
        "node_id": "MDEyOk9yZ2FuaXphdGlvbjUyODg2MA==",
        "avatar_url": "https://avatars.githubusercontent.com/u/528860?v=4",
        "gravatar_id": "",
        "url": "https://api.github.com/users/bitcoin",
        "html_url": "https://github.com/bitcoin",
        "followers_url": "https://api.github.com/users/bitcoin/followers",
        "following_url": "https://api.github.com/users/bitcoin/following%7B/other_user%7D",
        "gists_url": "https://api.github.com/users/bitcoin/gists%7B/gist_id%7D",
        "starred_url": "https://api.github.com/users/bitcoin/starred%7B/owner%7D%7B/repo%7D",
        "subscriptions_url": "https://api.github.com/users/bitcoin/subscriptions",
        "organizations_url": "https://api.github.com/users/bitcoin/orgs",
        "repos_url": "https://api.github.com/users/bitcoin/repos",
        "events_url": "https://api.github.com/users/bitcoin/events%7B/privacy%7D",
        "received_events_url": "https://api.github.com/users/bitcoin/received_events",
        "type": "Organization",
        "site_admin": false
      },
      "commit_id": null,
      "commit_url": null,
      "created_at": "2023-05-02T11:05:23Z"
    },
    {
      "event": "committed",
      "id": null,
      "node_id": "C_kwDOABII59oAKDI0ZDU1ZmI5Y2ZhYjg4ZjU0NmRmMzViZTVjMDA2OWI5YjY0NTQzOGM",
      "url": "https://api.github.com/repos/bitcoin/bitcoin/git/commits/24d55fb9cfab88f546df35be5c0069b9b645438c",
      "actor": null,
      "commit_id": null,
      "commit_url": null,
      "created_at": null,
      "html_url": "https://github.com/bitcoin/bitcoin/commit/24d55fb9cfab88f546df35be5c0069b9b645438c",
      "tree": {
        "sha": "2cd4a7018712dd78d06723590d4e024cbdd65409",
        "url": "https://api.github.com/repos/bitcoin/bitcoin/git/trees/2cd4a7018712dd78d06723590d4e024cbdd65409"
      },
      "verification": {
        "verified": true,
        "reason": "valid",
        "payload": "tree 2cd4a7018712dd78d06723590d4e024cbdd65409\nparent 7f4ab67e7be615b2425a85fb65872fc2327f58c3\nauthor kevkevin <oapallikunnel@gmail.com> 1681314872 -0500\ncommitter kevkevin <oapallikunnel@gmail.com> 1683028005 -0500\n\ntest: added coverage to rpc_scantxoutset.py\n\nIncluded a test that checks if an invalid first argument is entered we\nreceive a rpc error. The rpc should fail if \"start\", \"status\" or \"abort\"\nis not the first command.\n",
        "signature": "-----BEGIN PGP SIGNATURE-----\n\niQIzBAABCAAdFiEEx0QawkGba7QDIgErtDRqFSRqkl0FAmRQ+C0ACgkQtDRqFSRq\nkl0jEA/9GbCLrNpE8a28ySLWjn/Ptj8wyQMIOqkXveCWrHn30ZkIaBP+wfzea/pB\nJAR48heZUtiyU88yhFMM5Pujkykgokjp3O2pXlapVGXsq9nqsVF8wr+C3QS4NBXE\nXtqSd6UBrUMgA/UU3JablVsKMYHdp/9leKI2F7xJHtAWZwAKQXdyqkc/Ol8OoYy/\ntj41TazODFJUasIKSry7i5YLOPqqOHwpjYROvfeqU/CxztgGOhgBZur9WMpZPHYT\n5V1e8xiGJ2aKz6DacfmFg4HQJRt/J8NnVw+bRl5Ghj0YU1ZEcZfMA9YmbKO38r8K\nHpLgjUk6Uxft0dqnsY9PoIGgeOLdIBawfXgmnEzvD0SfqBWF4tyr1mnAODm1o0jH\nio/T8H1PYNfItYO8uCd/oKxuCM4174+eAIgYVM4Ex5ptvhU2N7s2T0cAZW+hTfip\n6cEziwHo17ejqMYLx7x8psFLRkxfF7BR5bKFiBr5AGe1KvmrzJZtrhgEX2lBysJt\nBzuZsJua1DpL62Mb90IRYtzJqo7qFOxxH64uq6Xjag8Gef6wttTswHJCn/l1WROO\nw/ErdSZTAid42aDK2P9sd7IeUwg4nkuZQe9SH1q0MuWsWOMTpshj48tH1UWIaIju\nAqH3dIUOnJ/LkgOsPu+6BePQNroUG2O1cXFyEwh5yd/JFzzvxdk=\n=WUWh\n-----END PGP SIGNATURE-----"
      },
      "parents": [
        {
          "url": "https://api.github.com/repos/bitcoin/bitcoin/git/commits/7f4ab67e7be615b2425a85fb65872fc2327f58c3",
          "sha": "7f4ab67e7be615b2425a85fb65872fc2327f58c3",
          "html_url": "https://github.com/bitcoin/bitcoin/commit/7f4ab67e7be615b2425a85fb65872fc2327f58c3"
        }
      ],
      "message": "test: added coverage to rpc_scantxoutset.py\n\nIncluded a test that checks if an invalid first argument is entered we\nreceive a rpc error. The rpc should fail if \"start\", \"status\" or \"abort\"\nis not the first command.",
      "committer": {
        "name": "kevkevin",
        "email": "oapallikunnel@gmail.com",
        "date": "2023-05-02T11:46:45Z"
      },
      "author": {
        "name": "kevkevin",
        "email": "oapallikunnel@gmail.com",
        "date": "2023-04-12T15:54:32Z"
      },
      "sha": "24d55fb9cfab88f546df35be5c0069b9b645438c"
    },
    {
      "event": "head_ref_force_pushed",
      "id": 9144811405,
      "node_id": "HRFPE_lADOABII585jO2P2zwAAAAIhEr-N",
      "url": "https://api.github.com/repos/bitcoin/bitcoin/issues/events/9144811405",
      "actor": {
        "login": "kevkevinpal",
        "id": 15950706,
        "node_id": "MDQ6VXNlcjE1OTUwNzA2",
        "avatar_url": "https://avatars.githubusercontent.com/u/15950706?v=4",
        "gravatar_id": "",
        "url": "https://api.github.com/users/kevkevinpal",
        "html_url": "https://github.com/kevkevinpal",
        "followers_url": "https://api.github.com/users/kevkevinpal/followers",
        "following_url": "https://api.github.com/users/kevkevinpal/following%7B/other_user%7D",
        "gists_url": "https://api.github.com/users/kevkevinpal/gists%7B/gist_id%7D",
        "starred_url": "https://api.github.com/users/kevkevinpal/starred%7B/owner%7D%7B/repo%7D",
        "subscriptions_url": "https://api.github.com/users/kevkevinpal/subscriptions",
        "organizations_url": "https://api.github.com/users/kevkevinpal/orgs",
        "repos_url": "https://api.github.com/users/kevkevinpal/repos",
        "events_url": "https://api.github.com/users/kevkevinpal/events%7B/privacy%7D",
        "received_events_url": "https://api.github.com/users/kevkevinpal/received_events",
        "type": "User",
        "site_admin": false
      },
      "commit_id": null,
      "commit_url": null,
      "created_at": "2023-05-02T11:48:44Z"
    },
    {
      "event": "commented",
      "id": 1531332579,
      "node_id": "IC_kwDOABII585bRkfj",
      "url": "https://api.github.com/repos/bitcoin/bitcoin/issues/comments/1531332579",
      "actor": {
        "login": "kevkevinpal",
        "id": 15950706,
        "node_id": "MDQ6VXNlcjE1OTUwNzA2",
        "avatar_url": "https://avatars.githubusercontent.com/u/15950706?v=4",
        "gravatar_id": "",
        "url": "https://api.github.com/users/kevkevinpal",
        "html_url": "https://github.com/kevkevinpal",
        "followers_url": "https://api.github.com/users/kevkevinpal/followers",
        "following_url": "https://api.github.com/users/kevkevinpal/following%7B/other_user%7D",
        "gists_url": "https://api.github.com/users/kevkevinpal/gists%7B/gist_id%7D",
        "starred_url": "https://api.github.com/users/kevkevinpal/starred%7B/owner%7D%7B/repo%7D",
        "subscriptions_url": "https://api.github.com/users/kevkevinpal/subscriptions",
        "organizations_url": "https://api.github.com/users/kevkevinpal/orgs",
        "repos_url": "https://api.github.com/users/kevkevinpal/repos",
        "events_url": "https://api.github.com/users/kevkevinpal/events%7B/privacy%7D",
        "received_events_url": "https://api.github.com/users/kevkevinpal/received_events",
        "type": "User",
        "site_admin": false
      },
      "commit_id": null,
      "commit_url": null,
      "created_at": "2023-05-02T11:49:23Z",
      "updated_at": "2023-05-02T11:49:23Z",
      "author_association": "CONTRIBUTOR",
      "body": "> Concept ACK,\r\n> \r\n> and warm welcome as a new contributor!\r\n> \r\n> Looks good to me, just one nit: the commit subject line has a missing-character-typo in the functional test filename (rpc_cantxoutset.py -> should be rpc_scantxoutset.py), can you fix that please?\r\n\r\nThanks! Fixed [24d55fb](https://github.com/bitcoin/bitcoin/pull/27453/commits/24d55fb9cfab88f546df35be5c0069b9b645438c)",
      "user": {
        "login": "kevkevinpal",
        "id": 15950706,
        "node_id": "MDQ6VXNlcjE1OTUwNzA2",
        "avatar_url": "https://avatars.githubusercontent.com/u/15950706?v=4",
        "gravatar_id": "",
        "url": "https://api.github.com/users/kevkevinpal",
        "html_url": "https://github.com/kevkevinpal",
        "followers_url": "https://api.github.com/users/kevkevinpal/followers",
        "following_url": "https://api.github.com/users/kevkevinpal/following%7B/other_user%7D",
        "gists_url": "https://api.github.com/users/kevkevinpal/gists%7B/gist_id%7D",
        "starred_url": "https://api.github.com/users/kevkevinpal/starred%7B/owner%7D%7B/repo%7D",
        "subscriptions_url": "https://api.github.com/users/kevkevinpal/subscriptions",
        "organizations_url": "https://api.github.com/users/kevkevinpal/orgs",
        "repos_url": "https://api.github.com/users/kevkevinpal/repos",
        "events_url": "https://api.github.com/users/kevkevinpal/events%7B/privacy%7D",
        "received_events_url": "https://api.github.com/users/kevkevinpal/received_events",
        "type": "User",
        "site_admin": false
      },
      "html_url": "https://github.com/bitcoin/bitcoin/pull/27453#issuecomment-1531332579",
      "issue_url": "https://api.github.com/repos/bitcoin/bitcoin/issues/27453"
    },
    {
      "event": "commented",
      "id": 1531333931,
      "node_id": "IC_kwDOABII585bRk0r",
      "url": "https://api.github.com/repos/bitcoin/bitcoin/issues/comments/1531333931",
      "actor": {
        "login": "MarcoFalke",
        "id": 6399679,
        "node_id": "MDQ6VXNlcjYzOTk2Nzk=",
        "avatar_url": "https://avatars.githubusercontent.com/u/6399679?v=4",
        "gravatar_id": "",
        "url": "https://api.github.com/users/MarcoFalke",
        "html_url": "https://github.com/MarcoFalke",
        "followers_url": "https://api.github.com/users/MarcoFalke/followers",
        "following_url": "https://api.github.com/users/MarcoFalke/following%7B/other_user%7D",
        "gists_url": "https://api.github.com/users/MarcoFalke/gists%7B/gist_id%7D",
        "starred_url": "https://api.github.com/users/MarcoFalke/starred%7B/owner%7D%7B/repo%7D",
        "subscriptions_url": "https://api.github.com/users/MarcoFalke/subscriptions",
        "organizations_url": "https://api.github.com/users/MarcoFalke/orgs",
        "repos_url": "https://api.github.com/users/MarcoFalke/repos",
        "events_url": "https://api.github.com/users/MarcoFalke/events%7B/privacy%7D",
        "received_events_url": "https://api.github.com/users/MarcoFalke/received_events",
        "type": "User",
        "site_admin": false
      },
      "commit_id": null,
      "commit_url": null,
      "created_at": "2023-05-02T11:50:33Z",
      "updated_at": "2023-05-02T11:50:33Z",
      "author_association": "MEMBER",
      "body": "lgtm ACK 24d55fb9cfab88f546df35be5c0069b9b645438c",
      "user": {
        "login": "MarcoFalke",
        "id": 6399679,
        "node_id": "MDQ6VXNlcjYzOTk2Nzk=",
        "avatar_url": "https://avatars.githubusercontent.com/u/6399679?v=4",
        "gravatar_id": "",
        "url": "https://api.github.com/users/MarcoFalke",
        "html_url": "https://github.com/MarcoFalke",
        "followers_url": "https://api.github.com/users/MarcoFalke/followers",
        "following_url": "https://api.github.com/users/MarcoFalke/following%7B/other_user%7D",
        "gists_url": "https://api.github.com/users/MarcoFalke/gists%7B/gist_id%7D",
        "starred_url": "https://api.github.com/users/MarcoFalke/starred%7B/owner%7D%7B/repo%7D",
        "subscriptions_url": "https://api.github.com/users/MarcoFalke/subscriptions",
        "organizations_url": "https://api.github.com/users/MarcoFalke/orgs",
        "repos_url": "https://api.github.com/users/MarcoFalke/repos",
        "events_url": "https://api.github.com/users/MarcoFalke/events%7B/privacy%7D",
        "received_events_url": "https://api.github.com/users/MarcoFalke/received_events",
        "type": "User",
        "site_admin": false
      },
      "html_url": "https://github.com/bitcoin/bitcoin/pull/27453#issuecomment-1531333931",
      "issue_url": "https://api.github.com/repos/bitcoin/bitcoin/issues/27453"
    },
    {
      "event": "reviewed",
      "id": 1408953706,
      "node_id": "PRR_kwDOABII585T-u1q",
      "url": null,
      "actor": null,
      "commit_id": "24d55fb9cfab88f546df35be5c0069b9b645438c",
      "commit_url": null,
      "created_at": null,
      "author_association": "CONTRIBUTOR",
      "body": "ACK 24d55fb9cfab88f546df35be5c0069b9b645438c",
      "user": {
        "login": "theStack",
        "id": 91535,
        "node_id": "MDQ6VXNlcjkxNTM1",
        "avatar_url": "https://avatars.githubusercontent.com/u/91535?v=4",
        "gravatar_id": "",
        "url": "https://api.github.com/users/theStack",
        "html_url": "https://github.com/theStack",
        "followers_url": "https://api.github.com/users/theStack/followers",
        "following_url": "https://api.github.com/users/theStack/following%7B/other_user%7D",
        "gists_url": "https://api.github.com/users/theStack/gists%7B/gist_id%7D",
        "starred_url": "https://api.github.com/users/theStack/starred%7B/owner%7D%7B/repo%7D",
        "subscriptions_url": "https://api.github.com/users/theStack/subscriptions",
        "organizations_url": "https://api.github.com/users/theStack/orgs",
        "repos_url": "https://api.github.com/users/theStack/repos",
        "events_url": "https://api.github.com/users/theStack/events%7B/privacy%7D",
        "received_events_url": "https://api.github.com/users/theStack/received_events",
        "type": "User",
        "site_admin": false
      },
      "html_url": "https://github.com/bitcoin/bitcoin/pull/27453#pullrequestreview-1408953706",
      "submitted_at": "2023-05-02T11:59:13Z",
      "state": "APPROVED",
      "pull_request_url": "https://api.github.com/repos/bitcoin/bitcoin/pulls/27453"
    },
    {
      "event": "merged",
      "id": 9145305591,
      "node_id": "ME_lADOABII585jO2P2zwAAAAIhGkn3",
      "url": "https://api.github.com/repos/bitcoin/bitcoin/issues/events/9145305591",
      "actor": {
        "login": "fanquake",
        "id": 863730,
        "node_id": "MDQ6VXNlcjg2MzczMA==",
        "avatar_url": "https://avatars.githubusercontent.com/u/863730?v=4",
        "gravatar_id": "",
        "url": "https://api.github.com/users/fanquake",
        "html_url": "https://github.com/fanquake",
        "followers_url": "https://api.github.com/users/fanquake/followers",
        "following_url": "https://api.github.com/users/fanquake/following%7B/other_user%7D",
        "gists_url": "https://api.github.com/users/fanquake/gists%7B/gist_id%7D",
        "starred_url": "https://api.github.com/users/fanquake/starred%7B/owner%7D%7B/repo%7D",
        "subscriptions_url": "https://api.github.com/users/fanquake/subscriptions",
        "organizations_url": "https://api.github.com/users/fanquake/orgs",
        "repos_url": "https://api.github.com/users/fanquake/repos",
        "events_url": "https://api.github.com/users/fanquake/events%7B/privacy%7D",
        "received_events_url": "https://api.github.com/users/fanquake/received_events",
        "type": "User",
        "site_admin": false
      },
      "commit_id": "d654c762c82de25bc83bcb95c4783c8b6fe0b279",
      "commit_url": "https://api.github.com/repos/bitcoin/bitcoin/commits/d654c762c82de25bc83bcb95c4783c8b6fe0b279",
      "created_at": "2023-05-02T12:45:19Z"
    },
    {
      "event": "closed",
      "id": 9145305664,
      "node_id": "CE_lADOABII585jO2P2zwAAAAIhGkpA",
      "url": "https://api.github.com/repos/bitcoin/bitcoin/issues/events/9145305664",
      "actor": {
        "login": "fanquake",
        "id": 863730,
        "node_id": "MDQ6VXNlcjg2MzczMA==",
        "avatar_url": "https://avatars.githubusercontent.com/u/863730?v=4",
        "gravatar_id": "",
        "url": "https://api.github.com/users/fanquake",
        "html_url": "https://github.com/fanquake",
        "followers_url": "https://api.github.com/users/fanquake/followers",
        "following_url": "https://api.github.com/users/fanquake/following%7B/other_user%7D",
        "gists_url": "https://api.github.com/users/fanquake/gists%7B/gist_id%7D",
        "starred_url": "https://api.github.com/users/fanquake/starred%7B/owner%7D%7B/repo%7D",
        "subscriptions_url": "https://api.github.com/users/fanquake/subscriptions",
        "organizations_url": "https://api.github.com/users/fanquake/orgs",
        "repos_url": "https://api.github.com/users/fanquake/repos",
        "events_url": "https://api.github.com/users/fanquake/events%7B/privacy%7D",
        "received_events_url": "https://api.github.com/users/fanquake/received_events",
        "type": "User",
        "site_admin": false
      },
      "commit_id": null,
      "commit_url": null,
      "created_at": "2023-05-02T12:45:20Z"
    },
    {
      "event": "referenced",
      "id": 9168216252,
      "node_id": "REFE_lADOABII585jO2P2zwAAAAIid-C8",
      "url": "https://api.github.com/repos/bitcoin/bitcoin/issues/events/9168216252",
      "actor": {
        "login": "sidhujag",
        "id": 6238042,
        "node_id": "MDQ6VXNlcjYyMzgwNDI=",
        "avatar_url": "https://avatars.githubusercontent.com/u/6238042?v=4",
        "gravatar_id": "",
        "url": "https://api.github.com/users/sidhujag",
        "html_url": "https://github.com/sidhujag",
        "followers_url": "https://api.github.com/users/sidhujag/followers",
        "following_url": "https://api.github.com/users/sidhujag/following%7B/other_user%7D",
        "gists_url": "https://api.github.com/users/sidhujag/gists%7B/gist_id%7D",
        "starred_url": "https://api.github.com/users/sidhujag/starred%7B/owner%7D%7B/repo%7D",
        "subscriptions_url": "https://api.github.com/users/sidhujag/subscriptions",
        "organizations_url": "https://api.github.com/users/sidhujag/orgs",
        "repos_url": "https://api.github.com/users/sidhujag/repos",
        "events_url": "https://api.github.com/users/sidhujag/events%7B/privacy%7D",
        "received_events_url": "https://api.github.com/users/sidhujag/received_events",
        "type": "User",
        "site_admin": false
      },
      "commit_id": "8c7fb6f42cb4e8b357d65fc9c18da59c28f4de56",
      "commit_url": "https://api.github.com/repos/syscoin/syscoin/commits/8c7fb6f42cb4e8b357d65fc9c18da59c28f4de56",
      "created_at": "2023-05-04T14:33:00Z"
    }
  ],
  "comments": []
}