{
  "type": "pull",
  "pull": {
    "url": "https://api.github.com/repos/bitcoin/bitcoin/pulls/27477",
    "id": 1316992801,
    "node_id": "PR_kwDOABII585Of7ch",
    "html_url": "https://github.com/bitcoin/bitcoin/pull/27477",
    "diff_url": "https://github.com/bitcoin/bitcoin/pull/27477.diff",
    "patch_url": "https://github.com/bitcoin/bitcoin/pull/27477.patch",
    "issue_url": "https://api.github.com/repos/bitcoin/bitcoin/issues/27477",
    "commits_url": "https://api.github.com/repos/bitcoin/bitcoin/pulls/27477/commits",
    "review_comments_url": "https://api.github.com/repos/bitcoin/bitcoin/pulls/27477/comments",
    "review_comment_url": "https://api.github.com/repos/bitcoin/bitcoin/pulls/comments%7B/number%7D",
    "comments_url": "https://api.github.com/repos/bitcoin/bitcoin/issues/27477/comments",
    "statuses_url": "https://api.github.com/repos/bitcoin/bitcoin/statuses/6a77d290da589bd5620585def5bfc019e242e189",
    "number": 27477,
    "state": "closed",
    "locked": false,
    "maintainer_can_modify": false,
    "title": "test: add regression tests for #27468 (invalid URI segfaults)",
    "user": {
      "login": "theStack",
      "id": 91535,
      "node_id": "MDQ6VXNlcjkxNTM1",
      "avatar_url": "https://avatars.githubusercontent.com/u/91535?v=4",
      "gravatar_id": "",
      "url": "https://api.github.com/users/theStack",
      "html_url": "https://github.com/theStack",
      "followers_url": "https://api.github.com/users/theStack/followers",
      "following_url": "https://api.github.com/users/theStack/following%7B/other_user%7D",
      "gists_url": "https://api.github.com/users/theStack/gists%7B/gist_id%7D",
      "starred_url": "https://api.github.com/users/theStack/starred%7B/owner%7D%7B/repo%7D",
      "subscriptions_url": "https://api.github.com/users/theStack/subscriptions",
      "organizations_url": "https://api.github.com/users/theStack/orgs",
      "repos_url": "https://api.github.com/users/theStack/repos",
      "events_url": "https://api.github.com/users/theStack/events%7B/privacy%7D",
      "received_events_url": "https://api.github.com/users/theStack/received_events",
      "type": "User",
      "site_admin": false
    },
    "body": "Prior to PR #27468 (commit 11422cc5720c8d73a87600de8fe8abb156db80dc) all call-sites of `GetQueryParameter(...)` in the REST module could trigger a crash. Add missing test cases for all possible code-paths as a regression test, as a foundation for possible follow-up fixes (which aim to resolve this issue in a more general and robust way).",
    "labels": [
      {
        "id": 62963516,
        "node_id": "MDU6TGFiZWw2Mjk2MzUxNg==",
        "url": "https://api.github.com/repos/bitcoin/bitcoin/labels/Tests",
        "name": "Tests",
        "color": "d4c5f9",
        "default": false
      }
    ],
    "created_at": "2023-04-17T16:45:05Z",
    "updated_at": "2023-04-18T09:07:00Z",
    "closed_at": "2023-04-18T09:03:34Z",
    "mergeable": false,
    "mergeable_state": "dirty",
    "merge_commit_sha": "a90e07142f4440a4316930f9e0471cde8c511c5d",
    "assignees": [],
    "requested_reviewers": [],
    "requested_teams": [],
    "rebaseable": false,
    "head": {
      "label": "theStack:202304-test-add_regression_for_27468",
      "ref": "202304-test-add_regression_for_27468",
      "sha": "6a77d290da589bd5620585def5bfc019e242e189",
      "user": {
        "login": "theStack",
        "id": 91535,
        "node_id": "MDQ6VXNlcjkxNTM1",
        "avatar_url": "https://avatars.githubusercontent.com/u/91535?v=4",
        "gravatar_id": "",
        "url": "https://api.github.com/users/theStack",
        "html_url": "https://github.com/theStack",
        "followers_url": "https://api.github.com/users/theStack/followers",
        "following_url": "https://api.github.com/users/theStack/following%7B/other_user%7D",
        "gists_url": "https://api.github.com/users/theStack/gists%7B/gist_id%7D",
        "starred_url": "https://api.github.com/users/theStack/starred%7B/owner%7D%7B/repo%7D",
        "subscriptions_url": "https://api.github.com/users/theStack/subscriptions",
        "organizations_url": "https://api.github.com/users/theStack/orgs",
        "repos_url": "https://api.github.com/users/theStack/repos",
        "events_url": "https://api.github.com/users/theStack/events%7B/privacy%7D",
        "received_events_url": "https://api.github.com/users/theStack/received_events",
        "type": "User",
        "site_admin": false
      },
      "repo": {
        "id": 204970720,
        "node_id": "MDEwOlJlcG9zaXRvcnkyMDQ5NzA3MjA=",
        "name": "bitcoin",
        "full_name": "theStack/bitcoin",
        "owner": {
          "login": "theStack",
          "id": 91535,
          "node_id": "MDQ6VXNlcjkxNTM1",
          "avatar_url": "https://avatars.githubusercontent.com/u/91535?v=4",
          "gravatar_id": "",
          "url": "https://api.github.com/users/theStack",
          "html_url": "https://github.com/theStack",
          "followers_url": "https://api.github.com/users/theStack/followers",
          "following_url": "https://api.github.com/users/theStack/following%7B/other_user%7D",
          "gists_url": "https://api.github.com/users/theStack/gists%7B/gist_id%7D",
          "starred_url": "https://api.github.com/users/theStack/starred%7B/owner%7D%7B/repo%7D",
          "subscriptions_url": "https://api.github.com/users/theStack/subscriptions",
          "organizations_url": "https://api.github.com/users/theStack/orgs",
          "repos_url": "https://api.github.com/users/theStack/repos",
          "events_url": "https://api.github.com/users/theStack/events%7B/privacy%7D",
          "received_events_url": "https://api.github.com/users/theStack/received_events",
          "type": "User",
          "site_admin": false
        },
        "private": false,
        "html_url": "https://github.com/theStack/bitcoin",
        "description": "Bitcoin Core integration/staging tree",
        "fork": true,
        "url": "https://api.github.com/repos/theStack/bitcoin",
        "archive_url": "https://api.github.com/repos/theStack/bitcoin/%7Barchive_format%7D%7B/ref%7D",
        "assignees_url": "https://api.github.com/repos/theStack/bitcoin/assignees%7B/user%7D",
        "blobs_url": "https://api.github.com/repos/theStack/bitcoin/git/blobs%7B/sha%7D",
        "branches_url": "https://api.github.com/repos/theStack/bitcoin/branches%7B/branch%7D",
        "collaborators_url": "https://api.github.com/repos/theStack/bitcoin/collaborators%7B/collaborator%7D",
        "comments_url": "https://api.github.com/repos/theStack/bitcoin/comments%7B/number%7D",
        "commits_url": "https://api.github.com/repos/theStack/bitcoin/commits%7B/sha%7D",
        "compare_url": "https://api.github.com/repos/theStack/bitcoin/compare/%7Bbase%7D...%7Bhead%7D",
        "contents_url": "https://api.github.com/repos/theStack/bitcoin/contents/%7B+path%7D",
        "contributors_url": "https://api.github.com/repos/theStack/bitcoin/contributors",
        "deployments_url": "https://api.github.com/repos/theStack/bitcoin/deployments",
        "downloads_url": "https://api.github.com/repos/theStack/bitcoin/downloads",
        "events_url": "https://api.github.com/repos/theStack/bitcoin/events",
        "forks_url": "https://api.github.com/repos/theStack/bitcoin/forks",
        "git_commits_url": "https://api.github.com/repos/theStack/bitcoin/git/commits%7B/sha%7D",
        "git_refs_url": "https://api.github.com/repos/theStack/bitcoin/git/refs%7B/sha%7D",
        "git_tags_url": "https://api.github.com/repos/theStack/bitcoin/git/tags%7B/sha%7D",
        "git_url": "git://github.com/theStack/bitcoin.git",
        "issue_comment_url": "https://api.github.com/repos/theStack/bitcoin/issues/comments%7B/number%7D",
        "issue_events_url": "https://api.github.com/repos/theStack/bitcoin/issues/events%7B/number%7D",
        "issues_url": "https://api.github.com/repos/theStack/bitcoin/issues%7B/number%7D",
        "keys_url": "https://api.github.com/repos/theStack/bitcoin/keys%7B/key_id%7D",
        "labels_url": "https://api.github.com/repos/theStack/bitcoin/labels%7B/name%7D",
        "languages_url": "https://api.github.com/repos/theStack/bitcoin/languages",
        "merges_url": "https://api.github.com/repos/theStack/bitcoin/merges",
        "milestones_url": "https://api.github.com/repos/theStack/bitcoin/milestones%7B/number%7D",
        "notifications_url": "https://api.github.com/repos/theStack/bitcoin/notifications%7B?since,all,participating}",
        "pulls_url": "https://api.github.com/repos/theStack/bitcoin/pulls%7B/number%7D",
        "releases_url": "https://api.github.com/repos/theStack/bitcoin/releases%7B/id%7D",
        "ssh_url": "git@github.com:theStack/bitcoin.git",
        "stargazers_url": "https://api.github.com/repos/theStack/bitcoin/stargazers",
        "statuses_url": "https://api.github.com/repos/theStack/bitcoin/statuses/%7Bsha%7D",
        "subscribers_url": "https://api.github.com/repos/theStack/bitcoin/subscribers",
        "subscription_url": "https://api.github.com/repos/theStack/bitcoin/subscription",
        "tags_url": "https://api.github.com/repos/theStack/bitcoin/tags",
        "teams_url": "https://api.github.com/repos/theStack/bitcoin/teams",
        "trees_url": "https://api.github.com/repos/theStack/bitcoin/git/trees%7B/sha%7D",
        "clone_url": "https://github.com/theStack/bitcoin.git",
        "hooks_url": "https://api.github.com/repos/theStack/bitcoin/hooks",
        "svn_url": "https://github.com/theStack/bitcoin",
        "homepage": "https://bitcoincore.org/en/download",
        "language": "C++",
        "forks_count": 0,
        "stargazers_count": 0,
        "watchers_count": 0,
        "size": 219327,
        "default_branch": "master",
        "open_issues_count": 0,
        "is_template": false,
        "topics": [],
        "has_issues": false,
        "has_projects": true,
        "has_wiki": false,
        "has_pages": false,
        "has_downloads": false,
        "archived": false,
        "disabled": false,
        "visibility": "public",
        "pushed_at": "2023-08-02T23:26:22Z",
        "created_at": "2019-08-28T15:59:29Z",
        "updated_at": "2022-12-07T18:05:55Z",
        "license": {
          "key": "mit",
          "name": "MIT License",
          "node_id": "MDc6TGljZW5zZTEz",
          "spdx_id": "MIT",
          "url": "https://api.github.com/licenses/mit",
          "html_url": null,
          "description": null,
          "implementation": null,
          "permissions": null,
          "conditions": null,
          "limitations": null,
          "body": null,
          "featured": null
        }
      }
    },
    "base": {
      "label": "bitcoin:master",
      "ref": "master",
      "sha": "54e07a05b28d2bca8fc08cca0bf6e7ddf6762488",
      "user": {
        "login": "bitcoin",
        "id": 528860,
        "node_id": "MDEyOk9yZ2FuaXphdGlvbjUyODg2MA==",
        "avatar_url": "https://avatars.githubusercontent.com/u/528860?v=4",
        "gravatar_id": "",
        "url": "https://api.github.com/users/bitcoin",
        "html_url": "https://github.com/bitcoin",
        "followers_url": "https://api.github.com/users/bitcoin/followers",
        "following_url": "https://api.github.com/users/bitcoin/following%7B/other_user%7D",
        "gists_url": "https://api.github.com/users/bitcoin/gists%7B/gist_id%7D",
        "starred_url": "https://api.github.com/users/bitcoin/starred%7B/owner%7D%7B/repo%7D",
        "subscriptions_url": "https://api.github.com/users/bitcoin/subscriptions",
        "organizations_url": "https://api.github.com/users/bitcoin/orgs",
        "repos_url": "https://api.github.com/users/bitcoin/repos",
        "events_url": "https://api.github.com/users/bitcoin/events%7B/privacy%7D",
        "received_events_url": "https://api.github.com/users/bitcoin/received_events",
        "type": "Organization",
        "site_admin": false
      },
      "repo": {
        "id": 1181927,
        "node_id": "MDEwOlJlcG9zaXRvcnkxMTgxOTI3",
        "name": "bitcoin",
        "full_name": "bitcoin/bitcoin",
        "owner": {
          "login": "bitcoin",
          "id": 528860,
          "node_id": "MDEyOk9yZ2FuaXphdGlvbjUyODg2MA==",
          "avatar_url": "https://avatars.githubusercontent.com/u/528860?v=4",
          "gravatar_id": "",
          "url": "https://api.github.com/users/bitcoin",
          "html_url": "https://github.com/bitcoin",
          "followers_url": "https://api.github.com/users/bitcoin/followers",
          "following_url": "https://api.github.com/users/bitcoin/following%7B/other_user%7D",
          "gists_url": "https://api.github.com/users/bitcoin/gists%7B/gist_id%7D",
          "starred_url": "https://api.github.com/users/bitcoin/starred%7B/owner%7D%7B/repo%7D",
          "subscriptions_url": "https://api.github.com/users/bitcoin/subscriptions",
          "organizations_url": "https://api.github.com/users/bitcoin/orgs",
          "repos_url": "https://api.github.com/users/bitcoin/repos",
          "events_url": "https://api.github.com/users/bitcoin/events%7B/privacy%7D",
          "received_events_url": "https://api.github.com/users/bitcoin/received_events",
          "type": "Organization",
          "site_admin": false
        },
        "private": false,
        "html_url": "https://github.com/bitcoin/bitcoin",
        "description": "Bitcoin Core integration/staging tree",
        "fork": false,
        "url": "https://api.github.com/repos/bitcoin/bitcoin",
        "archive_url": "https://api.github.com/repos/bitcoin/bitcoin/%7Barchive_format%7D%7B/ref%7D",
        "assignees_url": "https://api.github.com/repos/bitcoin/bitcoin/assignees%7B/user%7D",
        "blobs_url": "https://api.github.com/repos/bitcoin/bitcoin/git/blobs%7B/sha%7D",
        "branches_url": "https://api.github.com/repos/bitcoin/bitcoin/branches%7B/branch%7D",
        "collaborators_url": "https://api.github.com/repos/bitcoin/bitcoin/collaborators%7B/collaborator%7D",
        "comments_url": "https://api.github.com/repos/bitcoin/bitcoin/comments%7B/number%7D",
        "commits_url": "https://api.github.com/repos/bitcoin/bitcoin/commits%7B/sha%7D",
        "compare_url": "https://api.github.com/repos/bitcoin/bitcoin/compare/%7Bbase%7D...%7Bhead%7D",
        "contents_url": "https://api.github.com/repos/bitcoin/bitcoin/contents/%7B+path%7D",
        "contributors_url": "https://api.github.com/repos/bitcoin/bitcoin/contributors",
        "deployments_url": "https://api.github.com/repos/bitcoin/bitcoin/deployments",
        "downloads_url": "https://api.github.com/repos/bitcoin/bitcoin/downloads",
        "events_url": "https://api.github.com/repos/bitcoin/bitcoin/events",
        "forks_url": "https://api.github.com/repos/bitcoin/bitcoin/forks",
        "git_commits_url": "https://api.github.com/repos/bitcoin/bitcoin/git/commits%7B/sha%7D",
        "git_refs_url": "https://api.github.com/repos/bitcoin/bitcoin/git/refs%7B/sha%7D",
        "git_tags_url": "https://api.github.com/repos/bitcoin/bitcoin/git/tags%7B/sha%7D",
        "git_url": "git://github.com/bitcoin/bitcoin.git",
        "issue_comment_url": "https://api.github.com/repos/bitcoin/bitcoin/issues/comments%7B/number%7D",
        "issue_events_url": "https://api.github.com/repos/bitcoin/bitcoin/issues/events%7B/number%7D",
        "issues_url": "https://api.github.com/repos/bitcoin/bitcoin/issues%7B/number%7D",
        "keys_url": "https://api.github.com/repos/bitcoin/bitcoin/keys%7B/key_id%7D",
        "labels_url": "https://api.github.com/repos/bitcoin/bitcoin/labels%7B/name%7D",
        "languages_url": "https://api.github.com/repos/bitcoin/bitcoin/languages",
        "merges_url": "https://api.github.com/repos/bitcoin/bitcoin/merges",
        "milestones_url": "https://api.github.com/repos/bitcoin/bitcoin/milestones%7B/number%7D",
        "notifications_url": "https://api.github.com/repos/bitcoin/bitcoin/notifications%7B?since,all,participating}",
        "pulls_url": "https://api.github.com/repos/bitcoin/bitcoin/pulls%7B/number%7D",
        "releases_url": "https://api.github.com/repos/bitcoin/bitcoin/releases%7B/id%7D",
        "ssh_url": "git@github.com:bitcoin/bitcoin.git",
        "stargazers_url": "https://api.github.com/repos/bitcoin/bitcoin/stargazers",
        "statuses_url": "https://api.github.com/repos/bitcoin/bitcoin/statuses/%7Bsha%7D",
        "subscribers_url": "https://api.github.com/repos/bitcoin/bitcoin/subscribers",
        "subscription_url": "https://api.github.com/repos/bitcoin/bitcoin/subscription",
        "tags_url": "https://api.github.com/repos/bitcoin/bitcoin/tags",
        "teams_url": "https://api.github.com/repos/bitcoin/bitcoin/teams",
        "trees_url": "https://api.github.com/repos/bitcoin/bitcoin/git/trees%7B/sha%7D",
        "clone_url": "https://github.com/bitcoin/bitcoin.git",
        "hooks_url": "https://api.github.com/repos/bitcoin/bitcoin/hooks",
        "svn_url": "https://github.com/bitcoin/bitcoin",
        "homepage": "https://bitcoincore.org/en/download",
        "language": "C++",
        "forks_count": 35476,
        "stargazers_count": 70608,
        "watchers_count": 70608,
        "size": 236222,
        "default_branch": "master",
        "open_issues_count": 673,
        "is_template": false,
        "topics": [
          "bitcoin",
          "c-plus-plus",
          "cryptocurrency",
          "cryptography",
          "p2p"
        ],
        "has_issues": true,
        "has_projects": true,
        "has_wiki": false,
        "has_pages": false,
        "has_downloads": false,
        "archived": false,
        "disabled": false,
        "visibility": "public",
        "pushed_at": "2023-08-03T00:03:27Z",
        "created_at": "2010-12-19T15:16:43Z",
        "updated_at": "2023-08-02T18:21:18Z",
        "license": {
          "key": "mit",
          "name": "MIT License",
          "node_id": "MDc6TGljZW5zZTEz",
          "spdx_id": "MIT",
          "url": "https://api.github.com/licenses/mit",
          "html_url": null,
          "description": null,
          "implementation": null,
          "permissions": null,
          "conditions": null,
          "limitations": null,
          "body": null,
          "featured": null
        }
      }
    },
    "_links": {
      "self": {
        "href": "https://api.github.com/repos/bitcoin/bitcoin/pulls/27477"
      }
    },
    "author_association": "CONTRIBUTOR",
    "draft": false,
    "additions": 3,
    "deletions": 2,
    "changed_files": 1,
    "commits": 1,
    "review_comments": 0,
    "comments": 2
  },
  "events": [
    {
      "event": "committed",
      "id": null,
      "node_id": "C_kwDOABII59oAKDZhNzdkMjkwZGE1ODliZDU2MjA1ODVkZWY1YmZjMDE5ZTI0MmUxODk",
      "url": "https://api.github.com/repos/bitcoin/bitcoin/git/commits/6a77d290da589bd5620585def5bfc019e242e189",
      "actor": null,
      "commit_id": null,
      "commit_url": null,
      "created_at": null,
      "html_url": "https://github.com/bitcoin/bitcoin/commit/6a77d290da589bd5620585def5bfc019e242e189",
      "tree": {
        "sha": "ae7b3700a9ba7320b4418fe4fd5efeb7b15918af",
        "url": "https://api.github.com/repos/bitcoin/bitcoin/git/trees/ae7b3700a9ba7320b4418fe4fd5efeb7b15918af"
      },
      "verification": {
        "verified": false,
        "reason": "unsigned",
        "payload": null,
        "signature": null
      },
      "parents": [
        {
          "url": "https://api.github.com/repos/bitcoin/bitcoin/git/commits/54e07a05b28d2bca8fc08cca0bf6e7ddf6762488",
          "sha": "54e07a05b28d2bca8fc08cca0bf6e7ddf6762488",
          "html_url": "https://github.com/bitcoin/bitcoin/commit/54e07a05b28d2bca8fc08cca0bf6e7ddf6762488"
        }
      ],
      "message": "test: add regression tests for #27468 (invalid URI segfaults)\n\nPrior to PR #27468 (commit 11422cc5720c8d73a87600de8fe8abb156db80dc) all\ncall-sites of `GetQueryParameter(...)` in the REST module could trigger\na crash. Add missing test cases for all possible code-paths as a\nregression test, as a foundation for possible follow-up fixes (which aim\nto resolve this issue in a more general and robust way).",
      "committer": {
        "name": "Sebastian Falbesoner",
        "email": "sebastian.falbesoner@gmail.com",
        "date": "2023-04-17T16:40:58Z"
      },
      "author": {
        "name": "Sebastian Falbesoner",
        "email": "sebastian.falbesoner@gmail.com",
        "date": "2023-04-17T16:40:58Z"
      },
      "sha": "6a77d290da589bd5620585def5bfc019e242e189"
    },
    {
      "event": "commented",
      "id": 1511728242,
      "node_id": "IC_kwDOABII585aGyRy",
      "url": "https://api.github.com/repos/bitcoin/bitcoin/issues/comments/1511728242",
      "actor": {
        "login": "DrahtBot",
        "id": 39886733,
        "node_id": "MDQ6VXNlcjM5ODg2NzMz",
        "avatar_url": "https://avatars.githubusercontent.com/u/39886733?v=4",
        "gravatar_id": "",
        "url": "https://api.github.com/users/DrahtBot",
        "html_url": "https://github.com/DrahtBot",
        "followers_url": "https://api.github.com/users/DrahtBot/followers",
        "following_url": "https://api.github.com/users/DrahtBot/following%7B/other_user%7D",
        "gists_url": "https://api.github.com/users/DrahtBot/gists%7B/gist_id%7D",
        "starred_url": "https://api.github.com/users/DrahtBot/starred%7B/owner%7D%7B/repo%7D",
        "subscriptions_url": "https://api.github.com/users/DrahtBot/subscriptions",
        "organizations_url": "https://api.github.com/users/DrahtBot/orgs",
        "repos_url": "https://api.github.com/users/DrahtBot/repos",
        "events_url": "https://api.github.com/users/DrahtBot/events%7B/privacy%7D",
        "received_events_url": "https://api.github.com/users/DrahtBot/received_events",
        "type": "User",
        "site_admin": false
      },
      "commit_id": null,
      "commit_url": null,
      "created_at": "2023-04-17T16:45:13Z",
      "updated_at": "2023-04-18T07:40:08Z",
      "author_association": "CONTRIBUTOR",
      "body": "<!--e57a25ab6845829454e8d69fc972939a-->\n\nThe following sections might be updated with supplementary metadata relevant to reviewers and maintainers.\n\n<!--021abf342d371248e50ceaed478a90ca-->\n### Reviews\nSee [the guideline](https://github.com/bitcoin/bitcoin/blob/master/CONTRIBUTING.md#code-review) for information on the review process.\n| Type | Reviewers |\n| ---- | --------- |\n| ACK | [stickies-v](https://github.com/bitcoin/bitcoin/pull/27477#pullrequestreview-1388602489), [vasild](https://github.com/bitcoin/bitcoin/pull/27477#pullrequestreview-1389480071) |\n\nIf your review is incorrectly listed, please react with 👎 to this comment and the bot will ignore it on the next update.\n",
      "user": {
        "login": "DrahtBot",
        "id": 39886733,
        "node_id": "MDQ6VXNlcjM5ODg2NzMz",
        "avatar_url": "https://avatars.githubusercontent.com/u/39886733?v=4",
        "gravatar_id": "",
        "url": "https://api.github.com/users/DrahtBot",
        "html_url": "https://github.com/DrahtBot",
        "followers_url": "https://api.github.com/users/DrahtBot/followers",
        "following_url": "https://api.github.com/users/DrahtBot/following%7B/other_user%7D",
        "gists_url": "https://api.github.com/users/DrahtBot/gists%7B/gist_id%7D",
        "starred_url": "https://api.github.com/users/DrahtBot/starred%7B/owner%7D%7B/repo%7D",
        "subscriptions_url": "https://api.github.com/users/DrahtBot/subscriptions",
        "organizations_url": "https://api.github.com/users/DrahtBot/orgs",
        "repos_url": "https://api.github.com/users/DrahtBot/repos",
        "events_url": "https://api.github.com/users/DrahtBot/events%7B/privacy%7D",
        "received_events_url": "https://api.github.com/users/DrahtBot/received_events",
        "type": "User",
        "site_admin": false
      },
      "html_url": "https://github.com/bitcoin/bitcoin/pull/27477#issuecomment-1511728242",
      "issue_url": "https://api.github.com/repos/bitcoin/bitcoin/issues/27477"
    },
    {
      "event": "labeled",
      "id": 9026932564,
      "node_id": "LE_lADOABII585jolsizwAAAAIaDA9U",
      "url": "https://api.github.com/repos/bitcoin/bitcoin/issues/events/9026932564",
      "actor": {
        "login": "DrahtBot",
        "id": 39886733,
        "node_id": "MDQ6VXNlcjM5ODg2NzMz",
        "avatar_url": "https://avatars.githubusercontent.com/u/39886733?v=4",
        "gravatar_id": "",
        "url": "https://api.github.com/users/DrahtBot",
        "html_url": "https://github.com/DrahtBot",
        "followers_url": "https://api.github.com/users/DrahtBot/followers",
        "following_url": "https://api.github.com/users/DrahtBot/following%7B/other_user%7D",
        "gists_url": "https://api.github.com/users/DrahtBot/gists%7B/gist_id%7D",
        "starred_url": "https://api.github.com/users/DrahtBot/starred%7B/owner%7D%7B/repo%7D",
        "subscriptions_url": "https://api.github.com/users/DrahtBot/subscriptions",
        "organizations_url": "https://api.github.com/users/DrahtBot/orgs",
        "repos_url": "https://api.github.com/users/DrahtBot/repos",
        "events_url": "https://api.github.com/users/DrahtBot/events%7B/privacy%7D",
        "received_events_url": "https://api.github.com/users/DrahtBot/received_events",
        "type": "User",
        "site_admin": false
      },
      "commit_id": null,
      "commit_url": null,
      "created_at": "2023-04-17T16:45:15Z",
      "label": {
        "name": "Tests",
        "color": "d4c5f9"
      }
    },
    {
      "event": "review_requested",
      "id": 9027069269,
      "node_id": "RRE_lADOABII585jolsizwAAAAIaDiVV",
      "url": "https://api.github.com/repos/bitcoin/bitcoin/issues/events/9027069269",
      "actor": {
        "login": "fanquake",
        "id": 863730,
        "node_id": "MDQ6VXNlcjg2MzczMA==",
        "avatar_url": "https://avatars.githubusercontent.com/u/863730?v=4",
        "gravatar_id": "",
        "url": "https://api.github.com/users/fanquake",
        "html_url": "https://github.com/fanquake",
        "followers_url": "https://api.github.com/users/fanquake/followers",
        "following_url": "https://api.github.com/users/fanquake/following%7B/other_user%7D",
        "gists_url": "https://api.github.com/users/fanquake/gists%7B/gist_id%7D",
        "starred_url": "https://api.github.com/users/fanquake/starred%7B/owner%7D%7B/repo%7D",
        "subscriptions_url": "https://api.github.com/users/fanquake/subscriptions",
        "organizations_url": "https://api.github.com/users/fanquake/orgs",
        "repos_url": "https://api.github.com/users/fanquake/repos",
        "events_url": "https://api.github.com/users/fanquake/events%7B/privacy%7D",
        "received_events_url": "https://api.github.com/users/fanquake/received_events",
        "type": "User",
        "site_admin": false
      },
      "commit_id": null,
      "commit_url": null,
      "created_at": "2023-04-17T16:59:33Z",
      "requested_reviewer": {
        "login": "stickies-v",
        "id": 69010457,
        "node_id": "MDQ6VXNlcjY5MDEwNDU3",
        "avatar_url": "https://avatars.githubusercontent.com/u/69010457?v=4",
        "gravatar_id": "",
        "url": "https://api.github.com/users/stickies-v",
        "html_url": "https://github.com/stickies-v",
        "followers_url": "https://api.github.com/users/stickies-v/followers",
        "following_url": "https://api.github.com/users/stickies-v/following%7B/other_user%7D",
        "gists_url": "https://api.github.com/users/stickies-v/gists%7B/gist_id%7D",
        "starred_url": "https://api.github.com/users/stickies-v/starred%7B/owner%7D%7B/repo%7D",
        "subscriptions_url": "https://api.github.com/users/stickies-v/subscriptions",
        "organizations_url": "https://api.github.com/users/stickies-v/orgs",
        "repos_url": "https://api.github.com/users/stickies-v/repos",
        "events_url": "https://api.github.com/users/stickies-v/events%7B/privacy%7D",
        "received_events_url": "https://api.github.com/users/stickies-v/received_events",
        "type": "User",
        "site_admin": false
      },
      "review_requester": {
        "login": "fanquake",
        "id": 863730,
        "node_id": "MDQ6VXNlcjg2MzczMA==",
        "avatar_url": "https://avatars.githubusercontent.com/u/863730?v=4",
        "gravatar_id": "",
        "url": "https://api.github.com/users/fanquake",
        "html_url": "https://github.com/fanquake",
        "followers_url": "https://api.github.com/users/fanquake/followers",
        "following_url": "https://api.github.com/users/fanquake/following%7B/other_user%7D",
        "gists_url": "https://api.github.com/users/fanquake/gists%7B/gist_id%7D",
        "starred_url": "https://api.github.com/users/fanquake/starred%7B/owner%7D%7B/repo%7D",
        "subscriptions_url": "https://api.github.com/users/fanquake/subscriptions",
        "organizations_url": "https://api.github.com/users/fanquake/orgs",
        "repos_url": "https://api.github.com/users/fanquake/repos",
        "events_url": "https://api.github.com/users/fanquake/events%7B/privacy%7D",
        "received_events_url": "https://api.github.com/users/fanquake/received_events",
        "type": "User",
        "site_admin": false
      }
    },
    {
      "event": "review_requested",
      "id": 9027069293,
      "node_id": "RRE_lADOABII585jolsizwAAAAIaDiVt",
      "url": "https://api.github.com/repos/bitcoin/bitcoin/issues/events/9027069293",
      "actor": {
        "login": "fanquake",
        "id": 863730,
        "node_id": "MDQ6VXNlcjg2MzczMA==",
        "avatar_url": "https://avatars.githubusercontent.com/u/863730?v=4",
        "gravatar_id": "",
        "url": "https://api.github.com/users/fanquake",
        "html_url": "https://github.com/fanquake",
        "followers_url": "https://api.github.com/users/fanquake/followers",
        "following_url": "https://api.github.com/users/fanquake/following%7B/other_user%7D",
        "gists_url": "https://api.github.com/users/fanquake/gists%7B/gist_id%7D",
        "starred_url": "https://api.github.com/users/fanquake/starred%7B/owner%7D%7B/repo%7D",
        "subscriptions_url": "https://api.github.com/users/fanquake/subscriptions",
        "organizations_url": "https://api.github.com/users/fanquake/orgs",
        "repos_url": "https://api.github.com/users/fanquake/repos",
        "events_url": "https://api.github.com/users/fanquake/events%7B/privacy%7D",
        "received_events_url": "https://api.github.com/users/fanquake/received_events",
        "type": "User",
        "site_admin": false
      },
      "commit_id": null,
      "commit_url": null,
      "created_at": "2023-04-17T16:59:33Z",
      "requested_reviewer": {
        "login": "vasild",
        "id": 266751,
        "node_id": "MDQ6VXNlcjI2Njc1MQ==",
        "avatar_url": "https://avatars.githubusercontent.com/u/266751?v=4",
        "gravatar_id": "",
        "url": "https://api.github.com/users/vasild",
        "html_url": "https://github.com/vasild",
        "followers_url": "https://api.github.com/users/vasild/followers",
        "following_url": "https://api.github.com/users/vasild/following%7B/other_user%7D",
        "gists_url": "https://api.github.com/users/vasild/gists%7B/gist_id%7D",
        "starred_url": "https://api.github.com/users/vasild/starred%7B/owner%7D%7B/repo%7D",
        "subscriptions_url": "https://api.github.com/users/vasild/subscriptions",
        "organizations_url": "https://api.github.com/users/vasild/orgs",
        "repos_url": "https://api.github.com/users/vasild/repos",
        "events_url": "https://api.github.com/users/vasild/events%7B/privacy%7D",
        "received_events_url": "https://api.github.com/users/vasild/received_events",
        "type": "User",
        "site_admin": false
      },
      "review_requester": {
        "login": "fanquake",
        "id": 863730,
        "node_id": "MDQ6VXNlcjg2MzczMA==",
        "avatar_url": "https://avatars.githubusercontent.com/u/863730?v=4",
        "gravatar_id": "",
        "url": "https://api.github.com/users/fanquake",
        "html_url": "https://github.com/fanquake",
        "followers_url": "https://api.github.com/users/fanquake/followers",
        "following_url": "https://api.github.com/users/fanquake/following%7B/other_user%7D",
        "gists_url": "https://api.github.com/users/fanquake/gists%7B/gist_id%7D",
        "starred_url": "https://api.github.com/users/fanquake/starred%7B/owner%7D%7B/repo%7D",
        "subscriptions_url": "https://api.github.com/users/fanquake/subscriptions",
        "organizations_url": "https://api.github.com/users/fanquake/orgs",
        "repos_url": "https://api.github.com/users/fanquake/repos",
        "events_url": "https://api.github.com/users/fanquake/events%7B/privacy%7D",
        "received_events_url": "https://api.github.com/users/fanquake/received_events",
        "type": "User",
        "site_admin": false
      }
    },
    {
      "event": "reviewed",
      "id": 1388602489,
      "node_id": "PRR_kwDOABII585SxGR5",
      "url": null,
      "actor": null,
      "commit_id": "6a77d290da589bd5620585def5bfc019e242e189",
      "commit_url": null,
      "created_at": null,
      "author_association": "CONTRIBUTOR",
      "body": "ACK 6a77d290da589bd5620585def5bfc019e242e189\r\n\r\nThe URI character validation/throwing logic is to be moved away from the query parameter logic (which would make it independent from these 3 endpoints), but this seems like a good addition for the follow-up to build on.",
      "user": {
        "login": "stickies-v",
        "id": 69010457,
        "node_id": "MDQ6VXNlcjY5MDEwNDU3",
        "avatar_url": "https://avatars.githubusercontent.com/u/69010457?v=4",
        "gravatar_id": "",
        "url": "https://api.github.com/users/stickies-v",
        "html_url": "https://github.com/stickies-v",
        "followers_url": "https://api.github.com/users/stickies-v/followers",
        "following_url": "https://api.github.com/users/stickies-v/following%7B/other_user%7D",
        "gists_url": "https://api.github.com/users/stickies-v/gists%7B/gist_id%7D",
        "starred_url": "https://api.github.com/users/stickies-v/starred%7B/owner%7D%7B/repo%7D",
        "subscriptions_url": "https://api.github.com/users/stickies-v/subscriptions",
        "organizations_url": "https://api.github.com/users/stickies-v/orgs",
        "repos_url": "https://api.github.com/users/stickies-v/repos",
        "events_url": "https://api.github.com/users/stickies-v/events%7B/privacy%7D",
        "received_events_url": "https://api.github.com/users/stickies-v/received_events",
        "type": "User",
        "site_admin": false
      },
      "html_url": "https://github.com/bitcoin/bitcoin/pull/27477#pullrequestreview-1388602489",
      "submitted_at": "2023-04-17T17:12:44Z",
      "state": "APPROVED",
      "pull_request_url": "https://api.github.com/repos/bitcoin/bitcoin/pulls/27477"
    },
    {
      "event": "reviewed",
      "id": 1389480071,
      "node_id": "PRR_kwDOABII585S0ciH",
      "url": null,
      "actor": null,
      "commit_id": "6a77d290da589bd5620585def5bfc019e242e189",
      "commit_url": null,
      "created_at": null,
      "author_association": "CONTRIBUTOR",
      "body": "ACK 6a77d290da589bd5620585def5bfc019e242e189",
      "user": {
        "login": "vasild",
        "id": 266751,
        "node_id": "MDQ6VXNlcjI2Njc1MQ==",
        "avatar_url": "https://avatars.githubusercontent.com/u/266751?v=4",
        "gravatar_id": "",
        "url": "https://api.github.com/users/vasild",
        "html_url": "https://github.com/vasild",
        "followers_url": "https://api.github.com/users/vasild/followers",
        "following_url": "https://api.github.com/users/vasild/following%7B/other_user%7D",
        "gists_url": "https://api.github.com/users/vasild/gists%7B/gist_id%7D",
        "starred_url": "https://api.github.com/users/vasild/starred%7B/owner%7D%7B/repo%7D",
        "subscriptions_url": "https://api.github.com/users/vasild/subscriptions",
        "organizations_url": "https://api.github.com/users/vasild/orgs",
        "repos_url": "https://api.github.com/users/vasild/repos",
        "events_url": "https://api.github.com/users/vasild/events%7B/privacy%7D",
        "received_events_url": "https://api.github.com/users/vasild/received_events",
        "type": "User",
        "site_admin": false
      },
      "html_url": "https://github.com/bitcoin/bitcoin/pull/27477#pullrequestreview-1389480071",
      "submitted_at": "2023-04-18T07:40:05Z",
      "state": "APPROVED",
      "pull_request_url": "https://api.github.com/repos/bitcoin/bitcoin/pulls/27477"
    },
    {
      "event": "referenced",
      "id": 9032837146,
      "node_id": "REFE_lADOABII585jolsizwAAAAIaZiga",
      "url": "https://api.github.com/repos/bitcoin/bitcoin/issues/events/9032837146",
      "actor": {
        "login": "fanquake",
        "id": 863730,
        "node_id": "MDQ6VXNlcjg2MzczMA==",
        "avatar_url": "https://avatars.githubusercontent.com/u/863730?v=4",
        "gravatar_id": "",
        "url": "https://api.github.com/users/fanquake",
        "html_url": "https://github.com/fanquake",
        "followers_url": "https://api.github.com/users/fanquake/followers",
        "following_url": "https://api.github.com/users/fanquake/following%7B/other_user%7D",
        "gists_url": "https://api.github.com/users/fanquake/gists%7B/gist_id%7D",
        "starred_url": "https://api.github.com/users/fanquake/starred%7B/owner%7D%7B/repo%7D",
        "subscriptions_url": "https://api.github.com/users/fanquake/subscriptions",
        "organizations_url": "https://api.github.com/users/fanquake/orgs",
        "repos_url": "https://api.github.com/users/fanquake/repos",
        "events_url": "https://api.github.com/users/fanquake/events%7B/privacy%7D",
        "received_events_url": "https://api.github.com/users/fanquake/received_events",
        "type": "User",
        "site_admin": false
      },
      "commit_id": "467fa8943801911c233cb96d45282b1de10bfa90",
      "commit_url": "https://api.github.com/repos/bitcoin-core/gui/commits/467fa8943801911c233cb96d45282b1de10bfa90",
      "created_at": "2023-04-18T08:19:54Z"
    },
    {
      "event": "commented",
      "id": 1512724993,
      "node_id": "IC_kwDOABII585aKloB",
      "url": "https://api.github.com/repos/bitcoin/bitcoin/issues/comments/1512724993",
      "actor": {
        "login": "fanquake",
        "id": 863730,
        "node_id": "MDQ6VXNlcjg2MzczMA==",
        "avatar_url": "https://avatars.githubusercontent.com/u/863730?v=4",
        "gravatar_id": "",
        "url": "https://api.github.com/users/fanquake",
        "html_url": "https://github.com/fanquake",
        "followers_url": "https://api.github.com/users/fanquake/followers",
        "following_url": "https://api.github.com/users/fanquake/following%7B/other_user%7D",
        "gists_url": "https://api.github.com/users/fanquake/gists%7B/gist_id%7D",
        "starred_url": "https://api.github.com/users/fanquake/starred%7B/owner%7D%7B/repo%7D",
        "subscriptions_url": "https://api.github.com/users/fanquake/subscriptions",
        "organizations_url": "https://api.github.com/users/fanquake/orgs",
        "repos_url": "https://api.github.com/users/fanquake/repos",
        "events_url": "https://api.github.com/users/fanquake/events%7B/privacy%7D",
        "received_events_url": "https://api.github.com/users/fanquake/received_events",
        "type": "User",
        "site_admin": false
      },
      "commit_id": null,
      "commit_url": null,
      "created_at": "2023-04-18T09:03:34Z",
      "updated_at": "2023-04-18T09:03:34Z",
      "author_association": "MEMBER",
      "body": "This has been merged.",
      "user": {
        "login": "fanquake",
        "id": 863730,
        "node_id": "MDQ6VXNlcjg2MzczMA==",
        "avatar_url": "https://avatars.githubusercontent.com/u/863730?v=4",
        "gravatar_id": "",
        "url": "https://api.github.com/users/fanquake",
        "html_url": "https://github.com/fanquake",
        "followers_url": "https://api.github.com/users/fanquake/followers",
        "following_url": "https://api.github.com/users/fanquake/following%7B/other_user%7D",
        "gists_url": "https://api.github.com/users/fanquake/gists%7B/gist_id%7D",
        "starred_url": "https://api.github.com/users/fanquake/starred%7B/owner%7D%7B/repo%7D",
        "subscriptions_url": "https://api.github.com/users/fanquake/subscriptions",
        "organizations_url": "https://api.github.com/users/fanquake/orgs",
        "repos_url": "https://api.github.com/users/fanquake/repos",
        "events_url": "https://api.github.com/users/fanquake/events%7B/privacy%7D",
        "received_events_url": "https://api.github.com/users/fanquake/received_events",
        "type": "User",
        "site_admin": false
      },
      "html_url": "https://github.com/bitcoin/bitcoin/pull/27477#issuecomment-1512724993",
      "issue_url": "https://api.github.com/repos/bitcoin/bitcoin/issues/27477"
    },
    {
      "event": "closed",
      "id": 9033302131,
      "node_id": "CE_lADOABII585jolsizwAAAAIabUBz",
      "url": "https://api.github.com/repos/bitcoin/bitcoin/issues/events/9033302131",
      "actor": {
        "login": "fanquake",
        "id": 863730,
        "node_id": "MDQ6VXNlcjg2MzczMA==",
        "avatar_url": "https://avatars.githubusercontent.com/u/863730?v=4",
        "gravatar_id": "",
        "url": "https://api.github.com/users/fanquake",
        "html_url": "https://github.com/fanquake",
        "followers_url": "https://api.github.com/users/fanquake/followers",
        "following_url": "https://api.github.com/users/fanquake/following%7B/other_user%7D",
        "gists_url": "https://api.github.com/users/fanquake/gists%7B/gist_id%7D",
        "starred_url": "https://api.github.com/users/fanquake/starred%7B/owner%7D%7B/repo%7D",
        "subscriptions_url": "https://api.github.com/users/fanquake/subscriptions",
        "organizations_url": "https://api.github.com/users/fanquake/orgs",
        "repos_url": "https://api.github.com/users/fanquake/repos",
        "events_url": "https://api.github.com/users/fanquake/events%7B/privacy%7D",
        "received_events_url": "https://api.github.com/users/fanquake/received_events",
        "type": "User",
        "site_admin": false
      },
      "commit_id": null,
      "commit_url": null,
      "created_at": "2023-04-18T09:03:35Z"
    },
    {
      "event": "head_ref_deleted",
      "id": 9033340242,
      "node_id": "HRDE_lADOABII585jolsizwAAAAIabdVS",
      "url": "https://api.github.com/repos/bitcoin/bitcoin/issues/events/9033340242",
      "actor": {
        "login": "theStack",
        "id": 91535,
        "node_id": "MDQ6VXNlcjkxNTM1",
        "avatar_url": "https://avatars.githubusercontent.com/u/91535?v=4",
        "gravatar_id": "",
        "url": "https://api.github.com/users/theStack",
        "html_url": "https://github.com/theStack",
        "followers_url": "https://api.github.com/users/theStack/followers",
        "following_url": "https://api.github.com/users/theStack/following%7B/other_user%7D",
        "gists_url": "https://api.github.com/users/theStack/gists%7B/gist_id%7D",
        "starred_url": "https://api.github.com/users/theStack/starred%7B/owner%7D%7B/repo%7D",
        "subscriptions_url": "https://api.github.com/users/theStack/subscriptions",
        "organizations_url": "https://api.github.com/users/theStack/orgs",
        "repos_url": "https://api.github.com/users/theStack/repos",
        "events_url": "https://api.github.com/users/theStack/events%7B/privacy%7D",
        "received_events_url": "https://api.github.com/users/theStack/received_events",
        "type": "User",
        "site_admin": false
      },
      "commit_id": null,
      "commit_url": null,
      "created_at": "2023-04-18T09:07:00Z"
    },
    {
      "event": "referenced",
      "id": 9039639423,
      "node_id": "REFE_lADOABII585jolsizwAAAAIazfN_",
      "url": "https://api.github.com/repos/bitcoin/bitcoin/issues/events/9039639423",
      "actor": {
        "login": "sidhujag",
        "id": 6238042,
        "node_id": "MDQ6VXNlcjYyMzgwNDI=",
        "avatar_url": "https://avatars.githubusercontent.com/u/6238042?v=4",
        "gravatar_id": "",
        "url": "https://api.github.com/users/sidhujag",
        "html_url": "https://github.com/sidhujag",
        "followers_url": "https://api.github.com/users/sidhujag/followers",
        "following_url": "https://api.github.com/users/sidhujag/following%7B/other_user%7D",
        "gists_url": "https://api.github.com/users/sidhujag/gists%7B/gist_id%7D",
        "starred_url": "https://api.github.com/users/sidhujag/starred%7B/owner%7D%7B/repo%7D",
        "subscriptions_url": "https://api.github.com/users/sidhujag/subscriptions",
        "organizations_url": "https://api.github.com/users/sidhujag/orgs",
        "repos_url": "https://api.github.com/users/sidhujag/repos",
        "events_url": "https://api.github.com/users/sidhujag/events%7B/privacy%7D",
        "received_events_url": "https://api.github.com/users/sidhujag/received_events",
        "type": "User",
        "site_admin": false
      },
      "commit_id": "21e773bf32dca218966b8ffafd50db852f41b753",
      "commit_url": "https://api.github.com/repos/syscoin/syscoin/commits/21e773bf32dca218966b8ffafd50db852f41b753",
      "created_at": "2023-04-18T19:49:56Z"
    }
  ],
  "comments": []
}