{
  "type": "pull",
  "pull": {
    "url": "https://api.github.com/repos/bitcoin/bitcoin/pulls/27579",
    "id": 1339586659,
    "node_id": "PR_kwDOABII585P2Hhj",
    "html_url": "https://github.com/bitcoin/bitcoin/pull/27579",
    "diff_url": "https://github.com/bitcoin/bitcoin/pull/27579.diff",
    "patch_url": "https://github.com/bitcoin/bitcoin/pull/27579.patch",
    "issue_url": "https://api.github.com/repos/bitcoin/bitcoin/issues/27579",
    "commits_url": "https://api.github.com/repos/bitcoin/bitcoin/pulls/27579/commits",
    "review_comments_url": "https://api.github.com/repos/bitcoin/bitcoin/pulls/27579/comments",
    "review_comment_url": "https://api.github.com/repos/bitcoin/bitcoin/pulls/comments%7B/number%7D",
    "comments_url": "https://api.github.com/repos/bitcoin/bitcoin/issues/27579/comments",
    "statuses_url": "https://api.github.com/repos/bitcoin/bitcoin/statuses/c7fa0488f684fd6d3409c28391ee1abebf0db435",
    "number": 27579,
    "state": "closed",
    "locked": false,
    "maintainer_can_modify": false,
    "title": "Update README.md",
    "user": {
      "login": "0xchabbi",
      "id": 88594037,
      "node_id": "MDQ6VXNlcjg4NTk0MDM3",
      "avatar_url": "https://avatars.githubusercontent.com/u/88594037?v=4",
      "gravatar_id": "",
      "url": "https://api.github.com/users/0xchabbi",
      "html_url": "https://github.com/0xchabbi",
      "followers_url": "https://api.github.com/users/0xchabbi/followers",
      "following_url": "https://api.github.com/users/0xchabbi/following%7B/other_user%7D",
      "gists_url": "https://api.github.com/users/0xchabbi/gists%7B/gist_id%7D",
      "starred_url": "https://api.github.com/users/0xchabbi/starred%7B/owner%7D%7B/repo%7D",
      "subscriptions_url": "https://api.github.com/users/0xchabbi/subscriptions",
      "organizations_url": "https://api.github.com/users/0xchabbi/orgs",
      "repos_url": "https://api.github.com/users/0xchabbi/repos",
      "events_url": "https://api.github.com/users/0xchabbi/events%7B/privacy%7D",
      "received_events_url": "https://api.github.com/users/0xchabbi/received_events",
      "type": "User",
      "site_admin": false
    },
    "body": "change naming and link it right\r\n",
    "labels": [],
    "created_at": "2023-05-05T09:17:48Z",
    "updated_at": "2023-05-05T09:18:32Z",
    "closed_at": "2023-05-05T09:18:32Z",
    "mergeable_state": "unknown",
    "merge_commit_sha": "f0df9e9f126fa37c44a35cac3cd54e83ff0c50b6",
    "assignees": [],
    "requested_reviewers": [],
    "requested_teams": [],
    "head": {
      "label": "0xchabbi:0xchabbi-patch-1",
      "ref": "0xchabbi-patch-1",
      "sha": "c7fa0488f684fd6d3409c28391ee1abebf0db435",
      "user": {
        "login": "0xchabbi",
        "id": 88594037,
        "node_id": "MDQ6VXNlcjg4NTk0MDM3",
        "avatar_url": "https://avatars.githubusercontent.com/u/88594037?v=4",
        "gravatar_id": "",
        "url": "https://api.github.com/users/0xchabbi",
        "html_url": "https://github.com/0xchabbi",
        "followers_url": "https://api.github.com/users/0xchabbi/followers",
        "following_url": "https://api.github.com/users/0xchabbi/following%7B/other_user%7D",
        "gists_url": "https://api.github.com/users/0xchabbi/gists%7B/gist_id%7D",
        "starred_url": "https://api.github.com/users/0xchabbi/starred%7B/owner%7D%7B/repo%7D",
        "subscriptions_url": "https://api.github.com/users/0xchabbi/subscriptions",
        "organizations_url": "https://api.github.com/users/0xchabbi/orgs",
        "repos_url": "https://api.github.com/users/0xchabbi/repos",
        "events_url": "https://api.github.com/users/0xchabbi/events%7B/privacy%7D",
        "received_events_url": "https://api.github.com/users/0xchabbi/received_events",
        "type": "User",
        "site_admin": false
      },
      "repo": {
        "id": 636622419,
        "node_id": "R_kgDOJfIWUw",
        "name": "bitcoin",
        "full_name": "0xchabbi/bitcoin",
        "owner": {
          "login": "0xchabbi",
          "id": 88594037,
          "node_id": "MDQ6VXNlcjg4NTk0MDM3",
          "avatar_url": "https://avatars.githubusercontent.com/u/88594037?v=4",
          "gravatar_id": "",
          "url": "https://api.github.com/users/0xchabbi",
          "html_url": "https://github.com/0xchabbi",
          "followers_url": "https://api.github.com/users/0xchabbi/followers",
          "following_url": "https://api.github.com/users/0xchabbi/following%7B/other_user%7D",
          "gists_url": "https://api.github.com/users/0xchabbi/gists%7B/gist_id%7D",
          "starred_url": "https://api.github.com/users/0xchabbi/starred%7B/owner%7D%7B/repo%7D",
          "subscriptions_url": "https://api.github.com/users/0xchabbi/subscriptions",
          "organizations_url": "https://api.github.com/users/0xchabbi/orgs",
          "repos_url": "https://api.github.com/users/0xchabbi/repos",
          "events_url": "https://api.github.com/users/0xchabbi/events%7B/privacy%7D",
          "received_events_url": "https://api.github.com/users/0xchabbi/received_events",
          "type": "User",
          "site_admin": false
        },
        "private": false,
        "html_url": "https://github.com/0xchabbi/bitcoin",
        "description": "Bitcoin Core integration/staging tree",
        "fork": true,
        "url": "https://api.github.com/repos/0xchabbi/bitcoin",
        "archive_url": "https://api.github.com/repos/0xchabbi/bitcoin/%7Barchive_format%7D%7B/ref%7D",
        "assignees_url": "https://api.github.com/repos/0xchabbi/bitcoin/assignees%7B/user%7D",
        "blobs_url": "https://api.github.com/repos/0xchabbi/bitcoin/git/blobs%7B/sha%7D",
        "branches_url": "https://api.github.com/repos/0xchabbi/bitcoin/branches%7B/branch%7D",
        "collaborators_url": "https://api.github.com/repos/0xchabbi/bitcoin/collaborators%7B/collaborator%7D",
        "comments_url": "https://api.github.com/repos/0xchabbi/bitcoin/comments%7B/number%7D",
        "commits_url": "https://api.github.com/repos/0xchabbi/bitcoin/commits%7B/sha%7D",
        "compare_url": "https://api.github.com/repos/0xchabbi/bitcoin/compare/%7Bbase%7D...%7Bhead%7D",
        "contents_url": "https://api.github.com/repos/0xchabbi/bitcoin/contents/%7B+path%7D",
        "contributors_url": "https://api.github.com/repos/0xchabbi/bitcoin/contributors",
        "deployments_url": "https://api.github.com/repos/0xchabbi/bitcoin/deployments",
        "downloads_url": "https://api.github.com/repos/0xchabbi/bitcoin/downloads",
        "events_url": "https://api.github.com/repos/0xchabbi/bitcoin/events",
        "forks_url": "https://api.github.com/repos/0xchabbi/bitcoin/forks",
        "git_commits_url": "https://api.github.com/repos/0xchabbi/bitcoin/git/commits%7B/sha%7D",
        "git_refs_url": "https://api.github.com/repos/0xchabbi/bitcoin/git/refs%7B/sha%7D",
        "git_tags_url": "https://api.github.com/repos/0xchabbi/bitcoin/git/tags%7B/sha%7D",
        "git_url": "git://github.com/0xchabbi/bitcoin.git",
        "issue_comment_url": "https://api.github.com/repos/0xchabbi/bitcoin/issues/comments%7B/number%7D",
        "issue_events_url": "https://api.github.com/repos/0xchabbi/bitcoin/issues/events%7B/number%7D",
        "issues_url": "https://api.github.com/repos/0xchabbi/bitcoin/issues%7B/number%7D",
        "keys_url": "https://api.github.com/repos/0xchabbi/bitcoin/keys%7B/key_id%7D",
        "labels_url": "https://api.github.com/repos/0xchabbi/bitcoin/labels%7B/name%7D",
        "languages_url": "https://api.github.com/repos/0xchabbi/bitcoin/languages",
        "merges_url": "https://api.github.com/repos/0xchabbi/bitcoin/merges",
        "milestones_url": "https://api.github.com/repos/0xchabbi/bitcoin/milestones%7B/number%7D",
        "notifications_url": "https://api.github.com/repos/0xchabbi/bitcoin/notifications%7B?since,all,participating}",
        "pulls_url": "https://api.github.com/repos/0xchabbi/bitcoin/pulls%7B/number%7D",
        "releases_url": "https://api.github.com/repos/0xchabbi/bitcoin/releases%7B/id%7D",
        "ssh_url": "git@github.com:0xchabbi/bitcoin.git",
        "stargazers_url": "https://api.github.com/repos/0xchabbi/bitcoin/stargazers",
        "statuses_url": "https://api.github.com/repos/0xchabbi/bitcoin/statuses/%7Bsha%7D",
        "subscribers_url": "https://api.github.com/repos/0xchabbi/bitcoin/subscribers",
        "subscription_url": "https://api.github.com/repos/0xchabbi/bitcoin/subscription",
        "tags_url": "https://api.github.com/repos/0xchabbi/bitcoin/tags",
        "teams_url": "https://api.github.com/repos/0xchabbi/bitcoin/teams",
        "trees_url": "https://api.github.com/repos/0xchabbi/bitcoin/git/trees%7B/sha%7D",
        "clone_url": "https://github.com/0xchabbi/bitcoin.git",
        "hooks_url": "https://api.github.com/repos/0xchabbi/bitcoin/hooks",
        "svn_url": "https://github.com/0xchabbi/bitcoin",
        "homepage": "https://bitcoincore.org/en/download",
        "language": "C++",
        "forks_count": 0,
        "stargazers_count": 0,
        "watchers_count": 0,
        "size": 194633,
        "default_branch": "master",
        "open_issues_count": 0,
        "is_template": false,
        "topics": [],
        "has_issues": false,
        "has_projects": true,
        "has_wiki": false,
        "has_pages": false,
        "has_downloads": false,
        "archived": false,
        "disabled": false,
        "visibility": "public",
        "pushed_at": "2023-05-05T10:17:49Z",
        "created_at": "2023-05-05T09:11:34Z",
        "updated_at": "2023-05-05T10:18:14Z",
        "license": {
          "key": "mit",
          "name": "MIT License",
          "node_id": "MDc6TGljZW5zZTEz",
          "spdx_id": "MIT",
          "url": "https://api.github.com/licenses/mit",
          "html_url": null,
          "description": null,
          "implementation": null,
          "permissions": null,
          "conditions": null,
          "limitations": null,
          "body": null,
          "featured": null
        }
      }
    },
    "base": {
      "label": "bitcoin:master",
      "ref": "master",
      "sha": "6c7ebcc14b7908a67a8f8764b398e76c8fb4fe8b",
      "user": {
        "login": "bitcoin",
        "id": 528860,
        "node_id": "MDEyOk9yZ2FuaXphdGlvbjUyODg2MA==",
        "avatar_url": "https://avatars.githubusercontent.com/u/528860?v=4",
        "gravatar_id": "",
        "url": "https://api.github.com/users/bitcoin",
        "html_url": "https://github.com/bitcoin",
        "followers_url": "https://api.github.com/users/bitcoin/followers",
        "following_url": "https://api.github.com/users/bitcoin/following%7B/other_user%7D",
        "gists_url": "https://api.github.com/users/bitcoin/gists%7B/gist_id%7D",
        "starred_url": "https://api.github.com/users/bitcoin/starred%7B/owner%7D%7B/repo%7D",
        "subscriptions_url": "https://api.github.com/users/bitcoin/subscriptions",
        "organizations_url": "https://api.github.com/users/bitcoin/orgs",
        "repos_url": "https://api.github.com/users/bitcoin/repos",
        "events_url": "https://api.github.com/users/bitcoin/events%7B/privacy%7D",
        "received_events_url": "https://api.github.com/users/bitcoin/received_events",
        "type": "Organization",
        "site_admin": false
      },
      "repo": {
        "id": 1181927,
        "node_id": "MDEwOlJlcG9zaXRvcnkxMTgxOTI3",
        "name": "bitcoin",
        "full_name": "bitcoin/bitcoin",
        "owner": {
          "login": "bitcoin",
          "id": 528860,
          "node_id": "MDEyOk9yZ2FuaXphdGlvbjUyODg2MA==",
          "avatar_url": "https://avatars.githubusercontent.com/u/528860?v=4",
          "gravatar_id": "",
          "url": "https://api.github.com/users/bitcoin",
          "html_url": "https://github.com/bitcoin",
          "followers_url": "https://api.github.com/users/bitcoin/followers",
          "following_url": "https://api.github.com/users/bitcoin/following%7B/other_user%7D",
          "gists_url": "https://api.github.com/users/bitcoin/gists%7B/gist_id%7D",
          "starred_url": "https://api.github.com/users/bitcoin/starred%7B/owner%7D%7B/repo%7D",
          "subscriptions_url": "https://api.github.com/users/bitcoin/subscriptions",
          "organizations_url": "https://api.github.com/users/bitcoin/orgs",
          "repos_url": "https://api.github.com/users/bitcoin/repos",
          "events_url": "https://api.github.com/users/bitcoin/events%7B/privacy%7D",
          "received_events_url": "https://api.github.com/users/bitcoin/received_events",
          "type": "Organization",
          "site_admin": false
        },
        "private": false,
        "html_url": "https://github.com/bitcoin/bitcoin",
        "description": "Bitcoin Core integration/staging tree",
        "fork": false,
        "url": "https://api.github.com/repos/bitcoin/bitcoin",
        "archive_url": "https://api.github.com/repos/bitcoin/bitcoin/%7Barchive_format%7D%7B/ref%7D",
        "assignees_url": "https://api.github.com/repos/bitcoin/bitcoin/assignees%7B/user%7D",
        "blobs_url": "https://api.github.com/repos/bitcoin/bitcoin/git/blobs%7B/sha%7D",
        "branches_url": "https://api.github.com/repos/bitcoin/bitcoin/branches%7B/branch%7D",
        "collaborators_url": "https://api.github.com/repos/bitcoin/bitcoin/collaborators%7B/collaborator%7D",
        "comments_url": "https://api.github.com/repos/bitcoin/bitcoin/comments%7B/number%7D",
        "commits_url": "https://api.github.com/repos/bitcoin/bitcoin/commits%7B/sha%7D",
        "compare_url": "https://api.github.com/repos/bitcoin/bitcoin/compare/%7Bbase%7D...%7Bhead%7D",
        "contents_url": "https://api.github.com/repos/bitcoin/bitcoin/contents/%7B+path%7D",
        "contributors_url": "https://api.github.com/repos/bitcoin/bitcoin/contributors",
        "deployments_url": "https://api.github.com/repos/bitcoin/bitcoin/deployments",
        "downloads_url": "https://api.github.com/repos/bitcoin/bitcoin/downloads",
        "events_url": "https://api.github.com/repos/bitcoin/bitcoin/events",
        "forks_url": "https://api.github.com/repos/bitcoin/bitcoin/forks",
        "git_commits_url": "https://api.github.com/repos/bitcoin/bitcoin/git/commits%7B/sha%7D",
        "git_refs_url": "https://api.github.com/repos/bitcoin/bitcoin/git/refs%7B/sha%7D",
        "git_tags_url": "https://api.github.com/repos/bitcoin/bitcoin/git/tags%7B/sha%7D",
        "git_url": "git://github.com/bitcoin/bitcoin.git",
        "issue_comment_url": "https://api.github.com/repos/bitcoin/bitcoin/issues/comments%7B/number%7D",
        "issue_events_url": "https://api.github.com/repos/bitcoin/bitcoin/issues/events%7B/number%7D",
        "issues_url": "https://api.github.com/repos/bitcoin/bitcoin/issues%7B/number%7D",
        "keys_url": "https://api.github.com/repos/bitcoin/bitcoin/keys%7B/key_id%7D",
        "labels_url": "https://api.github.com/repos/bitcoin/bitcoin/labels%7B/name%7D",
        "languages_url": "https://api.github.com/repos/bitcoin/bitcoin/languages",
        "merges_url": "https://api.github.com/repos/bitcoin/bitcoin/merges",
        "milestones_url": "https://api.github.com/repos/bitcoin/bitcoin/milestones%7B/number%7D",
        "notifications_url": "https://api.github.com/repos/bitcoin/bitcoin/notifications%7B?since,all,participating}",
        "pulls_url": "https://api.github.com/repos/bitcoin/bitcoin/pulls%7B/number%7D",
        "releases_url": "https://api.github.com/repos/bitcoin/bitcoin/releases%7B/id%7D",
        "ssh_url": "git@github.com:bitcoin/bitcoin.git",
        "stargazers_url": "https://api.github.com/repos/bitcoin/bitcoin/stargazers",
        "statuses_url": "https://api.github.com/repos/bitcoin/bitcoin/statuses/%7Bsha%7D",
        "subscribers_url": "https://api.github.com/repos/bitcoin/bitcoin/subscribers",
        "subscription_url": "https://api.github.com/repos/bitcoin/bitcoin/subscription",
        "tags_url": "https://api.github.com/repos/bitcoin/bitcoin/tags",
        "teams_url": "https://api.github.com/repos/bitcoin/bitcoin/teams",
        "trees_url": "https://api.github.com/repos/bitcoin/bitcoin/git/trees%7B/sha%7D",
        "clone_url": "https://github.com/bitcoin/bitcoin.git",
        "hooks_url": "https://api.github.com/repos/bitcoin/bitcoin/hooks",
        "svn_url": "https://github.com/bitcoin/bitcoin",
        "homepage": "https://bitcoincore.org/en/download",
        "language": "C++",
        "forks_count": 35476,
        "stargazers_count": 70608,
        "watchers_count": 70608,
        "size": 236222,
        "default_branch": "master",
        "open_issues_count": 673,
        "is_template": false,
        "topics": [
          "bitcoin",
          "c-plus-plus",
          "cryptocurrency",
          "cryptography",
          "p2p"
        ],
        "has_issues": true,
        "has_projects": true,
        "has_wiki": false,
        "has_pages": false,
        "has_downloads": false,
        "archived": false,
        "disabled": false,
        "visibility": "public",
        "pushed_at": "2023-08-03T00:03:27Z",
        "created_at": "2010-12-19T15:16:43Z",
        "updated_at": "2023-08-02T18:21:18Z",
        "license": {
          "key": "mit",
          "name": "MIT License",
          "node_id": "MDc6TGljZW5zZTEz",
          "spdx_id": "MIT",
          "url": "https://api.github.com/licenses/mit",
          "html_url": null,
          "description": null,
          "implementation": null,
          "permissions": null,
          "conditions": null,
          "limitations": null,
          "body": null,
          "featured": null
        }
      }
    },
    "_links": {
      "self": {
        "href": "https://api.github.com/repos/bitcoin/bitcoin/pulls/27579"
      }
    },
    "author_association": "NONE",
    "draft": false,
    "additions": 2,
    "deletions": 2,
    "changed_files": 1,
    "commits": 1,
    "review_comments": 0,
    "comments": 1
  },
  "events": [
    {
      "event": "committed",
      "id": null,
      "node_id": "C_kwDOABII59oAKGM3ZmEwNDg4ZjY4NGZkNmQzNDA5YzI4MzkxZWUxYWJlYmYwZGI0MzU",
      "url": "https://api.github.com/repos/bitcoin/bitcoin/git/commits/c7fa0488f684fd6d3409c28391ee1abebf0db435",
      "actor": null,
      "commit_id": null,
      "commit_url": null,
      "created_at": null,
      "html_url": "https://github.com/bitcoin/bitcoin/commit/c7fa0488f684fd6d3409c28391ee1abebf0db435",
      "tree": {
        "sha": "eaee81f78e2d8d96eb8160af3e9b22ddc9c47e94",
        "url": "https://api.github.com/repos/bitcoin/bitcoin/git/trees/eaee81f78e2d8d96eb8160af3e9b22ddc9c47e94"
      },
      "verification": {
        "verified": true,
        "reason": "valid",
        "payload": "tree eaee81f78e2d8d96eb8160af3e9b22ddc9c47e94\nparent 6c7ebcc14b7908a67a8f8764b398e76c8fb4fe8b\nauthor Bilal <88594037+0xchabbi@users.noreply.github.com> 1683278180 +0200\ncommitter GitHub <noreply@github.com> 1683278180 +0200\n\nUpdate README.md\n\nchange naming and link it",
        "signature": "-----BEGIN PGP SIGNATURE-----\n\nwsBcBAABCAAQBQJkVMlkCRBK7hj4Ov3rIwAAZ6cIAEDdAcn4avwTlM4jw5L3AzDx\n8EyI8H3I/K+a5GM1ChwLAGtwslXphdh020qrau/SMViOVN6goFAVnEfJlzbJ+1VC\nykct/Tw4UMwlAbfCCI3pxqCtgBNUr6N+9RjAMjeJGeJdWv0fNTMJ0eU3g4gh1Ry1\nb3tOoNSFuqxVXe0rwgDX86iHInYnFYR3ojInqDrugdXx5NlDS7UxJAWa0/+uBZzI\n4CRs1Od4oHr3rhk4QmqP1DL36LlpuiAgKIRlvz49TzYwwj4UwIWTsloC/b4O0TFR\nWXp+ejB8DGBq2deznEw9gGNXOF1jYjl/b6Pyi5kzoxg2nNV7SD4bcKI3Fhw2/n0=\n=VFhy\n-----END PGP SIGNATURE-----\n"
      },
      "parents": [
        {
          "url": "https://api.github.com/repos/bitcoin/bitcoin/git/commits/6c7ebcc14b7908a67a8f8764b398e76c8fb4fe8b",
          "sha": "6c7ebcc14b7908a67a8f8764b398e76c8fb4fe8b",
          "html_url": "https://github.com/bitcoin/bitcoin/commit/6c7ebcc14b7908a67a8f8764b398e76c8fb4fe8b"
        }
      ],
      "message": "Update README.md\n\nchange naming and link it",
      "committer": {
        "name": "GitHub",
        "email": "noreply@github.com",
        "date": "2023-05-05T09:16:20Z"
      },
      "author": {
        "name": "Bilal",
        "email": "88594037+0xchabbi@users.noreply.github.com",
        "date": "2023-05-05T09:16:20Z"
      },
      "sha": "c7fa0488f684fd6d3409c28391ee1abebf0db435"
    },
    {
      "event": "commented",
      "id": 1535971207,
      "node_id": "IC_kwDOABII585bjQ-H",
      "url": "https://api.github.com/repos/bitcoin/bitcoin/issues/comments/1535971207",
      "actor": {
        "login": "DrahtBot",
        "id": 39886733,
        "node_id": "MDQ6VXNlcjM5ODg2NzMz",
        "avatar_url": "https://avatars.githubusercontent.com/u/39886733?v=4",
        "gravatar_id": "",
        "url": "https://api.github.com/users/DrahtBot",
        "html_url": "https://github.com/DrahtBot",
        "followers_url": "https://api.github.com/users/DrahtBot/followers",
        "following_url": "https://api.github.com/users/DrahtBot/following%7B/other_user%7D",
        "gists_url": "https://api.github.com/users/DrahtBot/gists%7B/gist_id%7D",
        "starred_url": "https://api.github.com/users/DrahtBot/starred%7B/owner%7D%7B/repo%7D",
        "subscriptions_url": "https://api.github.com/users/DrahtBot/subscriptions",
        "organizations_url": "https://api.github.com/users/DrahtBot/orgs",
        "repos_url": "https://api.github.com/users/DrahtBot/repos",
        "events_url": "https://api.github.com/users/DrahtBot/events%7B/privacy%7D",
        "received_events_url": "https://api.github.com/users/DrahtBot/received_events",
        "type": "User",
        "site_admin": false
      },
      "commit_id": null,
      "commit_url": null,
      "created_at": "2023-05-05T09:17:50Z",
      "updated_at": "2023-05-05T09:17:50Z",
      "author_association": "CONTRIBUTOR",
      "body": "<!--e57a25ab6845829454e8d69fc972939a-->\n\nThe following sections might be updated with supplementary metadata relevant to reviewers and maintainers.\n\n<!--021abf342d371248e50ceaed478a90ca-->\n### Reviews\nSee [the guideline](https://github.com/bitcoin/bitcoin/blob/master/CONTRIBUTING.md#code-review) for information on the review process.\nA summary of reviews will appear here.\n",
      "user": {
        "login": "DrahtBot",
        "id": 39886733,
        "node_id": "MDQ6VXNlcjM5ODg2NzMz",
        "avatar_url": "https://avatars.githubusercontent.com/u/39886733?v=4",
        "gravatar_id": "",
        "url": "https://api.github.com/users/DrahtBot",
        "html_url": "https://github.com/DrahtBot",
        "followers_url": "https://api.github.com/users/DrahtBot/followers",
        "following_url": "https://api.github.com/users/DrahtBot/following%7B/other_user%7D",
        "gists_url": "https://api.github.com/users/DrahtBot/gists%7B/gist_id%7D",
        "starred_url": "https://api.github.com/users/DrahtBot/starred%7B/owner%7D%7B/repo%7D",
        "subscriptions_url": "https://api.github.com/users/DrahtBot/subscriptions",
        "organizations_url": "https://api.github.com/users/DrahtBot/orgs",
        "repos_url": "https://api.github.com/users/DrahtBot/repos",
        "events_url": "https://api.github.com/users/DrahtBot/events%7B/privacy%7D",
        "received_events_url": "https://api.github.com/users/DrahtBot/received_events",
        "type": "User",
        "site_admin": false
      },
      "html_url": "https://github.com/bitcoin/bitcoin/pull/27579#issuecomment-1535971207",
      "issue_url": "https://api.github.com/repos/bitcoin/bitcoin/issues/27579"
    },
    {
      "event": "closed",
      "id": 9174979878,
      "node_id": "CE_lADOABII585lKn5kzwAAAAIi3xUm",
      "url": "https://api.github.com/repos/bitcoin/bitcoin/issues/events/9174979878",
      "actor": {
        "login": "fanquake",
        "id": 863730,
        "node_id": "MDQ6VXNlcjg2MzczMA==",
        "avatar_url": "https://avatars.githubusercontent.com/u/863730?v=4",
        "gravatar_id": "",
        "url": "https://api.github.com/users/fanquake",
        "html_url": "https://github.com/fanquake",
        "followers_url": "https://api.github.com/users/fanquake/followers",
        "following_url": "https://api.github.com/users/fanquake/following%7B/other_user%7D",
        "gists_url": "https://api.github.com/users/fanquake/gists%7B/gist_id%7D",
        "starred_url": "https://api.github.com/users/fanquake/starred%7B/owner%7D%7B/repo%7D",
        "subscriptions_url": "https://api.github.com/users/fanquake/subscriptions",
        "organizations_url": "https://api.github.com/users/fanquake/orgs",
        "repos_url": "https://api.github.com/users/fanquake/repos",
        "events_url": "https://api.github.com/users/fanquake/events%7B/privacy%7D",
        "received_events_url": "https://api.github.com/users/fanquake/received_events",
        "type": "User",
        "site_admin": false
      },
      "commit_id": null,
      "commit_url": null,
      "created_at": "2023-05-05T09:18:32Z"
    }
  ],
  "comments": []
}