{
  "type": "pull",
  "pull": {
    "url": "https://api.github.com/repos/bitcoin/bitcoin/pulls/27672",
    "id": 1352294882,
    "node_id": "PR_kwDOABII585QmmHi",
    "html_url": "https://github.com/bitcoin/bitcoin/pull/27672",
    "diff_url": "https://github.com/bitcoin/bitcoin/pull/27672.diff",
    "patch_url": "https://github.com/bitcoin/bitcoin/pull/27672.patch",
    "issue_url": "https://api.github.com/repos/bitcoin/bitcoin/issues/27672",
    "commits_url": "https://api.github.com/repos/bitcoin/bitcoin/pulls/27672/commits",
    "review_comments_url": "https://api.github.com/repos/bitcoin/bitcoin/pulls/27672/comments",
    "review_comment_url": "https://api.github.com/repos/bitcoin/bitcoin/pulls/comments%7B/number%7D",
    "comments_url": "https://api.github.com/repos/bitcoin/bitcoin/issues/27672/comments",
    "statuses_url": "https://api.github.com/repos/bitcoin/bitcoin/statuses/fa1b3abc834a90fb1cfbd5ac63deb28f3990c1fb",
    "number": 27672,
    "state": "closed",
    "locked": false,
    "maintainer_can_modify": false,
    "title": "fuzz: Print error message when FUZZ is missing",
    "user": {
      "login": "MarcoFalke",
      "id": 6399679,
      "node_id": "MDQ6VXNlcjYzOTk2Nzk=",
      "avatar_url": "https://avatars.githubusercontent.com/u/6399679?v=4",
      "gravatar_id": "",
      "url": "https://api.github.com/users/MarcoFalke",
      "html_url": "https://github.com/MarcoFalke",
      "followers_url": "https://api.github.com/users/MarcoFalke/followers",
      "following_url": "https://api.github.com/users/MarcoFalke/following%7B/other_user%7D",
      "gists_url": "https://api.github.com/users/MarcoFalke/gists%7B/gist_id%7D",
      "starred_url": "https://api.github.com/users/MarcoFalke/starred%7B/owner%7D%7B/repo%7D",
      "subscriptions_url": "https://api.github.com/users/MarcoFalke/subscriptions",
      "organizations_url": "https://api.github.com/users/MarcoFalke/orgs",
      "repos_url": "https://api.github.com/users/MarcoFalke/repos",
      "events_url": "https://api.github.com/users/MarcoFalke/events%7B/privacy%7D",
      "received_events_url": "https://api.github.com/users/MarcoFalke/received_events",
      "type": "User",
      "site_admin": false
    },
    "body": "Some trivial UX improvements.\r\n\r\n* Change the exit code for `PRINT_ALL_FUZZ_TARGETS_AND_ABORT` and `WRITE_ALL_FUZZ_TARGETS_AND_ABORT` to `EXIT_SUCCESS` instead of `Aborted (core dumped)`.\r\n* Print readable error message when `FUZZ` is missing instead of `Aborted (core dumped)`.\r\n* Clarify that a fuzz target needs to be compiled into the executable.",
    "labels": [
      {
        "id": 62963516,
        "node_id": "MDU6TGFiZWw2Mjk2MzUxNg==",
        "url": "https://api.github.com/repos/bitcoin/bitcoin/labels/Tests",
        "name": "Tests",
        "color": "d4c5f9",
        "default": false
      }
    ],
    "created_at": "2023-05-16T11:02:16Z",
    "updated_at": "2023-05-22T11:56:46Z",
    "closed_at": "2023-05-22T11:56:00Z",
    "mergeable_state": "unknown",
    "merged_at": "2023-05-22T11:56:00Z",
    "merge_commit_sha": "456701420b157f4c02592a2aea6fc32b1620c56a",
    "assignees": [],
    "requested_reviewers": [],
    "requested_teams": [],
    "head": {
      "label": "MarcoFalke:2305-fuzz-log-FUZZ-",
      "ref": "2305-fuzz-log-FUZZ-",
      "sha": "fa1b3abc834a90fb1cfbd5ac63deb28f3990c1fb",
      "user": {
        "login": "MarcoFalke",
        "id": 6399679,
        "node_id": "MDQ6VXNlcjYzOTk2Nzk=",
        "avatar_url": "https://avatars.githubusercontent.com/u/6399679?v=4",
        "gravatar_id": "",
        "url": "https://api.github.com/users/MarcoFalke",
        "html_url": "https://github.com/MarcoFalke",
        "followers_url": "https://api.github.com/users/MarcoFalke/followers",
        "following_url": "https://api.github.com/users/MarcoFalke/following%7B/other_user%7D",
        "gists_url": "https://api.github.com/users/MarcoFalke/gists%7B/gist_id%7D",
        "starred_url": "https://api.github.com/users/MarcoFalke/starred%7B/owner%7D%7B/repo%7D",
        "subscriptions_url": "https://api.github.com/users/MarcoFalke/subscriptions",
        "organizations_url": "https://api.github.com/users/MarcoFalke/orgs",
        "repos_url": "https://api.github.com/users/MarcoFalke/repos",
        "events_url": "https://api.github.com/users/MarcoFalke/events%7B/privacy%7D",
        "received_events_url": "https://api.github.com/users/MarcoFalke/received_events",
        "type": "User",
        "site_admin": false
      },
      "repo": {
        "id": 40046254,
        "node_id": "MDEwOlJlcG9zaXRvcnk0MDA0NjI1NA==",
        "name": "b-c",
        "full_name": "MarcoFalke/b-c",
        "owner": {
          "login": "MarcoFalke",
          "id": 6399679,
          "node_id": "MDQ6VXNlcjYzOTk2Nzk=",
          "avatar_url": "https://avatars.githubusercontent.com/u/6399679?v=4",
          "gravatar_id": "",
          "url": "https://api.github.com/users/MarcoFalke",
          "html_url": "https://github.com/MarcoFalke",
          "followers_url": "https://api.github.com/users/MarcoFalke/followers",
          "following_url": "https://api.github.com/users/MarcoFalke/following%7B/other_user%7D",
          "gists_url": "https://api.github.com/users/MarcoFalke/gists%7B/gist_id%7D",
          "starred_url": "https://api.github.com/users/MarcoFalke/starred%7B/owner%7D%7B/repo%7D",
          "subscriptions_url": "https://api.github.com/users/MarcoFalke/subscriptions",
          "organizations_url": "https://api.github.com/users/MarcoFalke/orgs",
          "repos_url": "https://api.github.com/users/MarcoFalke/repos",
          "events_url": "https://api.github.com/users/MarcoFalke/events%7B/privacy%7D",
          "received_events_url": "https://api.github.com/users/MarcoFalke/received_events",
          "type": "User",
          "site_admin": false
        },
        "private": false,
        "html_url": "https://github.com/MarcoFalke/b-c",
        "fork": true,
        "url": "https://api.github.com/repos/MarcoFalke/b-c",
        "archive_url": "https://api.github.com/repos/MarcoFalke/b-c/%7Barchive_format%7D%7B/ref%7D",
        "assignees_url": "https://api.github.com/repos/MarcoFalke/b-c/assignees%7B/user%7D",
        "blobs_url": "https://api.github.com/repos/MarcoFalke/b-c/git/blobs%7B/sha%7D",
        "branches_url": "https://api.github.com/repos/MarcoFalke/b-c/branches%7B/branch%7D",
        "collaborators_url": "https://api.github.com/repos/MarcoFalke/b-c/collaborators%7B/collaborator%7D",
        "comments_url": "https://api.github.com/repos/MarcoFalke/b-c/comments%7B/number%7D",
        "commits_url": "https://api.github.com/repos/MarcoFalke/b-c/commits%7B/sha%7D",
        "compare_url": "https://api.github.com/repos/MarcoFalke/b-c/compare/%7Bbase%7D...%7Bhead%7D",
        "contents_url": "https://api.github.com/repos/MarcoFalke/b-c/contents/%7B+path%7D",
        "contributors_url": "https://api.github.com/repos/MarcoFalke/b-c/contributors",
        "deployments_url": "https://api.github.com/repos/MarcoFalke/b-c/deployments",
        "downloads_url": "https://api.github.com/repos/MarcoFalke/b-c/downloads",
        "events_url": "https://api.github.com/repos/MarcoFalke/b-c/events",
        "forks_url": "https://api.github.com/repos/MarcoFalke/b-c/forks",
        "git_commits_url": "https://api.github.com/repos/MarcoFalke/b-c/git/commits%7B/sha%7D",
        "git_refs_url": "https://api.github.com/repos/MarcoFalke/b-c/git/refs%7B/sha%7D",
        "git_tags_url": "https://api.github.com/repos/MarcoFalke/b-c/git/tags%7B/sha%7D",
        "git_url": "git://github.com/MarcoFalke/b-c.git",
        "issue_comment_url": "https://api.github.com/repos/MarcoFalke/b-c/issues/comments%7B/number%7D",
        "issue_events_url": "https://api.github.com/repos/MarcoFalke/b-c/issues/events%7B/number%7D",
        "issues_url": "https://api.github.com/repos/MarcoFalke/b-c/issues%7B/number%7D",
        "keys_url": "https://api.github.com/repos/MarcoFalke/b-c/keys%7B/key_id%7D",
        "labels_url": "https://api.github.com/repos/MarcoFalke/b-c/labels%7B/name%7D",
        "languages_url": "https://api.github.com/repos/MarcoFalke/b-c/languages",
        "merges_url": "https://api.github.com/repos/MarcoFalke/b-c/merges",
        "milestones_url": "https://api.github.com/repos/MarcoFalke/b-c/milestones%7B/number%7D",
        "notifications_url": "https://api.github.com/repos/MarcoFalke/b-c/notifications%7B?since,all,participating}",
        "pulls_url": "https://api.github.com/repos/MarcoFalke/b-c/pulls%7B/number%7D",
        "releases_url": "https://api.github.com/repos/MarcoFalke/b-c/releases%7B/id%7D",
        "ssh_url": "git@github.com:MarcoFalke/b-c.git",
        "stargazers_url": "https://api.github.com/repos/MarcoFalke/b-c/stargazers",
        "statuses_url": "https://api.github.com/repos/MarcoFalke/b-c/statuses/%7Bsha%7D",
        "subscribers_url": "https://api.github.com/repos/MarcoFalke/b-c/subscribers",
        "subscription_url": "https://api.github.com/repos/MarcoFalke/b-c/subscription",
        "tags_url": "https://api.github.com/repos/MarcoFalke/b-c/tags",
        "teams_url": "https://api.github.com/repos/MarcoFalke/b-c/teams",
        "trees_url": "https://api.github.com/repos/MarcoFalke/b-c/git/trees%7B/sha%7D",
        "clone_url": "https://github.com/MarcoFalke/b-c.git",
        "hooks_url": "https://api.github.com/repos/MarcoFalke/b-c/hooks",
        "svn_url": "https://github.com/MarcoFalke/b-c",
        "homepage": "",
        "language": "C++",
        "forks_count": 12,
        "stargazers_count": 25,
        "watchers_count": 25,
        "size": 207848,
        "default_branch": "master",
        "open_issues_count": 25,
        "is_template": false,
        "topics": [],
        "has_issues": true,
        "has_projects": true,
        "has_wiki": false,
        "has_pages": false,
        "has_downloads": false,
        "archived": false,
        "disabled": false,
        "visibility": "public",
        "pushed_at": "2023-08-02T15:31:58Z",
        "created_at": "2015-08-01T12:42:47Z",
        "updated_at": "2023-05-28T20:12:34Z",
        "license": {
          "key": "mit",
          "name": "MIT License",
          "node_id": "MDc6TGljZW5zZTEz",
          "spdx_id": "MIT",
          "url": "https://api.github.com/licenses/mit",
          "html_url": null,
          "description": null,
          "implementation": null,
          "permissions": null,
          "conditions": null,
          "limitations": null,
          "body": null,
          "featured": null
        }
      }
    },
    "base": {
      "label": "bitcoin:master",
      "ref": "master",
      "sha": "17acb2782a66f033238340e4fb81009e7f79e97a",
      "user": {
        "login": "bitcoin",
        "id": 528860,
        "node_id": "MDEyOk9yZ2FuaXphdGlvbjUyODg2MA==",
        "avatar_url": "https://avatars.githubusercontent.com/u/528860?v=4",
        "gravatar_id": "",
        "url": "https://api.github.com/users/bitcoin",
        "html_url": "https://github.com/bitcoin",
        "followers_url": "https://api.github.com/users/bitcoin/followers",
        "following_url": "https://api.github.com/users/bitcoin/following%7B/other_user%7D",
        "gists_url": "https://api.github.com/users/bitcoin/gists%7B/gist_id%7D",
        "starred_url": "https://api.github.com/users/bitcoin/starred%7B/owner%7D%7B/repo%7D",
        "subscriptions_url": "https://api.github.com/users/bitcoin/subscriptions",
        "organizations_url": "https://api.github.com/users/bitcoin/orgs",
        "repos_url": "https://api.github.com/users/bitcoin/repos",
        "events_url": "https://api.github.com/users/bitcoin/events%7B/privacy%7D",
        "received_events_url": "https://api.github.com/users/bitcoin/received_events",
        "type": "Organization",
        "site_admin": false
      },
      "repo": {
        "id": 1181927,
        "node_id": "MDEwOlJlcG9zaXRvcnkxMTgxOTI3",
        "name": "bitcoin",
        "full_name": "bitcoin/bitcoin",
        "owner": {
          "login": "bitcoin",
          "id": 528860,
          "node_id": "MDEyOk9yZ2FuaXphdGlvbjUyODg2MA==",
          "avatar_url": "https://avatars.githubusercontent.com/u/528860?v=4",
          "gravatar_id": "",
          "url": "https://api.github.com/users/bitcoin",
          "html_url": "https://github.com/bitcoin",
          "followers_url": "https://api.github.com/users/bitcoin/followers",
          "following_url": "https://api.github.com/users/bitcoin/following%7B/other_user%7D",
          "gists_url": "https://api.github.com/users/bitcoin/gists%7B/gist_id%7D",
          "starred_url": "https://api.github.com/users/bitcoin/starred%7B/owner%7D%7B/repo%7D",
          "subscriptions_url": "https://api.github.com/users/bitcoin/subscriptions",
          "organizations_url": "https://api.github.com/users/bitcoin/orgs",
          "repos_url": "https://api.github.com/users/bitcoin/repos",
          "events_url": "https://api.github.com/users/bitcoin/events%7B/privacy%7D",
          "received_events_url": "https://api.github.com/users/bitcoin/received_events",
          "type": "Organization",
          "site_admin": false
        },
        "private": false,
        "html_url": "https://github.com/bitcoin/bitcoin",
        "description": "Bitcoin Core integration/staging tree",
        "fork": false,
        "url": "https://api.github.com/repos/bitcoin/bitcoin",
        "archive_url": "https://api.github.com/repos/bitcoin/bitcoin/%7Barchive_format%7D%7B/ref%7D",
        "assignees_url": "https://api.github.com/repos/bitcoin/bitcoin/assignees%7B/user%7D",
        "blobs_url": "https://api.github.com/repos/bitcoin/bitcoin/git/blobs%7B/sha%7D",
        "branches_url": "https://api.github.com/repos/bitcoin/bitcoin/branches%7B/branch%7D",
        "collaborators_url": "https://api.github.com/repos/bitcoin/bitcoin/collaborators%7B/collaborator%7D",
        "comments_url": "https://api.github.com/repos/bitcoin/bitcoin/comments%7B/number%7D",
        "commits_url": "https://api.github.com/repos/bitcoin/bitcoin/commits%7B/sha%7D",
        "compare_url": "https://api.github.com/repos/bitcoin/bitcoin/compare/%7Bbase%7D...%7Bhead%7D",
        "contents_url": "https://api.github.com/repos/bitcoin/bitcoin/contents/%7B+path%7D",
        "contributors_url": "https://api.github.com/repos/bitcoin/bitcoin/contributors",
        "deployments_url": "https://api.github.com/repos/bitcoin/bitcoin/deployments",
        "downloads_url": "https://api.github.com/repos/bitcoin/bitcoin/downloads",
        "events_url": "https://api.github.com/repos/bitcoin/bitcoin/events",
        "forks_url": "https://api.github.com/repos/bitcoin/bitcoin/forks",
        "git_commits_url": "https://api.github.com/repos/bitcoin/bitcoin/git/commits%7B/sha%7D",
        "git_refs_url": "https://api.github.com/repos/bitcoin/bitcoin/git/refs%7B/sha%7D",
        "git_tags_url": "https://api.github.com/repos/bitcoin/bitcoin/git/tags%7B/sha%7D",
        "git_url": "git://github.com/bitcoin/bitcoin.git",
        "issue_comment_url": "https://api.github.com/repos/bitcoin/bitcoin/issues/comments%7B/number%7D",
        "issue_events_url": "https://api.github.com/repos/bitcoin/bitcoin/issues/events%7B/number%7D",
        "issues_url": "https://api.github.com/repos/bitcoin/bitcoin/issues%7B/number%7D",
        "keys_url": "https://api.github.com/repos/bitcoin/bitcoin/keys%7B/key_id%7D",
        "labels_url": "https://api.github.com/repos/bitcoin/bitcoin/labels%7B/name%7D",
        "languages_url": "https://api.github.com/repos/bitcoin/bitcoin/languages",
        "merges_url": "https://api.github.com/repos/bitcoin/bitcoin/merges",
        "milestones_url": "https://api.github.com/repos/bitcoin/bitcoin/milestones%7B/number%7D",
        "notifications_url": "https://api.github.com/repos/bitcoin/bitcoin/notifications%7B?since,all,participating}",
        "pulls_url": "https://api.github.com/repos/bitcoin/bitcoin/pulls%7B/number%7D",
        "releases_url": "https://api.github.com/repos/bitcoin/bitcoin/releases%7B/id%7D",
        "ssh_url": "git@github.com:bitcoin/bitcoin.git",
        "stargazers_url": "https://api.github.com/repos/bitcoin/bitcoin/stargazers",
        "statuses_url": "https://api.github.com/repos/bitcoin/bitcoin/statuses/%7Bsha%7D",
        "subscribers_url": "https://api.github.com/repos/bitcoin/bitcoin/subscribers",
        "subscription_url": "https://api.github.com/repos/bitcoin/bitcoin/subscription",
        "tags_url": "https://api.github.com/repos/bitcoin/bitcoin/tags",
        "teams_url": "https://api.github.com/repos/bitcoin/bitcoin/teams",
        "trees_url": "https://api.github.com/repos/bitcoin/bitcoin/git/trees%7B/sha%7D",
        "clone_url": "https://github.com/bitcoin/bitcoin.git",
        "hooks_url": "https://api.github.com/repos/bitcoin/bitcoin/hooks",
        "svn_url": "https://github.com/bitcoin/bitcoin",
        "homepage": "https://bitcoincore.org/en/download",
        "language": "C++",
        "forks_count": 35476,
        "stargazers_count": 70608,
        "watchers_count": 70608,
        "size": 236222,
        "default_branch": "master",
        "open_issues_count": 673,
        "is_template": false,
        "topics": [
          "bitcoin",
          "c-plus-plus",
          "cryptocurrency",
          "cryptography",
          "p2p"
        ],
        "has_issues": true,
        "has_projects": true,
        "has_wiki": false,
        "has_pages": false,
        "has_downloads": false,
        "archived": false,
        "disabled": false,
        "visibility": "public",
        "pushed_at": "2023-08-03T00:03:27Z",
        "created_at": "2010-12-19T15:16:43Z",
        "updated_at": "2023-08-02T18:21:18Z",
        "license": {
          "key": "mit",
          "name": "MIT License",
          "node_id": "MDc6TGljZW5zZTEz",
          "spdx_id": "MIT",
          "url": "https://api.github.com/licenses/mit",
          "html_url": null,
          "description": null,
          "implementation": null,
          "permissions": null,
          "conditions": null,
          "limitations": null,
          "body": null,
          "featured": null
        }
      }
    },
    "_links": {
      "self": {
        "href": "https://api.github.com/repos/bitcoin/bitcoin/pulls/27672"
      }
    },
    "author_association": "MEMBER",
    "draft": false,
    "additions": 27,
    "deletions": 7,
    "changed_files": 3,
    "commits": 2,
    "review_comments": 2,
    "comments": 4
  },
  "events": [
    {
      "event": "commented",
      "id": 1549448325,
      "node_id": "IC_kwDOABII585cWrSF",
      "url": "https://api.github.com/repos/bitcoin/bitcoin/issues/comments/1549448325",
      "actor": {
        "login": "DrahtBot",
        "id": 39886733,
        "node_id": "MDQ6VXNlcjM5ODg2NzMz",
        "avatar_url": "https://avatars.githubusercontent.com/u/39886733?v=4",
        "gravatar_id": "",
        "url": "https://api.github.com/users/DrahtBot",
        "html_url": "https://github.com/DrahtBot",
        "followers_url": "https://api.github.com/users/DrahtBot/followers",
        "following_url": "https://api.github.com/users/DrahtBot/following%7B/other_user%7D",
        "gists_url": "https://api.github.com/users/DrahtBot/gists%7B/gist_id%7D",
        "starred_url": "https://api.github.com/users/DrahtBot/starred%7B/owner%7D%7B/repo%7D",
        "subscriptions_url": "https://api.github.com/users/DrahtBot/subscriptions",
        "organizations_url": "https://api.github.com/users/DrahtBot/orgs",
        "repos_url": "https://api.github.com/users/DrahtBot/repos",
        "events_url": "https://api.github.com/users/DrahtBot/events%7B/privacy%7D",
        "received_events_url": "https://api.github.com/users/DrahtBot/received_events",
        "type": "User",
        "site_admin": false
      },
      "commit_id": null,
      "commit_url": null,
      "created_at": "2023-05-16T11:02:18Z",
      "updated_at": "2023-05-22T10:38:07Z",
      "author_association": "CONTRIBUTOR",
      "body": "<!--e57a25ab6845829454e8d69fc972939a-->\n\nThe following sections might be updated with supplementary metadata relevant to reviewers and maintainers.\n\n<!--021abf342d371248e50ceaed478a90ca-->\n### Reviews\nSee [the guideline](https://github.com/bitcoin/bitcoin/blob/master/CONTRIBUTING.md#code-review) for information on the review process.\n| Type | Reviewers |\n| ---- | --------- |\n| ACK | [dergoegge](https://github.com/bitcoin/bitcoin/pull/27672#issuecomment-1556981165) |\n\nIf your review is incorrectly listed, please react with 👎 to this comment and the bot will ignore it on the next update.\n",
      "user": {
        "login": "DrahtBot",
        "id": 39886733,
        "node_id": "MDQ6VXNlcjM5ODg2NzMz",
        "avatar_url": "https://avatars.githubusercontent.com/u/39886733?v=4",
        "gravatar_id": "",
        "url": "https://api.github.com/users/DrahtBot",
        "html_url": "https://github.com/DrahtBot",
        "followers_url": "https://api.github.com/users/DrahtBot/followers",
        "following_url": "https://api.github.com/users/DrahtBot/following%7B/other_user%7D",
        "gists_url": "https://api.github.com/users/DrahtBot/gists%7B/gist_id%7D",
        "starred_url": "https://api.github.com/users/DrahtBot/starred%7B/owner%7D%7B/repo%7D",
        "subscriptions_url": "https://api.github.com/users/DrahtBot/subscriptions",
        "organizations_url": "https://api.github.com/users/DrahtBot/orgs",
        "repos_url": "https://api.github.com/users/DrahtBot/repos",
        "events_url": "https://api.github.com/users/DrahtBot/events%7B/privacy%7D",
        "received_events_url": "https://api.github.com/users/DrahtBot/received_events",
        "type": "User",
        "site_admin": false
      },
      "html_url": "https://github.com/bitcoin/bitcoin/pull/27672#issuecomment-1549448325",
      "issue_url": "https://api.github.com/repos/bitcoin/bitcoin/issues/27672"
    },
    {
      "event": "labeled",
      "id": 9256673008,
      "node_id": "LE_lADOABII585mB7_NzwAAAAInvZ7w",
      "url": "https://api.github.com/repos/bitcoin/bitcoin/issues/events/9256673008",
      "actor": {
        "login": "DrahtBot",
        "id": 39886733,
        "node_id": "MDQ6VXNlcjM5ODg2NzMz",
        "avatar_url": "https://avatars.githubusercontent.com/u/39886733?v=4",
        "gravatar_id": "",
        "url": "https://api.github.com/users/DrahtBot",
        "html_url": "https://github.com/DrahtBot",
        "followers_url": "https://api.github.com/users/DrahtBot/followers",
        "following_url": "https://api.github.com/users/DrahtBot/following%7B/other_user%7D",
        "gists_url": "https://api.github.com/users/DrahtBot/gists%7B/gist_id%7D",
        "starred_url": "https://api.github.com/users/DrahtBot/starred%7B/owner%7D%7B/repo%7D",
        "subscriptions_url": "https://api.github.com/users/DrahtBot/subscriptions",
        "organizations_url": "https://api.github.com/users/DrahtBot/orgs",
        "repos_url": "https://api.github.com/users/DrahtBot/repos",
        "events_url": "https://api.github.com/users/DrahtBot/events%7B/privacy%7D",
        "received_events_url": "https://api.github.com/users/DrahtBot/received_events",
        "type": "User",
        "site_admin": false
      },
      "commit_id": null,
      "commit_url": null,
      "created_at": "2023-05-16T11:02:20Z",
      "label": {
        "name": "Tests",
        "color": "d4c5f9"
      }
    },
    {
      "event": "commented",
      "id": 1549450433,
      "node_id": "IC_kwDOABII585cWrzB",
      "url": "https://api.github.com/repos/bitcoin/bitcoin/issues/comments/1549450433",
      "actor": {
        "login": "MarcoFalke",
        "id": 6399679,
        "node_id": "MDQ6VXNlcjYzOTk2Nzk=",
        "avatar_url": "https://avatars.githubusercontent.com/u/6399679?v=4",
        "gravatar_id": "",
        "url": "https://api.github.com/users/MarcoFalke",
        "html_url": "https://github.com/MarcoFalke",
        "followers_url": "https://api.github.com/users/MarcoFalke/followers",
        "following_url": "https://api.github.com/users/MarcoFalke/following%7B/other_user%7D",
        "gists_url": "https://api.github.com/users/MarcoFalke/gists%7B/gist_id%7D",
        "starred_url": "https://api.github.com/users/MarcoFalke/starred%7B/owner%7D%7B/repo%7D",
        "subscriptions_url": "https://api.github.com/users/MarcoFalke/subscriptions",
        "organizations_url": "https://api.github.com/users/MarcoFalke/orgs",
        "repos_url": "https://api.github.com/users/MarcoFalke/repos",
        "events_url": "https://api.github.com/users/MarcoFalke/events%7B/privacy%7D",
        "received_events_url": "https://api.github.com/users/MarcoFalke/received_events",
        "type": "User",
        "site_admin": false
      },
      "commit_id": null,
      "commit_url": null,
      "created_at": "2023-05-16T11:03:46Z",
      "updated_at": "2023-05-16T11:03:46Z",
      "author_association": "MEMBER",
      "body": "(Also contains some no-op code to allow for easier hacking)",
      "user": {
        "login": "MarcoFalke",
        "id": 6399679,
        "node_id": "MDQ6VXNlcjYzOTk2Nzk=",
        "avatar_url": "https://avatars.githubusercontent.com/u/6399679?v=4",
        "gravatar_id": "",
        "url": "https://api.github.com/users/MarcoFalke",
        "html_url": "https://github.com/MarcoFalke",
        "followers_url": "https://api.github.com/users/MarcoFalke/followers",
        "following_url": "https://api.github.com/users/MarcoFalke/following%7B/other_user%7D",
        "gists_url": "https://api.github.com/users/MarcoFalke/gists%7B/gist_id%7D",
        "starred_url": "https://api.github.com/users/MarcoFalke/starred%7B/owner%7D%7B/repo%7D",
        "subscriptions_url": "https://api.github.com/users/MarcoFalke/subscriptions",
        "organizations_url": "https://api.github.com/users/MarcoFalke/orgs",
        "repos_url": "https://api.github.com/users/MarcoFalke/repos",
        "events_url": "https://api.github.com/users/MarcoFalke/events%7B/privacy%7D",
        "received_events_url": "https://api.github.com/users/MarcoFalke/received_events",
        "type": "User",
        "site_admin": false
      },
      "html_url": "https://github.com/bitcoin/bitcoin/pull/27672#issuecomment-1549450433",
      "issue_url": "https://api.github.com/repos/bitcoin/bitcoin/issues/27672"
    },
    {
      "event": "review_requested",
      "id": 9257405495,
      "node_id": "RRE_lADOABII585mB7_NzwAAAAInyMw3",
      "url": "https://api.github.com/repos/bitcoin/bitcoin/issues/events/9257405495",
      "actor": {
        "login": "fanquake",
        "id": 863730,
        "node_id": "MDQ6VXNlcjg2MzczMA==",
        "avatar_url": "https://avatars.githubusercontent.com/u/863730?v=4",
        "gravatar_id": "",
        "url": "https://api.github.com/users/fanquake",
        "html_url": "https://github.com/fanquake",
        "followers_url": "https://api.github.com/users/fanquake/followers",
        "following_url": "https://api.github.com/users/fanquake/following%7B/other_user%7D",
        "gists_url": "https://api.github.com/users/fanquake/gists%7B/gist_id%7D",
        "starred_url": "https://api.github.com/users/fanquake/starred%7B/owner%7D%7B/repo%7D",
        "subscriptions_url": "https://api.github.com/users/fanquake/subscriptions",
        "organizations_url": "https://api.github.com/users/fanquake/orgs",
        "repos_url": "https://api.github.com/users/fanquake/repos",
        "events_url": "https://api.github.com/users/fanquake/events%7B/privacy%7D",
        "received_events_url": "https://api.github.com/users/fanquake/received_events",
        "type": "User",
        "site_admin": false
      },
      "commit_id": null,
      "commit_url": null,
      "created_at": "2023-05-16T12:16:44Z",
      "requested_reviewer": {
        "login": "dergoegge",
        "id": 8077169,
        "node_id": "MDQ6VXNlcjgwNzcxNjk=",
        "avatar_url": "https://avatars.githubusercontent.com/u/8077169?v=4",
        "gravatar_id": "",
        "url": "https://api.github.com/users/dergoegge",
        "html_url": "https://github.com/dergoegge",
        "followers_url": "https://api.github.com/users/dergoegge/followers",
        "following_url": "https://api.github.com/users/dergoegge/following%7B/other_user%7D",
        "gists_url": "https://api.github.com/users/dergoegge/gists%7B/gist_id%7D",
        "starred_url": "https://api.github.com/users/dergoegge/starred%7B/owner%7D%7B/repo%7D",
        "subscriptions_url": "https://api.github.com/users/dergoegge/subscriptions",
        "organizations_url": "https://api.github.com/users/dergoegge/orgs",
        "repos_url": "https://api.github.com/users/dergoegge/repos",
        "events_url": "https://api.github.com/users/dergoegge/events%7B/privacy%7D",
        "received_events_url": "https://api.github.com/users/dergoegge/received_events",
        "type": "User",
        "site_admin": false
      },
      "review_requester": {
        "login": "fanquake",
        "id": 863730,
        "node_id": "MDQ6VXNlcjg2MzczMA==",
        "avatar_url": "https://avatars.githubusercontent.com/u/863730?v=4",
        "gravatar_id": "",
        "url": "https://api.github.com/users/fanquake",
        "html_url": "https://github.com/fanquake",
        "followers_url": "https://api.github.com/users/fanquake/followers",
        "following_url": "https://api.github.com/users/fanquake/following%7B/other_user%7D",
        "gists_url": "https://api.github.com/users/fanquake/gists%7B/gist_id%7D",
        "starred_url": "https://api.github.com/users/fanquake/starred%7B/owner%7D%7B/repo%7D",
        "subscriptions_url": "https://api.github.com/users/fanquake/subscriptions",
        "organizations_url": "https://api.github.com/users/fanquake/orgs",
        "repos_url": "https://api.github.com/users/fanquake/repos",
        "events_url": "https://api.github.com/users/fanquake/events%7B/privacy%7D",
        "received_events_url": "https://api.github.com/users/fanquake/received_events",
        "type": "User",
        "site_admin": false
      }
    },
    {
      "event": "head_ref_force_pushed",
      "id": 9268657880,
      "node_id": "HRFPE_lADOABII585mB7_NzwAAAAIodH7Y",
      "url": "https://api.github.com/repos/bitcoin/bitcoin/issues/events/9268657880",
      "actor": {
        "login": "MarcoFalke",
        "id": 6399679,
        "node_id": "MDQ6VXNlcjYzOTk2Nzk=",
        "avatar_url": "https://avatars.githubusercontent.com/u/6399679?v=4",
        "gravatar_id": "",
        "url": "https://api.github.com/users/MarcoFalke",
        "html_url": "https://github.com/MarcoFalke",
        "followers_url": "https://api.github.com/users/MarcoFalke/followers",
        "following_url": "https://api.github.com/users/MarcoFalke/following%7B/other_user%7D",
        "gists_url": "https://api.github.com/users/MarcoFalke/gists%7B/gist_id%7D",
        "starred_url": "https://api.github.com/users/MarcoFalke/starred%7B/owner%7D%7B/repo%7D",
        "subscriptions_url": "https://api.github.com/users/MarcoFalke/subscriptions",
        "organizations_url": "https://api.github.com/users/MarcoFalke/orgs",
        "repos_url": "https://api.github.com/users/MarcoFalke/repos",
        "events_url": "https://api.github.com/users/MarcoFalke/events%7B/privacy%7D",
        "received_events_url": "https://api.github.com/users/MarcoFalke/received_events",
        "type": "User",
        "site_admin": false
      },
      "commit_id": null,
      "commit_url": null,
      "created_at": "2023-05-17T12:19:55Z"
    },
    {
      "event": "head_ref_force_pushed",
      "id": 9268717115,
      "node_id": "HRFPE_lADOABII585mB7_NzwAAAAIodWY7",
      "url": "https://api.github.com/repos/bitcoin/bitcoin/issues/events/9268717115",
      "actor": {
        "login": "MarcoFalke",
        "id": 6399679,
        "node_id": "MDQ6VXNlcjYzOTk2Nzk=",
        "avatar_url": "https://avatars.githubusercontent.com/u/6399679?v=4",
        "gravatar_id": "",
        "url": "https://api.github.com/users/MarcoFalke",
        "html_url": "https://github.com/MarcoFalke",
        "followers_url": "https://api.github.com/users/MarcoFalke/followers",
        "following_url": "https://api.github.com/users/MarcoFalke/following%7B/other_user%7D",
        "gists_url": "https://api.github.com/users/MarcoFalke/gists%7B/gist_id%7D",
        "starred_url": "https://api.github.com/users/MarcoFalke/starred%7B/owner%7D%7B/repo%7D",
        "subscriptions_url": "https://api.github.com/users/MarcoFalke/subscriptions",
        "organizations_url": "https://api.github.com/users/MarcoFalke/orgs",
        "repos_url": "https://api.github.com/users/MarcoFalke/repos",
        "events_url": "https://api.github.com/users/MarcoFalke/events%7B/privacy%7D",
        "received_events_url": "https://api.github.com/users/MarcoFalke/received_events",
        "type": "User",
        "site_admin": false
      },
      "commit_id": null,
      "commit_url": null,
      "created_at": "2023-05-17T12:25:20Z"
    },
    {
      "event": "labeled",
      "id": 9268717871,
      "node_id": "LE_lADOABII585mB7_NzwAAAAIodWkv",
      "url": "https://api.github.com/repos/bitcoin/bitcoin/issues/events/9268717871",
      "actor": {
        "login": "DrahtBot",
        "id": 39886733,
        "node_id": "MDQ6VXNlcjM5ODg2NzMz",
        "avatar_url": "https://avatars.githubusercontent.com/u/39886733?v=4",
        "gravatar_id": "",
        "url": "https://api.github.com/users/DrahtBot",
        "html_url": "https://github.com/DrahtBot",
        "followers_url": "https://api.github.com/users/DrahtBot/followers",
        "following_url": "https://api.github.com/users/DrahtBot/following%7B/other_user%7D",
        "gists_url": "https://api.github.com/users/DrahtBot/gists%7B/gist_id%7D",
        "starred_url": "https://api.github.com/users/DrahtBot/starred%7B/owner%7D%7B/repo%7D",
        "subscriptions_url": "https://api.github.com/users/DrahtBot/subscriptions",
        "organizations_url": "https://api.github.com/users/DrahtBot/orgs",
        "repos_url": "https://api.github.com/users/DrahtBot/repos",
        "events_url": "https://api.github.com/users/DrahtBot/events%7B/privacy%7D",
        "received_events_url": "https://api.github.com/users/DrahtBot/received_events",
        "type": "User",
        "site_admin": false
      },
      "commit_id": null,
      "commit_url": null,
      "created_at": "2023-05-17T12:25:25Z",
      "label": {
        "name": "CI failed",
        "color": "cccccc"
      }
    },
    {
      "event": "unlabeled",
      "id": 9270164416,
      "node_id": "UNLE_lADOABII585mB7_NzwAAAAIoi3vA",
      "url": "https://api.github.com/repos/bitcoin/bitcoin/issues/events/9270164416",
      "actor": {
        "login": "DrahtBot",
        "id": 39886733,
        "node_id": "MDQ6VXNlcjM5ODg2NzMz",
        "avatar_url": "https://avatars.githubusercontent.com/u/39886733?v=4",
        "gravatar_id": "",
        "url": "https://api.github.com/users/DrahtBot",
        "html_url": "https://github.com/DrahtBot",
        "followers_url": "https://api.github.com/users/DrahtBot/followers",
        "following_url": "https://api.github.com/users/DrahtBot/following%7B/other_user%7D",
        "gists_url": "https://api.github.com/users/DrahtBot/gists%7B/gist_id%7D",
        "starred_url": "https://api.github.com/users/DrahtBot/starred%7B/owner%7D%7B/repo%7D",
        "subscriptions_url": "https://api.github.com/users/DrahtBot/subscriptions",
        "organizations_url": "https://api.github.com/users/DrahtBot/orgs",
        "repos_url": "https://api.github.com/users/DrahtBot/repos",
        "events_url": "https://api.github.com/users/DrahtBot/events%7B/privacy%7D",
        "received_events_url": "https://api.github.com/users/DrahtBot/received_events",
        "type": "User",
        "site_admin": false
      },
      "commit_id": null,
      "commit_url": null,
      "created_at": "2023-05-17T14:24:46Z",
      "label": {
        "name": "CI failed",
        "color": "cccccc"
      }
    },
    {
      "event": "reviewed",
      "id": 1432271319,
      "node_id": "PRR_kwDOABII585VXrnX",
      "url": null,
      "actor": null,
      "commit_id": "fac80580a377087e7f6f06583b6101829ce48ad8",
      "commit_url": null,
      "created_at": null,
      "author_association": "MEMBER",
      "body": "Concept ACK",
      "user": {
        "login": "dergoegge",
        "id": 8077169,
        "node_id": "MDQ6VXNlcjgwNzcxNjk=",
        "avatar_url": "https://avatars.githubusercontent.com/u/8077169?v=4",
        "gravatar_id": "",
        "url": "https://api.github.com/users/dergoegge",
        "html_url": "https://github.com/dergoegge",
        "followers_url": "https://api.github.com/users/dergoegge/followers",
        "following_url": "https://api.github.com/users/dergoegge/following%7B/other_user%7D",
        "gists_url": "https://api.github.com/users/dergoegge/gists%7B/gist_id%7D",
        "starred_url": "https://api.github.com/users/dergoegge/starred%7B/owner%7D%7B/repo%7D",
        "subscriptions_url": "https://api.github.com/users/dergoegge/subscriptions",
        "organizations_url": "https://api.github.com/users/dergoegge/orgs",
        "repos_url": "https://api.github.com/users/dergoegge/repos",
        "events_url": "https://api.github.com/users/dergoegge/events%7B/privacy%7D",
        "received_events_url": "https://api.github.com/users/dergoegge/received_events",
        "type": "User",
        "site_admin": false
      },
      "html_url": "https://github.com/bitcoin/bitcoin/pull/27672#pullrequestreview-1432271319",
      "submitted_at": "2023-05-18T08:24:26Z",
      "state": "COMMENTED",
      "pull_request_url": "https://api.github.com/repos/bitcoin/bitcoin/pulls/27672"
    },
    {
      "event": "head_ref_force_pushed",
      "id": 9278165641,
      "node_id": "HRFPE_lADOABII585mB7_NzwAAAAIpBZKJ",
      "url": "https://api.github.com/repos/bitcoin/bitcoin/issues/events/9278165641",
      "actor": {
        "login": "MarcoFalke",
        "id": 6399679,
        "node_id": "MDQ6VXNlcjYzOTk2Nzk=",
        "avatar_url": "https://avatars.githubusercontent.com/u/6399679?v=4",
        "gravatar_id": "",
        "url": "https://api.github.com/users/MarcoFalke",
        "html_url": "https://github.com/MarcoFalke",
        "followers_url": "https://api.github.com/users/MarcoFalke/followers",
        "following_url": "https://api.github.com/users/MarcoFalke/following%7B/other_user%7D",
        "gists_url": "https://api.github.com/users/MarcoFalke/gists%7B/gist_id%7D",
        "starred_url": "https://api.github.com/users/MarcoFalke/starred%7B/owner%7D%7B/repo%7D",
        "subscriptions_url": "https://api.github.com/users/MarcoFalke/subscriptions",
        "organizations_url": "https://api.github.com/users/MarcoFalke/orgs",
        "repos_url": "https://api.github.com/users/MarcoFalke/repos",
        "events_url": "https://api.github.com/users/MarcoFalke/events%7B/privacy%7D",
        "received_events_url": "https://api.github.com/users/MarcoFalke/received_events",
        "type": "User",
        "site_admin": false
      },
      "commit_id": null,
      "commit_url": null,
      "created_at": "2023-05-18T10:19:14Z"
    },
    {
      "event": "committed",
      "id": null,
      "node_id": "C_kwDOABII59oAKGZhMjI5NjZmMzMwN2UyMmI3N2VhMzg2ZTFhYmI2MGJmOGM2MDYxNzA",
      "url": "https://api.github.com/repos/bitcoin/bitcoin/git/commits/fa22966f3307e22b77ea386e1abb60bf8c606170",
      "actor": null,
      "commit_id": null,
      "commit_url": null,
      "created_at": null,
      "html_url": "https://github.com/bitcoin/bitcoin/commit/fa22966f3307e22b77ea386e1abb60bf8c606170",
      "tree": {
        "sha": "5e03749eb6de32fef5dc820b16dd0c4bde5e25df",
        "url": "https://api.github.com/repos/bitcoin/bitcoin/git/trees/5e03749eb6de32fef5dc820b16dd0c4bde5e25df"
      },
      "verification": {
        "verified": false,
        "reason": "no_user",
        "payload": "tree 5e03749eb6de32fef5dc820b16dd0c4bde5e25df\nparent 17acb2782a66f033238340e4fb81009e7f79e97a\nauthor MarcoFalke <*~=`'#}+{/-|&$^_@721217.xyz> 1684236325 +0200\ncommitter MarcoFalke <*~=`'#}+{/-|&$^_@721217.xyz> 1684742549 +0200\n\nfuzz: Print error message when FUZZ is missing\n\nAlso, add missing includes.\n",
        "signature": "-----BEGIN SSH SIGNATURE-----\nU1NIU0lHAAAAAQAAADMAAAALc3NoLWVkMjU1MTkAAAAgqxY/aMPiuXoCFn6iAEyAhvUqFX\njanTudd31Jtt35ct0AAAADZ2l0AAAAAAAAAAZzaGE1MTIAAABTAAAAC3NzaC1lZDI1NTE5\nAAAAQEkvQ/Zd4B7geHxJJo5D4WUdzKE88xuLDZ0k4QVpvLUFwdOPfJxshRQgJcVMQSI1Fr\nlehGzfVQTg5mJcexvbTQ0=\n-----END SSH SIGNATURE-----"
      },
      "parents": [
        {
          "url": "https://api.github.com/repos/bitcoin/bitcoin/git/commits/17acb2782a66f033238340e4fb81009e7f79e97a",
          "sha": "17acb2782a66f033238340e4fb81009e7f79e97a",
          "html_url": "https://github.com/bitcoin/bitcoin/commit/17acb2782a66f033238340e4fb81009e7f79e97a"
        }
      ],
      "message": "fuzz: Print error message when FUZZ is missing\n\nAlso, add missing includes.",
      "committer": {
        "name": "MarcoFalke",
        "email": "*~=`'#}+{/-|&$^_@721217.xyz",
        "date": "2023-05-22T08:02:29Z"
      },
      "author": {
        "name": "MarcoFalke",
        "email": "*~=`'#}+{/-|&$^_@721217.xyz",
        "date": "2023-05-16T11:25:25Z"
      },
      "sha": "fa22966f3307e22b77ea386e1abb60bf8c606170"
    },
    {
      "event": "committed",
      "id": null,
      "node_id": "C_kwDOABII59oAKGZhMWIzYWJjODM0YTkwZmIxY2ZiZDVhYzYzZGViMjhmMzk5MGMxZmI",
      "url": "https://api.github.com/repos/bitcoin/bitcoin/git/commits/fa1b3abc834a90fb1cfbd5ac63deb28f3990c1fb",
      "actor": null,
      "commit_id": null,
      "commit_url": null,
      "created_at": null,
      "html_url": "https://github.com/bitcoin/bitcoin/commit/fa1b3abc834a90fb1cfbd5ac63deb28f3990c1fb",
      "tree": {
        "sha": "198bb1609eb80b47f422fb03d55b48fcacc6b318",
        "url": "https://api.github.com/repos/bitcoin/bitcoin/git/trees/198bb1609eb80b47f422fb03d55b48fcacc6b318"
      },
      "verification": {
        "verified": false,
        "reason": "no_user",
        "payload": "tree 198bb1609eb80b47f422fb03d55b48fcacc6b318\nparent fa22966f3307e22b77ea386e1abb60bf8c606170\nauthor MarcoFalke <*~=`'#}+{/-|&$^_@721217.xyz> 1684742611 +0200\ncommitter MarcoFalke <*~=`'#}+{/-|&$^_@721217.xyz> 1684742560 +0200\n\nci: Log qa-assets repo last commit\n\nThis documents the state in the CI output and may help debugging in case\nof failure.\n",
        "signature": "-----BEGIN SSH SIGNATURE-----\nU1NIU0lHAAAAAQAAADMAAAALc3NoLWVkMjU1MTkAAAAgqxY/aMPiuXoCFn6iAEyAhvUqFX\njanTudd31Jtt35ct0AAAADZ2l0AAAAAAAAAAZzaGE1MTIAAABTAAAAC3NzaC1lZDI1NTE5\nAAAAQCslcVi/FfShqv/1It1P5y0EuoS668+Vfr4kp6G5wI3dFK8ouM5K1KZlVdKgKR+Eak\nfdYSUk00KqmIv6bsaX8AA=\n-----END SSH SIGNATURE-----"
      },
      "parents": [
        {
          "url": "https://api.github.com/repos/bitcoin/bitcoin/git/commits/fa22966f3307e22b77ea386e1abb60bf8c606170",
          "sha": "fa22966f3307e22b77ea386e1abb60bf8c606170",
          "html_url": "https://github.com/bitcoin/bitcoin/commit/fa22966f3307e22b77ea386e1abb60bf8c606170"
        }
      ],
      "message": "ci: Log qa-assets repo last commit\n\nThis documents the state in the CI output and may help debugging in case\nof failure.",
      "committer": {
        "name": "MarcoFalke",
        "email": "*~=`'#}+{/-|&$^_@721217.xyz",
        "date": "2023-05-22T08:02:40Z"
      },
      "author": {
        "name": "MarcoFalke",
        "email": "*~=`'#}+{/-|&$^_@721217.xyz",
        "date": "2023-05-22T08:03:31Z"
      },
      "sha": "fa1b3abc834a90fb1cfbd5ac63deb28f3990c1fb"
    },
    {
      "event": "head_ref_force_pushed",
      "id": 9299366512,
      "node_id": "HRFPE_lADOABII585mB7_NzwAAAAIqSRJw",
      "url": "https://api.github.com/repos/bitcoin/bitcoin/issues/events/9299366512",
      "actor": {
        "login": "MarcoFalke",
        "id": 6399679,
        "node_id": "MDQ6VXNlcjYzOTk2Nzk=",
        "avatar_url": "https://avatars.githubusercontent.com/u/6399679?v=4",
        "gravatar_id": "",
        "url": "https://api.github.com/users/MarcoFalke",
        "html_url": "https://github.com/MarcoFalke",
        "followers_url": "https://api.github.com/users/MarcoFalke/followers",
        "following_url": "https://api.github.com/users/MarcoFalke/following%7B/other_user%7D",
        "gists_url": "https://api.github.com/users/MarcoFalke/gists%7B/gist_id%7D",
        "starred_url": "https://api.github.com/users/MarcoFalke/starred%7B/owner%7D%7B/repo%7D",
        "subscriptions_url": "https://api.github.com/users/MarcoFalke/subscriptions",
        "organizations_url": "https://api.github.com/users/MarcoFalke/orgs",
        "repos_url": "https://api.github.com/users/MarcoFalke/repos",
        "events_url": "https://api.github.com/users/MarcoFalke/events%7B/privacy%7D",
        "received_events_url": "https://api.github.com/users/MarcoFalke/received_events",
        "type": "User",
        "site_admin": false
      },
      "commit_id": null,
      "commit_url": null,
      "created_at": "2023-05-22T08:04:51Z"
    },
    {
      "event": "labeled",
      "id": 9300019041,
      "node_id": "LE_lADOABII585mB7_NzwAAAAIqUwdh",
      "url": "https://api.github.com/repos/bitcoin/bitcoin/issues/events/9300019041",
      "actor": {
        "login": "DrahtBot",
        "id": 39886733,
        "node_id": "MDQ6VXNlcjM5ODg2NzMz",
        "avatar_url": "https://avatars.githubusercontent.com/u/39886733?v=4",
        "gravatar_id": "",
        "url": "https://api.github.com/users/DrahtBot",
        "html_url": "https://github.com/DrahtBot",
        "followers_url": "https://api.github.com/users/DrahtBot/followers",
        "following_url": "https://api.github.com/users/DrahtBot/following%7B/other_user%7D",
        "gists_url": "https://api.github.com/users/DrahtBot/gists%7B/gist_id%7D",
        "starred_url": "https://api.github.com/users/DrahtBot/starred%7B/owner%7D%7B/repo%7D",
        "subscriptions_url": "https://api.github.com/users/DrahtBot/subscriptions",
        "organizations_url": "https://api.github.com/users/DrahtBot/orgs",
        "repos_url": "https://api.github.com/users/DrahtBot/repos",
        "events_url": "https://api.github.com/users/DrahtBot/events%7B/privacy%7D",
        "received_events_url": "https://api.github.com/users/DrahtBot/received_events",
        "type": "User",
        "site_admin": false
      },
      "commit_id": null,
      "commit_url": null,
      "created_at": "2023-05-22T08:59:34Z",
      "label": {
        "name": "CI failed",
        "color": "cccccc"
      }
    },
    {
      "event": "unlabeled",
      "id": 9300182057,
      "node_id": "UNLE_lADOABII585mB7_NzwAAAAIqVYQp",
      "url": "https://api.github.com/repos/bitcoin/bitcoin/issues/events/9300182057",
      "actor": {
        "login": "DrahtBot",
        "id": 39886733,
        "node_id": "MDQ6VXNlcjM5ODg2NzMz",
        "avatar_url": "https://avatars.githubusercontent.com/u/39886733?v=4",
        "gravatar_id": "",
        "url": "https://api.github.com/users/DrahtBot",
        "html_url": "https://github.com/DrahtBot",
        "followers_url": "https://api.github.com/users/DrahtBot/followers",
        "following_url": "https://api.github.com/users/DrahtBot/following%7B/other_user%7D",
        "gists_url": "https://api.github.com/users/DrahtBot/gists%7B/gist_id%7D",
        "starred_url": "https://api.github.com/users/DrahtBot/starred%7B/owner%7D%7B/repo%7D",
        "subscriptions_url": "https://api.github.com/users/DrahtBot/subscriptions",
        "organizations_url": "https://api.github.com/users/DrahtBot/orgs",
        "repos_url": "https://api.github.com/users/DrahtBot/repos",
        "events_url": "https://api.github.com/users/DrahtBot/events%7B/privacy%7D",
        "received_events_url": "https://api.github.com/users/DrahtBot/received_events",
        "type": "User",
        "site_admin": false
      },
      "commit_id": null,
      "commit_url": null,
      "created_at": "2023-05-22T09:13:50Z",
      "label": {
        "name": "CI failed",
        "color": "cccccc"
      }
    },
    {
      "event": "commented",
      "id": 1556863344,
      "node_id": "IC_kwDOABII585cy9lw",
      "url": "https://api.github.com/repos/bitcoin/bitcoin/issues/comments/1556863344",
      "actor": {
        "login": "MarcoFalke",
        "id": 6399679,
        "node_id": "MDQ6VXNlcjYzOTk2Nzk=",
        "avatar_url": "https://avatars.githubusercontent.com/u/6399679?v=4",
        "gravatar_id": "",
        "url": "https://api.github.com/users/MarcoFalke",
        "html_url": "https://github.com/MarcoFalke",
        "followers_url": "https://api.github.com/users/MarcoFalke/followers",
        "following_url": "https://api.github.com/users/MarcoFalke/following%7B/other_user%7D",
        "gists_url": "https://api.github.com/users/MarcoFalke/gists%7B/gist_id%7D",
        "starred_url": "https://api.github.com/users/MarcoFalke/starred%7B/owner%7D%7B/repo%7D",
        "subscriptions_url": "https://api.github.com/users/MarcoFalke/subscriptions",
        "organizations_url": "https://api.github.com/users/MarcoFalke/orgs",
        "repos_url": "https://api.github.com/users/MarcoFalke/repos",
        "events_url": "https://api.github.com/users/MarcoFalke/events%7B/privacy%7D",
        "received_events_url": "https://api.github.com/users/MarcoFalke/received_events",
        "type": "User",
        "site_admin": false
      },
      "commit_id": null,
      "commit_url": null,
      "created_at": "2023-05-22T09:20:44Z",
      "updated_at": "2023-05-22T09:20:44Z",
      "author_association": "MEMBER",
      "body": "Added a commit to also improve fuzz logging in the CI system: https://cirrus-ci.com/task/4987695903014912?logs=ci#L222",
      "user": {
        "login": "MarcoFalke",
        "id": 6399679,
        "node_id": "MDQ6VXNlcjYzOTk2Nzk=",
        "avatar_url": "https://avatars.githubusercontent.com/u/6399679?v=4",
        "gravatar_id": "",
        "url": "https://api.github.com/users/MarcoFalke",
        "html_url": "https://github.com/MarcoFalke",
        "followers_url": "https://api.github.com/users/MarcoFalke/followers",
        "following_url": "https://api.github.com/users/MarcoFalke/following%7B/other_user%7D",
        "gists_url": "https://api.github.com/users/MarcoFalke/gists%7B/gist_id%7D",
        "starred_url": "https://api.github.com/users/MarcoFalke/starred%7B/owner%7D%7B/repo%7D",
        "subscriptions_url": "https://api.github.com/users/MarcoFalke/subscriptions",
        "organizations_url": "https://api.github.com/users/MarcoFalke/orgs",
        "repos_url": "https://api.github.com/users/MarcoFalke/repos",
        "events_url": "https://api.github.com/users/MarcoFalke/events%7B/privacy%7D",
        "received_events_url": "https://api.github.com/users/MarcoFalke/received_events",
        "type": "User",
        "site_admin": false
      },
      "html_url": "https://github.com/bitcoin/bitcoin/pull/27672#issuecomment-1556863344",
      "issue_url": "https://api.github.com/repos/bitcoin/bitcoin/issues/27672"
    },
    {
      "event": "commented",
      "id": 1556981165,
      "node_id": "IC_kwDOABII585czaWt",
      "url": "https://api.github.com/repos/bitcoin/bitcoin/issues/comments/1556981165",
      "actor": {
        "login": "dergoegge",
        "id": 8077169,
        "node_id": "MDQ6VXNlcjgwNzcxNjk=",
        "avatar_url": "https://avatars.githubusercontent.com/u/8077169?v=4",
        "gravatar_id": "",
        "url": "https://api.github.com/users/dergoegge",
        "html_url": "https://github.com/dergoegge",
        "followers_url": "https://api.github.com/users/dergoegge/followers",
        "following_url": "https://api.github.com/users/dergoegge/following%7B/other_user%7D",
        "gists_url": "https://api.github.com/users/dergoegge/gists%7B/gist_id%7D",
        "starred_url": "https://api.github.com/users/dergoegge/starred%7B/owner%7D%7B/repo%7D",
        "subscriptions_url": "https://api.github.com/users/dergoegge/subscriptions",
        "organizations_url": "https://api.github.com/users/dergoegge/orgs",
        "repos_url": "https://api.github.com/users/dergoegge/repos",
        "events_url": "https://api.github.com/users/dergoegge/events%7B/privacy%7D",
        "received_events_url": "https://api.github.com/users/dergoegge/received_events",
        "type": "User",
        "site_admin": false
      },
      "commit_id": null,
      "commit_url": null,
      "created_at": "2023-05-22T10:38:04Z",
      "updated_at": "2023-05-22T10:38:04Z",
      "author_association": "MEMBER",
      "body": "ACK fa1b3abc834a90fb1cfbd5ac63deb28f3990c1fb",
      "user": {
        "login": "dergoegge",
        "id": 8077169,
        "node_id": "MDQ6VXNlcjgwNzcxNjk=",
        "avatar_url": "https://avatars.githubusercontent.com/u/8077169?v=4",
        "gravatar_id": "",
        "url": "https://api.github.com/users/dergoegge",
        "html_url": "https://github.com/dergoegge",
        "followers_url": "https://api.github.com/users/dergoegge/followers",
        "following_url": "https://api.github.com/users/dergoegge/following%7B/other_user%7D",
        "gists_url": "https://api.github.com/users/dergoegge/gists%7B/gist_id%7D",
        "starred_url": "https://api.github.com/users/dergoegge/starred%7B/owner%7D%7B/repo%7D",
        "subscriptions_url": "https://api.github.com/users/dergoegge/subscriptions",
        "organizations_url": "https://api.github.com/users/dergoegge/orgs",
        "repos_url": "https://api.github.com/users/dergoegge/repos",
        "events_url": "https://api.github.com/users/dergoegge/events%7B/privacy%7D",
        "received_events_url": "https://api.github.com/users/dergoegge/received_events",
        "type": "User",
        "site_admin": false
      },
      "html_url": "https://github.com/bitcoin/bitcoin/pull/27672#issuecomment-1556981165",
      "issue_url": "https://api.github.com/repos/bitcoin/bitcoin/issues/27672"
    },
    {
      "event": "cross-referenced",
      "id": null,
      "node_id": null,
      "url": null,
      "actor": {
        "login": "MarcoFalke",
        "id": 6399679,
        "node_id": "MDQ6VXNlcjYzOTk2Nzk=",
        "avatar_url": "https://avatars.githubusercontent.com/u/6399679?v=4",
        "gravatar_id": "",
        "url": "https://api.github.com/users/MarcoFalke",
        "html_url": "https://github.com/MarcoFalke",
        "followers_url": "https://api.github.com/users/MarcoFalke/followers",
        "following_url": "https://api.github.com/users/MarcoFalke/following%7B/other_user%7D",
        "gists_url": "https://api.github.com/users/MarcoFalke/gists%7B/gist_id%7D",
        "starred_url": "https://api.github.com/users/MarcoFalke/starred%7B/owner%7D%7B/repo%7D",
        "subscriptions_url": "https://api.github.com/users/MarcoFalke/subscriptions",
        "organizations_url": "https://api.github.com/users/MarcoFalke/orgs",
        "repos_url": "https://api.github.com/users/MarcoFalke/repos",
        "events_url": "https://api.github.com/users/MarcoFalke/events%7B/privacy%7D",
        "received_events_url": "https://api.github.com/users/MarcoFalke/received_events",
        "type": "User",
        "site_admin": false
      },
      "commit_id": null,
      "commit_url": null,
      "created_at": "2023-05-22T11:43:25Z",
      "updated_at": "2023-05-22T11:43:25Z",
      "source": {
        "issue": {
          "id": 1715610452,
          "node_id": "PR_kwDOCgmu_85Qzjep",
          "url": "https://api.github.com/repos/bitcoin-core/qa-assets/issues/126",
          "repository_url": "https://api.github.com/repos/bitcoin-core/qa-assets",
          "labels_url": "https://api.github.com/repos/bitcoin-core/qa-assets/issues/126/labels%7B/name%7D",
          "comments_url": "https://api.github.com/repos/bitcoin-core/qa-assets/issues/126/comments",
          "events_url": "https://api.github.com/repos/bitcoin-core/qa-assets/issues/126/events",
          "html_url": "https://github.com/bitcoin-core/qa-assets/pull/126",
          "number": 126,
          "state": "closed",
          "state_reason": null,
          "title": "ci: Use persistent_worker for valgrind",
          "body": "Requested: https://github.com/bitcoin-core/qa-assets/issues/113#issuecomment-1549894437",
          "user": {
            "login": "MarcoFalke",
            "id": 6399679,
            "node_id": "MDQ6VXNlcjYzOTk2Nzk=",
            "avatar_url": "https://avatars.githubusercontent.com/u/6399679?v=4",
            "gravatar_id": "",
            "url": "https://api.github.com/users/MarcoFalke",
            "html_url": "https://github.com/MarcoFalke",
            "followers_url": "https://api.github.com/users/MarcoFalke/followers",
            "following_url": "https://api.github.com/users/MarcoFalke/following%7B/other_user%7D",
            "gists_url": "https://api.github.com/users/MarcoFalke/gists%7B/gist_id%7D",
            "starred_url": "https://api.github.com/users/MarcoFalke/starred%7B/owner%7D%7B/repo%7D",
            "subscriptions_url": "https://api.github.com/users/MarcoFalke/subscriptions",
            "organizations_url": "https://api.github.com/users/MarcoFalke/orgs",
            "repos_url": "https://api.github.com/users/MarcoFalke/repos",
            "events_url": "https://api.github.com/users/MarcoFalke/events%7B/privacy%7D",
            "received_events_url": "https://api.github.com/users/MarcoFalke/received_events",
            "type": "User",
            "site_admin": false
          },
          "labels": [],
          "assignees": [],
          "author_association": "NONE",
          "locked": false,
          "comments": 5,
          "pull_request": {
            "url": "https://api.github.com/repos/bitcoin-core/qa-assets/pulls/126",
            "html_url": "https://github.com/bitcoin-core/qa-assets/pull/126",
            "diff_url": "https://github.com/bitcoin-core/qa-assets/pull/126.diff",
            "patch_url": "https://github.com/bitcoin-core/qa-assets/pull/126.patch"
          },
          "closed_at": "2023-05-22T12:38:54Z",
          "created_at": "2023-05-18T13:06:29Z",
          "updated_at": "2023-05-22T13:09:48Z"
        },
        "type": "issue"
      }
    },
    {
      "event": "merged",
      "id": 9301783738,
      "node_id": "ME_lADOABII585mB7_NzwAAAAIqbfS6",
      "url": "https://api.github.com/repos/bitcoin/bitcoin/issues/events/9301783738",
      "actor": {
        "login": "fanquake",
        "id": 863730,
        "node_id": "MDQ6VXNlcjg2MzczMA==",
        "avatar_url": "https://avatars.githubusercontent.com/u/863730?v=4",
        "gravatar_id": "",
        "url": "https://api.github.com/users/fanquake",
        "html_url": "https://github.com/fanquake",
        "followers_url": "https://api.github.com/users/fanquake/followers",
        "following_url": "https://api.github.com/users/fanquake/following%7B/other_user%7D",
        "gists_url": "https://api.github.com/users/fanquake/gists%7B/gist_id%7D",
        "starred_url": "https://api.github.com/users/fanquake/starred%7B/owner%7D%7B/repo%7D",
        "subscriptions_url": "https://api.github.com/users/fanquake/subscriptions",
        "organizations_url": "https://api.github.com/users/fanquake/orgs",
        "repos_url": "https://api.github.com/users/fanquake/repos",
        "events_url": "https://api.github.com/users/fanquake/events%7B/privacy%7D",
        "received_events_url": "https://api.github.com/users/fanquake/received_events",
        "type": "User",
        "site_admin": false
      },
      "commit_id": "456701420b157f4c02592a2aea6fc32b1620c56a",
      "commit_url": "https://api.github.com/repos/bitcoin/bitcoin/commits/456701420b157f4c02592a2aea6fc32b1620c56a",
      "created_at": "2023-05-22T11:56:00Z"
    },
    {
      "event": "closed",
      "id": 9301783791,
      "node_id": "CE_lADOABII585mB7_NzwAAAAIqbfTv",
      "url": "https://api.github.com/repos/bitcoin/bitcoin/issues/events/9301783791",
      "actor": {
        "login": "fanquake",
        "id": 863730,
        "node_id": "MDQ6VXNlcjg2MzczMA==",
        "avatar_url": "https://avatars.githubusercontent.com/u/863730?v=4",
        "gravatar_id": "",
        "url": "https://api.github.com/users/fanquake",
        "html_url": "https://github.com/fanquake",
        "followers_url": "https://api.github.com/users/fanquake/followers",
        "following_url": "https://api.github.com/users/fanquake/following%7B/other_user%7D",
        "gists_url": "https://api.github.com/users/fanquake/gists%7B/gist_id%7D",
        "starred_url": "https://api.github.com/users/fanquake/starred%7B/owner%7D%7B/repo%7D",
        "subscriptions_url": "https://api.github.com/users/fanquake/subscriptions",
        "organizations_url": "https://api.github.com/users/fanquake/orgs",
        "repos_url": "https://api.github.com/users/fanquake/repos",
        "events_url": "https://api.github.com/users/fanquake/events%7B/privacy%7D",
        "received_events_url": "https://api.github.com/users/fanquake/received_events",
        "type": "User",
        "site_admin": false
      },
      "commit_id": null,
      "commit_url": null,
      "created_at": "2023-05-22T11:56:00Z"
    },
    {
      "event": "head_ref_deleted",
      "id": 9301791417,
      "node_id": "HRDE_lADOABII585mB7_NzwAAAAIqbhK5",
      "url": "https://api.github.com/repos/bitcoin/bitcoin/issues/events/9301791417",
      "actor": {
        "login": "MarcoFalke",
        "id": 6399679,
        "node_id": "MDQ6VXNlcjYzOTk2Nzk=",
        "avatar_url": "https://avatars.githubusercontent.com/u/6399679?v=4",
        "gravatar_id": "",
        "url": "https://api.github.com/users/MarcoFalke",
        "html_url": "https://github.com/MarcoFalke",
        "followers_url": "https://api.github.com/users/MarcoFalke/followers",
        "following_url": "https://api.github.com/users/MarcoFalke/following%7B/other_user%7D",
        "gists_url": "https://api.github.com/users/MarcoFalke/gists%7B/gist_id%7D",
        "starred_url": "https://api.github.com/users/MarcoFalke/starred%7B/owner%7D%7B/repo%7D",
        "subscriptions_url": "https://api.github.com/users/MarcoFalke/subscriptions",
        "organizations_url": "https://api.github.com/users/MarcoFalke/orgs",
        "repos_url": "https://api.github.com/users/MarcoFalke/repos",
        "events_url": "https://api.github.com/users/MarcoFalke/events%7B/privacy%7D",
        "received_events_url": "https://api.github.com/users/MarcoFalke/received_events",
        "type": "User",
        "site_admin": false
      },
      "commit_id": null,
      "commit_url": null,
      "created_at": "2023-05-22T11:56:46Z"
    },
    {
      "event": "referenced",
      "id": 9317034853,
      "node_id": "REFE_lADOABII585mB7_NzwAAAAIrVqtl",
      "url": "https://api.github.com/repos/bitcoin/bitcoin/issues/events/9317034853",
      "actor": {
        "login": "sidhujag",
        "id": 6238042,
        "node_id": "MDQ6VXNlcjYyMzgwNDI=",
        "avatar_url": "https://avatars.githubusercontent.com/u/6238042?v=4",
        "gravatar_id": "",
        "url": "https://api.github.com/users/sidhujag",
        "html_url": "https://github.com/sidhujag",
        "followers_url": "https://api.github.com/users/sidhujag/followers",
        "following_url": "https://api.github.com/users/sidhujag/following%7B/other_user%7D",
        "gists_url": "https://api.github.com/users/sidhujag/gists%7B/gist_id%7D",
        "starred_url": "https://api.github.com/users/sidhujag/starred%7B/owner%7D%7B/repo%7D",
        "subscriptions_url": "https://api.github.com/users/sidhujag/subscriptions",
        "organizations_url": "https://api.github.com/users/sidhujag/orgs",
        "repos_url": "https://api.github.com/users/sidhujag/repos",
        "events_url": "https://api.github.com/users/sidhujag/events%7B/privacy%7D",
        "received_events_url": "https://api.github.com/users/sidhujag/received_events",
        "type": "User",
        "site_admin": false
      },
      "commit_id": "c434df6391486a370697be8395f81202d0bd8f9a",
      "commit_url": "https://api.github.com/repos/syscoin/syscoin/commits/c434df6391486a370697be8395f81202d0bd8f9a",
      "created_at": "2023-05-23T14:25:01Z"
    }
  ],
  "comments": [
    {
      "url": "https://api.github.com/repos/bitcoin/bitcoin/pulls/comments/1197545568",
      "pull_request_review_id": 1432271319,
      "id": 1197545568,
      "node_id": "PRRC_kwDOABII585HYRhg",
      "diff_hunk": "@@ -92,13 +97,22 @@ void initialize()\n             if (std::get<2>(t.second)) continue;\n             out_stream << t.first << std::endl;\n         }\n-        should_abort = true;\n+        should_exit= true;\n+    }\n+    if (should_exit){\n+        std::exit(EXIT_SUCCESS);\n+    }\n+    if (const auto* env_fuzz{std::getenv(\"FUZZ\")}) {\n+        // To allow for easier fuzz executable binary modification,\n+        static std::string g_copy{env_fuzz}; // create copy to avoid compiler optimizations, and\n+        g_fuzz_target = g_copy.c_str();      // strip string after the first null-char.\n+    } else {\n+        std::cerr << \"Must select fuzz target with the FUZZ env var.\" << std::endl;",
      "path": "src/test/fuzz/fuzz.cpp",
      "position": 51,
      "original_position": 51,
      "commit_id": "fa1b3abc834a90fb1cfbd5ac63deb28f3990c1fb",
      "original_commit_id": "fac80580a377087e7f6f06583b6101829ce48ad8",
      "in_reply_to_id": null,
      "user": {
        "login": "dergoegge",
        "id": 8077169,
        "node_id": "MDQ6VXNlcjgwNzcxNjk=",
        "avatar_url": "https://avatars.githubusercontent.com/u/8077169?v=4",
        "gravatar_id": "",
        "url": "https://api.github.com/users/dergoegge",
        "html_url": "https://github.com/dergoegge",
        "followers_url": "https://api.github.com/users/dergoegge/followers",
        "following_url": "https://api.github.com/users/dergoegge/following%7B/other_user%7D",
        "gists_url": "https://api.github.com/users/dergoegge/gists%7B/gist_id%7D",
        "starred_url": "https://api.github.com/users/dergoegge/starred%7B/owner%7D%7B/repo%7D",
        "subscriptions_url": "https://api.github.com/users/dergoegge/subscriptions",
        "organizations_url": "https://api.github.com/users/dergoegge/orgs",
        "repos_url": "https://api.github.com/users/dergoegge/repos",
        "events_url": "https://api.github.com/users/dergoegge/events%7B/privacy%7D",
        "received_events_url": "https://api.github.com/users/dergoegge/received_events",
        "type": "User",
        "site_admin": false
      },
      "body": "nit: Would it be good to hint at `PRINT_ALL_FUZZ_TARGETS_AND_ABORT=1` in the message?",
      "created_at": "2023-05-18T08:23:55Z",
      "updated_at": "2023-05-18T08:24:26Z",
      "html_url": "https://github.com/bitcoin/bitcoin/pull/27672#discussion_r1197545568",
      "author_association": "MEMBER",
      "_links": {
        "self": {
          "href": "https://api.github.com/repos/bitcoin/bitcoin/pulls/comments/1197545568"
        },
        "pull_request": {
          "href": "https://api.github.com/repos/bitcoin/bitcoin/pulls/27672"
        }
      },
      "start_line": null,
      "original_start_line": null,
      "start_side": null,
      "line": 110,
      "original_line": 110,
      "side": "RIGHT"
    },
    {
      "url": "https://api.github.com/repos/bitcoin/bitcoin/pulls/comments/1197651079",
      "pull_request_review_id": 1432435302,
      "id": 1197651079,
      "node_id": "PRRC_kwDOABII585HYrSH",
      "diff_hunk": "@@ -92,13 +97,22 @@ void initialize()\n             if (std::get<2>(t.second)) continue;\n             out_stream << t.first << std::endl;\n         }\n-        should_abort = true;\n+        should_exit= true;\n+    }\n+    if (should_exit){\n+        std::exit(EXIT_SUCCESS);\n+    }\n+    if (const auto* env_fuzz{std::getenv(\"FUZZ\")}) {\n+        // To allow for easier fuzz executable binary modification,\n+        static std::string g_copy{env_fuzz}; // create copy to avoid compiler optimizations, and\n+        g_fuzz_target = g_copy.c_str();      // strip string after the first null-char.\n+    } else {\n+        std::cerr << \"Must select fuzz target with the FUZZ env var.\" << std::endl;",
      "path": "src/test/fuzz/fuzz.cpp",
      "position": 51,
      "original_position": 51,
      "commit_id": "fa1b3abc834a90fb1cfbd5ac63deb28f3990c1fb",
      "original_commit_id": "fac80580a377087e7f6f06583b6101829ce48ad8",
      "in_reply_to_id": 1197545568,
      "user": {
        "login": "MarcoFalke",
        "id": 6399679,
        "node_id": "MDQ6VXNlcjYzOTk2Nzk=",
        "avatar_url": "https://avatars.githubusercontent.com/u/6399679?v=4",
        "gravatar_id": "",
        "url": "https://api.github.com/users/MarcoFalke",
        "html_url": "https://github.com/MarcoFalke",
        "followers_url": "https://api.github.com/users/MarcoFalke/followers",
        "following_url": "https://api.github.com/users/MarcoFalke/following%7B/other_user%7D",
        "gists_url": "https://api.github.com/users/MarcoFalke/gists%7B/gist_id%7D",
        "starred_url": "https://api.github.com/users/MarcoFalke/starred%7B/owner%7D%7B/repo%7D",
        "subscriptions_url": "https://api.github.com/users/MarcoFalke/subscriptions",
        "organizations_url": "https://api.github.com/users/MarcoFalke/orgs",
        "repos_url": "https://api.github.com/users/MarcoFalke/repos",
        "events_url": "https://api.github.com/users/MarcoFalke/events%7B/privacy%7D",
        "received_events_url": "https://api.github.com/users/MarcoFalke/received_events",
        "type": "User",
        "site_admin": false
      },
      "body": "Thx, done",
      "created_at": "2023-05-18T10:19:42Z",
      "updated_at": "2023-05-18T10:19:43Z",
      "html_url": "https://github.com/bitcoin/bitcoin/pull/27672#discussion_r1197651079",
      "author_association": "MEMBER",
      "_links": {
        "self": {
          "href": "https://api.github.com/repos/bitcoin/bitcoin/pulls/comments/1197651079"
        },
        "pull_request": {
          "href": "https://api.github.com/repos/bitcoin/bitcoin/pulls/27672"
        }
      },
      "start_line": null,
      "original_start_line": null,
      "start_side": null,
      "line": 110,
      "original_line": 110,
      "side": "RIGHT"
    }
  ]
}