{
  "type": "pull",
  "pull": {
    "url": "https://api.github.com/repos/bitcoin/bitcoin/pulls/27731",
    "id": 1362172353,
    "node_id": "PR_kwDOABII585RMRnB",
    "html_url": "https://github.com/bitcoin/bitcoin/pull/27731",
    "diff_url": "https://github.com/bitcoin/bitcoin/pull/27731.diff",
    "patch_url": "https://github.com/bitcoin/bitcoin/pull/27731.patch",
    "issue_url": "https://api.github.com/repos/bitcoin/bitcoin/issues/27731",
    "commits_url": "https://api.github.com/repos/bitcoin/bitcoin/pulls/27731/commits",
    "review_comments_url": "https://api.github.com/repos/bitcoin/bitcoin/pulls/27731/comments",
    "review_comment_url": "https://api.github.com/repos/bitcoin/bitcoin/pulls/comments%7B/number%7D",
    "comments_url": "https://api.github.com/repos/bitcoin/bitcoin/issues/27731/comments",
    "statuses_url": "https://api.github.com/repos/bitcoin/bitcoin/statuses/8b0d64d831e6ad68f59669aad097427e94b02f6e",
    "number": 27731,
    "state": "open",
    "locked": false,
    "maintainer_can_modify": true,
    "title": "Prevent file descriptor exhaustion from too many RPC calls",
    "user": {
      "login": "fjahr",
      "id": 1322187,
      "node_id": "MDQ6VXNlcjEzMjIxODc=",
      "avatar_url": "https://avatars.githubusercontent.com/u/1322187?v=4",
      "gravatar_id": "",
      "url": "https://api.github.com/users/fjahr",
      "html_url": "https://github.com/fjahr",
      "followers_url": "https://api.github.com/users/fjahr/followers",
      "following_url": "https://api.github.com/users/fjahr/following%7B/other_user%7D",
      "gists_url": "https://api.github.com/users/fjahr/gists%7B/gist_id%7D",
      "starred_url": "https://api.github.com/users/fjahr/starred%7B/owner%7D%7B/repo%7D",
      "subscriptions_url": "https://api.github.com/users/fjahr/subscriptions",
      "organizations_url": "https://api.github.com/users/fjahr/orgs",
      "repos_url": "https://api.github.com/users/fjahr/repos",
      "events_url": "https://api.github.com/users/fjahr/events%7B/privacy%7D",
      "received_events_url": "https://api.github.com/users/fjahr/received_events",
      "type": "User",
      "site_admin": false
    },
    "body": "Fixes #11368\r\n\r\nThis requires libevent 2.2.1 which so far was only [released in alpha](https://github.com/libevent/libevent/releases/tag/release-2.2.1-alpha).\r\n\r\nFor more context see specifically https://github.com/bitcoin/bitcoin/issues/11368#issuecomment-632717903, this uses the feature mentioned there as libevent#592.",
    "labels": [
      {
        "id": 5334691551,
        "node_id": "LA_kwDOABII588AAAABPfju3w",
        "url": "https://api.github.com/repos/bitcoin/bitcoin/labels/CI%20failed",
        "name": "CI failed",
        "description": "",
        "color": "cccccc",
        "default": false
      }
    ],
    "created_at": "2023-05-23T23:20:19Z",
    "updated_at": "2023-10-25T10:57:53Z",
    "mergeable": true,
    "mergeable_state": "blocked",
    "merge_commit_sha": "29c20d62bda88328053d58a5af57c8cf25d589e4",
    "assignees": [],
    "requested_reviewers": [],
    "requested_teams": [],
    "rebaseable": true,
    "head": {
      "label": "fjahr:2023-05-fd-exhaust",
      "ref": "2023-05-fd-exhaust",
      "sha": "8b0d64d831e6ad68f59669aad097427e94b02f6e",
      "user": {
        "login": "fjahr",
        "id": 1322187,
        "node_id": "MDQ6VXNlcjEzMjIxODc=",
        "avatar_url": "https://avatars.githubusercontent.com/u/1322187?v=4",
        "gravatar_id": "",
        "url": "https://api.github.com/users/fjahr",
        "html_url": "https://github.com/fjahr",
        "followers_url": "https://api.github.com/users/fjahr/followers",
        "following_url": "https://api.github.com/users/fjahr/following%7B/other_user%7D",
        "gists_url": "https://api.github.com/users/fjahr/gists%7B/gist_id%7D",
        "starred_url": "https://api.github.com/users/fjahr/starred%7B/owner%7D%7B/repo%7D",
        "subscriptions_url": "https://api.github.com/users/fjahr/subscriptions",
        "organizations_url": "https://api.github.com/users/fjahr/orgs",
        "repos_url": "https://api.github.com/users/fjahr/repos",
        "events_url": "https://api.github.com/users/fjahr/events%7B/privacy%7D",
        "received_events_url": "https://api.github.com/users/fjahr/received_events",
        "type": "User",
        "site_admin": false
      },
      "repo": {
        "id": 196253948,
        "node_id": "MDEwOlJlcG9zaXRvcnkxOTYyNTM5NDg=",
        "name": "bitcoin",
        "full_name": "fjahr/bitcoin",
        "owner": {
          "login": "fjahr",
          "id": 1322187,
          "node_id": "MDQ6VXNlcjEzMjIxODc=",
          "avatar_url": "https://avatars.githubusercontent.com/u/1322187?v=4",
          "gravatar_id": "",
          "url": "https://api.github.com/users/fjahr",
          "html_url": "https://github.com/fjahr",
          "followers_url": "https://api.github.com/users/fjahr/followers",
          "following_url": "https://api.github.com/users/fjahr/following%7B/other_user%7D",
          "gists_url": "https://api.github.com/users/fjahr/gists%7B/gist_id%7D",
          "starred_url": "https://api.github.com/users/fjahr/starred%7B/owner%7D%7B/repo%7D",
          "subscriptions_url": "https://api.github.com/users/fjahr/subscriptions",
          "organizations_url": "https://api.github.com/users/fjahr/orgs",
          "repos_url": "https://api.github.com/users/fjahr/repos",
          "events_url": "https://api.github.com/users/fjahr/events%7B/privacy%7D",
          "received_events_url": "https://api.github.com/users/fjahr/received_events",
          "type": "User",
          "site_admin": false
        },
        "private": false,
        "html_url": "https://github.com/fjahr/bitcoin",
        "description": "Bitcoin Core integration/staging tree",
        "fork": true,
        "url": "https://api.github.com/repos/fjahr/bitcoin",
        "archive_url": "https://api.github.com/repos/fjahr/bitcoin/%7Barchive_format%7D%7B/ref%7D",
        "assignees_url": "https://api.github.com/repos/fjahr/bitcoin/assignees%7B/user%7D",
        "blobs_url": "https://api.github.com/repos/fjahr/bitcoin/git/blobs%7B/sha%7D",
        "branches_url": "https://api.github.com/repos/fjahr/bitcoin/branches%7B/branch%7D",
        "collaborators_url": "https://api.github.com/repos/fjahr/bitcoin/collaborators%7B/collaborator%7D",
        "comments_url": "https://api.github.com/repos/fjahr/bitcoin/comments%7B/number%7D",
        "commits_url": "https://api.github.com/repos/fjahr/bitcoin/commits%7B/sha%7D",
        "compare_url": "https://api.github.com/repos/fjahr/bitcoin/compare/%7Bbase%7D...%7Bhead%7D",
        "contents_url": "https://api.github.com/repos/fjahr/bitcoin/contents/%7B+path%7D",
        "contributors_url": "https://api.github.com/repos/fjahr/bitcoin/contributors",
        "deployments_url": "https://api.github.com/repos/fjahr/bitcoin/deployments",
        "downloads_url": "https://api.github.com/repos/fjahr/bitcoin/downloads",
        "events_url": "https://api.github.com/repos/fjahr/bitcoin/events",
        "forks_url": "https://api.github.com/repos/fjahr/bitcoin/forks",
        "git_commits_url": "https://api.github.com/repos/fjahr/bitcoin/git/commits%7B/sha%7D",
        "git_refs_url": "https://api.github.com/repos/fjahr/bitcoin/git/refs%7B/sha%7D",
        "git_tags_url": "https://api.github.com/repos/fjahr/bitcoin/git/tags%7B/sha%7D",
        "git_url": "git://github.com/fjahr/bitcoin.git",
        "issue_comment_url": "https://api.github.com/repos/fjahr/bitcoin/issues/comments%7B/number%7D",
        "issue_events_url": "https://api.github.com/repos/fjahr/bitcoin/issues/events%7B/number%7D",
        "issues_url": "https://api.github.com/repos/fjahr/bitcoin/issues%7B/number%7D",
        "keys_url": "https://api.github.com/repos/fjahr/bitcoin/keys%7B/key_id%7D",
        "labels_url": "https://api.github.com/repos/fjahr/bitcoin/labels%7B/name%7D",
        "languages_url": "https://api.github.com/repos/fjahr/bitcoin/languages",
        "merges_url": "https://api.github.com/repos/fjahr/bitcoin/merges",
        "milestones_url": "https://api.github.com/repos/fjahr/bitcoin/milestones%7B/number%7D",
        "notifications_url": "https://api.github.com/repos/fjahr/bitcoin/notifications%7B?since,all,participating}",
        "pulls_url": "https://api.github.com/repos/fjahr/bitcoin/pulls%7B/number%7D",
        "releases_url": "https://api.github.com/repos/fjahr/bitcoin/releases%7B/id%7D",
        "ssh_url": "git@github.com:fjahr/bitcoin.git",
        "stargazers_url": "https://api.github.com/repos/fjahr/bitcoin/stargazers",
        "statuses_url": "https://api.github.com/repos/fjahr/bitcoin/statuses/%7Bsha%7D",
        "subscribers_url": "https://api.github.com/repos/fjahr/bitcoin/subscribers",
        "subscription_url": "https://api.github.com/repos/fjahr/bitcoin/subscription",
        "tags_url": "https://api.github.com/repos/fjahr/bitcoin/tags",
        "teams_url": "https://api.github.com/repos/fjahr/bitcoin/teams",
        "trees_url": "https://api.github.com/repos/fjahr/bitcoin/git/trees%7B/sha%7D",
        "clone_url": "https://github.com/fjahr/bitcoin.git",
        "hooks_url": "https://api.github.com/repos/fjahr/bitcoin/hooks",
        "svn_url": "https://github.com/fjahr/bitcoin",
        "homepage": "https://bitcoincore.org/en/download",
        "language": "C++",
        "forks_count": 1,
        "stargazers_count": 4,
        "watchers_count": 4,
        "size": 227696,
        "default_branch": "master",
        "open_issues_count": 0,
        "is_template": false,
        "topics": [],
        "has_issues": false,
        "has_projects": true,
        "has_wiki": false,
        "has_pages": false,
        "has_downloads": false,
        "archived": false,
        "disabled": false,
        "visibility": "public",
        "pushed_at": "2023-10-20T20:53:56Z",
        "created_at": "2019-07-10T18:11:06Z",
        "updated_at": "2022-02-24T18:41:19Z",
        "license": {
          "key": "mit",
          "name": "MIT License",
          "node_id": "MDc6TGljZW5zZTEz",
          "spdx_id": "MIT",
          "url": "https://api.github.com/licenses/mit",
          "html_url": null,
          "description": null,
          "implementation": null,
          "permissions": null,
          "conditions": null,
          "limitations": null,
          "body": null,
          "featured": null
        }
      }
    },
    "base": {
      "label": "bitcoin:master",
      "ref": "master",
      "sha": "3132ec64d9e0f7af88e61ac35807f44315a5ca96",
      "user": {
        "login": "bitcoin",
        "id": 528860,
        "node_id": "MDEyOk9yZ2FuaXphdGlvbjUyODg2MA==",
        "avatar_url": "https://avatars.githubusercontent.com/u/528860?v=4",
        "gravatar_id": "",
        "url": "https://api.github.com/users/bitcoin",
        "html_url": "https://github.com/bitcoin",
        "followers_url": "https://api.github.com/users/bitcoin/followers",
        "following_url": "https://api.github.com/users/bitcoin/following%7B/other_user%7D",
        "gists_url": "https://api.github.com/users/bitcoin/gists%7B/gist_id%7D",
        "starred_url": "https://api.github.com/users/bitcoin/starred%7B/owner%7D%7B/repo%7D",
        "subscriptions_url": "https://api.github.com/users/bitcoin/subscriptions",
        "organizations_url": "https://api.github.com/users/bitcoin/orgs",
        "repos_url": "https://api.github.com/users/bitcoin/repos",
        "events_url": "https://api.github.com/users/bitcoin/events%7B/privacy%7D",
        "received_events_url": "https://api.github.com/users/bitcoin/received_events",
        "type": "Organization",
        "site_admin": false
      },
      "repo": {
        "id": 1181927,
        "node_id": "MDEwOlJlcG9zaXRvcnkxMTgxOTI3",
        "name": "bitcoin",
        "full_name": "bitcoin/bitcoin",
        "owner": {
          "login": "bitcoin",
          "id": 528860,
          "node_id": "MDEyOk9yZ2FuaXphdGlvbjUyODg2MA==",
          "avatar_url": "https://avatars.githubusercontent.com/u/528860?v=4",
          "gravatar_id": "",
          "url": "https://api.github.com/users/bitcoin",
          "html_url": "https://github.com/bitcoin",
          "followers_url": "https://api.github.com/users/bitcoin/followers",
          "following_url": "https://api.github.com/users/bitcoin/following%7B/other_user%7D",
          "gists_url": "https://api.github.com/users/bitcoin/gists%7B/gist_id%7D",
          "starred_url": "https://api.github.com/users/bitcoin/starred%7B/owner%7D%7B/repo%7D",
          "subscriptions_url": "https://api.github.com/users/bitcoin/subscriptions",
          "organizations_url": "https://api.github.com/users/bitcoin/orgs",
          "repos_url": "https://api.github.com/users/bitcoin/repos",
          "events_url": "https://api.github.com/users/bitcoin/events%7B/privacy%7D",
          "received_events_url": "https://api.github.com/users/bitcoin/received_events",
          "type": "Organization",
          "site_admin": false
        },
        "private": false,
        "html_url": "https://github.com/bitcoin/bitcoin",
        "description": "Bitcoin Core integration/staging tree",
        "fork": false,
        "url": "https://api.github.com/repos/bitcoin/bitcoin",
        "archive_url": "https://api.github.com/repos/bitcoin/bitcoin/%7Barchive_format%7D%7B/ref%7D",
        "assignees_url": "https://api.github.com/repos/bitcoin/bitcoin/assignees%7B/user%7D",
        "blobs_url": "https://api.github.com/repos/bitcoin/bitcoin/git/blobs%7B/sha%7D",
        "branches_url": "https://api.github.com/repos/bitcoin/bitcoin/branches%7B/branch%7D",
        "collaborators_url": "https://api.github.com/repos/bitcoin/bitcoin/collaborators%7B/collaborator%7D",
        "comments_url": "https://api.github.com/repos/bitcoin/bitcoin/comments%7B/number%7D",
        "commits_url": "https://api.github.com/repos/bitcoin/bitcoin/commits%7B/sha%7D",
        "compare_url": "https://api.github.com/repos/bitcoin/bitcoin/compare/%7Bbase%7D...%7Bhead%7D",
        "contents_url": "https://api.github.com/repos/bitcoin/bitcoin/contents/%7B+path%7D",
        "contributors_url": "https://api.github.com/repos/bitcoin/bitcoin/contributors",
        "deployments_url": "https://api.github.com/repos/bitcoin/bitcoin/deployments",
        "downloads_url": "https://api.github.com/repos/bitcoin/bitcoin/downloads",
        "events_url": "https://api.github.com/repos/bitcoin/bitcoin/events",
        "forks_url": "https://api.github.com/repos/bitcoin/bitcoin/forks",
        "git_commits_url": "https://api.github.com/repos/bitcoin/bitcoin/git/commits%7B/sha%7D",
        "git_refs_url": "https://api.github.com/repos/bitcoin/bitcoin/git/refs%7B/sha%7D",
        "git_tags_url": "https://api.github.com/repos/bitcoin/bitcoin/git/tags%7B/sha%7D",
        "git_url": "git://github.com/bitcoin/bitcoin.git",
        "issue_comment_url": "https://api.github.com/repos/bitcoin/bitcoin/issues/comments%7B/number%7D",
        "issue_events_url": "https://api.github.com/repos/bitcoin/bitcoin/issues/events%7B/number%7D",
        "issues_url": "https://api.github.com/repos/bitcoin/bitcoin/issues%7B/number%7D",
        "keys_url": "https://api.github.com/repos/bitcoin/bitcoin/keys%7B/key_id%7D",
        "labels_url": "https://api.github.com/repos/bitcoin/bitcoin/labels%7B/name%7D",
        "languages_url": "https://api.github.com/repos/bitcoin/bitcoin/languages",
        "merges_url": "https://api.github.com/repos/bitcoin/bitcoin/merges",
        "milestones_url": "https://api.github.com/repos/bitcoin/bitcoin/milestones%7B/number%7D",
        "notifications_url": "https://api.github.com/repos/bitcoin/bitcoin/notifications%7B?since,all,participating}",
        "pulls_url": "https://api.github.com/repos/bitcoin/bitcoin/pulls%7B/number%7D",
        "releases_url": "https://api.github.com/repos/bitcoin/bitcoin/releases%7B/id%7D",
        "ssh_url": "git@github.com:bitcoin/bitcoin.git",
        "stargazers_url": "https://api.github.com/repos/bitcoin/bitcoin/stargazers",
        "statuses_url": "https://api.github.com/repos/bitcoin/bitcoin/statuses/%7Bsha%7D",
        "subscribers_url": "https://api.github.com/repos/bitcoin/bitcoin/subscribers",
        "subscription_url": "https://api.github.com/repos/bitcoin/bitcoin/subscription",
        "tags_url": "https://api.github.com/repos/bitcoin/bitcoin/tags",
        "teams_url": "https://api.github.com/repos/bitcoin/bitcoin/teams",
        "trees_url": "https://api.github.com/repos/bitcoin/bitcoin/git/trees%7B/sha%7D",
        "clone_url": "https://github.com/bitcoin/bitcoin.git",
        "hooks_url": "https://api.github.com/repos/bitcoin/bitcoin/hooks",
        "svn_url": "https://github.com/bitcoin/bitcoin",
        "homepage": "https://bitcoincore.org/en/download",
        "language": "C++",
        "forks_count": 35872,
        "stargazers_count": 71894,
        "watchers_count": 71894,
        "size": 243752,
        "default_branch": "master",
        "open_issues_count": 629,
        "is_template": false,
        "topics": [
          "bitcoin",
          "c-plus-plus",
          "cryptocurrency",
          "cryptography",
          "p2p"
        ],
        "has_issues": true,
        "has_projects": true,
        "has_wiki": false,
        "has_pages": false,
        "has_downloads": false,
        "archived": false,
        "disabled": false,
        "visibility": "public",
        "pushed_at": "2023-10-25T10:17:02Z",
        "created_at": "2010-12-19T15:16:43Z",
        "updated_at": "2023-10-25T08:48:26Z",
        "license": {
          "key": "mit",
          "name": "MIT License",
          "node_id": "MDc6TGljZW5zZTEz",
          "spdx_id": "MIT",
          "url": "https://api.github.com/licenses/mit",
          "html_url": null,
          "description": null,
          "implementation": null,
          "permissions": null,
          "conditions": null,
          "limitations": null,
          "body": null,
          "featured": null
        }
      }
    },
    "_links": {
      "self": {
        "href": "https://api.github.com/repos/bitcoin/bitcoin/pulls/27731"
      }
    },
    "author_association": "CONTRIBUTOR",
    "draft": true,
    "additions": 19,
    "deletions": 16,
    "changed_files": 3,
    "commits": 2,
    "review_comments": 6,
    "comments": 1
  },
  "events": [
    {
      "event": "committed",
      "id": null,
      "node_id": "C_kwDOABII59oAKGEwZWVkNWQ0NTllNGY3MTQwNjMyNWY1ZTRlZGIxMjI3ZmI5MzdlOTU",
      "url": "https://api.github.com/repos/bitcoin/bitcoin/git/commits/a0eed5d459e4f71406325f5e4edb1227fb937e95",
      "actor": null,
      "commit_id": null,
      "commit_url": null,
      "created_at": null,
      "html_url": "https://github.com/bitcoin/bitcoin/commit/a0eed5d459e4f71406325f5e4edb1227fb937e95",
      "tree": {
        "sha": "5add114f36ff99af60bbc338857229550612c357",
        "url": "https://api.github.com/repos/bitcoin/bitcoin/git/trees/5add114f36ff99af60bbc338857229550612c357"
      },
      "verification": {
        "verified": true,
        "reason": "valid",
        "payload": "tree 5add114f36ff99af60bbc338857229550612c357\nparent 22139f6e83a2bedd2dad9f280567d2c76c54252f\nauthor Fabian Jahr <fjahr@protonmail.com> 1684856805 +0200\ncommitter Fabian Jahr <fjahr@protonmail.com> 1684883476 +0200\n\nhttp: Use new max connection limit from libevent 2.2\n",
        "signature": "-----BEGIN PGP SIGNATURE-----\nComment: GPGTools - https://gpgtools.org\n\niQJJBAABCgAzFiEEtFq20ghhrCHSdrgm8T0enYkHmM0FAmRtSEsVHGZqYWhyQHBy\nb3Rvbm1haWwuY29tAAoJEPE9Hp2JB5jNx20QAJ8IUaevQ3YKDXCyKPe3+DN46wxN\nXkUwbMj0N3XnDOQTC/l1ZE0/YU22P+710URDPXLVYSAg785CnbrOmDuly0MJrzHc\n/Xe7Gv37uAlb1xID8CSWeGkVAESgHjXvB8mfI9U7eKzgjieAy/bmXCTyCcgby0m6\nNcaz0M4t36Em9FK9/zQeErS64Duzz1Uc9NckTcrR7BmdimfB0pA34aO7H7Cxnz2b\nbMZcxW/ANcZx0bpHouLWoSvAY5HFhi60V6Xpv9/bm9PCGdsr4nd85mNsm50WEO+S\njw8+HGr75shoDPBt7kPo+YluYD/RnWGEqFKHKSU1lLW6HFmqWYW54AADHX6i4/Fm\nyA0ayIKvvhI8DOmieJdstMmorL5O5XUlBvGQyn5hPIE7CgJyqX/7zjp9JNR0orGG\n/b9P9V0bfBTOGYx0rpQ2SBXavaHlN4Yd0doiNhbuu8eBWD84bW7cSftPJwpjLQAU\n8suPFfKGJf9pWIoxwJf9rxTlBTkgo6/v5piHP0mJ06BLxo79snyCTPjSYJlUZL8F\n8zAcTDZXHrIcRF6NSxSljhQhwqHV3QI5yTDla9N9ZLrKhJBCex9tErd6u7a0Fn2U\n0h0zuufd8TEVQoduyPheiz2OYTS64Mf3AKtg0jo1jVlJV6hk3lqUhNjP6VhRrd2k\nKlVpdauxqrWNrWzD\n=LICA\n-----END PGP SIGNATURE-----"
      },
      "parents": [
        {
          "url": "https://api.github.com/repos/bitcoin/bitcoin/git/commits/22139f6e83a2bedd2dad9f280567d2c76c54252f",
          "sha": "22139f6e83a2bedd2dad9f280567d2c76c54252f",
          "html_url": "https://github.com/bitcoin/bitcoin/commit/22139f6e83a2bedd2dad9f280567d2c76c54252f"
        }
      ],
      "message": "http: Use new max connection limit from libevent 2.2",
      "committer": {
        "name": "Fabian Jahr",
        "email": "fjahr@protonmail.com",
        "date": "2023-05-23T23:11:16Z"
      },
      "author": {
        "name": "Fabian Jahr",
        "email": "fjahr@protonmail.com",
        "date": "2023-05-23T15:46:45Z"
      },
      "sha": "a0eed5d459e4f71406325f5e4edb1227fb937e95"
    },
    {
      "event": "committed",
      "id": null,
      "node_id": "C_kwDOABII59oAKDhiMGQ2NGQ4MzFlNmFkNjhmNTk2NjlhYWQwOTc0MjdlOTRiMDJmNmU",
      "url": "https://api.github.com/repos/bitcoin/bitcoin/git/commits/8b0d64d831e6ad68f59669aad097427e94b02f6e",
      "actor": null,
      "commit_id": null,
      "commit_url": null,
      "created_at": null,
      "html_url": "https://github.com/bitcoin/bitcoin/commit/8b0d64d831e6ad68f59669aad097427e94b02f6e",
      "tree": {
        "sha": "aa2f8ba93c97b9058ea545a826603fd27a67d6d6",
        "url": "https://api.github.com/repos/bitcoin/bitcoin/git/trees/aa2f8ba93c97b9058ea545a826603fd27a67d6d6"
      },
      "verification": {
        "verified": true,
        "reason": "valid",
        "payload": "tree aa2f8ba93c97b9058ea545a826603fd27a67d6d6\nparent a0eed5d459e4f71406325f5e4edb1227fb937e95\nauthor Fabian Jahr <fjahr@protonmail.com> 1684883408 +0200\ncommitter Fabian Jahr <fjahr@protonmail.com> 1684883531 +0200\n\ndoc: Update limitations sections in RPC and REST interface docs\n",
        "signature": "-----BEGIN PGP SIGNATURE-----\nComment: GPGTools - https://gpgtools.org\n\niQJJBAABCgAzFiEEtFq20ghhrCHSdrgm8T0enYkHmM0FAmRtSEsVHGZqYWhyQHBy\nb3Rvbm1haWwuY29tAAoJEPE9Hp2JB5jNPFQQAJ5ZnEhXblu0/s0ei7G0ojo5mQhd\n6m1+6LD9fdKv1GGG+779GYLEXP91MpMYV+6cEt6bck/s+A9OfzMvsJ7UEgE9NXh6\n+XO0+gwDYQZ8G7OggIjvBCgaBEeGV5JGie3KxqqFfHiYg26vY1vzmyDkb4ZlKFEb\nCQ0ZakIIN92yd8boEFfNa15I63SKu0YyEEknz8BPEAdmsrPaZsuXr/GXkG8CxTZB\nTr18KjBXbAlamFhQmkxDCW4jTm+OxoGgMJ3EAlMn4oT3Z8F9IsgJNtzCZR/OByDc\nSngQ2NzvTZ0jIjfctxr6Jf3SBf7O/JtsQSdVZg9omvMzS3tYcptd/Tsnjlj/Chuk\naGlwf1TLTM31gNQREO7pWozzmTtBPjp9RlekCtz9kVXf71CPTPS+5M8ygqLyvP+v\ne6MeoRdvlK2QhQxXWRRoZzGRmNRTD70cLLQ2XER9b+KMUHMACO+/gHVe8zqNB47s\n5kcVBlAU8wT+dGEj0j73sl3T94NT34qexvTPvkVrxYG8KHvoqivjtP+XN6yGevdf\nCdmgfaP1/b3DymqbBOASLsRXOCgz6cScrh/p/Oqe5WTP7nPXXxpcdjv+SQ23l1KZ\nSBG57QQiTYFk7DoSwodAhU5DyeDOzl4JZPJvekvI7SKFcUndfq81sNWMVwlrOh0g\n8uMJjwUZq9i52LJh\n=edNT\n-----END PGP SIGNATURE-----"
      },
      "parents": [
        {
          "url": "https://api.github.com/repos/bitcoin/bitcoin/git/commits/a0eed5d459e4f71406325f5e4edb1227fb937e95",
          "sha": "a0eed5d459e4f71406325f5e4edb1227fb937e95",
          "html_url": "https://github.com/bitcoin/bitcoin/commit/a0eed5d459e4f71406325f5e4edb1227fb937e95"
        }
      ],
      "message": "doc: Update limitations sections in RPC and REST interface docs",
      "committer": {
        "name": "Fabian Jahr",
        "email": "fjahr@protonmail.com",
        "date": "2023-05-23T23:12:11Z"
      },
      "author": {
        "name": "Fabian Jahr",
        "email": "fjahr@protonmail.com",
        "date": "2023-05-23T23:10:08Z"
      },
      "sha": "8b0d64d831e6ad68f59669aad097427e94b02f6e"
    },
    {
      "event": "commented",
      "id": 1560248908,
      "node_id": "IC_kwDOABII585c_4JM",
      "url": "https://api.github.com/repos/bitcoin/bitcoin/issues/comments/1560248908",
      "actor": {
        "login": "DrahtBot",
        "id": 39886733,
        "node_id": "MDQ6VXNlcjM5ODg2NzMz",
        "avatar_url": "https://avatars.githubusercontent.com/u/39886733?v=4",
        "gravatar_id": "",
        "url": "https://api.github.com/users/DrahtBot",
        "html_url": "https://github.com/DrahtBot",
        "followers_url": "https://api.github.com/users/DrahtBot/followers",
        "following_url": "https://api.github.com/users/DrahtBot/following%7B/other_user%7D",
        "gists_url": "https://api.github.com/users/DrahtBot/gists%7B/gist_id%7D",
        "starred_url": "https://api.github.com/users/DrahtBot/starred%7B/owner%7D%7B/repo%7D",
        "subscriptions_url": "https://api.github.com/users/DrahtBot/subscriptions",
        "organizations_url": "https://api.github.com/users/DrahtBot/orgs",
        "repos_url": "https://api.github.com/users/DrahtBot/repos",
        "events_url": "https://api.github.com/users/DrahtBot/events%7B/privacy%7D",
        "received_events_url": "https://api.github.com/users/DrahtBot/received_events",
        "type": "User",
        "site_admin": false
      },
      "commit_id": null,
      "commit_url": null,
      "created_at": "2023-05-23T23:20:22Z",
      "updated_at": "2023-08-13T04:28:59Z",
      "author_association": "CONTRIBUTOR",
      "body": "<!--e57a25ab6845829454e8d69fc972939a-->\n\nThe following sections might be updated with supplementary metadata relevant to reviewers and maintainers.\n\n<!--021abf342d371248e50ceaed478a90ca-->\n### Reviews\nSee [the guideline](https://github.com/bitcoin/bitcoin/blob/master/CONTRIBUTING.md#code-review) for information on the review process.\nA summary of reviews will appear here.\n<!--174a7506f384e20aa4161008e828411d-->\n### Conflicts\nNo conflicts as of last run.\n",
      "user": {
        "login": "DrahtBot",
        "id": 39886733,
        "node_id": "MDQ6VXNlcjM5ODg2NzMz",
        "avatar_url": "https://avatars.githubusercontent.com/u/39886733?v=4",
        "gravatar_id": "",
        "url": "https://api.github.com/users/DrahtBot",
        "html_url": "https://github.com/DrahtBot",
        "followers_url": "https://api.github.com/users/DrahtBot/followers",
        "following_url": "https://api.github.com/users/DrahtBot/following%7B/other_user%7D",
        "gists_url": "https://api.github.com/users/DrahtBot/gists%7B/gist_id%7D",
        "starred_url": "https://api.github.com/users/DrahtBot/starred%7B/owner%7D%7B/repo%7D",
        "subscriptions_url": "https://api.github.com/users/DrahtBot/subscriptions",
        "organizations_url": "https://api.github.com/users/DrahtBot/orgs",
        "repos_url": "https://api.github.com/users/DrahtBot/repos",
        "events_url": "https://api.github.com/users/DrahtBot/events%7B/privacy%7D",
        "received_events_url": "https://api.github.com/users/DrahtBot/received_events",
        "type": "User",
        "site_admin": false
      },
      "html_url": "https://github.com/bitcoin/bitcoin/pull/27731#issuecomment-1560248908",
      "issue_url": "https://api.github.com/repos/bitcoin/bitcoin/issues/27731"
    },
    {
      "event": "cross-referenced",
      "id": null,
      "node_id": null,
      "url": null,
      "actor": {
        "login": "fjahr",
        "id": 1322187,
        "node_id": "MDQ6VXNlcjEzMjIxODc=",
        "avatar_url": "https://avatars.githubusercontent.com/u/1322187?v=4",
        "gravatar_id": "",
        "url": "https://api.github.com/users/fjahr",
        "html_url": "https://github.com/fjahr",
        "followers_url": "https://api.github.com/users/fjahr/followers",
        "following_url": "https://api.github.com/users/fjahr/following%7B/other_user%7D",
        "gists_url": "https://api.github.com/users/fjahr/gists%7B/gist_id%7D",
        "starred_url": "https://api.github.com/users/fjahr/starred%7B/owner%7D%7B/repo%7D",
        "subscriptions_url": "https://api.github.com/users/fjahr/subscriptions",
        "organizations_url": "https://api.github.com/users/fjahr/orgs",
        "repos_url": "https://api.github.com/users/fjahr/repos",
        "events_url": "https://api.github.com/users/fjahr/events%7B/privacy%7D",
        "received_events_url": "https://api.github.com/users/fjahr/received_events",
        "type": "User",
        "site_admin": false
      },
      "commit_id": null,
      "commit_url": null,
      "created_at": "2023-05-23T23:28:00Z",
      "updated_at": "2023-05-23T23:28:00Z",
      "source": {
        "issue": {
          "id": 258769262,
          "node_id": "MDU6SXNzdWUyNTg3NjkyNjI=",
          "url": "https://api.github.com/repos/bitcoin/bitcoin/issues/11368",
          "repository_url": "https://api.github.com/repos/bitcoin/bitcoin",
          "labels_url": "https://api.github.com/repos/bitcoin/bitcoin/issues/11368/labels%7B/name%7D",
          "comments_url": "https://api.github.com/repos/bitcoin/bitcoin/issues/11368/comments",
          "events_url": "https://api.github.com/repos/bitcoin/bitcoin/issues/11368/events",
          "html_url": "https://github.com/bitcoin/bitcoin/issues/11368",
          "number": 11368,
          "state": "open",
          "state_reason": null,
          "title": "bitcoin core crashes when too many rpc calls are made",
          "body": "### Describe the issue\r\nbitcoin-core crashes after too many rpc calls done.\r\n### Can you reliably reproduce the issue?\r\n#### If so, please list the steps to reproduce below:\r\n1. listen on zeromq 'rawtx' event.\r\n2. make an rpc request (getrawtransaction) for every transactions input\r\n3. wait a while\r\n4. when a new block comes bitcoin-core crashes with database IO failure. \r\n\r\nIncreasing the rpcqueue in config does not solve the issue, but delays crash\r\nWhen bitcoin-core's nofiles limit (increased with prlimit) got increased to 8192 it seems to be stable, but maybe it is just a function of time to make it crash.\r\n\r\n### Expected behaviour\r\nI would expect I get a queue full error (as I get), but core will not crash, just my requests will time out\r\n\r\n### Actual behaviour\r\ncore crashes with IO database error when a new block arrives. When checking fd's for bitcoin it is normaly aroun 300, after a while it spikes to more than 1000 and bitcoind crashes. If the rpc gets queried while bitcoind is starting and is not in sync, or a new block arrives it crashes almost immediately.\r\n\r\n### What version of bitcoin-core are you using?\r\nhappened on 0.14.2, 0.15.0.rc3, 0.15.0, 0.15.0.1 - did not test others\r\n\r\n### Machine specs:\r\ntrid on 2 computers a laptop and armhf based odroid xu4 , runing linux. Happened on both. \r\n\r\n",
          "user": {
            "login": "KanoczTomas",
            "id": 15045051,
            "node_id": "MDQ6VXNlcjE1MDQ1MDUx",
            "avatar_url": "https://avatars.githubusercontent.com/u/15045051?v=4",
            "gravatar_id": "",
            "url": "https://api.github.com/users/KanoczTomas",
            "html_url": "https://github.com/KanoczTomas",
            "followers_url": "https://api.github.com/users/KanoczTomas/followers",
            "following_url": "https://api.github.com/users/KanoczTomas/following%7B/other_user%7D",
            "gists_url": "https://api.github.com/users/KanoczTomas/gists%7B/gist_id%7D",
            "starred_url": "https://api.github.com/users/KanoczTomas/starred%7B/owner%7D%7B/repo%7D",
            "subscriptions_url": "https://api.github.com/users/KanoczTomas/subscriptions",
            "organizations_url": "https://api.github.com/users/KanoczTomas/orgs",
            "repos_url": "https://api.github.com/users/KanoczTomas/repos",
            "events_url": "https://api.github.com/users/KanoczTomas/events%7B/privacy%7D",
            "received_events_url": "https://api.github.com/users/KanoczTomas/received_events",
            "type": "User",
            "site_admin": false
          },
          "labels": [
            {
              "id": 98279177,
              "node_id": "MDU6TGFiZWw5ODI3OTE3Nw==",
              "url": "https://api.github.com/repos/bitcoin/bitcoin/labels/RPC/REST/ZMQ",
              "name": "RPC/REST/ZMQ",
              "color": "0052cc",
              "default": false
            }
          ],
          "assignee": {
            "login": "willcl-ark",
            "id": 6606587,
            "node_id": "MDQ6VXNlcjY2MDY1ODc=",
            "avatar_url": "https://avatars.githubusercontent.com/u/6606587?v=4",
            "gravatar_id": "",
            "url": "https://api.github.com/users/willcl-ark",
            "html_url": "https://github.com/willcl-ark",
            "followers_url": "https://api.github.com/users/willcl-ark/followers",
            "following_url": "https://api.github.com/users/willcl-ark/following%7B/other_user%7D",
            "gists_url": "https://api.github.com/users/willcl-ark/gists%7B/gist_id%7D",
            "starred_url": "https://api.github.com/users/willcl-ark/starred%7B/owner%7D%7B/repo%7D",
            "subscriptions_url": "https://api.github.com/users/willcl-ark/subscriptions",
            "organizations_url": "https://api.github.com/users/willcl-ark/orgs",
            "repos_url": "https://api.github.com/users/willcl-ark/repos",
            "events_url": "https://api.github.com/users/willcl-ark/events%7B/privacy%7D",
            "received_events_url": "https://api.github.com/users/willcl-ark/received_events",
            "type": "User",
            "site_admin": false
          },
          "assignees": [
            {
              "login": "willcl-ark",
              "id": 6606587,
              "node_id": "MDQ6VXNlcjY2MDY1ODc=",
              "avatar_url": "https://avatars.githubusercontent.com/u/6606587?v=4",
              "gravatar_id": "",
              "url": "https://api.github.com/users/willcl-ark",
              "html_url": "https://github.com/willcl-ark",
              "followers_url": "https://api.github.com/users/willcl-ark/followers",
              "following_url": "https://api.github.com/users/willcl-ark/following%7B/other_user%7D",
              "gists_url": "https://api.github.com/users/willcl-ark/gists%7B/gist_id%7D",
              "starred_url": "https://api.github.com/users/willcl-ark/starred%7B/owner%7D%7B/repo%7D",
              "subscriptions_url": "https://api.github.com/users/willcl-ark/subscriptions",
              "organizations_url": "https://api.github.com/users/willcl-ark/orgs",
              "repos_url": "https://api.github.com/users/willcl-ark/repos",
              "events_url": "https://api.github.com/users/willcl-ark/events%7B/privacy%7D",
              "received_events_url": "https://api.github.com/users/willcl-ark/received_events",
              "type": "User",
              "site_admin": false
            },
            {
              "login": "stickies-v",
              "id": 69010457,
              "node_id": "MDQ6VXNlcjY5MDEwNDU3",
              "avatar_url": "https://avatars.githubusercontent.com/u/69010457?v=4",
              "gravatar_id": "",
              "url": "https://api.github.com/users/stickies-v",
              "html_url": "https://github.com/stickies-v",
              "followers_url": "https://api.github.com/users/stickies-v/followers",
              "following_url": "https://api.github.com/users/stickies-v/following%7B/other_user%7D",
              "gists_url": "https://api.github.com/users/stickies-v/gists%7B/gist_id%7D",
              "starred_url": "https://api.github.com/users/stickies-v/starred%7B/owner%7D%7B/repo%7D",
              "subscriptions_url": "https://api.github.com/users/stickies-v/subscriptions",
              "organizations_url": "https://api.github.com/users/stickies-v/orgs",
              "repos_url": "https://api.github.com/users/stickies-v/repos",
              "events_url": "https://api.github.com/users/stickies-v/events%7B/privacy%7D",
              "received_events_url": "https://api.github.com/users/stickies-v/received_events",
              "type": "User",
              "site_admin": false
            }
          ],
          "author_association": "NONE",
          "locked": false,
          "comments": 39,
          "created_at": "2017-09-19T10:19:03Z",
          "updated_at": "2023-05-24T19:19:21Z"
        },
        "type": "issue"
      }
    },
    {
      "event": "unsubscribed",
      "id": 9323148807,
      "node_id": "UE_lADOABII585msckVzwAAAAIrs_YH",
      "url": "https://api.github.com/repos/bitcoin/bitcoin/issues/events/9323148807",
      "actor": {
        "login": "joostjager",
        "id": 4638168,
        "node_id": "MDQ6VXNlcjQ2MzgxNjg=",
        "avatar_url": "https://avatars.githubusercontent.com/u/4638168?v=4",
        "gravatar_id": "",
        "url": "https://api.github.com/users/joostjager",
        "html_url": "https://github.com/joostjager",
        "followers_url": "https://api.github.com/users/joostjager/followers",
        "following_url": "https://api.github.com/users/joostjager/following%7B/other_user%7D",
        "gists_url": "https://api.github.com/users/joostjager/gists%7B/gist_id%7D",
        "starred_url": "https://api.github.com/users/joostjager/starred%7B/owner%7D%7B/repo%7D",
        "subscriptions_url": "https://api.github.com/users/joostjager/subscriptions",
        "organizations_url": "https://api.github.com/users/joostjager/orgs",
        "repos_url": "https://api.github.com/users/joostjager/repos",
        "events_url": "https://api.github.com/users/joostjager/events%7B/privacy%7D",
        "received_events_url": "https://api.github.com/users/joostjager/received_events",
        "type": "User",
        "site_admin": false
      },
      "commit_id": null,
      "commit_url": null,
      "created_at": "2023-05-24T05:38:00Z"
    },
    {
      "event": "reviewed",
      "id": 1441456405,
      "node_id": "PRR_kwDOABII585V6uEV",
      "url": null,
      "actor": null,
      "commit_id": "8b0d64d831e6ad68f59669aad097427e94b02f6e",
      "commit_url": null,
      "created_at": null,
      "author_association": "CONTRIBUTOR",
      "body": "",
      "user": {
        "login": "willcl-ark",
        "id": 6606587,
        "node_id": "MDQ6VXNlcjY2MDY1ODc=",
        "avatar_url": "https://avatars.githubusercontent.com/u/6606587?v=4",
        "gravatar_id": "",
        "url": "https://api.github.com/users/willcl-ark",
        "html_url": "https://github.com/willcl-ark",
        "followers_url": "https://api.github.com/users/willcl-ark/followers",
        "following_url": "https://api.github.com/users/willcl-ark/following%7B/other_user%7D",
        "gists_url": "https://api.github.com/users/willcl-ark/gists%7B/gist_id%7D",
        "starred_url": "https://api.github.com/users/willcl-ark/starred%7B/owner%7D%7B/repo%7D",
        "subscriptions_url": "https://api.github.com/users/willcl-ark/subscriptions",
        "organizations_url": "https://api.github.com/users/willcl-ark/orgs",
        "repos_url": "https://api.github.com/users/willcl-ark/repos",
        "events_url": "https://api.github.com/users/willcl-ark/events%7B/privacy%7D",
        "received_events_url": "https://api.github.com/users/willcl-ark/received_events",
        "type": "User",
        "site_admin": false
      },
      "html_url": "https://github.com/bitcoin/bitcoin/pull/27731#pullrequestreview-1441456405",
      "submitted_at": "2023-05-24T10:10:21Z",
      "state": "COMMENTED",
      "pull_request_url": "https://api.github.com/repos/bitcoin/bitcoin/pulls/27731"
    },
    {
      "event": "reviewed",
      "id": 1496263330,
      "node_id": "PRR_kwDOABII585ZLyqi",
      "url": null,
      "actor": null,
      "commit_id": "8b0d64d831e6ad68f59669aad097427e94b02f6e",
      "commit_url": null,
      "created_at": null,
      "author_association": "MEMBER",
      "user": {
        "login": "luke-jr",
        "id": 1095675,
        "node_id": "MDQ6VXNlcjEwOTU2NzU=",
        "avatar_url": "https://avatars.githubusercontent.com/u/1095675?v=4",
        "gravatar_id": "",
        "url": "https://api.github.com/users/luke-jr",
        "html_url": "https://github.com/luke-jr",
        "followers_url": "https://api.github.com/users/luke-jr/followers",
        "following_url": "https://api.github.com/users/luke-jr/following%7B/other_user%7D",
        "gists_url": "https://api.github.com/users/luke-jr/gists%7B/gist_id%7D",
        "starred_url": "https://api.github.com/users/luke-jr/starred%7B/owner%7D%7B/repo%7D",
        "subscriptions_url": "https://api.github.com/users/luke-jr/subscriptions",
        "organizations_url": "https://api.github.com/users/luke-jr/orgs",
        "repos_url": "https://api.github.com/users/luke-jr/repos",
        "events_url": "https://api.github.com/users/luke-jr/events%7B/privacy%7D",
        "received_events_url": "https://api.github.com/users/luke-jr/received_events",
        "type": "User",
        "site_admin": false
      },
      "html_url": "https://github.com/bitcoin/bitcoin/pull/27731#pullrequestreview-1496263330",
      "submitted_at": "2023-06-24T01:06:56Z",
      "state": "COMMENTED",
      "pull_request_url": "https://api.github.com/repos/bitcoin/bitcoin/pulls/27731"
    },
    {
      "event": "cross-referenced",
      "id": null,
      "node_id": null,
      "url": null,
      "actor": {
        "login": "DrahtBot",
        "id": 39886733,
        "node_id": "MDQ6VXNlcjM5ODg2NzMz",
        "avatar_url": "https://avatars.githubusercontent.com/u/39886733?v=4",
        "gravatar_id": "",
        "url": "https://api.github.com/users/DrahtBot",
        "html_url": "https://github.com/DrahtBot",
        "followers_url": "https://api.github.com/users/DrahtBot/followers",
        "following_url": "https://api.github.com/users/DrahtBot/following%7B/other_user%7D",
        "gists_url": "https://api.github.com/users/DrahtBot/gists%7B/gist_id%7D",
        "starred_url": "https://api.github.com/users/DrahtBot/starred%7B/owner%7D%7B/repo%7D",
        "subscriptions_url": "https://api.github.com/users/DrahtBot/subscriptions",
        "organizations_url": "https://api.github.com/users/DrahtBot/orgs",
        "repos_url": "https://api.github.com/users/DrahtBot/repos",
        "events_url": "https://api.github.com/users/DrahtBot/events%7B/privacy%7D",
        "received_events_url": "https://api.github.com/users/DrahtBot/received_events",
        "type": "User",
        "site_admin": false
      },
      "commit_id": null,
      "commit_url": null,
      "created_at": "2023-08-09T17:17:12Z",
      "updated_at": "2023-08-09T17:17:12Z",
      "source": {
        "issue": {
          "id": 1842998598,
          "node_id": "PR_kwDOABII585XhgH-",
          "url": "https://api.github.com/repos/bitcoin/bitcoin/issues/28243",
          "repository_url": "https://api.github.com/repos/bitcoin/bitcoin",
          "labels_url": "https://api.github.com/repos/bitcoin/bitcoin/issues/28243/labels%7B/name%7D",
          "comments_url": "https://api.github.com/repos/bitcoin/bitcoin/issues/28243/comments",
          "events_url": "https://api.github.com/repos/bitcoin/bitcoin/issues/28243/events",
          "html_url": "https://github.com/bitcoin/bitcoin/pull/28243",
          "number": 28243,
          "state": "closed",
          "state_reason": null,
          "title": "doc: Use GitHub's \"Alert\" markdown syntax",
          "body": "GH has introduced new \"Alert\" syntax for md files (a.k.a \"Admonitions\" in other languages).\r\n\r\nWhilst being wary of changing documentation just for the sake of \"shiny\" new features, in my opinion this is worthwhile in this case as we can use it to draw user attention to particularly important sections of docs.\r\n\r\nThe format is relatively backwards-compatible (i.e outside of GH), as the syntax is effectively a multi-block quotation, where the first line includes the alert type. This means the text still renders fine outside of GH, but is improved on GH. Samples below:\r\n\r\nGitHub render:\r\n![image](https://github.com/bitcoin/bitcoin/assets/6606587/34282644-bf21-42d8-bbe6-6f18069a3081)\r\n\r\nHackmd render:\r\n![image](https://github.com/bitcoin/bitcoin/assets/6606587/d88a98a8-e9c0-4dce-abf1-58f59de9c6a5)\r\n\r\nSee e.g. https://github.com/willcl-ark/bitcoin/blob/2023-08-gh-alerts/doc/managing-wallets.md for a doc containing a few alerts.\r\n\r\nOpening as draft for now to see if others would consider such a change worthwhile, not interested in bike-shedding over which alert level is used where, for now :) But for reference GH provides [documentation](https://docs.github.com/en/get-started/writing-on-github/getting-started-with-writing-and-formatting-on-github/basic-writing-and-formatting-syntax#alerts) with _their_ recommended usage of alert levels, which I did try to roughly use in this draft. \r\n\r\n",
          "user": {
            "login": "willcl-ark",
            "id": 6606587,
            "node_id": "MDQ6VXNlcjY2MDY1ODc=",
            "avatar_url": "https://avatars.githubusercontent.com/u/6606587?v=4",
            "gravatar_id": "",
            "url": "https://api.github.com/users/willcl-ark",
            "html_url": "https://github.com/willcl-ark",
            "followers_url": "https://api.github.com/users/willcl-ark/followers",
            "following_url": "https://api.github.com/users/willcl-ark/following%7B/other_user%7D",
            "gists_url": "https://api.github.com/users/willcl-ark/gists%7B/gist_id%7D",
            "starred_url": "https://api.github.com/users/willcl-ark/starred%7B/owner%7D%7B/repo%7D",
            "subscriptions_url": "https://api.github.com/users/willcl-ark/subscriptions",
            "organizations_url": "https://api.github.com/users/willcl-ark/orgs",
            "repos_url": "https://api.github.com/users/willcl-ark/repos",
            "events_url": "https://api.github.com/users/willcl-ark/events%7B/privacy%7D",
            "received_events_url": "https://api.github.com/users/willcl-ark/received_events",
            "type": "User",
            "site_admin": false
          },
          "labels": [
            {
              "id": 148216,
              "node_id": "MDU6TGFiZWwxNDgyMTY=",
              "url": "https://api.github.com/repos/bitcoin/bitcoin/labels/Docs",
              "name": "Docs",
              "color": "02d7e1",
              "default": false
            }
          ],
          "assignees": [],
          "author_association": "CONTRIBUTOR",
          "locked": false,
          "comments": 5,
          "pull_request": {
            "url": "https://api.github.com/repos/bitcoin/bitcoin/pulls/28243",
            "html_url": "https://github.com/bitcoin/bitcoin/pull/28243",
            "diff_url": "https://github.com/bitcoin/bitcoin/pull/28243.diff",
            "patch_url": "https://github.com/bitcoin/bitcoin/pull/28243.patch"
          },
          "closed_at": "2023-08-12T08:36:21Z",
          "created_at": "2023-08-09T11:05:20Z",
          "updated_at": "2023-08-12T08:36:21Z"
        },
        "type": "issue"
      }
    },
    {
      "event": "reviewed",
      "id": 1629487917,
      "node_id": "PRR_kwDOABII585hIAMt",
      "url": null,
      "actor": null,
      "commit_id": "8b0d64d831e6ad68f59669aad097427e94b02f6e",
      "commit_url": null,
      "created_at": null,
      "author_association": "MEMBER",
      "user": {
        "login": "luke-jr",
        "id": 1095675,
        "node_id": "MDQ6VXNlcjEwOTU2NzU=",
        "avatar_url": "https://avatars.githubusercontent.com/u/1095675?v=4",
        "gravatar_id": "",
        "url": "https://api.github.com/users/luke-jr",
        "html_url": "https://github.com/luke-jr",
        "followers_url": "https://api.github.com/users/luke-jr/followers",
        "following_url": "https://api.github.com/users/luke-jr/following%7B/other_user%7D",
        "gists_url": "https://api.github.com/users/luke-jr/gists%7B/gist_id%7D",
        "starred_url": "https://api.github.com/users/luke-jr/starred%7B/owner%7D%7B/repo%7D",
        "subscriptions_url": "https://api.github.com/users/luke-jr/subscriptions",
        "organizations_url": "https://api.github.com/users/luke-jr/orgs",
        "repos_url": "https://api.github.com/users/luke-jr/repos",
        "events_url": "https://api.github.com/users/luke-jr/events%7B/privacy%7D",
        "received_events_url": "https://api.github.com/users/luke-jr/received_events",
        "type": "User",
        "site_admin": false
      },
      "html_url": "https://github.com/bitcoin/bitcoin/pull/27731#pullrequestreview-1629487917",
      "submitted_at": "2023-09-15T18:08:24Z",
      "state": "COMMENTED",
      "pull_request_url": "https://api.github.com/repos/bitcoin/bitcoin/pulls/27731"
    },
    {
      "event": "labeled",
      "id": 10765668741,
      "node_id": "LE_lADOABII585msckVzwAAAAKBrxGF",
      "url": "https://api.github.com/repos/bitcoin/bitcoin/issues/events/10765668741",
      "actor": {
        "login": "DrahtBot",
        "id": 39886733,
        "node_id": "MDQ6VXNlcjM5ODg2NzMz",
        "avatar_url": "https://avatars.githubusercontent.com/u/39886733?v=4",
        "gravatar_id": "",
        "url": "https://api.github.com/users/DrahtBot",
        "html_url": "https://github.com/DrahtBot",
        "followers_url": "https://api.github.com/users/DrahtBot/followers",
        "following_url": "https://api.github.com/users/DrahtBot/following%7B/other_user%7D",
        "gists_url": "https://api.github.com/users/DrahtBot/gists%7B/gist_id%7D",
        "starred_url": "https://api.github.com/users/DrahtBot/starred%7B/owner%7D%7B/repo%7D",
        "subscriptions_url": "https://api.github.com/users/DrahtBot/subscriptions",
        "organizations_url": "https://api.github.com/users/DrahtBot/orgs",
        "repos_url": "https://api.github.com/users/DrahtBot/repos",
        "events_url": "https://api.github.com/users/DrahtBot/events%7B/privacy%7D",
        "received_events_url": "https://api.github.com/users/DrahtBot/received_events",
        "type": "User",
        "site_admin": false
      },
      "commit_id": null,
      "commit_url": null,
      "created_at": "2023-10-25T10:57:53Z",
      "label": {
        "name": "CI failed",
        "color": "cccccc"
      }
    }
  ],
  "comments": [
    {
      "url": "https://api.github.com/repos/bitcoin/bitcoin/pulls/comments/1203840774",
      "pull_request_review_id": 1441456405,
      "id": 1203840774,
      "node_id": "PRRC_kwDOABII585HwScG",
      "diff_hunk": "@@ -419,6 +419,15 @@ bool InitHTTPServer()\n     int workQueueDepth = std::max((long)gArgs.GetIntArg(\"-rpcworkqueue\", DEFAULT_HTTP_WORKQUEUE), 1L);\n     LogPrintfCategory(BCLog::HTTP, \"creating work queue of depth %d\\n\", workQueueDepth);\n \n+#if LIBEVENT_VERSION_NUMBER >= 0x02020001\n+    if (event_get_version_number() >= 0x02020001) {\n+        // Limit the maximum number of open connections to prevent exhausting\n+        // the file descriptor limit. When the http server gets overwhelmed it\n+        // will respond with 503 Service Unavailable.\n+        evhttp_set_max_connections(http, workQueueDepth * 2);",
      "path": "src/httpserver.cpp",
      "position": 9,
      "original_position": 9,
      "commit_id": "8b0d64d831e6ad68f59669aad097427e94b02f6e",
      "original_commit_id": "a0eed5d459e4f71406325f5e4edb1227fb937e95",
      "in_reply_to_id": null,
      "user": {
        "login": "willcl-ark",
        "id": 6606587,
        "node_id": "MDQ6VXNlcjY2MDY1ODc=",
        "avatar_url": "https://avatars.githubusercontent.com/u/6606587?v=4",
        "gravatar_id": "",
        "url": "https://api.github.com/users/willcl-ark",
        "html_url": "https://github.com/willcl-ark",
        "followers_url": "https://api.github.com/users/willcl-ark/followers",
        "following_url": "https://api.github.com/users/willcl-ark/following%7B/other_user%7D",
        "gists_url": "https://api.github.com/users/willcl-ark/gists%7B/gist_id%7D",
        "starred_url": "https://api.github.com/users/willcl-ark/starred%7B/owner%7D%7B/repo%7D",
        "subscriptions_url": "https://api.github.com/users/willcl-ark/subscriptions",
        "organizations_url": "https://api.github.com/users/willcl-ark/orgs",
        "repos_url": "https://api.github.com/users/willcl-ark/repos",
        "events_url": "https://api.github.com/users/willcl-ark/events%7B/privacy%7D",
        "received_events_url": "https://api.github.com/users/willcl-ark/received_events",
        "type": "User",
        "site_admin": false
      },
      "body": "I am not sure this actually limits us within the file descriptor limit. For example if you run:\r\n\r\n```bash\r\n$ ulimit -n 175\r\n$ src/bitcoind\r\nWarning: Reducing -maxconnections from 125 to 15, because of system limitations.\r\nBitcoin Core starting\r\n```\r\n\r\nI think (but have not tested) that if I then recieve 15 inbound connections I would could still run out of file descriptors for the http server?\r\n\r\nPerhaps if we also modify this line:\r\n\r\nhttps://github.com/bitcoin/bitcoin/blob/51c050787fd6bcd016969dd7e245818ebd110b67/src/init.cpp#L943\r\n\r\n...to consider the workqueue depth too, then it could work?",
      "created_at": "2023-05-24T10:09:39Z",
      "updated_at": "2023-05-24T10:10:22Z",
      "html_url": "https://github.com/bitcoin/bitcoin/pull/27731#discussion_r1203840774",
      "author_association": "CONTRIBUTOR",
      "_links": {
        "self": {
          "href": "https://api.github.com/repos/bitcoin/bitcoin/pulls/comments/1203840774"
        },
        "pull_request": {
          "href": "https://api.github.com/repos/bitcoin/bitcoin/pulls/27731"
        }
      },
      "start_line": null,
      "original_start_line": null,
      "start_side": null,
      "line": 427,
      "original_line": 427,
      "side": "RIGHT"
    },
    {
      "url": "https://api.github.com/repos/bitcoin/bitcoin/pulls/comments/1203996100",
      "pull_request_review_id": 1441673075,
      "id": 1203996100,
      "node_id": "PRRC_kwDOABII585Hw4XE",
      "diff_hunk": "@@ -419,6 +419,15 @@ bool InitHTTPServer()\n     int workQueueDepth = std::max((long)gArgs.GetIntArg(\"-rpcworkqueue\", DEFAULT_HTTP_WORKQUEUE), 1L);\n     LogPrintfCategory(BCLog::HTTP, \"creating work queue of depth %d\\n\", workQueueDepth);\n \n+#if LIBEVENT_VERSION_NUMBER >= 0x02020001\n+    if (event_get_version_number() >= 0x02020001) {\n+        // Limit the maximum number of open connections to prevent exhausting\n+        // the file descriptor limit. When the http server gets overwhelmed it\n+        // will respond with 503 Service Unavailable.\n+        evhttp_set_max_connections(http, workQueueDepth * 2);",
      "path": "src/httpserver.cpp",
      "position": 9,
      "original_position": 9,
      "commit_id": "8b0d64d831e6ad68f59669aad097427e94b02f6e",
      "original_commit_id": "a0eed5d459e4f71406325f5e4edb1227fb937e95",
      "in_reply_to_id": 1203840774,
      "user": {
        "login": "fjahr",
        "id": 1322187,
        "node_id": "MDQ6VXNlcjEzMjIxODc=",
        "avatar_url": "https://avatars.githubusercontent.com/u/1322187?v=4",
        "gravatar_id": "",
        "url": "https://api.github.com/users/fjahr",
        "html_url": "https://github.com/fjahr",
        "followers_url": "https://api.github.com/users/fjahr/followers",
        "following_url": "https://api.github.com/users/fjahr/following%7B/other_user%7D",
        "gists_url": "https://api.github.com/users/fjahr/gists%7B/gist_id%7D",
        "starred_url": "https://api.github.com/users/fjahr/starred%7B/owner%7D%7B/repo%7D",
        "subscriptions_url": "https://api.github.com/users/fjahr/subscriptions",
        "organizations_url": "https://api.github.com/users/fjahr/orgs",
        "repos_url": "https://api.github.com/users/fjahr/repos",
        "events_url": "https://api.github.com/users/fjahr/events%7B/privacy%7D",
        "received_events_url": "https://api.github.com/users/fjahr/received_events",
        "type": "User",
        "site_admin": false
      },
      "body": "Yeah, I think it will be hard to find a number where there isn't a specific limit and specific circumstances that would still cause problems. If we set the limit dynamically based on what's really available there would be a range where we would effectively set `evhttp_set_max_connections(http, 0);` which would probably mean that we couldn't even shut down the server via the RPC interface.\r\n\r\nWhen the maxconnections are reduced to 15 that doesn't mean that there are only 15 file descriptors left. There are more reserved than are not always needed. But that part of the code certainly could use improvement, see #27539 and #27730. I think making changes to the maxconnections calculation is not necessarily linked to this change here because it could reduce the risk of running out of FDs regardless. Also, note that the node will even start if you set `ulimit -n 150` and it have maxconnection at 0. So that is another question to discuss if that even makes sense. Because if we alter the calculation of maxconnections but still let the node run regardless of what the result is, we haven't really prevented the file descriptor exhaustion completely. And it may be too limiting on the other hand if we set the requirements of available file descriptors so high that we can absolutely be sure the node will not encounter an exhaustion under any circumstances.\r\n\r\nSo, I am not sure what would be the optimal number to use. I think we can still tweak this later so it covers the most common use cases best. What I am currently concerned about is if this actually improves the situation in #11368 for the default file descriptor limits in the most commonly used OS. macOS was among the lowest as far as I remember and it was 256 usually I think. So I am currently aiming at showing that it's an improvement for that. But I do struggle to reproduce the original issue on my new machine right now so I am not 100% sure anymore if this actually needs fixing. Though I am on a different machine now than I was back then.",
      "created_at": "2023-05-24T12:06:12Z",
      "updated_at": "2023-05-24T12:06:12Z",
      "html_url": "https://github.com/bitcoin/bitcoin/pull/27731#discussion_r1203996100",
      "author_association": "CONTRIBUTOR",
      "_links": {
        "self": {
          "href": "https://api.github.com/repos/bitcoin/bitcoin/pulls/comments/1203996100"
        },
        "pull_request": {
          "href": "https://api.github.com/repos/bitcoin/bitcoin/pulls/27731"
        }
      },
      "start_line": null,
      "original_start_line": null,
      "start_side": null,
      "line": 427,
      "original_line": 427,
      "side": "RIGHT"
    },
    {
      "url": "https://api.github.com/repos/bitcoin/bitcoin/pulls/comments/1240557560",
      "pull_request_review_id": 1496263330,
      "id": 1240557560,
      "node_id": "PRRC_kwDOABII585J8Wf4",
      "diff_hunk": "@@ -419,6 +419,15 @@ bool InitHTTPServer()\n     int workQueueDepth = std::max((long)gArgs.GetIntArg(\"-rpcworkqueue\", DEFAULT_HTTP_WORKQUEUE), 1L);\n     LogPrintfCategory(BCLog::HTTP, \"creating work queue of depth %d\\n\", workQueueDepth);\n \n+#if LIBEVENT_VERSION_NUMBER >= 0x02020001\n+    if (event_get_version_number() >= 0x02020001) {",
      "path": "src/httpserver.cpp",
      "position": 5,
      "original_position": 5,
      "commit_id": "8b0d64d831e6ad68f59669aad097427e94b02f6e",
      "original_commit_id": "8b0d64d831e6ad68f59669aad097427e94b02f6e",
      "in_reply_to_id": null,
      "user": {
        "login": "luke-jr",
        "id": 1095675,
        "node_id": "MDQ6VXNlcjEwOTU2NzU=",
        "avatar_url": "https://avatars.githubusercontent.com/u/1095675?v=4",
        "gravatar_id": "",
        "url": "https://api.github.com/users/luke-jr",
        "html_url": "https://github.com/luke-jr",
        "followers_url": "https://api.github.com/users/luke-jr/followers",
        "following_url": "https://api.github.com/users/luke-jr/following%7B/other_user%7D",
        "gists_url": "https://api.github.com/users/luke-jr/gists%7B/gist_id%7D",
        "starred_url": "https://api.github.com/users/luke-jr/starred%7B/owner%7D%7B/repo%7D",
        "subscriptions_url": "https://api.github.com/users/luke-jr/subscriptions",
        "organizations_url": "https://api.github.com/users/luke-jr/orgs",
        "repos_url": "https://api.github.com/users/luke-jr/repos",
        "events_url": "https://api.github.com/users/luke-jr/events%7B/privacy%7D",
        "received_events_url": "https://api.github.com/users/luke-jr/received_events",
        "type": "User",
        "site_admin": false
      },
      "body": "Won't runtime linking fail to find the `evhttp_set_max_connections` symbol?",
      "created_at": "2023-06-24T01:06:56Z",
      "updated_at": "2023-06-24T01:06:57Z",
      "html_url": "https://github.com/bitcoin/bitcoin/pull/27731#discussion_r1240557560",
      "author_association": "MEMBER",
      "_links": {
        "self": {
          "href": "https://api.github.com/repos/bitcoin/bitcoin/pulls/comments/1240557560"
        },
        "pull_request": {
          "href": "https://api.github.com/repos/bitcoin/bitcoin/pulls/27731"
        }
      },
      "start_line": null,
      "original_start_line": null,
      "start_side": null,
      "line": 423,
      "original_line": 423,
      "side": "RIGHT"
    },
    {
      "url": "https://api.github.com/repos/bitcoin/bitcoin/pulls/comments/1245435268",
      "pull_request_review_id": 1503452424,
      "id": 1245435268,
      "node_id": "PRRC_kwDOABII585KO9WE",
      "diff_hunk": "@@ -419,6 +419,15 @@ bool InitHTTPServer()\n     int workQueueDepth = std::max((long)gArgs.GetIntArg(\"-rpcworkqueue\", DEFAULT_HTTP_WORKQUEUE), 1L);\n     LogPrintfCategory(BCLog::HTTP, \"creating work queue of depth %d\\n\", workQueueDepth);\n \n+#if LIBEVENT_VERSION_NUMBER >= 0x02020001\n+    if (event_get_version_number() >= 0x02020001) {",
      "path": "src/httpserver.cpp",
      "position": 5,
      "original_position": 5,
      "commit_id": "8b0d64d831e6ad68f59669aad097427e94b02f6e",
      "original_commit_id": "8b0d64d831e6ad68f59669aad097427e94b02f6e",
      "in_reply_to_id": 1240557560,
      "user": {
        "login": "fjahr",
        "id": 1322187,
        "node_id": "MDQ6VXNlcjEzMjIxODc=",
        "avatar_url": "https://avatars.githubusercontent.com/u/1322187?v=4",
        "gravatar_id": "",
        "url": "https://api.github.com/users/fjahr",
        "html_url": "https://github.com/fjahr",
        "followers_url": "https://api.github.com/users/fjahr/followers",
        "following_url": "https://api.github.com/users/fjahr/following%7B/other_user%7D",
        "gists_url": "https://api.github.com/users/fjahr/gists%7B/gist_id%7D",
        "starred_url": "https://api.github.com/users/fjahr/starred%7B/owner%7D%7B/repo%7D",
        "subscriptions_url": "https://api.github.com/users/fjahr/subscriptions",
        "organizations_url": "https://api.github.com/users/fjahr/orgs",
        "repos_url": "https://api.github.com/users/fjahr/repos",
        "events_url": "https://api.github.com/users/fjahr/events%7B/privacy%7D",
        "received_events_url": "https://api.github.com/users/fjahr/received_events",
        "type": "User",
        "site_admin": false
      },
      "body": "Hm, how would that happen? I didn't have any issues when testing this code with 2.2.1-alpha and 2.1.12-stable.",
      "created_at": "2023-06-28T15:51:49Z",
      "updated_at": "2023-06-28T15:51:49Z",
      "html_url": "https://github.com/bitcoin/bitcoin/pull/27731#discussion_r1245435268",
      "author_association": "CONTRIBUTOR",
      "_links": {
        "self": {
          "href": "https://api.github.com/repos/bitcoin/bitcoin/pulls/comments/1245435268"
        },
        "pull_request": {
          "href": "https://api.github.com/repos/bitcoin/bitcoin/pulls/27731"
        }
      },
      "start_line": null,
      "original_start_line": null,
      "start_side": null,
      "line": 423,
      "original_line": 423,
      "side": "RIGHT"
    },
    {
      "url": "https://api.github.com/repos/bitcoin/bitcoin/pulls/comments/1249842846",
      "pull_request_review_id": 1509772376,
      "id": 1249842846,
      "node_id": "PRRC_kwDOABII585Kfxae",
      "diff_hunk": "@@ -419,6 +419,15 @@ bool InitHTTPServer()\n     int workQueueDepth = std::max((long)gArgs.GetIntArg(\"-rpcworkqueue\", DEFAULT_HTTP_WORKQUEUE), 1L);\n     LogPrintfCategory(BCLog::HTTP, \"creating work queue of depth %d\\n\", workQueueDepth);\n \n+#if LIBEVENT_VERSION_NUMBER >= 0x02020001\n+    if (event_get_version_number() >= 0x02020001) {",
      "path": "src/httpserver.cpp",
      "position": 5,
      "original_position": 5,
      "commit_id": "8b0d64d831e6ad68f59669aad097427e94b02f6e",
      "original_commit_id": "8b0d64d831e6ad68f59669aad097427e94b02f6e",
      "in_reply_to_id": 1240557560,
      "user": {
        "login": "luke-jr",
        "id": 1095675,
        "node_id": "MDQ6VXNlcjEwOTU2NzU=",
        "avatar_url": "https://avatars.githubusercontent.com/u/1095675?v=4",
        "gravatar_id": "",
        "url": "https://api.github.com/users/luke-jr",
        "html_url": "https://github.com/luke-jr",
        "followers_url": "https://api.github.com/users/luke-jr/followers",
        "following_url": "https://api.github.com/users/luke-jr/following%7B/other_user%7D",
        "gists_url": "https://api.github.com/users/luke-jr/gists%7B/gist_id%7D",
        "starred_url": "https://api.github.com/users/luke-jr/starred%7B/owner%7D%7B/repo%7D",
        "subscriptions_url": "https://api.github.com/users/luke-jr/subscriptions",
        "organizations_url": "https://api.github.com/users/luke-jr/orgs",
        "repos_url": "https://api.github.com/users/luke-jr/repos",
        "events_url": "https://api.github.com/users/luke-jr/events%7B/privacy%7D",
        "received_events_url": "https://api.github.com/users/luke-jr/received_events",
        "type": "User",
        "site_admin": false
      },
      "body": "I'm thinking of the case where you build with 2.2.1, then try to run it with 2.1.12. (If that's not supported, the runtime check is unnecessary)",
      "created_at": "2023-07-02T22:26:05Z",
      "updated_at": "2023-07-02T22:26:05Z",
      "html_url": "https://github.com/bitcoin/bitcoin/pull/27731#discussion_r1249842846",
      "author_association": "MEMBER",
      "_links": {
        "self": {
          "href": "https://api.github.com/repos/bitcoin/bitcoin/pulls/comments/1249842846"
        },
        "pull_request": {
          "href": "https://api.github.com/repos/bitcoin/bitcoin/pulls/27731"
        }
      },
      "start_line": null,
      "original_start_line": null,
      "start_side": null,
      "line": 423,
      "original_line": 423,
      "side": "RIGHT"
    },
    {
      "url": "https://api.github.com/repos/bitcoin/bitcoin/pulls/comments/1327632054",
      "pull_request_review_id": 1629487917,
      "id": 1327632054,
      "node_id": "PRRC_kwDOABII585PIg62",
      "diff_hunk": "@@ -153,11 +153,8 @@ this RPC may not yet be reflected as such in this RPC response.\n \n ## Limitations\n \n-There is a known issue in the JSON-RPC interface that can cause a node to crash if\n-too many http connections are being opened at the same time because the system runs\n-out of available file descriptors. To prevent this from happening you might\n-want to increase the number of maximum allowed file descriptors in your system\n-and try to prevent opening too many connections to your JSON-RPC interface at the\n-same time if this is under your control. It is hard to give general advice\n-since this depends on your system but if you make several hundred requests at\n-once you are definitely at risk of encountering this issue.\n+When too many connections are opened quickly the interface will start to",
      "path": "doc/JSON-RPC-interface.md",
      "position": 12,
      "original_position": 12,
      "commit_id": "8b0d64d831e6ad68f59669aad097427e94b02f6e",
      "original_commit_id": "8b0d64d831e6ad68f59669aad097427e94b02f6e",
      "in_reply_to_id": null,
      "user": {
        "login": "luke-jr",
        "id": 1095675,
        "node_id": "MDQ6VXNlcjEwOTU2NzU=",
        "avatar_url": "https://avatars.githubusercontent.com/u/1095675?v=4",
        "gravatar_id": "",
        "url": "https://api.github.com/users/luke-jr",
        "html_url": "https://github.com/luke-jr",
        "followers_url": "https://api.github.com/users/luke-jr/followers",
        "following_url": "https://api.github.com/users/luke-jr/following%7B/other_user%7D",
        "gists_url": "https://api.github.com/users/luke-jr/gists%7B/gist_id%7D",
        "starred_url": "https://api.github.com/users/luke-jr/starred%7B/owner%7D%7B/repo%7D",
        "subscriptions_url": "https://api.github.com/users/luke-jr/subscriptions",
        "organizations_url": "https://api.github.com/users/luke-jr/orgs",
        "repos_url": "https://api.github.com/users/luke-jr/repos",
        "events_url": "https://api.github.com/users/luke-jr/events%7B/privacy%7D",
        "received_events_url": "https://api.github.com/users/luke-jr/received_events",
        "type": "User",
        "site_admin": false
      },
      "body": "This loses the correct docs for built-against-older-libevent",
      "created_at": "2023-09-15T18:08:24Z",
      "updated_at": "2023-09-15T18:08:24Z",
      "html_url": "https://github.com/bitcoin/bitcoin/pull/27731#discussion_r1327632054",
      "author_association": "MEMBER",
      "_links": {
        "self": {
          "href": "https://api.github.com/repos/bitcoin/bitcoin/pulls/comments/1327632054"
        },
        "pull_request": {
          "href": "https://api.github.com/repos/bitcoin/bitcoin/pulls/27731"
        }
      },
      "start_line": null,
      "original_start_line": null,
      "start_side": null,
      "line": 156,
      "original_line": 156,
      "side": "RIGHT"
    }
  ]
}