{
  "type": "pull",
  "pull": {
    "url": "https://api.github.com/repos/bitcoin/bitcoin/pulls/27730",
    "id": 1362024307,
    "node_id": "PR_kwDOABII585RLtdz",
    "html_url": "https://github.com/bitcoin/bitcoin/pull/27730",
    "diff_url": "https://github.com/bitcoin/bitcoin/pull/27730.diff",
    "patch_url": "https://github.com/bitcoin/bitcoin/pull/27730.patch",
    "issue_url": "https://api.github.com/repos/bitcoin/bitcoin/issues/27730",
    "commits_url": "https://api.github.com/repos/bitcoin/bitcoin/pulls/27730/commits",
    "review_comments_url": "https://api.github.com/repos/bitcoin/bitcoin/pulls/27730/comments",
    "review_comment_url": "https://api.github.com/repos/bitcoin/bitcoin/pulls/comments%7B/number%7D",
    "comments_url": "https://api.github.com/repos/bitcoin/bitcoin/issues/27730/comments",
    "statuses_url": "https://api.github.com/repos/bitcoin/bitcoin/statuses/88454971fc1ae80f47dd3593b75d16fbaac3067f",
    "number": 27730,
    "state": "closed",
    "locked": false,
    "maintainer_can_modify": false,
    "title": "init: Improve file descriptor limit handling",
    "user": {
      "login": "fjahr",
      "id": 1322187,
      "node_id": "MDQ6VXNlcjEzMjIxODc=",
      "avatar_url": "https://avatars.githubusercontent.com/u/1322187?v=4",
      "gravatar_id": "",
      "url": "https://api.github.com/users/fjahr",
      "html_url": "https://github.com/fjahr",
      "followers_url": "https://api.github.com/users/fjahr/followers",
      "following_url": "https://api.github.com/users/fjahr/following%7B/other_user%7D",
      "gists_url": "https://api.github.com/users/fjahr/gists%7B/gist_id%7D",
      "starred_url": "https://api.github.com/users/fjahr/starred%7B/owner%7D%7B/repo%7D",
      "subscriptions_url": "https://api.github.com/users/fjahr/subscriptions",
      "organizations_url": "https://api.github.com/users/fjahr/orgs",
      "repos_url": "https://api.github.com/users/fjahr/repos",
      "events_url": "https://api.github.com/users/fjahr/events%7B/privacy%7D",
      "received_events_url": "https://api.github.com/users/fjahr/received_events",
      "type": "User",
      "site_admin": false
    },
    "body": "I was playing with file descriptor limits to test another issue saw the following warning printed when I had configured a file descriptor limit of 150:\r\n\r\n```\r\nWarning: Reducing -maxconnections from 125 to -9, because of system limitations.\r\n```\r\n\r\nThe warning could have been resolved with a one-line change but I found the surrounding code hard to reason about at first, so I added a few comments and reorganized the code a bit for better clarity.\r\n\r\nAside from the warning there is one further behavior change: If the limitation of file descriptors prevents the node from making any connections the node doesn't start unless the user has explicitly set `-maxconnections` to 0. This is not just about the node not being able to make connections: When I started the node right at the limit I wasn't able to shut it down cleanly any more several times and instead had to kill the process manually. So this shouldn't be anything normal users should be able to run into.",
    "labels": [],
    "created_at": "2023-05-23T20:44:57Z",
    "updated_at": "2023-05-24T08:09:22Z",
    "closed_at": "2023-05-24T08:09:21Z",
    "mergeable_state": "unknown",
    "merge_commit_sha": "94d592a5547a493adb2a9d0883e954f9b8d05e2d",
    "assignees": [],
    "requested_reviewers": [],
    "requested_teams": [],
    "head": {
      "label": "fjahr:2023-05-fd-limit",
      "ref": "2023-05-fd-limit",
      "sha": "88454971fc1ae80f47dd3593b75d16fbaac3067f",
      "user": {
        "login": "fjahr",
        "id": 1322187,
        "node_id": "MDQ6VXNlcjEzMjIxODc=",
        "avatar_url": "https://avatars.githubusercontent.com/u/1322187?v=4",
        "gravatar_id": "",
        "url": "https://api.github.com/users/fjahr",
        "html_url": "https://github.com/fjahr",
        "followers_url": "https://api.github.com/users/fjahr/followers",
        "following_url": "https://api.github.com/users/fjahr/following%7B/other_user%7D",
        "gists_url": "https://api.github.com/users/fjahr/gists%7B/gist_id%7D",
        "starred_url": "https://api.github.com/users/fjahr/starred%7B/owner%7D%7B/repo%7D",
        "subscriptions_url": "https://api.github.com/users/fjahr/subscriptions",
        "organizations_url": "https://api.github.com/users/fjahr/orgs",
        "repos_url": "https://api.github.com/users/fjahr/repos",
        "events_url": "https://api.github.com/users/fjahr/events%7B/privacy%7D",
        "received_events_url": "https://api.github.com/users/fjahr/received_events",
        "type": "User",
        "site_admin": false
      },
      "repo": {
        "id": 196253948,
        "node_id": "MDEwOlJlcG9zaXRvcnkxOTYyNTM5NDg=",
        "name": "bitcoin",
        "full_name": "fjahr/bitcoin",
        "owner": {
          "login": "fjahr",
          "id": 1322187,
          "node_id": "MDQ6VXNlcjEzMjIxODc=",
          "avatar_url": "https://avatars.githubusercontent.com/u/1322187?v=4",
          "gravatar_id": "",
          "url": "https://api.github.com/users/fjahr",
          "html_url": "https://github.com/fjahr",
          "followers_url": "https://api.github.com/users/fjahr/followers",
          "following_url": "https://api.github.com/users/fjahr/following%7B/other_user%7D",
          "gists_url": "https://api.github.com/users/fjahr/gists%7B/gist_id%7D",
          "starred_url": "https://api.github.com/users/fjahr/starred%7B/owner%7D%7B/repo%7D",
          "subscriptions_url": "https://api.github.com/users/fjahr/subscriptions",
          "organizations_url": "https://api.github.com/users/fjahr/orgs",
          "repos_url": "https://api.github.com/users/fjahr/repos",
          "events_url": "https://api.github.com/users/fjahr/events%7B/privacy%7D",
          "received_events_url": "https://api.github.com/users/fjahr/received_events",
          "type": "User",
          "site_admin": false
        },
        "private": false,
        "html_url": "https://github.com/fjahr/bitcoin",
        "description": "Bitcoin Core integration/staging tree",
        "fork": true,
        "url": "https://api.github.com/repos/fjahr/bitcoin",
        "archive_url": "https://api.github.com/repos/fjahr/bitcoin/%7Barchive_format%7D%7B/ref%7D",
        "assignees_url": "https://api.github.com/repos/fjahr/bitcoin/assignees%7B/user%7D",
        "blobs_url": "https://api.github.com/repos/fjahr/bitcoin/git/blobs%7B/sha%7D",
        "branches_url": "https://api.github.com/repos/fjahr/bitcoin/branches%7B/branch%7D",
        "collaborators_url": "https://api.github.com/repos/fjahr/bitcoin/collaborators%7B/collaborator%7D",
        "comments_url": "https://api.github.com/repos/fjahr/bitcoin/comments%7B/number%7D",
        "commits_url": "https://api.github.com/repos/fjahr/bitcoin/commits%7B/sha%7D",
        "compare_url": "https://api.github.com/repos/fjahr/bitcoin/compare/%7Bbase%7D...%7Bhead%7D",
        "contents_url": "https://api.github.com/repos/fjahr/bitcoin/contents/%7B+path%7D",
        "contributors_url": "https://api.github.com/repos/fjahr/bitcoin/contributors",
        "deployments_url": "https://api.github.com/repos/fjahr/bitcoin/deployments",
        "downloads_url": "https://api.github.com/repos/fjahr/bitcoin/downloads",
        "events_url": "https://api.github.com/repos/fjahr/bitcoin/events",
        "forks_url": "https://api.github.com/repos/fjahr/bitcoin/forks",
        "git_commits_url": "https://api.github.com/repos/fjahr/bitcoin/git/commits%7B/sha%7D",
        "git_refs_url": "https://api.github.com/repos/fjahr/bitcoin/git/refs%7B/sha%7D",
        "git_tags_url": "https://api.github.com/repos/fjahr/bitcoin/git/tags%7B/sha%7D",
        "git_url": "git://github.com/fjahr/bitcoin.git",
        "issue_comment_url": "https://api.github.com/repos/fjahr/bitcoin/issues/comments%7B/number%7D",
        "issue_events_url": "https://api.github.com/repos/fjahr/bitcoin/issues/events%7B/number%7D",
        "issues_url": "https://api.github.com/repos/fjahr/bitcoin/issues%7B/number%7D",
        "keys_url": "https://api.github.com/repos/fjahr/bitcoin/keys%7B/key_id%7D",
        "labels_url": "https://api.github.com/repos/fjahr/bitcoin/labels%7B/name%7D",
        "languages_url": "https://api.github.com/repos/fjahr/bitcoin/languages",
        "merges_url": "https://api.github.com/repos/fjahr/bitcoin/merges",
        "milestones_url": "https://api.github.com/repos/fjahr/bitcoin/milestones%7B/number%7D",
        "notifications_url": "https://api.github.com/repos/fjahr/bitcoin/notifications%7B?since,all,participating}",
        "pulls_url": "https://api.github.com/repos/fjahr/bitcoin/pulls%7B/number%7D",
        "releases_url": "https://api.github.com/repos/fjahr/bitcoin/releases%7B/id%7D",
        "ssh_url": "git@github.com:fjahr/bitcoin.git",
        "stargazers_url": "https://api.github.com/repos/fjahr/bitcoin/stargazers",
        "statuses_url": "https://api.github.com/repos/fjahr/bitcoin/statuses/%7Bsha%7D",
        "subscribers_url": "https://api.github.com/repos/fjahr/bitcoin/subscribers",
        "subscription_url": "https://api.github.com/repos/fjahr/bitcoin/subscription",
        "tags_url": "https://api.github.com/repos/fjahr/bitcoin/tags",
        "teams_url": "https://api.github.com/repos/fjahr/bitcoin/teams",
        "trees_url": "https://api.github.com/repos/fjahr/bitcoin/git/trees%7B/sha%7D",
        "clone_url": "https://github.com/fjahr/bitcoin.git",
        "hooks_url": "https://api.github.com/repos/fjahr/bitcoin/hooks",
        "svn_url": "https://github.com/fjahr/bitcoin",
        "homepage": "https://bitcoincore.org/en/download",
        "language": "C++",
        "forks_count": 1,
        "stargazers_count": 4,
        "watchers_count": 4,
        "size": 221228,
        "default_branch": "master",
        "open_issues_count": 0,
        "is_template": false,
        "topics": [],
        "has_issues": false,
        "has_projects": true,
        "has_wiki": false,
        "has_pages": false,
        "has_downloads": false,
        "archived": false,
        "disabled": false,
        "visibility": "public",
        "pushed_at": "2023-07-30T09:21:58Z",
        "created_at": "2019-07-10T18:11:06Z",
        "updated_at": "2022-02-24T18:41:19Z",
        "license": {
          "key": "mit",
          "name": "MIT License",
          "node_id": "MDc6TGljZW5zZTEz",
          "spdx_id": "MIT",
          "url": "https://api.github.com/licenses/mit",
          "html_url": null,
          "description": null,
          "implementation": null,
          "permissions": null,
          "conditions": null,
          "limitations": null,
          "body": null,
          "featured": null
        }
      }
    },
    "base": {
      "label": "bitcoin:master",
      "ref": "master",
      "sha": "3132ec64d9e0f7af88e61ac35807f44315a5ca96",
      "user": {
        "login": "bitcoin",
        "id": 528860,
        "node_id": "MDEyOk9yZ2FuaXphdGlvbjUyODg2MA==",
        "avatar_url": "https://avatars.githubusercontent.com/u/528860?v=4",
        "gravatar_id": "",
        "url": "https://api.github.com/users/bitcoin",
        "html_url": "https://github.com/bitcoin",
        "followers_url": "https://api.github.com/users/bitcoin/followers",
        "following_url": "https://api.github.com/users/bitcoin/following%7B/other_user%7D",
        "gists_url": "https://api.github.com/users/bitcoin/gists%7B/gist_id%7D",
        "starred_url": "https://api.github.com/users/bitcoin/starred%7B/owner%7D%7B/repo%7D",
        "subscriptions_url": "https://api.github.com/users/bitcoin/subscriptions",
        "organizations_url": "https://api.github.com/users/bitcoin/orgs",
        "repos_url": "https://api.github.com/users/bitcoin/repos",
        "events_url": "https://api.github.com/users/bitcoin/events%7B/privacy%7D",
        "received_events_url": "https://api.github.com/users/bitcoin/received_events",
        "type": "Organization",
        "site_admin": false
      },
      "repo": {
        "id": 1181927,
        "node_id": "MDEwOlJlcG9zaXRvcnkxMTgxOTI3",
        "name": "bitcoin",
        "full_name": "bitcoin/bitcoin",
        "owner": {
          "login": "bitcoin",
          "id": 528860,
          "node_id": "MDEyOk9yZ2FuaXphdGlvbjUyODg2MA==",
          "avatar_url": "https://avatars.githubusercontent.com/u/528860?v=4",
          "gravatar_id": "",
          "url": "https://api.github.com/users/bitcoin",
          "html_url": "https://github.com/bitcoin",
          "followers_url": "https://api.github.com/users/bitcoin/followers",
          "following_url": "https://api.github.com/users/bitcoin/following%7B/other_user%7D",
          "gists_url": "https://api.github.com/users/bitcoin/gists%7B/gist_id%7D",
          "starred_url": "https://api.github.com/users/bitcoin/starred%7B/owner%7D%7B/repo%7D",
          "subscriptions_url": "https://api.github.com/users/bitcoin/subscriptions",
          "organizations_url": "https://api.github.com/users/bitcoin/orgs",
          "repos_url": "https://api.github.com/users/bitcoin/repos",
          "events_url": "https://api.github.com/users/bitcoin/events%7B/privacy%7D",
          "received_events_url": "https://api.github.com/users/bitcoin/received_events",
          "type": "Organization",
          "site_admin": false
        },
        "private": false,
        "html_url": "https://github.com/bitcoin/bitcoin",
        "description": "Bitcoin Core integration/staging tree",
        "fork": false,
        "url": "https://api.github.com/repos/bitcoin/bitcoin",
        "archive_url": "https://api.github.com/repos/bitcoin/bitcoin/%7Barchive_format%7D%7B/ref%7D",
        "assignees_url": "https://api.github.com/repos/bitcoin/bitcoin/assignees%7B/user%7D",
        "blobs_url": "https://api.github.com/repos/bitcoin/bitcoin/git/blobs%7B/sha%7D",
        "branches_url": "https://api.github.com/repos/bitcoin/bitcoin/branches%7B/branch%7D",
        "collaborators_url": "https://api.github.com/repos/bitcoin/bitcoin/collaborators%7B/collaborator%7D",
        "comments_url": "https://api.github.com/repos/bitcoin/bitcoin/comments%7B/number%7D",
        "commits_url": "https://api.github.com/repos/bitcoin/bitcoin/commits%7B/sha%7D",
        "compare_url": "https://api.github.com/repos/bitcoin/bitcoin/compare/%7Bbase%7D...%7Bhead%7D",
        "contents_url": "https://api.github.com/repos/bitcoin/bitcoin/contents/%7B+path%7D",
        "contributors_url": "https://api.github.com/repos/bitcoin/bitcoin/contributors",
        "deployments_url": "https://api.github.com/repos/bitcoin/bitcoin/deployments",
        "downloads_url": "https://api.github.com/repos/bitcoin/bitcoin/downloads",
        "events_url": "https://api.github.com/repos/bitcoin/bitcoin/events",
        "forks_url": "https://api.github.com/repos/bitcoin/bitcoin/forks",
        "git_commits_url": "https://api.github.com/repos/bitcoin/bitcoin/git/commits%7B/sha%7D",
        "git_refs_url": "https://api.github.com/repos/bitcoin/bitcoin/git/refs%7B/sha%7D",
        "git_tags_url": "https://api.github.com/repos/bitcoin/bitcoin/git/tags%7B/sha%7D",
        "git_url": "git://github.com/bitcoin/bitcoin.git",
        "issue_comment_url": "https://api.github.com/repos/bitcoin/bitcoin/issues/comments%7B/number%7D",
        "issue_events_url": "https://api.github.com/repos/bitcoin/bitcoin/issues/events%7B/number%7D",
        "issues_url": "https://api.github.com/repos/bitcoin/bitcoin/issues%7B/number%7D",
        "keys_url": "https://api.github.com/repos/bitcoin/bitcoin/keys%7B/key_id%7D",
        "labels_url": "https://api.github.com/repos/bitcoin/bitcoin/labels%7B/name%7D",
        "languages_url": "https://api.github.com/repos/bitcoin/bitcoin/languages",
        "merges_url": "https://api.github.com/repos/bitcoin/bitcoin/merges",
        "milestones_url": "https://api.github.com/repos/bitcoin/bitcoin/milestones%7B/number%7D",
        "notifications_url": "https://api.github.com/repos/bitcoin/bitcoin/notifications%7B?since,all,participating}",
        "pulls_url": "https://api.github.com/repos/bitcoin/bitcoin/pulls%7B/number%7D",
        "releases_url": "https://api.github.com/repos/bitcoin/bitcoin/releases%7B/id%7D",
        "ssh_url": "git@github.com:bitcoin/bitcoin.git",
        "stargazers_url": "https://api.github.com/repos/bitcoin/bitcoin/stargazers",
        "statuses_url": "https://api.github.com/repos/bitcoin/bitcoin/statuses/%7Bsha%7D",
        "subscribers_url": "https://api.github.com/repos/bitcoin/bitcoin/subscribers",
        "subscription_url": "https://api.github.com/repos/bitcoin/bitcoin/subscription",
        "tags_url": "https://api.github.com/repos/bitcoin/bitcoin/tags",
        "teams_url": "https://api.github.com/repos/bitcoin/bitcoin/teams",
        "trees_url": "https://api.github.com/repos/bitcoin/bitcoin/git/trees%7B/sha%7D",
        "clone_url": "https://github.com/bitcoin/bitcoin.git",
        "hooks_url": "https://api.github.com/repos/bitcoin/bitcoin/hooks",
        "svn_url": "https://github.com/bitcoin/bitcoin",
        "homepage": "https://bitcoincore.org/en/download",
        "language": "C++",
        "forks_count": 35476,
        "stargazers_count": 70608,
        "watchers_count": 70608,
        "size": 236222,
        "default_branch": "master",
        "open_issues_count": 673,
        "is_template": false,
        "topics": [
          "bitcoin",
          "c-plus-plus",
          "cryptocurrency",
          "cryptography",
          "p2p"
        ],
        "has_issues": true,
        "has_projects": true,
        "has_wiki": false,
        "has_pages": false,
        "has_downloads": false,
        "archived": false,
        "disabled": false,
        "visibility": "public",
        "pushed_at": "2023-08-03T00:03:27Z",
        "created_at": "2010-12-19T15:16:43Z",
        "updated_at": "2023-08-02T18:21:18Z",
        "license": {
          "key": "mit",
          "name": "MIT License",
          "node_id": "MDc6TGljZW5zZTEz",
          "spdx_id": "MIT",
          "url": "https://api.github.com/licenses/mit",
          "html_url": null,
          "description": null,
          "implementation": null,
          "permissions": null,
          "conditions": null,
          "limitations": null,
          "body": null,
          "featured": null
        }
      }
    },
    "_links": {
      "self": {
        "href": "https://api.github.com/repos/bitcoin/bitcoin/pulls/27730"
      }
    },
    "author_association": "CONTRIBUTOR",
    "draft": false,
    "additions": 17,
    "deletions": 6,
    "changed_files": 1,
    "commits": 1,
    "review_comments": 0,
    "comments": 3
  },
  "events": [
    {
      "event": "committed",
      "id": null,
      "node_id": "C_kwDOABII59oAKDg4NDU0OTcxZmMxYWU4MGY0N2RkMzU5M2I3NWQxNmZiYWFjMzA2N2Y",
      "url": "https://api.github.com/repos/bitcoin/bitcoin/git/commits/88454971fc1ae80f47dd3593b75d16fbaac3067f",
      "actor": null,
      "commit_id": null,
      "commit_url": null,
      "created_at": null,
      "html_url": "https://github.com/bitcoin/bitcoin/commit/88454971fc1ae80f47dd3593b75d16fbaac3067f",
      "tree": {
        "sha": "bea11090a1ab37ca06c0434b100aade7f050bb28",
        "url": "https://api.github.com/repos/bitcoin/bitcoin/git/trees/bea11090a1ab37ca06c0434b100aade7f050bb28"
      },
      "verification": {
        "verified": true,
        "reason": "valid",
        "payload": "tree bea11090a1ab37ca06c0434b100aade7f050bb28\nparent 22139f6e83a2bedd2dad9f280567d2c76c54252f\nauthor Fabian Jahr <fjahr@protonmail.com> 1684856787 +0200\ncommitter Fabian Jahr <fjahr@protonmail.com> 1684873982 +0200\n\ninit: Improve file descriptor limit handling\n",
        "signature": "-----BEGIN PGP SIGNATURE-----\nComment: GPGTools - https://gpgtools.org\n\niQJJBAABCgAzFiEEtFq20ghhrCHSdrgm8T0enYkHmM0FAmRtIxMVHGZqYWhyQHBy\nb3Rvbm1haWwuY29tAAoJEPE9Hp2JB5jNBwgQAI5yiwIaAjs4nP/5+epFYkOFnWqc\nCM3uNZqWWNsnunlArQoEc1hjX9uo0QLE8++oMQd9P0njFBSyP3RwmFsrn+eyxrYl\neAPpMHF+AbopLntxvo6uMBgQlju7+ZBKvGXepHrqahuSfBQCKUJPVeep6t2dB8/O\nHHhtSGDZhgOKwpwW0I/iOqI3FkQ+9qciRaIfBk8oWcLAXz2ml6Qfe7ZN3qKZa9E/\nZ/j9NI9gknDWoT9wKbZHubz0LiDnlGsEkhc1Mc+sJJlNMZFFxGKXhZfvxaahshLk\nroradZmKKFm/hOKeNu8b9LCrQP3yC3feaEG4FPcoLZCTJb/4ciYm5QIJs526QkrJ\ne2XDRW1V1vFZA7tMZHmha8oo2GA1Y/dRIdLjz3+pK2Hm4oNArZpk3xl/SjOf73s7\no4/s084Jrvsfrv4JY22x6O/+IBO1P5O7i9wQRbSum1rvjeJMCJSPI6YkXm1CVVCC\nOM+K+STwKyEaIAovBIsI18LFrhY3ef1F4NdOCfklvHIZspX3lVngRpMjq8eAFTCI\nRkL2wFf0YwaB48kGLR0JuZGrx6p86fghMeztluF7brztKFuV3eKfeaE+VOvOAEAf\ncQB95o4/p8v4wAQlHvwDaxAqOLR/zOSYQ8hNONKHZWRsiAxslnlELqSKhb+rAjij\nrCWsSFSmkW18myiJ\n=wNs7\n-----END PGP SIGNATURE-----"
      },
      "parents": [
        {
          "url": "https://api.github.com/repos/bitcoin/bitcoin/git/commits/22139f6e83a2bedd2dad9f280567d2c76c54252f",
          "sha": "22139f6e83a2bedd2dad9f280567d2c76c54252f",
          "html_url": "https://github.com/bitcoin/bitcoin/commit/22139f6e83a2bedd2dad9f280567d2c76c54252f"
        }
      ],
      "message": "init: Improve file descriptor limit handling",
      "committer": {
        "name": "Fabian Jahr",
        "email": "fjahr@protonmail.com",
        "date": "2023-05-23T20:33:02Z"
      },
      "author": {
        "name": "Fabian Jahr",
        "email": "fjahr@protonmail.com",
        "date": "2023-05-23T15:46:27Z"
      },
      "sha": "88454971fc1ae80f47dd3593b75d16fbaac3067f"
    },
    {
      "event": "commented",
      "id": 1560101511,
      "node_id": "IC_kwDOABII585c_UKH",
      "url": "https://api.github.com/repos/bitcoin/bitcoin/issues/comments/1560101511",
      "actor": {
        "login": "DrahtBot",
        "id": 39886733,
        "node_id": "MDQ6VXNlcjM5ODg2NzMz",
        "avatar_url": "https://avatars.githubusercontent.com/u/39886733?v=4",
        "gravatar_id": "",
        "url": "https://api.github.com/users/DrahtBot",
        "html_url": "https://github.com/DrahtBot",
        "followers_url": "https://api.github.com/users/DrahtBot/followers",
        "following_url": "https://api.github.com/users/DrahtBot/following%7B/other_user%7D",
        "gists_url": "https://api.github.com/users/DrahtBot/gists%7B/gist_id%7D",
        "starred_url": "https://api.github.com/users/DrahtBot/starred%7B/owner%7D%7B/repo%7D",
        "subscriptions_url": "https://api.github.com/users/DrahtBot/subscriptions",
        "organizations_url": "https://api.github.com/users/DrahtBot/orgs",
        "repos_url": "https://api.github.com/users/DrahtBot/repos",
        "events_url": "https://api.github.com/users/DrahtBot/events%7B/privacy%7D",
        "received_events_url": "https://api.github.com/users/DrahtBot/received_events",
        "type": "User",
        "site_admin": false
      },
      "commit_id": null,
      "commit_url": null,
      "created_at": "2023-05-23T20:45:00Z",
      "updated_at": "2023-05-24T03:27:23Z",
      "author_association": "CONTRIBUTOR",
      "body": "<!--e57a25ab6845829454e8d69fc972939a-->\n\nThe following sections might be updated with supplementary metadata relevant to reviewers and maintainers.\n\n<!--021abf342d371248e50ceaed478a90ca-->\n### Reviews\nSee [the guideline](https://github.com/bitcoin/bitcoin/blob/master/CONTRIBUTING.md#code-review) for information on the review process.\nA summary of reviews will appear here.\n<!--174a7506f384e20aa4161008e828411d-->\n### Conflicts\nReviewers, this pull request conflicts with the following ones:\n\n* [#27539](https://github.com/bitcoin/bitcoin/pull/27539) (init: Fixes for file descriptor accounting by Empact)\n\nIf you consider this pull request important, please also help to review the conflicting pull requests. Ideally, start with the one that should be merged first.\n",
      "user": {
        "login": "DrahtBot",
        "id": 39886733,
        "node_id": "MDQ6VXNlcjM5ODg2NzMz",
        "avatar_url": "https://avatars.githubusercontent.com/u/39886733?v=4",
        "gravatar_id": "",
        "url": "https://api.github.com/users/DrahtBot",
        "html_url": "https://github.com/DrahtBot",
        "followers_url": "https://api.github.com/users/DrahtBot/followers",
        "following_url": "https://api.github.com/users/DrahtBot/following%7B/other_user%7D",
        "gists_url": "https://api.github.com/users/DrahtBot/gists%7B/gist_id%7D",
        "starred_url": "https://api.github.com/users/DrahtBot/starred%7B/owner%7D%7B/repo%7D",
        "subscriptions_url": "https://api.github.com/users/DrahtBot/subscriptions",
        "organizations_url": "https://api.github.com/users/DrahtBot/orgs",
        "repos_url": "https://api.github.com/users/DrahtBot/repos",
        "events_url": "https://api.github.com/users/DrahtBot/events%7B/privacy%7D",
        "received_events_url": "https://api.github.com/users/DrahtBot/received_events",
        "type": "User",
        "site_admin": false
      },
      "html_url": "https://github.com/bitcoin/bitcoin/pull/27730#issuecomment-1560101511",
      "issue_url": "https://api.github.com/repos/bitcoin/bitcoin/issues/27730"
    },
    {
      "event": "cross-referenced",
      "id": null,
      "node_id": null,
      "url": null,
      "actor": {
        "login": "DrahtBot",
        "id": 39886733,
        "node_id": "MDQ6VXNlcjM5ODg2NzMz",
        "avatar_url": "https://avatars.githubusercontent.com/u/39886733?v=4",
        "gravatar_id": "",
        "url": "https://api.github.com/users/DrahtBot",
        "html_url": "https://github.com/DrahtBot",
        "followers_url": "https://api.github.com/users/DrahtBot/followers",
        "following_url": "https://api.github.com/users/DrahtBot/following%7B/other_user%7D",
        "gists_url": "https://api.github.com/users/DrahtBot/gists%7B/gist_id%7D",
        "starred_url": "https://api.github.com/users/DrahtBot/starred%7B/owner%7D%7B/repo%7D",
        "subscriptions_url": "https://api.github.com/users/DrahtBot/subscriptions",
        "organizations_url": "https://api.github.com/users/DrahtBot/orgs",
        "repos_url": "https://api.github.com/users/DrahtBot/repos",
        "events_url": "https://api.github.com/users/DrahtBot/events%7B/privacy%7D",
        "received_events_url": "https://api.github.com/users/DrahtBot/received_events",
        "type": "User",
        "site_admin": false
      },
      "commit_id": null,
      "commit_url": null,
      "created_at": "2023-05-24T04:52:03Z",
      "updated_at": "2023-05-24T04:52:03Z",
      "source": {
        "issue": {
          "id": 1688976160,
          "node_id": "PR_kwDOABII585PaKCQ",
          "url": "https://api.github.com/repos/bitcoin/bitcoin/issues/27539",
          "repository_url": "https://api.github.com/repos/bitcoin/bitcoin",
          "labels_url": "https://api.github.com/repos/bitcoin/bitcoin/issues/27539/labels%7B/name%7D",
          "comments_url": "https://api.github.com/repos/bitcoin/bitcoin/issues/27539/comments",
          "events_url": "https://api.github.com/repos/bitcoin/bitcoin/issues/27539/events",
          "html_url": "https://github.com/bitcoin/bitcoin/pull/27539",
          "number": 27539,
          "state": "open",
          "state_reason": null,
          "title": "init: Fixes for file descriptor accounting",
          "body": "This rebases and revises #16003 for clarity of review.\r\n\r\nAims to fix #18911.",
          "user": {
            "login": "Empact",
            "id": 5470,
            "node_id": "MDQ6VXNlcjU0NzA=",
            "avatar_url": "https://avatars.githubusercontent.com/u/5470?v=4",
            "gravatar_id": "",
            "url": "https://api.github.com/users/Empact",
            "html_url": "https://github.com/Empact",
            "followers_url": "https://api.github.com/users/Empact/followers",
            "following_url": "https://api.github.com/users/Empact/following%7B/other_user%7D",
            "gists_url": "https://api.github.com/users/Empact/gists%7B/gist_id%7D",
            "starred_url": "https://api.github.com/users/Empact/starred%7B/owner%7D%7B/repo%7D",
            "subscriptions_url": "https://api.github.com/users/Empact/subscriptions",
            "organizations_url": "https://api.github.com/users/Empact/orgs",
            "repos_url": "https://api.github.com/users/Empact/repos",
            "events_url": "https://api.github.com/users/Empact/events%7B/privacy%7D",
            "received_events_url": "https://api.github.com/users/Empact/received_events",
            "type": "User",
            "site_admin": false
          },
          "labels": [
            {
              "id": 148216,
              "node_id": "MDU6TGFiZWwxNDgyMTY=",
              "url": "https://api.github.com/repos/bitcoin/bitcoin/labels/Docs",
              "name": "Docs",
              "color": "02d7e1",
              "default": false
            }
          ],
          "assignees": [],
          "author_association": "MEMBER",
          "locked": false,
          "comments": 1,
          "pull_request": {
            "url": "https://api.github.com/repos/bitcoin/bitcoin/pulls/27539",
            "html_url": "https://github.com/bitcoin/bitcoin/pull/27539",
            "diff_url": "https://github.com/bitcoin/bitcoin/pull/27539.diff",
            "patch_url": "https://github.com/bitcoin/bitcoin/pull/27539.patch"
          },
          "created_at": "2023-04-28T18:33:19Z",
          "updated_at": "2023-06-27T14:18:01Z"
        },
        "type": "issue"
      }
    },
    {
      "event": "commented",
      "id": 1560455205,
      "node_id": "IC_kwDOABII585dAqgl",
      "url": "https://api.github.com/repos/bitcoin/bitcoin/issues/comments/1560455205",
      "actor": {
        "login": "fanquake",
        "id": 863730,
        "node_id": "MDQ6VXNlcjg2MzczMA==",
        "avatar_url": "https://avatars.githubusercontent.com/u/863730?v=4",
        "gravatar_id": "",
        "url": "https://api.github.com/users/fanquake",
        "html_url": "https://github.com/fanquake",
        "followers_url": "https://api.github.com/users/fanquake/followers",
        "following_url": "https://api.github.com/users/fanquake/following%7B/other_user%7D",
        "gists_url": "https://api.github.com/users/fanquake/gists%7B/gist_id%7D",
        "starred_url": "https://api.github.com/users/fanquake/starred%7B/owner%7D%7B/repo%7D",
        "subscriptions_url": "https://api.github.com/users/fanquake/subscriptions",
        "organizations_url": "https://api.github.com/users/fanquake/orgs",
        "repos_url": "https://api.github.com/users/fanquake/repos",
        "events_url": "https://api.github.com/users/fanquake/events%7B/privacy%7D",
        "received_events_url": "https://api.github.com/users/fanquake/received_events",
        "type": "User",
        "site_admin": false
      },
      "commit_id": null,
      "commit_url": null,
      "created_at": "2023-05-24T04:53:22Z",
      "updated_at": "2023-05-24T04:53:22Z",
      "author_association": "MEMBER",
      "body": "Duplicate of #27539?",
      "user": {
        "login": "fanquake",
        "id": 863730,
        "node_id": "MDQ6VXNlcjg2MzczMA==",
        "avatar_url": "https://avatars.githubusercontent.com/u/863730?v=4",
        "gravatar_id": "",
        "url": "https://api.github.com/users/fanquake",
        "html_url": "https://github.com/fanquake",
        "followers_url": "https://api.github.com/users/fanquake/followers",
        "following_url": "https://api.github.com/users/fanquake/following%7B/other_user%7D",
        "gists_url": "https://api.github.com/users/fanquake/gists%7B/gist_id%7D",
        "starred_url": "https://api.github.com/users/fanquake/starred%7B/owner%7D%7B/repo%7D",
        "subscriptions_url": "https://api.github.com/users/fanquake/subscriptions",
        "organizations_url": "https://api.github.com/users/fanquake/orgs",
        "repos_url": "https://api.github.com/users/fanquake/repos",
        "events_url": "https://api.github.com/users/fanquake/events%7B/privacy%7D",
        "received_events_url": "https://api.github.com/users/fanquake/received_events",
        "type": "User",
        "site_admin": false
      },
      "html_url": "https://github.com/bitcoin/bitcoin/pull/27730#issuecomment-1560455205",
      "issue_url": "https://api.github.com/repos/bitcoin/bitcoin/issues/27730"
    },
    {
      "event": "commented",
      "id": 1560647386,
      "node_id": "IC_kwDOABII585dBZba",
      "url": "https://api.github.com/repos/bitcoin/bitcoin/issues/comments/1560647386",
      "actor": {
        "login": "fjahr",
        "id": 1322187,
        "node_id": "MDQ6VXNlcjEzMjIxODc=",
        "avatar_url": "https://avatars.githubusercontent.com/u/1322187?v=4",
        "gravatar_id": "",
        "url": "https://api.github.com/users/fjahr",
        "html_url": "https://github.com/fjahr",
        "followers_url": "https://api.github.com/users/fjahr/followers",
        "following_url": "https://api.github.com/users/fjahr/following%7B/other_user%7D",
        "gists_url": "https://api.github.com/users/fjahr/gists%7B/gist_id%7D",
        "starred_url": "https://api.github.com/users/fjahr/starred%7B/owner%7D%7B/repo%7D",
        "subscriptions_url": "https://api.github.com/users/fjahr/subscriptions",
        "organizations_url": "https://api.github.com/users/fjahr/orgs",
        "repos_url": "https://api.github.com/users/fjahr/repos",
        "events_url": "https://api.github.com/users/fjahr/events%7B/privacy%7D",
        "received_events_url": "https://api.github.com/users/fjahr/received_events",
        "type": "User",
        "site_admin": false
      },
      "commit_id": null,
      "commit_url": null,
      "created_at": "2023-05-24T08:09:21Z",
      "updated_at": "2023-05-24T08:09:21Z",
      "author_association": "CONTRIBUTOR",
      "body": "> Duplicate of #27539?\r\n\r\nUgh, mostly yeah.",
      "user": {
        "login": "fjahr",
        "id": 1322187,
        "node_id": "MDQ6VXNlcjEzMjIxODc=",
        "avatar_url": "https://avatars.githubusercontent.com/u/1322187?v=4",
        "gravatar_id": "",
        "url": "https://api.github.com/users/fjahr",
        "html_url": "https://github.com/fjahr",
        "followers_url": "https://api.github.com/users/fjahr/followers",
        "following_url": "https://api.github.com/users/fjahr/following%7B/other_user%7D",
        "gists_url": "https://api.github.com/users/fjahr/gists%7B/gist_id%7D",
        "starred_url": "https://api.github.com/users/fjahr/starred%7B/owner%7D%7B/repo%7D",
        "subscriptions_url": "https://api.github.com/users/fjahr/subscriptions",
        "organizations_url": "https://api.github.com/users/fjahr/orgs",
        "repos_url": "https://api.github.com/users/fjahr/repos",
        "events_url": "https://api.github.com/users/fjahr/events%7B/privacy%7D",
        "received_events_url": "https://api.github.com/users/fjahr/received_events",
        "type": "User",
        "site_admin": false
      },
      "html_url": "https://github.com/bitcoin/bitcoin/pull/27730#issuecomment-1560647386",
      "issue_url": "https://api.github.com/repos/bitcoin/bitcoin/issues/27730"
    },
    {
      "event": "closed",
      "id": 9324437614,
      "node_id": "CE_lADOABII585mr0IUzwAAAAIrx6Bu",
      "url": "https://api.github.com/repos/bitcoin/bitcoin/issues/events/9324437614",
      "actor": {
        "login": "fjahr",
        "id": 1322187,
        "node_id": "MDQ6VXNlcjEzMjIxODc=",
        "avatar_url": "https://avatars.githubusercontent.com/u/1322187?v=4",
        "gravatar_id": "",
        "url": "https://api.github.com/users/fjahr",
        "html_url": "https://github.com/fjahr",
        "followers_url": "https://api.github.com/users/fjahr/followers",
        "following_url": "https://api.github.com/users/fjahr/following%7B/other_user%7D",
        "gists_url": "https://api.github.com/users/fjahr/gists%7B/gist_id%7D",
        "starred_url": "https://api.github.com/users/fjahr/starred%7B/owner%7D%7B/repo%7D",
        "subscriptions_url": "https://api.github.com/users/fjahr/subscriptions",
        "organizations_url": "https://api.github.com/users/fjahr/orgs",
        "repos_url": "https://api.github.com/users/fjahr/repos",
        "events_url": "https://api.github.com/users/fjahr/events%7B/privacy%7D",
        "received_events_url": "https://api.github.com/users/fjahr/received_events",
        "type": "User",
        "site_admin": false
      },
      "commit_id": null,
      "commit_url": null,
      "created_at": "2023-05-24T08:09:21Z"
    },
    {
      "event": "cross-referenced",
      "id": null,
      "node_id": null,
      "url": null,
      "actor": {
        "login": "fjahr",
        "id": 1322187,
        "node_id": "MDQ6VXNlcjEzMjIxODc=",
        "avatar_url": "https://avatars.githubusercontent.com/u/1322187?v=4",
        "gravatar_id": "",
        "url": "https://api.github.com/users/fjahr",
        "html_url": "https://github.com/fjahr",
        "followers_url": "https://api.github.com/users/fjahr/followers",
        "following_url": "https://api.github.com/users/fjahr/following%7B/other_user%7D",
        "gists_url": "https://api.github.com/users/fjahr/gists%7B/gist_id%7D",
        "starred_url": "https://api.github.com/users/fjahr/starred%7B/owner%7D%7B/repo%7D",
        "subscriptions_url": "https://api.github.com/users/fjahr/subscriptions",
        "organizations_url": "https://api.github.com/users/fjahr/orgs",
        "repos_url": "https://api.github.com/users/fjahr/repos",
        "events_url": "https://api.github.com/users/fjahr/events%7B/privacy%7D",
        "received_events_url": "https://api.github.com/users/fjahr/received_events",
        "type": "User",
        "site_admin": false
      },
      "commit_id": null,
      "commit_url": null,
      "created_at": "2023-05-24T12:06:13Z",
      "updated_at": "2023-05-24T12:06:13Z",
      "source": {
        "issue": {
          "id": 1722927381,
          "node_id": "PR_kwDOABII585RMRnB",
          "url": "https://api.github.com/repos/bitcoin/bitcoin/issues/27731",
          "repository_url": "https://api.github.com/repos/bitcoin/bitcoin",
          "labels_url": "https://api.github.com/repos/bitcoin/bitcoin/issues/27731/labels%7B/name%7D",
          "comments_url": "https://api.github.com/repos/bitcoin/bitcoin/issues/27731/comments",
          "events_url": "https://api.github.com/repos/bitcoin/bitcoin/issues/27731/events",
          "html_url": "https://github.com/bitcoin/bitcoin/pull/27731",
          "number": 27731,
          "state": "open",
          "state_reason": null,
          "title": "Prevent file descriptor exhaustion from too many RPC calls",
          "body": "Fixes #11368\r\n\r\nThis requires libevent 2.2.1 which so far was only [released in alpha](https://github.com/libevent/libevent/releases/tag/release-2.2.1-alpha).\r\n\r\nFor more context see specifically https://github.com/bitcoin/bitcoin/issues/11368#issuecomment-632717903, this uses the feature mentioned there as libevent#592.",
          "user": {
            "login": "fjahr",
            "id": 1322187,
            "node_id": "MDQ6VXNlcjEzMjIxODc=",
            "avatar_url": "https://avatars.githubusercontent.com/u/1322187?v=4",
            "gravatar_id": "",
            "url": "https://api.github.com/users/fjahr",
            "html_url": "https://github.com/fjahr",
            "followers_url": "https://api.github.com/users/fjahr/followers",
            "following_url": "https://api.github.com/users/fjahr/following%7B/other_user%7D",
            "gists_url": "https://api.github.com/users/fjahr/gists%7B/gist_id%7D",
            "starred_url": "https://api.github.com/users/fjahr/starred%7B/owner%7D%7B/repo%7D",
            "subscriptions_url": "https://api.github.com/users/fjahr/subscriptions",
            "organizations_url": "https://api.github.com/users/fjahr/orgs",
            "repos_url": "https://api.github.com/users/fjahr/repos",
            "events_url": "https://api.github.com/users/fjahr/events%7B/privacy%7D",
            "received_events_url": "https://api.github.com/users/fjahr/received_events",
            "type": "User",
            "site_admin": false
          },
          "labels": [],
          "assignees": [],
          "author_association": "CONTRIBUTOR",
          "locked": false,
          "comments": 1,
          "pull_request": {
            "url": "https://api.github.com/repos/bitcoin/bitcoin/pulls/27731",
            "html_url": "https://github.com/bitcoin/bitcoin/pull/27731",
            "diff_url": "https://github.com/bitcoin/bitcoin/pull/27731.diff",
            "patch_url": "https://github.com/bitcoin/bitcoin/pull/27731.patch"
          },
          "created_at": "2023-05-23T23:20:20Z",
          "updated_at": "2023-07-02T22:26:05Z"
        },
        "type": "issue"
      }
    }
  ],
  "comments": []
}