{
  "type": "pull",
  "pull": {
    "url": "https://api.github.com/repos/bitcoin/bitcoin/pulls/27747",
    "id": 1363973441,
    "node_id": "PR_kwDOABII585RTJVB",
    "html_url": "https://github.com/bitcoin/bitcoin/pull/27747",
    "diff_url": "https://github.com/bitcoin/bitcoin/pull/27747.diff",
    "patch_url": "https://github.com/bitcoin/bitcoin/pull/27747.patch",
    "issue_url": "https://api.github.com/repos/bitcoin/bitcoin/issues/27747",
    "commits_url": "https://api.github.com/repos/bitcoin/bitcoin/pulls/27747/commits",
    "review_comments_url": "https://api.github.com/repos/bitcoin/bitcoin/pulls/27747/comments",
    "review_comment_url": "https://api.github.com/repos/bitcoin/bitcoin/pulls/comments%7B/number%7D",
    "comments_url": "https://api.github.com/repos/bitcoin/bitcoin/issues/27747/comments",
    "statuses_url": "https://api.github.com/repos/bitcoin/bitcoin/statuses/3d0a5c37e9ccedfa4ecfaa48eeeca1ada5b4eec1",
    "number": 27747,
    "state": "closed",
    "locked": false,
    "maintainer_can_modify": false,
    "title": "rpc: Use 'byte'/'bytes' for bech32(m) validation error message",
    "user": {
      "login": "russeree",
      "id": 3104223,
      "node_id": "MDQ6VXNlcjMxMDQyMjM=",
      "avatar_url": "https://avatars.githubusercontent.com/u/3104223?v=4",
      "gravatar_id": "",
      "url": "https://api.github.com/users/russeree",
      "html_url": "https://github.com/russeree",
      "followers_url": "https://api.github.com/users/russeree/followers",
      "following_url": "https://api.github.com/users/russeree/following%7B/other_user%7D",
      "gists_url": "https://api.github.com/users/russeree/gists%7B/gist_id%7D",
      "starred_url": "https://api.github.com/users/russeree/starred%7B/owner%7D%7B/repo%7D",
      "subscriptions_url": "https://api.github.com/users/russeree/subscriptions",
      "organizations_url": "https://api.github.com/users/russeree/orgs",
      "repos_url": "https://api.github.com/users/russeree/repos",
      "events_url": "https://api.github.com/users/russeree/events%7B/privacy%7D",
      "received_events_url": "https://api.github.com/users/russeree/received_events",
      "type": "User",
      "site_admin": false
    },
    "body": "This PR rectifies a linguistic inconsistency found in merged PR [27727](https://github.com/bitcoin/bitcoin/pull/27727). It addresses the improper usage of the term 'byte' in error reports. As it stands, PR [27727](https://github.com/bitcoin/bitcoin/pull/27727) exclusively utilizes 'byte' in error messages, regardless of the context, as demonstrated below:\r\n\r\nCurrently: ```Invalid Bech32 v0 address program size (16 byte), per BIP141```\r\n\r\nThis modification enhances the accuracy of error reporting in most scenarios users are likely to encounter by checking for a plural or singular number of bytes.\r\n\r\nThis PR\r\n\r\n**16 Bytes program size error** :\r\n\r\n```\r\n(\r\n    \"BC1QR508D6QEJXTDG4Y5R3ZARVARYV98GJ9P\",\r\n    \"Invalid Bech32 v0 address program size (16 bytes), per BIP141\",\r\n    [],\r\n)\r\n```\r\n\r\n**1 Byte program size error**\r\n\r\n```\r\n(\r\n    \"bc1pw5dgrnzv\", \r\n    \"Invalid Bech32 address program size (1 byte)\",\r\n    []\r\n),\r\n```\r\nThank you\r\n",
    "labels": [
      {
        "id": 98279177,
        "node_id": "MDU6TGFiZWw5ODI3OTE3Nw==",
        "url": "https://api.github.com/repos/bitcoin/bitcoin/labels/RPC/REST/ZMQ",
        "name": "RPC/REST/ZMQ",
        "color": "0052cc",
        "default": false
      }
    ],
    "created_at": "2023-05-25T01:43:01Z",
    "updated_at": "2023-05-25T11:19:35Z",
    "closed_at": "2023-05-25T11:03:28Z",
    "mergeable_state": "unknown",
    "merged_at": "2023-05-25T11:03:28Z",
    "merge_commit_sha": "9d098af5a94b0766a03c8e5b94333e203ea04b3e",
    "assignees": [],
    "requested_reviewers": [],
    "requested_teams": [],
    "head": {
      "label": "russeree:27727-ext",
      "ref": "27727-ext",
      "sha": "3d0a5c37e9ccedfa4ecfaa48eeeca1ada5b4eec1",
      "user": {
        "login": "russeree",
        "id": 3104223,
        "node_id": "MDQ6VXNlcjMxMDQyMjM=",
        "avatar_url": "https://avatars.githubusercontent.com/u/3104223?v=4",
        "gravatar_id": "",
        "url": "https://api.github.com/users/russeree",
        "html_url": "https://github.com/russeree",
        "followers_url": "https://api.github.com/users/russeree/followers",
        "following_url": "https://api.github.com/users/russeree/following%7B/other_user%7D",
        "gists_url": "https://api.github.com/users/russeree/gists%7B/gist_id%7D",
        "starred_url": "https://api.github.com/users/russeree/starred%7B/owner%7D%7B/repo%7D",
        "subscriptions_url": "https://api.github.com/users/russeree/subscriptions",
        "organizations_url": "https://api.github.com/users/russeree/orgs",
        "repos_url": "https://api.github.com/users/russeree/repos",
        "events_url": "https://api.github.com/users/russeree/events%7B/privacy%7D",
        "received_events_url": "https://api.github.com/users/russeree/received_events",
        "type": "User",
        "site_admin": false
      },
      "repo": {
        "id": 434843545,
        "node_id": "R_kgDOGesvmQ",
        "name": "bitcoin",
        "full_name": "russeree/bitcoin",
        "owner": {
          "login": "russeree",
          "id": 3104223,
          "node_id": "MDQ6VXNlcjMxMDQyMjM=",
          "avatar_url": "https://avatars.githubusercontent.com/u/3104223?v=4",
          "gravatar_id": "",
          "url": "https://api.github.com/users/russeree",
          "html_url": "https://github.com/russeree",
          "followers_url": "https://api.github.com/users/russeree/followers",
          "following_url": "https://api.github.com/users/russeree/following%7B/other_user%7D",
          "gists_url": "https://api.github.com/users/russeree/gists%7B/gist_id%7D",
          "starred_url": "https://api.github.com/users/russeree/starred%7B/owner%7D%7B/repo%7D",
          "subscriptions_url": "https://api.github.com/users/russeree/subscriptions",
          "organizations_url": "https://api.github.com/users/russeree/orgs",
          "repos_url": "https://api.github.com/users/russeree/repos",
          "events_url": "https://api.github.com/users/russeree/events%7B/privacy%7D",
          "received_events_url": "https://api.github.com/users/russeree/received_events",
          "type": "User",
          "site_admin": false
        },
        "private": false,
        "html_url": "https://github.com/russeree/bitcoin",
        "description": "Bitcoin Core integration/staging tree",
        "fork": true,
        "url": "https://api.github.com/repos/russeree/bitcoin",
        "archive_url": "https://api.github.com/repos/russeree/bitcoin/%7Barchive_format%7D%7B/ref%7D",
        "assignees_url": "https://api.github.com/repos/russeree/bitcoin/assignees%7B/user%7D",
        "blobs_url": "https://api.github.com/repos/russeree/bitcoin/git/blobs%7B/sha%7D",
        "branches_url": "https://api.github.com/repos/russeree/bitcoin/branches%7B/branch%7D",
        "collaborators_url": "https://api.github.com/repos/russeree/bitcoin/collaborators%7B/collaborator%7D",
        "comments_url": "https://api.github.com/repos/russeree/bitcoin/comments%7B/number%7D",
        "commits_url": "https://api.github.com/repos/russeree/bitcoin/commits%7B/sha%7D",
        "compare_url": "https://api.github.com/repos/russeree/bitcoin/compare/%7Bbase%7D...%7Bhead%7D",
        "contents_url": "https://api.github.com/repos/russeree/bitcoin/contents/%7B+path%7D",
        "contributors_url": "https://api.github.com/repos/russeree/bitcoin/contributors",
        "deployments_url": "https://api.github.com/repos/russeree/bitcoin/deployments",
        "downloads_url": "https://api.github.com/repos/russeree/bitcoin/downloads",
        "events_url": "https://api.github.com/repos/russeree/bitcoin/events",
        "forks_url": "https://api.github.com/repos/russeree/bitcoin/forks",
        "git_commits_url": "https://api.github.com/repos/russeree/bitcoin/git/commits%7B/sha%7D",
        "git_refs_url": "https://api.github.com/repos/russeree/bitcoin/git/refs%7B/sha%7D",
        "git_tags_url": "https://api.github.com/repos/russeree/bitcoin/git/tags%7B/sha%7D",
        "git_url": "git://github.com/russeree/bitcoin.git",
        "issue_comment_url": "https://api.github.com/repos/russeree/bitcoin/issues/comments%7B/number%7D",
        "issue_events_url": "https://api.github.com/repos/russeree/bitcoin/issues/events%7B/number%7D",
        "issues_url": "https://api.github.com/repos/russeree/bitcoin/issues%7B/number%7D",
        "keys_url": "https://api.github.com/repos/russeree/bitcoin/keys%7B/key_id%7D",
        "labels_url": "https://api.github.com/repos/russeree/bitcoin/labels%7B/name%7D",
        "languages_url": "https://api.github.com/repos/russeree/bitcoin/languages",
        "merges_url": "https://api.github.com/repos/russeree/bitcoin/merges",
        "milestones_url": "https://api.github.com/repos/russeree/bitcoin/milestones%7B/number%7D",
        "notifications_url": "https://api.github.com/repos/russeree/bitcoin/notifications%7B?since,all,participating}",
        "pulls_url": "https://api.github.com/repos/russeree/bitcoin/pulls%7B/number%7D",
        "releases_url": "https://api.github.com/repos/russeree/bitcoin/releases%7B/id%7D",
        "ssh_url": "git@github.com:russeree/bitcoin.git",
        "stargazers_url": "https://api.github.com/repos/russeree/bitcoin/stargazers",
        "statuses_url": "https://api.github.com/repos/russeree/bitcoin/statuses/%7Bsha%7D",
        "subscribers_url": "https://api.github.com/repos/russeree/bitcoin/subscribers",
        "subscription_url": "https://api.github.com/repos/russeree/bitcoin/subscription",
        "tags_url": "https://api.github.com/repos/russeree/bitcoin/tags",
        "teams_url": "https://api.github.com/repos/russeree/bitcoin/teams",
        "trees_url": "https://api.github.com/repos/russeree/bitcoin/git/trees%7B/sha%7D",
        "clone_url": "https://github.com/russeree/bitcoin.git",
        "hooks_url": "https://api.github.com/repos/russeree/bitcoin/hooks",
        "svn_url": "https://github.com/russeree/bitcoin",
        "homepage": "https://bitcoincore.org/en/download",
        "language": "C++",
        "forks_count": 0,
        "stargazers_count": 2,
        "watchers_count": 2,
        "size": 233271,
        "default_branch": "master",
        "open_issues_count": 0,
        "is_template": false,
        "topics": [],
        "has_issues": false,
        "has_projects": true,
        "has_wiki": false,
        "has_pages": false,
        "has_downloads": false,
        "archived": false,
        "disabled": false,
        "visibility": "public",
        "pushed_at": "2023-07-28T07:03:48Z",
        "created_at": "2021-12-04T08:09:27Z",
        "updated_at": "2023-02-01T23:57:54Z",
        "license": {
          "key": "mit",
          "name": "MIT License",
          "node_id": "MDc6TGljZW5zZTEz",
          "spdx_id": "MIT",
          "url": "https://api.github.com/licenses/mit",
          "html_url": null,
          "description": null,
          "implementation": null,
          "permissions": null,
          "conditions": null,
          "limitations": null,
          "body": null,
          "featured": null
        }
      }
    },
    "base": {
      "label": "bitcoin:master",
      "ref": "master",
      "sha": "a13f3746dccd9c4ec16d6bfe9b33ebd26e3238e1",
      "user": {
        "login": "bitcoin",
        "id": 528860,
        "node_id": "MDEyOk9yZ2FuaXphdGlvbjUyODg2MA==",
        "avatar_url": "https://avatars.githubusercontent.com/u/528860?v=4",
        "gravatar_id": "",
        "url": "https://api.github.com/users/bitcoin",
        "html_url": "https://github.com/bitcoin",
        "followers_url": "https://api.github.com/users/bitcoin/followers",
        "following_url": "https://api.github.com/users/bitcoin/following%7B/other_user%7D",
        "gists_url": "https://api.github.com/users/bitcoin/gists%7B/gist_id%7D",
        "starred_url": "https://api.github.com/users/bitcoin/starred%7B/owner%7D%7B/repo%7D",
        "subscriptions_url": "https://api.github.com/users/bitcoin/subscriptions",
        "organizations_url": "https://api.github.com/users/bitcoin/orgs",
        "repos_url": "https://api.github.com/users/bitcoin/repos",
        "events_url": "https://api.github.com/users/bitcoin/events%7B/privacy%7D",
        "received_events_url": "https://api.github.com/users/bitcoin/received_events",
        "type": "Organization",
        "site_admin": false
      },
      "repo": {
        "id": 1181927,
        "node_id": "MDEwOlJlcG9zaXRvcnkxMTgxOTI3",
        "name": "bitcoin",
        "full_name": "bitcoin/bitcoin",
        "owner": {
          "login": "bitcoin",
          "id": 528860,
          "node_id": "MDEyOk9yZ2FuaXphdGlvbjUyODg2MA==",
          "avatar_url": "https://avatars.githubusercontent.com/u/528860?v=4",
          "gravatar_id": "",
          "url": "https://api.github.com/users/bitcoin",
          "html_url": "https://github.com/bitcoin",
          "followers_url": "https://api.github.com/users/bitcoin/followers",
          "following_url": "https://api.github.com/users/bitcoin/following%7B/other_user%7D",
          "gists_url": "https://api.github.com/users/bitcoin/gists%7B/gist_id%7D",
          "starred_url": "https://api.github.com/users/bitcoin/starred%7B/owner%7D%7B/repo%7D",
          "subscriptions_url": "https://api.github.com/users/bitcoin/subscriptions",
          "organizations_url": "https://api.github.com/users/bitcoin/orgs",
          "repos_url": "https://api.github.com/users/bitcoin/repos",
          "events_url": "https://api.github.com/users/bitcoin/events%7B/privacy%7D",
          "received_events_url": "https://api.github.com/users/bitcoin/received_events",
          "type": "Organization",
          "site_admin": false
        },
        "private": false,
        "html_url": "https://github.com/bitcoin/bitcoin",
        "description": "Bitcoin Core integration/staging tree",
        "fork": false,
        "url": "https://api.github.com/repos/bitcoin/bitcoin",
        "archive_url": "https://api.github.com/repos/bitcoin/bitcoin/%7Barchive_format%7D%7B/ref%7D",
        "assignees_url": "https://api.github.com/repos/bitcoin/bitcoin/assignees%7B/user%7D",
        "blobs_url": "https://api.github.com/repos/bitcoin/bitcoin/git/blobs%7B/sha%7D",
        "branches_url": "https://api.github.com/repos/bitcoin/bitcoin/branches%7B/branch%7D",
        "collaborators_url": "https://api.github.com/repos/bitcoin/bitcoin/collaborators%7B/collaborator%7D",
        "comments_url": "https://api.github.com/repos/bitcoin/bitcoin/comments%7B/number%7D",
        "commits_url": "https://api.github.com/repos/bitcoin/bitcoin/commits%7B/sha%7D",
        "compare_url": "https://api.github.com/repos/bitcoin/bitcoin/compare/%7Bbase%7D...%7Bhead%7D",
        "contents_url": "https://api.github.com/repos/bitcoin/bitcoin/contents/%7B+path%7D",
        "contributors_url": "https://api.github.com/repos/bitcoin/bitcoin/contributors",
        "deployments_url": "https://api.github.com/repos/bitcoin/bitcoin/deployments",
        "downloads_url": "https://api.github.com/repos/bitcoin/bitcoin/downloads",
        "events_url": "https://api.github.com/repos/bitcoin/bitcoin/events",
        "forks_url": "https://api.github.com/repos/bitcoin/bitcoin/forks",
        "git_commits_url": "https://api.github.com/repos/bitcoin/bitcoin/git/commits%7B/sha%7D",
        "git_refs_url": "https://api.github.com/repos/bitcoin/bitcoin/git/refs%7B/sha%7D",
        "git_tags_url": "https://api.github.com/repos/bitcoin/bitcoin/git/tags%7B/sha%7D",
        "git_url": "git://github.com/bitcoin/bitcoin.git",
        "issue_comment_url": "https://api.github.com/repos/bitcoin/bitcoin/issues/comments%7B/number%7D",
        "issue_events_url": "https://api.github.com/repos/bitcoin/bitcoin/issues/events%7B/number%7D",
        "issues_url": "https://api.github.com/repos/bitcoin/bitcoin/issues%7B/number%7D",
        "keys_url": "https://api.github.com/repos/bitcoin/bitcoin/keys%7B/key_id%7D",
        "labels_url": "https://api.github.com/repos/bitcoin/bitcoin/labels%7B/name%7D",
        "languages_url": "https://api.github.com/repos/bitcoin/bitcoin/languages",
        "merges_url": "https://api.github.com/repos/bitcoin/bitcoin/merges",
        "milestones_url": "https://api.github.com/repos/bitcoin/bitcoin/milestones%7B/number%7D",
        "notifications_url": "https://api.github.com/repos/bitcoin/bitcoin/notifications%7B?since,all,participating}",
        "pulls_url": "https://api.github.com/repos/bitcoin/bitcoin/pulls%7B/number%7D",
        "releases_url": "https://api.github.com/repos/bitcoin/bitcoin/releases%7B/id%7D",
        "ssh_url": "git@github.com:bitcoin/bitcoin.git",
        "stargazers_url": "https://api.github.com/repos/bitcoin/bitcoin/stargazers",
        "statuses_url": "https://api.github.com/repos/bitcoin/bitcoin/statuses/%7Bsha%7D",
        "subscribers_url": "https://api.github.com/repos/bitcoin/bitcoin/subscribers",
        "subscription_url": "https://api.github.com/repos/bitcoin/bitcoin/subscription",
        "tags_url": "https://api.github.com/repos/bitcoin/bitcoin/tags",
        "teams_url": "https://api.github.com/repos/bitcoin/bitcoin/teams",
        "trees_url": "https://api.github.com/repos/bitcoin/bitcoin/git/trees%7B/sha%7D",
        "clone_url": "https://github.com/bitcoin/bitcoin.git",
        "hooks_url": "https://api.github.com/repos/bitcoin/bitcoin/hooks",
        "svn_url": "https://github.com/bitcoin/bitcoin",
        "homepage": "https://bitcoincore.org/en/download",
        "language": "C++",
        "forks_count": 35476,
        "stargazers_count": 70608,
        "watchers_count": 70608,
        "size": 236222,
        "default_branch": "master",
        "open_issues_count": 673,
        "is_template": false,
        "topics": [
          "bitcoin",
          "c-plus-plus",
          "cryptocurrency",
          "cryptography",
          "p2p"
        ],
        "has_issues": true,
        "has_projects": true,
        "has_wiki": false,
        "has_pages": false,
        "has_downloads": false,
        "archived": false,
        "disabled": false,
        "visibility": "public",
        "pushed_at": "2023-08-03T00:03:27Z",
        "created_at": "2010-12-19T15:16:43Z",
        "updated_at": "2023-08-02T18:21:18Z",
        "license": {
          "key": "mit",
          "name": "MIT License",
          "node_id": "MDc6TGljZW5zZTEz",
          "spdx_id": "MIT",
          "url": "https://api.github.com/licenses/mit",
          "html_url": null,
          "description": null,
          "implementation": null,
          "permissions": null,
          "conditions": null,
          "limitations": null,
          "body": null,
          "featured": null
        }
      }
    },
    "_links": {
      "self": {
        "href": "https://api.github.com/repos/bitcoin/bitcoin/pulls/27747"
      }
    },
    "author_association": "CONTRIBUTOR",
    "draft": false,
    "additions": 11,
    "deletions": 8,
    "changed_files": 3,
    "commits": 1,
    "review_comments": 4,
    "comments": 2
  },
  "events": [
    {
      "event": "reviewed",
      "id": 1443136434,
      "node_id": "PRR_kwDOABII585WBIOy",
      "url": null,
      "actor": null,
      "commit_id": "3a6c5acc903806b5ab00e3dbd447754c3fcc820f",
      "commit_url": null,
      "created_at": null,
      "author_association": "MEMBER",
      "body": "lgtm",
      "user": {
        "login": "MarcoFalke",
        "id": 6399679,
        "node_id": "MDQ6VXNlcjYzOTk2Nzk=",
        "avatar_url": "https://avatars.githubusercontent.com/u/6399679?v=4",
        "gravatar_id": "",
        "url": "https://api.github.com/users/MarcoFalke",
        "html_url": "https://github.com/MarcoFalke",
        "followers_url": "https://api.github.com/users/MarcoFalke/followers",
        "following_url": "https://api.github.com/users/MarcoFalke/following%7B/other_user%7D",
        "gists_url": "https://api.github.com/users/MarcoFalke/gists%7B/gist_id%7D",
        "starred_url": "https://api.github.com/users/MarcoFalke/starred%7B/owner%7D%7B/repo%7D",
        "subscriptions_url": "https://api.github.com/users/MarcoFalke/subscriptions",
        "organizations_url": "https://api.github.com/users/MarcoFalke/orgs",
        "repos_url": "https://api.github.com/users/MarcoFalke/repos",
        "events_url": "https://api.github.com/users/MarcoFalke/events%7B/privacy%7D",
        "received_events_url": "https://api.github.com/users/MarcoFalke/received_events",
        "type": "User",
        "site_admin": false
      },
      "html_url": "https://github.com/bitcoin/bitcoin/pull/27747#pullrequestreview-1443136434",
      "submitted_at": "2023-05-25T06:02:04Z",
      "state": "APPROVED",
      "pull_request_url": "https://api.github.com/repos/bitcoin/bitcoin/pulls/27747"
    },
    {
      "event": "renamed",
      "id": 9335693259,
      "node_id": "RTE_lADOABII585m0KuezwAAAAIsc1_L",
      "url": "https://api.github.com/repos/bitcoin/bitcoin/issues/events/9335693259",
      "actor": {
        "login": "DrahtBot",
        "id": 39886733,
        "node_id": "MDQ6VXNlcjM5ODg2NzMz",
        "avatar_url": "https://avatars.githubusercontent.com/u/39886733?v=4",
        "gravatar_id": "",
        "url": "https://api.github.com/users/DrahtBot",
        "html_url": "https://github.com/DrahtBot",
        "followers_url": "https://api.github.com/users/DrahtBot/followers",
        "following_url": "https://api.github.com/users/DrahtBot/following%7B/other_user%7D",
        "gists_url": "https://api.github.com/users/DrahtBot/gists%7B/gist_id%7D",
        "starred_url": "https://api.github.com/users/DrahtBot/starred%7B/owner%7D%7B/repo%7D",
        "subscriptions_url": "https://api.github.com/users/DrahtBot/subscriptions",
        "organizations_url": "https://api.github.com/users/DrahtBot/orgs",
        "repos_url": "https://api.github.com/users/DrahtBot/repos",
        "events_url": "https://api.github.com/users/DrahtBot/events%7B/privacy%7D",
        "received_events_url": "https://api.github.com/users/DrahtBot/received_events",
        "type": "User",
        "site_admin": false
      },
      "commit_id": null,
      "commit_url": null,
      "created_at": "2023-05-25T06:03:08Z",
      "rename": {
        "from": "Use 'byte'/'bytes' for bech32(m) validation error message - 27727 follow up.",
        "to": "rpc: Use 'byte'/'bytes' for bech32(m) validation error message"
      }
    },
    {
      "event": "commented",
      "id": 1562327643,
      "node_id": "IC_kwDOABII585dHzpb",
      "url": "https://api.github.com/repos/bitcoin/bitcoin/issues/comments/1562327643",
      "actor": {
        "login": "DrahtBot",
        "id": 39886733,
        "node_id": "MDQ6VXNlcjM5ODg2NzMz",
        "avatar_url": "https://avatars.githubusercontent.com/u/39886733?v=4",
        "gravatar_id": "",
        "url": "https://api.github.com/users/DrahtBot",
        "html_url": "https://github.com/DrahtBot",
        "followers_url": "https://api.github.com/users/DrahtBot/followers",
        "following_url": "https://api.github.com/users/DrahtBot/following%7B/other_user%7D",
        "gists_url": "https://api.github.com/users/DrahtBot/gists%7B/gist_id%7D",
        "starred_url": "https://api.github.com/users/DrahtBot/starred%7B/owner%7D%7B/repo%7D",
        "subscriptions_url": "https://api.github.com/users/DrahtBot/subscriptions",
        "organizations_url": "https://api.github.com/users/DrahtBot/orgs",
        "repos_url": "https://api.github.com/users/DrahtBot/repos",
        "events_url": "https://api.github.com/users/DrahtBot/events%7B/privacy%7D",
        "received_events_url": "https://api.github.com/users/DrahtBot/received_events",
        "type": "User",
        "site_admin": false
      },
      "commit_id": null,
      "commit_url": null,
      "created_at": "2023-05-25T06:06:42Z",
      "updated_at": "2023-05-25T10:04:28Z",
      "author_association": "CONTRIBUTOR",
      "body": "<!--e57a25ab6845829454e8d69fc972939a-->\n\nThe following sections might be updated with supplementary metadata relevant to reviewers and maintainers.\n\n<!--021abf342d371248e50ceaed478a90ca-->\n### Reviews\nSee [the guideline](https://github.com/bitcoin/bitcoin/blob/master/CONTRIBUTING.md#code-review) for information on the review process.\n| Type | Reviewers |\n| ---- | --------- |\n| ACK | [MarcoFalke](https://github.com/bitcoin/bitcoin/pull/27747#issuecomment-1562633587) |\n\nIf your review is incorrectly listed, please react with 👎 to this comment and the bot will ignore it on the next update.\n",
      "user": {
        "login": "DrahtBot",
        "id": 39886733,
        "node_id": "MDQ6VXNlcjM5ODg2NzMz",
        "avatar_url": "https://avatars.githubusercontent.com/u/39886733?v=4",
        "gravatar_id": "",
        "url": "https://api.github.com/users/DrahtBot",
        "html_url": "https://github.com/DrahtBot",
        "followers_url": "https://api.github.com/users/DrahtBot/followers",
        "following_url": "https://api.github.com/users/DrahtBot/following%7B/other_user%7D",
        "gists_url": "https://api.github.com/users/DrahtBot/gists%7B/gist_id%7D",
        "starred_url": "https://api.github.com/users/DrahtBot/starred%7B/owner%7D%7B/repo%7D",
        "subscriptions_url": "https://api.github.com/users/DrahtBot/subscriptions",
        "organizations_url": "https://api.github.com/users/DrahtBot/orgs",
        "repos_url": "https://api.github.com/users/DrahtBot/repos",
        "events_url": "https://api.github.com/users/DrahtBot/events%7B/privacy%7D",
        "received_events_url": "https://api.github.com/users/DrahtBot/received_events",
        "type": "User",
        "site_admin": false
      },
      "html_url": "https://github.com/bitcoin/bitcoin/pull/27747#issuecomment-1562327643",
      "issue_url": "https://api.github.com/repos/bitcoin/bitcoin/issues/27747"
    },
    {
      "event": "labeled",
      "id": 9335720514,
      "node_id": "LE_lADOABII585m0KuezwAAAAIsc8pC",
      "url": "https://api.github.com/repos/bitcoin/bitcoin/issues/events/9335720514",
      "actor": {
        "login": "DrahtBot",
        "id": 39886733,
        "node_id": "MDQ6VXNlcjM5ODg2NzMz",
        "avatar_url": "https://avatars.githubusercontent.com/u/39886733?v=4",
        "gravatar_id": "",
        "url": "https://api.github.com/users/DrahtBot",
        "html_url": "https://github.com/DrahtBot",
        "followers_url": "https://api.github.com/users/DrahtBot/followers",
        "following_url": "https://api.github.com/users/DrahtBot/following%7B/other_user%7D",
        "gists_url": "https://api.github.com/users/DrahtBot/gists%7B/gist_id%7D",
        "starred_url": "https://api.github.com/users/DrahtBot/starred%7B/owner%7D%7B/repo%7D",
        "subscriptions_url": "https://api.github.com/users/DrahtBot/subscriptions",
        "organizations_url": "https://api.github.com/users/DrahtBot/orgs",
        "repos_url": "https://api.github.com/users/DrahtBot/repos",
        "events_url": "https://api.github.com/users/DrahtBot/events%7B/privacy%7D",
        "received_events_url": "https://api.github.com/users/DrahtBot/received_events",
        "type": "User",
        "site_admin": false
      },
      "commit_id": null,
      "commit_url": null,
      "created_at": "2023-05-25T06:06:44Z",
      "label": {
        "name": "RPC/REST/ZMQ",
        "color": "0052cc"
      }
    },
    {
      "event": "head_ref_force_pushed",
      "id": 9335790608,
      "node_id": "HRFPE_lADOABII585m0KuezwAAAAIsdNwQ",
      "url": "https://api.github.com/repos/bitcoin/bitcoin/issues/events/9335790608",
      "actor": {
        "login": "russeree",
        "id": 3104223,
        "node_id": "MDQ6VXNlcjMxMDQyMjM=",
        "avatar_url": "https://avatars.githubusercontent.com/u/3104223?v=4",
        "gravatar_id": "",
        "url": "https://api.github.com/users/russeree",
        "html_url": "https://github.com/russeree",
        "followers_url": "https://api.github.com/users/russeree/followers",
        "following_url": "https://api.github.com/users/russeree/following%7B/other_user%7D",
        "gists_url": "https://api.github.com/users/russeree/gists%7B/gist_id%7D",
        "starred_url": "https://api.github.com/users/russeree/starred%7B/owner%7D%7B/repo%7D",
        "subscriptions_url": "https://api.github.com/users/russeree/subscriptions",
        "organizations_url": "https://api.github.com/users/russeree/orgs",
        "repos_url": "https://api.github.com/users/russeree/repos",
        "events_url": "https://api.github.com/users/russeree/events%7B/privacy%7D",
        "received_events_url": "https://api.github.com/users/russeree/received_events",
        "type": "User",
        "site_admin": false
      },
      "commit_id": null,
      "commit_url": null,
      "created_at": "2023-05-25T06:16:39Z"
    },
    {
      "event": "head_ref_force_pushed",
      "id": 9335816585,
      "node_id": "HRFPE_lADOABII585m0KuezwAAAAIsdUGJ",
      "url": "https://api.github.com/repos/bitcoin/bitcoin/issues/events/9335816585",
      "actor": {
        "login": "russeree",
        "id": 3104223,
        "node_id": "MDQ6VXNlcjMxMDQyMjM=",
        "avatar_url": "https://avatars.githubusercontent.com/u/3104223?v=4",
        "gravatar_id": "",
        "url": "https://api.github.com/users/russeree",
        "html_url": "https://github.com/russeree",
        "followers_url": "https://api.github.com/users/russeree/followers",
        "following_url": "https://api.github.com/users/russeree/following%7B/other_user%7D",
        "gists_url": "https://api.github.com/users/russeree/gists%7B/gist_id%7D",
        "starred_url": "https://api.github.com/users/russeree/starred%7B/owner%7D%7B/repo%7D",
        "subscriptions_url": "https://api.github.com/users/russeree/subscriptions",
        "organizations_url": "https://api.github.com/users/russeree/orgs",
        "repos_url": "https://api.github.com/users/russeree/repos",
        "events_url": "https://api.github.com/users/russeree/events%7B/privacy%7D",
        "received_events_url": "https://api.github.com/users/russeree/received_events",
        "type": "User",
        "site_admin": false
      },
      "commit_id": null,
      "commit_url": null,
      "created_at": "2023-05-25T06:20:24Z"
    },
    {
      "event": "reviewed",
      "id": 1443162454,
      "node_id": "PRR_kwDOABII585WBOlW",
      "url": null,
      "actor": null,
      "commit_id": "6fbdc72052821b7b877446f18a7a81e578d7e4f6",
      "commit_url": null,
      "created_at": null,
      "author_association": "MEMBER",
      "user": {
        "login": "MarcoFalke",
        "id": 6399679,
        "node_id": "MDQ6VXNlcjYzOTk2Nzk=",
        "avatar_url": "https://avatars.githubusercontent.com/u/6399679?v=4",
        "gravatar_id": "",
        "url": "https://api.github.com/users/MarcoFalke",
        "html_url": "https://github.com/MarcoFalke",
        "followers_url": "https://api.github.com/users/MarcoFalke/followers",
        "following_url": "https://api.github.com/users/MarcoFalke/following%7B/other_user%7D",
        "gists_url": "https://api.github.com/users/MarcoFalke/gists%7B/gist_id%7D",
        "starred_url": "https://api.github.com/users/MarcoFalke/starred%7B/owner%7D%7B/repo%7D",
        "subscriptions_url": "https://api.github.com/users/MarcoFalke/subscriptions",
        "organizations_url": "https://api.github.com/users/MarcoFalke/orgs",
        "repos_url": "https://api.github.com/users/MarcoFalke/repos",
        "events_url": "https://api.github.com/users/MarcoFalke/events%7B/privacy%7D",
        "received_events_url": "https://api.github.com/users/MarcoFalke/received_events",
        "type": "User",
        "site_admin": false
      },
      "html_url": "https://github.com/bitcoin/bitcoin/pull/27747#pullrequestreview-1443162454",
      "submitted_at": "2023-05-25T06:25:57Z",
      "state": "COMMENTED",
      "pull_request_url": "https://api.github.com/repos/bitcoin/bitcoin/pulls/27747"
    },
    {
      "event": "committed",
      "id": null,
      "node_id": "C_kwDOABII59oAKDNkMGE1YzM3ZTljY2VkZmE0ZWNmYWE0OGVlZWNhMWFkYTViNGVlYzE",
      "url": "https://api.github.com/repos/bitcoin/bitcoin/git/commits/3d0a5c37e9ccedfa4ecfaa48eeeca1ada5b4eec1",
      "actor": null,
      "commit_id": null,
      "commit_url": null,
      "created_at": null,
      "html_url": "https://github.com/bitcoin/bitcoin/commit/3d0a5c37e9ccedfa4ecfaa48eeeca1ada5b4eec1",
      "tree": {
        "sha": "d0c300699d6540da538888fc16efb62f3fb8539b",
        "url": "https://api.github.com/repos/bitcoin/bitcoin/git/trees/d0c300699d6540da538888fc16efb62f3fb8539b"
      },
      "verification": {
        "verified": false,
        "reason": "unsigned",
        "payload": null,
        "signature": null
      },
      "parents": [
        {
          "url": "https://api.github.com/repos/bitcoin/bitcoin/git/commits/a13f3746dccd9c4ec16d6bfe9b33ebd26e3238e1",
          "sha": "a13f3746dccd9c4ec16d6bfe9b33ebd26e3238e1",
          "html_url": "https://github.com/bitcoin/bitcoin/commit/a13f3746dccd9c4ec16d6bfe9b33ebd26e3238e1"
        }
      ],
      "message": "use 'byte'/'bytes' for bech32(m) validation error\n\nchanged from std::string -> std::string_view\n\napplied snake case to byteStr -> byte_str",
      "committer": {
        "name": "Reese Russell",
        "email": "reese.russell@ymail.com",
        "date": "2023-05-25T06:30:10Z"
      },
      "author": {
        "name": "Reese Russell",
        "email": "reese.russell@ymail.com",
        "date": "2023-05-25T01:23:04Z"
      },
      "sha": "3d0a5c37e9ccedfa4ecfaa48eeeca1ada5b4eec1"
    },
    {
      "event": "head_ref_force_pushed",
      "id": 9335894742,
      "node_id": "HRFPE_lADOABII585m0KuezwAAAAIsdnLW",
      "url": "https://api.github.com/repos/bitcoin/bitcoin/issues/events/9335894742",
      "actor": {
        "login": "russeree",
        "id": 3104223,
        "node_id": "MDQ6VXNlcjMxMDQyMjM=",
        "avatar_url": "https://avatars.githubusercontent.com/u/3104223?v=4",
        "gravatar_id": "",
        "url": "https://api.github.com/users/russeree",
        "html_url": "https://github.com/russeree",
        "followers_url": "https://api.github.com/users/russeree/followers",
        "following_url": "https://api.github.com/users/russeree/following%7B/other_user%7D",
        "gists_url": "https://api.github.com/users/russeree/gists%7B/gist_id%7D",
        "starred_url": "https://api.github.com/users/russeree/starred%7B/owner%7D%7B/repo%7D",
        "subscriptions_url": "https://api.github.com/users/russeree/subscriptions",
        "organizations_url": "https://api.github.com/users/russeree/orgs",
        "repos_url": "https://api.github.com/users/russeree/repos",
        "events_url": "https://api.github.com/users/russeree/events%7B/privacy%7D",
        "received_events_url": "https://api.github.com/users/russeree/received_events",
        "type": "User",
        "site_admin": false
      },
      "commit_id": null,
      "commit_url": null,
      "created_at": "2023-05-25T06:30:44Z"
    },
    {
      "event": "commented",
      "id": 1562633587,
      "node_id": "IC_kwDOABII585dI-Vz",
      "url": "https://api.github.com/repos/bitcoin/bitcoin/issues/comments/1562633587",
      "actor": {
        "login": "MarcoFalke",
        "id": 6399679,
        "node_id": "MDQ6VXNlcjYzOTk2Nzk=",
        "avatar_url": "https://avatars.githubusercontent.com/u/6399679?v=4",
        "gravatar_id": "",
        "url": "https://api.github.com/users/MarcoFalke",
        "html_url": "https://github.com/MarcoFalke",
        "followers_url": "https://api.github.com/users/MarcoFalke/followers",
        "following_url": "https://api.github.com/users/MarcoFalke/following%7B/other_user%7D",
        "gists_url": "https://api.github.com/users/MarcoFalke/gists%7B/gist_id%7D",
        "starred_url": "https://api.github.com/users/MarcoFalke/starred%7B/owner%7D%7B/repo%7D",
        "subscriptions_url": "https://api.github.com/users/MarcoFalke/subscriptions",
        "organizations_url": "https://api.github.com/users/MarcoFalke/orgs",
        "repos_url": "https://api.github.com/users/MarcoFalke/repos",
        "events_url": "https://api.github.com/users/MarcoFalke/events%7B/privacy%7D",
        "received_events_url": "https://api.github.com/users/MarcoFalke/received_events",
        "type": "User",
        "site_admin": false
      },
      "commit_id": null,
      "commit_url": null,
      "created_at": "2023-05-25T10:04:26Z",
      "updated_at": "2023-05-25T10:04:26Z",
      "author_association": "MEMBER",
      "body": "lgtm ACK 3d0a5c37e9ccedfa4ecfaa48eeeca1ada5b4eec1",
      "user": {
        "login": "MarcoFalke",
        "id": 6399679,
        "node_id": "MDQ6VXNlcjYzOTk2Nzk=",
        "avatar_url": "https://avatars.githubusercontent.com/u/6399679?v=4",
        "gravatar_id": "",
        "url": "https://api.github.com/users/MarcoFalke",
        "html_url": "https://github.com/MarcoFalke",
        "followers_url": "https://api.github.com/users/MarcoFalke/followers",
        "following_url": "https://api.github.com/users/MarcoFalke/following%7B/other_user%7D",
        "gists_url": "https://api.github.com/users/MarcoFalke/gists%7B/gist_id%7D",
        "starred_url": "https://api.github.com/users/MarcoFalke/starred%7B/owner%7D%7B/repo%7D",
        "subscriptions_url": "https://api.github.com/users/MarcoFalke/subscriptions",
        "organizations_url": "https://api.github.com/users/MarcoFalke/orgs",
        "repos_url": "https://api.github.com/users/MarcoFalke/repos",
        "events_url": "https://api.github.com/users/MarcoFalke/events%7B/privacy%7D",
        "received_events_url": "https://api.github.com/users/MarcoFalke/received_events",
        "type": "User",
        "site_admin": false
      },
      "html_url": "https://github.com/bitcoin/bitcoin/pull/27747#issuecomment-1562633587",
      "issue_url": "https://api.github.com/repos/bitcoin/bitcoin/issues/27747"
    },
    {
      "event": "merged",
      "id": 9338694127,
      "node_id": "ME_lADOABII585m0KuezwAAAAIsoSnv",
      "url": "https://api.github.com/repos/bitcoin/bitcoin/issues/events/9338694127",
      "actor": {
        "login": "fanquake",
        "id": 863730,
        "node_id": "MDQ6VXNlcjg2MzczMA==",
        "avatar_url": "https://avatars.githubusercontent.com/u/863730?v=4",
        "gravatar_id": "",
        "url": "https://api.github.com/users/fanquake",
        "html_url": "https://github.com/fanquake",
        "followers_url": "https://api.github.com/users/fanquake/followers",
        "following_url": "https://api.github.com/users/fanquake/following%7B/other_user%7D",
        "gists_url": "https://api.github.com/users/fanquake/gists%7B/gist_id%7D",
        "starred_url": "https://api.github.com/users/fanquake/starred%7B/owner%7D%7B/repo%7D",
        "subscriptions_url": "https://api.github.com/users/fanquake/subscriptions",
        "organizations_url": "https://api.github.com/users/fanquake/orgs",
        "repos_url": "https://api.github.com/users/fanquake/repos",
        "events_url": "https://api.github.com/users/fanquake/events%7B/privacy%7D",
        "received_events_url": "https://api.github.com/users/fanquake/received_events",
        "type": "User",
        "site_admin": false
      },
      "commit_id": "9d098af5a94b0766a03c8e5b94333e203ea04b3e",
      "commit_url": "https://api.github.com/repos/bitcoin/bitcoin/commits/9d098af5a94b0766a03c8e5b94333e203ea04b3e",
      "created_at": "2023-05-25T11:03:28Z"
    },
    {
      "event": "closed",
      "id": 9338694182,
      "node_id": "CE_lADOABII585m0KuezwAAAAIsoSom",
      "url": "https://api.github.com/repos/bitcoin/bitcoin/issues/events/9338694182",
      "actor": {
        "login": "fanquake",
        "id": 863730,
        "node_id": "MDQ6VXNlcjg2MzczMA==",
        "avatar_url": "https://avatars.githubusercontent.com/u/863730?v=4",
        "gravatar_id": "",
        "url": "https://api.github.com/users/fanquake",
        "html_url": "https://github.com/fanquake",
        "followers_url": "https://api.github.com/users/fanquake/followers",
        "following_url": "https://api.github.com/users/fanquake/following%7B/other_user%7D",
        "gists_url": "https://api.github.com/users/fanquake/gists%7B/gist_id%7D",
        "starred_url": "https://api.github.com/users/fanquake/starred%7B/owner%7D%7B/repo%7D",
        "subscriptions_url": "https://api.github.com/users/fanquake/subscriptions",
        "organizations_url": "https://api.github.com/users/fanquake/orgs",
        "repos_url": "https://api.github.com/users/fanquake/repos",
        "events_url": "https://api.github.com/users/fanquake/events%7B/privacy%7D",
        "received_events_url": "https://api.github.com/users/fanquake/received_events",
        "type": "User",
        "site_admin": false
      },
      "commit_id": null,
      "commit_url": null,
      "created_at": "2023-05-25T11:03:29Z"
    },
    {
      "event": "head_ref_deleted",
      "id": 9338846313,
      "node_id": "HRDE_lADOABII585m0KuezwAAAAIso3xp",
      "url": "https://api.github.com/repos/bitcoin/bitcoin/issues/events/9338846313",
      "actor": {
        "login": "russeree",
        "id": 3104223,
        "node_id": "MDQ6VXNlcjMxMDQyMjM=",
        "avatar_url": "https://avatars.githubusercontent.com/u/3104223?v=4",
        "gravatar_id": "",
        "url": "https://api.github.com/users/russeree",
        "html_url": "https://github.com/russeree",
        "followers_url": "https://api.github.com/users/russeree/followers",
        "following_url": "https://api.github.com/users/russeree/following%7B/other_user%7D",
        "gists_url": "https://api.github.com/users/russeree/gists%7B/gist_id%7D",
        "starred_url": "https://api.github.com/users/russeree/starred%7B/owner%7D%7B/repo%7D",
        "subscriptions_url": "https://api.github.com/users/russeree/subscriptions",
        "organizations_url": "https://api.github.com/users/russeree/orgs",
        "repos_url": "https://api.github.com/users/russeree/repos",
        "events_url": "https://api.github.com/users/russeree/events%7B/privacy%7D",
        "received_events_url": "https://api.github.com/users/russeree/received_events",
        "type": "User",
        "site_admin": false
      },
      "commit_id": null,
      "commit_url": null,
      "created_at": "2023-05-25T11:19:26Z"
    },
    {
      "event": "head_ref_restored",
      "id": 9338847111,
      "node_id": "HRRE_lADOABII585m0KuezwAAAAIso3-H",
      "url": "https://api.github.com/repos/bitcoin/bitcoin/issues/events/9338847111",
      "actor": {
        "login": "russeree",
        "id": 3104223,
        "node_id": "MDQ6VXNlcjMxMDQyMjM=",
        "avatar_url": "https://avatars.githubusercontent.com/u/3104223?v=4",
        "gravatar_id": "",
        "url": "https://api.github.com/users/russeree",
        "html_url": "https://github.com/russeree",
        "followers_url": "https://api.github.com/users/russeree/followers",
        "following_url": "https://api.github.com/users/russeree/following%7B/other_user%7D",
        "gists_url": "https://api.github.com/users/russeree/gists%7B/gist_id%7D",
        "starred_url": "https://api.github.com/users/russeree/starred%7B/owner%7D%7B/repo%7D",
        "subscriptions_url": "https://api.github.com/users/russeree/subscriptions",
        "organizations_url": "https://api.github.com/users/russeree/orgs",
        "repos_url": "https://api.github.com/users/russeree/repos",
        "events_url": "https://api.github.com/users/russeree/events%7B/privacy%7D",
        "received_events_url": "https://api.github.com/users/russeree/received_events",
        "type": "User",
        "site_admin": false
      },
      "commit_id": null,
      "commit_url": null,
      "created_at": "2023-05-25T11:19:30Z"
    },
    {
      "event": "head_ref_deleted",
      "id": 9338847404,
      "node_id": "HRDE_lADOABII585m0KuezwAAAAIso4Cs",
      "url": "https://api.github.com/repos/bitcoin/bitcoin/issues/events/9338847404",
      "actor": {
        "login": "russeree",
        "id": 3104223,
        "node_id": "MDQ6VXNlcjMxMDQyMjM=",
        "avatar_url": "https://avatars.githubusercontent.com/u/3104223?v=4",
        "gravatar_id": "",
        "url": "https://api.github.com/users/russeree",
        "html_url": "https://github.com/russeree",
        "followers_url": "https://api.github.com/users/russeree/followers",
        "following_url": "https://api.github.com/users/russeree/following%7B/other_user%7D",
        "gists_url": "https://api.github.com/users/russeree/gists%7B/gist_id%7D",
        "starred_url": "https://api.github.com/users/russeree/starred%7B/owner%7D%7B/repo%7D",
        "subscriptions_url": "https://api.github.com/users/russeree/subscriptions",
        "organizations_url": "https://api.github.com/users/russeree/orgs",
        "repos_url": "https://api.github.com/users/russeree/repos",
        "events_url": "https://api.github.com/users/russeree/events%7B/privacy%7D",
        "received_events_url": "https://api.github.com/users/russeree/received_events",
        "type": "User",
        "site_admin": false
      },
      "commit_id": null,
      "commit_url": null,
      "created_at": "2023-05-25T11:19:31Z"
    },
    {
      "event": "head_ref_restored",
      "id": 9338848271,
      "node_id": "HRRE_lADOABII585m0KuezwAAAAIso4QP",
      "url": "https://api.github.com/repos/bitcoin/bitcoin/issues/events/9338848271",
      "actor": {
        "login": "russeree",
        "id": 3104223,
        "node_id": "MDQ6VXNlcjMxMDQyMjM=",
        "avatar_url": "https://avatars.githubusercontent.com/u/3104223?v=4",
        "gravatar_id": "",
        "url": "https://api.github.com/users/russeree",
        "html_url": "https://github.com/russeree",
        "followers_url": "https://api.github.com/users/russeree/followers",
        "following_url": "https://api.github.com/users/russeree/following%7B/other_user%7D",
        "gists_url": "https://api.github.com/users/russeree/gists%7B/gist_id%7D",
        "starred_url": "https://api.github.com/users/russeree/starred%7B/owner%7D%7B/repo%7D",
        "subscriptions_url": "https://api.github.com/users/russeree/subscriptions",
        "organizations_url": "https://api.github.com/users/russeree/orgs",
        "repos_url": "https://api.github.com/users/russeree/repos",
        "events_url": "https://api.github.com/users/russeree/events%7B/privacy%7D",
        "received_events_url": "https://api.github.com/users/russeree/received_events",
        "type": "User",
        "site_admin": false
      },
      "commit_id": null,
      "commit_url": null,
      "created_at": "2023-05-25T11:19:35Z"
    }
  ],
  "comments": [
    {
      "url": "https://api.github.com/repos/bitcoin/bitcoin/pulls/comments/1205031671",
      "pull_request_review_id": 1443136434,
      "id": 1205031671,
      "node_id": "PRRC_kwDOABII585H01L3",
      "diff_hunk": "@@ -146,6 +146,9 @@ CTxDestination DecodeDestination(const std::string& str, const CChainParams& par\n         // The rest of the symbols are converted witness program bytes.\n         data.reserve(((dec.data.size() - 1) * 5) / 8);\n         if (ConvertBits<5, 8, false>([&](unsigned char c) { data.push_back(c); }, dec.data.begin() + 1, dec.data.end())) {\n+\n+            const std::string byteStr = data.size() == 1 ? \"byte\" : \"bytes\";",
      "path": "src/key_io.cpp",
      "position": null,
      "original_position": 5,
      "commit_id": "3d0a5c37e9ccedfa4ecfaa48eeeca1ada5b4eec1",
      "original_commit_id": "7d52c6f5a31cf89b5bc388c4dacf91c0ec6a485f",
      "in_reply_to_id": null,
      "user": {
        "login": "MarcoFalke",
        "id": 6399679,
        "node_id": "MDQ6VXNlcjYzOTk2Nzk=",
        "avatar_url": "https://avatars.githubusercontent.com/u/6399679?v=4",
        "gravatar_id": "",
        "url": "https://api.github.com/users/MarcoFalke",
        "html_url": "https://github.com/MarcoFalke",
        "followers_url": "https://api.github.com/users/MarcoFalke/followers",
        "following_url": "https://api.github.com/users/MarcoFalke/following%7B/other_user%7D",
        "gists_url": "https://api.github.com/users/MarcoFalke/gists%7B/gist_id%7D",
        "starred_url": "https://api.github.com/users/MarcoFalke/starred%7B/owner%7D%7B/repo%7D",
        "subscriptions_url": "https://api.github.com/users/MarcoFalke/subscriptions",
        "organizations_url": "https://api.github.com/users/MarcoFalke/orgs",
        "repos_url": "https://api.github.com/users/MarcoFalke/repos",
        "events_url": "https://api.github.com/users/MarcoFalke/events%7B/privacy%7D",
        "received_events_url": "https://api.github.com/users/MarcoFalke/received_events",
        "type": "User",
        "site_admin": false
      },
      "body": "```suggestion\r\n            std::string_view byte_str{data.size() == 1 ? \"byte\" : \"bytes\"};\r\n```\r\n\r\nnit: snake_case per dev notes and string_view to avoid a copy?",
      "created_at": "2023-05-25T06:01:58Z",
      "updated_at": "2023-05-25T06:02:05Z",
      "html_url": "https://github.com/bitcoin/bitcoin/pull/27747#discussion_r1205031671",
      "author_association": "MEMBER",
      "_links": {
        "self": {
          "href": "https://api.github.com/repos/bitcoin/bitcoin/pulls/comments/1205031671"
        },
        "pull_request": {
          "href": "https://api.github.com/repos/bitcoin/bitcoin/pulls/27747"
        }
      },
      "start_line": null,
      "original_start_line": null,
      "start_side": null,
      "line": null,
      "original_line": 150,
      "side": "RIGHT"
    },
    {
      "url": "https://api.github.com/repos/bitcoin/bitcoin/pulls/comments/1205046324",
      "pull_request_review_id": 1443159314,
      "id": 1205046324,
      "node_id": "PRRC_kwDOABII585H04w0",
      "diff_hunk": "@@ -146,6 +146,9 @@ CTxDestination DecodeDestination(const std::string& str, const CChainParams& par\n         // The rest of the symbols are converted witness program bytes.\n         data.reserve(((dec.data.size() - 1) * 5) / 8);\n         if (ConvertBits<5, 8, false>([&](unsigned char c) { data.push_back(c); }, dec.data.begin() + 1, dec.data.end())) {\n+\n+            const std::string byteStr = data.size() == 1 ? \"byte\" : \"bytes\";",
      "path": "src/key_io.cpp",
      "position": null,
      "original_position": 5,
      "commit_id": "3d0a5c37e9ccedfa4ecfaa48eeeca1ada5b4eec1",
      "original_commit_id": "7d52c6f5a31cf89b5bc388c4dacf91c0ec6a485f",
      "in_reply_to_id": 1205031671,
      "user": {
        "login": "russeree",
        "id": 3104223,
        "node_id": "MDQ6VXNlcjMxMDQyMjM=",
        "avatar_url": "https://avatars.githubusercontent.com/u/3104223?v=4",
        "gravatar_id": "",
        "url": "https://api.github.com/users/russeree",
        "html_url": "https://github.com/russeree",
        "followers_url": "https://api.github.com/users/russeree/followers",
        "following_url": "https://api.github.com/users/russeree/following%7B/other_user%7D",
        "gists_url": "https://api.github.com/users/russeree/gists%7B/gist_id%7D",
        "starred_url": "https://api.github.com/users/russeree/starred%7B/owner%7D%7B/repo%7D",
        "subscriptions_url": "https://api.github.com/users/russeree/subscriptions",
        "organizations_url": "https://api.github.com/users/russeree/orgs",
        "repos_url": "https://api.github.com/users/russeree/repos",
        "events_url": "https://api.github.com/users/russeree/events%7B/privacy%7D",
        "received_events_url": "https://api.github.com/users/russeree/received_events",
        "type": "User",
        "site_admin": false
      },
      "body": "Applied, committed, squashed, and pushed. \r\n\r\n- Is there any need for `const` keyword with std::string_view since it is read only? \r\n\r\n- Snake case has been remedied.",
      "created_at": "2023-05-25T06:23:06Z",
      "updated_at": "2023-05-25T06:23:07Z",
      "html_url": "https://github.com/bitcoin/bitcoin/pull/27747#discussion_r1205046324",
      "author_association": "CONTRIBUTOR",
      "_links": {
        "self": {
          "href": "https://api.github.com/repos/bitcoin/bitcoin/pulls/comments/1205046324"
        },
        "pull_request": {
          "href": "https://api.github.com/repos/bitcoin/bitcoin/pulls/27747"
        }
      },
      "start_line": null,
      "original_start_line": null,
      "start_side": null,
      "line": null,
      "original_line": 150,
      "side": "RIGHT"
    },
    {
      "url": "https://api.github.com/repos/bitcoin/bitcoin/pulls/comments/1205048572",
      "pull_request_review_id": 1443162454,
      "id": 1205048572,
      "node_id": "PRRC_kwDOABII585H05T8",
      "diff_hunk": "@@ -146,6 +146,9 @@ CTxDestination DecodeDestination(const std::string& str, const CChainParams& par\n         // The rest of the symbols are converted witness program bytes.\n         data.reserve(((dec.data.size() - 1) * 5) / 8);\n         if (ConvertBits<5, 8, false>([&](unsigned char c) { data.push_back(c); }, dec.data.begin() + 1, dec.data.end())) {\n+\n+            std::string_view byteStr {data.size() == 1 ? \"byte\" : \"bytes\"};",
      "path": "src/key_io.cpp",
      "position": null,
      "original_position": 5,
      "commit_id": "3d0a5c37e9ccedfa4ecfaa48eeeca1ada5b4eec1",
      "original_commit_id": "6fbdc72052821b7b877446f18a7a81e578d7e4f6",
      "in_reply_to_id": null,
      "user": {
        "login": "MarcoFalke",
        "id": 6399679,
        "node_id": "MDQ6VXNlcjYzOTk2Nzk=",
        "avatar_url": "https://avatars.githubusercontent.com/u/6399679?v=4",
        "gravatar_id": "",
        "url": "https://api.github.com/users/MarcoFalke",
        "html_url": "https://github.com/MarcoFalke",
        "followers_url": "https://api.github.com/users/MarcoFalke/followers",
        "following_url": "https://api.github.com/users/MarcoFalke/following%7B/other_user%7D",
        "gists_url": "https://api.github.com/users/MarcoFalke/gists%7B/gist_id%7D",
        "starred_url": "https://api.github.com/users/MarcoFalke/starred%7B/owner%7D%7B/repo%7D",
        "subscriptions_url": "https://api.github.com/users/MarcoFalke/subscriptions",
        "organizations_url": "https://api.github.com/users/MarcoFalke/orgs",
        "repos_url": "https://api.github.com/users/MarcoFalke/repos",
        "events_url": "https://api.github.com/users/MarcoFalke/events%7B/privacy%7D",
        "received_events_url": "https://api.github.com/users/MarcoFalke/received_events",
        "type": "User",
        "site_admin": false
      },
      "body": "```suggestion\r\n            std::string_view byte_str{data.size() == 1 ? \"byte\" : \"bytes\"};\r\n```",
      "created_at": "2023-05-25T06:25:57Z",
      "updated_at": "2023-05-25T06:25:57Z",
      "html_url": "https://github.com/bitcoin/bitcoin/pull/27747#discussion_r1205048572",
      "author_association": "MEMBER",
      "_links": {
        "self": {
          "href": "https://api.github.com/repos/bitcoin/bitcoin/pulls/comments/1205048572"
        },
        "pull_request": {
          "href": "https://api.github.com/repos/bitcoin/bitcoin/pulls/27747"
        }
      },
      "start_line": null,
      "original_start_line": null,
      "start_side": null,
      "line": null,
      "original_line": 150,
      "side": "RIGHT"
    },
    {
      "url": "https://api.github.com/repos/bitcoin/bitcoin/pulls/comments/1205053788",
      "pull_request_review_id": 1443170362,
      "id": 1205053788,
      "node_id": "PRRC_kwDOABII585H06lc",
      "diff_hunk": "@@ -146,6 +146,9 @@ CTxDestination DecodeDestination(const std::string& str, const CChainParams& par\n         // The rest of the symbols are converted witness program bytes.\n         data.reserve(((dec.data.size() - 1) * 5) / 8);\n         if (ConvertBits<5, 8, false>([&](unsigned char c) { data.push_back(c); }, dec.data.begin() + 1, dec.data.end())) {\n+\n+            std::string_view byteStr {data.size() == 1 ? \"byte\" : \"bytes\"};",
      "path": "src/key_io.cpp",
      "position": null,
      "original_position": 5,
      "commit_id": "3d0a5c37e9ccedfa4ecfaa48eeeca1ada5b4eec1",
      "original_commit_id": "6fbdc72052821b7b877446f18a7a81e578d7e4f6",
      "in_reply_to_id": 1205048572,
      "user": {
        "login": "russeree",
        "id": 3104223,
        "node_id": "MDQ6VXNlcjMxMDQyMjM=",
        "avatar_url": "https://avatars.githubusercontent.com/u/3104223?v=4",
        "gravatar_id": "",
        "url": "https://api.github.com/users/russeree",
        "html_url": "https://github.com/russeree",
        "followers_url": "https://api.github.com/users/russeree/followers",
        "following_url": "https://api.github.com/users/russeree/following%7B/other_user%7D",
        "gists_url": "https://api.github.com/users/russeree/gists%7B/gist_id%7D",
        "starred_url": "https://api.github.com/users/russeree/starred%7B/owner%7D%7B/repo%7D",
        "subscriptions_url": "https://api.github.com/users/russeree/subscriptions",
        "organizations_url": "https://api.github.com/users/russeree/orgs",
        "repos_url": "https://api.github.com/users/russeree/repos",
        "events_url": "https://api.github.com/users/russeree/events%7B/privacy%7D",
        "received_events_url": "https://api.github.com/users/russeree/received_events",
        "type": "User",
        "site_admin": false
      },
      "body": "My apologies for not being attentive to detail. This has now been remedied.",
      "created_at": "2023-05-25T06:32:32Z",
      "updated_at": "2023-05-25T06:32:33Z",
      "html_url": "https://github.com/bitcoin/bitcoin/pull/27747#discussion_r1205053788",
      "author_association": "CONTRIBUTOR",
      "_links": {
        "self": {
          "href": "https://api.github.com/repos/bitcoin/bitcoin/pulls/comments/1205053788"
        },
        "pull_request": {
          "href": "https://api.github.com/repos/bitcoin/bitcoin/pulls/27747"
        }
      },
      "start_line": null,
      "original_start_line": null,
      "start_side": null,
      "line": null,
      "original_line": 150,
      "side": "RIGHT"
    }
  ]
}