{
  "type": "pull",
  "pull": {
    "url": "https://api.github.com/repos/bitcoin/bitcoin/pulls/27771",
    "id": 1367929781,
    "node_id": "PR_kwDOABII585RiPO1",
    "html_url": "https://github.com/bitcoin/bitcoin/pull/27771",
    "diff_url": "https://github.com/bitcoin/bitcoin/pull/27771.diff",
    "patch_url": "https://github.com/bitcoin/bitcoin/pull/27771.patch",
    "issue_url": "https://api.github.com/repos/bitcoin/bitcoin/issues/27771",
    "commits_url": "https://api.github.com/repos/bitcoin/bitcoin/pulls/27771/commits",
    "review_comments_url": "https://api.github.com/repos/bitcoin/bitcoin/pulls/27771/comments",
    "review_comment_url": "https://api.github.com/repos/bitcoin/bitcoin/pulls/comments%7B/number%7D",
    "comments_url": "https://api.github.com/repos/bitcoin/bitcoin/issues/27771/comments",
    "statuses_url": "https://api.github.com/repos/bitcoin/bitcoin/statuses/77551bc08976ca924096a008ed43efd9483376cc",
    "number": 27771,
    "state": "closed",
    "locked": false,
    "maintainer_can_modify": false,
    "title": "ci: Use docker image cache for \"Win64 native [vs2022]\" task",
    "user": {
      "login": "hebasto",
      "id": 32963518,
      "node_id": "MDQ6VXNlcjMyOTYzNTE4",
      "avatar_url": "https://avatars.githubusercontent.com/u/32963518?v=4",
      "gravatar_id": "",
      "url": "https://api.github.com/users/hebasto",
      "html_url": "https://github.com/hebasto",
      "followers_url": "https://api.github.com/users/hebasto/followers",
      "following_url": "https://api.github.com/users/hebasto/following%7B/other_user%7D",
      "gists_url": "https://api.github.com/users/hebasto/gists%7B/gist_id%7D",
      "starred_url": "https://api.github.com/users/hebasto/starred%7B/owner%7D%7B/repo%7D",
      "subscriptions_url": "https://api.github.com/users/hebasto/subscriptions",
      "organizations_url": "https://api.github.com/users/hebasto/orgs",
      "repos_url": "https://api.github.com/users/hebasto/repos",
      "events_url": "https://api.github.com/users/hebasto/events%7B/privacy%7D",
      "received_events_url": "https://api.github.com/users/hebasto/received_events",
      "type": "User",
      "site_admin": false
    },
    "body": "This PR aims to avoid intermittent network issues and speed up the \"Win64 native [vs2022]\" CI task by caching related to chocolately and vcpkg steps in the docker image cache.",
    "labels": [
      {
        "id": 62963516,
        "node_id": "MDU6TGFiZWw2Mjk2MzUxNg==",
        "url": "https://api.github.com/repos/bitcoin/bitcoin/labels/Tests",
        "name": "Tests",
        "color": "d4c5f9",
        "default": false
      }
    ],
    "created_at": "2023-05-28T11:26:30Z",
    "updated_at": "2023-07-27T16:57:25Z",
    "closed_at": "2023-07-27T16:57:25Z",
    "mergeable_state": "unknown",
    "merge_commit_sha": "de93eb14a5a7e06aba5b1beea9589b1b4e6c1640",
    "assignees": [],
    "requested_reviewers": [],
    "requested_teams": [],
    "head": {
      "label": "hebasto:230528-docker-win",
      "ref": "230528-docker-win",
      "sha": "77551bc08976ca924096a008ed43efd9483376cc",
      "user": {
        "login": "hebasto",
        "id": 32963518,
        "node_id": "MDQ6VXNlcjMyOTYzNTE4",
        "avatar_url": "https://avatars.githubusercontent.com/u/32963518?v=4",
        "gravatar_id": "",
        "url": "https://api.github.com/users/hebasto",
        "html_url": "https://github.com/hebasto",
        "followers_url": "https://api.github.com/users/hebasto/followers",
        "following_url": "https://api.github.com/users/hebasto/following%7B/other_user%7D",
        "gists_url": "https://api.github.com/users/hebasto/gists%7B/gist_id%7D",
        "starred_url": "https://api.github.com/users/hebasto/starred%7B/owner%7D%7B/repo%7D",
        "subscriptions_url": "https://api.github.com/users/hebasto/subscriptions",
        "organizations_url": "https://api.github.com/users/hebasto/orgs",
        "repos_url": "https://api.github.com/users/hebasto/repos",
        "events_url": "https://api.github.com/users/hebasto/events%7B/privacy%7D",
        "received_events_url": "https://api.github.com/users/hebasto/received_events",
        "type": "User",
        "site_admin": false
      },
      "repo": {
        "id": 143212778,
        "node_id": "MDEwOlJlcG9zaXRvcnkxNDMyMTI3Nzg=",
        "name": "bitcoin",
        "full_name": "hebasto/bitcoin",
        "owner": {
          "login": "hebasto",
          "id": 32963518,
          "node_id": "MDQ6VXNlcjMyOTYzNTE4",
          "avatar_url": "https://avatars.githubusercontent.com/u/32963518?v=4",
          "gravatar_id": "",
          "url": "https://api.github.com/users/hebasto",
          "html_url": "https://github.com/hebasto",
          "followers_url": "https://api.github.com/users/hebasto/followers",
          "following_url": "https://api.github.com/users/hebasto/following%7B/other_user%7D",
          "gists_url": "https://api.github.com/users/hebasto/gists%7B/gist_id%7D",
          "starred_url": "https://api.github.com/users/hebasto/starred%7B/owner%7D%7B/repo%7D",
          "subscriptions_url": "https://api.github.com/users/hebasto/subscriptions",
          "organizations_url": "https://api.github.com/users/hebasto/orgs",
          "repos_url": "https://api.github.com/users/hebasto/repos",
          "events_url": "https://api.github.com/users/hebasto/events%7B/privacy%7D",
          "received_events_url": "https://api.github.com/users/hebasto/received_events",
          "type": "User",
          "site_admin": false
        },
        "private": false,
        "html_url": "https://github.com/hebasto/bitcoin",
        "description": "Bitcoin Core integration/staging tree",
        "fork": true,
        "url": "https://api.github.com/repos/hebasto/bitcoin",
        "archive_url": "https://api.github.com/repos/hebasto/bitcoin/%7Barchive_format%7D%7B/ref%7D",
        "assignees_url": "https://api.github.com/repos/hebasto/bitcoin/assignees%7B/user%7D",
        "blobs_url": "https://api.github.com/repos/hebasto/bitcoin/git/blobs%7B/sha%7D",
        "branches_url": "https://api.github.com/repos/hebasto/bitcoin/branches%7B/branch%7D",
        "collaborators_url": "https://api.github.com/repos/hebasto/bitcoin/collaborators%7B/collaborator%7D",
        "comments_url": "https://api.github.com/repos/hebasto/bitcoin/comments%7B/number%7D",
        "commits_url": "https://api.github.com/repos/hebasto/bitcoin/commits%7B/sha%7D",
        "compare_url": "https://api.github.com/repos/hebasto/bitcoin/compare/%7Bbase%7D...%7Bhead%7D",
        "contents_url": "https://api.github.com/repos/hebasto/bitcoin/contents/%7B+path%7D",
        "contributors_url": "https://api.github.com/repos/hebasto/bitcoin/contributors",
        "deployments_url": "https://api.github.com/repos/hebasto/bitcoin/deployments",
        "downloads_url": "https://api.github.com/repos/hebasto/bitcoin/downloads",
        "events_url": "https://api.github.com/repos/hebasto/bitcoin/events",
        "forks_url": "https://api.github.com/repos/hebasto/bitcoin/forks",
        "git_commits_url": "https://api.github.com/repos/hebasto/bitcoin/git/commits%7B/sha%7D",
        "git_refs_url": "https://api.github.com/repos/hebasto/bitcoin/git/refs%7B/sha%7D",
        "git_tags_url": "https://api.github.com/repos/hebasto/bitcoin/git/tags%7B/sha%7D",
        "git_url": "git://github.com/hebasto/bitcoin.git",
        "issue_comment_url": "https://api.github.com/repos/hebasto/bitcoin/issues/comments%7B/number%7D",
        "issue_events_url": "https://api.github.com/repos/hebasto/bitcoin/issues/events%7B/number%7D",
        "issues_url": "https://api.github.com/repos/hebasto/bitcoin/issues%7B/number%7D",
        "keys_url": "https://api.github.com/repos/hebasto/bitcoin/keys%7B/key_id%7D",
        "labels_url": "https://api.github.com/repos/hebasto/bitcoin/labels%7B/name%7D",
        "languages_url": "https://api.github.com/repos/hebasto/bitcoin/languages",
        "merges_url": "https://api.github.com/repos/hebasto/bitcoin/merges",
        "milestones_url": "https://api.github.com/repos/hebasto/bitcoin/milestones%7B/number%7D",
        "notifications_url": "https://api.github.com/repos/hebasto/bitcoin/notifications%7B?since,all,participating}",
        "pulls_url": "https://api.github.com/repos/hebasto/bitcoin/pulls%7B/number%7D",
        "releases_url": "https://api.github.com/repos/hebasto/bitcoin/releases%7B/id%7D",
        "ssh_url": "git@github.com:hebasto/bitcoin.git",
        "stargazers_url": "https://api.github.com/repos/hebasto/bitcoin/stargazers",
        "statuses_url": "https://api.github.com/repos/hebasto/bitcoin/statuses/%7Bsha%7D",
        "subscribers_url": "https://api.github.com/repos/hebasto/bitcoin/subscribers",
        "subscription_url": "https://api.github.com/repos/hebasto/bitcoin/subscription",
        "tags_url": "https://api.github.com/repos/hebasto/bitcoin/tags",
        "teams_url": "https://api.github.com/repos/hebasto/bitcoin/teams",
        "trees_url": "https://api.github.com/repos/hebasto/bitcoin/git/trees%7B/sha%7D",
        "clone_url": "https://github.com/hebasto/bitcoin.git",
        "hooks_url": "https://api.github.com/repos/hebasto/bitcoin/hooks",
        "svn_url": "https://github.com/hebasto/bitcoin",
        "homepage": "https://bitcoincore.org/en/download",
        "language": "C++",
        "forks_count": 3,
        "stargazers_count": 13,
        "watchers_count": 13,
        "size": 251607,
        "default_branch": "master",
        "open_issues_count": 3,
        "is_template": false,
        "topics": [
          "bitcoin-core"
        ],
        "has_issues": true,
        "has_projects": false,
        "has_wiki": false,
        "has_pages": false,
        "has_downloads": false,
        "archived": false,
        "disabled": false,
        "visibility": "public",
        "pushed_at": "2023-08-02T18:38:17Z",
        "created_at": "2018-08-01T21:59:57Z",
        "updated_at": "2023-07-25T14:18:54Z",
        "license": {
          "key": "mit",
          "name": "MIT License",
          "node_id": "MDc6TGljZW5zZTEz",
          "spdx_id": "MIT",
          "url": "https://api.github.com/licenses/mit",
          "html_url": null,
          "description": null,
          "implementation": null,
          "permissions": null,
          "conditions": null,
          "limitations": null,
          "body": null,
          "featured": null
        }
      }
    },
    "base": {
      "label": "bitcoin:master",
      "ref": "master",
      "sha": "7d33ae755de2bff806fe600bdaebedbd7fa67aba",
      "user": {
        "login": "bitcoin",
        "id": 528860,
        "node_id": "MDEyOk9yZ2FuaXphdGlvbjUyODg2MA==",
        "avatar_url": "https://avatars.githubusercontent.com/u/528860?v=4",
        "gravatar_id": "",
        "url": "https://api.github.com/users/bitcoin",
        "html_url": "https://github.com/bitcoin",
        "followers_url": "https://api.github.com/users/bitcoin/followers",
        "following_url": "https://api.github.com/users/bitcoin/following%7B/other_user%7D",
        "gists_url": "https://api.github.com/users/bitcoin/gists%7B/gist_id%7D",
        "starred_url": "https://api.github.com/users/bitcoin/starred%7B/owner%7D%7B/repo%7D",
        "subscriptions_url": "https://api.github.com/users/bitcoin/subscriptions",
        "organizations_url": "https://api.github.com/users/bitcoin/orgs",
        "repos_url": "https://api.github.com/users/bitcoin/repos",
        "events_url": "https://api.github.com/users/bitcoin/events%7B/privacy%7D",
        "received_events_url": "https://api.github.com/users/bitcoin/received_events",
        "type": "Organization",
        "site_admin": false
      },
      "repo": {
        "id": 1181927,
        "node_id": "MDEwOlJlcG9zaXRvcnkxMTgxOTI3",
        "name": "bitcoin",
        "full_name": "bitcoin/bitcoin",
        "owner": {
          "login": "bitcoin",
          "id": 528860,
          "node_id": "MDEyOk9yZ2FuaXphdGlvbjUyODg2MA==",
          "avatar_url": "https://avatars.githubusercontent.com/u/528860?v=4",
          "gravatar_id": "",
          "url": "https://api.github.com/users/bitcoin",
          "html_url": "https://github.com/bitcoin",
          "followers_url": "https://api.github.com/users/bitcoin/followers",
          "following_url": "https://api.github.com/users/bitcoin/following%7B/other_user%7D",
          "gists_url": "https://api.github.com/users/bitcoin/gists%7B/gist_id%7D",
          "starred_url": "https://api.github.com/users/bitcoin/starred%7B/owner%7D%7B/repo%7D",
          "subscriptions_url": "https://api.github.com/users/bitcoin/subscriptions",
          "organizations_url": "https://api.github.com/users/bitcoin/orgs",
          "repos_url": "https://api.github.com/users/bitcoin/repos",
          "events_url": "https://api.github.com/users/bitcoin/events%7B/privacy%7D",
          "received_events_url": "https://api.github.com/users/bitcoin/received_events",
          "type": "Organization",
          "site_admin": false
        },
        "private": false,
        "html_url": "https://github.com/bitcoin/bitcoin",
        "description": "Bitcoin Core integration/staging tree",
        "fork": false,
        "url": "https://api.github.com/repos/bitcoin/bitcoin",
        "archive_url": "https://api.github.com/repos/bitcoin/bitcoin/%7Barchive_format%7D%7B/ref%7D",
        "assignees_url": "https://api.github.com/repos/bitcoin/bitcoin/assignees%7B/user%7D",
        "blobs_url": "https://api.github.com/repos/bitcoin/bitcoin/git/blobs%7B/sha%7D",
        "branches_url": "https://api.github.com/repos/bitcoin/bitcoin/branches%7B/branch%7D",
        "collaborators_url": "https://api.github.com/repos/bitcoin/bitcoin/collaborators%7B/collaborator%7D",
        "comments_url": "https://api.github.com/repos/bitcoin/bitcoin/comments%7B/number%7D",
        "commits_url": "https://api.github.com/repos/bitcoin/bitcoin/commits%7B/sha%7D",
        "compare_url": "https://api.github.com/repos/bitcoin/bitcoin/compare/%7Bbase%7D...%7Bhead%7D",
        "contents_url": "https://api.github.com/repos/bitcoin/bitcoin/contents/%7B+path%7D",
        "contributors_url": "https://api.github.com/repos/bitcoin/bitcoin/contributors",
        "deployments_url": "https://api.github.com/repos/bitcoin/bitcoin/deployments",
        "downloads_url": "https://api.github.com/repos/bitcoin/bitcoin/downloads",
        "events_url": "https://api.github.com/repos/bitcoin/bitcoin/events",
        "forks_url": "https://api.github.com/repos/bitcoin/bitcoin/forks",
        "git_commits_url": "https://api.github.com/repos/bitcoin/bitcoin/git/commits%7B/sha%7D",
        "git_refs_url": "https://api.github.com/repos/bitcoin/bitcoin/git/refs%7B/sha%7D",
        "git_tags_url": "https://api.github.com/repos/bitcoin/bitcoin/git/tags%7B/sha%7D",
        "git_url": "git://github.com/bitcoin/bitcoin.git",
        "issue_comment_url": "https://api.github.com/repos/bitcoin/bitcoin/issues/comments%7B/number%7D",
        "issue_events_url": "https://api.github.com/repos/bitcoin/bitcoin/issues/events%7B/number%7D",
        "issues_url": "https://api.github.com/repos/bitcoin/bitcoin/issues%7B/number%7D",
        "keys_url": "https://api.github.com/repos/bitcoin/bitcoin/keys%7B/key_id%7D",
        "labels_url": "https://api.github.com/repos/bitcoin/bitcoin/labels%7B/name%7D",
        "languages_url": "https://api.github.com/repos/bitcoin/bitcoin/languages",
        "merges_url": "https://api.github.com/repos/bitcoin/bitcoin/merges",
        "milestones_url": "https://api.github.com/repos/bitcoin/bitcoin/milestones%7B/number%7D",
        "notifications_url": "https://api.github.com/repos/bitcoin/bitcoin/notifications%7B?since,all,participating}",
        "pulls_url": "https://api.github.com/repos/bitcoin/bitcoin/pulls%7B/number%7D",
        "releases_url": "https://api.github.com/repos/bitcoin/bitcoin/releases%7B/id%7D",
        "ssh_url": "git@github.com:bitcoin/bitcoin.git",
        "stargazers_url": "https://api.github.com/repos/bitcoin/bitcoin/stargazers",
        "statuses_url": "https://api.github.com/repos/bitcoin/bitcoin/statuses/%7Bsha%7D",
        "subscribers_url": "https://api.github.com/repos/bitcoin/bitcoin/subscribers",
        "subscription_url": "https://api.github.com/repos/bitcoin/bitcoin/subscription",
        "tags_url": "https://api.github.com/repos/bitcoin/bitcoin/tags",
        "teams_url": "https://api.github.com/repos/bitcoin/bitcoin/teams",
        "trees_url": "https://api.github.com/repos/bitcoin/bitcoin/git/trees%7B/sha%7D",
        "clone_url": "https://github.com/bitcoin/bitcoin.git",
        "hooks_url": "https://api.github.com/repos/bitcoin/bitcoin/hooks",
        "svn_url": "https://github.com/bitcoin/bitcoin",
        "homepage": "https://bitcoincore.org/en/download",
        "language": "C++",
        "forks_count": 35476,
        "stargazers_count": 70608,
        "watchers_count": 70608,
        "size": 236222,
        "default_branch": "master",
        "open_issues_count": 673,
        "is_template": false,
        "topics": [
          "bitcoin",
          "c-plus-plus",
          "cryptocurrency",
          "cryptography",
          "p2p"
        ],
        "has_issues": true,
        "has_projects": true,
        "has_wiki": false,
        "has_pages": false,
        "has_downloads": false,
        "archived": false,
        "disabled": false,
        "visibility": "public",
        "pushed_at": "2023-08-03T00:03:27Z",
        "created_at": "2010-12-19T15:16:43Z",
        "updated_at": "2023-08-02T18:21:18Z",
        "license": {
          "key": "mit",
          "name": "MIT License",
          "node_id": "MDc6TGljZW5zZTEz",
          "spdx_id": "MIT",
          "url": "https://api.github.com/licenses/mit",
          "html_url": null,
          "description": null,
          "implementation": null,
          "permissions": null,
          "conditions": null,
          "limitations": null,
          "body": null,
          "featured": null
        }
      }
    },
    "_links": {
      "self": {
        "href": "https://api.github.com/repos/bitcoin/bitcoin/pulls/27771"
      }
    },
    "author_association": "MEMBER",
    "draft": false,
    "additions": 36,
    "deletions": 32,
    "changed_files": 2,
    "commits": 1,
    "review_comments": 0,
    "comments": 8
  },
  "events": [
    {
      "event": "labeled",
      "id": 9361792942,
      "node_id": "LE_lADOABII585nFKd_zwAAAAIuAZ-u",
      "url": "https://api.github.com/repos/bitcoin/bitcoin/issues/events/9361792942",
      "actor": {
        "login": "hebasto",
        "id": 32963518,
        "node_id": "MDQ6VXNlcjMyOTYzNTE4",
        "avatar_url": "https://avatars.githubusercontent.com/u/32963518?v=4",
        "gravatar_id": "",
        "url": "https://api.github.com/users/hebasto",
        "html_url": "https://github.com/hebasto",
        "followers_url": "https://api.github.com/users/hebasto/followers",
        "following_url": "https://api.github.com/users/hebasto/following%7B/other_user%7D",
        "gists_url": "https://api.github.com/users/hebasto/gists%7B/gist_id%7D",
        "starred_url": "https://api.github.com/users/hebasto/starred%7B/owner%7D%7B/repo%7D",
        "subscriptions_url": "https://api.github.com/users/hebasto/subscriptions",
        "organizations_url": "https://api.github.com/users/hebasto/orgs",
        "repos_url": "https://api.github.com/users/hebasto/repos",
        "events_url": "https://api.github.com/users/hebasto/events%7B/privacy%7D",
        "received_events_url": "https://api.github.com/users/hebasto/received_events",
        "type": "User",
        "site_admin": false
      },
      "commit_id": null,
      "commit_url": null,
      "created_at": "2023-05-28T11:26:30Z",
      "label": {
        "name": "Tests",
        "color": "d4c5f9"
      }
    },
    {
      "event": "commented",
      "id": 1566100947,
      "node_id": "IC_kwDOABII585dWM3T",
      "url": "https://api.github.com/repos/bitcoin/bitcoin/issues/comments/1566100947",
      "actor": {
        "login": "DrahtBot",
        "id": 39886733,
        "node_id": "MDQ6VXNlcjM5ODg2NzMz",
        "avatar_url": "https://avatars.githubusercontent.com/u/39886733?v=4",
        "gravatar_id": "",
        "url": "https://api.github.com/users/DrahtBot",
        "html_url": "https://github.com/DrahtBot",
        "followers_url": "https://api.github.com/users/DrahtBot/followers",
        "following_url": "https://api.github.com/users/DrahtBot/following%7B/other_user%7D",
        "gists_url": "https://api.github.com/users/DrahtBot/gists%7B/gist_id%7D",
        "starred_url": "https://api.github.com/users/DrahtBot/starred%7B/owner%7D%7B/repo%7D",
        "subscriptions_url": "https://api.github.com/users/DrahtBot/subscriptions",
        "organizations_url": "https://api.github.com/users/DrahtBot/orgs",
        "repos_url": "https://api.github.com/users/DrahtBot/repos",
        "events_url": "https://api.github.com/users/DrahtBot/events%7B/privacy%7D",
        "received_events_url": "https://api.github.com/users/DrahtBot/received_events",
        "type": "User",
        "site_admin": false
      },
      "commit_id": null,
      "commit_url": null,
      "created_at": "2023-05-28T11:26:33Z",
      "updated_at": "2023-06-17T10:37:54Z",
      "author_association": "CONTRIBUTOR",
      "body": "<!--e57a25ab6845829454e8d69fc972939a-->\n\nThe following sections might be updated with supplementary metadata relevant to reviewers and maintainers.\n\n<!--021abf342d371248e50ceaed478a90ca-->\n### Reviews\nSee [the guideline](https://github.com/bitcoin/bitcoin/blob/master/CONTRIBUTING.md#code-review) for information on the review process.\n| Type | Reviewers |\n| ---- | --------- |\n| ACK | [sipsorcery](https://github.com/bitcoin/bitcoin/pull/27771#issuecomment-1595704670) |\n\nIf your review is incorrectly listed, please react with 👎 to this comment and the bot will ignore it on the next update.\n<!--174a7506f384e20aa4161008e828411d-->\n### Conflicts\nNo conflicts as of last run.\n",
      "user": {
        "login": "DrahtBot",
        "id": 39886733,
        "node_id": "MDQ6VXNlcjM5ODg2NzMz",
        "avatar_url": "https://avatars.githubusercontent.com/u/39886733?v=4",
        "gravatar_id": "",
        "url": "https://api.github.com/users/DrahtBot",
        "html_url": "https://github.com/DrahtBot",
        "followers_url": "https://api.github.com/users/DrahtBot/followers",
        "following_url": "https://api.github.com/users/DrahtBot/following%7B/other_user%7D",
        "gists_url": "https://api.github.com/users/DrahtBot/gists%7B/gist_id%7D",
        "starred_url": "https://api.github.com/users/DrahtBot/starred%7B/owner%7D%7B/repo%7D",
        "subscriptions_url": "https://api.github.com/users/DrahtBot/subscriptions",
        "organizations_url": "https://api.github.com/users/DrahtBot/orgs",
        "repos_url": "https://api.github.com/users/DrahtBot/repos",
        "events_url": "https://api.github.com/users/DrahtBot/events%7B/privacy%7D",
        "received_events_url": "https://api.github.com/users/DrahtBot/received_events",
        "type": "User",
        "site_admin": false
      },
      "html_url": "https://github.com/bitcoin/bitcoin/pull/27771#issuecomment-1566100947",
      "issue_url": "https://api.github.com/repos/bitcoin/bitcoin/issues/27771"
    },
    {
      "event": "head_ref_force_pushed",
      "id": 9362187998,
      "node_id": "HRFPE_lADOABII585nFKd_zwAAAAIuB6be",
      "url": "https://api.github.com/repos/bitcoin/bitcoin/issues/events/9362187998",
      "actor": {
        "login": "hebasto",
        "id": 32963518,
        "node_id": "MDQ6VXNlcjMyOTYzNTE4",
        "avatar_url": "https://avatars.githubusercontent.com/u/32963518?v=4",
        "gravatar_id": "",
        "url": "https://api.github.com/users/hebasto",
        "html_url": "https://github.com/hebasto",
        "followers_url": "https://api.github.com/users/hebasto/followers",
        "following_url": "https://api.github.com/users/hebasto/following%7B/other_user%7D",
        "gists_url": "https://api.github.com/users/hebasto/gists%7B/gist_id%7D",
        "starred_url": "https://api.github.com/users/hebasto/starred%7B/owner%7D%7B/repo%7D",
        "subscriptions_url": "https://api.github.com/users/hebasto/subscriptions",
        "organizations_url": "https://api.github.com/users/hebasto/orgs",
        "repos_url": "https://api.github.com/users/hebasto/repos",
        "events_url": "https://api.github.com/users/hebasto/events%7B/privacy%7D",
        "received_events_url": "https://api.github.com/users/hebasto/received_events",
        "type": "User",
        "site_admin": false
      },
      "commit_id": null,
      "commit_url": null,
      "created_at": "2023-05-28T13:31:12Z"
    },
    {
      "event": "committed",
      "id": null,
      "node_id": "C_kwDOABII59oAKDc3NTUxYmMwODk3NmNhOTI0MDk2YTAwOGVkNDNlZmQ5NDgzMzc2Y2M",
      "url": "https://api.github.com/repos/bitcoin/bitcoin/git/commits/77551bc08976ca924096a008ed43efd9483376cc",
      "actor": null,
      "commit_id": null,
      "commit_url": null,
      "created_at": null,
      "html_url": "https://github.com/bitcoin/bitcoin/commit/77551bc08976ca924096a008ed43efd9483376cc",
      "tree": {
        "sha": "59b0abb4af92adf6ef41faa926d9281fad69bcd5",
        "url": "https://api.github.com/repos/bitcoin/bitcoin/git/trees/59b0abb4af92adf6ef41faa926d9281fad69bcd5"
      },
      "verification": {
        "verified": true,
        "reason": "valid",
        "payload": "tree 59b0abb4af92adf6ef41faa926d9281fad69bcd5\nparent 7d33ae755de2bff806fe600bdaebedbd7fa67aba\nauthor Hennadii Stepanov <32963518+hebasto@users.noreply.github.com> 1685301787 +0100\ncommitter Hennadii Stepanov <32963518+hebasto@users.noreply.github.com> 1685301787 +0100\n\nci: Use docker image cache for \"Win64 native [vs2022]\" task\n",
        "signature": "-----BEGIN PGP SIGNATURE-----\n\niQIzBAABCgAdFiEE0dvyxLlvLev0wWZUQQEIES5+qB8FAmRzqhsACgkQQQEIES5+\nqB+OkxAAuSKJReiZdi0r52ttKciWVMN7RIsfE/UMNbIGlFRh6EfPvH6oQdNoRIfo\n4L/dCizcy5sfhHQCguVJNt/wZnQcKSnkBlfM0JcFl/8QIMvmfbc/gDp2FOljkILb\nDgaZymt5iIpBWE2K06W2f/E1i9jke4dpxzvbgt0KfAv6KPGcXSUh0aJ14SNq/bvF\nWmTYtw9ys52Ti/unPi5RHW5mP9+plcBnYrewc6nu+yyDmdb7EB1e7FhSqWGjPRpE\nCyJIZQDRSy5RkspP3nQA0Nb6R5nxIAk2ZmP3M0ykysZyrQxls4casYiOBJ9OpPTT\npH6PsaQhq181O4DtzX/ACUehWU+WWE6KKn2UytD0HrMGPqmoxTd006rS/5/DB8qx\nwJ1HOgckyymPIyWgtgE9evdSb17Td/YfM8LaElB/+FLeVA5rdXxT06ulAcDqsBzi\nYP0PwlZ7lIsToSNGjoaA/kIUjdpb6ys06x54J093bJOMELGrqeSRaQWOEQjlInFM\nfcOHf09FWB1EyBoxJT78w99v6ueUODp4K8breDUGLxgwYrx6YyfZ2IHMDBHwKIzw\n/0d82F0TMXLee/MUwasHzhUhNVMWYjAIs3XJTkr38/+aoaCCRPr23tp15fVvgabi\nrOfhFREFXH0P3at0vEsxExRCkThvhfwDHztFPJVpwg/fS72NNn8=\n=i5wB\n-----END PGP SIGNATURE-----"
      },
      "parents": [
        {
          "url": "https://api.github.com/repos/bitcoin/bitcoin/git/commits/7d33ae755de2bff806fe600bdaebedbd7fa67aba",
          "sha": "7d33ae755de2bff806fe600bdaebedbd7fa67aba",
          "html_url": "https://github.com/bitcoin/bitcoin/commit/7d33ae755de2bff806fe600bdaebedbd7fa67aba"
        }
      ],
      "message": "ci: Use docker image cache for \"Win64 native [vs2022]\" task",
      "committer": {
        "name": "Hennadii Stepanov",
        "email": "32963518+hebasto@users.noreply.github.com",
        "date": "2023-05-28T19:23:07Z"
      },
      "author": {
        "name": "Hennadii Stepanov",
        "email": "32963518+hebasto@users.noreply.github.com",
        "date": "2023-05-28T19:23:07Z"
      },
      "sha": "77551bc08976ca924096a008ed43efd9483376cc"
    },
    {
      "event": "head_ref_force_pushed",
      "id": 9363014314,
      "node_id": "HRFPE_lADOABII585nFKd_zwAAAAIuFEKq",
      "url": "https://api.github.com/repos/bitcoin/bitcoin/issues/events/9363014314",
      "actor": {
        "login": "hebasto",
        "id": 32963518,
        "node_id": "MDQ6VXNlcjMyOTYzNTE4",
        "avatar_url": "https://avatars.githubusercontent.com/u/32963518?v=4",
        "gravatar_id": "",
        "url": "https://api.github.com/users/hebasto",
        "html_url": "https://github.com/hebasto",
        "followers_url": "https://api.github.com/users/hebasto/followers",
        "following_url": "https://api.github.com/users/hebasto/following%7B/other_user%7D",
        "gists_url": "https://api.github.com/users/hebasto/gists%7B/gist_id%7D",
        "starred_url": "https://api.github.com/users/hebasto/starred%7B/owner%7D%7B/repo%7D",
        "subscriptions_url": "https://api.github.com/users/hebasto/subscriptions",
        "organizations_url": "https://api.github.com/users/hebasto/orgs",
        "repos_url": "https://api.github.com/users/hebasto/repos",
        "events_url": "https://api.github.com/users/hebasto/events%7B/privacy%7D",
        "received_events_url": "https://api.github.com/users/hebasto/received_events",
        "type": "User",
        "site_admin": false
      },
      "commit_id": null,
      "commit_url": null,
      "created_at": "2023-05-28T19:24:11Z"
    },
    {
      "event": "ready_for_review",
      "id": 9363018786,
      "node_id": "RFRE_lADOABII585nFKd_zwAAAAIuFFQi",
      "url": "https://api.github.com/repos/bitcoin/bitcoin/issues/events/9363018786",
      "actor": {
        "login": "hebasto",
        "id": 32963518,
        "node_id": "MDQ6VXNlcjMyOTYzNTE4",
        "avatar_url": "https://avatars.githubusercontent.com/u/32963518?v=4",
        "gravatar_id": "",
        "url": "https://api.github.com/users/hebasto",
        "html_url": "https://github.com/hebasto",
        "followers_url": "https://api.github.com/users/hebasto/followers",
        "following_url": "https://api.github.com/users/hebasto/following%7B/other_user%7D",
        "gists_url": "https://api.github.com/users/hebasto/gists%7B/gist_id%7D",
        "starred_url": "https://api.github.com/users/hebasto/starred%7B/owner%7D%7B/repo%7D",
        "subscriptions_url": "https://api.github.com/users/hebasto/subscriptions",
        "organizations_url": "https://api.github.com/users/hebasto/orgs",
        "repos_url": "https://api.github.com/users/hebasto/repos",
        "events_url": "https://api.github.com/users/hebasto/events%7B/privacy%7D",
        "received_events_url": "https://api.github.com/users/hebasto/received_events",
        "type": "User",
        "site_admin": false
      },
      "commit_id": null,
      "commit_url": null,
      "created_at": "2023-05-28T19:26:23Z"
    },
    {
      "event": "cross-referenced",
      "id": null,
      "node_id": null,
      "url": null,
      "actor": {
        "login": "DrahtBot",
        "id": 39886733,
        "node_id": "MDQ6VXNlcjM5ODg2NzMz",
        "avatar_url": "https://avatars.githubusercontent.com/u/39886733?v=4",
        "gravatar_id": "",
        "url": "https://api.github.com/users/DrahtBot",
        "html_url": "https://github.com/DrahtBot",
        "followers_url": "https://api.github.com/users/DrahtBot/followers",
        "following_url": "https://api.github.com/users/DrahtBot/following%7B/other_user%7D",
        "gists_url": "https://api.github.com/users/DrahtBot/gists%7B/gist_id%7D",
        "starred_url": "https://api.github.com/users/DrahtBot/starred%7B/owner%7D%7B/repo%7D",
        "subscriptions_url": "https://api.github.com/users/DrahtBot/subscriptions",
        "organizations_url": "https://api.github.com/users/DrahtBot/orgs",
        "repos_url": "https://api.github.com/users/DrahtBot/repos",
        "events_url": "https://api.github.com/users/DrahtBot/events%7B/privacy%7D",
        "received_events_url": "https://api.github.com/users/DrahtBot/received_events",
        "type": "User",
        "site_admin": false
      },
      "commit_id": null,
      "commit_url": null,
      "created_at": "2023-05-29T01:45:26Z",
      "updated_at": "2023-05-29T01:45:26Z",
      "source": {
        "issue": {
          "id": 1330985812,
          "node_id": "PR_kwDOABII5848xLg6",
          "url": "https://api.github.com/repos/bitcoin/bitcoin/issues/25797",
          "repository_url": "https://api.github.com/repos/bitcoin/bitcoin",
          "labels_url": "https://api.github.com/repos/bitcoin/bitcoin/issues/25797/labels%7B/name%7D",
          "comments_url": "https://api.github.com/repos/bitcoin/bitcoin/issues/25797/comments",
          "events_url": "https://api.github.com/repos/bitcoin/bitcoin/issues/25797/events",
          "html_url": "https://github.com/bitcoin/bitcoin/pull/25797",
          "number": 25797,
          "state": "closed",
          "state_reason": null,
          "title": "build: Add CMake-based build system",
          "body": "Here are some benefits of using [CMake](https://cmake.org/) in the Bitcoin Core project:\r\n- an opportunity to drop the `build_msvc` subdirectory from the repo altogether (being a cross-platform tool, CMake is able to [create](https://cmake.org/cmake/help/latest/manual/cmake-generators.7.html) input files for a wide range of build systems, including Unix Makefiles and Visual Studio project files)\r\n- no hacks required to build `dll`s for Windows, even with `DEBUG=1` (see https://github.com/bitcoin/bitcoin/issues/19772)\r\n- better maintainability (say _bye_ to global variables)\r\n- easy integration with [Qt 5](https://doc.qt.io/qt-5/cmake-manual.html)\r\n- easy integration with [Qt 6](https://doc.qt.io/qt-6.2/cmake-manual.html) in the nearest future (also see bitcoin/bitcoin#24798 and bitcoin/bitcoin#25191)\r\n\r\nMore Qt-specific details see below.\r\n\r\nAlso there is a non-technical/social benefit. Over time, the Autotools community shrinks, but CMake community grows. New contributors, who join this project in the future, will readily support a CMake-based system rather an Autotools-based one.\r\n\r\n---\r\n\r\n## Native building has been tested on the following OSes:\r\n- Ubuntu 22.04 (`x86_64`, `aarch64`~, backward compatible with Ubuntu Bionic 18.04 using adjusted invocation~)\r\n- macOS Monterey (`x86_64`, `arm64`)\r\n- FreeBSD 12.3\r\n- OpenBSD 7.1\r\n```sh\r\ncmake -S . -B build\r\ncd build\r\nmake\r\nmake check\r\nmake install  # optional\r\n```\r\n\r\n## Native building on Windows (MSVC + vcpkg)\r\n\r\nDependency packages are provided by the [vcpkg](https://vcpkg.io) package manager (\"Mandatory ASLR\" in Windows Security must be disabled to install `qt5-*` packages):\r\n```cmd\r\nvcpkg --triplet=x64-windows-static install pkgconf boost-multi-index boost-process boost-signals2 boost-test libevent berkeleydb sqlite3 miniupnpc zeromq qt5-base qt5-tools\r\n```\r\n\r\nTo build on Windows with Visual Studio, a proper [generator](https://cmake.org/cmake/help/latest/manual/cmake-generators.7.html#visual-studio-generators) must be specified for a new build tree.\r\nThe following example assumes using of \"Developer Command Prompt for VS 2022\" and CMake v3.21+.\r\n\r\n```cmd\r\ncmake -G \"Visual Studio 17 2022\" -A x64 -DCMAKE_TOOLCHAIN_FILE=C:/vcpkg/scripts/buildsystems/vcpkg.cmake -DVCPKG_TARGET_TRIPLET=x64-windows-static -S . -B build\r\ncmake --build build --config Release\r\n```\r\n\r\nHINT. To leverage Multi-ToolTask and use `<N>` CPU cores, run\r\n```cmd\r\ncmake --build build --config Release -j <N> -- /p:CL_MPcount=<N>\r\n```\r\n\r\n## Cross building for Windows on Ubuntu 22.04\r\n```sh\r\nmake -C depends HOST=x86_64-w64-mingw32\r\ncmake --toolchain depends/x86_64-w64-mingw32/share/toolchain.cmake -S . -B build\r\ncmake --build build\r\n```\r\n\r\n## Cross building for Windows on Ubuntu 22.04 with `DEBUG=1`, see #19772\r\n```sh\r\nmake -C depends HOST=x86_64-w64-mingw32 DEBUG=1\r\ncmake --toolchain depends/x86_64-w64-mingw32/share/toolchain.cmake -S . -B build\r\ncmake --build build\r\n```\r\n\r\n## Cross building for macOS (Intel) on Ubuntu 22.04\r\n```sh\r\nmake -C depends HOST=x86_64-apple-darwin\r\ncmake --toolchain depends/x86_64-apple-darwin/share/toolchain.cmake -S . -B build\r\ncmake --build build\r\n```\r\n\r\n## Cross building for macOS (Apple Silicon) on Ubuntu 22.04\r\n```sh\r\nmake -C depends HOST=arm64-apple-darwin\r\ncmake --toolchain depends/arm64-apple-darwin/share/toolchain.cmake -S . -B build\r\ncmake --build build\r\n```\r\n## Cross building for Android using [NDK r23 LTS](https://github.com/bitcoin/bitcoin/pull/23677) on Ubuntu 22.04\r\n```sh\r\nexport ANDROID_SDK=/home/hebasto/Android/Sdk\r\nexport ANDROID_NDK=${ANDROID_SDK}/ndk/23.2.8568313\r\nexport ANDROID_API_LEVEL=28\r\nmake -C depends ANDROID_TOOLCHAIN_BIN=${ANDROID_NDK}/toolchains/llvm/prebuilt/linux-x86_64/bin/ HOST=aarch64-linux-android\r\ncmake --toolchain depends/aarch64-linux-android/share/toolchain.cmake -S . -B build\r\ncmake --build build\r\n```\r\n\r\n\r\n\r\nNOTE: Building in the source tree is not supported.\r\n\r\n---\r\n\r\n## Functional Tests\r\n\r\nFunctional tests can be run in exactly the same way as when building with Autotools out of the source tree, i.e.:\r\n```\r\n./build/test/functional/test_runner.py\r\n```\r\n\r\n## [Guix builds](https://github.com/bitcoin/bitcoin/pull/25797#issuecomment-1312482102)\r\n\r\n## [Cirrus CI -- 16 of 16](https://cirrus-ci.com/build/5822976705167360)\r\n\r\n- [x] lint [jammy]\r\n- [x] tidy [jammy]\r\n- [x] Win64 native [vs2022]\r\n- [x] ARM [unit tests, no functional tests] [bullseye]\r\n- [x] Win64 [unit tests, no gui tests, no boost::process, no functional tests] [jammy]\r\n- [x] 32-bit + dash [gui] [CentOS 8]\r\n- [x] [previous releases, uses qt5 dev package and some depends packages, DEBUG] [unsigned char] [buster]\r\n- [x] [TSan, depends, gui] [jammy]\r\n- [x] [MSan, depends] [focal]\r\n- [x] [ASan + LSan + UBSan + integer, no depends, USDT] [jammy]\r\n- [x] [fuzzer,address,undefined,integer, no depends] [jammy]\r\n- [x] [multiprocess, i686, DEBUG] [focal]\r\n- [x] [no wallet, libbitcoinkernel] [buster]\r\n- [x] macOS 10.15 [gui, no tests] [focal]\r\n- [x] macOS 13 native arm64 [gui, sqlite only] [no depends]\r\n- [x] ARM64 Android APK [jammy]\r\n\r\n---\r\n\r\nAdditional notes.\r\n\r\n1. There is a [branch/PR](https://github.com/hebasto/bitcoin/pull/3) in my repo which includes Qt 6 integration and CMake-specific CI tasks.\r\n2. A similar [PR](https://github.com/bitcoin-core/secp256k1/pull/1113) has been open in https://github.com/bitcoin-core/secp256k1.\r\n\r\n---\r\n\r\nThe plan is to have it in the repo shortly after branching `24.x` off, and make CMake-based build system a drop-in replacement of Autotools-based one during the next ~2 or 3~ release cycle~s~.\r\n\r\n---\r\n\r\n# Qt-specific details\r\n\r\n## What happened before?\r\n\r\n- https://www.qt.io/blog/qt-6-build-system:\r\n> CMake is the build system for Qt 6\r\n\r\n- https://www.qt.io/blog/qt-and-cmake-the-past-the-present-and-the-future:\r\n> We made a big decision to start using CMake to build Qt 6 one and a half years ago.\r\n\r\n- https://doc.qt.io/qt-6/qt6-buildsystem.html:\r\n> The Qt 5 build system was built on top of [qmake](https://doc.qt.io/qt-6.2/qtquick-deployment.html#qmake). In Qt 6, we ported the build system to CMake.\r\n\r\nIt is important to note that CMake has extensive [support](https://cmake.org/cmake/help/latest/manual/cmake-qt.7.html) for Qt, including Qt-specific tools such as MOC, RCC, UIC.\r\n\r\n## Why Qt 6 build system does matter if the Bitcoin Core GUI uses Qt 5?\r\n\r\nFor release builds we use Qt 5.15.5 LTS, the latest Qt 5 version available under a free-software license.\r\n\r\nFor dynamic linking users can use Qt 5.11.3+, which allows them to use packages provided in Debian Buster and Ubuntu Focal.\r\n\r\nOn the other hand, Qt 6 packages are available in the following systems/package managers:\r\n- [Ubuntu Jammy](https://packages.ubuntu.com/jammy/qt6-base-dev)+\r\n- [Debian Bullseye](https://packages.debian.org/bullseye-backports/qt6-base-dev)+\r\n- [Fedora 35](https://packages.fedoraproject.org/pkgs/qt6-qtbase/qt6-qtbase/)+\r\n- [Homebrew](https://formulae.brew.sh/formula/qt)\r\n\r\nAs long as Qt GUI is a part of Bitcoin Core, it is inevitable to embrace Qt 6 support, sooner or later.\r\n\r\n## Can we just adjust our current build system to handle Qt 6?\r\n\r\nThe main problem with integration of Qt 6 into the current build system is lacking of pkg-config `*.pc` files for static builds (please note that a patch from [QTBUG-86080](https://bugreports.qt.io/browse/QTBUG-86080) works for non-static builds only).\r\n\r\nTo handle Qt 6 with our current build system we need to:\r\n- patch Qt, which looks like a non-trivial task, or\r\n- apply some [nasty hacks](https://github.com/bitcoin/bitcoin/pull/24798#discussion_r854001982) to our own build system\r\n- keep in our repo the required `*.pc` files\r\n\r\nAll approaches imply maintaining burden for a long time. And last two are pretty ugly :)\r\n\r\n---\r\n\r\n# Autotools -- CMake Feature Parity Table\r\n\r\nAutotool-based build system (AT) features being listed according to the `./configure --help` output. \r\n\r\n| AT feature | CM feature |\r\n|---|---|\r\n| `--prefix` | `-DCMAKE_INSTALL_PREFIX` |\r\n| `--enable-c++20` | `-DCXX20` |\r\n| `--enable-shared` | `-DBUILD_SHARED` |\r\n| `--enable-static` | `-DBUILD_STATIC` |\r\n| `--disable-wallet` | `-DENABLE_WALLET` |\r\n| `--enable-usdt` | `-DWITH_USDT` |\r\n| `--enable-upnp-default` | `-DENABLE_UPNP_DEFAULT` |\r\n| `--enable-natpmp-default` | `-DENABLE_NATPMP_DEFAULT` |\r\n| `--disable-tests` | `-DBUILD_TESTS` |\r\n| `--disable-gui-tests` | TBD |\r\n| `--disable-bench` | `-DBUILD_BENCH` |\r\n| `--enable-extended-functional-tests` | TBD |\r\n| `--enable-fuzz` | `-DFUZZ` |\r\n| `--enable-fuzz-binary` | `-DBUILD_FUZZ_BINARY` |\r\n| `--disable-hardening` | `-DHARDENING` |\r\n| `--enable-reduce-exports` | `-DREDUCE_EXPORTS` |\r\n| `--disable-ccache` | `-DCCACHE` |\r\n| `--enable-suppress-external-warnings` | N/A |\r\n| `--enable-lcov` | TBD |\r\n| `--enable-lcov-branch-coverage` | TBD |\r\n| `--enable-threadlocal` | TBD |\r\n| `--disable-asm` | `-DASM` |\r\n| `--disable-zmq` | `-DWITH_ZMQ` |\r\n| `--enable-multiprocess` | `-DMULTIPROCESS` |\r\n| `--disable-man` | `-DINSTALL_MAN` |\r\n| `--enable-debug` | `-DCMAKE_BUILD_TYPE=Debug` |\r\n| `--enable-gprof` | TBD |\r\n| `--enable-werror` | `-DWERROR` |\r\n| `--enable-external-signer` | `-DWITH_EXTERNAL_SIGNER` |\r\n| `--enable-lto` | TBD |\r\n| `--enable-util-cli` | `-DBUILD_CLI` |\r\n| `--enable-util-tx` | `-DBUILD_TX` |\r\n| `--enable-util-wallet` | `-DBUILD_WALLET_TOOL` |\r\n| `--enable-util-util` | `-DBUILD_UTIL` |\r\n| `--enable-experimental-util-chainstate` | `-DBUILD_UTIL_CHAINSTATE` |\r\n| `--with-seccomp` | `-DWITH_SECCOMP` |\r\n| `--with-sqlite` | `-DWITH_SQLITE` |\r\n| `--without-bdb` | `-DWITH_BDB` |\r\n| `--with-miniupnpc` | `-DWITH_MINIUPNPC` |\r\n| `--with-natpmp` | `-DWITH_NATPMP` |\r\n| `--with-qrencode` | `-DWITH_QRENCODE` |\r\n| `--with-libmultiprocess` | N/A |\r\n| `--with-mpgen` | `-DMPGEN_PREFIX` |\r\n| `--with-sanitizers` | `-DSANITIZERS` |\r\n| `--with-utils` | individual options |\r\n| `--with-libs` | individual options |\r\n| `--with-experimental-kernel-lib` | `-DBUILD_BITCOINKERNEL_LIB` |\r\n| `--with-daemon` | `-DBUILD_DAEMON` |\r\n| `--with-gui` | `-DWITH_GUI` |\r\n\r\n---\r\n\r\nIRC meeting discussions:\r\n- https://bitcoin-irc.chaincode.com/bitcoin-core-dev/2022-08-18#844420;",
          "user": {
            "login": "hebasto",
            "id": 32963518,
            "node_id": "MDQ6VXNlcjMyOTYzNTE4",
            "avatar_url": "https://avatars.githubusercontent.com/u/32963518?v=4",
            "gravatar_id": "",
            "url": "https://api.github.com/users/hebasto",
            "html_url": "https://github.com/hebasto",
            "followers_url": "https://api.github.com/users/hebasto/followers",
            "following_url": "https://api.github.com/users/hebasto/following%7B/other_user%7D",
            "gists_url": "https://api.github.com/users/hebasto/gists%7B/gist_id%7D",
            "starred_url": "https://api.github.com/users/hebasto/starred%7B/owner%7D%7B/repo%7D",
            "subscriptions_url": "https://api.github.com/users/hebasto/subscriptions",
            "organizations_url": "https://api.github.com/users/hebasto/orgs",
            "repos_url": "https://api.github.com/users/hebasto/repos",
            "events_url": "https://api.github.com/users/hebasto/events%7B/privacy%7D",
            "received_events_url": "https://api.github.com/users/hebasto/received_events",
            "type": "User",
            "site_admin": false
          },
          "labels": [
            {
              "id": 61889416,
              "node_id": "MDU6TGFiZWw2MTg4OTQxNg==",
              "url": "https://api.github.com/repos/bitcoin/bitcoin/labels/Build%20system",
              "name": "Build system",
              "color": "5319e7",
              "default": false
            },
            {
              "id": 955867938,
              "node_id": "MDU6TGFiZWw5NTU4Njc5Mzg=",
              "url": "https://api.github.com/repos/bitcoin/bitcoin/labels/Needs%20rebase",
              "name": "Needs rebase",
              "description": "",
              "color": "cccccc",
              "default": false
            }
          ],
          "assignees": [],
          "author_association": "MEMBER",
          "locked": false,
          "comments": 109,
          "pull_request": {
            "url": "https://api.github.com/repos/bitcoin/bitcoin/pulls/25797",
            "html_url": "https://github.com/bitcoin/bitcoin/pull/25797",
            "diff_url": "https://github.com/bitcoin/bitcoin/pull/25797.diff",
            "patch_url": "https://github.com/bitcoin/bitcoin/pull/25797.patch"
          },
          "closed_at": "2023-07-07T17:16:45Z",
          "created_at": "2022-08-07T11:15:55Z",
          "updated_at": "2023-07-07T17:30:42Z"
        },
        "type": "issue"
      }
    },
    {
      "event": "commented",
      "id": 1588809598,
      "node_id": "IC_kwDOABII585es09-",
      "url": "https://api.github.com/repos/bitcoin/bitcoin/issues/comments/1588809598",
      "actor": {
        "login": "hebasto",
        "id": 32963518,
        "node_id": "MDQ6VXNlcjMyOTYzNTE4",
        "avatar_url": "https://avatars.githubusercontent.com/u/32963518?v=4",
        "gravatar_id": "",
        "url": "https://api.github.com/users/hebasto",
        "html_url": "https://github.com/hebasto",
        "followers_url": "https://api.github.com/users/hebasto/followers",
        "following_url": "https://api.github.com/users/hebasto/following%7B/other_user%7D",
        "gists_url": "https://api.github.com/users/hebasto/gists%7B/gist_id%7D",
        "starred_url": "https://api.github.com/users/hebasto/starred%7B/owner%7D%7B/repo%7D",
        "subscriptions_url": "https://api.github.com/users/hebasto/subscriptions",
        "organizations_url": "https://api.github.com/users/hebasto/orgs",
        "repos_url": "https://api.github.com/users/hebasto/repos",
        "events_url": "https://api.github.com/users/hebasto/events%7B/privacy%7D",
        "received_events_url": "https://api.github.com/users/hebasto/received_events",
        "type": "User",
        "site_admin": false
      },
      "commit_id": null,
      "commit_url": null,
      "created_at": "2023-06-13T08:28:51Z",
      "updated_at": "2023-06-13T08:28:51Z",
      "author_association": "MEMBER",
      "body": "Friendly ping @MarcoFalke and @sipsorcery :)",
      "user": {
        "login": "hebasto",
        "id": 32963518,
        "node_id": "MDQ6VXNlcjMyOTYzNTE4",
        "avatar_url": "https://avatars.githubusercontent.com/u/32963518?v=4",
        "gravatar_id": "",
        "url": "https://api.github.com/users/hebasto",
        "html_url": "https://github.com/hebasto",
        "followers_url": "https://api.github.com/users/hebasto/followers",
        "following_url": "https://api.github.com/users/hebasto/following%7B/other_user%7D",
        "gists_url": "https://api.github.com/users/hebasto/gists%7B/gist_id%7D",
        "starred_url": "https://api.github.com/users/hebasto/starred%7B/owner%7D%7B/repo%7D",
        "subscriptions_url": "https://api.github.com/users/hebasto/subscriptions",
        "organizations_url": "https://api.github.com/users/hebasto/orgs",
        "repos_url": "https://api.github.com/users/hebasto/repos",
        "events_url": "https://api.github.com/users/hebasto/events%7B/privacy%7D",
        "received_events_url": "https://api.github.com/users/hebasto/received_events",
        "type": "User",
        "site_admin": false
      },
      "html_url": "https://github.com/bitcoin/bitcoin/pull/27771#issuecomment-1588809598",
      "issue_url": "https://api.github.com/repos/bitcoin/bitcoin/issues/27771"
    },
    {
      "event": "mentioned",
      "id": 9512819127,
      "node_id": "MEE_lADOABII585nFKd_zwAAAAI3Ahm3",
      "url": "https://api.github.com/repos/bitcoin/bitcoin/issues/events/9512819127",
      "actor": {
        "login": "sipsorcery",
        "id": 197660,
        "node_id": "MDQ6VXNlcjE5NzY2MA==",
        "avatar_url": "https://avatars.githubusercontent.com/u/197660?v=4",
        "gravatar_id": "",
        "url": "https://api.github.com/users/sipsorcery",
        "html_url": "https://github.com/sipsorcery",
        "followers_url": "https://api.github.com/users/sipsorcery/followers",
        "following_url": "https://api.github.com/users/sipsorcery/following%7B/other_user%7D",
        "gists_url": "https://api.github.com/users/sipsorcery/gists%7B/gist_id%7D",
        "starred_url": "https://api.github.com/users/sipsorcery/starred%7B/owner%7D%7B/repo%7D",
        "subscriptions_url": "https://api.github.com/users/sipsorcery/subscriptions",
        "organizations_url": "https://api.github.com/users/sipsorcery/orgs",
        "repos_url": "https://api.github.com/users/sipsorcery/repos",
        "events_url": "https://api.github.com/users/sipsorcery/events%7B/privacy%7D",
        "received_events_url": "https://api.github.com/users/sipsorcery/received_events",
        "type": "User",
        "site_admin": false
      },
      "commit_id": null,
      "commit_url": null,
      "created_at": "2023-06-13T08:28:51Z"
    },
    {
      "event": "subscribed",
      "id": 9512819145,
      "node_id": "SE_lADOABII585nFKd_zwAAAAI3AhnJ",
      "url": "https://api.github.com/repos/bitcoin/bitcoin/issues/events/9512819145",
      "actor": {
        "login": "sipsorcery",
        "id": 197660,
        "node_id": "MDQ6VXNlcjE5NzY2MA==",
        "avatar_url": "https://avatars.githubusercontent.com/u/197660?v=4",
        "gravatar_id": "",
        "url": "https://api.github.com/users/sipsorcery",
        "html_url": "https://github.com/sipsorcery",
        "followers_url": "https://api.github.com/users/sipsorcery/followers",
        "following_url": "https://api.github.com/users/sipsorcery/following%7B/other_user%7D",
        "gists_url": "https://api.github.com/users/sipsorcery/gists%7B/gist_id%7D",
        "starred_url": "https://api.github.com/users/sipsorcery/starred%7B/owner%7D%7B/repo%7D",
        "subscriptions_url": "https://api.github.com/users/sipsorcery/subscriptions",
        "organizations_url": "https://api.github.com/users/sipsorcery/orgs",
        "repos_url": "https://api.github.com/users/sipsorcery/repos",
        "events_url": "https://api.github.com/users/sipsorcery/events%7B/privacy%7D",
        "received_events_url": "https://api.github.com/users/sipsorcery/received_events",
        "type": "User",
        "site_admin": false
      },
      "commit_id": null,
      "commit_url": null,
      "created_at": "2023-06-13T08:28:51Z"
    },
    {
      "event": "mentioned",
      "id": 9512819168,
      "node_id": "MEE_lADOABII585nFKd_zwAAAAI3Ahng",
      "url": "https://api.github.com/repos/bitcoin/bitcoin/issues/events/9512819168",
      "actor": {
        "login": "MarcoFalke",
        "id": 6399679,
        "node_id": "MDQ6VXNlcjYzOTk2Nzk=",
        "avatar_url": "https://avatars.githubusercontent.com/u/6399679?v=4",
        "gravatar_id": "",
        "url": "https://api.github.com/users/MarcoFalke",
        "html_url": "https://github.com/MarcoFalke",
        "followers_url": "https://api.github.com/users/MarcoFalke/followers",
        "following_url": "https://api.github.com/users/MarcoFalke/following%7B/other_user%7D",
        "gists_url": "https://api.github.com/users/MarcoFalke/gists%7B/gist_id%7D",
        "starred_url": "https://api.github.com/users/MarcoFalke/starred%7B/owner%7D%7B/repo%7D",
        "subscriptions_url": "https://api.github.com/users/MarcoFalke/subscriptions",
        "organizations_url": "https://api.github.com/users/MarcoFalke/orgs",
        "repos_url": "https://api.github.com/users/MarcoFalke/repos",
        "events_url": "https://api.github.com/users/MarcoFalke/events%7B/privacy%7D",
        "received_events_url": "https://api.github.com/users/MarcoFalke/received_events",
        "type": "User",
        "site_admin": false
      },
      "commit_id": null,
      "commit_url": null,
      "created_at": "2023-06-13T08:28:51Z"
    },
    {
      "event": "subscribed",
      "id": 9512819186,
      "node_id": "SE_lADOABII585nFKd_zwAAAAI3Ahny",
      "url": "https://api.github.com/repos/bitcoin/bitcoin/issues/events/9512819186",
      "actor": {
        "login": "MarcoFalke",
        "id": 6399679,
        "node_id": "MDQ6VXNlcjYzOTk2Nzk=",
        "avatar_url": "https://avatars.githubusercontent.com/u/6399679?v=4",
        "gravatar_id": "",
        "url": "https://api.github.com/users/MarcoFalke",
        "html_url": "https://github.com/MarcoFalke",
        "followers_url": "https://api.github.com/users/MarcoFalke/followers",
        "following_url": "https://api.github.com/users/MarcoFalke/following%7B/other_user%7D",
        "gists_url": "https://api.github.com/users/MarcoFalke/gists%7B/gist_id%7D",
        "starred_url": "https://api.github.com/users/MarcoFalke/starred%7B/owner%7D%7B/repo%7D",
        "subscriptions_url": "https://api.github.com/users/MarcoFalke/subscriptions",
        "organizations_url": "https://api.github.com/users/MarcoFalke/orgs",
        "repos_url": "https://api.github.com/users/MarcoFalke/repos",
        "events_url": "https://api.github.com/users/MarcoFalke/events%7B/privacy%7D",
        "received_events_url": "https://api.github.com/users/MarcoFalke/received_events",
        "type": "User",
        "site_admin": false
      },
      "commit_id": null,
      "commit_url": null,
      "created_at": "2023-06-13T08:28:52Z"
    },
    {
      "event": "commented",
      "id": 1588852287,
      "node_id": "IC_kwDOABII585es_Y_",
      "url": "https://api.github.com/repos/bitcoin/bitcoin/issues/comments/1588852287",
      "actor": {
        "login": "MarcoFalke",
        "id": 6399679,
        "node_id": "MDQ6VXNlcjYzOTk2Nzk=",
        "avatar_url": "https://avatars.githubusercontent.com/u/6399679?v=4",
        "gravatar_id": "",
        "url": "https://api.github.com/users/MarcoFalke",
        "html_url": "https://github.com/MarcoFalke",
        "followers_url": "https://api.github.com/users/MarcoFalke/followers",
        "following_url": "https://api.github.com/users/MarcoFalke/following%7B/other_user%7D",
        "gists_url": "https://api.github.com/users/MarcoFalke/gists%7B/gist_id%7D",
        "starred_url": "https://api.github.com/users/MarcoFalke/starred%7B/owner%7D%7B/repo%7D",
        "subscriptions_url": "https://api.github.com/users/MarcoFalke/subscriptions",
        "organizations_url": "https://api.github.com/users/MarcoFalke/orgs",
        "repos_url": "https://api.github.com/users/MarcoFalke/repos",
        "events_url": "https://api.github.com/users/MarcoFalke/events%7B/privacy%7D",
        "received_events_url": "https://api.github.com/users/MarcoFalke/received_events",
        "type": "User",
        "site_admin": false
      },
      "commit_id": null,
      "commit_url": null,
      "created_at": "2023-06-13T08:57:06Z",
      "updated_at": "2023-06-13T08:57:06Z",
      "author_association": "MEMBER",
      "body": "No objection to using the cache to avoid intermittent network issues. But the speedup was only ~2 minutes on a total runtime of 1 hour?",
      "user": {
        "login": "MarcoFalke",
        "id": 6399679,
        "node_id": "MDQ6VXNlcjYzOTk2Nzk=",
        "avatar_url": "https://avatars.githubusercontent.com/u/6399679?v=4",
        "gravatar_id": "",
        "url": "https://api.github.com/users/MarcoFalke",
        "html_url": "https://github.com/MarcoFalke",
        "followers_url": "https://api.github.com/users/MarcoFalke/followers",
        "following_url": "https://api.github.com/users/MarcoFalke/following%7B/other_user%7D",
        "gists_url": "https://api.github.com/users/MarcoFalke/gists%7B/gist_id%7D",
        "starred_url": "https://api.github.com/users/MarcoFalke/starred%7B/owner%7D%7B/repo%7D",
        "subscriptions_url": "https://api.github.com/users/MarcoFalke/subscriptions",
        "organizations_url": "https://api.github.com/users/MarcoFalke/orgs",
        "repos_url": "https://api.github.com/users/MarcoFalke/repos",
        "events_url": "https://api.github.com/users/MarcoFalke/events%7B/privacy%7D",
        "received_events_url": "https://api.github.com/users/MarcoFalke/received_events",
        "type": "User",
        "site_admin": false
      },
      "html_url": "https://github.com/bitcoin/bitcoin/pull/27771#issuecomment-1588852287",
      "issue_url": "https://api.github.com/repos/bitcoin/bitcoin/issues/27771"
    },
    {
      "event": "commented",
      "id": 1588861202,
      "node_id": "IC_kwDOABII585etBkS",
      "url": "https://api.github.com/repos/bitcoin/bitcoin/issues/comments/1588861202",
      "actor": {
        "login": "hebasto",
        "id": 32963518,
        "node_id": "MDQ6VXNlcjMyOTYzNTE4",
        "avatar_url": "https://avatars.githubusercontent.com/u/32963518?v=4",
        "gravatar_id": "",
        "url": "https://api.github.com/users/hebasto",
        "html_url": "https://github.com/hebasto",
        "followers_url": "https://api.github.com/users/hebasto/followers",
        "following_url": "https://api.github.com/users/hebasto/following%7B/other_user%7D",
        "gists_url": "https://api.github.com/users/hebasto/gists%7B/gist_id%7D",
        "starred_url": "https://api.github.com/users/hebasto/starred%7B/owner%7D%7B/repo%7D",
        "subscriptions_url": "https://api.github.com/users/hebasto/subscriptions",
        "organizations_url": "https://api.github.com/users/hebasto/orgs",
        "repos_url": "https://api.github.com/users/hebasto/repos",
        "events_url": "https://api.github.com/users/hebasto/events%7B/privacy%7D",
        "received_events_url": "https://api.github.com/users/hebasto/received_events",
        "type": "User",
        "site_admin": false
      },
      "commit_id": null,
      "commit_url": null,
      "created_at": "2023-06-13T09:02:22Z",
      "updated_at": "2023-06-13T09:02:22Z",
      "author_association": "MEMBER",
      "body": "> No objection to using the cache to avoid intermittent network issues. But the speedup was only ~2 minutes on a total runtime of 1 hour?\r\n\r\nYou're right. I've added \"avoid intermittent network issues\" to the PR description.",
      "user": {
        "login": "hebasto",
        "id": 32963518,
        "node_id": "MDQ6VXNlcjMyOTYzNTE4",
        "avatar_url": "https://avatars.githubusercontent.com/u/32963518?v=4",
        "gravatar_id": "",
        "url": "https://api.github.com/users/hebasto",
        "html_url": "https://github.com/hebasto",
        "followers_url": "https://api.github.com/users/hebasto/followers",
        "following_url": "https://api.github.com/users/hebasto/following%7B/other_user%7D",
        "gists_url": "https://api.github.com/users/hebasto/gists%7B/gist_id%7D",
        "starred_url": "https://api.github.com/users/hebasto/starred%7B/owner%7D%7B/repo%7D",
        "subscriptions_url": "https://api.github.com/users/hebasto/subscriptions",
        "organizations_url": "https://api.github.com/users/hebasto/orgs",
        "repos_url": "https://api.github.com/users/hebasto/repos",
        "events_url": "https://api.github.com/users/hebasto/events%7B/privacy%7D",
        "received_events_url": "https://api.github.com/users/hebasto/received_events",
        "type": "User",
        "site_admin": false
      },
      "html_url": "https://github.com/bitcoin/bitcoin/pull/27771#issuecomment-1588861202",
      "issue_url": "https://api.github.com/repos/bitcoin/bitcoin/issues/27771"
    },
    {
      "event": "commented",
      "id": 1595704670,
      "node_id": "IC_kwDOABII585fHIVe",
      "url": "https://api.github.com/repos/bitcoin/bitcoin/issues/comments/1595704670",
      "actor": {
        "login": "sipsorcery",
        "id": 197660,
        "node_id": "MDQ6VXNlcjE5NzY2MA==",
        "avatar_url": "https://avatars.githubusercontent.com/u/197660?v=4",
        "gravatar_id": "",
        "url": "https://api.github.com/users/sipsorcery",
        "html_url": "https://github.com/sipsorcery",
        "followers_url": "https://api.github.com/users/sipsorcery/followers",
        "following_url": "https://api.github.com/users/sipsorcery/following%7B/other_user%7D",
        "gists_url": "https://api.github.com/users/sipsorcery/gists%7B/gist_id%7D",
        "starred_url": "https://api.github.com/users/sipsorcery/starred%7B/owner%7D%7B/repo%7D",
        "subscriptions_url": "https://api.github.com/users/sipsorcery/subscriptions",
        "organizations_url": "https://api.github.com/users/sipsorcery/orgs",
        "repos_url": "https://api.github.com/users/sipsorcery/repos",
        "events_url": "https://api.github.com/users/sipsorcery/events%7B/privacy%7D",
        "received_events_url": "https://api.github.com/users/sipsorcery/received_events",
        "type": "User",
        "site_admin": false
      },
      "commit_id": null,
      "commit_url": null,
      "created_at": "2023-06-17T10:37:52Z",
      "updated_at": "2023-06-17T10:37:52Z",
      "author_association": "MEMBER",
      "body": "ACK 77551bc08976ca924096a008ed43efd9483376cc.\r\n\r\nSeems like a good idea to me.\r\n\r\nWon't the `ci/windows_test_imagefile` image be stored somewhere on the CI server for subsequent runs? I would have thought that would save more than 2 mins.",
      "user": {
        "login": "sipsorcery",
        "id": 197660,
        "node_id": "MDQ6VXNlcjE5NzY2MA==",
        "avatar_url": "https://avatars.githubusercontent.com/u/197660?v=4",
        "gravatar_id": "",
        "url": "https://api.github.com/users/sipsorcery",
        "html_url": "https://github.com/sipsorcery",
        "followers_url": "https://api.github.com/users/sipsorcery/followers",
        "following_url": "https://api.github.com/users/sipsorcery/following%7B/other_user%7D",
        "gists_url": "https://api.github.com/users/sipsorcery/gists%7B/gist_id%7D",
        "starred_url": "https://api.github.com/users/sipsorcery/starred%7B/owner%7D%7B/repo%7D",
        "subscriptions_url": "https://api.github.com/users/sipsorcery/subscriptions",
        "organizations_url": "https://api.github.com/users/sipsorcery/orgs",
        "repos_url": "https://api.github.com/users/sipsorcery/repos",
        "events_url": "https://api.github.com/users/sipsorcery/events%7B/privacy%7D",
        "received_events_url": "https://api.github.com/users/sipsorcery/received_events",
        "type": "User",
        "site_admin": false
      },
      "html_url": "https://github.com/bitcoin/bitcoin/pull/27771#issuecomment-1595704670",
      "issue_url": "https://api.github.com/repos/bitcoin/bitcoin/issues/27771"
    },
    {
      "event": "commented",
      "id": 1595706003,
      "node_id": "IC_kwDOABII585fHIqT",
      "url": "https://api.github.com/repos/bitcoin/bitcoin/issues/comments/1595706003",
      "actor": {
        "login": "MarcoFalke",
        "id": 6399679,
        "node_id": "MDQ6VXNlcjYzOTk2Nzk=",
        "avatar_url": "https://avatars.githubusercontent.com/u/6399679?v=4",
        "gravatar_id": "",
        "url": "https://api.github.com/users/MarcoFalke",
        "html_url": "https://github.com/MarcoFalke",
        "followers_url": "https://api.github.com/users/MarcoFalke/followers",
        "following_url": "https://api.github.com/users/MarcoFalke/following%7B/other_user%7D",
        "gists_url": "https://api.github.com/users/MarcoFalke/gists%7B/gist_id%7D",
        "starred_url": "https://api.github.com/users/MarcoFalke/starred%7B/owner%7D%7B/repo%7D",
        "subscriptions_url": "https://api.github.com/users/MarcoFalke/subscriptions",
        "organizations_url": "https://api.github.com/users/MarcoFalke/orgs",
        "repos_url": "https://api.github.com/users/MarcoFalke/repos",
        "events_url": "https://api.github.com/users/MarcoFalke/events%7B/privacy%7D",
        "received_events_url": "https://api.github.com/users/MarcoFalke/received_events",
        "type": "User",
        "site_admin": false
      },
      "commit_id": null,
      "commit_url": null,
      "created_at": "2023-06-17T10:43:57Z",
      "updated_at": "2023-06-17T10:43:57Z",
      "author_association": "MEMBER",
      "body": "According to https://cirrus-ci.com/task/6075873112096768 the build took 5 min, so that is roughly the time you save. But with unit tests running for 10 min and functional tests for 40 min, it is saving not too much.\r\n\r\nAvoiding intermittent network issues seems more useful.",
      "user": {
        "login": "MarcoFalke",
        "id": 6399679,
        "node_id": "MDQ6VXNlcjYzOTk2Nzk=",
        "avatar_url": "https://avatars.githubusercontent.com/u/6399679?v=4",
        "gravatar_id": "",
        "url": "https://api.github.com/users/MarcoFalke",
        "html_url": "https://github.com/MarcoFalke",
        "followers_url": "https://api.github.com/users/MarcoFalke/followers",
        "following_url": "https://api.github.com/users/MarcoFalke/following%7B/other_user%7D",
        "gists_url": "https://api.github.com/users/MarcoFalke/gists%7B/gist_id%7D",
        "starred_url": "https://api.github.com/users/MarcoFalke/starred%7B/owner%7D%7B/repo%7D",
        "subscriptions_url": "https://api.github.com/users/MarcoFalke/subscriptions",
        "organizations_url": "https://api.github.com/users/MarcoFalke/orgs",
        "repos_url": "https://api.github.com/users/MarcoFalke/repos",
        "events_url": "https://api.github.com/users/MarcoFalke/events%7B/privacy%7D",
        "received_events_url": "https://api.github.com/users/MarcoFalke/received_events",
        "type": "User",
        "site_admin": false
      },
      "html_url": "https://github.com/bitcoin/bitcoin/pull/27771#issuecomment-1595706003",
      "issue_url": "https://api.github.com/repos/bitcoin/bitcoin/issues/27771"
    },
    {
      "event": "commented",
      "id": 1604505722,
      "node_id": "IC_kwDOABII585fotB6",
      "url": "https://api.github.com/repos/bitcoin/bitcoin/issues/comments/1604505722",
      "actor": {
        "login": "hebasto",
        "id": 32963518,
        "node_id": "MDQ6VXNlcjMyOTYzNTE4",
        "avatar_url": "https://avatars.githubusercontent.com/u/32963518?v=4",
        "gravatar_id": "",
        "url": "https://api.github.com/users/hebasto",
        "html_url": "https://github.com/hebasto",
        "followers_url": "https://api.github.com/users/hebasto/followers",
        "following_url": "https://api.github.com/users/hebasto/following%7B/other_user%7D",
        "gists_url": "https://api.github.com/users/hebasto/gists%7B/gist_id%7D",
        "starred_url": "https://api.github.com/users/hebasto/starred%7B/owner%7D%7B/repo%7D",
        "subscriptions_url": "https://api.github.com/users/hebasto/subscriptions",
        "organizations_url": "https://api.github.com/users/hebasto/orgs",
        "repos_url": "https://api.github.com/users/hebasto/repos",
        "events_url": "https://api.github.com/users/hebasto/events%7B/privacy%7D",
        "received_events_url": "https://api.github.com/users/hebasto/received_events",
        "type": "User",
        "site_admin": false
      },
      "commit_id": null,
      "commit_url": null,
      "created_at": "2023-06-23T16:15:23Z",
      "updated_at": "2023-06-23T16:15:23Z",
      "author_association": "MEMBER",
      "body": "> Won't the `ci/windows_test_imagefile` image be stored somewhere on the CI server for subsequent runs? I would have thought that would save more than 2 mins.\r\n\r\nSubsequent runs _will_ use the cached image the same way as other jobs use the cached `ci/test_image` image now.",
      "user": {
        "login": "hebasto",
        "id": 32963518,
        "node_id": "MDQ6VXNlcjMyOTYzNTE4",
        "avatar_url": "https://avatars.githubusercontent.com/u/32963518?v=4",
        "gravatar_id": "",
        "url": "https://api.github.com/users/hebasto",
        "html_url": "https://github.com/hebasto",
        "followers_url": "https://api.github.com/users/hebasto/followers",
        "following_url": "https://api.github.com/users/hebasto/following%7B/other_user%7D",
        "gists_url": "https://api.github.com/users/hebasto/gists%7B/gist_id%7D",
        "starred_url": "https://api.github.com/users/hebasto/starred%7B/owner%7D%7B/repo%7D",
        "subscriptions_url": "https://api.github.com/users/hebasto/subscriptions",
        "organizations_url": "https://api.github.com/users/hebasto/orgs",
        "repos_url": "https://api.github.com/users/hebasto/repos",
        "events_url": "https://api.github.com/users/hebasto/events%7B/privacy%7D",
        "received_events_url": "https://api.github.com/users/hebasto/received_events",
        "type": "User",
        "site_admin": false
      },
      "html_url": "https://github.com/bitcoin/bitcoin/pull/27771#issuecomment-1604505722",
      "issue_url": "https://api.github.com/repos/bitcoin/bitcoin/issues/27771"
    },
    {
      "event": "commented",
      "id": 1653998189,
      "node_id": "IC_kwDOABII585ilgJt",
      "url": "https://api.github.com/repos/bitcoin/bitcoin/issues/comments/1653998189",
      "actor": {
        "login": "hebasto",
        "id": 32963518,
        "node_id": "MDQ6VXNlcjMyOTYzNTE4",
        "avatar_url": "https://avatars.githubusercontent.com/u/32963518?v=4",
        "gravatar_id": "",
        "url": "https://api.github.com/users/hebasto",
        "html_url": "https://github.com/hebasto",
        "followers_url": "https://api.github.com/users/hebasto/followers",
        "following_url": "https://api.github.com/users/hebasto/following%7B/other_user%7D",
        "gists_url": "https://api.github.com/users/hebasto/gists%7B/gist_id%7D",
        "starred_url": "https://api.github.com/users/hebasto/starred%7B/owner%7D%7B/repo%7D",
        "subscriptions_url": "https://api.github.com/users/hebasto/subscriptions",
        "organizations_url": "https://api.github.com/users/hebasto/orgs",
        "repos_url": "https://api.github.com/users/hebasto/repos",
        "events_url": "https://api.github.com/users/hebasto/events%7B/privacy%7D",
        "received_events_url": "https://api.github.com/users/hebasto/received_events",
        "type": "User",
        "site_admin": false
      },
      "commit_id": null,
      "commit_url": null,
      "created_at": "2023-07-27T16:57:08Z",
      "updated_at": "2023-07-27T16:57:08Z",
      "author_association": "MEMBER",
      "body": "Closing in the light of https://github.com/bitcoin/bitcoin/issues/28098.",
      "user": {
        "login": "hebasto",
        "id": 32963518,
        "node_id": "MDQ6VXNlcjMyOTYzNTE4",
        "avatar_url": "https://avatars.githubusercontent.com/u/32963518?v=4",
        "gravatar_id": "",
        "url": "https://api.github.com/users/hebasto",
        "html_url": "https://github.com/hebasto",
        "followers_url": "https://api.github.com/users/hebasto/followers",
        "following_url": "https://api.github.com/users/hebasto/following%7B/other_user%7D",
        "gists_url": "https://api.github.com/users/hebasto/gists%7B/gist_id%7D",
        "starred_url": "https://api.github.com/users/hebasto/starred%7B/owner%7D%7B/repo%7D",
        "subscriptions_url": "https://api.github.com/users/hebasto/subscriptions",
        "organizations_url": "https://api.github.com/users/hebasto/orgs",
        "repos_url": "https://api.github.com/users/hebasto/repos",
        "events_url": "https://api.github.com/users/hebasto/events%7B/privacy%7D",
        "received_events_url": "https://api.github.com/users/hebasto/received_events",
        "type": "User",
        "site_admin": false
      },
      "html_url": "https://github.com/bitcoin/bitcoin/pull/27771#issuecomment-1653998189",
      "issue_url": "https://api.github.com/repos/bitcoin/bitcoin/issues/27771"
    },
    {
      "event": "closed",
      "id": 9938356391,
      "node_id": "CE_lADOABII585nFKd_zwAAAAJQX0in",
      "url": "https://api.github.com/repos/bitcoin/bitcoin/issues/events/9938356391",
      "actor": {
        "login": "hebasto",
        "id": 32963518,
        "node_id": "MDQ6VXNlcjMyOTYzNTE4",
        "avatar_url": "https://avatars.githubusercontent.com/u/32963518?v=4",
        "gravatar_id": "",
        "url": "https://api.github.com/users/hebasto",
        "html_url": "https://github.com/hebasto",
        "followers_url": "https://api.github.com/users/hebasto/followers",
        "following_url": "https://api.github.com/users/hebasto/following%7B/other_user%7D",
        "gists_url": "https://api.github.com/users/hebasto/gists%7B/gist_id%7D",
        "starred_url": "https://api.github.com/users/hebasto/starred%7B/owner%7D%7B/repo%7D",
        "subscriptions_url": "https://api.github.com/users/hebasto/subscriptions",
        "organizations_url": "https://api.github.com/users/hebasto/orgs",
        "repos_url": "https://api.github.com/users/hebasto/repos",
        "events_url": "https://api.github.com/users/hebasto/events%7B/privacy%7D",
        "received_events_url": "https://api.github.com/users/hebasto/received_events",
        "type": "User",
        "site_admin": false
      },
      "commit_id": null,
      "commit_url": null,
      "created_at": "2023-07-27T16:57:25Z"
    }
  ],
  "comments": []
}