{
  "type": "pull",
  "pull": {
    "url": "https://api.github.com/repos/bitcoin/bitcoin/pulls/27820",
    "id": 1377805099,
    "node_id": "PR_kwDOABII585SH6Mr",
    "html_url": "https://github.com/bitcoin/bitcoin/pull/27820",
    "diff_url": "https://github.com/bitcoin/bitcoin/pull/27820.diff",
    "patch_url": "https://github.com/bitcoin/bitcoin/pull/27820.patch",
    "issue_url": "https://api.github.com/repos/bitcoin/bitcoin/issues/27820",
    "commits_url": "https://api.github.com/repos/bitcoin/bitcoin/pulls/27820/commits",
    "review_comments_url": "https://api.github.com/repos/bitcoin/bitcoin/pulls/27820/comments",
    "review_comment_url": "https://api.github.com/repos/bitcoin/bitcoin/pulls/comments%7B/number%7D",
    "comments_url": "https://api.github.com/repos/bitcoin/bitcoin/issues/27820/comments",
    "statuses_url": "https://api.github.com/repos/bitcoin/bitcoin/statuses/6027388939040713ba6da72d41a9bbc9ee9436cf",
    "number": 27820,
    "state": "open",
    "locked": false,
    "maintainer_can_modify": true,
    "title": "Sanitizing ports of -rpcconnect and -rpcport.",
    "user": {
      "login": "Brotcrunsher",
      "id": 19430475,
      "node_id": "MDQ6VXNlcjE5NDMwNDc1",
      "avatar_url": "https://avatars.githubusercontent.com/u/19430475?v=4",
      "gravatar_id": "",
      "url": "https://api.github.com/users/Brotcrunsher",
      "html_url": "https://github.com/Brotcrunsher",
      "followers_url": "https://api.github.com/users/Brotcrunsher/followers",
      "following_url": "https://api.github.com/users/Brotcrunsher/following%7B/other_user%7D",
      "gists_url": "https://api.github.com/users/Brotcrunsher/gists%7B/gist_id%7D",
      "starred_url": "https://api.github.com/users/Brotcrunsher/starred%7B/owner%7D%7B/repo%7D",
      "subscriptions_url": "https://api.github.com/users/Brotcrunsher/subscriptions",
      "organizations_url": "https://api.github.com/users/Brotcrunsher/orgs",
      "repos_url": "https://api.github.com/users/Brotcrunsher/repos",
      "events_url": "https://api.github.com/users/Brotcrunsher/events%7B/privacy%7D",
      "received_events_url": "https://api.github.com/users/Brotcrunsher/received_events",
      "type": "User",
      "site_admin": false
    },
    "body": "Previously, if they contained malformed ports they were silently interpreted as value%0xffff. Illegal ports now lead to an error. Additionally, if rpcconnect has a port and rpcport is set, a useful warning is now printed.\r\n",
    "labels": [
      {
        "id": 5334691551,
        "node_id": "LA_kwDOABII588AAAABPfju3w",
        "url": "https://api.github.com/repos/bitcoin/bitcoin/labels/CI%20failed",
        "name": "CI failed",
        "description": "",
        "color": "cccccc",
        "default": false
      }
    ],
    "created_at": "2023-06-04T15:34:04Z",
    "updated_at": "2023-11-03T05:06:44Z",
    "mergeable": true,
    "mergeable_state": "blocked",
    "merge_commit_sha": "1d97a4f27bbb7f8902710264936ef1c21496028a",
    "assignees": [],
    "requested_reviewers": [
      {
        "login": "achow101",
        "id": 3782274,
        "node_id": "MDQ6VXNlcjM3ODIyNzQ=",
        "avatar_url": "https://avatars.githubusercontent.com/u/3782274?v=4",
        "gravatar_id": "",
        "url": "https://api.github.com/users/achow101",
        "html_url": "https://github.com/achow101",
        "followers_url": "https://api.github.com/users/achow101/followers",
        "following_url": "https://api.github.com/users/achow101/following%7B/other_user%7D",
        "gists_url": "https://api.github.com/users/achow101/gists%7B/gist_id%7D",
        "starred_url": "https://api.github.com/users/achow101/starred%7B/owner%7D%7B/repo%7D",
        "subscriptions_url": "https://api.github.com/users/achow101/subscriptions",
        "organizations_url": "https://api.github.com/users/achow101/orgs",
        "repos_url": "https://api.github.com/users/achow101/repos",
        "events_url": "https://api.github.com/users/achow101/events%7B/privacy%7D",
        "received_events_url": "https://api.github.com/users/achow101/received_events",
        "type": "User",
        "site_admin": false
      }
    ],
    "requested_teams": [],
    "rebaseable": true,
    "head": {
      "label": "Brotcrunsher:PortSanitizing",
      "ref": "PortSanitizing",
      "sha": "6027388939040713ba6da72d41a9bbc9ee9436cf",
      "user": {
        "login": "Brotcrunsher",
        "id": 19430475,
        "node_id": "MDQ6VXNlcjE5NDMwNDc1",
        "avatar_url": "https://avatars.githubusercontent.com/u/19430475?v=4",
        "gravatar_id": "",
        "url": "https://api.github.com/users/Brotcrunsher",
        "html_url": "https://github.com/Brotcrunsher",
        "followers_url": "https://api.github.com/users/Brotcrunsher/followers",
        "following_url": "https://api.github.com/users/Brotcrunsher/following%7B/other_user%7D",
        "gists_url": "https://api.github.com/users/Brotcrunsher/gists%7B/gist_id%7D",
        "starred_url": "https://api.github.com/users/Brotcrunsher/starred%7B/owner%7D%7B/repo%7D",
        "subscriptions_url": "https://api.github.com/users/Brotcrunsher/subscriptions",
        "organizations_url": "https://api.github.com/users/Brotcrunsher/orgs",
        "repos_url": "https://api.github.com/users/Brotcrunsher/repos",
        "events_url": "https://api.github.com/users/Brotcrunsher/events%7B/privacy%7D",
        "received_events_url": "https://api.github.com/users/Brotcrunsher/received_events",
        "type": "User",
        "site_admin": false
      },
      "repo": {
        "id": 649044715,
        "node_id": "R_kgDOJq-i6w",
        "name": "bitcoin",
        "full_name": "Brotcrunsher/bitcoin",
        "owner": {
          "login": "Brotcrunsher",
          "id": 19430475,
          "node_id": "MDQ6VXNlcjE5NDMwNDc1",
          "avatar_url": "https://avatars.githubusercontent.com/u/19430475?v=4",
          "gravatar_id": "",
          "url": "https://api.github.com/users/Brotcrunsher",
          "html_url": "https://github.com/Brotcrunsher",
          "followers_url": "https://api.github.com/users/Brotcrunsher/followers",
          "following_url": "https://api.github.com/users/Brotcrunsher/following%7B/other_user%7D",
          "gists_url": "https://api.github.com/users/Brotcrunsher/gists%7B/gist_id%7D",
          "starred_url": "https://api.github.com/users/Brotcrunsher/starred%7B/owner%7D%7B/repo%7D",
          "subscriptions_url": "https://api.github.com/users/Brotcrunsher/subscriptions",
          "organizations_url": "https://api.github.com/users/Brotcrunsher/orgs",
          "repos_url": "https://api.github.com/users/Brotcrunsher/repos",
          "events_url": "https://api.github.com/users/Brotcrunsher/events%7B/privacy%7D",
          "received_events_url": "https://api.github.com/users/Brotcrunsher/received_events",
          "type": "User",
          "site_admin": false
        },
        "private": false,
        "html_url": "https://github.com/Brotcrunsher/bitcoin",
        "description": "Bitcoin Core integration/staging tree",
        "fork": true,
        "url": "https://api.github.com/repos/Brotcrunsher/bitcoin",
        "archive_url": "https://api.github.com/repos/Brotcrunsher/bitcoin/%7Barchive_format%7D%7B/ref%7D",
        "assignees_url": "https://api.github.com/repos/Brotcrunsher/bitcoin/assignees%7B/user%7D",
        "blobs_url": "https://api.github.com/repos/Brotcrunsher/bitcoin/git/blobs%7B/sha%7D",
        "branches_url": "https://api.github.com/repos/Brotcrunsher/bitcoin/branches%7B/branch%7D",
        "collaborators_url": "https://api.github.com/repos/Brotcrunsher/bitcoin/collaborators%7B/collaborator%7D",
        "comments_url": "https://api.github.com/repos/Brotcrunsher/bitcoin/comments%7B/number%7D",
        "commits_url": "https://api.github.com/repos/Brotcrunsher/bitcoin/commits%7B/sha%7D",
        "compare_url": "https://api.github.com/repos/Brotcrunsher/bitcoin/compare/%7Bbase%7D...%7Bhead%7D",
        "contents_url": "https://api.github.com/repos/Brotcrunsher/bitcoin/contents/%7B+path%7D",
        "contributors_url": "https://api.github.com/repos/Brotcrunsher/bitcoin/contributors",
        "deployments_url": "https://api.github.com/repos/Brotcrunsher/bitcoin/deployments",
        "downloads_url": "https://api.github.com/repos/Brotcrunsher/bitcoin/downloads",
        "events_url": "https://api.github.com/repos/Brotcrunsher/bitcoin/events",
        "forks_url": "https://api.github.com/repos/Brotcrunsher/bitcoin/forks",
        "git_commits_url": "https://api.github.com/repos/Brotcrunsher/bitcoin/git/commits%7B/sha%7D",
        "git_refs_url": "https://api.github.com/repos/Brotcrunsher/bitcoin/git/refs%7B/sha%7D",
        "git_tags_url": "https://api.github.com/repos/Brotcrunsher/bitcoin/git/tags%7B/sha%7D",
        "git_url": "git://github.com/Brotcrunsher/bitcoin.git",
        "issue_comment_url": "https://api.github.com/repos/Brotcrunsher/bitcoin/issues/comments%7B/number%7D",
        "issue_events_url": "https://api.github.com/repos/Brotcrunsher/bitcoin/issues/events%7B/number%7D",
        "issues_url": "https://api.github.com/repos/Brotcrunsher/bitcoin/issues%7B/number%7D",
        "keys_url": "https://api.github.com/repos/Brotcrunsher/bitcoin/keys%7B/key_id%7D",
        "labels_url": "https://api.github.com/repos/Brotcrunsher/bitcoin/labels%7B/name%7D",
        "languages_url": "https://api.github.com/repos/Brotcrunsher/bitcoin/languages",
        "merges_url": "https://api.github.com/repos/Brotcrunsher/bitcoin/merges",
        "milestones_url": "https://api.github.com/repos/Brotcrunsher/bitcoin/milestones%7B/number%7D",
        "notifications_url": "https://api.github.com/repos/Brotcrunsher/bitcoin/notifications%7B?since,all,participating}",
        "pulls_url": "https://api.github.com/repos/Brotcrunsher/bitcoin/pulls%7B/number%7D",
        "releases_url": "https://api.github.com/repos/Brotcrunsher/bitcoin/releases%7B/id%7D",
        "ssh_url": "git@github.com:Brotcrunsher/bitcoin.git",
        "stargazers_url": "https://api.github.com/repos/Brotcrunsher/bitcoin/stargazers",
        "statuses_url": "https://api.github.com/repos/Brotcrunsher/bitcoin/statuses/%7Bsha%7D",
        "subscribers_url": "https://api.github.com/repos/Brotcrunsher/bitcoin/subscribers",
        "subscription_url": "https://api.github.com/repos/Brotcrunsher/bitcoin/subscription",
        "tags_url": "https://api.github.com/repos/Brotcrunsher/bitcoin/tags",
        "teams_url": "https://api.github.com/repos/Brotcrunsher/bitcoin/teams",
        "trees_url": "https://api.github.com/repos/Brotcrunsher/bitcoin/git/trees%7B/sha%7D",
        "clone_url": "https://github.com/Brotcrunsher/bitcoin.git",
        "hooks_url": "https://api.github.com/repos/Brotcrunsher/bitcoin/hooks",
        "svn_url": "https://github.com/Brotcrunsher/bitcoin",
        "homepage": "https://bitcoincore.org/en/download",
        "language": "C++",
        "forks_count": 0,
        "stargazers_count": 0,
        "watchers_count": 0,
        "size": 198295,
        "default_branch": "master",
        "open_issues_count": 0,
        "is_template": false,
        "topics": [],
        "has_issues": false,
        "has_projects": true,
        "has_wiki": false,
        "has_pages": false,
        "has_downloads": false,
        "archived": false,
        "disabled": false,
        "visibility": "public",
        "pushed_at": "2023-08-12T08:11:05Z",
        "created_at": "2023-06-03T15:44:25Z",
        "updated_at": "2023-06-03T16:08:56Z",
        "license": {
          "key": "mit",
          "name": "MIT License",
          "node_id": "MDc6TGljZW5zZTEz",
          "spdx_id": "MIT",
          "url": "https://api.github.com/licenses/mit",
          "html_url": null,
          "description": null,
          "implementation": null,
          "permissions": null,
          "conditions": null,
          "limitations": null,
          "body": null,
          "featured": null
        }
      }
    },
    "base": {
      "label": "bitcoin:master",
      "ref": "master",
      "sha": "7f2019755d147e7e17c54f0bb61296211bb45262",
      "user": {
        "login": "bitcoin",
        "id": 528860,
        "node_id": "MDEyOk9yZ2FuaXphdGlvbjUyODg2MA==",
        "avatar_url": "https://avatars.githubusercontent.com/u/528860?v=4",
        "gravatar_id": "",
        "url": "https://api.github.com/users/bitcoin",
        "html_url": "https://github.com/bitcoin",
        "followers_url": "https://api.github.com/users/bitcoin/followers",
        "following_url": "https://api.github.com/users/bitcoin/following%7B/other_user%7D",
        "gists_url": "https://api.github.com/users/bitcoin/gists%7B/gist_id%7D",
        "starred_url": "https://api.github.com/users/bitcoin/starred%7B/owner%7D%7B/repo%7D",
        "subscriptions_url": "https://api.github.com/users/bitcoin/subscriptions",
        "organizations_url": "https://api.github.com/users/bitcoin/orgs",
        "repos_url": "https://api.github.com/users/bitcoin/repos",
        "events_url": "https://api.github.com/users/bitcoin/events%7B/privacy%7D",
        "received_events_url": "https://api.github.com/users/bitcoin/received_events",
        "type": "Organization",
        "site_admin": false
      },
      "repo": {
        "id": 1181927,
        "node_id": "MDEwOlJlcG9zaXRvcnkxMTgxOTI3",
        "name": "bitcoin",
        "full_name": "bitcoin/bitcoin",
        "owner": {
          "login": "bitcoin",
          "id": 528860,
          "node_id": "MDEyOk9yZ2FuaXphdGlvbjUyODg2MA==",
          "avatar_url": "https://avatars.githubusercontent.com/u/528860?v=4",
          "gravatar_id": "",
          "url": "https://api.github.com/users/bitcoin",
          "html_url": "https://github.com/bitcoin",
          "followers_url": "https://api.github.com/users/bitcoin/followers",
          "following_url": "https://api.github.com/users/bitcoin/following%7B/other_user%7D",
          "gists_url": "https://api.github.com/users/bitcoin/gists%7B/gist_id%7D",
          "starred_url": "https://api.github.com/users/bitcoin/starred%7B/owner%7D%7B/repo%7D",
          "subscriptions_url": "https://api.github.com/users/bitcoin/subscriptions",
          "organizations_url": "https://api.github.com/users/bitcoin/orgs",
          "repos_url": "https://api.github.com/users/bitcoin/repos",
          "events_url": "https://api.github.com/users/bitcoin/events%7B/privacy%7D",
          "received_events_url": "https://api.github.com/users/bitcoin/received_events",
          "type": "Organization",
          "site_admin": false
        },
        "private": false,
        "html_url": "https://github.com/bitcoin/bitcoin",
        "description": "Bitcoin Core integration/staging tree",
        "fork": false,
        "url": "https://api.github.com/repos/bitcoin/bitcoin",
        "archive_url": "https://api.github.com/repos/bitcoin/bitcoin/%7Barchive_format%7D%7B/ref%7D",
        "assignees_url": "https://api.github.com/repos/bitcoin/bitcoin/assignees%7B/user%7D",
        "blobs_url": "https://api.github.com/repos/bitcoin/bitcoin/git/blobs%7B/sha%7D",
        "branches_url": "https://api.github.com/repos/bitcoin/bitcoin/branches%7B/branch%7D",
        "collaborators_url": "https://api.github.com/repos/bitcoin/bitcoin/collaborators%7B/collaborator%7D",
        "comments_url": "https://api.github.com/repos/bitcoin/bitcoin/comments%7B/number%7D",
        "commits_url": "https://api.github.com/repos/bitcoin/bitcoin/commits%7B/sha%7D",
        "compare_url": "https://api.github.com/repos/bitcoin/bitcoin/compare/%7Bbase%7D...%7Bhead%7D",
        "contents_url": "https://api.github.com/repos/bitcoin/bitcoin/contents/%7B+path%7D",
        "contributors_url": "https://api.github.com/repos/bitcoin/bitcoin/contributors",
        "deployments_url": "https://api.github.com/repos/bitcoin/bitcoin/deployments",
        "downloads_url": "https://api.github.com/repos/bitcoin/bitcoin/downloads",
        "events_url": "https://api.github.com/repos/bitcoin/bitcoin/events",
        "forks_url": "https://api.github.com/repos/bitcoin/bitcoin/forks",
        "git_commits_url": "https://api.github.com/repos/bitcoin/bitcoin/git/commits%7B/sha%7D",
        "git_refs_url": "https://api.github.com/repos/bitcoin/bitcoin/git/refs%7B/sha%7D",
        "git_tags_url": "https://api.github.com/repos/bitcoin/bitcoin/git/tags%7B/sha%7D",
        "git_url": "git://github.com/bitcoin/bitcoin.git",
        "issue_comment_url": "https://api.github.com/repos/bitcoin/bitcoin/issues/comments%7B/number%7D",
        "issue_events_url": "https://api.github.com/repos/bitcoin/bitcoin/issues/events%7B/number%7D",
        "issues_url": "https://api.github.com/repos/bitcoin/bitcoin/issues%7B/number%7D",
        "keys_url": "https://api.github.com/repos/bitcoin/bitcoin/keys%7B/key_id%7D",
        "labels_url": "https://api.github.com/repos/bitcoin/bitcoin/labels%7B/name%7D",
        "languages_url": "https://api.github.com/repos/bitcoin/bitcoin/languages",
        "merges_url": "https://api.github.com/repos/bitcoin/bitcoin/merges",
        "milestones_url": "https://api.github.com/repos/bitcoin/bitcoin/milestones%7B/number%7D",
        "notifications_url": "https://api.github.com/repos/bitcoin/bitcoin/notifications%7B?since,all,participating}",
        "pulls_url": "https://api.github.com/repos/bitcoin/bitcoin/pulls%7B/number%7D",
        "releases_url": "https://api.github.com/repos/bitcoin/bitcoin/releases%7B/id%7D",
        "ssh_url": "git@github.com:bitcoin/bitcoin.git",
        "stargazers_url": "https://api.github.com/repos/bitcoin/bitcoin/stargazers",
        "statuses_url": "https://api.github.com/repos/bitcoin/bitcoin/statuses/%7Bsha%7D",
        "subscribers_url": "https://api.github.com/repos/bitcoin/bitcoin/subscribers",
        "subscription_url": "https://api.github.com/repos/bitcoin/bitcoin/subscription",
        "tags_url": "https://api.github.com/repos/bitcoin/bitcoin/tags",
        "teams_url": "https://api.github.com/repos/bitcoin/bitcoin/teams",
        "trees_url": "https://api.github.com/repos/bitcoin/bitcoin/git/trees%7B/sha%7D",
        "clone_url": "https://github.com/bitcoin/bitcoin.git",
        "hooks_url": "https://api.github.com/repos/bitcoin/bitcoin/hooks",
        "svn_url": "https://github.com/bitcoin/bitcoin",
        "homepage": "https://bitcoincore.org/en/download",
        "language": "C++",
        "forks_count": 35920,
        "stargazers_count": 72017,
        "watchers_count": 72017,
        "size": 244239,
        "default_branch": "master",
        "open_issues_count": 627,
        "is_template": false,
        "topics": [
          "bitcoin",
          "c-plus-plus",
          "cryptocurrency",
          "cryptography",
          "p2p"
        ],
        "has_issues": true,
        "has_projects": true,
        "has_wiki": false,
        "has_pages": false,
        "has_downloads": false,
        "archived": false,
        "disabled": false,
        "visibility": "public",
        "pushed_at": "2023-11-02T22:33:14Z",
        "created_at": "2010-12-19T15:16:43Z",
        "updated_at": "2023-11-03T03:45:53Z",
        "license": {
          "key": "mit",
          "name": "MIT License",
          "node_id": "MDc6TGljZW5zZTEz",
          "spdx_id": "MIT",
          "url": "https://api.github.com/licenses/mit",
          "html_url": null,
          "description": null,
          "implementation": null,
          "permissions": null,
          "conditions": null,
          "limitations": null,
          "body": null,
          "featured": null
        }
      }
    },
    "_links": {
      "self": {
        "href": "https://api.github.com/repos/bitcoin/bitcoin/pulls/27820"
      }
    },
    "author_association": "CONTRIBUTOR",
    "draft": false,
    "additions": 21,
    "deletions": 4,
    "changed_files": 3,
    "commits": 1,
    "review_comments": 3,
    "comments": 3
  },
  "events": [
    {
      "event": "committed",
      "id": null,
      "node_id": "C_kwDOABII59oAKDYwMjczODg5MzkwNDA3MTNiYTZkYTcyZDQxYTliYmM5ZWU5NDM2Y2Y",
      "url": "https://api.github.com/repos/bitcoin/bitcoin/git/commits/6027388939040713ba6da72d41a9bbc9ee9436cf",
      "actor": null,
      "commit_id": null,
      "commit_url": null,
      "created_at": null,
      "html_url": "https://github.com/bitcoin/bitcoin/commit/6027388939040713ba6da72d41a9bbc9ee9436cf",
      "tree": {
        "sha": "dba660c66b53f8e518baee8fda3f65b911127ecb",
        "url": "https://api.github.com/repos/bitcoin/bitcoin/git/trees/dba660c66b53f8e518baee8fda3f65b911127ecb"
      },
      "verification": {
        "verified": false,
        "reason": "unsigned",
        "payload": null,
        "signature": null
      },
      "parents": [
        {
          "url": "https://api.github.com/repos/bitcoin/bitcoin/git/commits/7f2019755d147e7e17c54f0bb61296211bb45262",
          "sha": "7f2019755d147e7e17c54f0bb61296211bb45262",
          "html_url": "https://github.com/bitcoin/bitcoin/commit/7f2019755d147e7e17c54f0bb61296211bb45262"
        }
      ],
      "message": "Sanitizing ports of -rpcconnect and -rpcport. Previously, if they contained malformed ports they were silently interpreted as value%0xffff. Illegal ports now lead to an error. Additionally, if rpcconnect has a port and rpcport is set, a useful warning is now printed.",
      "committer": {
        "name": "Brotcrunsher",
        "email": "Brotcrunsher@hotmail.de",
        "date": "2023-06-04T15:31:26Z"
      },
      "author": {
        "name": "Brotcrunsher",
        "email": "Brotcrunsher@hotmail.de",
        "date": "2023-06-04T15:31:26Z"
      },
      "sha": "6027388939040713ba6da72d41a9bbc9ee9436cf"
    },
    {
      "event": "commented",
      "id": 1575612911,
      "node_id": "IC_kwDOABII585d6fHv",
      "url": "https://api.github.com/repos/bitcoin/bitcoin/issues/comments/1575612911",
      "actor": {
        "login": "DrahtBot",
        "id": 39886733,
        "node_id": "MDQ6VXNlcjM5ODg2NzMz",
        "avatar_url": "https://avatars.githubusercontent.com/u/39886733?v=4",
        "gravatar_id": "",
        "url": "https://api.github.com/users/DrahtBot",
        "html_url": "https://github.com/DrahtBot",
        "followers_url": "https://api.github.com/users/DrahtBot/followers",
        "following_url": "https://api.github.com/users/DrahtBot/following%7B/other_user%7D",
        "gists_url": "https://api.github.com/users/DrahtBot/gists%7B/gist_id%7D",
        "starred_url": "https://api.github.com/users/DrahtBot/starred%7B/owner%7D%7B/repo%7D",
        "subscriptions_url": "https://api.github.com/users/DrahtBot/subscriptions",
        "organizations_url": "https://api.github.com/users/DrahtBot/orgs",
        "repos_url": "https://api.github.com/users/DrahtBot/repos",
        "events_url": "https://api.github.com/users/DrahtBot/events%7B/privacy%7D",
        "received_events_url": "https://api.github.com/users/DrahtBot/received_events",
        "type": "User",
        "site_admin": false
      },
      "commit_id": null,
      "commit_url": null,
      "created_at": "2023-06-04T15:34:07Z",
      "updated_at": "2023-11-03T05:06:44Z",
      "author_association": "CONTRIBUTOR",
      "body": "<!--e57a25ab6845829454e8d69fc972939a-->\n\nThe following sections might be updated with supplementary metadata relevant to reviewers and maintainers.\n\n<!--021abf342d371248e50ceaed478a90ca-->\n### Reviews\nSee [the guideline](https://github.com/bitcoin/bitcoin/blob/master/CONTRIBUTING.md#code-review) for information on the review process.\n| Type | Reviewers |\n| ---- | --------- |\n| Concept ACK | [luke-jr](https://github.com/bitcoin/bitcoin/pull/27820#issuecomment-1605231151), [S3RK](https://github.com/bitcoin/bitcoin/pull/27820#pullrequestreview-1641474088) |\n\nIf your review is incorrectly listed, please react with 👎 to this comment and the bot will ignore it on the next update.\n<!--174a7506f384e20aa4161008e828411d-->\n### Conflicts\nReviewers, this pull request conflicts with the following ones:\n\n* [#28780](https://github.com/bitcoin/bitcoin/pull/28780) (log: torcontrol opt checks by bufo24)\n\nIf you consider this pull request important, please also help to review the conflicting pull requests. Ideally, start with the one that should be merged first.\n",
      "user": {
        "login": "DrahtBot",
        "id": 39886733,
        "node_id": "MDQ6VXNlcjM5ODg2NzMz",
        "avatar_url": "https://avatars.githubusercontent.com/u/39886733?v=4",
        "gravatar_id": "",
        "url": "https://api.github.com/users/DrahtBot",
        "html_url": "https://github.com/DrahtBot",
        "followers_url": "https://api.github.com/users/DrahtBot/followers",
        "following_url": "https://api.github.com/users/DrahtBot/following%7B/other_user%7D",
        "gists_url": "https://api.github.com/users/DrahtBot/gists%7B/gist_id%7D",
        "starred_url": "https://api.github.com/users/DrahtBot/starred%7B/owner%7D%7B/repo%7D",
        "subscriptions_url": "https://api.github.com/users/DrahtBot/subscriptions",
        "organizations_url": "https://api.github.com/users/DrahtBot/orgs",
        "repos_url": "https://api.github.com/users/DrahtBot/repos",
        "events_url": "https://api.github.com/users/DrahtBot/events%7B/privacy%7D",
        "received_events_url": "https://api.github.com/users/DrahtBot/received_events",
        "type": "User",
        "site_admin": false
      },
      "html_url": "https://github.com/bitcoin/bitcoin/pull/27820#issuecomment-1575612911",
      "issue_url": "https://api.github.com/repos/bitcoin/bitcoin/issues/27820"
    },
    {
      "event": "commented",
      "id": 1605231151,
      "node_id": "IC_kwDOABII585freIv",
      "url": "https://api.github.com/repos/bitcoin/bitcoin/issues/comments/1605231151",
      "actor": {
        "login": "luke-jr",
        "id": 1095675,
        "node_id": "MDQ6VXNlcjEwOTU2NzU=",
        "avatar_url": "https://avatars.githubusercontent.com/u/1095675?v=4",
        "gravatar_id": "",
        "url": "https://api.github.com/users/luke-jr",
        "html_url": "https://github.com/luke-jr",
        "followers_url": "https://api.github.com/users/luke-jr/followers",
        "following_url": "https://api.github.com/users/luke-jr/following%7B/other_user%7D",
        "gists_url": "https://api.github.com/users/luke-jr/gists%7B/gist_id%7D",
        "starred_url": "https://api.github.com/users/luke-jr/starred%7B/owner%7D%7B/repo%7D",
        "subscriptions_url": "https://api.github.com/users/luke-jr/subscriptions",
        "organizations_url": "https://api.github.com/users/luke-jr/orgs",
        "repos_url": "https://api.github.com/users/luke-jr/repos",
        "events_url": "https://api.github.com/users/luke-jr/events%7B/privacy%7D",
        "received_events_url": "https://api.github.com/users/luke-jr/received_events",
        "type": "User",
        "site_admin": false
      },
      "commit_id": null,
      "commit_url": null,
      "created_at": "2023-06-24T01:56:47Z",
      "updated_at": "2023-06-24T01:56:47Z",
      "author_association": "MEMBER",
      "body": "Concept ACK",
      "user": {
        "login": "luke-jr",
        "id": 1095675,
        "node_id": "MDQ6VXNlcjEwOTU2NzU=",
        "avatar_url": "https://avatars.githubusercontent.com/u/1095675?v=4",
        "gravatar_id": "",
        "url": "https://api.github.com/users/luke-jr",
        "html_url": "https://github.com/luke-jr",
        "followers_url": "https://api.github.com/users/luke-jr/followers",
        "following_url": "https://api.github.com/users/luke-jr/following%7B/other_user%7D",
        "gists_url": "https://api.github.com/users/luke-jr/gists%7B/gist_id%7D",
        "starred_url": "https://api.github.com/users/luke-jr/starred%7B/owner%7D%7B/repo%7D",
        "subscriptions_url": "https://api.github.com/users/luke-jr/subscriptions",
        "organizations_url": "https://api.github.com/users/luke-jr/orgs",
        "repos_url": "https://api.github.com/users/luke-jr/repos",
        "events_url": "https://api.github.com/users/luke-jr/events%7B/privacy%7D",
        "received_events_url": "https://api.github.com/users/luke-jr/received_events",
        "type": "User",
        "site_admin": false
      },
      "html_url": "https://github.com/bitcoin/bitcoin/pull/27820#issuecomment-1605231151",
      "issue_url": "https://api.github.com/repos/bitcoin/bitcoin/issues/27820"
    },
    {
      "event": "mentioned",
      "id": 9628442892,
      "node_id": "MEE_lADOABII585nvPNfzwAAAAI95mEM",
      "url": "https://api.github.com/repos/bitcoin/bitcoin/issues/events/9628442892",
      "actor": {
        "login": "Brotcrunsher",
        "id": 19430475,
        "node_id": "MDQ6VXNlcjE5NDMwNDc1",
        "avatar_url": "https://avatars.githubusercontent.com/u/19430475?v=4",
        "gravatar_id": "",
        "url": "https://api.github.com/users/Brotcrunsher",
        "html_url": "https://github.com/Brotcrunsher",
        "followers_url": "https://api.github.com/users/Brotcrunsher/followers",
        "following_url": "https://api.github.com/users/Brotcrunsher/following%7B/other_user%7D",
        "gists_url": "https://api.github.com/users/Brotcrunsher/gists%7B/gist_id%7D",
        "starred_url": "https://api.github.com/users/Brotcrunsher/starred%7B/owner%7D%7B/repo%7D",
        "subscriptions_url": "https://api.github.com/users/Brotcrunsher/subscriptions",
        "organizations_url": "https://api.github.com/users/Brotcrunsher/orgs",
        "repos_url": "https://api.github.com/users/Brotcrunsher/repos",
        "events_url": "https://api.github.com/users/Brotcrunsher/events%7B/privacy%7D",
        "received_events_url": "https://api.github.com/users/Brotcrunsher/received_events",
        "type": "User",
        "site_admin": false
      },
      "commit_id": null,
      "commit_url": null,
      "created_at": "2023-06-25T02:47:51Z"
    },
    {
      "event": "subscribed",
      "id": 9628442893,
      "node_id": "SE_lADOABII585nvPNfzwAAAAI95mEN",
      "url": "https://api.github.com/repos/bitcoin/bitcoin/issues/events/9628442893",
      "actor": {
        "login": "Brotcrunsher",
        "id": 19430475,
        "node_id": "MDQ6VXNlcjE5NDMwNDc1",
        "avatar_url": "https://avatars.githubusercontent.com/u/19430475?v=4",
        "gravatar_id": "",
        "url": "https://api.github.com/users/Brotcrunsher",
        "html_url": "https://github.com/Brotcrunsher",
        "followers_url": "https://api.github.com/users/Brotcrunsher/followers",
        "following_url": "https://api.github.com/users/Brotcrunsher/following%7B/other_user%7D",
        "gists_url": "https://api.github.com/users/Brotcrunsher/gists%7B/gist_id%7D",
        "starred_url": "https://api.github.com/users/Brotcrunsher/starred%7B/owner%7D%7B/repo%7D",
        "subscriptions_url": "https://api.github.com/users/Brotcrunsher/subscriptions",
        "organizations_url": "https://api.github.com/users/Brotcrunsher/orgs",
        "repos_url": "https://api.github.com/users/Brotcrunsher/repos",
        "events_url": "https://api.github.com/users/Brotcrunsher/events%7B/privacy%7D",
        "received_events_url": "https://api.github.com/users/Brotcrunsher/received_events",
        "type": "User",
        "site_admin": false
      },
      "commit_id": null,
      "commit_url": null,
      "created_at": "2023-06-25T02:47:51Z"
    },
    {
      "event": "review_requested",
      "id": 10425688208,
      "node_id": "RRE_lADOABII585nvPNfzwAAAAJta2CQ",
      "url": "https://api.github.com/repos/bitcoin/bitcoin/issues/events/10425688208",
      "actor": {
        "login": "achow101",
        "id": 3782274,
        "node_id": "MDQ6VXNlcjM3ODIyNzQ=",
        "avatar_url": "https://avatars.githubusercontent.com/u/3782274?v=4",
        "gravatar_id": "",
        "url": "https://api.github.com/users/achow101",
        "html_url": "https://github.com/achow101",
        "followers_url": "https://api.github.com/users/achow101/followers",
        "following_url": "https://api.github.com/users/achow101/following%7B/other_user%7D",
        "gists_url": "https://api.github.com/users/achow101/gists%7B/gist_id%7D",
        "starred_url": "https://api.github.com/users/achow101/starred%7B/owner%7D%7B/repo%7D",
        "subscriptions_url": "https://api.github.com/users/achow101/subscriptions",
        "organizations_url": "https://api.github.com/users/achow101/orgs",
        "repos_url": "https://api.github.com/users/achow101/repos",
        "events_url": "https://api.github.com/users/achow101/events%7B/privacy%7D",
        "received_events_url": "https://api.github.com/users/achow101/received_events",
        "type": "User",
        "site_admin": false
      },
      "commit_id": null,
      "commit_url": null,
      "created_at": "2023-09-20T16:53:21Z",
      "requested_reviewer": {
        "login": "S3RK",
        "id": 1466284,
        "node_id": "MDQ6VXNlcjE0NjYyODQ=",
        "avatar_url": "https://avatars.githubusercontent.com/u/1466284?v=4",
        "gravatar_id": "",
        "url": "https://api.github.com/users/S3RK",
        "html_url": "https://github.com/S3RK",
        "followers_url": "https://api.github.com/users/S3RK/followers",
        "following_url": "https://api.github.com/users/S3RK/following%7B/other_user%7D",
        "gists_url": "https://api.github.com/users/S3RK/gists%7B/gist_id%7D",
        "starred_url": "https://api.github.com/users/S3RK/starred%7B/owner%7D%7B/repo%7D",
        "subscriptions_url": "https://api.github.com/users/S3RK/subscriptions",
        "organizations_url": "https://api.github.com/users/S3RK/orgs",
        "repos_url": "https://api.github.com/users/S3RK/repos",
        "events_url": "https://api.github.com/users/S3RK/events%7B/privacy%7D",
        "received_events_url": "https://api.github.com/users/S3RK/received_events",
        "type": "User",
        "site_admin": false
      },
      "review_requester": {
        "login": "achow101",
        "id": 3782274,
        "node_id": "MDQ6VXNlcjM3ODIyNzQ=",
        "avatar_url": "https://avatars.githubusercontent.com/u/3782274?v=4",
        "gravatar_id": "",
        "url": "https://api.github.com/users/achow101",
        "html_url": "https://github.com/achow101",
        "followers_url": "https://api.github.com/users/achow101/followers",
        "following_url": "https://api.github.com/users/achow101/following%7B/other_user%7D",
        "gists_url": "https://api.github.com/users/achow101/gists%7B/gist_id%7D",
        "starred_url": "https://api.github.com/users/achow101/starred%7B/owner%7D%7B/repo%7D",
        "subscriptions_url": "https://api.github.com/users/achow101/subscriptions",
        "organizations_url": "https://api.github.com/users/achow101/orgs",
        "repos_url": "https://api.github.com/users/achow101/repos",
        "events_url": "https://api.github.com/users/achow101/events%7B/privacy%7D",
        "received_events_url": "https://api.github.com/users/achow101/received_events",
        "type": "User",
        "site_admin": false
      }
    },
    {
      "event": "review_requested",
      "id": 10425688223,
      "node_id": "RRE_lADOABII585nvPNfzwAAAAJta2Cf",
      "url": "https://api.github.com/repos/bitcoin/bitcoin/issues/events/10425688223",
      "actor": {
        "login": "achow101",
        "id": 3782274,
        "node_id": "MDQ6VXNlcjM3ODIyNzQ=",
        "avatar_url": "https://avatars.githubusercontent.com/u/3782274?v=4",
        "gravatar_id": "",
        "url": "https://api.github.com/users/achow101",
        "html_url": "https://github.com/achow101",
        "followers_url": "https://api.github.com/users/achow101/followers",
        "following_url": "https://api.github.com/users/achow101/following%7B/other_user%7D",
        "gists_url": "https://api.github.com/users/achow101/gists%7B/gist_id%7D",
        "starred_url": "https://api.github.com/users/achow101/starred%7B/owner%7D%7B/repo%7D",
        "subscriptions_url": "https://api.github.com/users/achow101/subscriptions",
        "organizations_url": "https://api.github.com/users/achow101/orgs",
        "repos_url": "https://api.github.com/users/achow101/repos",
        "events_url": "https://api.github.com/users/achow101/events%7B/privacy%7D",
        "received_events_url": "https://api.github.com/users/achow101/received_events",
        "type": "User",
        "site_admin": false
      },
      "commit_id": null,
      "commit_url": null,
      "created_at": "2023-09-20T16:53:21Z",
      "requested_reviewer": {
        "login": "achow101",
        "id": 3782274,
        "node_id": "MDQ6VXNlcjM3ODIyNzQ=",
        "avatar_url": "https://avatars.githubusercontent.com/u/3782274?v=4",
        "gravatar_id": "",
        "url": "https://api.github.com/users/achow101",
        "html_url": "https://github.com/achow101",
        "followers_url": "https://api.github.com/users/achow101/followers",
        "following_url": "https://api.github.com/users/achow101/following%7B/other_user%7D",
        "gists_url": "https://api.github.com/users/achow101/gists%7B/gist_id%7D",
        "starred_url": "https://api.github.com/users/achow101/starred%7B/owner%7D%7B/repo%7D",
        "subscriptions_url": "https://api.github.com/users/achow101/subscriptions",
        "organizations_url": "https://api.github.com/users/achow101/orgs",
        "repos_url": "https://api.github.com/users/achow101/repos",
        "events_url": "https://api.github.com/users/achow101/events%7B/privacy%7D",
        "received_events_url": "https://api.github.com/users/achow101/received_events",
        "type": "User",
        "site_admin": false
      },
      "review_requester": {
        "login": "achow101",
        "id": 3782274,
        "node_id": "MDQ6VXNlcjM3ODIyNzQ=",
        "avatar_url": "https://avatars.githubusercontent.com/u/3782274?v=4",
        "gravatar_id": "",
        "url": "https://api.github.com/users/achow101",
        "html_url": "https://github.com/achow101",
        "followers_url": "https://api.github.com/users/achow101/followers",
        "following_url": "https://api.github.com/users/achow101/following%7B/other_user%7D",
        "gists_url": "https://api.github.com/users/achow101/gists%7B/gist_id%7D",
        "starred_url": "https://api.github.com/users/achow101/starred%7B/owner%7D%7B/repo%7D",
        "subscriptions_url": "https://api.github.com/users/achow101/subscriptions",
        "organizations_url": "https://api.github.com/users/achow101/orgs",
        "repos_url": "https://api.github.com/users/achow101/repos",
        "events_url": "https://api.github.com/users/achow101/events%7B/privacy%7D",
        "received_events_url": "https://api.github.com/users/achow101/received_events",
        "type": "User",
        "site_admin": false
      }
    },
    {
      "event": "reviewed",
      "id": 1641474088,
      "node_id": "PRR_kwDOABII585h1ugo",
      "url": null,
      "actor": null,
      "commit_id": "6027388939040713ba6da72d41a9bbc9ee9436cf",
      "commit_url": null,
      "created_at": null,
      "author_association": "CONTRIBUTOR",
      "body": "Concept ACK.\r\n\r\nCould you separate the PR into two commits? PR does two separate things, each of them could be placed in a separate commit:\r\n1) Handling of incorrect port values\r\n2) Warning in case both params have a port.\r\n\r\nAlso, could you add a functional test for the first? You can see similar examples in `test/functional/interface_bitcoin_cli.py`",
      "user": {
        "login": "S3RK",
        "id": 1466284,
        "node_id": "MDQ6VXNlcjE0NjYyODQ=",
        "avatar_url": "https://avatars.githubusercontent.com/u/1466284?v=4",
        "gravatar_id": "",
        "url": "https://api.github.com/users/S3RK",
        "html_url": "https://github.com/S3RK",
        "followers_url": "https://api.github.com/users/S3RK/followers",
        "following_url": "https://api.github.com/users/S3RK/following%7B/other_user%7D",
        "gists_url": "https://api.github.com/users/S3RK/gists%7B/gist_id%7D",
        "starred_url": "https://api.github.com/users/S3RK/starred%7B/owner%7D%7B/repo%7D",
        "subscriptions_url": "https://api.github.com/users/S3RK/subscriptions",
        "organizations_url": "https://api.github.com/users/S3RK/orgs",
        "repos_url": "https://api.github.com/users/S3RK/repos",
        "events_url": "https://api.github.com/users/S3RK/events%7B/privacy%7D",
        "received_events_url": "https://api.github.com/users/S3RK/received_events",
        "type": "User",
        "site_admin": false
      },
      "html_url": "https://github.com/bitcoin/bitcoin/pull/27820#pullrequestreview-1641474088",
      "submitted_at": "2023-09-25T07:34:00Z",
      "state": "COMMENTED",
      "pull_request_url": "https://api.github.com/repos/bitcoin/bitcoin/pulls/27820"
    },
    {
      "event": "labeled",
      "id": 10765471901,
      "node_id": "LE_lADOABII585nvPNfzwAAAAKBrBCd",
      "url": "https://api.github.com/repos/bitcoin/bitcoin/issues/events/10765471901",
      "actor": {
        "login": "DrahtBot",
        "id": 39886733,
        "node_id": "MDQ6VXNlcjM5ODg2NzMz",
        "avatar_url": "https://avatars.githubusercontent.com/u/39886733?v=4",
        "gravatar_id": "",
        "url": "https://api.github.com/users/DrahtBot",
        "html_url": "https://github.com/DrahtBot",
        "followers_url": "https://api.github.com/users/DrahtBot/followers",
        "following_url": "https://api.github.com/users/DrahtBot/following%7B/other_user%7D",
        "gists_url": "https://api.github.com/users/DrahtBot/gists%7B/gist_id%7D",
        "starred_url": "https://api.github.com/users/DrahtBot/starred%7B/owner%7D%7B/repo%7D",
        "subscriptions_url": "https://api.github.com/users/DrahtBot/subscriptions",
        "organizations_url": "https://api.github.com/users/DrahtBot/orgs",
        "repos_url": "https://api.github.com/users/DrahtBot/repos",
        "events_url": "https://api.github.com/users/DrahtBot/events%7B/privacy%7D",
        "received_events_url": "https://api.github.com/users/DrahtBot/received_events",
        "type": "User",
        "site_admin": false
      },
      "commit_id": null,
      "commit_url": null,
      "created_at": "2023-10-25T10:37:54Z",
      "label": {
        "name": "CI failed",
        "color": "cccccc"
      }
    },
    {
      "event": "commented",
      "id": 1779907935,
      "node_id": "IC_kwDOABII585qFz1f",
      "url": "https://api.github.com/repos/bitcoin/bitcoin/issues/comments/1779907935",
      "actor": {
        "login": "DrahtBot",
        "id": 39886733,
        "node_id": "MDQ6VXNlcjM5ODg2NzMz",
        "avatar_url": "https://avatars.githubusercontent.com/u/39886733?v=4",
        "gravatar_id": "",
        "url": "https://api.github.com/users/DrahtBot",
        "html_url": "https://github.com/DrahtBot",
        "followers_url": "https://api.github.com/users/DrahtBot/followers",
        "following_url": "https://api.github.com/users/DrahtBot/following%7B/other_user%7D",
        "gists_url": "https://api.github.com/users/DrahtBot/gists%7B/gist_id%7D",
        "starred_url": "https://api.github.com/users/DrahtBot/starred%7B/owner%7D%7B/repo%7D",
        "subscriptions_url": "https://api.github.com/users/DrahtBot/subscriptions",
        "organizations_url": "https://api.github.com/users/DrahtBot/orgs",
        "repos_url": "https://api.github.com/users/DrahtBot/repos",
        "events_url": "https://api.github.com/users/DrahtBot/events%7B/privacy%7D",
        "received_events_url": "https://api.github.com/users/DrahtBot/received_events",
        "type": "User",
        "site_admin": false
      },
      "commit_id": null,
      "commit_url": null,
      "created_at": "2023-10-25T19:22:27Z",
      "updated_at": "2023-10-25T19:22:27Z",
      "author_association": "CONTRIBUTOR",
      "body": "Are you still working on this?",
      "user": {
        "login": "DrahtBot",
        "id": 39886733,
        "node_id": "MDQ6VXNlcjM5ODg2NzMz",
        "avatar_url": "https://avatars.githubusercontent.com/u/39886733?v=4",
        "gravatar_id": "",
        "url": "https://api.github.com/users/DrahtBot",
        "html_url": "https://github.com/DrahtBot",
        "followers_url": "https://api.github.com/users/DrahtBot/followers",
        "following_url": "https://api.github.com/users/DrahtBot/following%7B/other_user%7D",
        "gists_url": "https://api.github.com/users/DrahtBot/gists%7B/gist_id%7D",
        "starred_url": "https://api.github.com/users/DrahtBot/starred%7B/owner%7D%7B/repo%7D",
        "subscriptions_url": "https://api.github.com/users/DrahtBot/subscriptions",
        "organizations_url": "https://api.github.com/users/DrahtBot/orgs",
        "repos_url": "https://api.github.com/users/DrahtBot/repos",
        "events_url": "https://api.github.com/users/DrahtBot/events%7B/privacy%7D",
        "received_events_url": "https://api.github.com/users/DrahtBot/received_events",
        "type": "User",
        "site_admin": false
      },
      "html_url": "https://github.com/bitcoin/bitcoin/pull/27820#issuecomment-1779907935",
      "issue_url": "https://api.github.com/repos/bitcoin/bitcoin/issues/27820"
    },
    {
      "event": "cross-referenced",
      "id": null,
      "node_id": null,
      "url": null,
      "actor": {
        "login": "DrahtBot",
        "id": 39886733,
        "node_id": "MDQ6VXNlcjM5ODg2NzMz",
        "avatar_url": "https://avatars.githubusercontent.com/u/39886733?v=4",
        "gravatar_id": "",
        "url": "https://api.github.com/users/DrahtBot",
        "html_url": "https://github.com/DrahtBot",
        "followers_url": "https://api.github.com/users/DrahtBot/followers",
        "following_url": "https://api.github.com/users/DrahtBot/following%7B/other_user%7D",
        "gists_url": "https://api.github.com/users/DrahtBot/gists%7B/gist_id%7D",
        "starred_url": "https://api.github.com/users/DrahtBot/starred%7B/owner%7D%7B/repo%7D",
        "subscriptions_url": "https://api.github.com/users/DrahtBot/subscriptions",
        "organizations_url": "https://api.github.com/users/DrahtBot/orgs",
        "repos_url": "https://api.github.com/users/DrahtBot/repos",
        "events_url": "https://api.github.com/users/DrahtBot/events%7B/privacy%7D",
        "received_events_url": "https://api.github.com/users/DrahtBot/received_events",
        "type": "User",
        "site_admin": false
      },
      "commit_id": null,
      "commit_url": null,
      "created_at": "2023-11-03T02:47:47Z",
      "updated_at": "2023-11-03T02:47:47Z",
      "source": {
        "issue": {
          "id": 1975073736,
          "node_id": "PR_kwDOABII585eeipm",
          "url": "https://api.github.com/repos/bitcoin/bitcoin/issues/28780",
          "repository_url": "https://api.github.com/repos/bitcoin/bitcoin",
          "labels_url": "https://api.github.com/repos/bitcoin/bitcoin/issues/28780/labels%7B/name%7D",
          "comments_url": "https://api.github.com/repos/bitcoin/bitcoin/issues/28780/comments",
          "events_url": "https://api.github.com/repos/bitcoin/bitcoin/issues/28780/events",
          "html_url": "https://github.com/bitcoin/bitcoin/pull/28780",
          "number": 28780,
          "state": "open",
          "state_reason": null,
          "title": "log: torcontrol opt checks",
          "body": "Aims to fix #23589. \r\nHost and port validation on torcontrol, same logic is being used on the other flags which need this validation as well.\r\n\r\nThis is my first PR for bitcoin core and came across this good first issue, continued on already existing code for this issue.\r\n\r\nTook some inspiration from [this comment](https://github.com/bitcoin/bitcoin/pull/25136#pullrequestreview-1152866901)\r\n",
          "user": {
            "login": "bufo24",
            "id": 32884105,
            "node_id": "MDQ6VXNlcjMyODg0MTA1",
            "avatar_url": "https://avatars.githubusercontent.com/u/32884105?v=4",
            "gravatar_id": "",
            "url": "https://api.github.com/users/bufo24",
            "html_url": "https://github.com/bufo24",
            "followers_url": "https://api.github.com/users/bufo24/followers",
            "following_url": "https://api.github.com/users/bufo24/following%7B/other_user%7D",
            "gists_url": "https://api.github.com/users/bufo24/gists%7B/gist_id%7D",
            "starred_url": "https://api.github.com/users/bufo24/starred%7B/owner%7D%7B/repo%7D",
            "subscriptions_url": "https://api.github.com/users/bufo24/subscriptions",
            "organizations_url": "https://api.github.com/users/bufo24/orgs",
            "repos_url": "https://api.github.com/users/bufo24/repos",
            "events_url": "https://api.github.com/users/bufo24/events%7B/privacy%7D",
            "received_events_url": "https://api.github.com/users/bufo24/received_events",
            "type": "User",
            "site_admin": false
          },
          "labels": [
            {
              "id": 241832923,
              "node_id": "MDU6TGFiZWwyNDE4MzI5MjM=",
              "url": "https://api.github.com/repos/bitcoin/bitcoin/labels/Utils/log/libs",
              "name": "Utils/log/libs",
              "description": "",
              "color": "5319e7",
              "default": false
            },
            {
              "id": 5334691551,
              "node_id": "LA_kwDOABII588AAAABPfju3w",
              "url": "https://api.github.com/repos/bitcoin/bitcoin/labels/CI%20failed",
              "name": "CI failed",
              "description": "",
              "color": "cccccc",
              "default": false
            }
          ],
          "assignees": [],
          "author_association": "CONTRIBUTOR",
          "locked": false,
          "comments": 1,
          "pull_request": {
            "url": "https://api.github.com/repos/bitcoin/bitcoin/pulls/28780",
            "html_url": "https://github.com/bitcoin/bitcoin/pull/28780",
            "diff_url": "https://github.com/bitcoin/bitcoin/pull/28780.diff",
            "patch_url": "https://github.com/bitcoin/bitcoin/pull/28780.patch"
          },
          "created_at": "2023-11-02T21:35:39Z",
          "updated_at": "2023-11-03T02:47:47Z"
        },
        "type": "issue"
      }
    }
  ],
  "comments": [
    {
      "url": "https://api.github.com/repos/bitcoin/bitcoin/pulls/comments/1335484415",
      "pull_request_review_id": 1641474088,
      "id": 1335484415,
      "node_id": "PRRC_kwDOABII585Pmd__",
      "diff_hunk": "@@ -743,9 +743,23 @@ static UniValue CallRPC(BaseRequestHandler* rh, const std::string& strMethod, co\n     //     2. port in -rpcconnect (ie following : in ipv4 or ]: in ipv6)\n     //     3. default port for chain\n     uint16_t port{BaseParams().RPCPort()};\n-    SplitHostPort(gArgs.GetArg(\"-rpcconnect\", DEFAULT_RPCCONNECT), port, host);\n-    port = static_cast<uint16_t>(gArgs.GetIntArg(\"-rpcport\", port));\n+    {\n+        bool containsPort;\n+        if (!SplitHostPort(gArgs.GetArg(\"-rpcconnect\", DEFAULT_RPCCONNECT), port, host, &containsPort)) {\n+            throw std::runtime_error(strprintf(\"Malformed Port in -rpcconnect: %s\", gArgs.GetArg(\"-rpcconnect\", \"\")));",
      "path": "src/bitcoin-cli.cpp",
      "position": 9,
      "original_position": 9,
      "commit_id": "6027388939040713ba6da72d41a9bbc9ee9436cf",
      "original_commit_id": "6027388939040713ba6da72d41a9bbc9ee9436cf",
      "in_reply_to_id": null,
      "user": {
        "login": "S3RK",
        "id": 1466284,
        "node_id": "MDQ6VXNlcjE0NjYyODQ=",
        "avatar_url": "https://avatars.githubusercontent.com/u/1466284?v=4",
        "gravatar_id": "",
        "url": "https://api.github.com/users/S3RK",
        "html_url": "https://github.com/S3RK",
        "followers_url": "https://api.github.com/users/S3RK/followers",
        "following_url": "https://api.github.com/users/S3RK/following%7B/other_user%7D",
        "gists_url": "https://api.github.com/users/S3RK/gists%7B/gist_id%7D",
        "starred_url": "https://api.github.com/users/S3RK/starred%7B/owner%7D%7B/repo%7D",
        "subscriptions_url": "https://api.github.com/users/S3RK/subscriptions",
        "organizations_url": "https://api.github.com/users/S3RK/orgs",
        "repos_url": "https://api.github.com/users/S3RK/repos",
        "events_url": "https://api.github.com/users/S3RK/events%7B/privacy%7D",
        "received_events_url": "https://api.github.com/users/S3RK/received_events",
        "type": "User",
        "site_admin": false
      },
      "body": "@hebasto  we can reuse `InvalidPortErrMsg()` here, but I don't see any other users of bilingual strings. What do you recommend for bitcoin-cli?",
      "created_at": "2023-09-25T07:22:41Z",
      "updated_at": "2023-09-25T07:34:00Z",
      "html_url": "https://github.com/bitcoin/bitcoin/pull/27820#discussion_r1335484415",
      "author_association": "CONTRIBUTOR",
      "_links": {
        "self": {
          "href": "https://api.github.com/repos/bitcoin/bitcoin/pulls/comments/1335484415"
        },
        "pull_request": {
          "href": "https://api.github.com/repos/bitcoin/bitcoin/pulls/27820"
        }
      },
      "start_line": null,
      "original_start_line": null,
      "start_side": null,
      "line": 749,
      "original_line": 749,
      "side": "RIGHT"
    },
    {
      "url": "https://api.github.com/repos/bitcoin/bitcoin/pulls/comments/1335487527",
      "pull_request_review_id": 1641474088,
      "id": 1335487527,
      "node_id": "PRRC_kwDOABII585Pmewn",
      "diff_hunk": "@@ -743,9 +743,23 @@ static UniValue CallRPC(BaseRequestHandler* rh, const std::string& strMethod, co\n     //     2. port in -rpcconnect (ie following : in ipv4 or ]: in ipv6)\n     //     3. default port for chain\n     uint16_t port{BaseParams().RPCPort()};\n-    SplitHostPort(gArgs.GetArg(\"-rpcconnect\", DEFAULT_RPCCONNECT), port, host);\n-    port = static_cast<uint16_t>(gArgs.GetIntArg(\"-rpcport\", port));\n+    {\n+        bool containsPort;\n+        if (!SplitHostPort(gArgs.GetArg(\"-rpcconnect\", DEFAULT_RPCCONNECT), port, host, &containsPort)) {\n+            throw std::runtime_error(strprintf(\"Malformed Port in -rpcconnect: %s\", gArgs.GetArg(\"-rpcconnect\", \"\")));\n+        }\n+        if (gArgs.IsArgSet(\"-rpcport\")) {\n+            int64_t desiredRpcPort = gArgs.GetIntArg(\"-rpcport\", port);\n+            if (desiredRpcPort <= 0 || desiredRpcPort > 0xFFFF) {\n+                throw std::runtime_error(strprintf(\"Malformed Port in -rpcport: %lld\", desiredRpcPort));",
      "path": "src/bitcoin-cli.cpp",
      "position": 14,
      "original_position": 14,
      "commit_id": "6027388939040713ba6da72d41a9bbc9ee9436cf",
      "original_commit_id": "6027388939040713ba6da72d41a9bbc9ee9436cf",
      "in_reply_to_id": null,
      "user": {
        "login": "S3RK",
        "id": 1466284,
        "node_id": "MDQ6VXNlcjE0NjYyODQ=",
        "avatar_url": "https://avatars.githubusercontent.com/u/1466284?v=4",
        "gravatar_id": "",
        "url": "https://api.github.com/users/S3RK",
        "html_url": "https://github.com/S3RK",
        "followers_url": "https://api.github.com/users/S3RK/followers",
        "following_url": "https://api.github.com/users/S3RK/following%7B/other_user%7D",
        "gists_url": "https://api.github.com/users/S3RK/gists%7B/gist_id%7D",
        "starred_url": "https://api.github.com/users/S3RK/starred%7B/owner%7D%7B/repo%7D",
        "subscriptions_url": "https://api.github.com/users/S3RK/subscriptions",
        "organizations_url": "https://api.github.com/users/S3RK/orgs",
        "repos_url": "https://api.github.com/users/S3RK/repos",
        "events_url": "https://api.github.com/users/S3RK/events%7B/privacy%7D",
        "received_events_url": "https://api.github.com/users/S3RK/received_events",
        "type": "User",
        "site_admin": false
      },
      "body": "nit: better to read port as a string to show it back to the user exactly as it was written. \r\n\r\nthis is how `src/init.cpp` does it\r\n\r\n```cpp\r\nconst std::string port = args.GetArg(port_option, \"\");\r\nuint16_t n;\r\nif (!ParseUInt16(port, &n) || n == 0) {\r\n    return InitError(InvalidPortErrMsg(port_option, port));\r\n}\r\n```",
      "created_at": "2023-09-25T07:25:48Z",
      "updated_at": "2023-09-25T07:34:00Z",
      "html_url": "https://github.com/bitcoin/bitcoin/pull/27820#discussion_r1335487527",
      "author_association": "CONTRIBUTOR",
      "_links": {
        "self": {
          "href": "https://api.github.com/repos/bitcoin/bitcoin/pulls/comments/1335487527"
        },
        "pull_request": {
          "href": "https://api.github.com/repos/bitcoin/bitcoin/pulls/27820"
        }
      },
      "start_line": null,
      "original_start_line": null,
      "start_side": null,
      "line": 754,
      "original_line": 754,
      "side": "RIGHT"
    },
    {
      "url": "https://api.github.com/repos/bitcoin/bitcoin/pulls/comments/1335491873",
      "pull_request_review_id": 1641474088,
      "id": 1335491873,
      "node_id": "PRRC_kwDOABII585Pmf0h",
      "diff_hunk": "@@ -98,20 +98,22 @@ std::optional<std::vector<Byte>> TryParseHex(std::string_view str)\n template std::optional<std::vector<std::byte>> TryParseHex(std::string_view);\n template std::optional<std::vector<uint8_t>> TryParseHex(std::string_view);\n \n-bool SplitHostPort(std::string_view in, uint16_t& portOut, std::string& hostOut)\n+bool SplitHostPort(std::string_view in, uint16_t& portOut, std::string& hostOut, bool* cPortOut)",
      "path": "src/util/strencodings.cpp",
      "position": 5,
      "original_position": 5,
      "commit_id": "6027388939040713ba6da72d41a9bbc9ee9436cf",
      "original_commit_id": "6027388939040713ba6da72d41a9bbc9ee9436cf",
      "in_reply_to_id": null,
      "user": {
        "login": "S3RK",
        "id": 1466284,
        "node_id": "MDQ6VXNlcjE0NjYyODQ=",
        "avatar_url": "https://avatars.githubusercontent.com/u/1466284?v=4",
        "gravatar_id": "",
        "url": "https://api.github.com/users/S3RK",
        "html_url": "https://github.com/S3RK",
        "followers_url": "https://api.github.com/users/S3RK/followers",
        "following_url": "https://api.github.com/users/S3RK/following%7B/other_user%7D",
        "gists_url": "https://api.github.com/users/S3RK/gists%7B/gist_id%7D",
        "starred_url": "https://api.github.com/users/S3RK/starred%7B/owner%7D%7B/repo%7D",
        "subscriptions_url": "https://api.github.com/users/S3RK/subscriptions",
        "organizations_url": "https://api.github.com/users/S3RK/orgs",
        "repos_url": "https://api.github.com/users/S3RK/repos",
        "events_url": "https://api.github.com/users/S3RK/events%7B/privacy%7D",
        "received_events_url": "https://api.github.com/users/S3RK/received_events",
        "type": "User",
        "site_admin": false
      },
      "body": "Not a huge fan of this new parameter. The return value has almost exactly what we need, can we reuse it somehow?",
      "created_at": "2023-09-25T07:30:15Z",
      "updated_at": "2023-09-25T07:34:20Z",
      "html_url": "https://github.com/bitcoin/bitcoin/pull/27820#discussion_r1335491873",
      "author_association": "CONTRIBUTOR",
      "_links": {
        "self": {
          "href": "https://api.github.com/repos/bitcoin/bitcoin/pulls/comments/1335491873"
        },
        "pull_request": {
          "href": "https://api.github.com/repos/bitcoin/bitcoin/pulls/27820"
        }
      },
      "start_line": null,
      "original_start_line": null,
      "start_side": null,
      "line": 101,
      "original_line": 101,
      "side": "RIGHT"
    }
  ]
}