{
  "type": "pull",
  "pull": {
    "url": "https://api.github.com/repos/bitcoin/bitcoin/pulls/27875",
    "id": 1390573405,
    "node_id": "PR_kwDOABII585S4ndd",
    "html_url": "https://github.com/bitcoin/bitcoin/pull/27875",
    "diff_url": "https://github.com/bitcoin/bitcoin/pull/27875.diff",
    "patch_url": "https://github.com/bitcoin/bitcoin/pull/27875.patch",
    "issue_url": "https://api.github.com/repos/bitcoin/bitcoin/issues/27875",
    "commits_url": "https://api.github.com/repos/bitcoin/bitcoin/pulls/27875/commits",
    "review_comments_url": "https://api.github.com/repos/bitcoin/bitcoin/pulls/27875/comments",
    "review_comment_url": "https://api.github.com/repos/bitcoin/bitcoin/pulls/comments%7B/number%7D",
    "comments_url": "https://api.github.com/repos/bitcoin/bitcoin/issues/27875/comments",
    "statuses_url": "https://api.github.com/repos/bitcoin/bitcoin/statuses/fc6c17b83887ef193f2b97264b1843c94dcb915d",
    "number": 27875,
    "state": "closed",
    "locked": false,
    "maintainer_can_modify": false,
    "title": "build: make sure we can overwrite config.{guess,sub} before doing so",
    "user": {
      "login": "0xB10C",
      "id": 19157360,
      "node_id": "MDQ6VXNlcjE5MTU3MzYw",
      "avatar_url": "https://avatars.githubusercontent.com/u/19157360?v=4",
      "gravatar_id": "",
      "url": "https://api.github.com/users/0xB10C",
      "html_url": "https://github.com/0xB10C",
      "followers_url": "https://api.github.com/users/0xB10C/followers",
      "following_url": "https://api.github.com/users/0xB10C/following%7B/other_user%7D",
      "gists_url": "https://api.github.com/users/0xB10C/gists%7B/gist_id%7D",
      "starred_url": "https://api.github.com/users/0xB10C/starred%7B/owner%7D%7B/repo%7D",
      "subscriptions_url": "https://api.github.com/users/0xB10C/subscriptions",
      "organizations_url": "https://api.github.com/users/0xB10C/orgs",
      "repos_url": "https://api.github.com/users/0xB10C/repos",
      "events_url": "https://api.github.com/users/0xB10C/events%7B/privacy%7D",
      "received_events_url": "https://api.github.com/users/0xB10C/received_events",
      "type": "User",
      "site_admin": false
    },
    "body": "Since ea7b8528 (#26422), `autogen.sh` overwrites the `build-aux/config.{guess, sub}` files (installed there by `autoreconf`) with the `depends/config.{guess, sub}` files if these are newer.\r\n\r\nThe `autoreconf` tool copies them from it's `share/autoconf/build-aux/` directory. Specifically on NixOS, the `share/autoconf/build-aux/` files are located in the nix-store and are read-only. `autoreconf` preserves the read-only permissions when copying. Overwriting them with our `depends/config.{guess, sub}` files subsequently fails.\r\n\r\nTo make sure we can overwrite the files, set write permissions to the current user and group before overwriting. This fixes the problem on NixOS.\r\n\r\nfixes #27873",
    "labels": [
      {
        "id": 61889416,
        "node_id": "MDU6TGFiZWw2MTg4OTQxNg==",
        "url": "https://api.github.com/repos/bitcoin/bitcoin/labels/Build%20system",
        "name": "Build system",
        "color": "5319e7",
        "default": false
      }
    ],
    "created_at": "2023-06-13T13:01:30Z",
    "updated_at": "2023-06-24T14:04:46Z",
    "closed_at": "2023-06-16T10:03:17Z",
    "mergeable_state": "unknown",
    "merged_at": "2023-06-16T10:03:17Z",
    "merge_commit_sha": "1ecdf6ea8fb6dc1d64f41323a1e337beb174c25b",
    "assignees": [],
    "requested_reviewers": [],
    "requested_teams": [],
    "head": {
      "label": "0xB10C:2023-06-fix-config.guess-permissions",
      "ref": "2023-06-fix-config.guess-permissions",
      "sha": "fc6c17b83887ef193f2b97264b1843c94dcb915d",
      "user": {
        "login": "0xB10C",
        "id": 19157360,
        "node_id": "MDQ6VXNlcjE5MTU3MzYw",
        "avatar_url": "https://avatars.githubusercontent.com/u/19157360?v=4",
        "gravatar_id": "",
        "url": "https://api.github.com/users/0xB10C",
        "html_url": "https://github.com/0xB10C",
        "followers_url": "https://api.github.com/users/0xB10C/followers",
        "following_url": "https://api.github.com/users/0xB10C/following%7B/other_user%7D",
        "gists_url": "https://api.github.com/users/0xB10C/gists%7B/gist_id%7D",
        "starred_url": "https://api.github.com/users/0xB10C/starred%7B/owner%7D%7B/repo%7D",
        "subscriptions_url": "https://api.github.com/users/0xB10C/subscriptions",
        "organizations_url": "https://api.github.com/users/0xB10C/orgs",
        "repos_url": "https://api.github.com/users/0xB10C/repos",
        "events_url": "https://api.github.com/users/0xB10C/events%7B/privacy%7D",
        "received_events_url": "https://api.github.com/users/0xB10C/received_events",
        "type": "User",
        "site_admin": false
      },
      "repo": {
        "id": 184896538,
        "node_id": "MDEwOlJlcG9zaXRvcnkxODQ4OTY1Mzg=",
        "name": "bitcoin",
        "full_name": "0xB10C/bitcoin",
        "owner": {
          "login": "0xB10C",
          "id": 19157360,
          "node_id": "MDQ6VXNlcjE5MTU3MzYw",
          "avatar_url": "https://avatars.githubusercontent.com/u/19157360?v=4",
          "gravatar_id": "",
          "url": "https://api.github.com/users/0xB10C",
          "html_url": "https://github.com/0xB10C",
          "followers_url": "https://api.github.com/users/0xB10C/followers",
          "following_url": "https://api.github.com/users/0xB10C/following%7B/other_user%7D",
          "gists_url": "https://api.github.com/users/0xB10C/gists%7B/gist_id%7D",
          "starred_url": "https://api.github.com/users/0xB10C/starred%7B/owner%7D%7B/repo%7D",
          "subscriptions_url": "https://api.github.com/users/0xB10C/subscriptions",
          "organizations_url": "https://api.github.com/users/0xB10C/orgs",
          "repos_url": "https://api.github.com/users/0xB10C/repos",
          "events_url": "https://api.github.com/users/0xB10C/events%7B/privacy%7D",
          "received_events_url": "https://api.github.com/users/0xB10C/received_events",
          "type": "User",
          "site_admin": false
        },
        "private": false,
        "html_url": "https://github.com/0xB10C/bitcoin",
        "description": "Bitcoin Core integration/staging tree",
        "fork": true,
        "url": "https://api.github.com/repos/0xB10C/bitcoin",
        "archive_url": "https://api.github.com/repos/0xB10C/bitcoin/%7Barchive_format%7D%7B/ref%7D",
        "assignees_url": "https://api.github.com/repos/0xB10C/bitcoin/assignees%7B/user%7D",
        "blobs_url": "https://api.github.com/repos/0xB10C/bitcoin/git/blobs%7B/sha%7D",
        "branches_url": "https://api.github.com/repos/0xB10C/bitcoin/branches%7B/branch%7D",
        "collaborators_url": "https://api.github.com/repos/0xB10C/bitcoin/collaborators%7B/collaborator%7D",
        "comments_url": "https://api.github.com/repos/0xB10C/bitcoin/comments%7B/number%7D",
        "commits_url": "https://api.github.com/repos/0xB10C/bitcoin/commits%7B/sha%7D",
        "compare_url": "https://api.github.com/repos/0xB10C/bitcoin/compare/%7Bbase%7D...%7Bhead%7D",
        "contents_url": "https://api.github.com/repos/0xB10C/bitcoin/contents/%7B+path%7D",
        "contributors_url": "https://api.github.com/repos/0xB10C/bitcoin/contributors",
        "deployments_url": "https://api.github.com/repos/0xB10C/bitcoin/deployments",
        "downloads_url": "https://api.github.com/repos/0xB10C/bitcoin/downloads",
        "events_url": "https://api.github.com/repos/0xB10C/bitcoin/events",
        "forks_url": "https://api.github.com/repos/0xB10C/bitcoin/forks",
        "git_commits_url": "https://api.github.com/repos/0xB10C/bitcoin/git/commits%7B/sha%7D",
        "git_refs_url": "https://api.github.com/repos/0xB10C/bitcoin/git/refs%7B/sha%7D",
        "git_tags_url": "https://api.github.com/repos/0xB10C/bitcoin/git/tags%7B/sha%7D",
        "git_url": "git://github.com/0xB10C/bitcoin.git",
        "issue_comment_url": "https://api.github.com/repos/0xB10C/bitcoin/issues/comments%7B/number%7D",
        "issue_events_url": "https://api.github.com/repos/0xB10C/bitcoin/issues/events%7B/number%7D",
        "issues_url": "https://api.github.com/repos/0xB10C/bitcoin/issues%7B/number%7D",
        "keys_url": "https://api.github.com/repos/0xB10C/bitcoin/keys%7B/key_id%7D",
        "labels_url": "https://api.github.com/repos/0xB10C/bitcoin/labels%7B/name%7D",
        "languages_url": "https://api.github.com/repos/0xB10C/bitcoin/languages",
        "merges_url": "https://api.github.com/repos/0xB10C/bitcoin/merges",
        "milestones_url": "https://api.github.com/repos/0xB10C/bitcoin/milestones%7B/number%7D",
        "notifications_url": "https://api.github.com/repos/0xB10C/bitcoin/notifications%7B?since,all,participating}",
        "pulls_url": "https://api.github.com/repos/0xB10C/bitcoin/pulls%7B/number%7D",
        "releases_url": "https://api.github.com/repos/0xB10C/bitcoin/releases%7B/id%7D",
        "ssh_url": "git@github.com:0xB10C/bitcoin.git",
        "stargazers_url": "https://api.github.com/repos/0xB10C/bitcoin/stargazers",
        "statuses_url": "https://api.github.com/repos/0xB10C/bitcoin/statuses/%7Bsha%7D",
        "subscribers_url": "https://api.github.com/repos/0xB10C/bitcoin/subscribers",
        "subscription_url": "https://api.github.com/repos/0xB10C/bitcoin/subscription",
        "tags_url": "https://api.github.com/repos/0xB10C/bitcoin/tags",
        "teams_url": "https://api.github.com/repos/0xB10C/bitcoin/teams",
        "trees_url": "https://api.github.com/repos/0xB10C/bitcoin/git/trees%7B/sha%7D",
        "clone_url": "https://github.com/0xB10C/bitcoin.git",
        "hooks_url": "https://api.github.com/repos/0xB10C/bitcoin/hooks",
        "svn_url": "https://github.com/0xB10C/bitcoin",
        "homepage": "https://bitcoincore.org/en/download",
        "language": "C++",
        "forks_count": 0,
        "stargazers_count": 1,
        "watchers_count": 1,
        "size": 220575,
        "default_branch": "master",
        "open_issues_count": 0,
        "is_template": false,
        "topics": [],
        "has_issues": false,
        "has_projects": true,
        "has_wiki": false,
        "has_pages": false,
        "has_downloads": false,
        "archived": false,
        "disabled": false,
        "visibility": "public",
        "pushed_at": "2023-06-17T07:33:30Z",
        "created_at": "2019-05-04T13:11:05Z",
        "updated_at": "2022-08-30T07:36:49Z",
        "license": {
          "key": "mit",
          "name": "MIT License",
          "node_id": "MDc6TGljZW5zZTEz",
          "spdx_id": "MIT",
          "url": "https://api.github.com/licenses/mit",
          "html_url": null,
          "description": null,
          "implementation": null,
          "permissions": null,
          "conditions": null,
          "limitations": null,
          "body": null,
          "featured": null
        }
      }
    },
    "base": {
      "label": "bitcoin:master",
      "ref": "master",
      "sha": "8de9bb7a5ab04669369e2bb59ea92a5c1a91a8d2",
      "user": {
        "login": "bitcoin",
        "id": 528860,
        "node_id": "MDEyOk9yZ2FuaXphdGlvbjUyODg2MA==",
        "avatar_url": "https://avatars.githubusercontent.com/u/528860?v=4",
        "gravatar_id": "",
        "url": "https://api.github.com/users/bitcoin",
        "html_url": "https://github.com/bitcoin",
        "followers_url": "https://api.github.com/users/bitcoin/followers",
        "following_url": "https://api.github.com/users/bitcoin/following%7B/other_user%7D",
        "gists_url": "https://api.github.com/users/bitcoin/gists%7B/gist_id%7D",
        "starred_url": "https://api.github.com/users/bitcoin/starred%7B/owner%7D%7B/repo%7D",
        "subscriptions_url": "https://api.github.com/users/bitcoin/subscriptions",
        "organizations_url": "https://api.github.com/users/bitcoin/orgs",
        "repos_url": "https://api.github.com/users/bitcoin/repos",
        "events_url": "https://api.github.com/users/bitcoin/events%7B/privacy%7D",
        "received_events_url": "https://api.github.com/users/bitcoin/received_events",
        "type": "Organization",
        "site_admin": false
      },
      "repo": {
        "id": 1181927,
        "node_id": "MDEwOlJlcG9zaXRvcnkxMTgxOTI3",
        "name": "bitcoin",
        "full_name": "bitcoin/bitcoin",
        "owner": {
          "login": "bitcoin",
          "id": 528860,
          "node_id": "MDEyOk9yZ2FuaXphdGlvbjUyODg2MA==",
          "avatar_url": "https://avatars.githubusercontent.com/u/528860?v=4",
          "gravatar_id": "",
          "url": "https://api.github.com/users/bitcoin",
          "html_url": "https://github.com/bitcoin",
          "followers_url": "https://api.github.com/users/bitcoin/followers",
          "following_url": "https://api.github.com/users/bitcoin/following%7B/other_user%7D",
          "gists_url": "https://api.github.com/users/bitcoin/gists%7B/gist_id%7D",
          "starred_url": "https://api.github.com/users/bitcoin/starred%7B/owner%7D%7B/repo%7D",
          "subscriptions_url": "https://api.github.com/users/bitcoin/subscriptions",
          "organizations_url": "https://api.github.com/users/bitcoin/orgs",
          "repos_url": "https://api.github.com/users/bitcoin/repos",
          "events_url": "https://api.github.com/users/bitcoin/events%7B/privacy%7D",
          "received_events_url": "https://api.github.com/users/bitcoin/received_events",
          "type": "Organization",
          "site_admin": false
        },
        "private": false,
        "html_url": "https://github.com/bitcoin/bitcoin",
        "description": "Bitcoin Core integration/staging tree",
        "fork": false,
        "url": "https://api.github.com/repos/bitcoin/bitcoin",
        "archive_url": "https://api.github.com/repos/bitcoin/bitcoin/%7Barchive_format%7D%7B/ref%7D",
        "assignees_url": "https://api.github.com/repos/bitcoin/bitcoin/assignees%7B/user%7D",
        "blobs_url": "https://api.github.com/repos/bitcoin/bitcoin/git/blobs%7B/sha%7D",
        "branches_url": "https://api.github.com/repos/bitcoin/bitcoin/branches%7B/branch%7D",
        "collaborators_url": "https://api.github.com/repos/bitcoin/bitcoin/collaborators%7B/collaborator%7D",
        "comments_url": "https://api.github.com/repos/bitcoin/bitcoin/comments%7B/number%7D",
        "commits_url": "https://api.github.com/repos/bitcoin/bitcoin/commits%7B/sha%7D",
        "compare_url": "https://api.github.com/repos/bitcoin/bitcoin/compare/%7Bbase%7D...%7Bhead%7D",
        "contents_url": "https://api.github.com/repos/bitcoin/bitcoin/contents/%7B+path%7D",
        "contributors_url": "https://api.github.com/repos/bitcoin/bitcoin/contributors",
        "deployments_url": "https://api.github.com/repos/bitcoin/bitcoin/deployments",
        "downloads_url": "https://api.github.com/repos/bitcoin/bitcoin/downloads",
        "events_url": "https://api.github.com/repos/bitcoin/bitcoin/events",
        "forks_url": "https://api.github.com/repos/bitcoin/bitcoin/forks",
        "git_commits_url": "https://api.github.com/repos/bitcoin/bitcoin/git/commits%7B/sha%7D",
        "git_refs_url": "https://api.github.com/repos/bitcoin/bitcoin/git/refs%7B/sha%7D",
        "git_tags_url": "https://api.github.com/repos/bitcoin/bitcoin/git/tags%7B/sha%7D",
        "git_url": "git://github.com/bitcoin/bitcoin.git",
        "issue_comment_url": "https://api.github.com/repos/bitcoin/bitcoin/issues/comments%7B/number%7D",
        "issue_events_url": "https://api.github.com/repos/bitcoin/bitcoin/issues/events%7B/number%7D",
        "issues_url": "https://api.github.com/repos/bitcoin/bitcoin/issues%7B/number%7D",
        "keys_url": "https://api.github.com/repos/bitcoin/bitcoin/keys%7B/key_id%7D",
        "labels_url": "https://api.github.com/repos/bitcoin/bitcoin/labels%7B/name%7D",
        "languages_url": "https://api.github.com/repos/bitcoin/bitcoin/languages",
        "merges_url": "https://api.github.com/repos/bitcoin/bitcoin/merges",
        "milestones_url": "https://api.github.com/repos/bitcoin/bitcoin/milestones%7B/number%7D",
        "notifications_url": "https://api.github.com/repos/bitcoin/bitcoin/notifications%7B?since,all,participating}",
        "pulls_url": "https://api.github.com/repos/bitcoin/bitcoin/pulls%7B/number%7D",
        "releases_url": "https://api.github.com/repos/bitcoin/bitcoin/releases%7B/id%7D",
        "ssh_url": "git@github.com:bitcoin/bitcoin.git",
        "stargazers_url": "https://api.github.com/repos/bitcoin/bitcoin/stargazers",
        "statuses_url": "https://api.github.com/repos/bitcoin/bitcoin/statuses/%7Bsha%7D",
        "subscribers_url": "https://api.github.com/repos/bitcoin/bitcoin/subscribers",
        "subscription_url": "https://api.github.com/repos/bitcoin/bitcoin/subscription",
        "tags_url": "https://api.github.com/repos/bitcoin/bitcoin/tags",
        "teams_url": "https://api.github.com/repos/bitcoin/bitcoin/teams",
        "trees_url": "https://api.github.com/repos/bitcoin/bitcoin/git/trees%7B/sha%7D",
        "clone_url": "https://github.com/bitcoin/bitcoin.git",
        "hooks_url": "https://api.github.com/repos/bitcoin/bitcoin/hooks",
        "svn_url": "https://github.com/bitcoin/bitcoin",
        "homepage": "https://bitcoincore.org/en/download",
        "language": "C++",
        "forks_count": 35476,
        "stargazers_count": 70608,
        "watchers_count": 70608,
        "size": 236222,
        "default_branch": "master",
        "open_issues_count": 673,
        "is_template": false,
        "topics": [
          "bitcoin",
          "c-plus-plus",
          "cryptocurrency",
          "cryptography",
          "p2p"
        ],
        "has_issues": true,
        "has_projects": true,
        "has_wiki": false,
        "has_pages": false,
        "has_downloads": false,
        "archived": false,
        "disabled": false,
        "visibility": "public",
        "pushed_at": "2023-08-03T00:03:27Z",
        "created_at": "2010-12-19T15:16:43Z",
        "updated_at": "2023-08-02T18:21:18Z",
        "license": {
          "key": "mit",
          "name": "MIT License",
          "node_id": "MDc6TGljZW5zZTEz",
          "spdx_id": "MIT",
          "url": "https://api.github.com/licenses/mit",
          "html_url": null,
          "description": null,
          "implementation": null,
          "permissions": null,
          "conditions": null,
          "limitations": null,
          "body": null,
          "featured": null
        }
      }
    },
    "_links": {
      "self": {
        "href": "https://api.github.com/repos/bitcoin/bitcoin/pulls/27875"
      }
    },
    "author_association": "CONTRIBUTOR",
    "draft": false,
    "additions": 4,
    "deletions": 0,
    "changed_files": 1,
    "commits": 1,
    "review_comments": 0,
    "comments": 8
  },
  "events": [
    {
      "event": "committed",
      "id": null,
      "node_id": "C_kwDOABII59oAKGZjNmMxN2I4Mzg4N2VmMTkzZjJiOTcyNjRiMTg0M2M5NGRjYjkxNWQ",
      "url": "https://api.github.com/repos/bitcoin/bitcoin/git/commits/fc6c17b83887ef193f2b97264b1843c94dcb915d",
      "actor": null,
      "commit_id": null,
      "commit_url": null,
      "created_at": null,
      "html_url": "https://github.com/bitcoin/bitcoin/commit/fc6c17b83887ef193f2b97264b1843c94dcb915d",
      "tree": {
        "sha": "580d7581366b21fdeceffc81e792045e1e74cfdb",
        "url": "https://api.github.com/repos/bitcoin/bitcoin/git/trees/580d7581366b21fdeceffc81e792045e1e74cfdb"
      },
      "verification": {
        "verified": true,
        "reason": "valid",
        "payload": "tree 580d7581366b21fdeceffc81e792045e1e74cfdb\nparent 8de9bb7a5ab04669369e2bb59ea92a5c1a91a8d2\nauthor 0xb10c <b10c@b10c.me> 1686659638 +0200\ncommitter 0xb10c <b10c@b10c.me> 1686661123 +0200\n\nbuild: make sure we can overwrite config.{guess,sub}\n\nSince ea7b8528 (#26422), autogen.sh overwrites the\nbuild-aux/config.{guess, sub} files (installed there by autoreconf)\nwith the depends/config.{guess, sub} files if these are newer.\n\nThe autoreconf tool copies them from it's share/autoconf/build-aux/\ndirectory. Specifically on NixOS, the share/autoconf/build-aux/\nfiles are located in the nix-store and are read-only. autoreconf\npreserves the read-only permissions when copying. Overwriting them\nwith our depends/config.{guess, sub} subsequently fails.\n\nTo make sure we can overwrite the files, we set write permissions to\nthe current user and group before overwriting. This fixes the problem\non NixOS.\n\nfixes #27873: Can't copy to 'build-aux/config.guess' in autoconf.sh: Permission denied\n",
        "signature": "-----BEGIN PGP SIGNATURE-----\n\niQIzBAABCgAdFiEEDMuq/Xai7OLM0xQd4v/VsdiMqX0FAmSIaDcACgkQ4v/VsdiM\nqX18IRAAhUrvq/fVS5HnQZhItvcT+wG3c3mkq9ocPgCrU33NxNeZrePJL0Lvx2Bf\nDvBKno89tJg5u7Zv1/JnK22uCv1d+VQ2tMbPjZZ6rJtcsn7WYQt8EIsX9eVguYjo\nMN7IcRLLFNKJA8bYb8NVIF+uISEfvSBCjr8Tu4ef3Gju8Y0sIVgYajJ/RRvn7rF4\nq9FxN6SgPOKN/VKrpmJmA/aj6sAuC6sm5Vfd/53lPjoM9iP5RDk6szvQhVtR+vx6\nJ+5rMo51PBtVx1OK/l77cFWk7An1/bxvDWim6k4dMp1s85QTYpYlUldpLttCrLH6\nxIh2JZ8SSDazoFEVZd+5ByQG3PA++1Q3klIHeJ/K8TzfQj4RHX6bQZiFP2w16e7s\nEGJdpnNufkQzbGwuBmvroa620kRr/T37DlTBYWIsiIh+PKYPo3wYNciXkT/BjSGo\nxm1QByxcs6flrAvbRIqNVqgyL91TJz64Z3nWBZOKDOPY8xiuuoRlEe7Z2jfo/mlf\na3/K+BEeV/RkIqqGMasZMXu2kz+59b7+sYUlh5Vc3zBlSWIFpT/+dP89gh/esIET\nD/3F0cwZ6FBBvrlPkI5zqwJ47V/547RR++UROyGCYd9FsFm6dStOM0Pry8pwLLZs\nn2H6gasshd32bx/QQPuNZfKEW3z/KHuRk9GOfelAh8JKeVL3xJs=\n=yZSk\n-----END PGP SIGNATURE-----\n-----BEGIN OPENTIMESTAMPS GIT TIMESTAMP-----\n\nAQHwIGAVdl7SjdCwn+S4AR8L6q7ZFlhg3Kc3ZEjBbr4p0d03CP/wEAsxteHp2hBc\nQetuRAFp27AI8SAw9lRhtiCkAgp7VaWzGbX2ObVfGSrQ/PVl2Di1i4MfzgjwILdT\na9HPCtIR/un3IY+XhaNvpJXzr6YPZ8qRd9PZ3HRoCPEEZIhoOvAIXGMfRm5EJRUA\ng9/jDS75DI4jImh0dHBzOi8vYnRjLmNhbGVuZGFyLmNhdGFsbGF4eS5jb23/8BBn\nlmumrs93uDyd6eG4KxprCPAgau3NV7lQ6343tDIcPtk/CESnP1jlnyIb9ZaUQjhm\njFEI8QRkiGg68AjP6D0ZLgklOQCD3+MNLvkMjiwraHR0cHM6Ly9ib2IuYnRjLmNh\nbGVuZGFyLm9wZW50aW1lc3RhbXBzLm9yZ//wEILr66yno9aif2+xJORjt7UI8CBh\nF8gD3JP8JDvOkTEhO7rhNPEALpl5CruntvaBnF0CUgjxIBeehoVVxLRrQcc2AA+/\nRdObHy4yiZ8SdBbftrAmP5esCPEEZIhoOvAI1D8v1iL7kOcAg9/jDS75DI4uLWh0\ndHBzOi8vYWxpY2UuYnRjLmNhbGVuZGFyLm9wZW50aW1lc3RhbXBzLm9yZ/AQ3V/1\nuJXKdtcEqeBqjGuaHgjwIB+aVM/48t40M3oPDsQ3BFIwvD0eo3apzLC+O16b8xvK\nCPEgGj6HHfBuJnxa/xVh0jARsTHTm727hBwzD0xERWpjEwAI8QRkiGg58Ah6eEWg\nm7vlBACD3+MNLvkMjikoaHR0cHM6Ly9maW5uZXkuY2FsZW5kYXIuZXRlcm5pdHl3\nYWxsLmNvbQ==\n-----END OPENTIMESTAMPS GIT TIMESTAMP-----"
      },
      "parents": [
        {
          "url": "https://api.github.com/repos/bitcoin/bitcoin/git/commits/8de9bb7a5ab04669369e2bb59ea92a5c1a91a8d2",
          "sha": "8de9bb7a5ab04669369e2bb59ea92a5c1a91a8d2",
          "html_url": "https://github.com/bitcoin/bitcoin/commit/8de9bb7a5ab04669369e2bb59ea92a5c1a91a8d2"
        }
      ],
      "message": "build: make sure we can overwrite config.{guess,sub}\n\nSince ea7b8528 (#26422), autogen.sh overwrites the\nbuild-aux/config.{guess, sub} files (installed there by autoreconf)\nwith the depends/config.{guess, sub} files if these are newer.\n\nThe autoreconf tool copies them from it's share/autoconf/build-aux/\ndirectory. Specifically on NixOS, the share/autoconf/build-aux/\nfiles are located in the nix-store and are read-only. autoreconf\npreserves the read-only permissions when copying. Overwriting them\nwith our depends/config.{guess, sub} subsequently fails.\n\nTo make sure we can overwrite the files, we set write permissions to\nthe current user and group before overwriting. This fixes the problem\non NixOS.\n\nfixes #27873: Can't copy to 'build-aux/config.guess' in autoconf.sh: Permission denied",
      "committer": {
        "name": "0xb10c",
        "email": "b10c@b10c.me",
        "date": "2023-06-13T12:58:43Z"
      },
      "author": {
        "name": "0xb10c",
        "email": "b10c@b10c.me",
        "date": "2023-06-13T12:33:58Z"
      },
      "sha": "fc6c17b83887ef193f2b97264b1843c94dcb915d"
    },
    {
      "event": "commented",
      "id": 1589268770,
      "node_id": "IC_kwDOABII585eulEi",
      "url": "https://api.github.com/repos/bitcoin/bitcoin/issues/comments/1589268770",
      "actor": {
        "login": "DrahtBot",
        "id": 39886733,
        "node_id": "MDQ6VXNlcjM5ODg2NzMz",
        "avatar_url": "https://avatars.githubusercontent.com/u/39886733?v=4",
        "gravatar_id": "",
        "url": "https://api.github.com/users/DrahtBot",
        "html_url": "https://github.com/DrahtBot",
        "followers_url": "https://api.github.com/users/DrahtBot/followers",
        "following_url": "https://api.github.com/users/DrahtBot/following%7B/other_user%7D",
        "gists_url": "https://api.github.com/users/DrahtBot/gists%7B/gist_id%7D",
        "starred_url": "https://api.github.com/users/DrahtBot/starred%7B/owner%7D%7B/repo%7D",
        "subscriptions_url": "https://api.github.com/users/DrahtBot/subscriptions",
        "organizations_url": "https://api.github.com/users/DrahtBot/orgs",
        "repos_url": "https://api.github.com/users/DrahtBot/repos",
        "events_url": "https://api.github.com/users/DrahtBot/events%7B/privacy%7D",
        "received_events_url": "https://api.github.com/users/DrahtBot/received_events",
        "type": "User",
        "site_admin": false
      },
      "commit_id": null,
      "commit_url": null,
      "created_at": "2023-06-13T13:01:34Z",
      "updated_at": "2023-06-16T09:06:33Z",
      "author_association": "CONTRIBUTOR",
      "body": "<!--e57a25ab6845829454e8d69fc972939a-->\n\nThe following sections might be updated with supplementary metadata relevant to reviewers and maintainers.\n\n<!--021abf342d371248e50ceaed478a90ca-->\n### Reviews\nSee [the guideline](https://github.com/bitcoin/bitcoin/blob/master/CONTRIBUTING.md#code-review) for information on the review process.\n| Type | Reviewers |\n| ---- | --------- |\n| ACK | [dergoegge](https://github.com/bitcoin/bitcoin/pull/27875#pullrequestreview-1477330163), [fanquake](https://github.com/bitcoin/bitcoin/pull/27875#pullrequestreview-1483052615) |\n| Concept ACK | [hebasto](https://github.com/bitcoin/bitcoin/pull/27875#issuecomment-1589290446), [TheCharlatan](https://github.com/bitcoin/bitcoin/pull/27875#issuecomment-1589993008) |\n\nIf your review is incorrectly listed, please react with 👎 to this comment and the bot will ignore it on the next update.\n",
      "user": {
        "login": "DrahtBot",
        "id": 39886733,
        "node_id": "MDQ6VXNlcjM5ODg2NzMz",
        "avatar_url": "https://avatars.githubusercontent.com/u/39886733?v=4",
        "gravatar_id": "",
        "url": "https://api.github.com/users/DrahtBot",
        "html_url": "https://github.com/DrahtBot",
        "followers_url": "https://api.github.com/users/DrahtBot/followers",
        "following_url": "https://api.github.com/users/DrahtBot/following%7B/other_user%7D",
        "gists_url": "https://api.github.com/users/DrahtBot/gists%7B/gist_id%7D",
        "starred_url": "https://api.github.com/users/DrahtBot/starred%7B/owner%7D%7B/repo%7D",
        "subscriptions_url": "https://api.github.com/users/DrahtBot/subscriptions",
        "organizations_url": "https://api.github.com/users/DrahtBot/orgs",
        "repos_url": "https://api.github.com/users/DrahtBot/repos",
        "events_url": "https://api.github.com/users/DrahtBot/events%7B/privacy%7D",
        "received_events_url": "https://api.github.com/users/DrahtBot/received_events",
        "type": "User",
        "site_admin": false
      },
      "html_url": "https://github.com/bitcoin/bitcoin/pull/27875#issuecomment-1589268770",
      "issue_url": "https://api.github.com/repos/bitcoin/bitcoin/issues/27875"
    },
    {
      "event": "labeled",
      "id": 9516006311,
      "node_id": "LE_lADOABII585omLyjzwAAAAI3Mrun",
      "url": "https://api.github.com/repos/bitcoin/bitcoin/issues/events/9516006311",
      "actor": {
        "login": "DrahtBot",
        "id": 39886733,
        "node_id": "MDQ6VXNlcjM5ODg2NzMz",
        "avatar_url": "https://avatars.githubusercontent.com/u/39886733?v=4",
        "gravatar_id": "",
        "url": "https://api.github.com/users/DrahtBot",
        "html_url": "https://github.com/DrahtBot",
        "followers_url": "https://api.github.com/users/DrahtBot/followers",
        "following_url": "https://api.github.com/users/DrahtBot/following%7B/other_user%7D",
        "gists_url": "https://api.github.com/users/DrahtBot/gists%7B/gist_id%7D",
        "starred_url": "https://api.github.com/users/DrahtBot/starred%7B/owner%7D%7B/repo%7D",
        "subscriptions_url": "https://api.github.com/users/DrahtBot/subscriptions",
        "organizations_url": "https://api.github.com/users/DrahtBot/orgs",
        "repos_url": "https://api.github.com/users/DrahtBot/repos",
        "events_url": "https://api.github.com/users/DrahtBot/events%7B/privacy%7D",
        "received_events_url": "https://api.github.com/users/DrahtBot/received_events",
        "type": "User",
        "site_admin": false
      },
      "commit_id": null,
      "commit_url": null,
      "created_at": "2023-06-13T13:01:36Z",
      "label": {
        "name": "Build system",
        "color": "5319e7"
      }
    },
    {
      "event": "cross-referenced",
      "id": null,
      "node_id": null,
      "url": null,
      "actor": {
        "login": "0xB10C",
        "id": 19157360,
        "node_id": "MDQ6VXNlcjE5MTU3MzYw",
        "avatar_url": "https://avatars.githubusercontent.com/u/19157360?v=4",
        "gravatar_id": "",
        "url": "https://api.github.com/users/0xB10C",
        "html_url": "https://github.com/0xB10C",
        "followers_url": "https://api.github.com/users/0xB10C/followers",
        "following_url": "https://api.github.com/users/0xB10C/following%7B/other_user%7D",
        "gists_url": "https://api.github.com/users/0xB10C/gists%7B/gist_id%7D",
        "starred_url": "https://api.github.com/users/0xB10C/starred%7B/owner%7D%7B/repo%7D",
        "subscriptions_url": "https://api.github.com/users/0xB10C/subscriptions",
        "organizations_url": "https://api.github.com/users/0xB10C/orgs",
        "repos_url": "https://api.github.com/users/0xB10C/repos",
        "events_url": "https://api.github.com/users/0xB10C/events%7B/privacy%7D",
        "received_events_url": "https://api.github.com/users/0xB10C/received_events",
        "type": "User",
        "site_admin": false
      },
      "commit_id": null,
      "commit_url": null,
      "created_at": "2023-06-13T13:02:40Z",
      "updated_at": "2023-06-13T13:02:40Z",
      "source": {
        "issue": {
          "id": 1428777179,
          "node_id": "PR_kwDOABII585B1Bqj",
          "url": "https://api.github.com/repos/bitcoin/bitcoin/issues/26422",
          "repository_url": "https://api.github.com/repos/bitcoin/bitcoin",
          "labels_url": "https://api.github.com/repos/bitcoin/bitcoin/issues/26422/labels%7B/name%7D",
          "comments_url": "https://api.github.com/repos/bitcoin/bitcoin/issues/26422/comments",
          "events_url": "https://api.github.com/repos/bitcoin/bitcoin/issues/26422/events",
          "html_url": "https://github.com/bitcoin/bitcoin/pull/26422",
          "number": 26422,
          "state": "closed",
          "state_reason": null,
          "title": "build: Use newest `config.{guess,sub}` available",
          "body": "Fixes cross-compiling on old systems. See https://github.com/bitcoin/bitcoin/issues/26420#issuecomment-1295886891.\r\n\r\nGuix builds:\r\n```\r\nab58f8db4fb50c2af08be646e4a57491ff853bf41319fe3e962bb928ace2c1be  guix-build-ea7b8528490d/output/aarch64-linux-gnu/SHA256SUMS.part\r\nc4a42a7dbfb15aa910ce269c3f3158df758eba01dd855cf6529c960d9b8bd76b  guix-build-ea7b8528490d/output/aarch64-linux-gnu/bitcoin-ea7b8528490d-aarch64-linux-gnu-debug.tar.gz\r\nadd5f80b0c8ee216c1d8db31e13656c45f11fe5c967324b8fcedd64d0d408938  guix-build-ea7b8528490d/output/aarch64-linux-gnu/bitcoin-ea7b8528490d-aarch64-linux-gnu.tar.gz\r\nba807ae5b29aca611a35700a968a4f9010528d6cdb6412f98c707aa0e9510e8b  guix-build-ea7b8528490d/output/arm-linux-gnueabihf/SHA256SUMS.part\r\nfe127eff1fc8389ef00ae39d1446640512120d2f247a2ee64c06290116265729  guix-build-ea7b8528490d/output/arm-linux-gnueabihf/bitcoin-ea7b8528490d-arm-linux-gnueabihf-debug.tar.gz\r\nac75f0aba2e0801fc6b59405bff09884837e0ff8b6fa9fc1225e8325a4ec78a4  guix-build-ea7b8528490d/output/arm-linux-gnueabihf/bitcoin-ea7b8528490d-arm-linux-gnueabihf.tar.gz\r\ndee402db94829bd5ce029ca02d75e008f8a18a44fd88e8ecd00b3ce586f223f4  guix-build-ea7b8528490d/output/arm64-apple-darwin/SHA256SUMS.part\r\nbbf985dbd1ca875fbb0a03c21698d4b6797c27be45e3a31a3229daee0ecbcbf4  guix-build-ea7b8528490d/output/arm64-apple-darwin/bitcoin-ea7b8528490d-arm64-apple-darwin-unsigned.dmg\r\n3cca89e532a2b637185ca316168b0f6fac2fce8795b486d530ee966a844716f1  guix-build-ea7b8528490d/output/arm64-apple-darwin/bitcoin-ea7b8528490d-arm64-apple-darwin-unsigned.tar.gz\r\n487c68e1a71f6254d48f8d322a46c94e671e00b5930fbfe689804cd8e379c8e9  guix-build-ea7b8528490d/output/arm64-apple-darwin/bitcoin-ea7b8528490d-arm64-apple-darwin.tar.gz\r\ndb663cf3216871f4c87b687a839cb5cf18b5d9906b74d4c19e8ad422d904aa87  guix-build-ea7b8528490d/output/dist-archive/bitcoin-ea7b8528490d.tar.gz\r\n09121bcd36d72ad26364182c678f2edaaf5b5e635ed43a6964ad7e4be1335075  guix-build-ea7b8528490d/output/powerpc64-linux-gnu/SHA256SUMS.part\r\ne8638959b501c3d70421dcdc6579c5d77c5786abed7ad3d6051c628fd8f17c6b  guix-build-ea7b8528490d/output/powerpc64-linux-gnu/bitcoin-ea7b8528490d-powerpc64-linux-gnu-debug.tar.gz\r\nb1aee39067d5010b4e63dc916232eb1582299d7acb56afacf5c9a5b75dcd8b82  guix-build-ea7b8528490d/output/powerpc64-linux-gnu/bitcoin-ea7b8528490d-powerpc64-linux-gnu.tar.gz\r\n9ed3d0e710847068cb2064e51e3f4c14166ad86f5c297adcf0a4d24cd4e2a723  guix-build-ea7b8528490d/output/powerpc64le-linux-gnu/SHA256SUMS.part\r\n19f99e41f41d9525a412872e61687452ab5ac23c5c964ef34b8c31a9d71adabc  guix-build-ea7b8528490d/output/powerpc64le-linux-gnu/bitcoin-ea7b8528490d-powerpc64le-linux-gnu-debug.tar.gz\r\nbd669150ce6830ffbd8523acf75b6daf894c9449c6ce3073a9ce89156d9268f9  guix-build-ea7b8528490d/output/powerpc64le-linux-gnu/bitcoin-ea7b8528490d-powerpc64le-linux-gnu.tar.gz\r\n5e42cb1fee7b5b046da37f62674a1662a6135f9644f5ea0288876334c3e8d34a  guix-build-ea7b8528490d/output/riscv64-linux-gnu/SHA256SUMS.part\r\n8767a84e04e0cd27318305d31a5a897cdc5f56d8505416dd01753bb35c8980b0  guix-build-ea7b8528490d/output/riscv64-linux-gnu/bitcoin-ea7b8528490d-riscv64-linux-gnu-debug.tar.gz\r\n00f1abcc64a7010f194dab847c04481e10991128b919b513aa9eb2911d03a243  guix-build-ea7b8528490d/output/riscv64-linux-gnu/bitcoin-ea7b8528490d-riscv64-linux-gnu.tar.gz\r\nae7add2e3ea0663fdd9d2c61c737e4bb4155d42932a0a5ce8cbbbcee627f01f3  guix-build-ea7b8528490d/output/x86_64-apple-darwin/SHA256SUMS.part\r\nba6b4a2f6a97e382a10ffec605f025d8724ac2dc0a441dbb42be79e915e98738  guix-build-ea7b8528490d/output/x86_64-apple-darwin/bitcoin-ea7b8528490d-x86_64-apple-darwin-unsigned.dmg\r\n67914f29d9e81ee50b340c3ac05b336b98766b59b8cce153493786b04a51f18a  guix-build-ea7b8528490d/output/x86_64-apple-darwin/bitcoin-ea7b8528490d-x86_64-apple-darwin-unsigned.tar.gz\r\n1d813d0e905a324f48beb2ce1da980e372c529b0eadb521662063f283fbc9bf6  guix-build-ea7b8528490d/output/x86_64-apple-darwin/bitcoin-ea7b8528490d-x86_64-apple-darwin.tar.gz\r\n4e3d176ad9059e59e9b21919001ced2710c74229536b27ef65acef514287f7e5  guix-build-ea7b8528490d/output/x86_64-linux-gnu/SHA256SUMS.part\r\ncbe31f4a60aac1a72bcdedccf39c18da21a5a4e257e77c0832ad93ce722923dd  guix-build-ea7b8528490d/output/x86_64-linux-gnu/bitcoin-ea7b8528490d-x86_64-linux-gnu-debug.tar.gz\r\nd5f3cf53adf1d964cded3461b66199c4917715af0d84cac78c97acc92432b059  guix-build-ea7b8528490d/output/x86_64-linux-gnu/bitcoin-ea7b8528490d-x86_64-linux-gnu.tar.gz\r\n9b1877d00fd447222839615cfeb089a8237f1d5d80cd2b819dd66621df8f2375  guix-build-ea7b8528490d/output/x86_64-w64-mingw32/SHA256SUMS.part\r\n2fb88e40dd399a2dedb1a44c5bd1091899b00a6d3b8d99149f622a0069205560  guix-build-ea7b8528490d/output/x86_64-w64-mingw32/bitcoin-ea7b8528490d-win64-debug.zip\r\n074ce203494dc15c916c151426438f09982a270f389cd139d3f28a75aea51af8  guix-build-ea7b8528490d/output/x86_64-w64-mingw32/bitcoin-ea7b8528490d-win64-setup-unsigned.exe\r\n2aa8ff735ce96580fb915757ccce79dc2a19afb043a6c93d3749023ca647666d  guix-build-ea7b8528490d/output/x86_64-w64-mingw32/bitcoin-ea7b8528490d-win64-unsigned.tar.gz\r\n0ac19e1901506c47d5b20297d468dbaa93e8572232671a16d08355988df8e7c3  guix-build-ea7b8528490d/output/x86_64-w64-mingw32/bitcoin-ea7b8528490d-win64.zip\r\n```",
          "user": {
            "login": "hebasto",
            "id": 32963518,
            "node_id": "MDQ6VXNlcjMyOTYzNTE4",
            "avatar_url": "https://avatars.githubusercontent.com/u/32963518?v=4",
            "gravatar_id": "",
            "url": "https://api.github.com/users/hebasto",
            "html_url": "https://github.com/hebasto",
            "followers_url": "https://api.github.com/users/hebasto/followers",
            "following_url": "https://api.github.com/users/hebasto/following%7B/other_user%7D",
            "gists_url": "https://api.github.com/users/hebasto/gists%7B/gist_id%7D",
            "starred_url": "https://api.github.com/users/hebasto/starred%7B/owner%7D%7B/repo%7D",
            "subscriptions_url": "https://api.github.com/users/hebasto/subscriptions",
            "organizations_url": "https://api.github.com/users/hebasto/orgs",
            "repos_url": "https://api.github.com/users/hebasto/repos",
            "events_url": "https://api.github.com/users/hebasto/events%7B/privacy%7D",
            "received_events_url": "https://api.github.com/users/hebasto/received_events",
            "type": "User",
            "site_admin": false
          },
          "labels": [
            {
              "id": 61889416,
              "node_id": "MDU6TGFiZWw2MTg4OTQxNg==",
              "url": "https://api.github.com/repos/bitcoin/bitcoin/labels/Build%20system",
              "name": "Build system",
              "color": "5319e7",
              "default": false
            }
          ],
          "assignees": [],
          "author_association": "MEMBER",
          "locked": false,
          "comments": 11,
          "pull_request": {
            "url": "https://api.github.com/repos/bitcoin/bitcoin/pulls/26422",
            "html_url": "https://github.com/bitcoin/bitcoin/pull/26422",
            "diff_url": "https://github.com/bitcoin/bitcoin/pull/26422.diff",
            "patch_url": "https://github.com/bitcoin/bitcoin/pull/26422.patch"
          },
          "closed_at": "2023-05-16T10:28:20Z",
          "created_at": "2022-10-30T12:56:24Z",
          "updated_at": "2023-06-13T13:02:40Z"
        },
        "type": "issue"
      }
    },
    {
      "event": "commented",
      "id": 1589290446,
      "node_id": "IC_kwDOABII585euqXO",
      "url": "https://api.github.com/repos/bitcoin/bitcoin/issues/comments/1589290446",
      "actor": {
        "login": "hebasto",
        "id": 32963518,
        "node_id": "MDQ6VXNlcjMyOTYzNTE4",
        "avatar_url": "https://avatars.githubusercontent.com/u/32963518?v=4",
        "gravatar_id": "",
        "url": "https://api.github.com/users/hebasto",
        "html_url": "https://github.com/hebasto",
        "followers_url": "https://api.github.com/users/hebasto/followers",
        "following_url": "https://api.github.com/users/hebasto/following%7B/other_user%7D",
        "gists_url": "https://api.github.com/users/hebasto/gists%7B/gist_id%7D",
        "starred_url": "https://api.github.com/users/hebasto/starred%7B/owner%7D%7B/repo%7D",
        "subscriptions_url": "https://api.github.com/users/hebasto/subscriptions",
        "organizations_url": "https://api.github.com/users/hebasto/orgs",
        "repos_url": "https://api.github.com/users/hebasto/repos",
        "events_url": "https://api.github.com/users/hebasto/events%7B/privacy%7D",
        "received_events_url": "https://api.github.com/users/hebasto/received_events",
        "type": "User",
        "site_admin": false
      },
      "commit_id": null,
      "commit_url": null,
      "created_at": "2023-06-13T13:13:51Z",
      "updated_at": "2023-06-13T13:13:51Z",
      "author_association": "MEMBER",
      "body": "Concept ACK. However, I'm not a NixOS user and cannot test this PR, unfortunately.",
      "user": {
        "login": "hebasto",
        "id": 32963518,
        "node_id": "MDQ6VXNlcjMyOTYzNTE4",
        "avatar_url": "https://avatars.githubusercontent.com/u/32963518?v=4",
        "gravatar_id": "",
        "url": "https://api.github.com/users/hebasto",
        "html_url": "https://github.com/hebasto",
        "followers_url": "https://api.github.com/users/hebasto/followers",
        "following_url": "https://api.github.com/users/hebasto/following%7B/other_user%7D",
        "gists_url": "https://api.github.com/users/hebasto/gists%7B/gist_id%7D",
        "starred_url": "https://api.github.com/users/hebasto/starred%7B/owner%7D%7B/repo%7D",
        "subscriptions_url": "https://api.github.com/users/hebasto/subscriptions",
        "organizations_url": "https://api.github.com/users/hebasto/orgs",
        "repos_url": "https://api.github.com/users/hebasto/repos",
        "events_url": "https://api.github.com/users/hebasto/events%7B/privacy%7D",
        "received_events_url": "https://api.github.com/users/hebasto/received_events",
        "type": "User",
        "site_admin": false
      },
      "html_url": "https://github.com/bitcoin/bitcoin/pull/27875#issuecomment-1589290446",
      "issue_url": "https://api.github.com/repos/bitcoin/bitcoin/issues/27875"
    },
    {
      "event": "unsubscribed",
      "id": 9516446483,
      "node_id": "UE_lADOABII585omLyjzwAAAAI3OXMT",
      "url": "https://api.github.com/repos/bitcoin/bitcoin/issues/events/9516446483",
      "actor": {
        "login": "joostjager",
        "id": 4638168,
        "node_id": "MDQ6VXNlcjQ2MzgxNjg=",
        "avatar_url": "https://avatars.githubusercontent.com/u/4638168?v=4",
        "gravatar_id": "",
        "url": "https://api.github.com/users/joostjager",
        "html_url": "https://github.com/joostjager",
        "followers_url": "https://api.github.com/users/joostjager/followers",
        "following_url": "https://api.github.com/users/joostjager/following%7B/other_user%7D",
        "gists_url": "https://api.github.com/users/joostjager/gists%7B/gist_id%7D",
        "starred_url": "https://api.github.com/users/joostjager/starred%7B/owner%7D%7B/repo%7D",
        "subscriptions_url": "https://api.github.com/users/joostjager/subscriptions",
        "organizations_url": "https://api.github.com/users/joostjager/orgs",
        "repos_url": "https://api.github.com/users/joostjager/repos",
        "events_url": "https://api.github.com/users/joostjager/events%7B/privacy%7D",
        "received_events_url": "https://api.github.com/users/joostjager/received_events",
        "type": "User",
        "site_admin": false
      },
      "commit_id": null,
      "commit_url": null,
      "created_at": "2023-06-13T13:36:17Z"
    },
    {
      "event": "commented",
      "id": 1589385892,
      "node_id": "IC_kwDOABII585evBqk",
      "url": "https://api.github.com/repos/bitcoin/bitcoin/issues/comments/1589385892",
      "actor": {
        "login": "dergoegge",
        "id": 8077169,
        "node_id": "MDQ6VXNlcjgwNzcxNjk=",
        "avatar_url": "https://avatars.githubusercontent.com/u/8077169?v=4",
        "gravatar_id": "",
        "url": "https://api.github.com/users/dergoegge",
        "html_url": "https://github.com/dergoegge",
        "followers_url": "https://api.github.com/users/dergoegge/followers",
        "following_url": "https://api.github.com/users/dergoegge/following%7B/other_user%7D",
        "gists_url": "https://api.github.com/users/dergoegge/gists%7B/gist_id%7D",
        "starred_url": "https://api.github.com/users/dergoegge/starred%7B/owner%7D%7B/repo%7D",
        "subscriptions_url": "https://api.github.com/users/dergoegge/subscriptions",
        "organizations_url": "https://api.github.com/users/dergoegge/orgs",
        "repos_url": "https://api.github.com/users/dergoegge/repos",
        "events_url": "https://api.github.com/users/dergoegge/events%7B/privacy%7D",
        "received_events_url": "https://api.github.com/users/dergoegge/received_events",
        "type": "User",
        "site_admin": false
      },
      "commit_id": null,
      "commit_url": null,
      "created_at": "2023-06-13T14:04:41Z",
      "updated_at": "2023-06-13T14:05:46Z",
      "author_association": "MEMBER",
      "body": "Concept ACK\r\n\r\nI've been having this issue on my NixOS machine, will test. ",
      "user": {
        "login": "dergoegge",
        "id": 8077169,
        "node_id": "MDQ6VXNlcjgwNzcxNjk=",
        "avatar_url": "https://avatars.githubusercontent.com/u/8077169?v=4",
        "gravatar_id": "",
        "url": "https://api.github.com/users/dergoegge",
        "html_url": "https://github.com/dergoegge",
        "followers_url": "https://api.github.com/users/dergoegge/followers",
        "following_url": "https://api.github.com/users/dergoegge/following%7B/other_user%7D",
        "gists_url": "https://api.github.com/users/dergoegge/gists%7B/gist_id%7D",
        "starred_url": "https://api.github.com/users/dergoegge/starred%7B/owner%7D%7B/repo%7D",
        "subscriptions_url": "https://api.github.com/users/dergoegge/subscriptions",
        "organizations_url": "https://api.github.com/users/dergoegge/orgs",
        "repos_url": "https://api.github.com/users/dergoegge/repos",
        "events_url": "https://api.github.com/users/dergoegge/events%7B/privacy%7D",
        "received_events_url": "https://api.github.com/users/dergoegge/received_events",
        "type": "User",
        "site_admin": false
      },
      "html_url": "https://github.com/bitcoin/bitcoin/pull/27875#issuecomment-1589385892",
      "issue_url": "https://api.github.com/repos/bitcoin/bitcoin/issues/27875"
    },
    {
      "event": "reviewed",
      "id": 1477330163,
      "node_id": "PRR_kwDOABII585YDkTz",
      "url": null,
      "actor": null,
      "commit_id": "fc6c17b83887ef193f2b97264b1843c94dcb915d",
      "commit_url": null,
      "created_at": null,
      "author_association": "MEMBER",
      "body": "tACK fc6c17b83887ef193f2b97264b1843c94dcb915d",
      "user": {
        "login": "dergoegge",
        "id": 8077169,
        "node_id": "MDQ6VXNlcjgwNzcxNjk=",
        "avatar_url": "https://avatars.githubusercontent.com/u/8077169?v=4",
        "gravatar_id": "",
        "url": "https://api.github.com/users/dergoegge",
        "html_url": "https://github.com/dergoegge",
        "followers_url": "https://api.github.com/users/dergoegge/followers",
        "following_url": "https://api.github.com/users/dergoegge/following%7B/other_user%7D",
        "gists_url": "https://api.github.com/users/dergoegge/gists%7B/gist_id%7D",
        "starred_url": "https://api.github.com/users/dergoegge/starred%7B/owner%7D%7B/repo%7D",
        "subscriptions_url": "https://api.github.com/users/dergoegge/subscriptions",
        "organizations_url": "https://api.github.com/users/dergoegge/orgs",
        "repos_url": "https://api.github.com/users/dergoegge/repos",
        "events_url": "https://api.github.com/users/dergoegge/events%7B/privacy%7D",
        "received_events_url": "https://api.github.com/users/dergoegge/received_events",
        "type": "User",
        "site_admin": false
      },
      "html_url": "https://github.com/bitcoin/bitcoin/pull/27875#pullrequestreview-1477330163",
      "submitted_at": "2023-06-13T14:31:02Z",
      "state": "APPROVED",
      "pull_request_url": "https://api.github.com/repos/bitcoin/bitcoin/pulls/27875"
    },
    {
      "event": "commented",
      "id": 1589442718,
      "node_id": "IC_kwDOABII585evPie",
      "url": "https://api.github.com/repos/bitcoin/bitcoin/issues/comments/1589442718",
      "actor": {
        "login": "fanquake",
        "id": 863730,
        "node_id": "MDQ6VXNlcjg2MzczMA==",
        "avatar_url": "https://avatars.githubusercontent.com/u/863730?v=4",
        "gravatar_id": "",
        "url": "https://api.github.com/users/fanquake",
        "html_url": "https://github.com/fanquake",
        "followers_url": "https://api.github.com/users/fanquake/followers",
        "following_url": "https://api.github.com/users/fanquake/following%7B/other_user%7D",
        "gists_url": "https://api.github.com/users/fanquake/gists%7B/gist_id%7D",
        "starred_url": "https://api.github.com/users/fanquake/starred%7B/owner%7D%7B/repo%7D",
        "subscriptions_url": "https://api.github.com/users/fanquake/subscriptions",
        "organizations_url": "https://api.github.com/users/fanquake/orgs",
        "repos_url": "https://api.github.com/users/fanquake/repos",
        "events_url": "https://api.github.com/users/fanquake/events%7B/privacy%7D",
        "received_events_url": "https://api.github.com/users/fanquake/received_events",
        "type": "User",
        "site_admin": false
      },
      "commit_id": null,
      "commit_url": null,
      "created_at": "2023-06-13T14:36:22Z",
      "updated_at": "2023-06-13T14:36:22Z",
      "author_association": "MEMBER",
      "body": "Concept ACK",
      "user": {
        "login": "fanquake",
        "id": 863730,
        "node_id": "MDQ6VXNlcjg2MzczMA==",
        "avatar_url": "https://avatars.githubusercontent.com/u/863730?v=4",
        "gravatar_id": "",
        "url": "https://api.github.com/users/fanquake",
        "html_url": "https://github.com/fanquake",
        "followers_url": "https://api.github.com/users/fanquake/followers",
        "following_url": "https://api.github.com/users/fanquake/following%7B/other_user%7D",
        "gists_url": "https://api.github.com/users/fanquake/gists%7B/gist_id%7D",
        "starred_url": "https://api.github.com/users/fanquake/starred%7B/owner%7D%7B/repo%7D",
        "subscriptions_url": "https://api.github.com/users/fanquake/subscriptions",
        "organizations_url": "https://api.github.com/users/fanquake/orgs",
        "repos_url": "https://api.github.com/users/fanquake/repos",
        "events_url": "https://api.github.com/users/fanquake/events%7B/privacy%7D",
        "received_events_url": "https://api.github.com/users/fanquake/received_events",
        "type": "User",
        "site_admin": false
      },
      "html_url": "https://github.com/bitcoin/bitcoin/pull/27875#issuecomment-1589442718",
      "issue_url": "https://api.github.com/repos/bitcoin/bitcoin/issues/27875"
    },
    {
      "event": "commented",
      "id": 1589993008,
      "node_id": "IC_kwDOABII585exV4w",
      "url": "https://api.github.com/repos/bitcoin/bitcoin/issues/comments/1589993008",
      "actor": {
        "login": "TheCharlatan",
        "id": 8421793,
        "node_id": "MDQ6VXNlcjg0MjE3OTM=",
        "avatar_url": "https://avatars.githubusercontent.com/u/8421793?v=4",
        "gravatar_id": "",
        "url": "https://api.github.com/users/TheCharlatan",
        "html_url": "https://github.com/TheCharlatan",
        "followers_url": "https://api.github.com/users/TheCharlatan/followers",
        "following_url": "https://api.github.com/users/TheCharlatan/following%7B/other_user%7D",
        "gists_url": "https://api.github.com/users/TheCharlatan/gists%7B/gist_id%7D",
        "starred_url": "https://api.github.com/users/TheCharlatan/starred%7B/owner%7D%7B/repo%7D",
        "subscriptions_url": "https://api.github.com/users/TheCharlatan/subscriptions",
        "organizations_url": "https://api.github.com/users/TheCharlatan/orgs",
        "repos_url": "https://api.github.com/users/TheCharlatan/repos",
        "events_url": "https://api.github.com/users/TheCharlatan/events%7B/privacy%7D",
        "received_events_url": "https://api.github.com/users/TheCharlatan/received_events",
        "type": "User",
        "site_admin": false
      },
      "commit_id": null,
      "commit_url": null,
      "created_at": "2023-06-13T20:40:44Z",
      "updated_at": "2023-06-13T20:40:44Z",
      "author_association": "CONTRIBUTOR",
      "body": "Concept ACK",
      "user": {
        "login": "TheCharlatan",
        "id": 8421793,
        "node_id": "MDQ6VXNlcjg0MjE3OTM=",
        "avatar_url": "https://avatars.githubusercontent.com/u/8421793?v=4",
        "gravatar_id": "",
        "url": "https://api.github.com/users/TheCharlatan",
        "html_url": "https://github.com/TheCharlatan",
        "followers_url": "https://api.github.com/users/TheCharlatan/followers",
        "following_url": "https://api.github.com/users/TheCharlatan/following%7B/other_user%7D",
        "gists_url": "https://api.github.com/users/TheCharlatan/gists%7B/gist_id%7D",
        "starred_url": "https://api.github.com/users/TheCharlatan/starred%7B/owner%7D%7B/repo%7D",
        "subscriptions_url": "https://api.github.com/users/TheCharlatan/subscriptions",
        "organizations_url": "https://api.github.com/users/TheCharlatan/orgs",
        "repos_url": "https://api.github.com/users/TheCharlatan/repos",
        "events_url": "https://api.github.com/users/TheCharlatan/events%7B/privacy%7D",
        "received_events_url": "https://api.github.com/users/TheCharlatan/received_events",
        "type": "User",
        "site_admin": false
      },
      "html_url": "https://github.com/bitcoin/bitcoin/pull/27875#issuecomment-1589993008",
      "issue_url": "https://api.github.com/repos/bitcoin/bitcoin/issues/27875"
    },
    {
      "event": "commented",
      "id": 1591337481,
      "node_id": "IC_kwDOABII585e2eIJ",
      "url": "https://api.github.com/repos/bitcoin/bitcoin/issues/comments/1591337481",
      "actor": {
        "login": "fanquake",
        "id": 863730,
        "node_id": "MDQ6VXNlcjg2MzczMA==",
        "avatar_url": "https://avatars.githubusercontent.com/u/863730?v=4",
        "gravatar_id": "",
        "url": "https://api.github.com/users/fanquake",
        "html_url": "https://github.com/fanquake",
        "followers_url": "https://api.github.com/users/fanquake/followers",
        "following_url": "https://api.github.com/users/fanquake/following%7B/other_user%7D",
        "gists_url": "https://api.github.com/users/fanquake/gists%7B/gist_id%7D",
        "starred_url": "https://api.github.com/users/fanquake/starred%7B/owner%7D%7B/repo%7D",
        "subscriptions_url": "https://api.github.com/users/fanquake/subscriptions",
        "organizations_url": "https://api.github.com/users/fanquake/orgs",
        "repos_url": "https://api.github.com/users/fanquake/repos",
        "events_url": "https://api.github.com/users/fanquake/events%7B/privacy%7D",
        "received_events_url": "https://api.github.com/users/fanquake/received_events",
        "type": "User",
        "site_admin": false
      },
      "commit_id": null,
      "commit_url": null,
      "created_at": "2023-06-14T14:30:56Z",
      "updated_at": "2023-06-14T14:30:56Z",
      "author_association": "MEMBER",
      "body": "Guix build:\r\n```bash\r\nf18a12cd7d70759bd02d62b6ef5bb473f40d2ae2b4ab868005005cd16beb66ab  guix-build-fc6c17b83887/output/aarch64-linux-gnu/SHA256SUMS.part\r\nc9324853dbc4cde7ec50e5f3c86388fcdfff754c49cdb14b549f808ba7988718  guix-build-fc6c17b83887/output/aarch64-linux-gnu/bitcoin-fc6c17b83887-aarch64-linux-gnu-debug.tar.gz\r\n1aa109712af8bfca4cbaab2f570941343667f0524331d6b919d42e3bbd35c53a  guix-build-fc6c17b83887/output/aarch64-linux-gnu/bitcoin-fc6c17b83887-aarch64-linux-gnu.tar.gz\r\na3f34dde5216f1eca8130c7f346aeb5cd92b0175f3855d35c371924114c580fc  guix-build-fc6c17b83887/output/arm-linux-gnueabihf/SHA256SUMS.part\r\ne2a2ba40ddd06d85ff0d11f67a2a352e718a85268d5684671fc59dd723473a75  guix-build-fc6c17b83887/output/arm-linux-gnueabihf/bitcoin-fc6c17b83887-arm-linux-gnueabihf-debug.tar.gz\r\na24ad6e20f3ab8280f0cc5ed74b415b12df955ef48471359f376bda38bb530b0  guix-build-fc6c17b83887/output/arm-linux-gnueabihf/bitcoin-fc6c17b83887-arm-linux-gnueabihf.tar.gz\r\nd5c8a4162ccffc0fa520915183a692256432e8b6197f5caf10ba66eff03cae13  guix-build-fc6c17b83887/output/arm64-apple-darwin/SHA256SUMS.part\r\n4ff57b8adda39e9cc71d6ed22f3a79baa8f37cc9de5e0540c9441ba201f341cd  guix-build-fc6c17b83887/output/arm64-apple-darwin/bitcoin-fc6c17b83887-arm64-apple-darwin-unsigned.dmg\r\n440d0f3d48ea8d3d8a3e94c16cbb40ae1f6a29e445124272499485a93a99d4a0  guix-build-fc6c17b83887/output/arm64-apple-darwin/bitcoin-fc6c17b83887-arm64-apple-darwin-unsigned.tar.gz\r\nb93e6565115235fe7309249418c22ba1151ddc82a9acb4dfcf5e0bfeefa4a897  guix-build-fc6c17b83887/output/arm64-apple-darwin/bitcoin-fc6c17b83887-arm64-apple-darwin.tar.gz\r\n76a91bdf64fdc4df1204990028f826c5394eb10b8411381d2ba9fe0282fa177a  guix-build-fc6c17b83887/output/dist-archive/bitcoin-fc6c17b83887.tar.gz\r\nf3723c8fd632db7eb9cf99ab088192fc71b27577cc8095cfff938b477c3de1e4  guix-build-fc6c17b83887/output/powerpc64-linux-gnu/SHA256SUMS.part\r\n3e57a7261ce5fe436e4e24dcbb64a758d79df6d507cc3a74784ab44979162914  guix-build-fc6c17b83887/output/powerpc64-linux-gnu/bitcoin-fc6c17b83887-powerpc64-linux-gnu-debug.tar.gz\r\n08ab1c7b7198f01a37b13a59e00bda2f6e69a2f70f48ecf5f5c5f51d0a97ab40  guix-build-fc6c17b83887/output/powerpc64-linux-gnu/bitcoin-fc6c17b83887-powerpc64-linux-gnu.tar.gz\r\n028c18dbe9d8b6779fbac71d8d9b31db7f98b92e20259f7d8fc0e4867bbf9154  guix-build-fc6c17b83887/output/powerpc64le-linux-gnu/SHA256SUMS.part\r\n68579746e39d7be0b240812704f24498c298ef68da6f1c268871d0fba46e550e  guix-build-fc6c17b83887/output/powerpc64le-linux-gnu/bitcoin-fc6c17b83887-powerpc64le-linux-gnu-debug.tar.gz\r\n1f3b113671259beb10c5f176c2b4cd99aecc2b4cc23d9a364f68bf4b2c7b8b86  guix-build-fc6c17b83887/output/powerpc64le-linux-gnu/bitcoin-fc6c17b83887-powerpc64le-linux-gnu.tar.gz\r\n09c377ca1137fd15f101baedb69d2ff2e77336d3df64c8f91a3de7c5f7b0025d  guix-build-fc6c17b83887/output/riscv64-linux-gnu/SHA256SUMS.part\r\n74f132b24814b058dcc910d793dfc9e8dbea83bbb61b6d49fa4c159b05e7682f  guix-build-fc6c17b83887/output/riscv64-linux-gnu/bitcoin-fc6c17b83887-riscv64-linux-gnu-debug.tar.gz\r\n62fc9f914ecdb4ed35d775483b8028c827ce467fd15f50dbe8c54fd8fa56551d  guix-build-fc6c17b83887/output/riscv64-linux-gnu/bitcoin-fc6c17b83887-riscv64-linux-gnu.tar.gz\r\n3642b38e824845a5d07b0ad3485c8db1f7b7b94409f8949d7176fe9a0608ecd7  guix-build-fc6c17b83887/output/x86_64-apple-darwin/SHA256SUMS.part\r\nf5fefdf50957c2f4d36f2b065917584bf7b800be4784d404c39401847090feb8  guix-build-fc6c17b83887/output/x86_64-apple-darwin/bitcoin-fc6c17b83887-x86_64-apple-darwin-unsigned.dmg\r\n949e069be2c222e36a3ee4f8f0f54f0f4365d1e42a02f1be7bdc3ded9d345cc7  guix-build-fc6c17b83887/output/x86_64-apple-darwin/bitcoin-fc6c17b83887-x86_64-apple-darwin-unsigned.tar.gz\r\nc29c049fb1315b47c2499672795e1e23348d0dacf28c84db8611fa839c6dac03  guix-build-fc6c17b83887/output/x86_64-apple-darwin/bitcoin-fc6c17b83887-x86_64-apple-darwin.tar.gz\r\naf50042f2455d55e32c3d84f7b6125a1585089f87fd37f987a40e4b4b21f12a8  guix-build-fc6c17b83887/output/x86_64-linux-gnu/SHA256SUMS.part\r\n1f91bcce2fb3d4df7ee37e8f3e02ff4d4b16c891bf649fdbaa20193d26839ff2  guix-build-fc6c17b83887/output/x86_64-linux-gnu/bitcoin-fc6c17b83887-x86_64-linux-gnu-debug.tar.gz\r\n79a7476a5f87e9b8b914dba9553978d71fedc7ec8e68b39e99167a919fb8d461  guix-build-fc6c17b83887/output/x86_64-linux-gnu/bitcoin-fc6c17b83887-x86_64-linux-gnu.tar.gz\r\n35ca373bf33e7ce3b0beec8959329a3740d569053437c46a2005129d1149a643  guix-build-fc6c17b83887/output/x86_64-w64-mingw32/SHA256SUMS.part\r\n4e99f1e0882611a01d73eece2dbefdbc22602453e94d582f4c4af880a5654ea2  guix-build-fc6c17b83887/output/x86_64-w64-mingw32/bitcoin-fc6c17b83887-win64-debug.zip\r\nb38df4035704ddee1b9c4fff9e3d50c5dc5877ac48e266f09d85e60fc1287479  guix-build-fc6c17b83887/output/x86_64-w64-mingw32/bitcoin-fc6c17b83887-win64-setup-unsigned.exe\r\nc5feb714cda8f7dd9bbbd970c3122795dca71809a194b1b6a81445306a085b9b  guix-build-fc6c17b83887/output/x86_64-w64-mingw32/bitcoin-fc6c17b83887-win64-unsigned.tar.gz\r\n99b8762bc9b34ae81cd247a7b852c3d4c527fdd7c4cafcee5930017c82b343b6  guix-build-fc6c17b83887/output/x86_64-w64-mingw32/bitcoin-fc6c17b83887-win64.zip\r\n```",
      "user": {
        "login": "fanquake",
        "id": 863730,
        "node_id": "MDQ6VXNlcjg2MzczMA==",
        "avatar_url": "https://avatars.githubusercontent.com/u/863730?v=4",
        "gravatar_id": "",
        "url": "https://api.github.com/users/fanquake",
        "html_url": "https://github.com/fanquake",
        "followers_url": "https://api.github.com/users/fanquake/followers",
        "following_url": "https://api.github.com/users/fanquake/following%7B/other_user%7D",
        "gists_url": "https://api.github.com/users/fanquake/gists%7B/gist_id%7D",
        "starred_url": "https://api.github.com/users/fanquake/starred%7B/owner%7D%7B/repo%7D",
        "subscriptions_url": "https://api.github.com/users/fanquake/subscriptions",
        "organizations_url": "https://api.github.com/users/fanquake/orgs",
        "repos_url": "https://api.github.com/users/fanquake/repos",
        "events_url": "https://api.github.com/users/fanquake/events%7B/privacy%7D",
        "received_events_url": "https://api.github.com/users/fanquake/received_events",
        "type": "User",
        "site_admin": false
      },
      "html_url": "https://github.com/bitcoin/bitcoin/pull/27875#issuecomment-1591337481",
      "issue_url": "https://api.github.com/repos/bitcoin/bitcoin/issues/27875"
    },
    {
      "event": "commented",
      "id": 1591592764,
      "node_id": "IC_kwDOABII585e3cc8",
      "url": "https://api.github.com/repos/bitcoin/bitcoin/issues/comments/1591592764",
      "actor": {
        "login": "TheCharlatan",
        "id": 8421793,
        "node_id": "MDQ6VXNlcjg0MjE3OTM=",
        "avatar_url": "https://avatars.githubusercontent.com/u/8421793?v=4",
        "gravatar_id": "",
        "url": "https://api.github.com/users/TheCharlatan",
        "html_url": "https://github.com/TheCharlatan",
        "followers_url": "https://api.github.com/users/TheCharlatan/followers",
        "following_url": "https://api.github.com/users/TheCharlatan/following%7B/other_user%7D",
        "gists_url": "https://api.github.com/users/TheCharlatan/gists%7B/gist_id%7D",
        "starred_url": "https://api.github.com/users/TheCharlatan/starred%7B/owner%7D%7B/repo%7D",
        "subscriptions_url": "https://api.github.com/users/TheCharlatan/subscriptions",
        "organizations_url": "https://api.github.com/users/TheCharlatan/orgs",
        "repos_url": "https://api.github.com/users/TheCharlatan/repos",
        "events_url": "https://api.github.com/users/TheCharlatan/events%7B/privacy%7D",
        "received_events_url": "https://api.github.com/users/TheCharlatan/received_events",
        "type": "User",
        "site_admin": false
      },
      "commit_id": null,
      "commit_url": null,
      "created_at": "2023-06-14T16:20:09Z",
      "updated_at": "2023-06-14T16:20:09Z",
      "author_association": "CONTRIBUTOR",
      "body": "```\r\nfind guix-build-$(git rev-parse --short=12 HEAD)/output/ -type f -print0 | env LC_ALL=C sort -z | xargs -r0 sha256sum\r\nf18a12cd7d70759bd02d62b6ef5bb473f40d2ae2b4ab868005005cd16beb66ab  guix-build-fc6c17b83887/output/aarch64-linux-gnu/SHA256SUMS.part\r\nc9324853dbc4cde7ec50e5f3c86388fcdfff754c49cdb14b549f808ba7988718  guix-build-fc6c17b83887/output/aarch64-linux-gnu/bitcoin-fc6c17b83887-aarch64-linux-gnu-debug.tar.gz\r\n1aa109712af8bfca4cbaab2f570941343667f0524331d6b919d42e3bbd35c53a  guix-build-fc6c17b83887/output/aarch64-linux-gnu/bitcoin-fc6c17b83887-aarch64-linux-gnu.tar.gz\r\na3f34dde5216f1eca8130c7f346aeb5cd92b0175f3855d35c371924114c580fc  guix-build-fc6c17b83887/output/arm-linux-gnueabihf/SHA256SUMS.part\r\ne2a2ba40ddd06d85ff0d11f67a2a352e718a85268d5684671fc59dd723473a75  guix-build-fc6c17b83887/output/arm-linux-gnueabihf/bitcoin-fc6c17b83887-arm-linux-gnueabihf-debug.tar.gz\r\na24ad6e20f3ab8280f0cc5ed74b415b12df955ef48471359f376bda38bb530b0  guix-build-fc6c17b83887/output/arm-linux-gnueabihf/bitcoin-fc6c17b83887-arm-linux-gnueabihf.tar.gz\r\nd5c8a4162ccffc0fa520915183a692256432e8b6197f5caf10ba66eff03cae13  guix-build-fc6c17b83887/output/arm64-apple-darwin/SHA256SUMS.part\r\n4ff57b8adda39e9cc71d6ed22f3a79baa8f37cc9de5e0540c9441ba201f341cd  guix-build-fc6c17b83887/output/arm64-apple-darwin/bitcoin-fc6c17b83887-arm64-apple-darwin-unsigned.dmg\r\n440d0f3d48ea8d3d8a3e94c16cbb40ae1f6a29e445124272499485a93a99d4a0  guix-build-fc6c17b83887/output/arm64-apple-darwin/bitcoin-fc6c17b83887-arm64-apple-darwin-unsigned.tar.gz\r\nb93e6565115235fe7309249418c22ba1151ddc82a9acb4dfcf5e0bfeefa4a897  guix-build-fc6c17b83887/output/arm64-apple-darwin/bitcoin-fc6c17b83887-arm64-apple-darwin.tar.gz\r\n76a91bdf64fdc4df1204990028f826c5394eb10b8411381d2ba9fe0282fa177a  guix-build-fc6c17b83887/output/dist-archive/bitcoin-fc6c17b83887.tar.gz\r\nf3723c8fd632db7eb9cf99ab088192fc71b27577cc8095cfff938b477c3de1e4  guix-build-fc6c17b83887/output/powerpc64-linux-gnu/SHA256SUMS.part\r\n3e57a7261ce5fe436e4e24dcbb64a758d79df6d507cc3a74784ab44979162914  guix-build-fc6c17b83887/output/powerpc64-linux-gnu/bitcoin-fc6c17b83887-powerpc64-linux-gnu-debug.tar.gz\r\n08ab1c7b7198f01a37b13a59e00bda2f6e69a2f70f48ecf5f5c5f51d0a97ab40  guix-build-fc6c17b83887/output/powerpc64-linux-gnu/bitcoin-fc6c17b83887-powerpc64-linux-gnu.tar.gz\r\n028c18dbe9d8b6779fbac71d8d9b31db7f98b92e20259f7d8fc0e4867bbf9154  guix-build-fc6c17b83887/output/powerpc64le-linux-gnu/SHA256SUMS.part\r\n68579746e39d7be0b240812704f24498c298ef68da6f1c268871d0fba46e550e  guix-build-fc6c17b83887/output/powerpc64le-linux-gnu/bitcoin-fc6c17b83887-powerpc64le-linux-gnu-debug.tar.gz\r\n1f3b113671259beb10c5f176c2b4cd99aecc2b4cc23d9a364f68bf4b2c7b8b86  guix-build-fc6c17b83887/output/powerpc64le-linux-gnu/bitcoin-fc6c17b83887-powerpc64le-linux-gnu.tar.gz\r\n09c377ca1137fd15f101baedb69d2ff2e77336d3df64c8f91a3de7c5f7b0025d  guix-build-fc6c17b83887/output/riscv64-linux-gnu/SHA256SUMS.part\r\n74f132b24814b058dcc910d793dfc9e8dbea83bbb61b6d49fa4c159b05e7682f  guix-build-fc6c17b83887/output/riscv64-linux-gnu/bitcoin-fc6c17b83887-riscv64-linux-gnu-debug.tar.gz\r\n62fc9f914ecdb4ed35d775483b8028c827ce467fd15f50dbe8c54fd8fa56551d  guix-build-fc6c17b83887/output/riscv64-linux-gnu/bitcoin-fc6c17b83887-riscv64-linux-gnu.tar.gz\r\n3642b38e824845a5d07b0ad3485c8db1f7b7b94409f8949d7176fe9a0608ecd7  guix-build-fc6c17b83887/output/x86_64-apple-darwin/SHA256SUMS.part\r\nf5fefdf50957c2f4d36f2b065917584bf7b800be4784d404c39401847090feb8  guix-build-fc6c17b83887/output/x86_64-apple-darwin/bitcoin-fc6c17b83887-x86_64-apple-darwin-unsigned.dmg\r\n949e069be2c222e36a3ee4f8f0f54f0f4365d1e42a02f1be7bdc3ded9d345cc7  guix-build-fc6c17b83887/output/x86_64-apple-darwin/bitcoin-fc6c17b83887-x86_64-apple-darwin-unsigned.tar.gz\r\nc29c049fb1315b47c2499672795e1e23348d0dacf28c84db8611fa839c6dac03  guix-build-fc6c17b83887/output/x86_64-apple-darwin/bitcoin-fc6c17b83887-x86_64-apple-darwin.tar.gz\r\naf50042f2455d55e32c3d84f7b6125a1585089f87fd37f987a40e4b4b21f12a8  guix-build-fc6c17b83887/output/x86_64-linux-gnu/SHA256SUMS.part\r\n1f91bcce2fb3d4df7ee37e8f3e02ff4d4b16c891bf649fdbaa20193d26839ff2  guix-build-fc6c17b83887/output/x86_64-linux-gnu/bitcoin-fc6c17b83887-x86_64-linux-gnu-debug.tar.gz\r\n79a7476a5f87e9b8b914dba9553978d71fedc7ec8e68b39e99167a919fb8d461  guix-build-fc6c17b83887/output/x86_64-linux-gnu/bitcoin-fc6c17b83887-x86_64-linux-gnu.tar.gz\r\n35ca373bf33e7ce3b0beec8959329a3740d569053437c46a2005129d1149a643  guix-build-fc6c17b83887/output/x86_64-w64-mingw32/SHA256SUMS.part\r\n4e99f1e0882611a01d73eece2dbefdbc22602453e94d582f4c4af880a5654ea2  guix-build-fc6c17b83887/output/x86_64-w64-mingw32/bitcoin-fc6c17b83887-win64-debug.zip\r\nb38df4035704ddee1b9c4fff9e3d50c5dc5877ac48e266f09d85e60fc1287479  guix-build-fc6c17b83887/output/x86_64-w64-mingw32/bitcoin-fc6c17b83887-win64-setup-unsigned.exe\r\nc5feb714cda8f7dd9bbbd970c3122795dca71809a194b1b6a81445306a085b9b  guix-build-fc6c17b83887/output/x86_64-w64-mingw32/bitcoin-fc6c17b83887-win64-unsigned.tar.gz\r\n99b8762bc9b34ae81cd247a7b852c3d4c527fdd7c4cafcee5930017c82b343b6  guix-build-fc6c17b83887/output/x86_64-w64-mingw32/bitcoin-fc6c17b83887-win64.zip\r\n```",
      "user": {
        "login": "TheCharlatan",
        "id": 8421793,
        "node_id": "MDQ6VXNlcjg0MjE3OTM=",
        "avatar_url": "https://avatars.githubusercontent.com/u/8421793?v=4",
        "gravatar_id": "",
        "url": "https://api.github.com/users/TheCharlatan",
        "html_url": "https://github.com/TheCharlatan",
        "followers_url": "https://api.github.com/users/TheCharlatan/followers",
        "following_url": "https://api.github.com/users/TheCharlatan/following%7B/other_user%7D",
        "gists_url": "https://api.github.com/users/TheCharlatan/gists%7B/gist_id%7D",
        "starred_url": "https://api.github.com/users/TheCharlatan/starred%7B/owner%7D%7B/repo%7D",
        "subscriptions_url": "https://api.github.com/users/TheCharlatan/subscriptions",
        "organizations_url": "https://api.github.com/users/TheCharlatan/orgs",
        "repos_url": "https://api.github.com/users/TheCharlatan/repos",
        "events_url": "https://api.github.com/users/TheCharlatan/events%7B/privacy%7D",
        "received_events_url": "https://api.github.com/users/TheCharlatan/received_events",
        "type": "User",
        "site_admin": false
      },
      "html_url": "https://github.com/bitcoin/bitcoin/pull/27875#issuecomment-1591592764",
      "issue_url": "https://api.github.com/repos/bitcoin/bitcoin/issues/27875"
    },
    {
      "event": "reviewed",
      "id": 1483052615,
      "node_id": "PRR_kwDOABII585YZZZH",
      "url": null,
      "actor": null,
      "commit_id": "fc6c17b83887ef193f2b97264b1843c94dcb915d",
      "commit_url": null,
      "created_at": null,
      "author_association": "MEMBER",
      "body": "ACK fc6c17b83887ef193f2b97264b1843c94dcb915d",
      "user": {
        "login": "fanquake",
        "id": 863730,
        "node_id": "MDQ6VXNlcjg2MzczMA==",
        "avatar_url": "https://avatars.githubusercontent.com/u/863730?v=4",
        "gravatar_id": "",
        "url": "https://api.github.com/users/fanquake",
        "html_url": "https://github.com/fanquake",
        "followers_url": "https://api.github.com/users/fanquake/followers",
        "following_url": "https://api.github.com/users/fanquake/following%7B/other_user%7D",
        "gists_url": "https://api.github.com/users/fanquake/gists%7B/gist_id%7D",
        "starred_url": "https://api.github.com/users/fanquake/starred%7B/owner%7D%7B/repo%7D",
        "subscriptions_url": "https://api.github.com/users/fanquake/subscriptions",
        "organizations_url": "https://api.github.com/users/fanquake/orgs",
        "repos_url": "https://api.github.com/users/fanquake/repos",
        "events_url": "https://api.github.com/users/fanquake/events%7B/privacy%7D",
        "received_events_url": "https://api.github.com/users/fanquake/received_events",
        "type": "User",
        "site_admin": false
      },
      "html_url": "https://github.com/bitcoin/bitcoin/pull/27875#pullrequestreview-1483052615",
      "submitted_at": "2023-06-16T09:06:30Z",
      "state": "APPROVED",
      "pull_request_url": "https://api.github.com/repos/bitcoin/bitcoin/pulls/27875"
    },
    {
      "event": "merged",
      "id": 9549615029,
      "node_id": "ME_lADOABII585omLyjzwAAAAI5M4-1",
      "url": "https://api.github.com/repos/bitcoin/bitcoin/issues/events/9549615029",
      "actor": {
        "login": "fanquake",
        "id": 863730,
        "node_id": "MDQ6VXNlcjg2MzczMA==",
        "avatar_url": "https://avatars.githubusercontent.com/u/863730?v=4",
        "gravatar_id": "",
        "url": "https://api.github.com/users/fanquake",
        "html_url": "https://github.com/fanquake",
        "followers_url": "https://api.github.com/users/fanquake/followers",
        "following_url": "https://api.github.com/users/fanquake/following%7B/other_user%7D",
        "gists_url": "https://api.github.com/users/fanquake/gists%7B/gist_id%7D",
        "starred_url": "https://api.github.com/users/fanquake/starred%7B/owner%7D%7B/repo%7D",
        "subscriptions_url": "https://api.github.com/users/fanquake/subscriptions",
        "organizations_url": "https://api.github.com/users/fanquake/orgs",
        "repos_url": "https://api.github.com/users/fanquake/repos",
        "events_url": "https://api.github.com/users/fanquake/events%7B/privacy%7D",
        "received_events_url": "https://api.github.com/users/fanquake/received_events",
        "type": "User",
        "site_admin": false
      },
      "commit_id": "1ecdf6ea8fb6dc1d64f41323a1e337beb174c25b",
      "commit_url": "https://api.github.com/repos/bitcoin/bitcoin/commits/1ecdf6ea8fb6dc1d64f41323a1e337beb174c25b",
      "created_at": "2023-06-16T10:03:17Z"
    },
    {
      "event": "closed",
      "id": 9549615084,
      "node_id": "CE_lADOABII585omLyjzwAAAAI5M4_s",
      "url": "https://api.github.com/repos/bitcoin/bitcoin/issues/events/9549615084",
      "actor": {
        "login": "fanquake",
        "id": 863730,
        "node_id": "MDQ6VXNlcjg2MzczMA==",
        "avatar_url": "https://avatars.githubusercontent.com/u/863730?v=4",
        "gravatar_id": "",
        "url": "https://api.github.com/users/fanquake",
        "html_url": "https://github.com/fanquake",
        "followers_url": "https://api.github.com/users/fanquake/followers",
        "following_url": "https://api.github.com/users/fanquake/following%7B/other_user%7D",
        "gists_url": "https://api.github.com/users/fanquake/gists%7B/gist_id%7D",
        "starred_url": "https://api.github.com/users/fanquake/starred%7B/owner%7D%7B/repo%7D",
        "subscriptions_url": "https://api.github.com/users/fanquake/subscriptions",
        "organizations_url": "https://api.github.com/users/fanquake/orgs",
        "repos_url": "https://api.github.com/users/fanquake/repos",
        "events_url": "https://api.github.com/users/fanquake/events%7B/privacy%7D",
        "received_events_url": "https://api.github.com/users/fanquake/received_events",
        "type": "User",
        "site_admin": false
      },
      "commit_id": null,
      "commit_url": null,
      "created_at": "2023-06-16T10:03:17Z"
    },
    {
      "event": "head_ref_deleted",
      "id": 9557991900,
      "node_id": "HRDE_lADOABII585omLyjzwAAAAI5s2Hc",
      "url": "https://api.github.com/repos/bitcoin/bitcoin/issues/events/9557991900",
      "actor": {
        "login": "0xB10C",
        "id": 19157360,
        "node_id": "MDQ6VXNlcjE5MTU3MzYw",
        "avatar_url": "https://avatars.githubusercontent.com/u/19157360?v=4",
        "gravatar_id": "",
        "url": "https://api.github.com/users/0xB10C",
        "html_url": "https://github.com/0xB10C",
        "followers_url": "https://api.github.com/users/0xB10C/followers",
        "following_url": "https://api.github.com/users/0xB10C/following%7B/other_user%7D",
        "gists_url": "https://api.github.com/users/0xB10C/gists%7B/gist_id%7D",
        "starred_url": "https://api.github.com/users/0xB10C/starred%7B/owner%7D%7B/repo%7D",
        "subscriptions_url": "https://api.github.com/users/0xB10C/subscriptions",
        "organizations_url": "https://api.github.com/users/0xB10C/orgs",
        "repos_url": "https://api.github.com/users/0xB10C/repos",
        "events_url": "https://api.github.com/users/0xB10C/events%7B/privacy%7D",
        "received_events_url": "https://api.github.com/users/0xB10C/received_events",
        "type": "User",
        "site_admin": false
      },
      "commit_id": null,
      "commit_url": null,
      "created_at": "2023-06-17T07:33:34Z"
    },
    {
      "event": "referenced",
      "id": 9570547502,
      "node_id": "REFE_lADOABII585omLyjzwAAAAI6cvcu",
      "url": "https://api.github.com/repos/bitcoin/bitcoin/issues/events/9570547502",
      "actor": {
        "login": "sidhujag",
        "id": 6238042,
        "node_id": "MDQ6VXNlcjYyMzgwNDI=",
        "avatar_url": "https://avatars.githubusercontent.com/u/6238042?v=4",
        "gravatar_id": "",
        "url": "https://api.github.com/users/sidhujag",
        "html_url": "https://github.com/sidhujag",
        "followers_url": "https://api.github.com/users/sidhujag/followers",
        "following_url": "https://api.github.com/users/sidhujag/following%7B/other_user%7D",
        "gists_url": "https://api.github.com/users/sidhujag/gists%7B/gist_id%7D",
        "starred_url": "https://api.github.com/users/sidhujag/starred%7B/owner%7D%7B/repo%7D",
        "subscriptions_url": "https://api.github.com/users/sidhujag/subscriptions",
        "organizations_url": "https://api.github.com/users/sidhujag/orgs",
        "repos_url": "https://api.github.com/users/sidhujag/repos",
        "events_url": "https://api.github.com/users/sidhujag/events%7B/privacy%7D",
        "received_events_url": "https://api.github.com/users/sidhujag/received_events",
        "type": "User",
        "site_admin": false
      },
      "commit_id": "f11de516d99f9a6b839146ae241a47a923a73d64",
      "commit_url": "https://api.github.com/repos/syscoin/syscoin/commits/f11de516d99f9a6b839146ae241a47a923a73d64",
      "created_at": "2023-06-19T16:51:00Z"
    },
    {
      "event": "commented",
      "id": 1605521570,
      "node_id": "IC_kwDOABII585fslCi",
      "url": "https://api.github.com/repos/bitcoin/bitcoin/issues/comments/1605521570",
      "actor": {
        "login": "luke-jr",
        "id": 1095675,
        "node_id": "MDQ6VXNlcjEwOTU2NzU=",
        "avatar_url": "https://avatars.githubusercontent.com/u/1095675?v=4",
        "gravatar_id": "",
        "url": "https://api.github.com/users/luke-jr",
        "html_url": "https://github.com/luke-jr",
        "followers_url": "https://api.github.com/users/luke-jr/followers",
        "following_url": "https://api.github.com/users/luke-jr/following%7B/other_user%7D",
        "gists_url": "https://api.github.com/users/luke-jr/gists%7B/gist_id%7D",
        "starred_url": "https://api.github.com/users/luke-jr/starred%7B/owner%7D%7B/repo%7D",
        "subscriptions_url": "https://api.github.com/users/luke-jr/subscriptions",
        "organizations_url": "https://api.github.com/users/luke-jr/orgs",
        "repos_url": "https://api.github.com/users/luke-jr/repos",
        "events_url": "https://api.github.com/users/luke-jr/events%7B/privacy%7D",
        "received_events_url": "https://api.github.com/users/luke-jr/received_events",
        "type": "User",
        "site_admin": false
      },
      "commit_id": null,
      "commit_url": null,
      "created_at": "2023-06-24T14:04:46Z",
      "updated_at": "2023-06-24T14:04:46Z",
      "author_association": "MEMBER",
      "body": "late nits:\r\n*it may be a security issue to grant access to the group\r\n*if autoreconf uses symlinks, chmod will fail too\r\n\r\nBetter would be to just delete the current files first.",
      "user": {
        "login": "luke-jr",
        "id": 1095675,
        "node_id": "MDQ6VXNlcjEwOTU2NzU=",
        "avatar_url": "https://avatars.githubusercontent.com/u/1095675?v=4",
        "gravatar_id": "",
        "url": "https://api.github.com/users/luke-jr",
        "html_url": "https://github.com/luke-jr",
        "followers_url": "https://api.github.com/users/luke-jr/followers",
        "following_url": "https://api.github.com/users/luke-jr/following%7B/other_user%7D",
        "gists_url": "https://api.github.com/users/luke-jr/gists%7B/gist_id%7D",
        "starred_url": "https://api.github.com/users/luke-jr/starred%7B/owner%7D%7B/repo%7D",
        "subscriptions_url": "https://api.github.com/users/luke-jr/subscriptions",
        "organizations_url": "https://api.github.com/users/luke-jr/orgs",
        "repos_url": "https://api.github.com/users/luke-jr/repos",
        "events_url": "https://api.github.com/users/luke-jr/events%7B/privacy%7D",
        "received_events_url": "https://api.github.com/users/luke-jr/received_events",
        "type": "User",
        "site_admin": false
      },
      "html_url": "https://github.com/bitcoin/bitcoin/pull/27875#issuecomment-1605521570",
      "issue_url": "https://api.github.com/repos/bitcoin/bitcoin/issues/27875"
    }
  ],
  "comments": []
}