{
  "type": "pull",
  "pull": {
    "url": "https://api.github.com/repos/bitcoin/bitcoin/pulls/27896",
    "id": 1395397871,
    "node_id": "PR_kwDOABII585TLBTv",
    "html_url": "https://github.com/bitcoin/bitcoin/pull/27896",
    "diff_url": "https://github.com/bitcoin/bitcoin/pull/27896.diff",
    "patch_url": "https://github.com/bitcoin/bitcoin/pull/27896.patch",
    "issue_url": "https://api.github.com/repos/bitcoin/bitcoin/issues/27896",
    "commits_url": "https://api.github.com/repos/bitcoin/bitcoin/pulls/27896/commits",
    "review_comments_url": "https://api.github.com/repos/bitcoin/bitcoin/pulls/27896/comments",
    "review_comment_url": "https://api.github.com/repos/bitcoin/bitcoin/pulls/comments%7B/number%7D",
    "comments_url": "https://api.github.com/repos/bitcoin/bitcoin/issues/27896/comments",
    "statuses_url": "https://api.github.com/repos/bitcoin/bitcoin/statuses/32e2ffc39374f61bb2435da507f285459985df9e",
    "number": 27896,
    "state": "closed",
    "locked": false,
    "maintainer_can_modify": false,
    "title": "Remove the syscall sandbox",
    "user": {
      "login": "fanquake",
      "id": 863730,
      "node_id": "MDQ6VXNlcjg2MzczMA==",
      "avatar_url": "https://avatars.githubusercontent.com/u/863730?v=4",
      "gravatar_id": "",
      "url": "https://api.github.com/users/fanquake",
      "html_url": "https://github.com/fanquake",
      "followers_url": "https://api.github.com/users/fanquake/followers",
      "following_url": "https://api.github.com/users/fanquake/following%7B/other_user%7D",
      "gists_url": "https://api.github.com/users/fanquake/gists%7B/gist_id%7D",
      "starred_url": "https://api.github.com/users/fanquake/starred%7B/owner%7D%7B/repo%7D",
      "subscriptions_url": "https://api.github.com/users/fanquake/subscriptions",
      "organizations_url": "https://api.github.com/users/fanquake/orgs",
      "repos_url": "https://api.github.com/users/fanquake/repos",
      "events_url": "https://api.github.com/users/fanquake/events%7B/privacy%7D",
      "received_events_url": "https://api.github.com/users/fanquake/received_events",
      "type": "User",
      "site_admin": false
    },
    "body": "After initially being merged in #20487, it's no-longer clear that an internal syscall sandboxing mechanism is something that Bitcoin Core should have/maintain, especially when compared to better maintained/supported alterantives, i.e [firejail](https://github.com/netblue30/firejail).\r\n\r\nThere is more related discussion in #24771.\r\n\r\nNote that given where it's used, the sandbox also gets dragged into the kernel.\r\n\r\nIf it's removed, this should not require any sort of deprecation, as this was only ever an opt-in, experimental feature.\r\n\r\nCloses #24771.",
    "labels": [
      {
        "id": 64584,
        "node_id": "MDU6TGFiZWw2NDU4NA==",
        "url": "https://api.github.com/repos/bitcoin/bitcoin/labels/Brainstorming",
        "name": "Brainstorming",
        "color": "ebd775",
        "default": false
      },
      {
        "id": 234878,
        "node_id": "MDU6TGFiZWwyMzQ4Nzg=",
        "url": "https://api.github.com/repos/bitcoin/bitcoin/labels/Linux/Unix",
        "name": "Linux/Unix",
        "color": "770000",
        "default": false
      }
    ],
    "created_at": "2023-06-16T09:41:43Z",
    "updated_at": "2023-06-28T10:15:20Z",
    "closed_at": "2023-06-27T22:19:34Z",
    "mergeable_state": "unknown",
    "merged_at": "2023-06-27T22:19:33Z",
    "merge_commit_sha": "caff95a0237facddb46fbbdf87e31ff6294b8c70",
    "assignees": [],
    "requested_reviewers": [],
    "requested_teams": [],
    "head": {
      "label": "fanquake:remove_syscall_sandbox",
      "ref": "remove_syscall_sandbox",
      "sha": "32e2ffc39374f61bb2435da507f285459985df9e",
      "user": {
        "login": "fanquake",
        "id": 863730,
        "node_id": "MDQ6VXNlcjg2MzczMA==",
        "avatar_url": "https://avatars.githubusercontent.com/u/863730?v=4",
        "gravatar_id": "",
        "url": "https://api.github.com/users/fanquake",
        "html_url": "https://github.com/fanquake",
        "followers_url": "https://api.github.com/users/fanquake/followers",
        "following_url": "https://api.github.com/users/fanquake/following%7B/other_user%7D",
        "gists_url": "https://api.github.com/users/fanquake/gists%7B/gist_id%7D",
        "starred_url": "https://api.github.com/users/fanquake/starred%7B/owner%7D%7B/repo%7D",
        "subscriptions_url": "https://api.github.com/users/fanquake/subscriptions",
        "organizations_url": "https://api.github.com/users/fanquake/orgs",
        "repos_url": "https://api.github.com/users/fanquake/repos",
        "events_url": "https://api.github.com/users/fanquake/events%7B/privacy%7D",
        "received_events_url": "https://api.github.com/users/fanquake/received_events",
        "type": "User",
        "site_admin": false
      },
      "repo": {
        "id": 5910539,
        "node_id": "MDEwOlJlcG9zaXRvcnk1OTEwNTM5",
        "name": "bitcoin",
        "full_name": "fanquake/bitcoin",
        "owner": {
          "login": "fanquake",
          "id": 863730,
          "node_id": "MDQ6VXNlcjg2MzczMA==",
          "avatar_url": "https://avatars.githubusercontent.com/u/863730?v=4",
          "gravatar_id": "",
          "url": "https://api.github.com/users/fanquake",
          "html_url": "https://github.com/fanquake",
          "followers_url": "https://api.github.com/users/fanquake/followers",
          "following_url": "https://api.github.com/users/fanquake/following%7B/other_user%7D",
          "gists_url": "https://api.github.com/users/fanquake/gists%7B/gist_id%7D",
          "starred_url": "https://api.github.com/users/fanquake/starred%7B/owner%7D%7B/repo%7D",
          "subscriptions_url": "https://api.github.com/users/fanquake/subscriptions",
          "organizations_url": "https://api.github.com/users/fanquake/orgs",
          "repos_url": "https://api.github.com/users/fanquake/repos",
          "events_url": "https://api.github.com/users/fanquake/events%7B/privacy%7D",
          "received_events_url": "https://api.github.com/users/fanquake/received_events",
          "type": "User",
          "site_admin": false
        },
        "private": false,
        "html_url": "https://github.com/fanquake/bitcoin",
        "description": "Bitcoin integration/staging tree",
        "fork": true,
        "url": "https://api.github.com/repos/fanquake/bitcoin",
        "archive_url": "https://api.github.com/repos/fanquake/bitcoin/%7Barchive_format%7D%7B/ref%7D",
        "assignees_url": "https://api.github.com/repos/fanquake/bitcoin/assignees%7B/user%7D",
        "blobs_url": "https://api.github.com/repos/fanquake/bitcoin/git/blobs%7B/sha%7D",
        "branches_url": "https://api.github.com/repos/fanquake/bitcoin/branches%7B/branch%7D",
        "collaborators_url": "https://api.github.com/repos/fanquake/bitcoin/collaborators%7B/collaborator%7D",
        "comments_url": "https://api.github.com/repos/fanquake/bitcoin/comments%7B/number%7D",
        "commits_url": "https://api.github.com/repos/fanquake/bitcoin/commits%7B/sha%7D",
        "compare_url": "https://api.github.com/repos/fanquake/bitcoin/compare/%7Bbase%7D...%7Bhead%7D",
        "contents_url": "https://api.github.com/repos/fanquake/bitcoin/contents/%7B+path%7D",
        "contributors_url": "https://api.github.com/repos/fanquake/bitcoin/contributors",
        "deployments_url": "https://api.github.com/repos/fanquake/bitcoin/deployments",
        "downloads_url": "https://api.github.com/repos/fanquake/bitcoin/downloads",
        "events_url": "https://api.github.com/repos/fanquake/bitcoin/events",
        "forks_url": "https://api.github.com/repos/fanquake/bitcoin/forks",
        "git_commits_url": "https://api.github.com/repos/fanquake/bitcoin/git/commits%7B/sha%7D",
        "git_refs_url": "https://api.github.com/repos/fanquake/bitcoin/git/refs%7B/sha%7D",
        "git_tags_url": "https://api.github.com/repos/fanquake/bitcoin/git/tags%7B/sha%7D",
        "git_url": "git://github.com/fanquake/bitcoin.git",
        "issue_comment_url": "https://api.github.com/repos/fanquake/bitcoin/issues/comments%7B/number%7D",
        "issue_events_url": "https://api.github.com/repos/fanquake/bitcoin/issues/events%7B/number%7D",
        "issues_url": "https://api.github.com/repos/fanquake/bitcoin/issues%7B/number%7D",
        "keys_url": "https://api.github.com/repos/fanquake/bitcoin/keys%7B/key_id%7D",
        "labels_url": "https://api.github.com/repos/fanquake/bitcoin/labels%7B/name%7D",
        "languages_url": "https://api.github.com/repos/fanquake/bitcoin/languages",
        "merges_url": "https://api.github.com/repos/fanquake/bitcoin/merges",
        "milestones_url": "https://api.github.com/repos/fanquake/bitcoin/milestones%7B/number%7D",
        "notifications_url": "https://api.github.com/repos/fanquake/bitcoin/notifications%7B?since,all,participating}",
        "pulls_url": "https://api.github.com/repos/fanquake/bitcoin/pulls%7B/number%7D",
        "releases_url": "https://api.github.com/repos/fanquake/bitcoin/releases%7B/id%7D",
        "ssh_url": "git@github.com:fanquake/bitcoin.git",
        "stargazers_url": "https://api.github.com/repos/fanquake/bitcoin/stargazers",
        "statuses_url": "https://api.github.com/repos/fanquake/bitcoin/statuses/%7Bsha%7D",
        "subscribers_url": "https://api.github.com/repos/fanquake/bitcoin/subscribers",
        "subscription_url": "https://api.github.com/repos/fanquake/bitcoin/subscription",
        "tags_url": "https://api.github.com/repos/fanquake/bitcoin/tags",
        "teams_url": "https://api.github.com/repos/fanquake/bitcoin/teams",
        "trees_url": "https://api.github.com/repos/fanquake/bitcoin/git/trees%7B/sha%7D",
        "clone_url": "https://github.com/fanquake/bitcoin.git",
        "hooks_url": "https://api.github.com/repos/fanquake/bitcoin/hooks",
        "svn_url": "https://github.com/fanquake/bitcoin",
        "homepage": "http://www.bitcoincore.org",
        "language": "C++",
        "forks_count": 5,
        "stargazers_count": 13,
        "watchers_count": 13,
        "size": 215355,
        "default_branch": "master",
        "open_issues_count": 0,
        "is_template": false,
        "topics": [],
        "has_issues": false,
        "has_projects": false,
        "has_wiki": false,
        "has_pages": false,
        "has_downloads": false,
        "archived": false,
        "disabled": false,
        "visibility": "public",
        "pushed_at": "2023-08-02T12:28:14Z",
        "created_at": "2012-09-22T05:28:42Z",
        "updated_at": "2023-04-27T19:34:01Z",
        "license": {
          "key": "mit",
          "name": "MIT License",
          "node_id": "MDc6TGljZW5zZTEz",
          "spdx_id": "MIT",
          "url": "https://api.github.com/licenses/mit",
          "html_url": null,
          "description": null,
          "implementation": null,
          "permissions": null,
          "conditions": null,
          "limitations": null,
          "body": null,
          "featured": null
        }
      }
    },
    "base": {
      "label": "bitcoin:master",
      "ref": "master",
      "sha": "b3db18a0126bc4181d2a0880c27f45d203d06179",
      "user": {
        "login": "bitcoin",
        "id": 528860,
        "node_id": "MDEyOk9yZ2FuaXphdGlvbjUyODg2MA==",
        "avatar_url": "https://avatars.githubusercontent.com/u/528860?v=4",
        "gravatar_id": "",
        "url": "https://api.github.com/users/bitcoin",
        "html_url": "https://github.com/bitcoin",
        "followers_url": "https://api.github.com/users/bitcoin/followers",
        "following_url": "https://api.github.com/users/bitcoin/following%7B/other_user%7D",
        "gists_url": "https://api.github.com/users/bitcoin/gists%7B/gist_id%7D",
        "starred_url": "https://api.github.com/users/bitcoin/starred%7B/owner%7D%7B/repo%7D",
        "subscriptions_url": "https://api.github.com/users/bitcoin/subscriptions",
        "organizations_url": "https://api.github.com/users/bitcoin/orgs",
        "repos_url": "https://api.github.com/users/bitcoin/repos",
        "events_url": "https://api.github.com/users/bitcoin/events%7B/privacy%7D",
        "received_events_url": "https://api.github.com/users/bitcoin/received_events",
        "type": "Organization",
        "site_admin": false
      },
      "repo": {
        "id": 1181927,
        "node_id": "MDEwOlJlcG9zaXRvcnkxMTgxOTI3",
        "name": "bitcoin",
        "full_name": "bitcoin/bitcoin",
        "owner": {
          "login": "bitcoin",
          "id": 528860,
          "node_id": "MDEyOk9yZ2FuaXphdGlvbjUyODg2MA==",
          "avatar_url": "https://avatars.githubusercontent.com/u/528860?v=4",
          "gravatar_id": "",
          "url": "https://api.github.com/users/bitcoin",
          "html_url": "https://github.com/bitcoin",
          "followers_url": "https://api.github.com/users/bitcoin/followers",
          "following_url": "https://api.github.com/users/bitcoin/following%7B/other_user%7D",
          "gists_url": "https://api.github.com/users/bitcoin/gists%7B/gist_id%7D",
          "starred_url": "https://api.github.com/users/bitcoin/starred%7B/owner%7D%7B/repo%7D",
          "subscriptions_url": "https://api.github.com/users/bitcoin/subscriptions",
          "organizations_url": "https://api.github.com/users/bitcoin/orgs",
          "repos_url": "https://api.github.com/users/bitcoin/repos",
          "events_url": "https://api.github.com/users/bitcoin/events%7B/privacy%7D",
          "received_events_url": "https://api.github.com/users/bitcoin/received_events",
          "type": "Organization",
          "site_admin": false
        },
        "private": false,
        "html_url": "https://github.com/bitcoin/bitcoin",
        "description": "Bitcoin Core integration/staging tree",
        "fork": false,
        "url": "https://api.github.com/repos/bitcoin/bitcoin",
        "archive_url": "https://api.github.com/repos/bitcoin/bitcoin/%7Barchive_format%7D%7B/ref%7D",
        "assignees_url": "https://api.github.com/repos/bitcoin/bitcoin/assignees%7B/user%7D",
        "blobs_url": "https://api.github.com/repos/bitcoin/bitcoin/git/blobs%7B/sha%7D",
        "branches_url": "https://api.github.com/repos/bitcoin/bitcoin/branches%7B/branch%7D",
        "collaborators_url": "https://api.github.com/repos/bitcoin/bitcoin/collaborators%7B/collaborator%7D",
        "comments_url": "https://api.github.com/repos/bitcoin/bitcoin/comments%7B/number%7D",
        "commits_url": "https://api.github.com/repos/bitcoin/bitcoin/commits%7B/sha%7D",
        "compare_url": "https://api.github.com/repos/bitcoin/bitcoin/compare/%7Bbase%7D...%7Bhead%7D",
        "contents_url": "https://api.github.com/repos/bitcoin/bitcoin/contents/%7B+path%7D",
        "contributors_url": "https://api.github.com/repos/bitcoin/bitcoin/contributors",
        "deployments_url": "https://api.github.com/repos/bitcoin/bitcoin/deployments",
        "downloads_url": "https://api.github.com/repos/bitcoin/bitcoin/downloads",
        "events_url": "https://api.github.com/repos/bitcoin/bitcoin/events",
        "forks_url": "https://api.github.com/repos/bitcoin/bitcoin/forks",
        "git_commits_url": "https://api.github.com/repos/bitcoin/bitcoin/git/commits%7B/sha%7D",
        "git_refs_url": "https://api.github.com/repos/bitcoin/bitcoin/git/refs%7B/sha%7D",
        "git_tags_url": "https://api.github.com/repos/bitcoin/bitcoin/git/tags%7B/sha%7D",
        "git_url": "git://github.com/bitcoin/bitcoin.git",
        "issue_comment_url": "https://api.github.com/repos/bitcoin/bitcoin/issues/comments%7B/number%7D",
        "issue_events_url": "https://api.github.com/repos/bitcoin/bitcoin/issues/events%7B/number%7D",
        "issues_url": "https://api.github.com/repos/bitcoin/bitcoin/issues%7B/number%7D",
        "keys_url": "https://api.github.com/repos/bitcoin/bitcoin/keys%7B/key_id%7D",
        "labels_url": "https://api.github.com/repos/bitcoin/bitcoin/labels%7B/name%7D",
        "languages_url": "https://api.github.com/repos/bitcoin/bitcoin/languages",
        "merges_url": "https://api.github.com/repos/bitcoin/bitcoin/merges",
        "milestones_url": "https://api.github.com/repos/bitcoin/bitcoin/milestones%7B/number%7D",
        "notifications_url": "https://api.github.com/repos/bitcoin/bitcoin/notifications%7B?since,all,participating}",
        "pulls_url": "https://api.github.com/repos/bitcoin/bitcoin/pulls%7B/number%7D",
        "releases_url": "https://api.github.com/repos/bitcoin/bitcoin/releases%7B/id%7D",
        "ssh_url": "git@github.com:bitcoin/bitcoin.git",
        "stargazers_url": "https://api.github.com/repos/bitcoin/bitcoin/stargazers",
        "statuses_url": "https://api.github.com/repos/bitcoin/bitcoin/statuses/%7Bsha%7D",
        "subscribers_url": "https://api.github.com/repos/bitcoin/bitcoin/subscribers",
        "subscription_url": "https://api.github.com/repos/bitcoin/bitcoin/subscription",
        "tags_url": "https://api.github.com/repos/bitcoin/bitcoin/tags",
        "teams_url": "https://api.github.com/repos/bitcoin/bitcoin/teams",
        "trees_url": "https://api.github.com/repos/bitcoin/bitcoin/git/trees%7B/sha%7D",
        "clone_url": "https://github.com/bitcoin/bitcoin.git",
        "hooks_url": "https://api.github.com/repos/bitcoin/bitcoin/hooks",
        "svn_url": "https://github.com/bitcoin/bitcoin",
        "homepage": "https://bitcoincore.org/en/download",
        "language": "C++",
        "forks_count": 35476,
        "stargazers_count": 70608,
        "watchers_count": 70608,
        "size": 236222,
        "default_branch": "master",
        "open_issues_count": 673,
        "is_template": false,
        "topics": [
          "bitcoin",
          "c-plus-plus",
          "cryptocurrency",
          "cryptography",
          "p2p"
        ],
        "has_issues": true,
        "has_projects": true,
        "has_wiki": false,
        "has_pages": false,
        "has_downloads": false,
        "archived": false,
        "disabled": false,
        "visibility": "public",
        "pushed_at": "2023-08-03T00:03:27Z",
        "created_at": "2010-12-19T15:16:43Z",
        "updated_at": "2023-08-02T18:21:18Z",
        "license": {
          "key": "mit",
          "name": "MIT License",
          "node_id": "MDc6TGljZW5zZTEz",
          "spdx_id": "MIT",
          "url": "https://api.github.com/licenses/mit",
          "html_url": null,
          "description": null,
          "implementation": null,
          "permissions": null,
          "conditions": null,
          "limitations": null,
          "body": null,
          "featured": null
        }
      }
    },
    "_links": {
      "self": {
        "href": "https://api.github.com/repos/bitcoin/bitcoin/pulls/27896"
      }
    },
    "author_association": "MEMBER",
    "draft": false,
    "additions": 5,
    "deletions": 1175,
    "changed_files": 28,
    "commits": 1,
    "review_comments": 0,
    "comments": 6
  },
  "events": [
    {
      "event": "committed",
      "id": null,
      "node_id": "C_kwDOABII59oAKDMyZTJmZmMzOTM3NGY2MWJiMjQzNWRhNTA3ZjI4NTQ1OTk4NWRmOWU",
      "url": "https://api.github.com/repos/bitcoin/bitcoin/git/commits/32e2ffc39374f61bb2435da507f285459985df9e",
      "actor": null,
      "commit_id": null,
      "commit_url": null,
      "created_at": null,
      "html_url": "https://github.com/bitcoin/bitcoin/commit/32e2ffc39374f61bb2435da507f285459985df9e",
      "tree": {
        "sha": "44103a701bd14b0c77163db5d557215d40842210",
        "url": "https://api.github.com/repos/bitcoin/bitcoin/git/trees/44103a701bd14b0c77163db5d557215d40842210"
      },
      "verification": {
        "verified": true,
        "reason": "valid",
        "payload": "tree 44103a701bd14b0c77163db5d557215d40842210\nparent b3db18a0126bc4181d2a0880c27f45d203d06179\nauthor fanquake <fanquake@gmail.com> 1683198446 +0100\ncommitter fanquake <fanquake@gmail.com> 1686908299 +0100\n\nRemove the syscall sandbox\n\nAfter initially being merged in #20487, it's no-longer clear that an\ninternal syscall sandboxing mechanism is something that Bitcoin Core\nshould have/maintain, especially when compared to better\nmaintained/supported alterantives, i.e firejail.\n\nNote that given where it's used, the sandbox also gets dragged into the\nkernel.\n\nThere is some related discussion in #24771.\n\nThis should not require any sort of deprecation, as this was only ever\nan opt-in, experimental feature.\n\nCloses #24771.\n",
        "signature": "-----BEGIN PGP SIGNATURE-----\n\niQIzBAABCAAdFiEEz7FuIclQ9n+pXlWPLuufXMCVJsEFAmSMLYwACgkQLuufXMCV\nJsEALA//adsEwmDJmEjUD6Edwa0XAyiNfU4RpCY6bB2LiJZx2TY47zdM9mAUswrJ\n7U2BT5k9YBzvpyMGfS14cYtovXYpzkCJlCmP3z91Cz5Br8gZwbZmKVn+5Dyo0eEM\n9Bw5V0PcYCuh5ATxC4K+eKOqrDVfNwaIjPK3PsmG5fJ31+W1GKu9sqPsmFzipgOT\nNaIIaWeaWnm5yUIh+8i2guC8K3wjS/aZ60cBqVz90B/eSkHyEQJiTCUnDd35Y2b+\nIzPbS0RBZ+HzRNzvx4VD62ENdkn8p0G7OIHgff5FgEQn9bbIDobUxe8Vo8XlhJk5\nIRErXKgXxfUL7DUfoReVrlZKswH9VMgXpfFUBrb3fGC1tv1Ng9ELqEl8I4QUvG1A\n9QHPJ11G2C0lpiRKHuoLPjZxSTAygUu5QcHxsNhtVDvaAQ61PWolDvk06uILLrF7\n1QH+gbZtjrzvfdCYN8dniFItf22DZRncgORoj99eKuM4fUUC+GLEdRnEvjIif+JA\nzzdGn8M4cGHgpf0CrtDFjpAceECTrMNtxbZ8NTcGmv8dBEGFhqa54NzuFQ1mUGHD\nB+V4ocCWOQAenpFrWVcJLerNM/pJCg4Fml2wT9BeyzvotQlSxQYm3Iw8xRw8mIZg\nu5MTKM0aXJdyMsgy3p3PkxwnzHiTFL41RizmhPKiKPXNx4BKsIw=\n=QeTo\n-----END PGP SIGNATURE-----"
      },
      "parents": [
        {
          "url": "https://api.github.com/repos/bitcoin/bitcoin/git/commits/b3db18a0126bc4181d2a0880c27f45d203d06179",
          "sha": "b3db18a0126bc4181d2a0880c27f45d203d06179",
          "html_url": "https://github.com/bitcoin/bitcoin/commit/b3db18a0126bc4181d2a0880c27f45d203d06179"
        }
      ],
      "message": "Remove the syscall sandbox\n\nAfter initially being merged in #20487, it's no-longer clear that an\ninternal syscall sandboxing mechanism is something that Bitcoin Core\nshould have/maintain, especially when compared to better\nmaintained/supported alterantives, i.e firejail.\n\nNote that given where it's used, the sandbox also gets dragged into the\nkernel.\n\nThere is some related discussion in #24771.\n\nThis should not require any sort of deprecation, as this was only ever\nan opt-in, experimental feature.\n\nCloses #24771.",
      "committer": {
        "name": "fanquake",
        "email": "fanquake@gmail.com",
        "date": "2023-06-16T09:38:19Z"
      },
      "author": {
        "name": "fanquake",
        "email": "fanquake@gmail.com",
        "date": "2023-05-04T11:07:26Z"
      },
      "sha": "32e2ffc39374f61bb2435da507f285459985df9e"
    },
    {
      "event": "labeled",
      "id": 9549420709,
      "node_id": "LE_lADOABII585o68YJzwAAAAI5MJil",
      "url": "https://api.github.com/repos/bitcoin/bitcoin/issues/events/9549420709",
      "actor": {
        "login": "fanquake",
        "id": 863730,
        "node_id": "MDQ6VXNlcjg2MzczMA==",
        "avatar_url": "https://avatars.githubusercontent.com/u/863730?v=4",
        "gravatar_id": "",
        "url": "https://api.github.com/users/fanquake",
        "html_url": "https://github.com/fanquake",
        "followers_url": "https://api.github.com/users/fanquake/followers",
        "following_url": "https://api.github.com/users/fanquake/following%7B/other_user%7D",
        "gists_url": "https://api.github.com/users/fanquake/gists%7B/gist_id%7D",
        "starred_url": "https://api.github.com/users/fanquake/starred%7B/owner%7D%7B/repo%7D",
        "subscriptions_url": "https://api.github.com/users/fanquake/subscriptions",
        "organizations_url": "https://api.github.com/users/fanquake/orgs",
        "repos_url": "https://api.github.com/users/fanquake/repos",
        "events_url": "https://api.github.com/users/fanquake/events%7B/privacy%7D",
        "received_events_url": "https://api.github.com/users/fanquake/received_events",
        "type": "User",
        "site_admin": false
      },
      "commit_id": null,
      "commit_url": null,
      "created_at": "2023-06-16T09:41:43Z",
      "label": {
        "name": "Brainstorming",
        "color": "ebd775"
      }
    },
    {
      "event": "labeled",
      "id": 9549420719,
      "node_id": "LE_lADOABII585o68YJzwAAAAI5MJiv",
      "url": "https://api.github.com/repos/bitcoin/bitcoin/issues/events/9549420719",
      "actor": {
        "login": "fanquake",
        "id": 863730,
        "node_id": "MDQ6VXNlcjg2MzczMA==",
        "avatar_url": "https://avatars.githubusercontent.com/u/863730?v=4",
        "gravatar_id": "",
        "url": "https://api.github.com/users/fanquake",
        "html_url": "https://github.com/fanquake",
        "followers_url": "https://api.github.com/users/fanquake/followers",
        "following_url": "https://api.github.com/users/fanquake/following%7B/other_user%7D",
        "gists_url": "https://api.github.com/users/fanquake/gists%7B/gist_id%7D",
        "starred_url": "https://api.github.com/users/fanquake/starred%7B/owner%7D%7B/repo%7D",
        "subscriptions_url": "https://api.github.com/users/fanquake/subscriptions",
        "organizations_url": "https://api.github.com/users/fanquake/orgs",
        "repos_url": "https://api.github.com/users/fanquake/repos",
        "events_url": "https://api.github.com/users/fanquake/events%7B/privacy%7D",
        "received_events_url": "https://api.github.com/users/fanquake/received_events",
        "type": "User",
        "site_admin": false
      },
      "commit_id": null,
      "commit_url": null,
      "created_at": "2023-06-16T09:41:43Z",
      "label": {
        "name": "Linux/Unix",
        "color": "770000"
      }
    },
    {
      "event": "commented",
      "id": 1594410046,
      "node_id": "IC_kwDOABII585fCMQ-",
      "url": "https://api.github.com/repos/bitcoin/bitcoin/issues/comments/1594410046",
      "actor": {
        "login": "DrahtBot",
        "id": 39886733,
        "node_id": "MDQ6VXNlcjM5ODg2NzMz",
        "avatar_url": "https://avatars.githubusercontent.com/u/39886733?v=4",
        "gravatar_id": "",
        "url": "https://api.github.com/users/DrahtBot",
        "html_url": "https://github.com/DrahtBot",
        "followers_url": "https://api.github.com/users/DrahtBot/followers",
        "following_url": "https://api.github.com/users/DrahtBot/following%7B/other_user%7D",
        "gists_url": "https://api.github.com/users/DrahtBot/gists%7B/gist_id%7D",
        "starred_url": "https://api.github.com/users/DrahtBot/starred%7B/owner%7D%7B/repo%7D",
        "subscriptions_url": "https://api.github.com/users/DrahtBot/subscriptions",
        "organizations_url": "https://api.github.com/users/DrahtBot/orgs",
        "repos_url": "https://api.github.com/users/DrahtBot/repos",
        "events_url": "https://api.github.com/users/DrahtBot/events%7B/privacy%7D",
        "received_events_url": "https://api.github.com/users/DrahtBot/received_events",
        "type": "User",
        "site_admin": false
      },
      "commit_id": null,
      "commit_url": null,
      "created_at": "2023-06-16T09:41:46Z",
      "updated_at": "2023-06-28T00:06:40Z",
      "author_association": "CONTRIBUTOR",
      "body": "<!--e57a25ab6845829454e8d69fc972939a-->\n\nThe following sections might be updated with supplementary metadata relevant to reviewers and maintainers.\n\n<!--021abf342d371248e50ceaed478a90ca-->\n### Reviews\nSee [the guideline](https://github.com/bitcoin/bitcoin/blob/master/CONTRIBUTING.md#code-review) for information on the review process.\n| Type | Reviewers |\n| ---- | --------- |\n| ACK | [dergoegge](https://github.com/bitcoin/bitcoin/pull/27896#pullrequestreview-1497976492), [davidgumberg](https://github.com/bitcoin/bitcoin/pull/27896#issuecomment-1607998026), [achow101](https://github.com/bitcoin/bitcoin/pull/27896#issuecomment-1610264637) |\n| Concept ACK | [TheCharlatan](https://github.com/bitcoin/bitcoin/pull/27896#pullrequestreview-1483260287), [hebasto](https://github.com/bitcoin/bitcoin/pull/27896#issuecomment-1605396572) |\n\nIf your review is incorrectly listed, please react with 👎 to this comment and the bot will ignore it on the next update.\n<!--174a7506f384e20aa4161008e828411d-->\n### Conflicts\nReviewers, this pull request conflicts with the following ones:\n\n* [#27861](https://github.com/bitcoin/bitcoin/pull/27861) (kernel: Add interrupt class by TheCharlatan)\n* [#27854](https://github.com/bitcoin/bitcoin/pull/27854) ([WIP] add a stratum v2 template provider by ccdle12)\n* [#27607](https://github.com/bitcoin/bitcoin/pull/27607) (index: make startup more efficient by furszy)\n\nIf you consider this pull request important, please also help to review the conflicting pull requests. Ideally, start with the one that should be merged first.\n",
      "user": {
        "login": "DrahtBot",
        "id": 39886733,
        "node_id": "MDQ6VXNlcjM5ODg2NzMz",
        "avatar_url": "https://avatars.githubusercontent.com/u/39886733?v=4",
        "gravatar_id": "",
        "url": "https://api.github.com/users/DrahtBot",
        "html_url": "https://github.com/DrahtBot",
        "followers_url": "https://api.github.com/users/DrahtBot/followers",
        "following_url": "https://api.github.com/users/DrahtBot/following%7B/other_user%7D",
        "gists_url": "https://api.github.com/users/DrahtBot/gists%7B/gist_id%7D",
        "starred_url": "https://api.github.com/users/DrahtBot/starred%7B/owner%7D%7B/repo%7D",
        "subscriptions_url": "https://api.github.com/users/DrahtBot/subscriptions",
        "organizations_url": "https://api.github.com/users/DrahtBot/orgs",
        "repos_url": "https://api.github.com/users/DrahtBot/repos",
        "events_url": "https://api.github.com/users/DrahtBot/events%7B/privacy%7D",
        "received_events_url": "https://api.github.com/users/DrahtBot/received_events",
        "type": "User",
        "site_admin": false
      },
      "html_url": "https://github.com/bitcoin/bitcoin/pull/27896#issuecomment-1594410046",
      "issue_url": "https://api.github.com/repos/bitcoin/bitcoin/issues/27896"
    },
    {
      "event": "cross-referenced",
      "id": null,
      "node_id": null,
      "url": null,
      "actor": {
        "login": "DrahtBot",
        "id": 39886733,
        "node_id": "MDQ6VXNlcjM5ODg2NzMz",
        "avatar_url": "https://avatars.githubusercontent.com/u/39886733?v=4",
        "gravatar_id": "",
        "url": "https://api.github.com/users/DrahtBot",
        "html_url": "https://github.com/DrahtBot",
        "followers_url": "https://api.github.com/users/DrahtBot/followers",
        "following_url": "https://api.github.com/users/DrahtBot/following%7B/other_user%7D",
        "gists_url": "https://api.github.com/users/DrahtBot/gists%7B/gist_id%7D",
        "starred_url": "https://api.github.com/users/DrahtBot/starred%7B/owner%7D%7B/repo%7D",
        "subscriptions_url": "https://api.github.com/users/DrahtBot/subscriptions",
        "organizations_url": "https://api.github.com/users/DrahtBot/orgs",
        "repos_url": "https://api.github.com/users/DrahtBot/repos",
        "events_url": "https://api.github.com/users/DrahtBot/events%7B/privacy%7D",
        "received_events_url": "https://api.github.com/users/DrahtBot/received_events",
        "type": "User",
        "site_admin": false
      },
      "commit_id": null,
      "commit_url": null,
      "created_at": "2023-06-16T11:02:15Z",
      "updated_at": "2023-06-16T11:02:15Z",
      "source": {
        "issue": {
          "id": 1752750822,
          "node_id": "PR_kwDOABII585SxeMV",
          "url": "https://api.github.com/repos/bitcoin/bitcoin/issues/27861",
          "repository_url": "https://api.github.com/repos/bitcoin/bitcoin",
          "labels_url": "https://api.github.com/repos/bitcoin/bitcoin/issues/27861/labels%7B/name%7D",
          "comments_url": "https://api.github.com/repos/bitcoin/bitcoin/issues/27861/comments",
          "events_url": "https://api.github.com/repos/bitcoin/bitcoin/issues/27861/events",
          "html_url": "https://github.com/bitcoin/bitcoin/pull/27861",
          "number": 27861,
          "state": "closed",
          "state_reason": null,
          "title": "kernel: Rm ShutdownRequested and AbortNode from validation code.",
          "body": "Get rid of all `ShutdownRequested` calls in validation code by introducing an interrupt object that applications can use to cancel long-running kernel operations.\r\n\r\nReplace all `AbortNode` calls in validation code with new fatal error and flush error notifications so kernel applications can be notified about failures and choose how to handle them. \r\n\r\n---\r\n\r\nThis pull request is part of the `libbitcoinkernel` project https://github.com/bitcoin/bitcoin/issues/27587 https://github.com/orgs/bitcoin/projects/3 and more specifically its \"Step 2: Decouple most non-consensus code from libbitcoinkernel\".\r\n\r\nThe pull request mostly allows dropping the kernel dependency on shutdown.cpp. The only dependency left after this is a `StartShutdown` call which will be removed in followup PR https://github.com/bitcoin/bitcoin/pull/27711. This PR also drops the last reference to the `uiInterface` global in kernel code. The process of moving the `uiInterface` out of the kernel was started in https://github.com/bitcoin/bitcoin/pull/27636.\r\n\r\nThis pull request contains a subset of patches originally proposed in #27711. It will be part of a series of changes required to make handling of interrupts (or in other words the current shutdown procedure) in the kernel library more transparent and less reliable on global mutable state. The set of patches contained here was originally proposed by @ryanofsky [here](https://github.com/bitcoin/bitcoin/pull/27711#issuecomment-1580779869). ",
          "user": {
            "login": "TheCharlatan",
            "id": 8421793,
            "node_id": "MDQ6VXNlcjg0MjE3OTM=",
            "avatar_url": "https://avatars.githubusercontent.com/u/8421793?v=4",
            "gravatar_id": "",
            "url": "https://api.github.com/users/TheCharlatan",
            "html_url": "https://github.com/TheCharlatan",
            "followers_url": "https://api.github.com/users/TheCharlatan/followers",
            "following_url": "https://api.github.com/users/TheCharlatan/following%7B/other_user%7D",
            "gists_url": "https://api.github.com/users/TheCharlatan/gists%7B/gist_id%7D",
            "starred_url": "https://api.github.com/users/TheCharlatan/starred%7B/owner%7D%7B/repo%7D",
            "subscriptions_url": "https://api.github.com/users/TheCharlatan/subscriptions",
            "organizations_url": "https://api.github.com/users/TheCharlatan/orgs",
            "repos_url": "https://api.github.com/users/TheCharlatan/repos",
            "events_url": "https://api.github.com/users/TheCharlatan/events%7B/privacy%7D",
            "received_events_url": "https://api.github.com/users/TheCharlatan/received_events",
            "type": "User",
            "site_admin": false
          },
          "labels": [
            {
              "id": 118379652,
              "node_id": "MDU6TGFiZWwxMTgzNzk2NTI=",
              "url": "https://api.github.com/repos/bitcoin/bitcoin/labels/Validation",
              "name": "Validation",
              "color": "6060aa",
              "default": false
            }
          ],
          "assignees": [],
          "author_association": "CONTRIBUTOR",
          "locked": false,
          "comments": 17,
          "pull_request": {
            "url": "https://api.github.com/repos/bitcoin/bitcoin/pulls/27861",
            "html_url": "https://github.com/bitcoin/bitcoin/pull/27861",
            "diff_url": "https://github.com/bitcoin/bitcoin/pull/27861.diff",
            "patch_url": "https://github.com/bitcoin/bitcoin/pull/27861.patch"
          },
          "closed_at": "2023-07-06T21:07:43Z",
          "created_at": "2023-06-12T13:16:33Z",
          "updated_at": "2023-07-10T23:43:05Z"
        },
        "type": "issue"
      }
    },
    {
      "event": "cross-referenced",
      "id": null,
      "node_id": null,
      "url": null,
      "actor": {
        "login": "DrahtBot",
        "id": 39886733,
        "node_id": "MDQ6VXNlcjM5ODg2NzMz",
        "avatar_url": "https://avatars.githubusercontent.com/u/39886733?v=4",
        "gravatar_id": "",
        "url": "https://api.github.com/users/DrahtBot",
        "html_url": "https://github.com/DrahtBot",
        "followers_url": "https://api.github.com/users/DrahtBot/followers",
        "following_url": "https://api.github.com/users/DrahtBot/following%7B/other_user%7D",
        "gists_url": "https://api.github.com/users/DrahtBot/gists%7B/gist_id%7D",
        "starred_url": "https://api.github.com/users/DrahtBot/starred%7B/owner%7D%7B/repo%7D",
        "subscriptions_url": "https://api.github.com/users/DrahtBot/subscriptions",
        "organizations_url": "https://api.github.com/users/DrahtBot/orgs",
        "repos_url": "https://api.github.com/users/DrahtBot/repos",
        "events_url": "https://api.github.com/users/DrahtBot/events%7B/privacy%7D",
        "received_events_url": "https://api.github.com/users/DrahtBot/received_events",
        "type": "User",
        "site_admin": false
      },
      "commit_id": null,
      "commit_url": null,
      "created_at": "2023-06-16T11:06:11Z",
      "updated_at": "2023-06-16T11:06:11Z",
      "source": {
        "issue": {
          "id": 1751329317,
          "node_id": "PR_kwDOABII585SstkX",
          "url": "https://api.github.com/repos/bitcoin/bitcoin/issues/27854",
          "repository_url": "https://api.github.com/repos/bitcoin/bitcoin",
          "labels_url": "https://api.github.com/repos/bitcoin/bitcoin/issues/27854/labels%7B/name%7D",
          "comments_url": "https://api.github.com/repos/bitcoin/bitcoin/issues/27854/comments",
          "events_url": "https://api.github.com/repos/bitcoin/bitcoin/issues/27854/events",
          "html_url": "https://github.com/bitcoin/bitcoin/pull/27854",
          "number": 27854,
          "state": "open",
          "state_reason": null,
          "title": "[WIP] add a stratum v2 template provider",
          "body": "## Description\r\n                                                                                                                                                                                                                                               \r\nThis is a WIP/draft pull request seeking concept/approach ACK. The goal is to initiate discussion and gather feedback on the proposed changes to see if there is sufficient support for an ACK before finalizing an implementation.\r\n\r\nThis PR initially proposes the addition of a new thread and server to enable Bitcoin Core to run as a Sv2 TP (Stratum V2 Template Provider). This approach is the most direct and naive approach in regards to integrating into the Bitcoin architecture. It builds on https://github.com/bitcoin/bitcoin/pull/23049 but no longer uses the Rust library and implements the server and message de/serialization in C++.\r\n\r\nThis PR branch has been used for testing with the [SRI (Stratum V2 Reference Implementation)](https://github.com/stratum-mining/stratum), but it has been limited to regtest and some tests on testnet. This branch is considered far from complete.\r\n\r\n## Context\r\n\r\nStratum V2 is a proposed evolution of the stratum mining protocol, it has several benefits over its predecessor:\r\n\r\n- By default, it uses secure communication, which can protect against man-in-the-middle-attacks, e.g. [hashrate hijacking](https://braiins.com/blog/hashrate-robbery-stratum-v2-fixes-this-and-more)                                                           \r\n\r\n- It uses a binary protocol instead of JSON, optimizing data transfer between all parties\r\n\r\n- It allows miners/downstream connections to propose their own transaction sets to mining pools                                                                                                                                    \r\n\r\n- It can reduce occurrence of empty mined blocks\r\n\r\nLinks below for further reference:\r\n\r\n- Stratum V2 specification: https://github.com/stratum-mining/sv2-spec\r\n- SRI (Stratum V2 Reference Implementation): https://github.com/stratum-mining/stratum\r\n- Stratum V2 overview: https://stratumprotocol.org/\r\n\r\n## Motivation\r\n                                                                                                                                                                                                                  \r\nThe motivation for this PR and potential future work is to allow Bitcoin Core to run as a Sv2 TP. This will enable downstream Sv2 connections to be able to connect and receive/submit valid work over the Sv2 protocol.\r\n\r\nBelow is an outline of a few pros/cons regarding the Sv2 TP  in Bitcoin Core.\r\n\r\nPros:\r\n\r\n- Running Bitcoin Core with a config flag to enable the Sv2 TP could be arguably easier for adoption. A user would only need to be able to compile and run Bitcoin Core and its dependencies to be able to extract valid work and broadcast legitimate work over the Sv2 protocol\r\n\r\n- The Sv2 TP being as close as possible to the mempool and p2p network benefits downstream connections so that they can start new work quickly. The time between a node learning of a  new best block and then sending new work downstream should be as minimal as possible\r\n\r\n- Implementing the Sv2 TP in C++ means it should be (hopefully) easier for a wider range of contributors/reviewers to be able to maintain and build. The Sv2 TP only uses a small subset of messages from the entire Sv2 Rust library. Therefore, we realized that re-implementing a subset of the messages in C++ and implementing a server carries less external dependency risk and less architectural complexity\r\n\r\n- No additional external dependencies are required\r\n\r\nCons:\r\n\r\n- The Sv2 TP in core will need to be kept up to date with changes in the SRI, coordination would be required to prevent any potential versioning issues\r\n\r\n- Adds  another thread/sub-module that will need to access the mempool to build candidate blocks, so there would be another area of the code attempting to acquire `cs_main` via `BlockAssembler`\r\n\r\n- Another architectural approach other than a new thread and server for the Sv2 TP might be preferred such as the current work in the [multiprocess project](https://github.com/bitcoin-core/bitcoin-devwiki/wiki/Process-Separation)\r\n\r\n\r\n## Build\r\n\r\nTo run the Sv2 TP on this branch, Bitcoin needs to be configured with `./configure --enable-template-provider`.\r\n\r\n## Future work\r\n\r\nIf there is sufficient approach/concept ACK or support in general. Then the below points are outstanding future work and existing nits.\r\n\r\nFuture work:\r\n\r\n- A noise implementation from the noise protocol framework needs to be introduced for secure communication between the Sv2 TP and downstream connections. The [noise spec for Sv2 has been reworked](https://github.com/stratum-mining/sv2-spec/blob/main/04-Protocol-Security.md#43-choice-of-cryptographic-primitives) to accommodate resources currently available in core e.g. `secp256k1` and `BIP 340 schnorrsig`\r\n\r\n- There are current working changes proposed to the Sv2 TP spec, to allow downstream connections to send shorttxid  sets, allowing miners/downstream connections to present their own tx sets \r\n\r\n- Perhaps the Sv2 TP should be adapted to current work in the Bitcoin Core architecture. The new thread has been helpful for testing against the current SRI stack, it seems like the server implementation can adapt easily to different architectural needs\r\n\r\nExisting/known nits:\r\n\r\n- The server implementation has no limit on the number of downstream connections, it needs to be added\r\n\r\n- There could be potential conflict with functional tests. The Sv2 TP responds to the best new block change by reaching into the mempool and building a new block for downstream. My guess is that it would be acceptable to disable the Sv2 TP when running functional tests that asserts mempool state and then enable the Sv2 TP when it needs to specifically run its functional tests\r\n\r\n- Getting the full merkle path is required in the [NewTemplate](https://github.com/stratum-mining/sv2-spec/blob/main/07-Template-Distribution-Protocol.md#72-newtemplate-server---client) message. I noticed that this was previously possible with the old implementation that was moved to [merkle_test.cpp](https://github.com/bitcoin/bitcoin/blob/2026301405f83c925ca68db6a3cd5134ed619ca7/src/test/merkle_tests.cpp#L114) , the current implementation does an in-place calculation to just return the root.  I was wondering if anyone has any suggestions or insight to a preferred solution? e.g. Move back  the old functions from merkle_tests or write a new implementation?\r\n \r\nThank you to all who helped contribute to the process of building this branch including working on the SRI, using this branch for testing and refining the Sv2 specs.\r\n\r\nAny feedback or reviews from nits to overall approach would be very much appreciated.\r\n",
          "user": {
            "login": "ccdle12",
            "id": 18324680,
            "node_id": "MDQ6VXNlcjE4MzI0Njgw",
            "avatar_url": "https://avatars.githubusercontent.com/u/18324680?v=4",
            "gravatar_id": "",
            "url": "https://api.github.com/users/ccdle12",
            "html_url": "https://github.com/ccdle12",
            "followers_url": "https://api.github.com/users/ccdle12/followers",
            "following_url": "https://api.github.com/users/ccdle12/following%7B/other_user%7D",
            "gists_url": "https://api.github.com/users/ccdle12/gists%7B/gist_id%7D",
            "starred_url": "https://api.github.com/users/ccdle12/starred%7B/owner%7D%7B/repo%7D",
            "subscriptions_url": "https://api.github.com/users/ccdle12/subscriptions",
            "organizations_url": "https://api.github.com/users/ccdle12/orgs",
            "repos_url": "https://api.github.com/users/ccdle12/repos",
            "events_url": "https://api.github.com/users/ccdle12/events%7B/privacy%7D",
            "received_events_url": "https://api.github.com/users/ccdle12/received_events",
            "type": "User",
            "site_admin": false
          },
          "labels": [
            {
              "id": 118378960,
              "node_id": "MDU6TGFiZWwxMTgzNzg5NjA=",
              "url": "https://api.github.com/repos/bitcoin/bitcoin/labels/Mining",
              "name": "Mining",
              "color": "c7def8",
              "default": false
            },
            {
              "id": 955867938,
              "node_id": "MDU6TGFiZWw5NTU4Njc5Mzg=",
              "url": "https://api.github.com/repos/bitcoin/bitcoin/labels/Needs%20rebase",
              "name": "Needs rebase",
              "description": "",
              "color": "cccccc",
              "default": false
            }
          ],
          "assignees": [],
          "author_association": "CONTRIBUTOR",
          "locked": false,
          "comments": 20,
          "pull_request": {
            "url": "https://api.github.com/repos/bitcoin/bitcoin/pulls/27854",
            "html_url": "https://github.com/bitcoin/bitcoin/pull/27854",
            "diff_url": "https://github.com/bitcoin/bitcoin/pull/27854.diff",
            "patch_url": "https://github.com/bitcoin/bitcoin/pull/27854.patch"
          },
          "created_at": "2023-06-11T08:54:19Z",
          "updated_at": "2023-07-27T22:52:22Z"
        },
        "type": "issue"
      }
    },
    {
      "event": "reviewed",
      "id": 1483260287,
      "node_id": "PRR_kwDOABII585YaMF_",
      "url": null,
      "actor": null,
      "commit_id": "32e2ffc39374f61bb2435da507f285459985df9e",
      "commit_url": null,
      "created_at": null,
      "author_association": "CONTRIBUTOR",
      "body": "Concept ACK",
      "user": {
        "login": "TheCharlatan",
        "id": 8421793,
        "node_id": "MDQ6VXNlcjg0MjE3OTM=",
        "avatar_url": "https://avatars.githubusercontent.com/u/8421793?v=4",
        "gravatar_id": "",
        "url": "https://api.github.com/users/TheCharlatan",
        "html_url": "https://github.com/TheCharlatan",
        "followers_url": "https://api.github.com/users/TheCharlatan/followers",
        "following_url": "https://api.github.com/users/TheCharlatan/following%7B/other_user%7D",
        "gists_url": "https://api.github.com/users/TheCharlatan/gists%7B/gist_id%7D",
        "starred_url": "https://api.github.com/users/TheCharlatan/starred%7B/owner%7D%7B/repo%7D",
        "subscriptions_url": "https://api.github.com/users/TheCharlatan/subscriptions",
        "organizations_url": "https://api.github.com/users/TheCharlatan/orgs",
        "repos_url": "https://api.github.com/users/TheCharlatan/repos",
        "events_url": "https://api.github.com/users/TheCharlatan/events%7B/privacy%7D",
        "received_events_url": "https://api.github.com/users/TheCharlatan/received_events",
        "type": "User",
        "site_admin": false
      },
      "html_url": "https://github.com/bitcoin/bitcoin/pull/27896#pullrequestreview-1483260287",
      "submitted_at": "2023-06-16T11:28:49Z",
      "state": "COMMENTED",
      "pull_request_url": "https://api.github.com/repos/bitcoin/bitcoin/pulls/27896"
    },
    {
      "event": "commented",
      "id": 1594583570,
      "node_id": "IC_kwDOABII585fC2oS",
      "url": "https://api.github.com/repos/bitcoin/bitcoin/issues/comments/1594583570",
      "actor": {
        "login": "dergoegge",
        "id": 8077169,
        "node_id": "MDQ6VXNlcjgwNzcxNjk=",
        "avatar_url": "https://avatars.githubusercontent.com/u/8077169?v=4",
        "gravatar_id": "",
        "url": "https://api.github.com/users/dergoegge",
        "html_url": "https://github.com/dergoegge",
        "followers_url": "https://api.github.com/users/dergoegge/followers",
        "following_url": "https://api.github.com/users/dergoegge/following%7B/other_user%7D",
        "gists_url": "https://api.github.com/users/dergoegge/gists%7B/gist_id%7D",
        "starred_url": "https://api.github.com/users/dergoegge/starred%7B/owner%7D%7B/repo%7D",
        "subscriptions_url": "https://api.github.com/users/dergoegge/subscriptions",
        "organizations_url": "https://api.github.com/users/dergoegge/orgs",
        "repos_url": "https://api.github.com/users/dergoegge/repos",
        "events_url": "https://api.github.com/users/dergoegge/events%7B/privacy%7D",
        "received_events_url": "https://api.github.com/users/dergoegge/received_events",
        "type": "User",
        "site_admin": false
      },
      "commit_id": null,
      "commit_url": null,
      "created_at": "2023-06-16T12:14:10Z",
      "updated_at": "2023-06-16T12:14:10Z",
      "author_association": "MEMBER",
      "body": "Concept ACK 🟥🟥🟥",
      "user": {
        "login": "dergoegge",
        "id": 8077169,
        "node_id": "MDQ6VXNlcjgwNzcxNjk=",
        "avatar_url": "https://avatars.githubusercontent.com/u/8077169?v=4",
        "gravatar_id": "",
        "url": "https://api.github.com/users/dergoegge",
        "html_url": "https://github.com/dergoegge",
        "followers_url": "https://api.github.com/users/dergoegge/followers",
        "following_url": "https://api.github.com/users/dergoegge/following%7B/other_user%7D",
        "gists_url": "https://api.github.com/users/dergoegge/gists%7B/gist_id%7D",
        "starred_url": "https://api.github.com/users/dergoegge/starred%7B/owner%7D%7B/repo%7D",
        "subscriptions_url": "https://api.github.com/users/dergoegge/subscriptions",
        "organizations_url": "https://api.github.com/users/dergoegge/orgs",
        "repos_url": "https://api.github.com/users/dergoegge/repos",
        "events_url": "https://api.github.com/users/dergoegge/events%7B/privacy%7D",
        "received_events_url": "https://api.github.com/users/dergoegge/received_events",
        "type": "User",
        "site_admin": false
      },
      "html_url": "https://github.com/bitcoin/bitcoin/pull/27896#issuecomment-1594583570",
      "issue_url": "https://api.github.com/repos/bitcoin/bitcoin/issues/27896"
    },
    {
      "event": "cross-referenced",
      "id": null,
      "node_id": null,
      "url": null,
      "actor": {
        "login": "DrahtBot",
        "id": 39886733,
        "node_id": "MDQ6VXNlcjM5ODg2NzMz",
        "avatar_url": "https://avatars.githubusercontent.com/u/39886733?v=4",
        "gravatar_id": "",
        "url": "https://api.github.com/users/DrahtBot",
        "html_url": "https://github.com/DrahtBot",
        "followers_url": "https://api.github.com/users/DrahtBot/followers",
        "following_url": "https://api.github.com/users/DrahtBot/following%7B/other_user%7D",
        "gists_url": "https://api.github.com/users/DrahtBot/gists%7B/gist_id%7D",
        "starred_url": "https://api.github.com/users/DrahtBot/starred%7B/owner%7D%7B/repo%7D",
        "subscriptions_url": "https://api.github.com/users/DrahtBot/subscriptions",
        "organizations_url": "https://api.github.com/users/DrahtBot/orgs",
        "repos_url": "https://api.github.com/users/DrahtBot/repos",
        "events_url": "https://api.github.com/users/DrahtBot/events%7B/privacy%7D",
        "received_events_url": "https://api.github.com/users/DrahtBot/received_events",
        "type": "User",
        "site_admin": false
      },
      "commit_id": null,
      "commit_url": null,
      "created_at": "2023-06-16T12:36:01Z",
      "updated_at": "2023-06-16T12:36:01Z",
      "source": {
        "issue": {
          "id": 1702212340,
          "node_id": "PR_kwDOABII585QGncm",
          "url": "https://api.github.com/repos/bitcoin/bitcoin/issues/27607",
          "repository_url": "https://api.github.com/repos/bitcoin/bitcoin",
          "labels_url": "https://api.github.com/repos/bitcoin/bitcoin/issues/27607/labels%7B/name%7D",
          "comments_url": "https://api.github.com/repos/bitcoin/bitcoin/issues/27607/comments",
          "events_url": "https://api.github.com/repos/bitcoin/bitcoin/issues/27607/events",
          "html_url": "https://github.com/bitcoin/bitcoin/pull/27607",
          "number": 27607,
          "state": "closed",
          "state_reason": null,
          "title": "index: make startup more efficient",
          "body": "Simplifies index startup code, eliminating the `g_indexes_ready_to_sync` variable, \r\ndeduplicating code and moving the prune violation check out of the `BaseIndex` class.\r\n\r\nAlso makes startup more efficient by running the prune violation check once for all indexes\r\ninstead of once for each index, and by delaying the prune violation check and moving it off\r\nof the main thread so the node can start up faster and perform the block data availability\r\nverification even when the '-reindex\" or the \"-reindex-chainstate\" flags are enabled (which\r\nhasn't  being possible so far).",
          "user": {
            "login": "furszy",
            "id": 5377650,
            "node_id": "MDQ6VXNlcjUzNzc2NTA=",
            "avatar_url": "https://avatars.githubusercontent.com/u/5377650?v=4",
            "gravatar_id": "",
            "url": "https://api.github.com/users/furszy",
            "html_url": "https://github.com/furszy",
            "followers_url": "https://api.github.com/users/furszy/followers",
            "following_url": "https://api.github.com/users/furszy/following%7B/other_user%7D",
            "gists_url": "https://api.github.com/users/furszy/gists%7B/gist_id%7D",
            "starred_url": "https://api.github.com/users/furszy/starred%7B/owner%7D%7B/repo%7D",
            "subscriptions_url": "https://api.github.com/users/furszy/subscriptions",
            "organizations_url": "https://api.github.com/users/furszy/orgs",
            "repos_url": "https://api.github.com/users/furszy/repos",
            "events_url": "https://api.github.com/users/furszy/events%7B/privacy%7D",
            "received_events_url": "https://api.github.com/users/furszy/received_events",
            "type": "User",
            "site_admin": false
          },
          "labels": [
            {
              "id": 97470796,
              "node_id": "MDU6TGFiZWw5NzQ3MDc5Ng==",
              "url": "https://api.github.com/repos/bitcoin/bitcoin/labels/UTXO%20Db%20and%20Indexes",
              "name": "UTXO Db and Indexes",
              "color": "fbca04",
              "default": false
            }
          ],
          "assignees": [],
          "author_association": "MEMBER",
          "locked": false,
          "comments": 21,
          "pull_request": {
            "url": "https://api.github.com/repos/bitcoin/bitcoin/pulls/27607",
            "html_url": "https://github.com/bitcoin/bitcoin/pull/27607",
            "diff_url": "https://github.com/bitcoin/bitcoin/pull/27607.diff",
            "patch_url": "https://github.com/bitcoin/bitcoin/pull/27607.patch"
          },
          "closed_at": "2023-07-10T15:56:33Z",
          "created_at": "2023-05-09T14:55:04Z",
          "updated_at": "2023-07-20T23:00:15Z"
        },
        "type": "issue"
      }
    },
    {
      "event": "cross-referenced",
      "id": null,
      "node_id": null,
      "url": null,
      "actor": {
        "login": "DrahtBot",
        "id": 39886733,
        "node_id": "MDQ6VXNlcjM5ODg2NzMz",
        "avatar_url": "https://avatars.githubusercontent.com/u/39886733?v=4",
        "gravatar_id": "",
        "url": "https://api.github.com/users/DrahtBot",
        "html_url": "https://github.com/DrahtBot",
        "followers_url": "https://api.github.com/users/DrahtBot/followers",
        "following_url": "https://api.github.com/users/DrahtBot/following%7B/other_user%7D",
        "gists_url": "https://api.github.com/users/DrahtBot/gists%7B/gist_id%7D",
        "starred_url": "https://api.github.com/users/DrahtBot/starred%7B/owner%7D%7B/repo%7D",
        "subscriptions_url": "https://api.github.com/users/DrahtBot/subscriptions",
        "organizations_url": "https://api.github.com/users/DrahtBot/orgs",
        "repos_url": "https://api.github.com/users/DrahtBot/repos",
        "events_url": "https://api.github.com/users/DrahtBot/events%7B/privacy%7D",
        "received_events_url": "https://api.github.com/users/DrahtBot/received_events",
        "type": "User",
        "site_admin": false
      },
      "commit_id": null,
      "commit_url": null,
      "created_at": "2023-06-16T16:35:22Z",
      "updated_at": "2023-06-16T16:35:22Z",
      "source": {
        "issue": {
          "id": 1376468939,
          "node_id": "PR_kwDOABII584_IHa-",
          "url": "https://api.github.com/repos/bitcoin/bitcoin/issues/26114",
          "repository_url": "https://api.github.com/repos/bitcoin/bitcoin",
          "labels_url": "https://api.github.com/repos/bitcoin/bitcoin/issues/26114/labels%7B/name%7D",
          "comments_url": "https://api.github.com/repos/bitcoin/bitcoin/issues/26114/comments",
          "events_url": "https://api.github.com/repos/bitcoin/bitcoin/issues/26114/events",
          "html_url": "https://github.com/bitcoin/bitcoin/pull/26114",
          "number": 26114,
          "state": "open",
          "state_reason": null,
          "title": "net: Make AddrFetch connections to fixed seeds",
          "body": "This proposes two things:\r\n\r\n1. Make AddrFetch connections to fixed seeds instead of just adding them to AddrMan (suggested in https://github.com/bitcoin/bitcoin/pull/25678#issuecomment-1210858925)\r\nWhen adding fixed seeds, we currently add them to AddrMan and then make regular full outbound connections to them. If many new nodes use the fixed seeds for this, it will result in them getting a lot of peers requiring IBD, which will create a lot of traffic for them. With an AddrFetch connection, we will only use them to get addresses from other peers and disconnect afterwards.\r\nThis PR proposes to attempt making AddrFetch connections to 10 peers for better diversity (some may be offline anyway). The fixed seeds will still be added to Addrman as before, but only after a delay of 2 minutes, after which they will hopefully no longer be the only entries in AddrMan.\r\n\r\n2. Move the logic of adding fixed seeds out of `ThreadOpenConnections` into `ThreadDNSAddressSeed` (which is being renamed to `ThreadAddressSeed`).\r\nI think this makes sense in general because adding the fixed seeds is in many ways analogous to querying the DNS seeds, and ThreadOpenConnections, which is there to actually open the connections is already quite complex.\r\nAlso, it makes the changes from 1) easier if we don't have to worry about interfering with the automatic connection making logic.\r\n\r\nOne way to test this is to start without `peers.dat` and run with `-nodnsseed -blocksonly -debug=net` and monitor the debug log and `bitcoin-cli -netinfo` behavior.",
          "user": {
            "login": "mzumsande",
            "id": 48763452,
            "node_id": "MDQ6VXNlcjQ4NzYzNDUy",
            "avatar_url": "https://avatars.githubusercontent.com/u/48763452?v=4",
            "gravatar_id": "",
            "url": "https://api.github.com/users/mzumsande",
            "html_url": "https://github.com/mzumsande",
            "followers_url": "https://api.github.com/users/mzumsande/followers",
            "following_url": "https://api.github.com/users/mzumsande/following%7B/other_user%7D",
            "gists_url": "https://api.github.com/users/mzumsande/gists%7B/gist_id%7D",
            "starred_url": "https://api.github.com/users/mzumsande/starred%7B/owner%7D%7B/repo%7D",
            "subscriptions_url": "https://api.github.com/users/mzumsande/subscriptions",
            "organizations_url": "https://api.github.com/users/mzumsande/orgs",
            "repos_url": "https://api.github.com/users/mzumsande/repos",
            "events_url": "https://api.github.com/users/mzumsande/events%7B/privacy%7D",
            "received_events_url": "https://api.github.com/users/mzumsande/received_events",
            "type": "User",
            "site_admin": false
          },
          "labels": [
            {
              "id": 98298007,
              "node_id": "MDU6TGFiZWw5ODI5ODAwNw==",
              "url": "https://api.github.com/repos/bitcoin/bitcoin/labels/P2P",
              "name": "P2P",
              "color": "006b75",
              "default": false
            }
          ],
          "assignees": [],
          "author_association": "CONTRIBUTOR",
          "locked": false,
          "comments": 17,
          "pull_request": {
            "url": "https://api.github.com/repos/bitcoin/bitcoin/pulls/26114",
            "html_url": "https://github.com/bitcoin/bitcoin/pull/26114",
            "diff_url": "https://github.com/bitcoin/bitcoin/pull/26114.diff",
            "patch_url": "https://github.com/bitcoin/bitcoin/pull/26114.patch"
          },
          "created_at": "2022-09-16T21:01:39Z",
          "updated_at": "2023-08-02T14:36:29Z"
        },
        "type": "issue"
      }
    },
    {
      "event": "cross-referenced",
      "id": null,
      "node_id": null,
      "url": null,
      "actor": {
        "login": "DrahtBot",
        "id": 39886733,
        "node_id": "MDQ6VXNlcjM5ODg2NzMz",
        "avatar_url": "https://avatars.githubusercontent.com/u/39886733?v=4",
        "gravatar_id": "",
        "url": "https://api.github.com/users/DrahtBot",
        "html_url": "https://github.com/DrahtBot",
        "followers_url": "https://api.github.com/users/DrahtBot/followers",
        "following_url": "https://api.github.com/users/DrahtBot/following%7B/other_user%7D",
        "gists_url": "https://api.github.com/users/DrahtBot/gists%7B/gist_id%7D",
        "starred_url": "https://api.github.com/users/DrahtBot/starred%7B/owner%7D%7B/repo%7D",
        "subscriptions_url": "https://api.github.com/users/DrahtBot/subscriptions",
        "organizations_url": "https://api.github.com/users/DrahtBot/orgs",
        "repos_url": "https://api.github.com/users/DrahtBot/repos",
        "events_url": "https://api.github.com/users/DrahtBot/events%7B/privacy%7D",
        "received_events_url": "https://api.github.com/users/DrahtBot/received_events",
        "type": "User",
        "site_admin": false
      },
      "commit_id": null,
      "commit_url": null,
      "created_at": "2023-06-16T18:28:14Z",
      "updated_at": "2023-06-16T18:28:14Z",
      "source": {
        "issue": {
          "id": 782505298,
          "node_id": "MDExOlB1bGxSZXF1ZXN0NTUyMDQ5MjI1",
          "url": "https://api.github.com/repos/bitcoin/bitcoin/issues/20892",
          "repository_url": "https://api.github.com/repos/bitcoin/bitcoin",
          "labels_url": "https://api.github.com/repos/bitcoin/bitcoin/issues/20892/labels%7B/name%7D",
          "comments_url": "https://api.github.com/repos/bitcoin/bitcoin/issues/20892/comments",
          "events_url": "https://api.github.com/repos/bitcoin/bitcoin/issues/20892/events",
          "html_url": "https://github.com/bitcoin/bitcoin/pull/20892",
          "number": 20892,
          "state": "open",
          "state_reason": null,
          "title": "tests: Run both descriptor and legacy tests within a single test invocation",
          "body": "Instead of having the tests only do one type or the other, depending on command line arguments, these tests should be running with both types of wallets. Any test that calls `add_wallet_options` will be run for each wallet type that it specifies a wallet option for if none are give in the command line. If a particular wallet is specified with `--legacy-wallet` or `--descriptors`, the options are still respected.",
          "user": {
            "login": "achow101",
            "id": 3782274,
            "node_id": "MDQ6VXNlcjM3ODIyNzQ=",
            "avatar_url": "https://avatars.githubusercontent.com/u/3782274?v=4",
            "gravatar_id": "",
            "url": "https://api.github.com/users/achow101",
            "html_url": "https://github.com/achow101",
            "followers_url": "https://api.github.com/users/achow101/followers",
            "following_url": "https://api.github.com/users/achow101/following%7B/other_user%7D",
            "gists_url": "https://api.github.com/users/achow101/gists%7B/gist_id%7D",
            "starred_url": "https://api.github.com/users/achow101/starred%7B/owner%7D%7B/repo%7D",
            "subscriptions_url": "https://api.github.com/users/achow101/subscriptions",
            "organizations_url": "https://api.github.com/users/achow101/orgs",
            "repos_url": "https://api.github.com/users/achow101/repos",
            "events_url": "https://api.github.com/users/achow101/events%7B/privacy%7D",
            "received_events_url": "https://api.github.com/users/achow101/received_events",
            "type": "User",
            "site_admin": false
          },
          "labels": [
            {
              "id": 62963516,
              "node_id": "MDU6TGFiZWw2Mjk2MzUxNg==",
              "url": "https://api.github.com/repos/bitcoin/bitcoin/labels/Tests",
              "name": "Tests",
              "color": "d4c5f9",
              "default": false
            },
            {
              "id": 5334691551,
              "node_id": "LA_kwDOABII588AAAABPfju3w",
              "url": "https://api.github.com/repos/bitcoin/bitcoin/labels/CI%20failed",
              "name": "CI failed",
              "description": "",
              "color": "cccccc",
              "default": false
            }
          ],
          "assignees": [],
          "author_association": "MEMBER",
          "locked": false,
          "comments": 16,
          "pull_request": {
            "url": "https://api.github.com/repos/bitcoin/bitcoin/pulls/20892",
            "html_url": "https://github.com/bitcoin/bitcoin/pull/20892",
            "diff_url": "https://github.com/bitcoin/bitcoin/pull/20892.diff",
            "patch_url": "https://github.com/bitcoin/bitcoin/pull/20892.patch"
          },
          "created_at": "2021-01-09T03:50:55Z",
          "updated_at": "2023-08-02T17:47:04Z"
        },
        "type": "issue"
      }
    },
    {
      "event": "commented",
      "id": 1605396572,
      "node_id": "IC_kwDOABII585fsGhc",
      "url": "https://api.github.com/repos/bitcoin/bitcoin/issues/comments/1605396572",
      "actor": {
        "login": "hebasto",
        "id": 32963518,
        "node_id": "MDQ6VXNlcjMyOTYzNTE4",
        "avatar_url": "https://avatars.githubusercontent.com/u/32963518?v=4",
        "gravatar_id": "",
        "url": "https://api.github.com/users/hebasto",
        "html_url": "https://github.com/hebasto",
        "followers_url": "https://api.github.com/users/hebasto/followers",
        "following_url": "https://api.github.com/users/hebasto/following%7B/other_user%7D",
        "gists_url": "https://api.github.com/users/hebasto/gists%7B/gist_id%7D",
        "starred_url": "https://api.github.com/users/hebasto/starred%7B/owner%7D%7B/repo%7D",
        "subscriptions_url": "https://api.github.com/users/hebasto/subscriptions",
        "organizations_url": "https://api.github.com/users/hebasto/orgs",
        "repos_url": "https://api.github.com/users/hebasto/repos",
        "events_url": "https://api.github.com/users/hebasto/events%7B/privacy%7D",
        "received_events_url": "https://api.github.com/users/hebasto/received_events",
        "type": "User",
        "site_admin": false
      },
      "commit_id": null,
      "commit_url": null,
      "created_at": "2023-06-24T11:10:30Z",
      "updated_at": "2023-06-24T11:10:30Z",
      "author_association": "MEMBER",
      "body": "Concept ACK.",
      "user": {
        "login": "hebasto",
        "id": 32963518,
        "node_id": "MDQ6VXNlcjMyOTYzNTE4",
        "avatar_url": "https://avatars.githubusercontent.com/u/32963518?v=4",
        "gravatar_id": "",
        "url": "https://api.github.com/users/hebasto",
        "html_url": "https://github.com/hebasto",
        "followers_url": "https://api.github.com/users/hebasto/followers",
        "following_url": "https://api.github.com/users/hebasto/following%7B/other_user%7D",
        "gists_url": "https://api.github.com/users/hebasto/gists%7B/gist_id%7D",
        "starred_url": "https://api.github.com/users/hebasto/starred%7B/owner%7D%7B/repo%7D",
        "subscriptions_url": "https://api.github.com/users/hebasto/subscriptions",
        "organizations_url": "https://api.github.com/users/hebasto/orgs",
        "repos_url": "https://api.github.com/users/hebasto/repos",
        "events_url": "https://api.github.com/users/hebasto/events%7B/privacy%7D",
        "received_events_url": "https://api.github.com/users/hebasto/received_events",
        "type": "User",
        "site_admin": false
      },
      "html_url": "https://github.com/bitcoin/bitcoin/pull/27896#issuecomment-1605396572",
      "issue_url": "https://api.github.com/repos/bitcoin/bitcoin/issues/27896"
    },
    {
      "event": "reviewed",
      "id": 1497976492,
      "node_id": "PRR_kwDOABII585ZSU6s",
      "url": null,
      "actor": null,
      "commit_id": "32e2ffc39374f61bb2435da507f285459985df9e",
      "commit_url": null,
      "created_at": null,
      "author_association": "MEMBER",
      "body": "ACK 32e2ffc39374f61bb2435da507f285459985df9e",
      "user": {
        "login": "dergoegge",
        "id": 8077169,
        "node_id": "MDQ6VXNlcjgwNzcxNjk=",
        "avatar_url": "https://avatars.githubusercontent.com/u/8077169?v=4",
        "gravatar_id": "",
        "url": "https://api.github.com/users/dergoegge",
        "html_url": "https://github.com/dergoegge",
        "followers_url": "https://api.github.com/users/dergoegge/followers",
        "following_url": "https://api.github.com/users/dergoegge/following%7B/other_user%7D",
        "gists_url": "https://api.github.com/users/dergoegge/gists%7B/gist_id%7D",
        "starred_url": "https://api.github.com/users/dergoegge/starred%7B/owner%7D%7B/repo%7D",
        "subscriptions_url": "https://api.github.com/users/dergoegge/subscriptions",
        "organizations_url": "https://api.github.com/users/dergoegge/orgs",
        "repos_url": "https://api.github.com/users/dergoegge/repos",
        "events_url": "https://api.github.com/users/dergoegge/events%7B/privacy%7D",
        "received_events_url": "https://api.github.com/users/dergoegge/received_events",
        "type": "User",
        "site_admin": false
      },
      "html_url": "https://github.com/bitcoin/bitcoin/pull/27896#pullrequestreview-1497976492",
      "submitted_at": "2023-06-26T08:43:44Z",
      "state": "APPROVED",
      "pull_request_url": "https://api.github.com/repos/bitcoin/bitcoin/pulls/27896"
    },
    {
      "event": "labeled",
      "id": 9637958929,
      "node_id": "LE_lADOABII585o68YJzwAAAAI-d5UR",
      "url": "https://api.github.com/repos/bitcoin/bitcoin/issues/events/9637958929",
      "actor": {
        "login": "MarcoFalke",
        "id": 6399679,
        "node_id": "MDQ6VXNlcjYzOTk2Nzk=",
        "avatar_url": "https://avatars.githubusercontent.com/u/6399679?v=4",
        "gravatar_id": "",
        "url": "https://api.github.com/users/MarcoFalke",
        "html_url": "https://github.com/MarcoFalke",
        "followers_url": "https://api.github.com/users/MarcoFalke/followers",
        "following_url": "https://api.github.com/users/MarcoFalke/following%7B/other_user%7D",
        "gists_url": "https://api.github.com/users/MarcoFalke/gists%7B/gist_id%7D",
        "starred_url": "https://api.github.com/users/MarcoFalke/starred%7B/owner%7D%7B/repo%7D",
        "subscriptions_url": "https://api.github.com/users/MarcoFalke/subscriptions",
        "organizations_url": "https://api.github.com/users/MarcoFalke/orgs",
        "repos_url": "https://api.github.com/users/MarcoFalke/repos",
        "events_url": "https://api.github.com/users/MarcoFalke/events%7B/privacy%7D",
        "received_events_url": "https://api.github.com/users/MarcoFalke/received_events",
        "type": "User",
        "site_admin": false
      },
      "commit_id": null,
      "commit_url": null,
      "created_at": "2023-06-26T11:58:56Z",
      "label": {
        "name": "DrahtBot Guix build requested",
        "color": "bfd4f2"
      }
    },
    {
      "event": "commented",
      "id": 1607998026,
      "node_id": "IC_kwDOABII585f2BpK",
      "url": "https://api.github.com/repos/bitcoin/bitcoin/issues/comments/1607998026",
      "actor": {
        "login": "davidgumberg",
        "id": 2257631,
        "node_id": "MDQ6VXNlcjIyNTc2MzE=",
        "avatar_url": "https://avatars.githubusercontent.com/u/2257631?v=4",
        "gravatar_id": "",
        "url": "https://api.github.com/users/davidgumberg",
        "html_url": "https://github.com/davidgumberg",
        "followers_url": "https://api.github.com/users/davidgumberg/followers",
        "following_url": "https://api.github.com/users/davidgumberg/following%7B/other_user%7D",
        "gists_url": "https://api.github.com/users/davidgumberg/gists%7B/gist_id%7D",
        "starred_url": "https://api.github.com/users/davidgumberg/starred%7B/owner%7D%7B/repo%7D",
        "subscriptions_url": "https://api.github.com/users/davidgumberg/subscriptions",
        "organizations_url": "https://api.github.com/users/davidgumberg/orgs",
        "repos_url": "https://api.github.com/users/davidgumberg/repos",
        "events_url": "https://api.github.com/users/davidgumberg/events%7B/privacy%7D",
        "received_events_url": "https://api.github.com/users/davidgumberg/received_events",
        "type": "User",
        "site_admin": false
      },
      "commit_id": null,
      "commit_url": null,
      "created_at": "2023-06-26T18:21:59Z",
      "updated_at": "2023-06-26T18:21:59Z",
      "author_association": "CONTRIBUTOR",
      "body": " crACK https://github.com/bitcoin/bitcoin/pull/27896/commits/32e2ffc39374f61bb2435da507f285459985df9e\r\n \r\n Nit: We may want to remove `BCLog::Util` as well, since `SetSyscallSandboxPolicy` was its only user.",
      "user": {
        "login": "davidgumberg",
        "id": 2257631,
        "node_id": "MDQ6VXNlcjIyNTc2MzE=",
        "avatar_url": "https://avatars.githubusercontent.com/u/2257631?v=4",
        "gravatar_id": "",
        "url": "https://api.github.com/users/davidgumberg",
        "html_url": "https://github.com/davidgumberg",
        "followers_url": "https://api.github.com/users/davidgumberg/followers",
        "following_url": "https://api.github.com/users/davidgumberg/following%7B/other_user%7D",
        "gists_url": "https://api.github.com/users/davidgumberg/gists%7B/gist_id%7D",
        "starred_url": "https://api.github.com/users/davidgumberg/starred%7B/owner%7D%7B/repo%7D",
        "subscriptions_url": "https://api.github.com/users/davidgumberg/subscriptions",
        "organizations_url": "https://api.github.com/users/davidgumberg/orgs",
        "repos_url": "https://api.github.com/users/davidgumberg/repos",
        "events_url": "https://api.github.com/users/davidgumberg/events%7B/privacy%7D",
        "received_events_url": "https://api.github.com/users/davidgumberg/received_events",
        "type": "User",
        "site_admin": false
      },
      "html_url": "https://github.com/bitcoin/bitcoin/pull/27896#issuecomment-1607998026",
      "issue_url": "https://api.github.com/repos/bitcoin/bitcoin/issues/27896"
    },
    {
      "event": "commented",
      "id": 1608419719,
      "node_id": "IC_kwDOABII585f3omH",
      "url": "https://api.github.com/repos/bitcoin/bitcoin/issues/comments/1608419719",
      "actor": {
        "login": "DrahtBot",
        "id": 39886733,
        "node_id": "MDQ6VXNlcjM5ODg2NzMz",
        "avatar_url": "https://avatars.githubusercontent.com/u/39886733?v=4",
        "gravatar_id": "",
        "url": "https://api.github.com/users/DrahtBot",
        "html_url": "https://github.com/DrahtBot",
        "followers_url": "https://api.github.com/users/DrahtBot/followers",
        "following_url": "https://api.github.com/users/DrahtBot/following%7B/other_user%7D",
        "gists_url": "https://api.github.com/users/DrahtBot/gists%7B/gist_id%7D",
        "starred_url": "https://api.github.com/users/DrahtBot/starred%7B/owner%7D%7B/repo%7D",
        "subscriptions_url": "https://api.github.com/users/DrahtBot/subscriptions",
        "organizations_url": "https://api.github.com/users/DrahtBot/orgs",
        "repos_url": "https://api.github.com/users/DrahtBot/repos",
        "events_url": "https://api.github.com/users/DrahtBot/events%7B/privacy%7D",
        "received_events_url": "https://api.github.com/users/DrahtBot/received_events",
        "type": "User",
        "site_admin": false
      },
      "commit_id": null,
      "commit_url": null,
      "created_at": "2023-06-26T22:45:23Z",
      "updated_at": "2023-06-26T22:45:23Z",
      "author_association": "CONTRIBUTOR",
      "body": "<!--9cd9c72976c961c55c7acef8f6ba82cd-->\n### Guix builds\n\n| File | commit 296735f7638749906243c9e203df7bd024493806<br>(master) | commit 91706d1b5d3d7702ff3cadf8f0ae980604300ad2<br>(master and this pull) |\n|--|--|--|\n| SHA256SUMS.part | [`c65f335e7527365f...`](https://drahtbot.space/guix/bitcoin/bitcoin/296735f7638749906243c9e203df7bd024493806/SHA256SUMS.part) | [`47a237496379779c...`](https://drahtbot.space/guix/bitcoin/bitcoin/91706d1b5d3d7702ff3cadf8f0ae980604300ad2/SHA256SUMS.part) |\n| *-aarch64-linux-gnu-debug.tar.gz | [`5a0fe9c9d1efc225...`](https://drahtbot.space/guix/bitcoin/bitcoin/296735f7638749906243c9e203df7bd024493806/bitcoin-296735f76387-aarch64-linux-gnu-debug.tar.gz) | [`97fe9e1014216595...`](https://drahtbot.space/guix/bitcoin/bitcoin/91706d1b5d3d7702ff3cadf8f0ae980604300ad2/bitcoin-91706d1b5d3d-aarch64-linux-gnu-debug.tar.gz) |\n| *-aarch64-linux-gnu.tar.gz | [`05170c9b821d3d15...`](https://drahtbot.space/guix/bitcoin/bitcoin/296735f7638749906243c9e203df7bd024493806/bitcoin-296735f76387-aarch64-linux-gnu.tar.gz) | [`1e8b8c30ec0c799c...`](https://drahtbot.space/guix/bitcoin/bitcoin/91706d1b5d3d7702ff3cadf8f0ae980604300ad2/bitcoin-91706d1b5d3d-aarch64-linux-gnu.tar.gz) |\n| *-arm-linux-gnueabihf-debug.tar.gz | [`f7e39f68b22907e5...`](https://drahtbot.space/guix/bitcoin/bitcoin/296735f7638749906243c9e203df7bd024493806/bitcoin-296735f76387-arm-linux-gnueabihf-debug.tar.gz) | [`634a0a685ce46367...`](https://drahtbot.space/guix/bitcoin/bitcoin/91706d1b5d3d7702ff3cadf8f0ae980604300ad2/bitcoin-91706d1b5d3d-arm-linux-gnueabihf-debug.tar.gz) |\n| *-arm-linux-gnueabihf.tar.gz | [`e674a6f14867b5d4...`](https://drahtbot.space/guix/bitcoin/bitcoin/296735f7638749906243c9e203df7bd024493806/bitcoin-296735f76387-arm-linux-gnueabihf.tar.gz) | [`34dffe5b68e10ba4...`](https://drahtbot.space/guix/bitcoin/bitcoin/91706d1b5d3d7702ff3cadf8f0ae980604300ad2/bitcoin-91706d1b5d3d-arm-linux-gnueabihf.tar.gz) |\n| *-arm64-apple-darwin-unsigned.dmg | [`8380f18bd9bf08a5...`](https://drahtbot.space/guix/bitcoin/bitcoin/296735f7638749906243c9e203df7bd024493806/bitcoin-296735f76387-arm64-apple-darwin-unsigned.dmg) | [`0592cad94c0701b8...`](https://drahtbot.space/guix/bitcoin/bitcoin/91706d1b5d3d7702ff3cadf8f0ae980604300ad2/bitcoin-91706d1b5d3d-arm64-apple-darwin-unsigned.dmg) |\n| *-arm64-apple-darwin-unsigned.tar.gz | [`f4e10c4baf370d3c...`](https://drahtbot.space/guix/bitcoin/bitcoin/296735f7638749906243c9e203df7bd024493806/bitcoin-296735f76387-arm64-apple-darwin-unsigned.tar.gz) | [`24470e1acdaf64e8...`](https://drahtbot.space/guix/bitcoin/bitcoin/91706d1b5d3d7702ff3cadf8f0ae980604300ad2/bitcoin-91706d1b5d3d-arm64-apple-darwin-unsigned.tar.gz) |\n| *-arm64-apple-darwin.tar.gz | [`10683ff96986df42...`](https://drahtbot.space/guix/bitcoin/bitcoin/296735f7638749906243c9e203df7bd024493806/bitcoin-296735f76387-arm64-apple-darwin.tar.gz) | [`228517d5a4ec2cdc...`](https://drahtbot.space/guix/bitcoin/bitcoin/91706d1b5d3d7702ff3cadf8f0ae980604300ad2/bitcoin-91706d1b5d3d-arm64-apple-darwin.tar.gz) |\n| *-powerpc64-linux-gnu-debug.tar.gz | [`62ad0ba588090ff1...`](https://drahtbot.space/guix/bitcoin/bitcoin/296735f7638749906243c9e203df7bd024493806/bitcoin-296735f76387-powerpc64-linux-gnu-debug.tar.gz) | [`14597f966dcf36d7...`](https://drahtbot.space/guix/bitcoin/bitcoin/91706d1b5d3d7702ff3cadf8f0ae980604300ad2/bitcoin-91706d1b5d3d-powerpc64-linux-gnu-debug.tar.gz) |\n| *-powerpc64-linux-gnu.tar.gz | [`972edd6915d01cf1...`](https://drahtbot.space/guix/bitcoin/bitcoin/296735f7638749906243c9e203df7bd024493806/bitcoin-296735f76387-powerpc64-linux-gnu.tar.gz) | [`6848ed76574cea79...`](https://drahtbot.space/guix/bitcoin/bitcoin/91706d1b5d3d7702ff3cadf8f0ae980604300ad2/bitcoin-91706d1b5d3d-powerpc64-linux-gnu.tar.gz) |\n| *-powerpc64le-linux-gnu-debug.tar.gz | [`d49ee3a837144285...`](https://drahtbot.space/guix/bitcoin/bitcoin/296735f7638749906243c9e203df7bd024493806/bitcoin-296735f76387-powerpc64le-linux-gnu-debug.tar.gz) | [`ccdae1099b66398c...`](https://drahtbot.space/guix/bitcoin/bitcoin/91706d1b5d3d7702ff3cadf8f0ae980604300ad2/bitcoin-91706d1b5d3d-powerpc64le-linux-gnu-debug.tar.gz) |\n| *-powerpc64le-linux-gnu.tar.gz | [`189b13c7a4df3f82...`](https://drahtbot.space/guix/bitcoin/bitcoin/296735f7638749906243c9e203df7bd024493806/bitcoin-296735f76387-powerpc64le-linux-gnu.tar.gz) | [`d374f8da1798a525...`](https://drahtbot.space/guix/bitcoin/bitcoin/91706d1b5d3d7702ff3cadf8f0ae980604300ad2/bitcoin-91706d1b5d3d-powerpc64le-linux-gnu.tar.gz) |\n| *-riscv64-linux-gnu-debug.tar.gz | [`767845df189ec4e8...`](https://drahtbot.space/guix/bitcoin/bitcoin/296735f7638749906243c9e203df7bd024493806/bitcoin-296735f76387-riscv64-linux-gnu-debug.tar.gz) | [`c7ff5e0f08a7790f...`](https://drahtbot.space/guix/bitcoin/bitcoin/91706d1b5d3d7702ff3cadf8f0ae980604300ad2/bitcoin-91706d1b5d3d-riscv64-linux-gnu-debug.tar.gz) |\n| *-riscv64-linux-gnu.tar.gz | [`3a49a981a56cbc6b...`](https://drahtbot.space/guix/bitcoin/bitcoin/296735f7638749906243c9e203df7bd024493806/bitcoin-296735f76387-riscv64-linux-gnu.tar.gz) | [`74e5aec8ef960691...`](https://drahtbot.space/guix/bitcoin/bitcoin/91706d1b5d3d7702ff3cadf8f0ae980604300ad2/bitcoin-91706d1b5d3d-riscv64-linux-gnu.tar.gz) |\n| *-x86_64-apple-darwin-unsigned.dmg | [`946d54e9a8754e18...`](https://drahtbot.space/guix/bitcoin/bitcoin/296735f7638749906243c9e203df7bd024493806/bitcoin-296735f76387-x86_64-apple-darwin-unsigned.dmg) | [`696a73f6cf4b1908...`](https://drahtbot.space/guix/bitcoin/bitcoin/91706d1b5d3d7702ff3cadf8f0ae980604300ad2/bitcoin-91706d1b5d3d-x86_64-apple-darwin-unsigned.dmg) |\n| *-x86_64-apple-darwin-unsigned.tar.gz | [`9ee286d80a9134b4...`](https://drahtbot.space/guix/bitcoin/bitcoin/296735f7638749906243c9e203df7bd024493806/bitcoin-296735f76387-x86_64-apple-darwin-unsigned.tar.gz) | [`178caa484bcc938d...`](https://drahtbot.space/guix/bitcoin/bitcoin/91706d1b5d3d7702ff3cadf8f0ae980604300ad2/bitcoin-91706d1b5d3d-x86_64-apple-darwin-unsigned.tar.gz) |\n| *-x86_64-apple-darwin.tar.gz | [`af85c63c8384691d...`](https://drahtbot.space/guix/bitcoin/bitcoin/296735f7638749906243c9e203df7bd024493806/bitcoin-296735f76387-x86_64-apple-darwin.tar.gz) | [`693f164d6235f0ea...`](https://drahtbot.space/guix/bitcoin/bitcoin/91706d1b5d3d7702ff3cadf8f0ae980604300ad2/bitcoin-91706d1b5d3d-x86_64-apple-darwin.tar.gz) |\n| *-x86_64-linux-gnu-debug.tar.gz | [`9eaab59941d2989c...`](https://drahtbot.space/guix/bitcoin/bitcoin/296735f7638749906243c9e203df7bd024493806/bitcoin-296735f76387-x86_64-linux-gnu-debug.tar.gz) | [`8fb8ad47f07bc2cd...`](https://drahtbot.space/guix/bitcoin/bitcoin/91706d1b5d3d7702ff3cadf8f0ae980604300ad2/bitcoin-91706d1b5d3d-x86_64-linux-gnu-debug.tar.gz) |\n| *-x86_64-linux-gnu.tar.gz | [`448ab0cd5f64b0ba...`](https://drahtbot.space/guix/bitcoin/bitcoin/296735f7638749906243c9e203df7bd024493806/bitcoin-296735f76387-x86_64-linux-gnu.tar.gz) | [`59a62838ee5c3181...`](https://drahtbot.space/guix/bitcoin/bitcoin/91706d1b5d3d7702ff3cadf8f0ae980604300ad2/bitcoin-91706d1b5d3d-x86_64-linux-gnu.tar.gz) |\n| *.tar.gz | [`e55d3332038ad8e6...`](https://drahtbot.space/guix/bitcoin/bitcoin/296735f7638749906243c9e203df7bd024493806/bitcoin-296735f76387.tar.gz) | [`a805c237d32cb819...`](https://drahtbot.space/guix/bitcoin/bitcoin/91706d1b5d3d7702ff3cadf8f0ae980604300ad2/bitcoin-91706d1b5d3d.tar.gz) |\n| guix_build.log | [`d94426f4f609f4f9...`](https://drahtbot.space/guix/bitcoin/bitcoin/296735f7638749906243c9e203df7bd024493806/guix_build.log) | [`fd5013e8161d2c1c...`](https://drahtbot.space/guix/bitcoin/bitcoin/91706d1b5d3d7702ff3cadf8f0ae980604300ad2/guix_build.log) |\n| guix_build.log.diff |  | [`18742188c7b716ba...`](https://drahtbot.space/guix/bitcoin/bitcoin/91706d1b5d3d7702ff3cadf8f0ae980604300ad2/guix_build.log.diff) |\n\n",
      "user": {
        "login": "DrahtBot",
        "id": 39886733,
        "node_id": "MDQ6VXNlcjM5ODg2NzMz",
        "avatar_url": "https://avatars.githubusercontent.com/u/39886733?v=4",
        "gravatar_id": "",
        "url": "https://api.github.com/users/DrahtBot",
        "html_url": "https://github.com/DrahtBot",
        "followers_url": "https://api.github.com/users/DrahtBot/followers",
        "following_url": "https://api.github.com/users/DrahtBot/following%7B/other_user%7D",
        "gists_url": "https://api.github.com/users/DrahtBot/gists%7B/gist_id%7D",
        "starred_url": "https://api.github.com/users/DrahtBot/starred%7B/owner%7D%7B/repo%7D",
        "subscriptions_url": "https://api.github.com/users/DrahtBot/subscriptions",
        "organizations_url": "https://api.github.com/users/DrahtBot/orgs",
        "repos_url": "https://api.github.com/users/DrahtBot/repos",
        "events_url": "https://api.github.com/users/DrahtBot/events%7B/privacy%7D",
        "received_events_url": "https://api.github.com/users/DrahtBot/received_events",
        "type": "User",
        "site_admin": false
      },
      "html_url": "https://github.com/bitcoin/bitcoin/pull/27896#issuecomment-1608419719",
      "issue_url": "https://api.github.com/repos/bitcoin/bitcoin/issues/27896"
    },
    {
      "event": "unlabeled",
      "id": 9644947436,
      "node_id": "UNLE_lADOABII585o68YJzwAAAAI-4jfs",
      "url": "https://api.github.com/repos/bitcoin/bitcoin/issues/events/9644947436",
      "actor": {
        "login": "DrahtBot",
        "id": 39886733,
        "node_id": "MDQ6VXNlcjM5ODg2NzMz",
        "avatar_url": "https://avatars.githubusercontent.com/u/39886733?v=4",
        "gravatar_id": "",
        "url": "https://api.github.com/users/DrahtBot",
        "html_url": "https://github.com/DrahtBot",
        "followers_url": "https://api.github.com/users/DrahtBot/followers",
        "following_url": "https://api.github.com/users/DrahtBot/following%7B/other_user%7D",
        "gists_url": "https://api.github.com/users/DrahtBot/gists%7B/gist_id%7D",
        "starred_url": "https://api.github.com/users/DrahtBot/starred%7B/owner%7D%7B/repo%7D",
        "subscriptions_url": "https://api.github.com/users/DrahtBot/subscriptions",
        "organizations_url": "https://api.github.com/users/DrahtBot/orgs",
        "repos_url": "https://api.github.com/users/DrahtBot/repos",
        "events_url": "https://api.github.com/users/DrahtBot/events%7B/privacy%7D",
        "received_events_url": "https://api.github.com/users/DrahtBot/received_events",
        "type": "User",
        "site_admin": false
      },
      "commit_id": null,
      "commit_url": null,
      "created_at": "2023-06-26T22:45:24Z",
      "label": {
        "name": "DrahtBot Guix build requested",
        "color": "bfd4f2"
      }
    },
    {
      "event": "commented",
      "id": 1610264637,
      "node_id": "IC_kwDOABII585f-rA9",
      "url": "https://api.github.com/repos/bitcoin/bitcoin/issues/comments/1610264637",
      "actor": {
        "login": "achow101",
        "id": 3782274,
        "node_id": "MDQ6VXNlcjM3ODIyNzQ=",
        "avatar_url": "https://avatars.githubusercontent.com/u/3782274?v=4",
        "gravatar_id": "",
        "url": "https://api.github.com/users/achow101",
        "html_url": "https://github.com/achow101",
        "followers_url": "https://api.github.com/users/achow101/followers",
        "following_url": "https://api.github.com/users/achow101/following%7B/other_user%7D",
        "gists_url": "https://api.github.com/users/achow101/gists%7B/gist_id%7D",
        "starred_url": "https://api.github.com/users/achow101/starred%7B/owner%7D%7B/repo%7D",
        "subscriptions_url": "https://api.github.com/users/achow101/subscriptions",
        "organizations_url": "https://api.github.com/users/achow101/orgs",
        "repos_url": "https://api.github.com/users/achow101/repos",
        "events_url": "https://api.github.com/users/achow101/events%7B/privacy%7D",
        "received_events_url": "https://api.github.com/users/achow101/received_events",
        "type": "User",
        "site_admin": false
      },
      "commit_id": null,
      "commit_url": null,
      "created_at": "2023-06-27T21:48:03Z",
      "updated_at": "2023-06-27T21:48:03Z",
      "author_association": "MEMBER",
      "body": "ACK 32e2ffc39374f61bb2435da507f285459985df9e\r\n\r\nThe syscall sandbox has a rather significant maintenance burden for rather limited benefit.",
      "user": {
        "login": "achow101",
        "id": 3782274,
        "node_id": "MDQ6VXNlcjM3ODIyNzQ=",
        "avatar_url": "https://avatars.githubusercontent.com/u/3782274?v=4",
        "gravatar_id": "",
        "url": "https://api.github.com/users/achow101",
        "html_url": "https://github.com/achow101",
        "followers_url": "https://api.github.com/users/achow101/followers",
        "following_url": "https://api.github.com/users/achow101/following%7B/other_user%7D",
        "gists_url": "https://api.github.com/users/achow101/gists%7B/gist_id%7D",
        "starred_url": "https://api.github.com/users/achow101/starred%7B/owner%7D%7B/repo%7D",
        "subscriptions_url": "https://api.github.com/users/achow101/subscriptions",
        "organizations_url": "https://api.github.com/users/achow101/orgs",
        "repos_url": "https://api.github.com/users/achow101/repos",
        "events_url": "https://api.github.com/users/achow101/events%7B/privacy%7D",
        "received_events_url": "https://api.github.com/users/achow101/received_events",
        "type": "User",
        "site_admin": false
      },
      "html_url": "https://github.com/bitcoin/bitcoin/pull/27896#issuecomment-1610264637",
      "issue_url": "https://api.github.com/repos/bitcoin/bitcoin/issues/27896"
    },
    {
      "event": "merged",
      "id": 9657637950,
      "node_id": "ME_lADOABII585o68YJzwAAAAI_o9w-",
      "url": "https://api.github.com/repos/bitcoin/bitcoin/issues/events/9657637950",
      "actor": {
        "login": "achow101",
        "id": 3782274,
        "node_id": "MDQ6VXNlcjM3ODIyNzQ=",
        "avatar_url": "https://avatars.githubusercontent.com/u/3782274?v=4",
        "gravatar_id": "",
        "url": "https://api.github.com/users/achow101",
        "html_url": "https://github.com/achow101",
        "followers_url": "https://api.github.com/users/achow101/followers",
        "following_url": "https://api.github.com/users/achow101/following%7B/other_user%7D",
        "gists_url": "https://api.github.com/users/achow101/gists%7B/gist_id%7D",
        "starred_url": "https://api.github.com/users/achow101/starred%7B/owner%7D%7B/repo%7D",
        "subscriptions_url": "https://api.github.com/users/achow101/subscriptions",
        "organizations_url": "https://api.github.com/users/achow101/orgs",
        "repos_url": "https://api.github.com/users/achow101/repos",
        "events_url": "https://api.github.com/users/achow101/events%7B/privacy%7D",
        "received_events_url": "https://api.github.com/users/achow101/received_events",
        "type": "User",
        "site_admin": false
      },
      "commit_id": "caff95a0237facddb46fbbdf87e31ff6294b8c70",
      "commit_url": "https://api.github.com/repos/bitcoin/bitcoin/commits/caff95a0237facddb46fbbdf87e31ff6294b8c70",
      "created_at": "2023-06-27T22:19:33Z"
    },
    {
      "event": "closed",
      "id": 9657637980,
      "node_id": "CE_lADOABII585o68YJzwAAAAI_o9xc",
      "url": "https://api.github.com/repos/bitcoin/bitcoin/issues/events/9657637980",
      "actor": {
        "login": "achow101",
        "id": 3782274,
        "node_id": "MDQ6VXNlcjM3ODIyNzQ=",
        "avatar_url": "https://avatars.githubusercontent.com/u/3782274?v=4",
        "gravatar_id": "",
        "url": "https://api.github.com/users/achow101",
        "html_url": "https://github.com/achow101",
        "followers_url": "https://api.github.com/users/achow101/followers",
        "following_url": "https://api.github.com/users/achow101/following%7B/other_user%7D",
        "gists_url": "https://api.github.com/users/achow101/gists%7B/gist_id%7D",
        "starred_url": "https://api.github.com/users/achow101/starred%7B/owner%7D%7B/repo%7D",
        "subscriptions_url": "https://api.github.com/users/achow101/subscriptions",
        "organizations_url": "https://api.github.com/users/achow101/orgs",
        "repos_url": "https://api.github.com/users/achow101/repos",
        "events_url": "https://api.github.com/users/achow101/events%7B/privacy%7D",
        "received_events_url": "https://api.github.com/users/achow101/received_events",
        "type": "User",
        "site_admin": false
      },
      "commit_id": null,
      "commit_url": null,
      "created_at": "2023-06-27T22:19:34Z"
    },
    {
      "event": "head_ref_deleted",
      "id": 9662825531,
      "node_id": "HRDE_lADOABII585o68YJzwAAAAI_8wQ7",
      "url": "https://api.github.com/repos/bitcoin/bitcoin/issues/events/9662825531",
      "actor": {
        "login": "fanquake",
        "id": 863730,
        "node_id": "MDQ6VXNlcjg2MzczMA==",
        "avatar_url": "https://avatars.githubusercontent.com/u/863730?v=4",
        "gravatar_id": "",
        "url": "https://api.github.com/users/fanquake",
        "html_url": "https://github.com/fanquake",
        "followers_url": "https://api.github.com/users/fanquake/followers",
        "following_url": "https://api.github.com/users/fanquake/following%7B/other_user%7D",
        "gists_url": "https://api.github.com/users/fanquake/gists%7B/gist_id%7D",
        "starred_url": "https://api.github.com/users/fanquake/starred%7B/owner%7D%7B/repo%7D",
        "subscriptions_url": "https://api.github.com/users/fanquake/subscriptions",
        "organizations_url": "https://api.github.com/users/fanquake/orgs",
        "repos_url": "https://api.github.com/users/fanquake/repos",
        "events_url": "https://api.github.com/users/fanquake/events%7B/privacy%7D",
        "received_events_url": "https://api.github.com/users/fanquake/received_events",
        "type": "User",
        "site_admin": false
      },
      "commit_id": null,
      "commit_url": null,
      "created_at": "2023-06-28T10:15:20Z"
    },
    {
      "event": "referenced",
      "id": 9683803280,
      "node_id": "REFE_lADOABII585o68YJzwAAAAJBMxyQ",
      "url": "https://api.github.com/repos/bitcoin/bitcoin/issues/events/9683803280",
      "actor": {
        "login": "sidhujag",
        "id": 6238042,
        "node_id": "MDQ6VXNlcjYyMzgwNDI=",
        "avatar_url": "https://avatars.githubusercontent.com/u/6238042?v=4",
        "gravatar_id": "",
        "url": "https://api.github.com/users/sidhujag",
        "html_url": "https://github.com/sidhujag",
        "followers_url": "https://api.github.com/users/sidhujag/followers",
        "following_url": "https://api.github.com/users/sidhujag/following%7B/other_user%7D",
        "gists_url": "https://api.github.com/users/sidhujag/gists%7B/gist_id%7D",
        "starred_url": "https://api.github.com/users/sidhujag/starred%7B/owner%7D%7B/repo%7D",
        "subscriptions_url": "https://api.github.com/users/sidhujag/subscriptions",
        "organizations_url": "https://api.github.com/users/sidhujag/orgs",
        "repos_url": "https://api.github.com/users/sidhujag/repos",
        "events_url": "https://api.github.com/users/sidhujag/events%7B/privacy%7D",
        "received_events_url": "https://api.github.com/users/sidhujag/received_events",
        "type": "User",
        "site_admin": false
      },
      "commit_id": "678a3d4350d9d6160c2566c1a1400863b043d538",
      "commit_url": "https://api.github.com/repos/syscoin/syscoin/commits/678a3d4350d9d6160c2566c1a1400863b043d538",
      "created_at": "2023-06-30T04:24:51Z"
    }
  ],
  "comments": []
}