{
  "type": "pull",
  "pull": {
    "url": "https://api.github.com/repos/bitcoin/bitcoin/pulls/28021",
    "id": 1417678715,
    "node_id": "PR_kwDOABII585UgA97",
    "html_url": "https://github.com/bitcoin/bitcoin/pull/28021",
    "diff_url": "https://github.com/bitcoin/bitcoin/pull/28021.diff",
    "patch_url": "https://github.com/bitcoin/bitcoin/pull/28021.patch",
    "issue_url": "https://api.github.com/repos/bitcoin/bitcoin/issues/28021",
    "commits_url": "https://api.github.com/repos/bitcoin/bitcoin/pulls/28021/commits",
    "review_comments_url": "https://api.github.com/repos/bitcoin/bitcoin/pulls/28021/comments",
    "review_comment_url": "https://api.github.com/repos/bitcoin/bitcoin/pulls/comments%7B/number%7D",
    "comments_url": "https://api.github.com/repos/bitcoin/bitcoin/issues/28021/comments",
    "statuses_url": "https://api.github.com/repos/bitcoin/bitcoin/statuses/c1247c3746d4b9ea88a0f9cfb7e71904267b3cd3",
    "number": 28021,
    "state": "closed",
    "locked": false,
    "maintainer_can_modify": false,
    "title": "docs: fixup honggfuzz fuzz patch",
    "user": {
      "login": "fanquake",
      "id": 863730,
      "node_id": "MDQ6VXNlcjg2MzczMA==",
      "avatar_url": "https://avatars.githubusercontent.com/u/863730?v=4",
      "gravatar_id": "",
      "url": "https://api.github.com/users/fanquake",
      "html_url": "https://github.com/fanquake",
      "followers_url": "https://api.github.com/users/fanquake/followers",
      "following_url": "https://api.github.com/users/fanquake/following%7B/other_user%7D",
      "gists_url": "https://api.github.com/users/fanquake/gists%7B/gist_id%7D",
      "starred_url": "https://api.github.com/users/fanquake/starred%7B/owner%7D%7B/repo%7D",
      "subscriptions_url": "https://api.github.com/users/fanquake/subscriptions",
      "organizations_url": "https://api.github.com/users/fanquake/orgs",
      "repos_url": "https://api.github.com/users/fanquake/repos",
      "events_url": "https://api.github.com/users/fanquake/events%7B/privacy%7D",
      "received_events_url": "https://api.github.com/users/fanquake/received_events",
      "type": "User",
      "site_admin": false
    },
    "body": "Closes #28019.",
    "labels": [
      {
        "id": 148216,
        "node_id": "MDU6TGFiZWwxNDgyMTY=",
        "url": "https://api.github.com/repos/bitcoin/bitcoin/labels/Docs",
        "name": "Docs",
        "color": "02d7e1",
        "default": false
      },
      {
        "id": 5334691551,
        "node_id": "LA_kwDOABII588AAAABPfju3w",
        "url": "https://api.github.com/repos/bitcoin/bitcoin/labels/CI%20failed",
        "name": "CI failed",
        "description": "",
        "color": "cccccc",
        "default": false
      }
    ],
    "created_at": "2023-07-03T09:00:46Z",
    "updated_at": "2023-07-03T10:45:10Z",
    "closed_at": "2023-07-03T10:45:05Z",
    "mergeable_state": "unknown",
    "merged_at": "2023-07-03T10:45:05Z",
    "merge_commit_sha": "600c595b8d2f4bf049b9182d4a0aa88e4b34458d",
    "assignees": [],
    "requested_reviewers": [],
    "requested_teams": [],
    "head": {
      "label": "fanquake:honggfuzz_patch",
      "ref": "honggfuzz_patch",
      "sha": "c1247c3746d4b9ea88a0f9cfb7e71904267b3cd3",
      "user": {
        "login": "fanquake",
        "id": 863730,
        "node_id": "MDQ6VXNlcjg2MzczMA==",
        "avatar_url": "https://avatars.githubusercontent.com/u/863730?v=4",
        "gravatar_id": "",
        "url": "https://api.github.com/users/fanquake",
        "html_url": "https://github.com/fanquake",
        "followers_url": "https://api.github.com/users/fanquake/followers",
        "following_url": "https://api.github.com/users/fanquake/following%7B/other_user%7D",
        "gists_url": "https://api.github.com/users/fanquake/gists%7B/gist_id%7D",
        "starred_url": "https://api.github.com/users/fanquake/starred%7B/owner%7D%7B/repo%7D",
        "subscriptions_url": "https://api.github.com/users/fanquake/subscriptions",
        "organizations_url": "https://api.github.com/users/fanquake/orgs",
        "repos_url": "https://api.github.com/users/fanquake/repos",
        "events_url": "https://api.github.com/users/fanquake/events%7B/privacy%7D",
        "received_events_url": "https://api.github.com/users/fanquake/received_events",
        "type": "User",
        "site_admin": false
      },
      "repo": {
        "id": 5910539,
        "node_id": "MDEwOlJlcG9zaXRvcnk1OTEwNTM5",
        "name": "bitcoin",
        "full_name": "fanquake/bitcoin",
        "owner": {
          "login": "fanquake",
          "id": 863730,
          "node_id": "MDQ6VXNlcjg2MzczMA==",
          "avatar_url": "https://avatars.githubusercontent.com/u/863730?v=4",
          "gravatar_id": "",
          "url": "https://api.github.com/users/fanquake",
          "html_url": "https://github.com/fanquake",
          "followers_url": "https://api.github.com/users/fanquake/followers",
          "following_url": "https://api.github.com/users/fanquake/following%7B/other_user%7D",
          "gists_url": "https://api.github.com/users/fanquake/gists%7B/gist_id%7D",
          "starred_url": "https://api.github.com/users/fanquake/starred%7B/owner%7D%7B/repo%7D",
          "subscriptions_url": "https://api.github.com/users/fanquake/subscriptions",
          "organizations_url": "https://api.github.com/users/fanquake/orgs",
          "repos_url": "https://api.github.com/users/fanquake/repos",
          "events_url": "https://api.github.com/users/fanquake/events%7B/privacy%7D",
          "received_events_url": "https://api.github.com/users/fanquake/received_events",
          "type": "User",
          "site_admin": false
        },
        "private": false,
        "html_url": "https://github.com/fanquake/bitcoin",
        "description": "Bitcoin integration/staging tree",
        "fork": true,
        "url": "https://api.github.com/repos/fanquake/bitcoin",
        "archive_url": "https://api.github.com/repos/fanquake/bitcoin/%7Barchive_format%7D%7B/ref%7D",
        "assignees_url": "https://api.github.com/repos/fanquake/bitcoin/assignees%7B/user%7D",
        "blobs_url": "https://api.github.com/repos/fanquake/bitcoin/git/blobs%7B/sha%7D",
        "branches_url": "https://api.github.com/repos/fanquake/bitcoin/branches%7B/branch%7D",
        "collaborators_url": "https://api.github.com/repos/fanquake/bitcoin/collaborators%7B/collaborator%7D",
        "comments_url": "https://api.github.com/repos/fanquake/bitcoin/comments%7B/number%7D",
        "commits_url": "https://api.github.com/repos/fanquake/bitcoin/commits%7B/sha%7D",
        "compare_url": "https://api.github.com/repos/fanquake/bitcoin/compare/%7Bbase%7D...%7Bhead%7D",
        "contents_url": "https://api.github.com/repos/fanquake/bitcoin/contents/%7B+path%7D",
        "contributors_url": "https://api.github.com/repos/fanquake/bitcoin/contributors",
        "deployments_url": "https://api.github.com/repos/fanquake/bitcoin/deployments",
        "downloads_url": "https://api.github.com/repos/fanquake/bitcoin/downloads",
        "events_url": "https://api.github.com/repos/fanquake/bitcoin/events",
        "forks_url": "https://api.github.com/repos/fanquake/bitcoin/forks",
        "git_commits_url": "https://api.github.com/repos/fanquake/bitcoin/git/commits%7B/sha%7D",
        "git_refs_url": "https://api.github.com/repos/fanquake/bitcoin/git/refs%7B/sha%7D",
        "git_tags_url": "https://api.github.com/repos/fanquake/bitcoin/git/tags%7B/sha%7D",
        "git_url": "git://github.com/fanquake/bitcoin.git",
        "issue_comment_url": "https://api.github.com/repos/fanquake/bitcoin/issues/comments%7B/number%7D",
        "issue_events_url": "https://api.github.com/repos/fanquake/bitcoin/issues/events%7B/number%7D",
        "issues_url": "https://api.github.com/repos/fanquake/bitcoin/issues%7B/number%7D",
        "keys_url": "https://api.github.com/repos/fanquake/bitcoin/keys%7B/key_id%7D",
        "labels_url": "https://api.github.com/repos/fanquake/bitcoin/labels%7B/name%7D",
        "languages_url": "https://api.github.com/repos/fanquake/bitcoin/languages",
        "merges_url": "https://api.github.com/repos/fanquake/bitcoin/merges",
        "milestones_url": "https://api.github.com/repos/fanquake/bitcoin/milestones%7B/number%7D",
        "notifications_url": "https://api.github.com/repos/fanquake/bitcoin/notifications%7B?since,all,participating}",
        "pulls_url": "https://api.github.com/repos/fanquake/bitcoin/pulls%7B/number%7D",
        "releases_url": "https://api.github.com/repos/fanquake/bitcoin/releases%7B/id%7D",
        "ssh_url": "git@github.com:fanquake/bitcoin.git",
        "stargazers_url": "https://api.github.com/repos/fanquake/bitcoin/stargazers",
        "statuses_url": "https://api.github.com/repos/fanquake/bitcoin/statuses/%7Bsha%7D",
        "subscribers_url": "https://api.github.com/repos/fanquake/bitcoin/subscribers",
        "subscription_url": "https://api.github.com/repos/fanquake/bitcoin/subscription",
        "tags_url": "https://api.github.com/repos/fanquake/bitcoin/tags",
        "teams_url": "https://api.github.com/repos/fanquake/bitcoin/teams",
        "trees_url": "https://api.github.com/repos/fanquake/bitcoin/git/trees%7B/sha%7D",
        "clone_url": "https://github.com/fanquake/bitcoin.git",
        "hooks_url": "https://api.github.com/repos/fanquake/bitcoin/hooks",
        "svn_url": "https://github.com/fanquake/bitcoin",
        "homepage": "http://www.bitcoincore.org",
        "language": "C++",
        "forks_count": 5,
        "stargazers_count": 13,
        "watchers_count": 13,
        "size": 215355,
        "default_branch": "master",
        "open_issues_count": 0,
        "is_template": false,
        "topics": [],
        "has_issues": false,
        "has_projects": false,
        "has_wiki": false,
        "has_pages": false,
        "has_downloads": false,
        "archived": false,
        "disabled": false,
        "visibility": "public",
        "pushed_at": "2023-08-02T12:28:14Z",
        "created_at": "2012-09-22T05:28:42Z",
        "updated_at": "2023-04-27T19:34:01Z",
        "license": {
          "key": "mit",
          "name": "MIT License",
          "node_id": "MDc6TGljZW5zZTEz",
          "spdx_id": "MIT",
          "url": "https://api.github.com/licenses/mit",
          "html_url": null,
          "description": null,
          "implementation": null,
          "permissions": null,
          "conditions": null,
          "limitations": null,
          "body": null,
          "featured": null
        }
      }
    },
    "base": {
      "label": "bitcoin:master",
      "ref": "master",
      "sha": "61d59fed74108f31eb4e9a2faa3f36422a37000e",
      "user": {
        "login": "bitcoin",
        "id": 528860,
        "node_id": "MDEyOk9yZ2FuaXphdGlvbjUyODg2MA==",
        "avatar_url": "https://avatars.githubusercontent.com/u/528860?v=4",
        "gravatar_id": "",
        "url": "https://api.github.com/users/bitcoin",
        "html_url": "https://github.com/bitcoin",
        "followers_url": "https://api.github.com/users/bitcoin/followers",
        "following_url": "https://api.github.com/users/bitcoin/following%7B/other_user%7D",
        "gists_url": "https://api.github.com/users/bitcoin/gists%7B/gist_id%7D",
        "starred_url": "https://api.github.com/users/bitcoin/starred%7B/owner%7D%7B/repo%7D",
        "subscriptions_url": "https://api.github.com/users/bitcoin/subscriptions",
        "organizations_url": "https://api.github.com/users/bitcoin/orgs",
        "repos_url": "https://api.github.com/users/bitcoin/repos",
        "events_url": "https://api.github.com/users/bitcoin/events%7B/privacy%7D",
        "received_events_url": "https://api.github.com/users/bitcoin/received_events",
        "type": "Organization",
        "site_admin": false
      },
      "repo": {
        "id": 1181927,
        "node_id": "MDEwOlJlcG9zaXRvcnkxMTgxOTI3",
        "name": "bitcoin",
        "full_name": "bitcoin/bitcoin",
        "owner": {
          "login": "bitcoin",
          "id": 528860,
          "node_id": "MDEyOk9yZ2FuaXphdGlvbjUyODg2MA==",
          "avatar_url": "https://avatars.githubusercontent.com/u/528860?v=4",
          "gravatar_id": "",
          "url": "https://api.github.com/users/bitcoin",
          "html_url": "https://github.com/bitcoin",
          "followers_url": "https://api.github.com/users/bitcoin/followers",
          "following_url": "https://api.github.com/users/bitcoin/following%7B/other_user%7D",
          "gists_url": "https://api.github.com/users/bitcoin/gists%7B/gist_id%7D",
          "starred_url": "https://api.github.com/users/bitcoin/starred%7B/owner%7D%7B/repo%7D",
          "subscriptions_url": "https://api.github.com/users/bitcoin/subscriptions",
          "organizations_url": "https://api.github.com/users/bitcoin/orgs",
          "repos_url": "https://api.github.com/users/bitcoin/repos",
          "events_url": "https://api.github.com/users/bitcoin/events%7B/privacy%7D",
          "received_events_url": "https://api.github.com/users/bitcoin/received_events",
          "type": "Organization",
          "site_admin": false
        },
        "private": false,
        "html_url": "https://github.com/bitcoin/bitcoin",
        "description": "Bitcoin Core integration/staging tree",
        "fork": false,
        "url": "https://api.github.com/repos/bitcoin/bitcoin",
        "archive_url": "https://api.github.com/repos/bitcoin/bitcoin/%7Barchive_format%7D%7B/ref%7D",
        "assignees_url": "https://api.github.com/repos/bitcoin/bitcoin/assignees%7B/user%7D",
        "blobs_url": "https://api.github.com/repos/bitcoin/bitcoin/git/blobs%7B/sha%7D",
        "branches_url": "https://api.github.com/repos/bitcoin/bitcoin/branches%7B/branch%7D",
        "collaborators_url": "https://api.github.com/repos/bitcoin/bitcoin/collaborators%7B/collaborator%7D",
        "comments_url": "https://api.github.com/repos/bitcoin/bitcoin/comments%7B/number%7D",
        "commits_url": "https://api.github.com/repos/bitcoin/bitcoin/commits%7B/sha%7D",
        "compare_url": "https://api.github.com/repos/bitcoin/bitcoin/compare/%7Bbase%7D...%7Bhead%7D",
        "contents_url": "https://api.github.com/repos/bitcoin/bitcoin/contents/%7B+path%7D",
        "contributors_url": "https://api.github.com/repos/bitcoin/bitcoin/contributors",
        "deployments_url": "https://api.github.com/repos/bitcoin/bitcoin/deployments",
        "downloads_url": "https://api.github.com/repos/bitcoin/bitcoin/downloads",
        "events_url": "https://api.github.com/repos/bitcoin/bitcoin/events",
        "forks_url": "https://api.github.com/repos/bitcoin/bitcoin/forks",
        "git_commits_url": "https://api.github.com/repos/bitcoin/bitcoin/git/commits%7B/sha%7D",
        "git_refs_url": "https://api.github.com/repos/bitcoin/bitcoin/git/refs%7B/sha%7D",
        "git_tags_url": "https://api.github.com/repos/bitcoin/bitcoin/git/tags%7B/sha%7D",
        "git_url": "git://github.com/bitcoin/bitcoin.git",
        "issue_comment_url": "https://api.github.com/repos/bitcoin/bitcoin/issues/comments%7B/number%7D",
        "issue_events_url": "https://api.github.com/repos/bitcoin/bitcoin/issues/events%7B/number%7D",
        "issues_url": "https://api.github.com/repos/bitcoin/bitcoin/issues%7B/number%7D",
        "keys_url": "https://api.github.com/repos/bitcoin/bitcoin/keys%7B/key_id%7D",
        "labels_url": "https://api.github.com/repos/bitcoin/bitcoin/labels%7B/name%7D",
        "languages_url": "https://api.github.com/repos/bitcoin/bitcoin/languages",
        "merges_url": "https://api.github.com/repos/bitcoin/bitcoin/merges",
        "milestones_url": "https://api.github.com/repos/bitcoin/bitcoin/milestones%7B/number%7D",
        "notifications_url": "https://api.github.com/repos/bitcoin/bitcoin/notifications%7B?since,all,participating}",
        "pulls_url": "https://api.github.com/repos/bitcoin/bitcoin/pulls%7B/number%7D",
        "releases_url": "https://api.github.com/repos/bitcoin/bitcoin/releases%7B/id%7D",
        "ssh_url": "git@github.com:bitcoin/bitcoin.git",
        "stargazers_url": "https://api.github.com/repos/bitcoin/bitcoin/stargazers",
        "statuses_url": "https://api.github.com/repos/bitcoin/bitcoin/statuses/%7Bsha%7D",
        "subscribers_url": "https://api.github.com/repos/bitcoin/bitcoin/subscribers",
        "subscription_url": "https://api.github.com/repos/bitcoin/bitcoin/subscription",
        "tags_url": "https://api.github.com/repos/bitcoin/bitcoin/tags",
        "teams_url": "https://api.github.com/repos/bitcoin/bitcoin/teams",
        "trees_url": "https://api.github.com/repos/bitcoin/bitcoin/git/trees%7B/sha%7D",
        "clone_url": "https://github.com/bitcoin/bitcoin.git",
        "hooks_url": "https://api.github.com/repos/bitcoin/bitcoin/hooks",
        "svn_url": "https://github.com/bitcoin/bitcoin",
        "homepage": "https://bitcoincore.org/en/download",
        "language": "C++",
        "forks_count": 35476,
        "stargazers_count": 70608,
        "watchers_count": 70608,
        "size": 236222,
        "default_branch": "master",
        "open_issues_count": 673,
        "is_template": false,
        "topics": [
          "bitcoin",
          "c-plus-plus",
          "cryptocurrency",
          "cryptography",
          "p2p"
        ],
        "has_issues": true,
        "has_projects": true,
        "has_wiki": false,
        "has_pages": false,
        "has_downloads": false,
        "archived": false,
        "disabled": false,
        "visibility": "public",
        "pushed_at": "2023-08-03T00:03:27Z",
        "created_at": "2010-12-19T15:16:43Z",
        "updated_at": "2023-08-02T18:21:18Z",
        "license": {
          "key": "mit",
          "name": "MIT License",
          "node_id": "MDc6TGljZW5zZTEz",
          "spdx_id": "MIT",
          "url": "https://api.github.com/licenses/mit",
          "html_url": null,
          "description": null,
          "implementation": null,
          "permissions": null,
          "conditions": null,
          "limitations": null,
          "body": null,
          "featured": null
        }
      }
    },
    "_links": {
      "self": {
        "href": "https://api.github.com/repos/bitcoin/bitcoin/pulls/28021"
      }
    },
    "author_association": "MEMBER",
    "draft": false,
    "additions": 22,
    "deletions": 21,
    "changed_files": 1,
    "commits": 1,
    "review_comments": 2,
    "comments": 1
  },
  "events": [
    {
      "event": "commented",
      "id": 1617671417,
      "node_id": "IC_kwDOABII585ga7T5",
      "url": "https://api.github.com/repos/bitcoin/bitcoin/issues/comments/1617671417",
      "actor": {
        "login": "DrahtBot",
        "id": 39886733,
        "node_id": "MDQ6VXNlcjM5ODg2NzMz",
        "avatar_url": "https://avatars.githubusercontent.com/u/39886733?v=4",
        "gravatar_id": "",
        "url": "https://api.github.com/users/DrahtBot",
        "html_url": "https://github.com/DrahtBot",
        "followers_url": "https://api.github.com/users/DrahtBot/followers",
        "following_url": "https://api.github.com/users/DrahtBot/following%7B/other_user%7D",
        "gists_url": "https://api.github.com/users/DrahtBot/gists%7B/gist_id%7D",
        "starred_url": "https://api.github.com/users/DrahtBot/starred%7B/owner%7D%7B/repo%7D",
        "subscriptions_url": "https://api.github.com/users/DrahtBot/subscriptions",
        "organizations_url": "https://api.github.com/users/DrahtBot/orgs",
        "repos_url": "https://api.github.com/users/DrahtBot/repos",
        "events_url": "https://api.github.com/users/DrahtBot/events%7B/privacy%7D",
        "received_events_url": "https://api.github.com/users/DrahtBot/received_events",
        "type": "User",
        "site_admin": false
      },
      "commit_id": null,
      "commit_url": null,
      "created_at": "2023-07-03T09:00:51Z",
      "updated_at": "2023-07-03T10:36:55Z",
      "author_association": "CONTRIBUTOR",
      "body": "<!--e57a25ab6845829454e8d69fc972939a-->\n\nThe following sections might be updated with supplementary metadata relevant to reviewers and maintainers.\n\n<!--021abf342d371248e50ceaed478a90ca-->\n### Reviews\nSee [the guideline](https://github.com/bitcoin/bitcoin/blob/master/CONTRIBUTING.md#code-review) for information on the review process.\n| Type | Reviewers |\n| ---- | --------- |\n| ACK | [brunoerg](https://github.com/bitcoin/bitcoin/pull/28021#pullrequestreview-1510913912) |\n\nIf your review is incorrectly listed, please react with 👎 to this comment and the bot will ignore it on the next update.\n",
      "user": {
        "login": "DrahtBot",
        "id": 39886733,
        "node_id": "MDQ6VXNlcjM5ODg2NzMz",
        "avatar_url": "https://avatars.githubusercontent.com/u/39886733?v=4",
        "gravatar_id": "",
        "url": "https://api.github.com/users/DrahtBot",
        "html_url": "https://github.com/DrahtBot",
        "followers_url": "https://api.github.com/users/DrahtBot/followers",
        "following_url": "https://api.github.com/users/DrahtBot/following%7B/other_user%7D",
        "gists_url": "https://api.github.com/users/DrahtBot/gists%7B/gist_id%7D",
        "starred_url": "https://api.github.com/users/DrahtBot/starred%7B/owner%7D%7B/repo%7D",
        "subscriptions_url": "https://api.github.com/users/DrahtBot/subscriptions",
        "organizations_url": "https://api.github.com/users/DrahtBot/orgs",
        "repos_url": "https://api.github.com/users/DrahtBot/repos",
        "events_url": "https://api.github.com/users/DrahtBot/events%7B/privacy%7D",
        "received_events_url": "https://api.github.com/users/DrahtBot/received_events",
        "type": "User",
        "site_admin": false
      },
      "html_url": "https://github.com/bitcoin/bitcoin/pull/28021#issuecomment-1617671417",
      "issue_url": "https://api.github.com/repos/bitcoin/bitcoin/issues/28021"
    },
    {
      "event": "labeled",
      "id": 9706189826,
      "node_id": "LE_lADOABII585qb4jtzwAAAAJCiLQC",
      "url": "https://api.github.com/repos/bitcoin/bitcoin/issues/events/9706189826",
      "actor": {
        "login": "DrahtBot",
        "id": 39886733,
        "node_id": "MDQ6VXNlcjM5ODg2NzMz",
        "avatar_url": "https://avatars.githubusercontent.com/u/39886733?v=4",
        "gravatar_id": "",
        "url": "https://api.github.com/users/DrahtBot",
        "html_url": "https://github.com/DrahtBot",
        "followers_url": "https://api.github.com/users/DrahtBot/followers",
        "following_url": "https://api.github.com/users/DrahtBot/following%7B/other_user%7D",
        "gists_url": "https://api.github.com/users/DrahtBot/gists%7B/gist_id%7D",
        "starred_url": "https://api.github.com/users/DrahtBot/starred%7B/owner%7D%7B/repo%7D",
        "subscriptions_url": "https://api.github.com/users/DrahtBot/subscriptions",
        "organizations_url": "https://api.github.com/users/DrahtBot/orgs",
        "repos_url": "https://api.github.com/users/DrahtBot/repos",
        "events_url": "https://api.github.com/users/DrahtBot/events%7B/privacy%7D",
        "received_events_url": "https://api.github.com/users/DrahtBot/received_events",
        "type": "User",
        "site_admin": false
      },
      "commit_id": null,
      "commit_url": null,
      "created_at": "2023-07-03T09:00:53Z",
      "label": {
        "name": "Docs",
        "color": "02d7e1"
      }
    },
    {
      "event": "reviewed",
      "id": 1510830563,
      "node_id": "PRR_kwDOABII585aDXHj",
      "url": null,
      "actor": null,
      "commit_id": "1a0958eeba63e30e4a25d3b6b0cf85a685deeb6c",
      "commit_url": null,
      "created_at": null,
      "author_association": "MEMBER",
      "user": {
        "login": "MarcoFalke",
        "id": 6399679,
        "node_id": "MDQ6VXNlcjYzOTk2Nzk=",
        "avatar_url": "https://avatars.githubusercontent.com/u/6399679?v=4",
        "gravatar_id": "",
        "url": "https://api.github.com/users/MarcoFalke",
        "html_url": "https://github.com/MarcoFalke",
        "followers_url": "https://api.github.com/users/MarcoFalke/followers",
        "following_url": "https://api.github.com/users/MarcoFalke/following%7B/other_user%7D",
        "gists_url": "https://api.github.com/users/MarcoFalke/gists%7B/gist_id%7D",
        "starred_url": "https://api.github.com/users/MarcoFalke/starred%7B/owner%7D%7B/repo%7D",
        "subscriptions_url": "https://api.github.com/users/MarcoFalke/subscriptions",
        "organizations_url": "https://api.github.com/users/MarcoFalke/orgs",
        "repos_url": "https://api.github.com/users/MarcoFalke/repos",
        "events_url": "https://api.github.com/users/MarcoFalke/events%7B/privacy%7D",
        "received_events_url": "https://api.github.com/users/MarcoFalke/received_events",
        "type": "User",
        "site_admin": false
      },
      "html_url": "https://github.com/bitcoin/bitcoin/pull/28021#pullrequestreview-1510830563",
      "submitted_at": "2023-07-03T09:57:15Z",
      "state": "COMMENTED",
      "pull_request_url": "https://api.github.com/repos/bitcoin/bitcoin/pulls/28021"
    },
    {
      "event": "committed",
      "id": null,
      "node_id": "C_kwDOABII59oAKGMxMjQ3YzM3NDZkNGI5ZWE4OGEwZjljZmI3ZTcxOTA0MjY3YjNjZDM",
      "url": "https://api.github.com/repos/bitcoin/bitcoin/git/commits/c1247c3746d4b9ea88a0f9cfb7e71904267b3cd3",
      "actor": null,
      "commit_id": null,
      "commit_url": null,
      "created_at": null,
      "html_url": "https://github.com/bitcoin/bitcoin/commit/c1247c3746d4b9ea88a0f9cfb7e71904267b3cd3",
      "tree": {
        "sha": "ff39ec9e427ded101a55ef7c6d96a2ab7df1a23f",
        "url": "https://api.github.com/repos/bitcoin/bitcoin/git/trees/ff39ec9e427ded101a55ef7c6d96a2ab7df1a23f"
      },
      "verification": {
        "verified": true,
        "reason": "valid",
        "payload": "tree ff39ec9e427ded101a55ef7c6d96a2ab7df1a23f\nparent 61d59fed74108f31eb4e9a2faa3f36422a37000e\nauthor fanquake <fanquake@gmail.com> 1688374199 +0100\ncommitter fanquake <fanquake@gmail.com> 1688378457 +0100\n\ndocs: fixup honggfuzz patch\n\nCloses #28019.\n",
        "signature": "-----BEGIN PGP SIGNATURE-----\n\niQIzBAABCAAdFiEEz7FuIclQ9n+pXlWPLuufXMCVJsEFAmSinFsACgkQLuufXMCV\nJsGHog//VyatHLnTSShmRAqLFNb114Nk+l2o+vyU3omjPcAGEx/xAXbHLW+G4rCD\nipAflFQnNbrX5AHWCT/WnWM63wjNGQOC1g2ULUc3qNg7LuDbLlTrDnE+XoSZOU4D\nrZwqqOcUwF76YxN4Q7dUT3EMVAZHKFCknwX4LhpXW5bYOV6JguDgDBKSqPgWjrOJ\n3DVNYjDjJJKxSuQ/g2VoebOBfTVzZC33uho86g4B0zXjZ5MQ2lINt5N4RNZHCnvF\nVVlTre0Zz5E5JUxb1lUaNekPXqxZPKJ2KnDpntjTS7wBhwOD5zSQy/DLehtZF1/Q\nuZ8u4Y17u7jGTVU+MOBq6YAdbM72CsYku7nTYveoUn/CfBcLxXXxltZmuEd/4Er1\nxZrbxh0YR/1gv4DdFAfZEf2YI6ELJ3uxVkBHP1u5eWXSmO/u+ZzLRk88rb9sMSey\nLEDsgxDwnSG9sF3HBL9Om5mzVA+IQbZulY11adqZGUmC195TUvLN2CAavTgaaf1t\n+lvzo0dviRmwssJNsil745mcnD3aFBmQRK8ngLQlr6IQ4az8BY0CxO4HsqWtzMdU\nsnkYnLrInx8PklDHHP27/oeX7/ynLhIpWnEVnhzTUrPpMuBKwiFSe5KPILJsLSbl\njTvpdRED6xd1GvOrN9JzHMnasJNKi7u8eVzOQ9QZCG2Q8hy/l10=\n=4IR6\n-----END PGP SIGNATURE-----"
      },
      "parents": [
        {
          "url": "https://api.github.com/repos/bitcoin/bitcoin/git/commits/61d59fed74108f31eb4e9a2faa3f36422a37000e",
          "sha": "61d59fed74108f31eb4e9a2faa3f36422a37000e",
          "html_url": "https://github.com/bitcoin/bitcoin/commit/61d59fed74108f31eb4e9a2faa3f36422a37000e"
        }
      ],
      "message": "docs: fixup honggfuzz patch\n\nCloses #28019.",
      "committer": {
        "name": "fanquake",
        "email": "fanquake@gmail.com",
        "date": "2023-07-03T10:00:57Z"
      },
      "author": {
        "name": "fanquake",
        "email": "fanquake@gmail.com",
        "date": "2023-07-03T08:49:59Z"
      },
      "sha": "c1247c3746d4b9ea88a0f9cfb7e71904267b3cd3"
    },
    {
      "event": "head_ref_force_pushed",
      "id": 9706937282,
      "node_id": "HRFPE_lADOABII585qb4jtzwAAAAJClBvC",
      "url": "https://api.github.com/repos/bitcoin/bitcoin/issues/events/9706937282",
      "actor": {
        "login": "fanquake",
        "id": 863730,
        "node_id": "MDQ6VXNlcjg2MzczMA==",
        "avatar_url": "https://avatars.githubusercontent.com/u/863730?v=4",
        "gravatar_id": "",
        "url": "https://api.github.com/users/fanquake",
        "html_url": "https://github.com/fanquake",
        "followers_url": "https://api.github.com/users/fanquake/followers",
        "following_url": "https://api.github.com/users/fanquake/following%7B/other_user%7D",
        "gists_url": "https://api.github.com/users/fanquake/gists%7B/gist_id%7D",
        "starred_url": "https://api.github.com/users/fanquake/starred%7B/owner%7D%7B/repo%7D",
        "subscriptions_url": "https://api.github.com/users/fanquake/subscriptions",
        "organizations_url": "https://api.github.com/users/fanquake/orgs",
        "repos_url": "https://api.github.com/users/fanquake/repos",
        "events_url": "https://api.github.com/users/fanquake/events%7B/privacy%7D",
        "received_events_url": "https://api.github.com/users/fanquake/received_events",
        "type": "User",
        "site_admin": false
      },
      "commit_id": null,
      "commit_url": null,
      "created_at": "2023-07-03T10:01:31Z"
    },
    {
      "event": "labeled",
      "id": 9706938199,
      "node_id": "LE_lADOABII585qb4jtzwAAAAJClB9X",
      "url": "https://api.github.com/repos/bitcoin/bitcoin/issues/events/9706938199",
      "actor": {
        "login": "DrahtBot",
        "id": 39886733,
        "node_id": "MDQ6VXNlcjM5ODg2NzMz",
        "avatar_url": "https://avatars.githubusercontent.com/u/39886733?v=4",
        "gravatar_id": "",
        "url": "https://api.github.com/users/DrahtBot",
        "html_url": "https://github.com/DrahtBot",
        "followers_url": "https://api.github.com/users/DrahtBot/followers",
        "following_url": "https://api.github.com/users/DrahtBot/following%7B/other_user%7D",
        "gists_url": "https://api.github.com/users/DrahtBot/gists%7B/gist_id%7D",
        "starred_url": "https://api.github.com/users/DrahtBot/starred%7B/owner%7D%7B/repo%7D",
        "subscriptions_url": "https://api.github.com/users/DrahtBot/subscriptions",
        "organizations_url": "https://api.github.com/users/DrahtBot/orgs",
        "repos_url": "https://api.github.com/users/DrahtBot/repos",
        "events_url": "https://api.github.com/users/DrahtBot/events%7B/privacy%7D",
        "received_events_url": "https://api.github.com/users/DrahtBot/received_events",
        "type": "User",
        "site_admin": false
      },
      "commit_id": null,
      "commit_url": null,
      "created_at": "2023-07-03T10:01:36Z",
      "label": {
        "name": "CI failed",
        "color": "cccccc"
      }
    },
    {
      "event": "reviewed",
      "id": 1510847799,
      "node_id": "PRR_kwDOABII585aDbU3",
      "url": null,
      "actor": null,
      "commit_id": "c1247c3746d4b9ea88a0f9cfb7e71904267b3cd3",
      "commit_url": null,
      "created_at": null,
      "author_association": "MEMBER",
      "body": "lgtm",
      "user": {
        "login": "MarcoFalke",
        "id": 6399679,
        "node_id": "MDQ6VXNlcjYzOTk2Nzk=",
        "avatar_url": "https://avatars.githubusercontent.com/u/6399679?v=4",
        "gravatar_id": "",
        "url": "https://api.github.com/users/MarcoFalke",
        "html_url": "https://github.com/MarcoFalke",
        "followers_url": "https://api.github.com/users/MarcoFalke/followers",
        "following_url": "https://api.github.com/users/MarcoFalke/following%7B/other_user%7D",
        "gists_url": "https://api.github.com/users/MarcoFalke/gists%7B/gist_id%7D",
        "starred_url": "https://api.github.com/users/MarcoFalke/starred%7B/owner%7D%7B/repo%7D",
        "subscriptions_url": "https://api.github.com/users/MarcoFalke/subscriptions",
        "organizations_url": "https://api.github.com/users/MarcoFalke/orgs",
        "repos_url": "https://api.github.com/users/MarcoFalke/repos",
        "events_url": "https://api.github.com/users/MarcoFalke/events%7B/privacy%7D",
        "received_events_url": "https://api.github.com/users/MarcoFalke/received_events",
        "type": "User",
        "site_admin": false
      },
      "html_url": "https://github.com/bitcoin/bitcoin/pull/28021#pullrequestreview-1510847799",
      "submitted_at": "2023-07-03T10:07:24Z",
      "state": "APPROVED",
      "pull_request_url": "https://api.github.com/repos/bitcoin/bitcoin/pulls/28021"
    },
    {
      "event": "review_requested",
      "id": 9707009985,
      "node_id": "RRE_lADOABII585qb4jtzwAAAAJClTfB",
      "url": "https://api.github.com/repos/bitcoin/bitcoin/issues/events/9707009985",
      "actor": {
        "login": "MarcoFalke",
        "id": 6399679,
        "node_id": "MDQ6VXNlcjYzOTk2Nzk=",
        "avatar_url": "https://avatars.githubusercontent.com/u/6399679?v=4",
        "gravatar_id": "",
        "url": "https://api.github.com/users/MarcoFalke",
        "html_url": "https://github.com/MarcoFalke",
        "followers_url": "https://api.github.com/users/MarcoFalke/followers",
        "following_url": "https://api.github.com/users/MarcoFalke/following%7B/other_user%7D",
        "gists_url": "https://api.github.com/users/MarcoFalke/gists%7B/gist_id%7D",
        "starred_url": "https://api.github.com/users/MarcoFalke/starred%7B/owner%7D%7B/repo%7D",
        "subscriptions_url": "https://api.github.com/users/MarcoFalke/subscriptions",
        "organizations_url": "https://api.github.com/users/MarcoFalke/orgs",
        "repos_url": "https://api.github.com/users/MarcoFalke/repos",
        "events_url": "https://api.github.com/users/MarcoFalke/events%7B/privacy%7D",
        "received_events_url": "https://api.github.com/users/MarcoFalke/received_events",
        "type": "User",
        "site_admin": false
      },
      "commit_id": null,
      "commit_url": null,
      "created_at": "2023-07-03T10:07:38Z",
      "requested_reviewer": {
        "login": "brunoerg",
        "id": 19480819,
        "node_id": "MDQ6VXNlcjE5NDgwODE5",
        "avatar_url": "https://avatars.githubusercontent.com/u/19480819?v=4",
        "gravatar_id": "",
        "url": "https://api.github.com/users/brunoerg",
        "html_url": "https://github.com/brunoerg",
        "followers_url": "https://api.github.com/users/brunoerg/followers",
        "following_url": "https://api.github.com/users/brunoerg/following%7B/other_user%7D",
        "gists_url": "https://api.github.com/users/brunoerg/gists%7B/gist_id%7D",
        "starred_url": "https://api.github.com/users/brunoerg/starred%7B/owner%7D%7B/repo%7D",
        "subscriptions_url": "https://api.github.com/users/brunoerg/subscriptions",
        "organizations_url": "https://api.github.com/users/brunoerg/orgs",
        "repos_url": "https://api.github.com/users/brunoerg/repos",
        "events_url": "https://api.github.com/users/brunoerg/events%7B/privacy%7D",
        "received_events_url": "https://api.github.com/users/brunoerg/received_events",
        "type": "User",
        "site_admin": false
      },
      "review_requester": {
        "login": "MarcoFalke",
        "id": 6399679,
        "node_id": "MDQ6VXNlcjYzOTk2Nzk=",
        "avatar_url": "https://avatars.githubusercontent.com/u/6399679?v=4",
        "gravatar_id": "",
        "url": "https://api.github.com/users/MarcoFalke",
        "html_url": "https://github.com/MarcoFalke",
        "followers_url": "https://api.github.com/users/MarcoFalke/followers",
        "following_url": "https://api.github.com/users/MarcoFalke/following%7B/other_user%7D",
        "gists_url": "https://api.github.com/users/MarcoFalke/gists%7B/gist_id%7D",
        "starred_url": "https://api.github.com/users/MarcoFalke/starred%7B/owner%7D%7B/repo%7D",
        "subscriptions_url": "https://api.github.com/users/MarcoFalke/subscriptions",
        "organizations_url": "https://api.github.com/users/MarcoFalke/orgs",
        "repos_url": "https://api.github.com/users/MarcoFalke/repos",
        "events_url": "https://api.github.com/users/MarcoFalke/events%7B/privacy%7D",
        "received_events_url": "https://api.github.com/users/MarcoFalke/received_events",
        "type": "User",
        "site_admin": false
      }
    },
    {
      "event": "reviewed",
      "id": 1510913912,
      "node_id": "PRR_kwDOABII585aDrd4",
      "url": null,
      "actor": null,
      "commit_id": "c1247c3746d4b9ea88a0f9cfb7e71904267b3cd3",
      "commit_url": null,
      "created_at": null,
      "author_association": "CONTRIBUTOR",
      "body": "ACK c1247c3746d4b9ea88a0f9cfb7e71904267b3cd3",
      "user": {
        "login": "brunoerg",
        "id": 19480819,
        "node_id": "MDQ6VXNlcjE5NDgwODE5",
        "avatar_url": "https://avatars.githubusercontent.com/u/19480819?v=4",
        "gravatar_id": "",
        "url": "https://api.github.com/users/brunoerg",
        "html_url": "https://github.com/brunoerg",
        "followers_url": "https://api.github.com/users/brunoerg/followers",
        "following_url": "https://api.github.com/users/brunoerg/following%7B/other_user%7D",
        "gists_url": "https://api.github.com/users/brunoerg/gists%7B/gist_id%7D",
        "starred_url": "https://api.github.com/users/brunoerg/starred%7B/owner%7D%7B/repo%7D",
        "subscriptions_url": "https://api.github.com/users/brunoerg/subscriptions",
        "organizations_url": "https://api.github.com/users/brunoerg/orgs",
        "repos_url": "https://api.github.com/users/brunoerg/repos",
        "events_url": "https://api.github.com/users/brunoerg/events%7B/privacy%7D",
        "received_events_url": "https://api.github.com/users/brunoerg/received_events",
        "type": "User",
        "site_admin": false
      },
      "html_url": "https://github.com/bitcoin/bitcoin/pull/28021#pullrequestreview-1510913912",
      "submitted_at": "2023-07-03T10:36:52Z",
      "state": "APPROVED",
      "pull_request_url": "https://api.github.com/repos/bitcoin/bitcoin/pulls/28021"
    },
    {
      "event": "merged",
      "id": 9707438528,
      "node_id": "ME_lADOABII585qb4jtzwAAAAJCm8HA",
      "url": "https://api.github.com/repos/bitcoin/bitcoin/issues/events/9707438528",
      "actor": {
        "login": "fanquake",
        "id": 863730,
        "node_id": "MDQ6VXNlcjg2MzczMA==",
        "avatar_url": "https://avatars.githubusercontent.com/u/863730?v=4",
        "gravatar_id": "",
        "url": "https://api.github.com/users/fanquake",
        "html_url": "https://github.com/fanquake",
        "followers_url": "https://api.github.com/users/fanquake/followers",
        "following_url": "https://api.github.com/users/fanquake/following%7B/other_user%7D",
        "gists_url": "https://api.github.com/users/fanquake/gists%7B/gist_id%7D",
        "starred_url": "https://api.github.com/users/fanquake/starred%7B/owner%7D%7B/repo%7D",
        "subscriptions_url": "https://api.github.com/users/fanquake/subscriptions",
        "organizations_url": "https://api.github.com/users/fanquake/orgs",
        "repos_url": "https://api.github.com/users/fanquake/repos",
        "events_url": "https://api.github.com/users/fanquake/events%7B/privacy%7D",
        "received_events_url": "https://api.github.com/users/fanquake/received_events",
        "type": "User",
        "site_admin": false
      },
      "commit_id": "600c595b8d2f4bf049b9182d4a0aa88e4b34458d",
      "commit_url": "https://api.github.com/repos/bitcoin/bitcoin/commits/600c595b8d2f4bf049b9182d4a0aa88e4b34458d",
      "created_at": "2023-07-03T10:45:05Z"
    },
    {
      "event": "closed",
      "id": 9707438573,
      "node_id": "CE_lADOABII585qb4jtzwAAAAJCm8Ht",
      "url": "https://api.github.com/repos/bitcoin/bitcoin/issues/events/9707438573",
      "actor": {
        "login": "fanquake",
        "id": 863730,
        "node_id": "MDQ6VXNlcjg2MzczMA==",
        "avatar_url": "https://avatars.githubusercontent.com/u/863730?v=4",
        "gravatar_id": "",
        "url": "https://api.github.com/users/fanquake",
        "html_url": "https://github.com/fanquake",
        "followers_url": "https://api.github.com/users/fanquake/followers",
        "following_url": "https://api.github.com/users/fanquake/following%7B/other_user%7D",
        "gists_url": "https://api.github.com/users/fanquake/gists%7B/gist_id%7D",
        "starred_url": "https://api.github.com/users/fanquake/starred%7B/owner%7D%7B/repo%7D",
        "subscriptions_url": "https://api.github.com/users/fanquake/subscriptions",
        "organizations_url": "https://api.github.com/users/fanquake/orgs",
        "repos_url": "https://api.github.com/users/fanquake/repos",
        "events_url": "https://api.github.com/users/fanquake/events%7B/privacy%7D",
        "received_events_url": "https://api.github.com/users/fanquake/received_events",
        "type": "User",
        "site_admin": false
      },
      "commit_id": null,
      "commit_url": null,
      "created_at": "2023-07-03T10:45:05Z"
    },
    {
      "event": "head_ref_deleted",
      "id": 9707439294,
      "node_id": "HRDE_lADOABII585qb4jtzwAAAAJCm8S-",
      "url": "https://api.github.com/repos/bitcoin/bitcoin/issues/events/9707439294",
      "actor": {
        "login": "fanquake",
        "id": 863730,
        "node_id": "MDQ6VXNlcjg2MzczMA==",
        "avatar_url": "https://avatars.githubusercontent.com/u/863730?v=4",
        "gravatar_id": "",
        "url": "https://api.github.com/users/fanquake",
        "html_url": "https://github.com/fanquake",
        "followers_url": "https://api.github.com/users/fanquake/followers",
        "following_url": "https://api.github.com/users/fanquake/following%7B/other_user%7D",
        "gists_url": "https://api.github.com/users/fanquake/gists%7B/gist_id%7D",
        "starred_url": "https://api.github.com/users/fanquake/starred%7B/owner%7D%7B/repo%7D",
        "subscriptions_url": "https://api.github.com/users/fanquake/subscriptions",
        "organizations_url": "https://api.github.com/users/fanquake/orgs",
        "repos_url": "https://api.github.com/users/fanquake/repos",
        "events_url": "https://api.github.com/users/fanquake/events%7B/privacy%7D",
        "received_events_url": "https://api.github.com/users/fanquake/received_events",
        "type": "User",
        "site_admin": false
      },
      "commit_id": null,
      "commit_url": null,
      "created_at": "2023-07-03T10:45:10Z"
    },
    {
      "event": "referenced",
      "id": 9723660359,
      "node_id": "REFE_lADOABII585qb4jtzwAAAAJDk0hH",
      "url": "https://api.github.com/repos/bitcoin/bitcoin/issues/events/9723660359",
      "actor": {
        "login": "sidhujag",
        "id": 6238042,
        "node_id": "MDQ6VXNlcjYyMzgwNDI=",
        "avatar_url": "https://avatars.githubusercontent.com/u/6238042?v=4",
        "gravatar_id": "",
        "url": "https://api.github.com/users/sidhujag",
        "html_url": "https://github.com/sidhujag",
        "followers_url": "https://api.github.com/users/sidhujag/followers",
        "following_url": "https://api.github.com/users/sidhujag/following%7B/other_user%7D",
        "gists_url": "https://api.github.com/users/sidhujag/gists%7B/gist_id%7D",
        "starred_url": "https://api.github.com/users/sidhujag/starred%7B/owner%7D%7B/repo%7D",
        "subscriptions_url": "https://api.github.com/users/sidhujag/subscriptions",
        "organizations_url": "https://api.github.com/users/sidhujag/orgs",
        "repos_url": "https://api.github.com/users/sidhujag/repos",
        "events_url": "https://api.github.com/users/sidhujag/events%7B/privacy%7D",
        "received_events_url": "https://api.github.com/users/sidhujag/received_events",
        "type": "User",
        "site_admin": false
      },
      "commit_id": "2fc077f8c4ac191da2fb2804941cd1bc1f7c7c02",
      "commit_url": "https://api.github.com/repos/syscoin/syscoin/commits/2fc077f8c4ac191da2fb2804941cd1bc1f7c7c02",
      "created_at": "2023-07-04T16:42:42Z"
    },
    {
      "event": "unsubscribed",
      "id": 9743036909,
      "node_id": "UE_lADOABII585qb4jtzwAAAAJEuvHt",
      "url": "https://api.github.com/repos/bitcoin/bitcoin/issues/events/9743036909",
      "actor": {
        "login": "joostjager",
        "id": 4638168,
        "node_id": "MDQ6VXNlcjQ2MzgxNjg=",
        "avatar_url": "https://avatars.githubusercontent.com/u/4638168?v=4",
        "gravatar_id": "",
        "url": "https://api.github.com/users/joostjager",
        "html_url": "https://github.com/joostjager",
        "followers_url": "https://api.github.com/users/joostjager/followers",
        "following_url": "https://api.github.com/users/joostjager/following%7B/other_user%7D",
        "gists_url": "https://api.github.com/users/joostjager/gists%7B/gist_id%7D",
        "starred_url": "https://api.github.com/users/joostjager/starred%7B/owner%7D%7B/repo%7D",
        "subscriptions_url": "https://api.github.com/users/joostjager/subscriptions",
        "organizations_url": "https://api.github.com/users/joostjager/orgs",
        "repos_url": "https://api.github.com/users/joostjager/repos",
        "events_url": "https://api.github.com/users/joostjager/events%7B/privacy%7D",
        "received_events_url": "https://api.github.com/users/joostjager/received_events",
        "type": "User",
        "site_admin": false
      },
      "commit_id": null,
      "commit_url": null,
      "created_at": "2023-07-06T12:03:18Z"
    }
  ],
  "comments": [
    {
      "url": "https://api.github.com/repos/bitcoin/bitcoin/pulls/comments/1250601396",
      "pull_request_review_id": 1510830563,
      "id": 1250601396,
      "node_id": "PRRC_kwDOABII585Kiqm0",
      "diff_hunk": "@@ -219,44 +219,45 @@ $ CC=$(pwd)/honggfuzz/hfuzz_cc/hfuzz-clang \\\n       ./configure --disable-wallet --with-gui=no \\\n                   --with-sanitizers=address,undefined\n $ git apply << \"EOF\"\n-diff --git a/src/bitcoind.cpp b/src/bitcoind.cpp\n-index 455a82e39..2faa3f80f 100644\n---- a/src/bitcoind.cpp\n-+++ b/src/bitcoind.cpp\n-@@ -158,7 +158,11 @@ static bool AppInit(int argc, char* argv[])\n-     return fRet;\n- }\n-\n+diff --git a/src/compat/compat.h b/src/compat/compat.h\n+index 8195bceaec..cce2b31ff0 100644\n+--- a/src/compat/compat.h\n++++ b/src/compat/compat.h\n+@@ -90,8 +90,12 @@ typedef char* sockopt_arg_type;\n+ // building with a binutils < 2.36 is subject to this ld bug.\n+ #define MAIN_FUNCTION __declspec(dllexport) int main(int argc, char* argv[])\n+ #else\n +#ifdef HFND_FUZZING_ENTRY_FUNCTION_CXX\n-+HFND_FUZZING_ENTRY_FUNCTION_CXX(int argc, char* argv[])\n++#define MAIN_FUNCTION HFND_FUZZING_ENTRY_FUNCTION_CXX(int argc, char* argv[])\n +#else\n- int main(int argc, char* argv[])\n+ #define MAIN_FUNCTION int main(int argc, char* argv[])\n+ #endif\n +#endif\n- {\n- #ifdef WIN32\n-     util::WinCmdLineArgs winArgs;\n+\n+ // Note these both should work with the current usage of poll, but best to be safe\n+ // WIN32 poll is broken https://daniel.haxx.se/blog/2012/10/10/wsapoll-is-broken/\n diff --git a/src/net.cpp b/src/net.cpp\n-index cf987b699..636a4176a 100644\n+index 7601a6ea84..702d0f56ce 100644\n --- a/src/net.cpp\n +++ b/src/net.cpp\n-@@ -709,7 +709,7 @@ int V1TransportDeserializer::readHeader(const char *pch, unsigned int nBytes)\n+@@ -727,7 +727,7 @@ int V1TransportDeserializer::readHeader(Span<const uint8_t> msg_bytes)\n      }\n \n      // Check start string, network magic\n -    if (memcmp(hdr.pchMessageStart, m_chain_params.MessageStart(), CMessageHeader::MESSAGE_START_SIZE) != 0) {\n +    if (false && memcmp(hdr.pchMessageStart, m_chain_params.MessageStart(), CMessageHeader::MESSAGE_START_SIZE) != 0) { // skip network magic checking\n-         LogPrint(BCLog::NET, \"HEADER ERROR - MESSAGESTART (%s, %u bytes), received %s, peer=%d\\n\", hdr.GetCommand(), hdr.nMessageSize, HexStr(hdr.pchMessageStart), m_node_id);\n+         LogPrint(BCLog::NET, \"Header error: Wrong MessageStart %s received, peer=%d\\n\", HexStr(hdr.pchMessageStart), m_node_id);\n          return -1;\n      }\n-@@ -768,7 +768,7 @@ Optional<CNetMessage> V1TransportDeserializer::GetMessage(const std::chrono::mic\n+@@ -788,7 +788,7 @@ CNetMessage V1TransportDeserializer::GetMessage(const std::chrono::microseconds\n      RandAddEvent(ReadLE32(hash.begin()));\n \n-     // Check checksum and header command string\n+     // Check checksum and header message type string\n -    if (memcmp(hash.begin(), hdr.pchChecksum, CMessageHeader::CHECKSUM_SIZE) != 0) {\n-+    if (false && memcmp(hash.begin(), hdr.pchChecksum, CMessageHeader::CHECKSUM_SIZE) != 0) { // skip checksum checking\n-         LogPrint(BCLog::NET, \"CHECKSUM ERROR (%s, %u bytes), expected %s was %s, peer=%d\\n\",\n-                  SanitizeString(msg->m_command), msg->m_message_size,\n-                  HexStr(Span<uint8_t>(hash.begin(), hash.begin() + CMessageHeader::CHECKSUM_SIZE)),\n++    if (false && memcmp(hash.begin(), hdr.pchChecksum, CMessageHeader::CHECKSUM_SIZE) != 0) { // skip network magic checking",
      "path": "doc/fuzzing.md",
      "position": null,
      "original_position": 61,
      "commit_id": "c1247c3746d4b9ea88a0f9cfb7e71904267b3cd3",
      "original_commit_id": "1a0958eeba63e30e4a25d3b6b0cf85a685deeb6c",
      "in_reply_to_id": null,
      "user": {
        "login": "MarcoFalke",
        "id": 6399679,
        "node_id": "MDQ6VXNlcjYzOTk2Nzk=",
        "avatar_url": "https://avatars.githubusercontent.com/u/6399679?v=4",
        "gravatar_id": "",
        "url": "https://api.github.com/users/MarcoFalke",
        "html_url": "https://github.com/MarcoFalke",
        "followers_url": "https://api.github.com/users/MarcoFalke/followers",
        "following_url": "https://api.github.com/users/MarcoFalke/following%7B/other_user%7D",
        "gists_url": "https://api.github.com/users/MarcoFalke/gists%7B/gist_id%7D",
        "starred_url": "https://api.github.com/users/MarcoFalke/starred%7B/owner%7D%7B/repo%7D",
        "subscriptions_url": "https://api.github.com/users/MarcoFalke/subscriptions",
        "organizations_url": "https://api.github.com/users/MarcoFalke/orgs",
        "repos_url": "https://api.github.com/users/MarcoFalke/repos",
        "events_url": "https://api.github.com/users/MarcoFalke/events%7B/privacy%7D",
        "received_events_url": "https://api.github.com/users/MarcoFalke/received_events",
        "type": "User",
        "site_admin": false
      },
      "body": "Any reason to make the comment wrong?",
      "created_at": "2023-07-03T09:57:15Z",
      "updated_at": "2023-07-03T09:57:15Z",
      "html_url": "https://github.com/bitcoin/bitcoin/pull/28021#discussion_r1250601396",
      "author_association": "MEMBER",
      "_links": {
        "self": {
          "href": "https://api.github.com/repos/bitcoin/bitcoin/pulls/comments/1250601396"
        },
        "pull_request": {
          "href": "https://api.github.com/repos/bitcoin/bitcoin/pulls/28021"
        }
      },
      "start_line": null,
      "original_start_line": null,
      "start_side": null,
      "line": null,
      "original_line": 257,
      "side": "RIGHT"
    },
    {
      "url": "https://api.github.com/repos/bitcoin/bitcoin/pulls/comments/1250606783",
      "pull_request_review_id": 1510837566,
      "id": 1250606783,
      "node_id": "PRRC_kwDOABII585Kir6_",
      "diff_hunk": "@@ -219,44 +219,45 @@ $ CC=$(pwd)/honggfuzz/hfuzz_cc/hfuzz-clang \\\n       ./configure --disable-wallet --with-gui=no \\\n                   --with-sanitizers=address,undefined\n $ git apply << \"EOF\"\n-diff --git a/src/bitcoind.cpp b/src/bitcoind.cpp\n-index 455a82e39..2faa3f80f 100644\n---- a/src/bitcoind.cpp\n-+++ b/src/bitcoind.cpp\n-@@ -158,7 +158,11 @@ static bool AppInit(int argc, char* argv[])\n-     return fRet;\n- }\n-\n+diff --git a/src/compat/compat.h b/src/compat/compat.h\n+index 8195bceaec..cce2b31ff0 100644\n+--- a/src/compat/compat.h\n++++ b/src/compat/compat.h\n+@@ -90,8 +90,12 @@ typedef char* sockopt_arg_type;\n+ // building with a binutils < 2.36 is subject to this ld bug.\n+ #define MAIN_FUNCTION __declspec(dllexport) int main(int argc, char* argv[])\n+ #else\n +#ifdef HFND_FUZZING_ENTRY_FUNCTION_CXX\n-+HFND_FUZZING_ENTRY_FUNCTION_CXX(int argc, char* argv[])\n++#define MAIN_FUNCTION HFND_FUZZING_ENTRY_FUNCTION_CXX(int argc, char* argv[])\n +#else\n- int main(int argc, char* argv[])\n+ #define MAIN_FUNCTION int main(int argc, char* argv[])\n+ #endif\n +#endif\n- {\n- #ifdef WIN32\n-     util::WinCmdLineArgs winArgs;\n+\n+ // Note these both should work with the current usage of poll, but best to be safe\n+ // WIN32 poll is broken https://daniel.haxx.se/blog/2012/10/10/wsapoll-is-broken/\n diff --git a/src/net.cpp b/src/net.cpp\n-index cf987b699..636a4176a 100644\n+index 7601a6ea84..702d0f56ce 100644\n --- a/src/net.cpp\n +++ b/src/net.cpp\n-@@ -709,7 +709,7 @@ int V1TransportDeserializer::readHeader(const char *pch, unsigned int nBytes)\n+@@ -727,7 +727,7 @@ int V1TransportDeserializer::readHeader(Span<const uint8_t> msg_bytes)\n      }\n \n      // Check start string, network magic\n -    if (memcmp(hdr.pchMessageStart, m_chain_params.MessageStart(), CMessageHeader::MESSAGE_START_SIZE) != 0) {\n +    if (false && memcmp(hdr.pchMessageStart, m_chain_params.MessageStart(), CMessageHeader::MESSAGE_START_SIZE) != 0) { // skip network magic checking\n-         LogPrint(BCLog::NET, \"HEADER ERROR - MESSAGESTART (%s, %u bytes), received %s, peer=%d\\n\", hdr.GetCommand(), hdr.nMessageSize, HexStr(hdr.pchMessageStart), m_node_id);\n+         LogPrint(BCLog::NET, \"Header error: Wrong MessageStart %s received, peer=%d\\n\", HexStr(hdr.pchMessageStart), m_node_id);\n          return -1;\n      }\n-@@ -768,7 +768,7 @@ Optional<CNetMessage> V1TransportDeserializer::GetMessage(const std::chrono::mic\n+@@ -788,7 +788,7 @@ CNetMessage V1TransportDeserializer::GetMessage(const std::chrono::microseconds\n      RandAddEvent(ReadLE32(hash.begin()));\n \n-     // Check checksum and header command string\n+     // Check checksum and header message type string\n -    if (memcmp(hash.begin(), hdr.pchChecksum, CMessageHeader::CHECKSUM_SIZE) != 0) {\n-+    if (false && memcmp(hash.begin(), hdr.pchChecksum, CMessageHeader::CHECKSUM_SIZE) != 0) { // skip checksum checking\n-         LogPrint(BCLog::NET, \"CHECKSUM ERROR (%s, %u bytes), expected %s was %s, peer=%d\\n\",\n-                  SanitizeString(msg->m_command), msg->m_message_size,\n-                  HexStr(Span<uint8_t>(hash.begin(), hash.begin() + CMessageHeader::CHECKSUM_SIZE)),\n++    if (false && memcmp(hash.begin(), hdr.pchChecksum, CMessageHeader::CHECKSUM_SIZE) != 0) { // skip network magic checking",
      "path": "doc/fuzzing.md",
      "position": null,
      "original_position": 61,
      "commit_id": "c1247c3746d4b9ea88a0f9cfb7e71904267b3cd3",
      "original_commit_id": "1a0958eeba63e30e4a25d3b6b0cf85a685deeb6c",
      "in_reply_to_id": 1250601396,
      "user": {
        "login": "fanquake",
        "id": 863730,
        "node_id": "MDQ6VXNlcjg2MzczMA==",
        "avatar_url": "https://avatars.githubusercontent.com/u/863730?v=4",
        "gravatar_id": "",
        "url": "https://api.github.com/users/fanquake",
        "html_url": "https://github.com/fanquake",
        "followers_url": "https://api.github.com/users/fanquake/followers",
        "following_url": "https://api.github.com/users/fanquake/following%7B/other_user%7D",
        "gists_url": "https://api.github.com/users/fanquake/gists%7B/gist_id%7D",
        "starred_url": "https://api.github.com/users/fanquake/starred%7B/owner%7D%7B/repo%7D",
        "subscriptions_url": "https://api.github.com/users/fanquake/subscriptions",
        "organizations_url": "https://api.github.com/users/fanquake/orgs",
        "repos_url": "https://api.github.com/users/fanquake/repos",
        "events_url": "https://api.github.com/users/fanquake/events%7B/privacy%7D",
        "received_events_url": "https://api.github.com/users/fanquake/received_events",
        "type": "User",
        "site_admin": false
      },
      "body": "Just a miss-copy and paste",
      "created_at": "2023-07-03T10:01:10Z",
      "updated_at": "2023-07-03T10:01:10Z",
      "html_url": "https://github.com/bitcoin/bitcoin/pull/28021#discussion_r1250606783",
      "author_association": "MEMBER",
      "_links": {
        "self": {
          "href": "https://api.github.com/repos/bitcoin/bitcoin/pulls/comments/1250606783"
        },
        "pull_request": {
          "href": "https://api.github.com/repos/bitcoin/bitcoin/pulls/28021"
        }
      },
      "start_line": null,
      "original_start_line": null,
      "start_side": null,
      "line": null,
      "original_line": 257,
      "side": "RIGHT"
    }
  ]
}