{
  "type": "pull",
  "pull": {
    "url": "https://api.github.com/repos/bitcoin/bitcoin/pulls/28144",
    "id": 1447569350,
    "node_id": "PR_kwDOABII585WSCfG",
    "html_url": "https://github.com/bitcoin/bitcoin/pull/28144",
    "diff_url": "https://github.com/bitcoin/bitcoin/pull/28144.diff",
    "patch_url": "https://github.com/bitcoin/bitcoin/pull/28144.patch",
    "issue_url": "https://api.github.com/repos/bitcoin/bitcoin/issues/28144",
    "commits_url": "https://api.github.com/repos/bitcoin/bitcoin/pulls/28144/commits",
    "review_comments_url": "https://api.github.com/repos/bitcoin/bitcoin/pulls/28144/comments",
    "review_comment_url": "https://api.github.com/repos/bitcoin/bitcoin/pulls/comments%7B/number%7D",
    "comments_url": "https://api.github.com/repos/bitcoin/bitcoin/issues/28144/comments",
    "statuses_url": "https://api.github.com/repos/bitcoin/bitcoin/statuses/8a20f765cce2fc0fadf1a2b66b843b67f2d2ae12",
    "number": 28144,
    "state": "closed",
    "locked": false,
    "maintainer_can_modify": false,
    "title": "test: fix intermittent failure in p2p_getaddr_caching.py",
    "user": {
      "login": "mzumsande",
      "id": 48763452,
      "node_id": "MDQ6VXNlcjQ4NzYzNDUy",
      "avatar_url": "https://avatars.githubusercontent.com/u/48763452?v=4",
      "gravatar_id": "",
      "url": "https://api.github.com/users/mzumsande",
      "html_url": "https://github.com/mzumsande",
      "followers_url": "https://api.github.com/users/mzumsande/followers",
      "following_url": "https://api.github.com/users/mzumsande/following%7B/other_user%7D",
      "gists_url": "https://api.github.com/users/mzumsande/gists%7B/gist_id%7D",
      "starred_url": "https://api.github.com/users/mzumsande/starred%7B/owner%7D%7B/repo%7D",
      "subscriptions_url": "https://api.github.com/users/mzumsande/subscriptions",
      "organizations_url": "https://api.github.com/users/mzumsande/orgs",
      "repos_url": "https://api.github.com/users/mzumsande/repos",
      "events_url": "https://api.github.com/users/mzumsande/events%7B/privacy%7D",
      "received_events_url": "https://api.github.com/users/mzumsande/received_events",
      "type": "User",
      "site_admin": false
    },
    "body": "Fixes #28133\r\n\r\nIn the consistency check, it's not enough to check that our address/port is unique, only the combination of source and target must be unique. Otherwise, the OS may reuse ports for connections to different `-addrbind`, which was happening in the failed runs.\r\n\r\nWhile at it, the second commit cleans up duplicate `getaddr` messages in `p2p_getaddr_caching.py` that do nothing but generate `Ignoring repeated \"getaddr\"` log messages (and cleans up some whitespace the python linter complains about).",
    "labels": [
      {
        "id": 62963516,
        "node_id": "MDU6TGFiZWw2Mjk2MzUxNg==",
        "url": "https://api.github.com/repos/bitcoin/bitcoin/labels/Tests",
        "name": "Tests",
        "color": "d4c5f9",
        "default": false
      }
    ],
    "milestone": {
      "url": "https://api.github.com/repos/bitcoin/bitcoin/milestones/60",
      "html_url": "https://github.com/bitcoin/bitcoin/milestone/60",
      "labels_url": "https://api.github.com/repos/bitcoin/bitcoin/milestones/60/labels",
      "id": 9286970,
      "node_id": "MI_kwDOABII584AjbU6",
      "number": 60,
      "state": "open",
      "title": "26.0",
      "description": "",
      "creator": {
        "login": "fanquake",
        "id": 863730,
        "node_id": "MDQ6VXNlcjg2MzczMA==",
        "avatar_url": "https://avatars.githubusercontent.com/u/863730?v=4",
        "gravatar_id": "",
        "url": "https://api.github.com/users/fanquake",
        "html_url": "https://github.com/fanquake",
        "followers_url": "https://api.github.com/users/fanquake/followers",
        "following_url": "https://api.github.com/users/fanquake/following%7B/other_user%7D",
        "gists_url": "https://api.github.com/users/fanquake/gists%7B/gist_id%7D",
        "starred_url": "https://api.github.com/users/fanquake/starred%7B/owner%7D%7B/repo%7D",
        "subscriptions_url": "https://api.github.com/users/fanquake/subscriptions",
        "organizations_url": "https://api.github.com/users/fanquake/orgs",
        "repos_url": "https://api.github.com/users/fanquake/repos",
        "events_url": "https://api.github.com/users/fanquake/events%7B/privacy%7D",
        "received_events_url": "https://api.github.com/users/fanquake/received_events",
        "type": "User",
        "site_admin": false
      },
      "open_issues": 7,
      "closed_issues": 23,
      "created_at": "2023-04-15T11:36:05Z",
      "updated_at": "2023-08-01T16:50:00Z"
    },
    "created_at": "2023-07-25T01:01:57Z",
    "updated_at": "2023-08-01T15:59:48Z",
    "closed_at": "2023-08-01T15:59:47Z",
    "mergeable_state": "unknown",
    "merged_at": "2023-08-01T15:59:47Z",
    "merge_commit_sha": "1b5cbf71dff1f240bac0156f8800382272489f0b",
    "assignees": [],
    "requested_reviewers": [],
    "requested_teams": [],
    "head": {
      "label": "mzumsande:202307_getaddr_caching_fix",
      "ref": "202307_getaddr_caching_fix",
      "sha": "8a20f765cce2fc0fadf1a2b66b843b67f2d2ae12",
      "user": {
        "login": "mzumsande",
        "id": 48763452,
        "node_id": "MDQ6VXNlcjQ4NzYzNDUy",
        "avatar_url": "https://avatars.githubusercontent.com/u/48763452?v=4",
        "gravatar_id": "",
        "url": "https://api.github.com/users/mzumsande",
        "html_url": "https://github.com/mzumsande",
        "followers_url": "https://api.github.com/users/mzumsande/followers",
        "following_url": "https://api.github.com/users/mzumsande/following%7B/other_user%7D",
        "gists_url": "https://api.github.com/users/mzumsande/gists%7B/gist_id%7D",
        "starred_url": "https://api.github.com/users/mzumsande/starred%7B/owner%7D%7B/repo%7D",
        "subscriptions_url": "https://api.github.com/users/mzumsande/subscriptions",
        "organizations_url": "https://api.github.com/users/mzumsande/orgs",
        "repos_url": "https://api.github.com/users/mzumsande/repos",
        "events_url": "https://api.github.com/users/mzumsande/events%7B/privacy%7D",
        "received_events_url": "https://api.github.com/users/mzumsande/received_events",
        "type": "User",
        "site_admin": false
      },
      "repo": {
        "id": 187673073,
        "node_id": "MDEwOlJlcG9zaXRvcnkxODc2NzMwNzM=",
        "name": "bitcoin",
        "full_name": "mzumsande/bitcoin",
        "owner": {
          "login": "mzumsande",
          "id": 48763452,
          "node_id": "MDQ6VXNlcjQ4NzYzNDUy",
          "avatar_url": "https://avatars.githubusercontent.com/u/48763452?v=4",
          "gravatar_id": "",
          "url": "https://api.github.com/users/mzumsande",
          "html_url": "https://github.com/mzumsande",
          "followers_url": "https://api.github.com/users/mzumsande/followers",
          "following_url": "https://api.github.com/users/mzumsande/following%7B/other_user%7D",
          "gists_url": "https://api.github.com/users/mzumsande/gists%7B/gist_id%7D",
          "starred_url": "https://api.github.com/users/mzumsande/starred%7B/owner%7D%7B/repo%7D",
          "subscriptions_url": "https://api.github.com/users/mzumsande/subscriptions",
          "organizations_url": "https://api.github.com/users/mzumsande/orgs",
          "repos_url": "https://api.github.com/users/mzumsande/repos",
          "events_url": "https://api.github.com/users/mzumsande/events%7B/privacy%7D",
          "received_events_url": "https://api.github.com/users/mzumsande/received_events",
          "type": "User",
          "site_admin": false
        },
        "private": false,
        "html_url": "https://github.com/mzumsande/bitcoin",
        "description": "Bitcoin Core integration/staging tree",
        "fork": true,
        "url": "https://api.github.com/repos/mzumsande/bitcoin",
        "archive_url": "https://api.github.com/repos/mzumsande/bitcoin/%7Barchive_format%7D%7B/ref%7D",
        "assignees_url": "https://api.github.com/repos/mzumsande/bitcoin/assignees%7B/user%7D",
        "blobs_url": "https://api.github.com/repos/mzumsande/bitcoin/git/blobs%7B/sha%7D",
        "branches_url": "https://api.github.com/repos/mzumsande/bitcoin/branches%7B/branch%7D",
        "collaborators_url": "https://api.github.com/repos/mzumsande/bitcoin/collaborators%7B/collaborator%7D",
        "comments_url": "https://api.github.com/repos/mzumsande/bitcoin/comments%7B/number%7D",
        "commits_url": "https://api.github.com/repos/mzumsande/bitcoin/commits%7B/sha%7D",
        "compare_url": "https://api.github.com/repos/mzumsande/bitcoin/compare/%7Bbase%7D...%7Bhead%7D",
        "contents_url": "https://api.github.com/repos/mzumsande/bitcoin/contents/%7B+path%7D",
        "contributors_url": "https://api.github.com/repos/mzumsande/bitcoin/contributors",
        "deployments_url": "https://api.github.com/repos/mzumsande/bitcoin/deployments",
        "downloads_url": "https://api.github.com/repos/mzumsande/bitcoin/downloads",
        "events_url": "https://api.github.com/repos/mzumsande/bitcoin/events",
        "forks_url": "https://api.github.com/repos/mzumsande/bitcoin/forks",
        "git_commits_url": "https://api.github.com/repos/mzumsande/bitcoin/git/commits%7B/sha%7D",
        "git_refs_url": "https://api.github.com/repos/mzumsande/bitcoin/git/refs%7B/sha%7D",
        "git_tags_url": "https://api.github.com/repos/mzumsande/bitcoin/git/tags%7B/sha%7D",
        "git_url": "git://github.com/mzumsande/bitcoin.git",
        "issue_comment_url": "https://api.github.com/repos/mzumsande/bitcoin/issues/comments%7B/number%7D",
        "issue_events_url": "https://api.github.com/repos/mzumsande/bitcoin/issues/events%7B/number%7D",
        "issues_url": "https://api.github.com/repos/mzumsande/bitcoin/issues%7B/number%7D",
        "keys_url": "https://api.github.com/repos/mzumsande/bitcoin/keys%7B/key_id%7D",
        "labels_url": "https://api.github.com/repos/mzumsande/bitcoin/labels%7B/name%7D",
        "languages_url": "https://api.github.com/repos/mzumsande/bitcoin/languages",
        "merges_url": "https://api.github.com/repos/mzumsande/bitcoin/merges",
        "milestones_url": "https://api.github.com/repos/mzumsande/bitcoin/milestones%7B/number%7D",
        "notifications_url": "https://api.github.com/repos/mzumsande/bitcoin/notifications%7B?since,all,participating}",
        "pulls_url": "https://api.github.com/repos/mzumsande/bitcoin/pulls%7B/number%7D",
        "releases_url": "https://api.github.com/repos/mzumsande/bitcoin/releases%7B/id%7D",
        "ssh_url": "git@github.com:mzumsande/bitcoin.git",
        "stargazers_url": "https://api.github.com/repos/mzumsande/bitcoin/stargazers",
        "statuses_url": "https://api.github.com/repos/mzumsande/bitcoin/statuses/%7Bsha%7D",
        "subscribers_url": "https://api.github.com/repos/mzumsande/bitcoin/subscribers",
        "subscription_url": "https://api.github.com/repos/mzumsande/bitcoin/subscription",
        "tags_url": "https://api.github.com/repos/mzumsande/bitcoin/tags",
        "teams_url": "https://api.github.com/repos/mzumsande/bitcoin/teams",
        "trees_url": "https://api.github.com/repos/mzumsande/bitcoin/git/trees%7B/sha%7D",
        "clone_url": "https://github.com/mzumsande/bitcoin.git",
        "hooks_url": "https://api.github.com/repos/mzumsande/bitcoin/hooks",
        "svn_url": "https://github.com/mzumsande/bitcoin",
        "homepage": "https://bitcoincore.org/en/download",
        "language": "C++",
        "forks_count": 0,
        "stargazers_count": 2,
        "watchers_count": 2,
        "size": 218813,
        "default_branch": "master",
        "open_issues_count": 0,
        "is_template": false,
        "topics": [],
        "has_issues": false,
        "has_projects": true,
        "has_wiki": false,
        "has_pages": false,
        "has_downloads": false,
        "archived": false,
        "disabled": false,
        "visibility": "public",
        "pushed_at": "2023-07-28T17:06:51Z",
        "created_at": "2019-05-20T16:03:10Z",
        "updated_at": "2023-07-28T06:57:51Z",
        "license": {
          "key": "mit",
          "name": "MIT License",
          "node_id": "MDc6TGljZW5zZTEz",
          "spdx_id": "MIT",
          "url": "https://api.github.com/licenses/mit",
          "html_url": null,
          "description": null,
          "implementation": null,
          "permissions": null,
          "conditions": null,
          "limitations": null,
          "body": null,
          "featured": null
        }
      }
    },
    "base": {
      "label": "bitcoin:master",
      "ref": "master",
      "sha": "e35fb7bc48d360585b80d0c7f89ac5087c1d405e",
      "user": {
        "login": "bitcoin",
        "id": 528860,
        "node_id": "MDEyOk9yZ2FuaXphdGlvbjUyODg2MA==",
        "avatar_url": "https://avatars.githubusercontent.com/u/528860?v=4",
        "gravatar_id": "",
        "url": "https://api.github.com/users/bitcoin",
        "html_url": "https://github.com/bitcoin",
        "followers_url": "https://api.github.com/users/bitcoin/followers",
        "following_url": "https://api.github.com/users/bitcoin/following%7B/other_user%7D",
        "gists_url": "https://api.github.com/users/bitcoin/gists%7B/gist_id%7D",
        "starred_url": "https://api.github.com/users/bitcoin/starred%7B/owner%7D%7B/repo%7D",
        "subscriptions_url": "https://api.github.com/users/bitcoin/subscriptions",
        "organizations_url": "https://api.github.com/users/bitcoin/orgs",
        "repos_url": "https://api.github.com/users/bitcoin/repos",
        "events_url": "https://api.github.com/users/bitcoin/events%7B/privacy%7D",
        "received_events_url": "https://api.github.com/users/bitcoin/received_events",
        "type": "Organization",
        "site_admin": false
      },
      "repo": {
        "id": 1181927,
        "node_id": "MDEwOlJlcG9zaXRvcnkxMTgxOTI3",
        "name": "bitcoin",
        "full_name": "bitcoin/bitcoin",
        "owner": {
          "login": "bitcoin",
          "id": 528860,
          "node_id": "MDEyOk9yZ2FuaXphdGlvbjUyODg2MA==",
          "avatar_url": "https://avatars.githubusercontent.com/u/528860?v=4",
          "gravatar_id": "",
          "url": "https://api.github.com/users/bitcoin",
          "html_url": "https://github.com/bitcoin",
          "followers_url": "https://api.github.com/users/bitcoin/followers",
          "following_url": "https://api.github.com/users/bitcoin/following%7B/other_user%7D",
          "gists_url": "https://api.github.com/users/bitcoin/gists%7B/gist_id%7D",
          "starred_url": "https://api.github.com/users/bitcoin/starred%7B/owner%7D%7B/repo%7D",
          "subscriptions_url": "https://api.github.com/users/bitcoin/subscriptions",
          "organizations_url": "https://api.github.com/users/bitcoin/orgs",
          "repos_url": "https://api.github.com/users/bitcoin/repos",
          "events_url": "https://api.github.com/users/bitcoin/events%7B/privacy%7D",
          "received_events_url": "https://api.github.com/users/bitcoin/received_events",
          "type": "Organization",
          "site_admin": false
        },
        "private": false,
        "html_url": "https://github.com/bitcoin/bitcoin",
        "description": "Bitcoin Core integration/staging tree",
        "fork": false,
        "url": "https://api.github.com/repos/bitcoin/bitcoin",
        "archive_url": "https://api.github.com/repos/bitcoin/bitcoin/%7Barchive_format%7D%7B/ref%7D",
        "assignees_url": "https://api.github.com/repos/bitcoin/bitcoin/assignees%7B/user%7D",
        "blobs_url": "https://api.github.com/repos/bitcoin/bitcoin/git/blobs%7B/sha%7D",
        "branches_url": "https://api.github.com/repos/bitcoin/bitcoin/branches%7B/branch%7D",
        "collaborators_url": "https://api.github.com/repos/bitcoin/bitcoin/collaborators%7B/collaborator%7D",
        "comments_url": "https://api.github.com/repos/bitcoin/bitcoin/comments%7B/number%7D",
        "commits_url": "https://api.github.com/repos/bitcoin/bitcoin/commits%7B/sha%7D",
        "compare_url": "https://api.github.com/repos/bitcoin/bitcoin/compare/%7Bbase%7D...%7Bhead%7D",
        "contents_url": "https://api.github.com/repos/bitcoin/bitcoin/contents/%7B+path%7D",
        "contributors_url": "https://api.github.com/repos/bitcoin/bitcoin/contributors",
        "deployments_url": "https://api.github.com/repos/bitcoin/bitcoin/deployments",
        "downloads_url": "https://api.github.com/repos/bitcoin/bitcoin/downloads",
        "events_url": "https://api.github.com/repos/bitcoin/bitcoin/events",
        "forks_url": "https://api.github.com/repos/bitcoin/bitcoin/forks",
        "git_commits_url": "https://api.github.com/repos/bitcoin/bitcoin/git/commits%7B/sha%7D",
        "git_refs_url": "https://api.github.com/repos/bitcoin/bitcoin/git/refs%7B/sha%7D",
        "git_tags_url": "https://api.github.com/repos/bitcoin/bitcoin/git/tags%7B/sha%7D",
        "git_url": "git://github.com/bitcoin/bitcoin.git",
        "issue_comment_url": "https://api.github.com/repos/bitcoin/bitcoin/issues/comments%7B/number%7D",
        "issue_events_url": "https://api.github.com/repos/bitcoin/bitcoin/issues/events%7B/number%7D",
        "issues_url": "https://api.github.com/repos/bitcoin/bitcoin/issues%7B/number%7D",
        "keys_url": "https://api.github.com/repos/bitcoin/bitcoin/keys%7B/key_id%7D",
        "labels_url": "https://api.github.com/repos/bitcoin/bitcoin/labels%7B/name%7D",
        "languages_url": "https://api.github.com/repos/bitcoin/bitcoin/languages",
        "merges_url": "https://api.github.com/repos/bitcoin/bitcoin/merges",
        "milestones_url": "https://api.github.com/repos/bitcoin/bitcoin/milestones%7B/number%7D",
        "notifications_url": "https://api.github.com/repos/bitcoin/bitcoin/notifications%7B?since,all,participating}",
        "pulls_url": "https://api.github.com/repos/bitcoin/bitcoin/pulls%7B/number%7D",
        "releases_url": "https://api.github.com/repos/bitcoin/bitcoin/releases%7B/id%7D",
        "ssh_url": "git@github.com:bitcoin/bitcoin.git",
        "stargazers_url": "https://api.github.com/repos/bitcoin/bitcoin/stargazers",
        "statuses_url": "https://api.github.com/repos/bitcoin/bitcoin/statuses/%7Bsha%7D",
        "subscribers_url": "https://api.github.com/repos/bitcoin/bitcoin/subscribers",
        "subscription_url": "https://api.github.com/repos/bitcoin/bitcoin/subscription",
        "tags_url": "https://api.github.com/repos/bitcoin/bitcoin/tags",
        "teams_url": "https://api.github.com/repos/bitcoin/bitcoin/teams",
        "trees_url": "https://api.github.com/repos/bitcoin/bitcoin/git/trees%7B/sha%7D",
        "clone_url": "https://github.com/bitcoin/bitcoin.git",
        "hooks_url": "https://api.github.com/repos/bitcoin/bitcoin/hooks",
        "svn_url": "https://github.com/bitcoin/bitcoin",
        "homepage": "https://bitcoincore.org/en/download",
        "language": "C++",
        "forks_count": 35476,
        "stargazers_count": 70608,
        "watchers_count": 70608,
        "size": 236222,
        "default_branch": "master",
        "open_issues_count": 673,
        "is_template": false,
        "topics": [
          "bitcoin",
          "c-plus-plus",
          "cryptocurrency",
          "cryptography",
          "p2p"
        ],
        "has_issues": true,
        "has_projects": true,
        "has_wiki": false,
        "has_pages": false,
        "has_downloads": false,
        "archived": false,
        "disabled": false,
        "visibility": "public",
        "pushed_at": "2023-08-03T00:03:27Z",
        "created_at": "2010-12-19T15:16:43Z",
        "updated_at": "2023-08-02T18:21:18Z",
        "license": {
          "key": "mit",
          "name": "MIT License",
          "node_id": "MDc6TGljZW5zZTEz",
          "spdx_id": "MIT",
          "url": "https://api.github.com/licenses/mit",
          "html_url": null,
          "description": null,
          "implementation": null,
          "permissions": null,
          "conditions": null,
          "limitations": null,
          "body": null,
          "featured": null
        }
      }
    },
    "_links": {
      "self": {
        "href": "https://api.github.com/repos/bitcoin/bitcoin/pulls/28144"
      }
    },
    "author_association": "CONTRIBUTOR",
    "draft": false,
    "additions": 5,
    "deletions": 9,
    "changed_files": 2,
    "commits": 2,
    "review_comments": 4,
    "comments": 3
  },
  "events": [
    {
      "event": "commented",
      "id": 1648816074,
      "node_id": "IC_kwDOABII585iRu_K",
      "url": "https://api.github.com/repos/bitcoin/bitcoin/issues/comments/1648816074",
      "actor": {
        "login": "DrahtBot",
        "id": 39886733,
        "node_id": "MDQ6VXNlcjM5ODg2NzMz",
        "avatar_url": "https://avatars.githubusercontent.com/u/39886733?v=4",
        "gravatar_id": "",
        "url": "https://api.github.com/users/DrahtBot",
        "html_url": "https://github.com/DrahtBot",
        "followers_url": "https://api.github.com/users/DrahtBot/followers",
        "following_url": "https://api.github.com/users/DrahtBot/following%7B/other_user%7D",
        "gists_url": "https://api.github.com/users/DrahtBot/gists%7B/gist_id%7D",
        "starred_url": "https://api.github.com/users/DrahtBot/starred%7B/owner%7D%7B/repo%7D",
        "subscriptions_url": "https://api.github.com/users/DrahtBot/subscriptions",
        "organizations_url": "https://api.github.com/users/DrahtBot/orgs",
        "repos_url": "https://api.github.com/users/DrahtBot/repos",
        "events_url": "https://api.github.com/users/DrahtBot/events%7B/privacy%7D",
        "received_events_url": "https://api.github.com/users/DrahtBot/received_events",
        "type": "User",
        "site_admin": false
      },
      "commit_id": null,
      "commit_url": null,
      "created_at": "2023-07-25T01:02:00Z",
      "updated_at": "2023-07-25T16:45:14Z",
      "author_association": "CONTRIBUTOR",
      "body": "<!--e57a25ab6845829454e8d69fc972939a-->\n\nThe following sections might be updated with supplementary metadata relevant to reviewers and maintainers.\n\n<!--021abf342d371248e50ceaed478a90ca-->\n### Reviews\nSee [the guideline](https://github.com/bitcoin/bitcoin/blob/master/CONTRIBUTING.md#code-review) for information on the review process.\n| Type | Reviewers |\n| ---- | --------- |\n| ACK | [vasild](https://github.com/bitcoin/bitcoin/pull/28144#pullrequestreview-1545936696) |\n| Concept ACK | [jonatack](https://github.com/bitcoin/bitcoin/pull/28144#issuecomment-1648834265) |\n\nIf your review is incorrectly listed, please react with 👎 to this comment and the bot will ignore it on the next update.\n",
      "user": {
        "login": "DrahtBot",
        "id": 39886733,
        "node_id": "MDQ6VXNlcjM5ODg2NzMz",
        "avatar_url": "https://avatars.githubusercontent.com/u/39886733?v=4",
        "gravatar_id": "",
        "url": "https://api.github.com/users/DrahtBot",
        "html_url": "https://github.com/DrahtBot",
        "followers_url": "https://api.github.com/users/DrahtBot/followers",
        "following_url": "https://api.github.com/users/DrahtBot/following%7B/other_user%7D",
        "gists_url": "https://api.github.com/users/DrahtBot/gists%7B/gist_id%7D",
        "starred_url": "https://api.github.com/users/DrahtBot/starred%7B/owner%7D%7B/repo%7D",
        "subscriptions_url": "https://api.github.com/users/DrahtBot/subscriptions",
        "organizations_url": "https://api.github.com/users/DrahtBot/orgs",
        "repos_url": "https://api.github.com/users/DrahtBot/repos",
        "events_url": "https://api.github.com/users/DrahtBot/events%7B/privacy%7D",
        "received_events_url": "https://api.github.com/users/DrahtBot/received_events",
        "type": "User",
        "site_admin": false
      },
      "html_url": "https://github.com/bitcoin/bitcoin/pull/28144#issuecomment-1648816074",
      "issue_url": "https://api.github.com/repos/bitcoin/bitcoin/issues/28144"
    },
    {
      "event": "labeled",
      "id": 9906032680,
      "node_id": "LE_lADOABII585scUMvzwAAAAJOchAo",
      "url": "https://api.github.com/repos/bitcoin/bitcoin/issues/events/9906032680",
      "actor": {
        "login": "DrahtBot",
        "id": 39886733,
        "node_id": "MDQ6VXNlcjM5ODg2NzMz",
        "avatar_url": "https://avatars.githubusercontent.com/u/39886733?v=4",
        "gravatar_id": "",
        "url": "https://api.github.com/users/DrahtBot",
        "html_url": "https://github.com/DrahtBot",
        "followers_url": "https://api.github.com/users/DrahtBot/followers",
        "following_url": "https://api.github.com/users/DrahtBot/following%7B/other_user%7D",
        "gists_url": "https://api.github.com/users/DrahtBot/gists%7B/gist_id%7D",
        "starred_url": "https://api.github.com/users/DrahtBot/starred%7B/owner%7D%7B/repo%7D",
        "subscriptions_url": "https://api.github.com/users/DrahtBot/subscriptions",
        "organizations_url": "https://api.github.com/users/DrahtBot/orgs",
        "repos_url": "https://api.github.com/users/DrahtBot/repos",
        "events_url": "https://api.github.com/users/DrahtBot/events%7B/privacy%7D",
        "received_events_url": "https://api.github.com/users/DrahtBot/received_events",
        "type": "User",
        "site_admin": false
      },
      "commit_id": null,
      "commit_url": null,
      "created_at": "2023-07-25T01:02:01Z",
      "label": {
        "name": "Tests",
        "color": "d4c5f9"
      }
    },
    {
      "event": "cross-referenced",
      "id": null,
      "node_id": null,
      "url": null,
      "actor": {
        "login": "mzumsande",
        "id": 48763452,
        "node_id": "MDQ6VXNlcjQ4NzYzNDUy",
        "avatar_url": "https://avatars.githubusercontent.com/u/48763452?v=4",
        "gravatar_id": "",
        "url": "https://api.github.com/users/mzumsande",
        "html_url": "https://github.com/mzumsande",
        "followers_url": "https://api.github.com/users/mzumsande/followers",
        "following_url": "https://api.github.com/users/mzumsande/following%7B/other_user%7D",
        "gists_url": "https://api.github.com/users/mzumsande/gists%7B/gist_id%7D",
        "starred_url": "https://api.github.com/users/mzumsande/starred%7B/owner%7D%7B/repo%7D",
        "subscriptions_url": "https://api.github.com/users/mzumsande/subscriptions",
        "organizations_url": "https://api.github.com/users/mzumsande/orgs",
        "repos_url": "https://api.github.com/users/mzumsande/repos",
        "events_url": "https://api.github.com/users/mzumsande/events%7B/privacy%7D",
        "received_events_url": "https://api.github.com/users/mzumsande/received_events",
        "type": "User",
        "site_admin": false
      },
      "commit_id": null,
      "commit_url": null,
      "created_at": "2023-07-25T01:02:10Z",
      "updated_at": "2023-07-25T01:02:10Z",
      "source": {
        "issue": {
          "id": 1817272326,
          "node_id": "I_kwDOABII585sUWAG",
          "url": "https://api.github.com/repos/bitcoin/bitcoin/issues/28133",
          "repository_url": "https://api.github.com/repos/bitcoin/bitcoin",
          "labels_url": "https://api.github.com/repos/bitcoin/bitcoin/issues/28133/labels%7B/name%7D",
          "comments_url": "https://api.github.com/repos/bitcoin/bitcoin/issues/28133/comments",
          "events_url": "https://api.github.com/repos/bitcoin/bitcoin/issues/28133/events",
          "html_url": "https://github.com/bitcoin/bitcoin/issues/28133",
          "number": 28133,
          "state": "closed",
          "state_reason": "completed",
          "title": "p2p_getaddr_caching.py failure in TSan CI",
          "body": "https://cirrus-ci.com/task/5471865133596672?logs=ci#L3981\r\n\r\n```\r\n test  2023-07-22T19:16:17.696000Z TestFramework (ERROR): Assertion failed \r\n                                   Traceback (most recent call last):\r\n                                     File \"/tmp/cirrus-ci-build/ci/scratch/build/bitcoin-x86_64-pc-linux-gnu/test/functional/test_framework/test_framework.py\", line 131, in main\r\n                                       self.run_test()\r\n                                     File \"/tmp/cirrus-ci-build/ci/scratch/build/bitcoin-x86_64-pc-linux-gnu/test/functional/p2p_getaddr_caching.py\", line 74, in run_test\r\n                                       addr_receiver_onion1 = self.nodes[0].add_p2p_connection(AddrReceiver(), dstport=self.onion_port1)\r\n                                                              ^^^^^^^^^^^^^^^^^^^^^^^^^^^^^^^^^^^^^^^^^^^^^^^^^^^^^^^^^^^^^^^^^^^^^^^^^^\r\n                                     File \"/tmp/cirrus-ci-build/ci/scratch/build/bitcoin-x86_64-pc-linux-gnu/test/functional/test_framework/test_node.py\", line 652, in add_p2p_connection\r\n                                       assert_equal(len(info), 1)\r\n                                     File \"/tmp/cirrus-ci-build/ci/scratch/build/bitcoin-x86_64-pc-linux-gnu/test/functional/test_framework/util.py\", line 57, in assert_equal\r\n                                       raise AssertionError(\"not(%s)\" % \" == \".join(str(arg) for arg in (thing1, thing2) + args))\r\n                                   AssertionError: not(2 == 1)\r\n test  2023-07-22T19:16:17.697000Z TestFramework (DEBUG): Closing down network thread \r\n test  2023-07-22T19:16:17.747000Z TestFramework (INFO): Stopping nodes \r\n test  2023-07-22T19:16:17.748000Z TestFramework.node0 (DEBUG): Stopping node \r\n```\r\n\r\n### Is there an existing issue for this?\r\n\r\n- [X] I have searched the existing issues\r\n",
          "user": {
            "login": "jonatack",
            "id": 2415484,
            "node_id": "MDQ6VXNlcjI0MTU0ODQ=",
            "avatar_url": "https://avatars.githubusercontent.com/u/2415484?v=4",
            "gravatar_id": "",
            "url": "https://api.github.com/users/jonatack",
            "html_url": "https://github.com/jonatack",
            "followers_url": "https://api.github.com/users/jonatack/followers",
            "following_url": "https://api.github.com/users/jonatack/following%7B/other_user%7D",
            "gists_url": "https://api.github.com/users/jonatack/gists%7B/gist_id%7D",
            "starred_url": "https://api.github.com/users/jonatack/starred%7B/owner%7D%7B/repo%7D",
            "subscriptions_url": "https://api.github.com/users/jonatack/subscriptions",
            "organizations_url": "https://api.github.com/users/jonatack/orgs",
            "repos_url": "https://api.github.com/users/jonatack/repos",
            "events_url": "https://api.github.com/users/jonatack/events%7B/privacy%7D",
            "received_events_url": "https://api.github.com/users/jonatack/received_events",
            "type": "User",
            "site_admin": false
          },
          "labels": [],
          "assignees": [],
          "author_association": "CONTRIBUTOR",
          "locked": false,
          "comments": 4,
          "closed_at": "2023-08-01T15:59:46Z",
          "created_at": "2023-07-23T19:35:40Z",
          "updated_at": "2023-08-01T15:59:46Z"
        },
        "type": "issue"
      }
    },
    {
      "event": "renamed",
      "id": 9906079770,
      "node_id": "RTE_lADOABII585scUMvzwAAAAJOcsga",
      "url": "https://api.github.com/repos/bitcoin/bitcoin/issues/events/9906079770",
      "actor": {
        "login": "mzumsande",
        "id": 48763452,
        "node_id": "MDQ6VXNlcjQ4NzYzNDUy",
        "avatar_url": "https://avatars.githubusercontent.com/u/48763452?v=4",
        "gravatar_id": "",
        "url": "https://api.github.com/users/mzumsande",
        "html_url": "https://github.com/mzumsande",
        "followers_url": "https://api.github.com/users/mzumsande/followers",
        "following_url": "https://api.github.com/users/mzumsande/following%7B/other_user%7D",
        "gists_url": "https://api.github.com/users/mzumsande/gists%7B/gist_id%7D",
        "starred_url": "https://api.github.com/users/mzumsande/starred%7B/owner%7D%7B/repo%7D",
        "subscriptions_url": "https://api.github.com/users/mzumsande/subscriptions",
        "organizations_url": "https://api.github.com/users/mzumsande/orgs",
        "repos_url": "https://api.github.com/users/mzumsande/repos",
        "events_url": "https://api.github.com/users/mzumsande/events%7B/privacy%7D",
        "received_events_url": "https://api.github.com/users/mzumsande/received_events",
        "type": "User",
        "site_admin": false
      },
      "commit_id": null,
      "commit_url": null,
      "created_at": "2023-07-25T01:13:51Z",
      "rename": {
        "from": "test: fix intermittent timeout in p2p_getaddr_caching.py",
        "to": "test: fix intermittent failure in p2p_getaddr_caching.py"
      }
    },
    {
      "event": "head_ref_force_pushed",
      "id": 9906094803,
      "node_id": "HRFPE_lADOABII585scUMvzwAAAAJOcwLT",
      "url": "https://api.github.com/repos/bitcoin/bitcoin/issues/events/9906094803",
      "actor": {
        "login": "mzumsande",
        "id": 48763452,
        "node_id": "MDQ6VXNlcjQ4NzYzNDUy",
        "avatar_url": "https://avatars.githubusercontent.com/u/48763452?v=4",
        "gravatar_id": "",
        "url": "https://api.github.com/users/mzumsande",
        "html_url": "https://github.com/mzumsande",
        "followers_url": "https://api.github.com/users/mzumsande/followers",
        "following_url": "https://api.github.com/users/mzumsande/following%7B/other_user%7D",
        "gists_url": "https://api.github.com/users/mzumsande/gists%7B/gist_id%7D",
        "starred_url": "https://api.github.com/users/mzumsande/starred%7B/owner%7D%7B/repo%7D",
        "subscriptions_url": "https://api.github.com/users/mzumsande/subscriptions",
        "organizations_url": "https://api.github.com/users/mzumsande/orgs",
        "repos_url": "https://api.github.com/users/mzumsande/repos",
        "events_url": "https://api.github.com/users/mzumsande/events%7B/privacy%7D",
        "received_events_url": "https://api.github.com/users/mzumsande/received_events",
        "type": "User",
        "site_admin": false
      },
      "commit_id": null,
      "commit_url": null,
      "created_at": "2023-07-25T01:17:40Z"
    },
    {
      "event": "commented",
      "id": 1648834265,
      "node_id": "IC_kwDOABII585iRzbZ",
      "url": "https://api.github.com/repos/bitcoin/bitcoin/issues/comments/1648834265",
      "actor": {
        "login": "jonatack",
        "id": 2415484,
        "node_id": "MDQ6VXNlcjI0MTU0ODQ=",
        "avatar_url": "https://avatars.githubusercontent.com/u/2415484?v=4",
        "gravatar_id": "",
        "url": "https://api.github.com/users/jonatack",
        "html_url": "https://github.com/jonatack",
        "followers_url": "https://api.github.com/users/jonatack/followers",
        "following_url": "https://api.github.com/users/jonatack/following%7B/other_user%7D",
        "gists_url": "https://api.github.com/users/jonatack/gists%7B/gist_id%7D",
        "starred_url": "https://api.github.com/users/jonatack/starred%7B/owner%7D%7B/repo%7D",
        "subscriptions_url": "https://api.github.com/users/jonatack/subscriptions",
        "organizations_url": "https://api.github.com/users/jonatack/orgs",
        "repos_url": "https://api.github.com/users/jonatack/repos",
        "events_url": "https://api.github.com/users/jonatack/events%7B/privacy%7D",
        "received_events_url": "https://api.github.com/users/jonatack/received_events",
        "type": "User",
        "site_admin": false
      },
      "commit_id": null,
      "commit_url": null,
      "created_at": "2023-07-25T01:32:46Z",
      "updated_at": "2023-07-25T01:32:46Z",
      "author_association": "CONTRIBUTOR",
      "body": "Concept ACK, thank you for looking into it.",
      "user": {
        "login": "jonatack",
        "id": 2415484,
        "node_id": "MDQ6VXNlcjI0MTU0ODQ=",
        "avatar_url": "https://avatars.githubusercontent.com/u/2415484?v=4",
        "gravatar_id": "",
        "url": "https://api.github.com/users/jonatack",
        "html_url": "https://github.com/jonatack",
        "followers_url": "https://api.github.com/users/jonatack/followers",
        "following_url": "https://api.github.com/users/jonatack/following%7B/other_user%7D",
        "gists_url": "https://api.github.com/users/jonatack/gists%7B/gist_id%7D",
        "starred_url": "https://api.github.com/users/jonatack/starred%7B/owner%7D%7B/repo%7D",
        "subscriptions_url": "https://api.github.com/users/jonatack/subscriptions",
        "organizations_url": "https://api.github.com/users/jonatack/orgs",
        "repos_url": "https://api.github.com/users/jonatack/repos",
        "events_url": "https://api.github.com/users/jonatack/events%7B/privacy%7D",
        "received_events_url": "https://api.github.com/users/jonatack/received_events",
        "type": "User",
        "site_admin": false
      },
      "html_url": "https://github.com/bitcoin/bitcoin/pull/28144#issuecomment-1648834265",
      "issue_url": "https://api.github.com/repos/bitcoin/bitcoin/issues/28144"
    },
    {
      "event": "labeled",
      "id": 9906614753,
      "node_id": "LE_lADOABII585scUMvzwAAAAJOevHh",
      "url": "https://api.github.com/repos/bitcoin/bitcoin/issues/events/9906614753",
      "actor": {
        "login": "DrahtBot",
        "id": 39886733,
        "node_id": "MDQ6VXNlcjM5ODg2NzMz",
        "avatar_url": "https://avatars.githubusercontent.com/u/39886733?v=4",
        "gravatar_id": "",
        "url": "https://api.github.com/users/DrahtBot",
        "html_url": "https://github.com/DrahtBot",
        "followers_url": "https://api.github.com/users/DrahtBot/followers",
        "following_url": "https://api.github.com/users/DrahtBot/following%7B/other_user%7D",
        "gists_url": "https://api.github.com/users/DrahtBot/gists%7B/gist_id%7D",
        "starred_url": "https://api.github.com/users/DrahtBot/starred%7B/owner%7D%7B/repo%7D",
        "subscriptions_url": "https://api.github.com/users/DrahtBot/subscriptions",
        "organizations_url": "https://api.github.com/users/DrahtBot/orgs",
        "repos_url": "https://api.github.com/users/DrahtBot/repos",
        "events_url": "https://api.github.com/users/DrahtBot/events%7B/privacy%7D",
        "received_events_url": "https://api.github.com/users/DrahtBot/received_events",
        "type": "User",
        "site_admin": false
      },
      "commit_id": null,
      "commit_url": null,
      "created_at": "2023-07-25T03:13:21Z",
      "label": {
        "name": "CI failed",
        "color": "cccccc"
      }
    },
    {
      "event": "unlabeled",
      "id": 9906700153,
      "node_id": "UNLE_lADOABII585scUMvzwAAAAJOfD95",
      "url": "https://api.github.com/repos/bitcoin/bitcoin/issues/events/9906700153",
      "actor": {
        "login": "DrahtBot",
        "id": 39886733,
        "node_id": "MDQ6VXNlcjM5ODg2NzMz",
        "avatar_url": "https://avatars.githubusercontent.com/u/39886733?v=4",
        "gravatar_id": "",
        "url": "https://api.github.com/users/DrahtBot",
        "html_url": "https://github.com/DrahtBot",
        "followers_url": "https://api.github.com/users/DrahtBot/followers",
        "following_url": "https://api.github.com/users/DrahtBot/following%7B/other_user%7D",
        "gists_url": "https://api.github.com/users/DrahtBot/gists%7B/gist_id%7D",
        "starred_url": "https://api.github.com/users/DrahtBot/starred%7B/owner%7D%7B/repo%7D",
        "subscriptions_url": "https://api.github.com/users/DrahtBot/subscriptions",
        "organizations_url": "https://api.github.com/users/DrahtBot/orgs",
        "repos_url": "https://api.github.com/users/DrahtBot/repos",
        "events_url": "https://api.github.com/users/DrahtBot/events%7B/privacy%7D",
        "received_events_url": "https://api.github.com/users/DrahtBot/received_events",
        "type": "User",
        "site_admin": false
      },
      "commit_id": null,
      "commit_url": null,
      "created_at": "2023-07-25T03:34:00Z",
      "label": {
        "name": "CI failed",
        "color": "cccccc"
      }
    },
    {
      "event": "review_requested",
      "id": 9907310988,
      "node_id": "RRE_lADOABII585scUMvzwAAAAJOhZGM",
      "url": "https://api.github.com/repos/bitcoin/bitcoin/issues/events/9907310988",
      "actor": {
        "login": "MarcoFalke",
        "id": 6399679,
        "node_id": "MDQ6VXNlcjYzOTk2Nzk=",
        "avatar_url": "https://avatars.githubusercontent.com/u/6399679?v=4",
        "gravatar_id": "",
        "url": "https://api.github.com/users/MarcoFalke",
        "html_url": "https://github.com/MarcoFalke",
        "followers_url": "https://api.github.com/users/MarcoFalke/followers",
        "following_url": "https://api.github.com/users/MarcoFalke/following%7B/other_user%7D",
        "gists_url": "https://api.github.com/users/MarcoFalke/gists%7B/gist_id%7D",
        "starred_url": "https://api.github.com/users/MarcoFalke/starred%7B/owner%7D%7B/repo%7D",
        "subscriptions_url": "https://api.github.com/users/MarcoFalke/subscriptions",
        "organizations_url": "https://api.github.com/users/MarcoFalke/orgs",
        "repos_url": "https://api.github.com/users/MarcoFalke/repos",
        "events_url": "https://api.github.com/users/MarcoFalke/events%7B/privacy%7D",
        "received_events_url": "https://api.github.com/users/MarcoFalke/received_events",
        "type": "User",
        "site_admin": false
      },
      "commit_id": null,
      "commit_url": null,
      "created_at": "2023-07-25T05:48:00Z",
      "requested_reviewer": {
        "login": "vasild",
        "id": 266751,
        "node_id": "MDQ6VXNlcjI2Njc1MQ==",
        "avatar_url": "https://avatars.githubusercontent.com/u/266751?v=4",
        "gravatar_id": "",
        "url": "https://api.github.com/users/vasild",
        "html_url": "https://github.com/vasild",
        "followers_url": "https://api.github.com/users/vasild/followers",
        "following_url": "https://api.github.com/users/vasild/following%7B/other_user%7D",
        "gists_url": "https://api.github.com/users/vasild/gists%7B/gist_id%7D",
        "starred_url": "https://api.github.com/users/vasild/starred%7B/owner%7D%7B/repo%7D",
        "subscriptions_url": "https://api.github.com/users/vasild/subscriptions",
        "organizations_url": "https://api.github.com/users/vasild/orgs",
        "repos_url": "https://api.github.com/users/vasild/repos",
        "events_url": "https://api.github.com/users/vasild/events%7B/privacy%7D",
        "received_events_url": "https://api.github.com/users/vasild/received_events",
        "type": "User",
        "site_admin": false
      },
      "review_requester": {
        "login": "MarcoFalke",
        "id": 6399679,
        "node_id": "MDQ6VXNlcjYzOTk2Nzk=",
        "avatar_url": "https://avatars.githubusercontent.com/u/6399679?v=4",
        "gravatar_id": "",
        "url": "https://api.github.com/users/MarcoFalke",
        "html_url": "https://github.com/MarcoFalke",
        "followers_url": "https://api.github.com/users/MarcoFalke/followers",
        "following_url": "https://api.github.com/users/MarcoFalke/following%7B/other_user%7D",
        "gists_url": "https://api.github.com/users/MarcoFalke/gists%7B/gist_id%7D",
        "starred_url": "https://api.github.com/users/MarcoFalke/starred%7B/owner%7D%7B/repo%7D",
        "subscriptions_url": "https://api.github.com/users/MarcoFalke/subscriptions",
        "organizations_url": "https://api.github.com/users/MarcoFalke/orgs",
        "repos_url": "https://api.github.com/users/MarcoFalke/repos",
        "events_url": "https://api.github.com/users/MarcoFalke/events%7B/privacy%7D",
        "received_events_url": "https://api.github.com/users/MarcoFalke/received_events",
        "type": "User",
        "site_admin": false
      }
    },
    {
      "event": "milestoned",
      "id": 9907313596,
      "node_id": "MIE_lADOABII585scUMvzwAAAAJOhZu8",
      "url": "https://api.github.com/repos/bitcoin/bitcoin/issues/events/9907313596",
      "actor": {
        "login": "MarcoFalke",
        "id": 6399679,
        "node_id": "MDQ6VXNlcjYzOTk2Nzk=",
        "avatar_url": "https://avatars.githubusercontent.com/u/6399679?v=4",
        "gravatar_id": "",
        "url": "https://api.github.com/users/MarcoFalke",
        "html_url": "https://github.com/MarcoFalke",
        "followers_url": "https://api.github.com/users/MarcoFalke/followers",
        "following_url": "https://api.github.com/users/MarcoFalke/following%7B/other_user%7D",
        "gists_url": "https://api.github.com/users/MarcoFalke/gists%7B/gist_id%7D",
        "starred_url": "https://api.github.com/users/MarcoFalke/starred%7B/owner%7D%7B/repo%7D",
        "subscriptions_url": "https://api.github.com/users/MarcoFalke/subscriptions",
        "organizations_url": "https://api.github.com/users/MarcoFalke/orgs",
        "repos_url": "https://api.github.com/users/MarcoFalke/repos",
        "events_url": "https://api.github.com/users/MarcoFalke/events%7B/privacy%7D",
        "received_events_url": "https://api.github.com/users/MarcoFalke/received_events",
        "type": "User",
        "site_admin": false
      },
      "commit_id": null,
      "commit_url": null,
      "created_at": "2023-07-25T05:48:26Z",
      "milestone": {
        "title": "26.0"
      }
    },
    {
      "event": "reviewed",
      "id": 1544952356,
      "node_id": "PRR_kwDOABII585cFhok",
      "url": null,
      "actor": null,
      "commit_id": "e4d37875e6a440748623250d77ec3be523a1d34d",
      "commit_url": null,
      "created_at": null,
      "author_association": "CONTRIBUTOR",
      "body": "ACK e4d37875e6a440748623250d77ec3be523a1d34d\r\n\r\nToday I learned something new: it is possible to have duplicate (srcaddr, srcport) for TCP connections if the destination is different. Thank you!",
      "user": {
        "login": "vasild",
        "id": 266751,
        "node_id": "MDQ6VXNlcjI2Njc1MQ==",
        "avatar_url": "https://avatars.githubusercontent.com/u/266751?v=4",
        "gravatar_id": "",
        "url": "https://api.github.com/users/vasild",
        "html_url": "https://github.com/vasild",
        "followers_url": "https://api.github.com/users/vasild/followers",
        "following_url": "https://api.github.com/users/vasild/following%7B/other_user%7D",
        "gists_url": "https://api.github.com/users/vasild/gists%7B/gist_id%7D",
        "starred_url": "https://api.github.com/users/vasild/starred%7B/owner%7D%7B/repo%7D",
        "subscriptions_url": "https://api.github.com/users/vasild/subscriptions",
        "organizations_url": "https://api.github.com/users/vasild/orgs",
        "repos_url": "https://api.github.com/users/vasild/repos",
        "events_url": "https://api.github.com/users/vasild/events%7B/privacy%7D",
        "received_events_url": "https://api.github.com/users/vasild/received_events",
        "type": "User",
        "site_admin": false
      },
      "html_url": "https://github.com/bitcoin/bitcoin/pull/28144#pullrequestreview-1544952356",
      "submitted_at": "2023-07-25T08:52:20Z",
      "state": "APPROVED",
      "pull_request_url": "https://api.github.com/repos/bitcoin/bitcoin/pulls/28144"
    },
    {
      "event": "committed",
      "id": null,
      "node_id": "C_kwDOABII59oAKGZlYjAwOTYxMzllOWU4NjQ2MzJkMjgyNmQyZTIxM2IyNjE0NmZmZjE",
      "url": "https://api.github.com/repos/bitcoin/bitcoin/git/commits/feb0096139e9e864632d2826d2e213b26146fff1",
      "actor": null,
      "commit_id": null,
      "commit_url": null,
      "created_at": null,
      "html_url": "https://github.com/bitcoin/bitcoin/commit/feb0096139e9e864632d2826d2e213b26146fff1",
      "tree": {
        "sha": "21b4cba4fb94228a329d9358014853cc75489421",
        "url": "https://api.github.com/repos/bitcoin/bitcoin/git/trees/21b4cba4fb94228a329d9358014853cc75489421"
      },
      "verification": {
        "verified": false,
        "reason": "unsigned",
        "payload": null,
        "signature": null
      },
      "parents": [
        {
          "url": "https://api.github.com/repos/bitcoin/bitcoin/git/commits/d23fda05842ba4539b225bbab01b94df0060f697",
          "sha": "d23fda05842ba4539b225bbab01b94df0060f697",
          "html_url": "https://github.com/bitcoin/bitcoin/commit/d23fda05842ba4539b225bbab01b94df0060f697"
        }
      ],
      "message": "test: fix intermittent failure in p2p_getaddr_caching\n\nOnly the combined addr:port of source and destination\nmust be unique. If the destination is different, the same addr:port\nfor the source may be used by the OS.",
      "committer": {
        "name": "Martin Zumsande",
        "email": "mzumsande@gmail.com",
        "date": "2023-07-25T14:34:29Z"
      },
      "author": {
        "name": "Martin Zumsande",
        "email": "mzumsande@gmail.com",
        "date": "2023-07-25T00:31:00Z"
      },
      "sha": "feb0096139e9e864632d2826d2e213b26146fff1"
    },
    {
      "event": "committed",
      "id": null,
      "node_id": "C_kwDOABII59oAKDhhMjBmNzY1Y2NlMmZjMGZhZGYxYTJiNjZiODQzYjY3ZjJkMmFlMTI",
      "url": "https://api.github.com/repos/bitcoin/bitcoin/git/commits/8a20f765cce2fc0fadf1a2b66b843b67f2d2ae12",
      "actor": null,
      "commit_id": null,
      "commit_url": null,
      "created_at": null,
      "html_url": "https://github.com/bitcoin/bitcoin/commit/8a20f765cce2fc0fadf1a2b66b843b67f2d2ae12",
      "tree": {
        "sha": "b22edc16500181fa87c7fd43abaa12d28d0424a7",
        "url": "https://api.github.com/repos/bitcoin/bitcoin/git/trees/b22edc16500181fa87c7fd43abaa12d28d0424a7"
      },
      "verification": {
        "verified": false,
        "reason": "unsigned",
        "payload": null,
        "signature": null
      },
      "parents": [
        {
          "url": "https://api.github.com/repos/bitcoin/bitcoin/git/commits/feb0096139e9e864632d2826d2e213b26146fff1",
          "sha": "feb0096139e9e864632d2826d2e213b26146fff1",
          "html_url": "https://github.com/bitcoin/bitcoin/commit/feb0096139e9e864632d2826d2e213b26146fff1"
        }
      ],
      "message": "test: drop duplicate getaddrs from p2p_getaddr_caching\n\npython p2p instances will automatically send a getaddr msg after\nconnecting, the explicit message was a duplicate that was being ignored.",
      "committer": {
        "name": "Martin Zumsande",
        "email": "mzumsande@gmail.com",
        "date": "2023-07-25T14:34:29Z"
      },
      "author": {
        "name": "Martin Zumsande",
        "email": "mzumsande@gmail.com",
        "date": "2023-07-25T00:32:03Z"
      },
      "sha": "8a20f765cce2fc0fadf1a2b66b843b67f2d2ae12"
    },
    {
      "event": "head_ref_force_pushed",
      "id": 9912857106,
      "node_id": "HRFPE_lADOABII585scUMvzwAAAAJO2jIS",
      "url": "https://api.github.com/repos/bitcoin/bitcoin/issues/events/9912857106",
      "actor": {
        "login": "mzumsande",
        "id": 48763452,
        "node_id": "MDQ6VXNlcjQ4NzYzNDUy",
        "avatar_url": "https://avatars.githubusercontent.com/u/48763452?v=4",
        "gravatar_id": "",
        "url": "https://api.github.com/users/mzumsande",
        "html_url": "https://github.com/mzumsande",
        "followers_url": "https://api.github.com/users/mzumsande/followers",
        "following_url": "https://api.github.com/users/mzumsande/following%7B/other_user%7D",
        "gists_url": "https://api.github.com/users/mzumsande/gists%7B/gist_id%7D",
        "starred_url": "https://api.github.com/users/mzumsande/starred%7B/owner%7D%7B/repo%7D",
        "subscriptions_url": "https://api.github.com/users/mzumsande/subscriptions",
        "organizations_url": "https://api.github.com/users/mzumsande/orgs",
        "repos_url": "https://api.github.com/users/mzumsande/repos",
        "events_url": "https://api.github.com/users/mzumsande/events%7B/privacy%7D",
        "received_events_url": "https://api.github.com/users/mzumsande/received_events",
        "type": "User",
        "site_admin": false
      },
      "commit_id": null,
      "commit_url": null,
      "created_at": "2023-07-25T14:47:16Z"
    },
    {
      "event": "commented",
      "id": 1649991529,
      "node_id": "IC_kwDOABII585iWN9p",
      "url": "https://api.github.com/repos/bitcoin/bitcoin/issues/comments/1649991529",
      "actor": {
        "login": "mzumsande",
        "id": 48763452,
        "node_id": "MDQ6VXNlcjQ4NzYzNDUy",
        "avatar_url": "https://avatars.githubusercontent.com/u/48763452?v=4",
        "gravatar_id": "",
        "url": "https://api.github.com/users/mzumsande",
        "html_url": "https://github.com/mzumsande",
        "followers_url": "https://api.github.com/users/mzumsande/followers",
        "following_url": "https://api.github.com/users/mzumsande/following%7B/other_user%7D",
        "gists_url": "https://api.github.com/users/mzumsande/gists%7B/gist_id%7D",
        "starred_url": "https://api.github.com/users/mzumsande/starred%7B/owner%7D%7B/repo%7D",
        "subscriptions_url": "https://api.github.com/users/mzumsande/subscriptions",
        "organizations_url": "https://api.github.com/users/mzumsande/orgs",
        "repos_url": "https://api.github.com/users/mzumsande/repos",
        "events_url": "https://api.github.com/users/mzumsande/events%7B/privacy%7D",
        "received_events_url": "https://api.github.com/users/mzumsande/received_events",
        "type": "User",
        "site_admin": false
      },
      "commit_id": null,
      "commit_url": null,
      "created_at": "2023-07-25T14:50:05Z",
      "updated_at": "2023-07-25T14:50:05Z",
      "author_association": "CONTRIBUTOR",
      "body": "[e4d3787 ](https://github.com/bitcoin/bitcoin/commit/e4d37875e6a440748623250d77ec3be523a1d34d)to 8a20f76: Addressed feedback, thanks!\r\n\r\n> Today I learned something new: it is possible to have duplicate (srcaddr, srcport) for TCP connections if the destination is different. Thank you!\r\n\r\nI was also surprised by this!",
      "user": {
        "login": "mzumsande",
        "id": 48763452,
        "node_id": "MDQ6VXNlcjQ4NzYzNDUy",
        "avatar_url": "https://avatars.githubusercontent.com/u/48763452?v=4",
        "gravatar_id": "",
        "url": "https://api.github.com/users/mzumsande",
        "html_url": "https://github.com/mzumsande",
        "followers_url": "https://api.github.com/users/mzumsande/followers",
        "following_url": "https://api.github.com/users/mzumsande/following%7B/other_user%7D",
        "gists_url": "https://api.github.com/users/mzumsande/gists%7B/gist_id%7D",
        "starred_url": "https://api.github.com/users/mzumsande/starred%7B/owner%7D%7B/repo%7D",
        "subscriptions_url": "https://api.github.com/users/mzumsande/subscriptions",
        "organizations_url": "https://api.github.com/users/mzumsande/orgs",
        "repos_url": "https://api.github.com/users/mzumsande/repos",
        "events_url": "https://api.github.com/users/mzumsande/events%7B/privacy%7D",
        "received_events_url": "https://api.github.com/users/mzumsande/received_events",
        "type": "User",
        "site_admin": false
      },
      "html_url": "https://github.com/bitcoin/bitcoin/pull/28144#issuecomment-1649991529",
      "issue_url": "https://api.github.com/repos/bitcoin/bitcoin/issues/28144"
    },
    {
      "event": "reviewed",
      "id": 1545936696,
      "node_id": "PRR_kwDOABII585cJR84",
      "url": null,
      "actor": null,
      "commit_id": "8a20f765cce2fc0fadf1a2b66b843b67f2d2ae12",
      "commit_url": null,
      "created_at": null,
      "author_association": "CONTRIBUTOR",
      "body": "ACK 8a20f765cce2fc0fadf1a2b66b843b67f2d2ae12",
      "user": {
        "login": "vasild",
        "id": 266751,
        "node_id": "MDQ6VXNlcjI2Njc1MQ==",
        "avatar_url": "https://avatars.githubusercontent.com/u/266751?v=4",
        "gravatar_id": "",
        "url": "https://api.github.com/users/vasild",
        "html_url": "https://github.com/vasild",
        "followers_url": "https://api.github.com/users/vasild/followers",
        "following_url": "https://api.github.com/users/vasild/following%7B/other_user%7D",
        "gists_url": "https://api.github.com/users/vasild/gists%7B/gist_id%7D",
        "starred_url": "https://api.github.com/users/vasild/starred%7B/owner%7D%7B/repo%7D",
        "subscriptions_url": "https://api.github.com/users/vasild/subscriptions",
        "organizations_url": "https://api.github.com/users/vasild/orgs",
        "repos_url": "https://api.github.com/users/vasild/repos",
        "events_url": "https://api.github.com/users/vasild/events%7B/privacy%7D",
        "received_events_url": "https://api.github.com/users/vasild/received_events",
        "type": "User",
        "site_admin": false
      },
      "html_url": "https://github.com/bitcoin/bitcoin/pull/28144#pullrequestreview-1545936696",
      "submitted_at": "2023-07-25T16:45:05Z",
      "state": "APPROVED",
      "pull_request_url": "https://api.github.com/repos/bitcoin/bitcoin/pulls/28144"
    },
    {
      "event": "merged",
      "id": 9978527699,
      "node_id": "ME_lADOABII585scUMvzwAAAAJSxD_T",
      "url": "https://api.github.com/repos/bitcoin/bitcoin/issues/events/9978527699",
      "actor": {
        "login": "fanquake",
        "id": 863730,
        "node_id": "MDQ6VXNlcjg2MzczMA==",
        "avatar_url": "https://avatars.githubusercontent.com/u/863730?v=4",
        "gravatar_id": "",
        "url": "https://api.github.com/users/fanquake",
        "html_url": "https://github.com/fanquake",
        "followers_url": "https://api.github.com/users/fanquake/followers",
        "following_url": "https://api.github.com/users/fanquake/following%7B/other_user%7D",
        "gists_url": "https://api.github.com/users/fanquake/gists%7B/gist_id%7D",
        "starred_url": "https://api.github.com/users/fanquake/starred%7B/owner%7D%7B/repo%7D",
        "subscriptions_url": "https://api.github.com/users/fanquake/subscriptions",
        "organizations_url": "https://api.github.com/users/fanquake/orgs",
        "repos_url": "https://api.github.com/users/fanquake/repos",
        "events_url": "https://api.github.com/users/fanquake/events%7B/privacy%7D",
        "received_events_url": "https://api.github.com/users/fanquake/received_events",
        "type": "User",
        "site_admin": false
      },
      "commit_id": "1b5cbf71dff1f240bac0156f8800382272489f0b",
      "commit_url": "https://api.github.com/repos/bitcoin/bitcoin/commits/1b5cbf71dff1f240bac0156f8800382272489f0b",
      "created_at": "2023-08-01T15:59:47Z"
    },
    {
      "event": "closed",
      "id": 9978527757,
      "node_id": "CE_lADOABII585scUMvzwAAAAJSxEAN",
      "url": "https://api.github.com/repos/bitcoin/bitcoin/issues/events/9978527757",
      "actor": {
        "login": "fanquake",
        "id": 863730,
        "node_id": "MDQ6VXNlcjg2MzczMA==",
        "avatar_url": "https://avatars.githubusercontent.com/u/863730?v=4",
        "gravatar_id": "",
        "url": "https://api.github.com/users/fanquake",
        "html_url": "https://github.com/fanquake",
        "followers_url": "https://api.github.com/users/fanquake/followers",
        "following_url": "https://api.github.com/users/fanquake/following%7B/other_user%7D",
        "gists_url": "https://api.github.com/users/fanquake/gists%7B/gist_id%7D",
        "starred_url": "https://api.github.com/users/fanquake/starred%7B/owner%7D%7B/repo%7D",
        "subscriptions_url": "https://api.github.com/users/fanquake/subscriptions",
        "organizations_url": "https://api.github.com/users/fanquake/orgs",
        "repos_url": "https://api.github.com/users/fanquake/repos",
        "events_url": "https://api.github.com/users/fanquake/events%7B/privacy%7D",
        "received_events_url": "https://api.github.com/users/fanquake/received_events",
        "type": "User",
        "site_admin": false
      },
      "commit_id": null,
      "commit_url": null,
      "created_at": "2023-08-01T15:59:47Z"
    }
  ],
  "comments": [
    {
      "url": "https://api.github.com/repos/bitcoin/bitcoin/pulls/comments/1273209890",
      "pull_request_review_id": 1544952356,
      "id": 1273209890,
      "node_id": "PRRC_kwDOABII585L46Qi",
      "diff_hunk": "@@ -70,11 +71,8 @@ def run_test(self):\n         cur_mock_time = int(time.time())\n         for i in range(N):\n             addr_receiver_local = self.nodes[0].add_p2p_connection(AddrReceiver())\n-            addr_receiver_local.send_and_ping(msg_getaddr())",
      "path": "test/functional/p2p_getaddr_caching.py",
      "position": 20,
      "original_position": 12,
      "commit_id": "8a20f765cce2fc0fadf1a2b66b843b67f2d2ae12",
      "original_commit_id": "e4d37875e6a440748623250d77ec3be523a1d34d",
      "in_reply_to_id": null,
      "user": {
        "login": "vasild",
        "id": 266751,
        "node_id": "MDQ6VXNlcjI2Njc1MQ==",
        "avatar_url": "https://avatars.githubusercontent.com/u/266751?v=4",
        "gravatar_id": "",
        "url": "https://api.github.com/users/vasild",
        "html_url": "https://github.com/vasild",
        "followers_url": "https://api.github.com/users/vasild/followers",
        "following_url": "https://api.github.com/users/vasild/following%7B/other_user%7D",
        "gists_url": "https://api.github.com/users/vasild/gists%7B/gist_id%7D",
        "starred_url": "https://api.github.com/users/vasild/starred%7B/owner%7D%7B/repo%7D",
        "subscriptions_url": "https://api.github.com/users/vasild/subscriptions",
        "organizations_url": "https://api.github.com/users/vasild/orgs",
        "repos_url": "https://api.github.com/users/vasild/repos",
        "events_url": "https://api.github.com/users/vasild/events%7B/privacy%7D",
        "received_events_url": "https://api.github.com/users/vasild/received_events",
        "type": "User",
        "site_admin": false
      },
      "body": "There is a similar pattern below on lines 108,110,112. Should be possible to remove those too? If yes, then also `from test_framework.messages import msg_getaddr`.\r\n\r\nTo other reviewers: the `GETADDR` message is sent at the end of `P2PInterface::on_version()`.",
      "created_at": "2023-07-25T08:47:41Z",
      "updated_at": "2023-07-25T08:52:20Z",
      "html_url": "https://github.com/bitcoin/bitcoin/pull/28144#discussion_r1273209890",
      "author_association": "CONTRIBUTOR",
      "_links": {
        "self": {
          "href": "https://api.github.com/repos/bitcoin/bitcoin/pulls/comments/1273209890"
        },
        "pull_request": {
          "href": "https://api.github.com/repos/bitcoin/bitcoin/pulls/28144"
        }
      },
      "start_line": null,
      "original_start_line": null,
      "start_side": null,
      "line": 73,
      "original_line": 73,
      "side": "LEFT"
    },
    {
      "url": "https://api.github.com/repos/bitcoin/bitcoin/pulls/comments/1273212480",
      "pull_request_review_id": 1544952356,
      "id": 1273212480,
      "node_id": "PRRC_kwDOABII585L465A",
      "diff_hunk": "@@ -645,10 +645,11 @@ def add_p2p_connection(self, p2p_conn, *, wait_for_verack=True, **kwargs):\n             p2p_conn.sync_with_ping()\n \n             # Consistency check that the node received our user agent string.\n-            # Find our connection in getpeerinfo by our address:port, as it is unique.\n+            # Find our connection in getpeerinfo by our address:port and theirs, as this combination is unique.\n             sockname = p2p_conn._transport.get_extra_info(\"socket\").getsockname()\n             our_addr_and_port = f\"{sockname[0]}:{sockname[1]}\"\n-            info = [peer for peer in self.getpeerinfo() if peer[\"addr\"] == our_addr_and_port]\n+            dst_addr_and_port =f\"{p2p_conn.dstaddr}:{p2p_conn.dstport}\"",
      "path": "test/functional/test_framework/test_node.py",
      "position": null,
      "original_position": 9,
      "commit_id": "8a20f765cce2fc0fadf1a2b66b843b67f2d2ae12",
      "original_commit_id": "e4d37875e6a440748623250d77ec3be523a1d34d",
      "in_reply_to_id": null,
      "user": {
        "login": "vasild",
        "id": 266751,
        "node_id": "MDQ6VXNlcjI2Njc1MQ==",
        "avatar_url": "https://avatars.githubusercontent.com/u/266751?v=4",
        "gravatar_id": "",
        "url": "https://api.github.com/users/vasild",
        "html_url": "https://github.com/vasild",
        "followers_url": "https://api.github.com/users/vasild/followers",
        "following_url": "https://api.github.com/users/vasild/following%7B/other_user%7D",
        "gists_url": "https://api.github.com/users/vasild/gists%7B/gist_id%7D",
        "starred_url": "https://api.github.com/users/vasild/starred%7B/owner%7D%7B/repo%7D",
        "subscriptions_url": "https://api.github.com/users/vasild/subscriptions",
        "organizations_url": "https://api.github.com/users/vasild/orgs",
        "repos_url": "https://api.github.com/users/vasild/repos",
        "events_url": "https://api.github.com/users/vasild/events%7B/privacy%7D",
        "received_events_url": "https://api.github.com/users/vasild/received_events",
        "type": "User",
        "site_admin": false
      },
      "body": "nit, missing white space after `=`:\r\n```suggestion\r\n            dst_addr_and_port = f\"{p2p_conn.dstaddr}:{p2p_conn.dstport}\"\r\n```",
      "created_at": "2023-07-25T08:49:38Z",
      "updated_at": "2023-07-25T08:52:20Z",
      "html_url": "https://github.com/bitcoin/bitcoin/pull/28144#discussion_r1273212480",
      "author_association": "CONTRIBUTOR",
      "_links": {
        "self": {
          "href": "https://api.github.com/repos/bitcoin/bitcoin/pulls/comments/1273212480"
        },
        "pull_request": {
          "href": "https://api.github.com/repos/bitcoin/bitcoin/pulls/28144"
        }
      },
      "start_line": null,
      "original_start_line": null,
      "start_side": null,
      "line": null,
      "original_line": 651,
      "side": "RIGHT"
    },
    {
      "url": "https://api.github.com/repos/bitcoin/bitcoin/pulls/comments/1273665330",
      "pull_request_review_id": 1545678834,
      "id": 1273665330,
      "node_id": "PRRC_kwDOABII585L6pcy",
      "diff_hunk": "@@ -70,11 +71,8 @@ def run_test(self):\n         cur_mock_time = int(time.time())\n         for i in range(N):\n             addr_receiver_local = self.nodes[0].add_p2p_connection(AddrReceiver())\n-            addr_receiver_local.send_and_ping(msg_getaddr())",
      "path": "test/functional/p2p_getaddr_caching.py",
      "position": 20,
      "original_position": 12,
      "commit_id": "8a20f765cce2fc0fadf1a2b66b843b67f2d2ae12",
      "original_commit_id": "e4d37875e6a440748623250d77ec3be523a1d34d",
      "in_reply_to_id": 1273209890,
      "user": {
        "login": "mzumsande",
        "id": 48763452,
        "node_id": "MDQ6VXNlcjQ4NzYzNDUy",
        "avatar_url": "https://avatars.githubusercontent.com/u/48763452?v=4",
        "gravatar_id": "",
        "url": "https://api.github.com/users/mzumsande",
        "html_url": "https://github.com/mzumsande",
        "followers_url": "https://api.github.com/users/mzumsande/followers",
        "following_url": "https://api.github.com/users/mzumsande/following%7B/other_user%7D",
        "gists_url": "https://api.github.com/users/mzumsande/gists%7B/gist_id%7D",
        "starred_url": "https://api.github.com/users/mzumsande/starred%7B/owner%7D%7B/repo%7D",
        "subscriptions_url": "https://api.github.com/users/mzumsande/subscriptions",
        "organizations_url": "https://api.github.com/users/mzumsande/orgs",
        "repos_url": "https://api.github.com/users/mzumsande/repos",
        "events_url": "https://api.github.com/users/mzumsande/events%7B/privacy%7D",
        "received_events_url": "https://api.github.com/users/mzumsande/received_events",
        "type": "User",
        "site_admin": false
      },
      "body": "yes, I missed those, now I removed them all!",
      "created_at": "2023-07-25T14:47:36Z",
      "updated_at": "2023-07-25T14:47:36Z",
      "html_url": "https://github.com/bitcoin/bitcoin/pull/28144#discussion_r1273665330",
      "author_association": "CONTRIBUTOR",
      "_links": {
        "self": {
          "href": "https://api.github.com/repos/bitcoin/bitcoin/pulls/comments/1273665330"
        },
        "pull_request": {
          "href": "https://api.github.com/repos/bitcoin/bitcoin/pulls/28144"
        }
      },
      "start_line": null,
      "original_start_line": null,
      "start_side": null,
      "line": 73,
      "original_line": 73,
      "side": "LEFT"
    },
    {
      "url": "https://api.github.com/repos/bitcoin/bitcoin/pulls/comments/1273665554",
      "pull_request_review_id": 1545679142,
      "id": 1273665554,
      "node_id": "PRRC_kwDOABII585L6pgS",
      "diff_hunk": "@@ -645,10 +645,11 @@ def add_p2p_connection(self, p2p_conn, *, wait_for_verack=True, **kwargs):\n             p2p_conn.sync_with_ping()\n \n             # Consistency check that the node received our user agent string.\n-            # Find our connection in getpeerinfo by our address:port, as it is unique.\n+            # Find our connection in getpeerinfo by our address:port and theirs, as this combination is unique.\n             sockname = p2p_conn._transport.get_extra_info(\"socket\").getsockname()\n             our_addr_and_port = f\"{sockname[0]}:{sockname[1]}\"\n-            info = [peer for peer in self.getpeerinfo() if peer[\"addr\"] == our_addr_and_port]\n+            dst_addr_and_port =f\"{p2p_conn.dstaddr}:{p2p_conn.dstport}\"",
      "path": "test/functional/test_framework/test_node.py",
      "position": null,
      "original_position": 9,
      "commit_id": "8a20f765cce2fc0fadf1a2b66b843b67f2d2ae12",
      "original_commit_id": "e4d37875e6a440748623250d77ec3be523a1d34d",
      "in_reply_to_id": 1273212480,
      "user": {
        "login": "mzumsande",
        "id": 48763452,
        "node_id": "MDQ6VXNlcjQ4NzYzNDUy",
        "avatar_url": "https://avatars.githubusercontent.com/u/48763452?v=4",
        "gravatar_id": "",
        "url": "https://api.github.com/users/mzumsande",
        "html_url": "https://github.com/mzumsande",
        "followers_url": "https://api.github.com/users/mzumsande/followers",
        "following_url": "https://api.github.com/users/mzumsande/following%7B/other_user%7D",
        "gists_url": "https://api.github.com/users/mzumsande/gists%7B/gist_id%7D",
        "starred_url": "https://api.github.com/users/mzumsande/starred%7B/owner%7D%7B/repo%7D",
        "subscriptions_url": "https://api.github.com/users/mzumsande/subscriptions",
        "organizations_url": "https://api.github.com/users/mzumsande/orgs",
        "repos_url": "https://api.github.com/users/mzumsande/repos",
        "events_url": "https://api.github.com/users/mzumsande/events%7B/privacy%7D",
        "received_events_url": "https://api.github.com/users/mzumsande/received_events",
        "type": "User",
        "site_admin": false
      },
      "body": "fixed",
      "created_at": "2023-07-25T14:47:44Z",
      "updated_at": "2023-07-25T14:47:45Z",
      "html_url": "https://github.com/bitcoin/bitcoin/pull/28144#discussion_r1273665554",
      "author_association": "CONTRIBUTOR",
      "_links": {
        "self": {
          "href": "https://api.github.com/repos/bitcoin/bitcoin/pulls/comments/1273665554"
        },
        "pull_request": {
          "href": "https://api.github.com/repos/bitcoin/bitcoin/pulls/28144"
        }
      },
      "start_line": null,
      "original_start_line": null,
      "start_side": null,
      "line": null,
      "original_line": 651,
      "side": "RIGHT"
    }
  ]
}