{
  "type": "pull",
  "pull": {
    "url": "https://api.github.com/repos/bitcoin/bitcoin/pulls/28417",
    "id": 1503079119,
    "node_id": "PR_kwDOABII585ZlyrP",
    "html_url": "https://github.com/bitcoin/bitcoin/pull/28417",
    "diff_url": "https://github.com/bitcoin/bitcoin/pull/28417.diff",
    "patch_url": "https://github.com/bitcoin/bitcoin/pull/28417.patch",
    "issue_url": "https://api.github.com/repos/bitcoin/bitcoin/issues/28417",
    "commits_url": "https://api.github.com/repos/bitcoin/bitcoin/pulls/28417/commits",
    "review_comments_url": "https://api.github.com/repos/bitcoin/bitcoin/pulls/28417/comments",
    "review_comment_url": "https://api.github.com/repos/bitcoin/bitcoin/pulls/comments%7B/number%7D",
    "comments_url": "https://api.github.com/repos/bitcoin/bitcoin/issues/28417/comments",
    "statuses_url": "https://api.github.com/repos/bitcoin/bitcoin/statuses/997ca281c8f77578f6140b8bbd8674ac2b17638e",
    "number": 28417,
    "state": "open",
    "locked": false,
    "maintainer_can_modify": false,
    "title": "contrib/signet/miner updates",
    "user": {
      "login": "ajtowns",
      "id": 127186,
      "node_id": "MDQ6VXNlcjEyNzE4Ng==",
      "avatar_url": "https://avatars.githubusercontent.com/u/127186?v=4",
      "gravatar_id": "",
      "url": "https://api.github.com/users/ajtowns",
      "html_url": "https://github.com/ajtowns",
      "followers_url": "https://api.github.com/users/ajtowns/followers",
      "following_url": "https://api.github.com/users/ajtowns/following%7B/other_user%7D",
      "gists_url": "https://api.github.com/users/ajtowns/gists%7B/gist_id%7D",
      "starred_url": "https://api.github.com/users/ajtowns/starred%7B/owner%7D%7B/repo%7D",
      "subscriptions_url": "https://api.github.com/users/ajtowns/subscriptions",
      "organizations_url": "https://api.github.com/users/ajtowns/orgs",
      "repos_url": "https://api.github.com/users/ajtowns/repos",
      "events_url": "https://api.github.com/users/ajtowns/events%7B/privacy%7D",
      "received_events_url": "https://api.github.com/users/ajtowns/received_events",
      "type": "User",
      "site_admin": false
    },
    "body": "Refactors the code a bunch, and adds `--poolnum` / `--poolid` options so that signers can tag their coinbases in a way that explorers can recognise (see also https://github.com/bitcoin-data/mining-pools/pull/82 and https://github.com/mempool/mempool/issues/2903).\r\n\r\nThe refactoring in particular helps enable the \"try using inquisition's getblocktemplate, and if that doesn't work fall back to core's getblocktemplate\" logic, as described/implemented in https://github.com/bitcoin-inquisition/bitcoin/pull/7",
    "labels": [],
    "created_at": "2023-09-05T16:12:05Z",
    "updated_at": "2023-09-07T06:11:08Z",
    "mergeable": true,
    "mergeable_state": "blocked",
    "merge_commit_sha": "06c01ac2b584f134d541542df33fec760d851ac3",
    "assignees": [],
    "requested_reviewers": [],
    "requested_teams": [],
    "rebaseable": true,
    "head": {
      "label": "ajtowns:202309-signetminer",
      "ref": "202309-signetminer",
      "sha": "997ca281c8f77578f6140b8bbd8674ac2b17638e",
      "user": {
        "login": "ajtowns",
        "id": 127186,
        "node_id": "MDQ6VXNlcjEyNzE4Ng==",
        "avatar_url": "https://avatars.githubusercontent.com/u/127186?v=4",
        "gravatar_id": "",
        "url": "https://api.github.com/users/ajtowns",
        "html_url": "https://github.com/ajtowns",
        "followers_url": "https://api.github.com/users/ajtowns/followers",
        "following_url": "https://api.github.com/users/ajtowns/following%7B/other_user%7D",
        "gists_url": "https://api.github.com/users/ajtowns/gists%7B/gist_id%7D",
        "starred_url": "https://api.github.com/users/ajtowns/starred%7B/owner%7D%7B/repo%7D",
        "subscriptions_url": "https://api.github.com/users/ajtowns/subscriptions",
        "organizations_url": "https://api.github.com/users/ajtowns/orgs",
        "repos_url": "https://api.github.com/users/ajtowns/repos",
        "events_url": "https://api.github.com/users/ajtowns/events%7B/privacy%7D",
        "received_events_url": "https://api.github.com/users/ajtowns/received_events",
        "type": "User",
        "site_admin": false
      },
      "repo": {
        "id": 53941525,
        "node_id": "MDEwOlJlcG9zaXRvcnk1Mzk0MTUyNQ==",
        "name": "bitcoin",
        "full_name": "ajtowns/bitcoin",
        "owner": {
          "login": "ajtowns",
          "id": 127186,
          "node_id": "MDQ6VXNlcjEyNzE4Ng==",
          "avatar_url": "https://avatars.githubusercontent.com/u/127186?v=4",
          "gravatar_id": "",
          "url": "https://api.github.com/users/ajtowns",
          "html_url": "https://github.com/ajtowns",
          "followers_url": "https://api.github.com/users/ajtowns/followers",
          "following_url": "https://api.github.com/users/ajtowns/following%7B/other_user%7D",
          "gists_url": "https://api.github.com/users/ajtowns/gists%7B/gist_id%7D",
          "starred_url": "https://api.github.com/users/ajtowns/starred%7B/owner%7D%7B/repo%7D",
          "subscriptions_url": "https://api.github.com/users/ajtowns/subscriptions",
          "organizations_url": "https://api.github.com/users/ajtowns/orgs",
          "repos_url": "https://api.github.com/users/ajtowns/repos",
          "events_url": "https://api.github.com/users/ajtowns/events%7B/privacy%7D",
          "received_events_url": "https://api.github.com/users/ajtowns/received_events",
          "type": "User",
          "site_admin": false
        },
        "private": false,
        "html_url": "https://github.com/ajtowns/bitcoin",
        "description": "Bitcoin Core integration/staging tree",
        "fork": true,
        "url": "https://api.github.com/repos/ajtowns/bitcoin",
        "archive_url": "https://api.github.com/repos/ajtowns/bitcoin/%7Barchive_format%7D%7B/ref%7D",
        "assignees_url": "https://api.github.com/repos/ajtowns/bitcoin/assignees%7B/user%7D",
        "blobs_url": "https://api.github.com/repos/ajtowns/bitcoin/git/blobs%7B/sha%7D",
        "branches_url": "https://api.github.com/repos/ajtowns/bitcoin/branches%7B/branch%7D",
        "collaborators_url": "https://api.github.com/repos/ajtowns/bitcoin/collaborators%7B/collaborator%7D",
        "comments_url": "https://api.github.com/repos/ajtowns/bitcoin/comments%7B/number%7D",
        "commits_url": "https://api.github.com/repos/ajtowns/bitcoin/commits%7B/sha%7D",
        "compare_url": "https://api.github.com/repos/ajtowns/bitcoin/compare/%7Bbase%7D...%7Bhead%7D",
        "contents_url": "https://api.github.com/repos/ajtowns/bitcoin/contents/%7B+path%7D",
        "contributors_url": "https://api.github.com/repos/ajtowns/bitcoin/contributors",
        "deployments_url": "https://api.github.com/repos/ajtowns/bitcoin/deployments",
        "downloads_url": "https://api.github.com/repos/ajtowns/bitcoin/downloads",
        "events_url": "https://api.github.com/repos/ajtowns/bitcoin/events",
        "forks_url": "https://api.github.com/repos/ajtowns/bitcoin/forks",
        "git_commits_url": "https://api.github.com/repos/ajtowns/bitcoin/git/commits%7B/sha%7D",
        "git_refs_url": "https://api.github.com/repos/ajtowns/bitcoin/git/refs%7B/sha%7D",
        "git_tags_url": "https://api.github.com/repos/ajtowns/bitcoin/git/tags%7B/sha%7D",
        "git_url": "git://github.com/ajtowns/bitcoin.git",
        "issue_comment_url": "https://api.github.com/repos/ajtowns/bitcoin/issues/comments%7B/number%7D",
        "issue_events_url": "https://api.github.com/repos/ajtowns/bitcoin/issues/events%7B/number%7D",
        "issues_url": "https://api.github.com/repos/ajtowns/bitcoin/issues%7B/number%7D",
        "keys_url": "https://api.github.com/repos/ajtowns/bitcoin/keys%7B/key_id%7D",
        "labels_url": "https://api.github.com/repos/ajtowns/bitcoin/labels%7B/name%7D",
        "languages_url": "https://api.github.com/repos/ajtowns/bitcoin/languages",
        "merges_url": "https://api.github.com/repos/ajtowns/bitcoin/merges",
        "milestones_url": "https://api.github.com/repos/ajtowns/bitcoin/milestones%7B/number%7D",
        "notifications_url": "https://api.github.com/repos/ajtowns/bitcoin/notifications%7B?since,all,participating}",
        "pulls_url": "https://api.github.com/repos/ajtowns/bitcoin/pulls%7B/number%7D",
        "releases_url": "https://api.github.com/repos/ajtowns/bitcoin/releases%7B/id%7D",
        "ssh_url": "git@github.com:ajtowns/bitcoin.git",
        "stargazers_url": "https://api.github.com/repos/ajtowns/bitcoin/stargazers",
        "statuses_url": "https://api.github.com/repos/ajtowns/bitcoin/statuses/%7Bsha%7D",
        "subscribers_url": "https://api.github.com/repos/ajtowns/bitcoin/subscribers",
        "subscription_url": "https://api.github.com/repos/ajtowns/bitcoin/subscription",
        "tags_url": "https://api.github.com/repos/ajtowns/bitcoin/tags",
        "teams_url": "https://api.github.com/repos/ajtowns/bitcoin/teams",
        "trees_url": "https://api.github.com/repos/ajtowns/bitcoin/git/trees%7B/sha%7D",
        "clone_url": "https://github.com/ajtowns/bitcoin.git",
        "hooks_url": "https://api.github.com/repos/ajtowns/bitcoin/hooks",
        "svn_url": "https://github.com/ajtowns/bitcoin",
        "homepage": "https://bitcoin.org/en/download",
        "language": "C++",
        "forks_count": 2,
        "stargazers_count": 7,
        "watchers_count": 7,
        "size": 271328,
        "default_branch": "master",
        "open_issues_count": 1,
        "is_template": false,
        "topics": [],
        "has_issues": false,
        "has_projects": true,
        "has_wiki": false,
        "has_pages": false,
        "has_downloads": false,
        "archived": false,
        "disabled": false,
        "visibility": "public",
        "pushed_at": "2023-09-05T21:58:20Z",
        "created_at": "2016-03-15T12:11:24Z",
        "updated_at": "2023-03-19T19:22:46Z",
        "license": {
          "key": "mit",
          "name": "MIT License",
          "node_id": "MDc6TGljZW5zZTEz",
          "spdx_id": "MIT",
          "url": "https://api.github.com/licenses/mit",
          "html_url": null,
          "description": null,
          "implementation": null,
          "permissions": null,
          "conditions": null,
          "limitations": null,
          "body": null,
          "featured": null
        }
      }
    },
    "base": {
      "label": "bitcoin:master",
      "ref": "master",
      "sha": "9d3b216e009a53ffcecd57e7f10df15cccd5fd6d",
      "user": {
        "login": "bitcoin",
        "id": 528860,
        "node_id": "MDEyOk9yZ2FuaXphdGlvbjUyODg2MA==",
        "avatar_url": "https://avatars.githubusercontent.com/u/528860?v=4",
        "gravatar_id": "",
        "url": "https://api.github.com/users/bitcoin",
        "html_url": "https://github.com/bitcoin",
        "followers_url": "https://api.github.com/users/bitcoin/followers",
        "following_url": "https://api.github.com/users/bitcoin/following%7B/other_user%7D",
        "gists_url": "https://api.github.com/users/bitcoin/gists%7B/gist_id%7D",
        "starred_url": "https://api.github.com/users/bitcoin/starred%7B/owner%7D%7B/repo%7D",
        "subscriptions_url": "https://api.github.com/users/bitcoin/subscriptions",
        "organizations_url": "https://api.github.com/users/bitcoin/orgs",
        "repos_url": "https://api.github.com/users/bitcoin/repos",
        "events_url": "https://api.github.com/users/bitcoin/events%7B/privacy%7D",
        "received_events_url": "https://api.github.com/users/bitcoin/received_events",
        "type": "Organization",
        "site_admin": false
      },
      "repo": {
        "id": 1181927,
        "node_id": "MDEwOlJlcG9zaXRvcnkxMTgxOTI3",
        "name": "bitcoin",
        "full_name": "bitcoin/bitcoin",
        "owner": {
          "login": "bitcoin",
          "id": 528860,
          "node_id": "MDEyOk9yZ2FuaXphdGlvbjUyODg2MA==",
          "avatar_url": "https://avatars.githubusercontent.com/u/528860?v=4",
          "gravatar_id": "",
          "url": "https://api.github.com/users/bitcoin",
          "html_url": "https://github.com/bitcoin",
          "followers_url": "https://api.github.com/users/bitcoin/followers",
          "following_url": "https://api.github.com/users/bitcoin/following%7B/other_user%7D",
          "gists_url": "https://api.github.com/users/bitcoin/gists%7B/gist_id%7D",
          "starred_url": "https://api.github.com/users/bitcoin/starred%7B/owner%7D%7B/repo%7D",
          "subscriptions_url": "https://api.github.com/users/bitcoin/subscriptions",
          "organizations_url": "https://api.github.com/users/bitcoin/orgs",
          "repos_url": "https://api.github.com/users/bitcoin/repos",
          "events_url": "https://api.github.com/users/bitcoin/events%7B/privacy%7D",
          "received_events_url": "https://api.github.com/users/bitcoin/received_events",
          "type": "Organization",
          "site_admin": false
        },
        "private": false,
        "html_url": "https://github.com/bitcoin/bitcoin",
        "description": "Bitcoin Core integration/staging tree",
        "fork": false,
        "url": "https://api.github.com/repos/bitcoin/bitcoin",
        "archive_url": "https://api.github.com/repos/bitcoin/bitcoin/%7Barchive_format%7D%7B/ref%7D",
        "assignees_url": "https://api.github.com/repos/bitcoin/bitcoin/assignees%7B/user%7D",
        "blobs_url": "https://api.github.com/repos/bitcoin/bitcoin/git/blobs%7B/sha%7D",
        "branches_url": "https://api.github.com/repos/bitcoin/bitcoin/branches%7B/branch%7D",
        "collaborators_url": "https://api.github.com/repos/bitcoin/bitcoin/collaborators%7B/collaborator%7D",
        "comments_url": "https://api.github.com/repos/bitcoin/bitcoin/comments%7B/number%7D",
        "commits_url": "https://api.github.com/repos/bitcoin/bitcoin/commits%7B/sha%7D",
        "compare_url": "https://api.github.com/repos/bitcoin/bitcoin/compare/%7Bbase%7D...%7Bhead%7D",
        "contents_url": "https://api.github.com/repos/bitcoin/bitcoin/contents/%7B+path%7D",
        "contributors_url": "https://api.github.com/repos/bitcoin/bitcoin/contributors",
        "deployments_url": "https://api.github.com/repos/bitcoin/bitcoin/deployments",
        "downloads_url": "https://api.github.com/repos/bitcoin/bitcoin/downloads",
        "events_url": "https://api.github.com/repos/bitcoin/bitcoin/events",
        "forks_url": "https://api.github.com/repos/bitcoin/bitcoin/forks",
        "git_commits_url": "https://api.github.com/repos/bitcoin/bitcoin/git/commits%7B/sha%7D",
        "git_refs_url": "https://api.github.com/repos/bitcoin/bitcoin/git/refs%7B/sha%7D",
        "git_tags_url": "https://api.github.com/repos/bitcoin/bitcoin/git/tags%7B/sha%7D",
        "git_url": "git://github.com/bitcoin/bitcoin.git",
        "issue_comment_url": "https://api.github.com/repos/bitcoin/bitcoin/issues/comments%7B/number%7D",
        "issue_events_url": "https://api.github.com/repos/bitcoin/bitcoin/issues/events%7B/number%7D",
        "issues_url": "https://api.github.com/repos/bitcoin/bitcoin/issues%7B/number%7D",
        "keys_url": "https://api.github.com/repos/bitcoin/bitcoin/keys%7B/key_id%7D",
        "labels_url": "https://api.github.com/repos/bitcoin/bitcoin/labels%7B/name%7D",
        "languages_url": "https://api.github.com/repos/bitcoin/bitcoin/languages",
        "merges_url": "https://api.github.com/repos/bitcoin/bitcoin/merges",
        "milestones_url": "https://api.github.com/repos/bitcoin/bitcoin/milestones%7B/number%7D",
        "notifications_url": "https://api.github.com/repos/bitcoin/bitcoin/notifications%7B?since,all,participating}",
        "pulls_url": "https://api.github.com/repos/bitcoin/bitcoin/pulls%7B/number%7D",
        "releases_url": "https://api.github.com/repos/bitcoin/bitcoin/releases%7B/id%7D",
        "ssh_url": "git@github.com:bitcoin/bitcoin.git",
        "stargazers_url": "https://api.github.com/repos/bitcoin/bitcoin/stargazers",
        "statuses_url": "https://api.github.com/repos/bitcoin/bitcoin/statuses/%7Bsha%7D",
        "subscribers_url": "https://api.github.com/repos/bitcoin/bitcoin/subscribers",
        "subscription_url": "https://api.github.com/repos/bitcoin/bitcoin/subscription",
        "tags_url": "https://api.github.com/repos/bitcoin/bitcoin/tags",
        "teams_url": "https://api.github.com/repos/bitcoin/bitcoin/teams",
        "trees_url": "https://api.github.com/repos/bitcoin/bitcoin/git/trees%7B/sha%7D",
        "clone_url": "https://github.com/bitcoin/bitcoin.git",
        "hooks_url": "https://api.github.com/repos/bitcoin/bitcoin/hooks",
        "svn_url": "https://github.com/bitcoin/bitcoin",
        "homepage": "https://bitcoincore.org/en/download",
        "language": "C++",
        "forks_count": 35621,
        "stargazers_count": 71236,
        "watchers_count": 71236,
        "size": 239171,
        "default_branch": "master",
        "open_issues_count": 681,
        "is_template": false,
        "topics": [
          "bitcoin",
          "c-plus-plus",
          "cryptocurrency",
          "cryptography",
          "p2p"
        ],
        "has_issues": true,
        "has_projects": true,
        "has_wiki": false,
        "has_pages": false,
        "has_downloads": false,
        "archived": false,
        "disabled": false,
        "visibility": "public",
        "pushed_at": "2023-09-07T05:20:13Z",
        "created_at": "2010-12-19T15:16:43Z",
        "updated_at": "2023-09-07T06:54:23Z",
        "license": {
          "key": "mit",
          "name": "MIT License",
          "node_id": "MDc6TGljZW5zZTEz",
          "spdx_id": "MIT",
          "url": "https://api.github.com/licenses/mit",
          "html_url": null,
          "description": null,
          "implementation": null,
          "permissions": null,
          "conditions": null,
          "limitations": null,
          "body": null,
          "featured": null
        }
      }
    },
    "_links": {
      "self": {
        "href": "https://api.github.com/repos/bitcoin/bitcoin/pulls/28417"
      }
    },
    "author_association": "CONTRIBUTOR",
    "draft": false,
    "additions": 174,
    "deletions": 134,
    "changed_files": 2,
    "commits": 9,
    "review_comments": 0,
    "comments": 2
  },
  "events": [
    {
      "event": "committed",
      "id": null,
      "node_id": "C_kwDOABII59oAKDNjYWE3YmQ1MjI0ZDFlY2E4OGI3MDQwNDcyZmY2N2JhNzYwY2JkOTU",
      "url": "https://api.github.com/repos/bitcoin/bitcoin/git/commits/3caa7bd5224d1eca88b7040472ff67ba760cbd95",
      "actor": null,
      "commit_id": null,
      "commit_url": null,
      "created_at": null,
      "html_url": "https://github.com/bitcoin/bitcoin/commit/3caa7bd5224d1eca88b7040472ff67ba760cbd95",
      "tree": {
        "sha": "9798c343765fde95a46f3017879ca9f817c81152",
        "url": "https://api.github.com/repos/bitcoin/bitcoin/git/trees/9798c343765fde95a46f3017879ca9f817c81152"
      },
      "verification": {
        "verified": false,
        "reason": "unsigned",
        "payload": null,
        "signature": null
      },
      "parents": [
        {
          "url": "https://api.github.com/repos/bitcoin/bitcoin/git/commits/ecab855838fa4de4c6d8c11e69037477d6047790",
          "sha": "ecab855838fa4de4c6d8c11e69037477d6047790",
          "html_url": "https://github.com/bitcoin/bitcoin/commit/ecab855838fa4de4c6d8c11e69037477d6047790"
        }
      ],
      "message": "signet/miner: drop get_reward_address function",
      "committer": {
        "name": "Anthony Towns",
        "email": "aj@erisian.com.au",
        "date": "2023-09-05T14:11:46Z"
      },
      "author": {
        "name": "Anthony Towns",
        "email": "aj@erisian.com.au",
        "date": "2022-10-01T01:12:51Z"
      },
      "sha": "3caa7bd5224d1eca88b7040472ff67ba760cbd95"
    },
    {
      "event": "committed",
      "id": null,
      "node_id": "C_kwDOABII59oAKDQ1YjliNWFiMmM4ODM3OTY1ZDRkYTY3N2JlODBiODdhMGI2MWExOTM",
      "url": "https://api.github.com/repos/bitcoin/bitcoin/git/commits/45b9b5ab2c8837965d4da677be80b87a0b61a193",
      "actor": null,
      "commit_id": null,
      "commit_url": null,
      "created_at": null,
      "html_url": "https://github.com/bitcoin/bitcoin/commit/45b9b5ab2c8837965d4da677be80b87a0b61a193",
      "tree": {
        "sha": "9b3c8c4e8b33aa21d4e96be3648c4e2db01d9b05",
        "url": "https://api.github.com/repos/bitcoin/bitcoin/git/trees/9b3c8c4e8b33aa21d4e96be3648c4e2db01d9b05"
      },
      "verification": {
        "verified": false,
        "reason": "unsigned",
        "payload": null,
        "signature": null
      },
      "parents": [
        {
          "url": "https://api.github.com/repos/bitcoin/bitcoin/git/commits/3caa7bd5224d1eca88b7040472ff67ba760cbd95",
          "sha": "3caa7bd5224d1eca88b7040472ff67ba760cbd95",
          "html_url": "https://github.com/bitcoin/bitcoin/commit/3caa7bd5224d1eca88b7040472ff67ba760cbd95"
        }
      ],
      "message": "signet/miner: drop do_createpsbt function",
      "committer": {
        "name": "Anthony Towns",
        "email": "aj@erisian.com.au",
        "date": "2023-09-05T14:11:49Z"
      },
      "author": {
        "name": "Anthony Towns",
        "email": "aj@erisian.com.au",
        "date": "2022-10-01T01:13:53Z"
      },
      "sha": "45b9b5ab2c8837965d4da677be80b87a0b61a193"
    },
    {
      "event": "committed",
      "id": null,
      "node_id": "C_kwDOABII59oAKDgwMmVhMTRhMTY3ZjcxODUzMDdkZmE5NTA5YzgyNWYxMmNkNTUyYTc",
      "url": "https://api.github.com/repos/bitcoin/bitcoin/git/commits/802ea14a167f7185307dfa9509c825f12cd552a7",
      "actor": null,
      "commit_id": null,
      "commit_url": null,
      "created_at": null,
      "html_url": "https://github.com/bitcoin/bitcoin/commit/802ea14a167f7185307dfa9509c825f12cd552a7",
      "tree": {
        "sha": "3c6d6dd29f297a6a5c68d5f83766319c30380a53",
        "url": "https://api.github.com/repos/bitcoin/bitcoin/git/trees/3c6d6dd29f297a6a5c68d5f83766319c30380a53"
      },
      "verification": {
        "verified": false,
        "reason": "unsigned",
        "payload": null,
        "signature": null
      },
      "parents": [
        {
          "url": "https://api.github.com/repos/bitcoin/bitcoin/git/commits/45b9b5ab2c8837965d4da677be80b87a0b61a193",
          "sha": "45b9b5ab2c8837965d4da677be80b87a0b61a193",
          "html_url": "https://github.com/bitcoin/bitcoin/commit/45b9b5ab2c8837965d4da677be80b87a0b61a193"
        }
      ],
      "message": "signet/miner: drop create_coinbase function",
      "committer": {
        "name": "Anthony Towns",
        "email": "aj@erisian.com.au",
        "date": "2023-09-05T14:12:15Z"
      },
      "author": {
        "name": "Anthony Towns",
        "email": "aj@erisian.com.au",
        "date": "2022-10-01T01:16:25Z"
      },
      "sha": "802ea14a167f7185307dfa9509c825f12cd552a7"
    },
    {
      "event": "committed",
      "id": null,
      "node_id": "C_kwDOABII59oAKGJiYzliN2U5YWE2ZjQ1YmVmYTkxN2U0N2VjMGMxOWI5MDAzMzQzZDA",
      "url": "https://api.github.com/repos/bitcoin/bitcoin/git/commits/bbc9b7e9aa6f45befa917e47ec0c19b9003343d0",
      "actor": null,
      "commit_id": null,
      "commit_url": null,
      "created_at": null,
      "html_url": "https://github.com/bitcoin/bitcoin/commit/bbc9b7e9aa6f45befa917e47ec0c19b9003343d0",
      "tree": {
        "sha": "a9a90e374f2d2bb0a9e63a3b8c2e3aaece3535b1",
        "url": "https://api.github.com/repos/bitcoin/bitcoin/git/trees/a9a90e374f2d2bb0a9e63a3b8c2e3aaece3535b1"
      },
      "verification": {
        "verified": false,
        "reason": "unsigned",
        "payload": null,
        "signature": null
      },
      "parents": [
        {
          "url": "https://api.github.com/repos/bitcoin/bitcoin/git/commits/802ea14a167f7185307dfa9509c825f12cd552a7",
          "sha": "802ea14a167f7185307dfa9509c825f12cd552a7",
          "html_url": "https://github.com/bitcoin/bitcoin/commit/802ea14a167f7185307dfa9509c825f12cd552a7"
        }
      ],
      "message": "signet/miner: rename do_decode_psbt to decode_psbt",
      "committer": {
        "name": "Anthony Towns",
        "email": "aj@erisian.com.au",
        "date": "2023-09-05T14:12:33Z"
      },
      "author": {
        "name": "Anthony Towns",
        "email": "aj@erisian.com.au",
        "date": "2022-10-01T01:18:03Z"
      },
      "sha": "bbc9b7e9aa6f45befa917e47ec0c19b9003343d0"
    },
    {
      "event": "committed",
      "id": null,
      "node_id": "C_kwDOABII59oAKDNlYjJlZmY5ODcyNDNjOTM5ODczOTAzMTM4YzU0OTE5NDg4OTY0ODE",
      "url": "https://api.github.com/repos/bitcoin/bitcoin/git/commits/3eb2eff987243c939873903138c5491948896481",
      "actor": null,
      "commit_id": null,
      "commit_url": null,
      "created_at": null,
      "html_url": "https://github.com/bitcoin/bitcoin/commit/3eb2eff987243c939873903138c5491948896481",
      "tree": {
        "sha": "71a4c2a88f40c0cd0de7a8d2edcb5a2957a05334",
        "url": "https://api.github.com/repos/bitcoin/bitcoin/git/trees/71a4c2a88f40c0cd0de7a8d2edcb5a2957a05334"
      },
      "verification": {
        "verified": false,
        "reason": "unsigned",
        "payload": null,
        "signature": null
      },
      "parents": [
        {
          "url": "https://api.github.com/repos/bitcoin/bitcoin/git/commits/bbc9b7e9aa6f45befa917e47ec0c19b9003343d0",
          "sha": "bbc9b7e9aa6f45befa917e47ec0c19b9003343d0",
          "html_url": "https://github.com/bitcoin/bitcoin/commit/bbc9b7e9aa6f45befa917e47ec0c19b9003343d0"
        }
      ],
      "message": "signet/miner: move next_block_* functions into new Generator class",
      "committer": {
        "name": "Anthony Towns",
        "email": "aj@erisian.com.au",
        "date": "2023-09-05T14:13:32Z"
      },
      "author": {
        "name": "Anthony Towns",
        "email": "aj@erisian.com.au",
        "date": "2022-10-01T01:25:01Z"
      },
      "sha": "3eb2eff987243c939873903138c5491948896481"
    },
    {
      "event": "committed",
      "id": null,
      "node_id": "C_kwDOABII59oAKDQ1NmZkNDNjMzhiYzViNDFlNjAwZGQ5MzYwZDI0YjU2YzFlYTIwNGQ",
      "url": "https://api.github.com/repos/bitcoin/bitcoin/git/commits/456fd43c38bc5b41e600dd9360d24b56c1ea204d",
      "actor": null,
      "commit_id": null,
      "commit_url": null,
      "created_at": null,
      "html_url": "https://github.com/bitcoin/bitcoin/commit/456fd43c38bc5b41e600dd9360d24b56c1ea204d",
      "tree": {
        "sha": "130f31d8d753e1ee8c1e1debef8dbbe957a01c5c",
        "url": "https://api.github.com/repos/bitcoin/bitcoin/git/trees/130f31d8d753e1ee8c1e1debef8dbbe957a01c5c"
      },
      "verification": {
        "verified": false,
        "reason": "unsigned",
        "payload": null,
        "signature": null
      },
      "parents": [
        {
          "url": "https://api.github.com/repos/bitcoin/bitcoin/git/commits/3eb2eff987243c939873903138c5491948896481",
          "sha": "3eb2eff987243c939873903138c5491948896481",
          "html_url": "https://github.com/bitcoin/bitcoin/commit/3eb2eff987243c939873903138c5491948896481"
        }
      ],
      "message": "signet/miner: add Generate.next_block_time function",
      "committer": {
        "name": "Anthony Towns",
        "email": "aj@erisian.com.au",
        "date": "2023-09-05T14:14:13Z"
      },
      "author": {
        "name": "Anthony Towns",
        "email": "aj@erisian.com.au",
        "date": "2022-10-01T03:15:19Z"
      },
      "sha": "456fd43c38bc5b41e600dd9360d24b56c1ea204d"
    },
    {
      "event": "committed",
      "id": null,
      "node_id": "C_kwDOABII59oAKGZmOWFkNzUyNjliNDhjZjFmYTllNGUzYjhlNjAxNzQwMjdjZTdhODM",
      "url": "https://api.github.com/repos/bitcoin/bitcoin/git/commits/ff9ad75269b48cf1fa9e4e3b8e60174027ce7a83",
      "actor": null,
      "commit_id": null,
      "commit_url": null,
      "created_at": null,
      "html_url": "https://github.com/bitcoin/bitcoin/commit/ff9ad75269b48cf1fa9e4e3b8e60174027ce7a83",
      "tree": {
        "sha": "5670acb76b3deb3540c04e1691d3e63592713dea",
        "url": "https://api.github.com/repos/bitcoin/bitcoin/git/trees/5670acb76b3deb3540c04e1691d3e63592713dea"
      },
      "verification": {
        "verified": false,
        "reason": "unsigned",
        "payload": null,
        "signature": null
      },
      "parents": [
        {
          "url": "https://api.github.com/repos/bitcoin/bitcoin/git/commits/456fd43c38bc5b41e600dd9360d24b56c1ea204d",
          "sha": "456fd43c38bc5b41e600dd9360d24b56c1ea204d",
          "html_url": "https://github.com/bitcoin/bitcoin/commit/456fd43c38bc5b41e600dd9360d24b56c1ea204d"
        }
      ],
      "message": "signet/miner: add Generate.gbt function",
      "committer": {
        "name": "Anthony Towns",
        "email": "aj@erisian.com.au",
        "date": "2023-09-05T14:14:42Z"
      },
      "author": {
        "name": "Anthony Towns",
        "email": "aj@erisian.com.au",
        "date": "2022-10-01T03:19:22Z"
      },
      "sha": "ff9ad75269b48cf1fa9e4e3b8e60174027ce7a83"
    },
    {
      "event": "committed",
      "id": null,
      "node_id": "C_kwDOABII59oAKDUxZDVlZmZhNzMxYTBmNGUxNWM5NmE1YmViM2U2MjMxYTgwNzFlYTg",
      "url": "https://api.github.com/repos/bitcoin/bitcoin/git/commits/51d5effa731a0f4e15c96a5beb3e6231a8071ea8",
      "actor": null,
      "commit_id": null,
      "commit_url": null,
      "created_at": null,
      "html_url": "https://github.com/bitcoin/bitcoin/commit/51d5effa731a0f4e15c96a5beb3e6231a8071ea8",
      "tree": {
        "sha": "85ac7271a4e6f694fc67a53990b2322b61abac8f",
        "url": "https://api.github.com/repos/bitcoin/bitcoin/git/trees/85ac7271a4e6f694fc67a53990b2322b61abac8f"
      },
      "verification": {
        "verified": false,
        "reason": "unsigned",
        "payload": null,
        "signature": null
      },
      "parents": [
        {
          "url": "https://api.github.com/repos/bitcoin/bitcoin/git/commits/ff9ad75269b48cf1fa9e4e3b8e60174027ce7a83",
          "sha": "ff9ad75269b48cf1fa9e4e3b8e60174027ce7a83",
          "html_url": "https://github.com/bitcoin/bitcoin/commit/ff9ad75269b48cf1fa9e4e3b8e60174027ce7a83"
        }
      ],
      "message": "signet/miner: add Generate.mine function",
      "committer": {
        "name": "Anthony Towns",
        "email": "aj@erisian.com.au",
        "date": "2023-09-05T14:14:52Z"
      },
      "author": {
        "name": "Anthony Towns",
        "email": "aj@erisian.com.au",
        "date": "2022-10-01T03:24:22Z"
      },
      "sha": "51d5effa731a0f4e15c96a5beb3e6231a8071ea8"
    },
    {
      "event": "committed",
      "id": null,
      "node_id": "C_kwDOABII59oAKDk5N2NhMjgxYzhmNzc1NzhmNjE0MGI4YmJkODY3NGFjMmIxNzYzOGU",
      "url": "https://api.github.com/repos/bitcoin/bitcoin/git/commits/997ca281c8f77578f6140b8bbd8674ac2b17638e",
      "actor": null,
      "commit_id": null,
      "commit_url": null,
      "created_at": null,
      "html_url": "https://github.com/bitcoin/bitcoin/commit/997ca281c8f77578f6140b8bbd8674ac2b17638e",
      "tree": {
        "sha": "5d1e88322a6743152cfd6dccb49700c27d8d0f95",
        "url": "https://api.github.com/repos/bitcoin/bitcoin/git/trees/5d1e88322a6743152cfd6dccb49700c27d8d0f95"
      },
      "verification": {
        "verified": false,
        "reason": "unsigned",
        "payload": null,
        "signature": null
      },
      "parents": [
        {
          "url": "https://api.github.com/repos/bitcoin/bitcoin/git/commits/51d5effa731a0f4e15c96a5beb3e6231a8071ea8",
          "sha": "51d5effa731a0f4e15c96a5beb3e6231a8071ea8",
          "html_url": "https://github.com/bitcoin/bitcoin/commit/51d5effa731a0f4e15c96a5beb3e6231a8071ea8"
        }
      ],
      "message": "signet/miner: add support for a poolnum/poolid tag in mined blocks",
      "committer": {
        "name": "Anthony Towns",
        "email": "aj@erisian.com.au",
        "date": "2023-09-05T15:13:43Z"
      },
      "author": {
        "name": "Anthony Towns",
        "email": "aj@erisian.com.au",
        "date": "2023-09-05T15:01:44Z"
      },
      "sha": "997ca281c8f77578f6140b8bbd8674ac2b17638e"
    },
    {
      "event": "commented",
      "id": 1706931582,
      "node_id": "IC_kwDOABII585lvbV-",
      "url": "https://api.github.com/repos/bitcoin/bitcoin/issues/comments/1706931582",
      "actor": {
        "login": "DrahtBot",
        "id": 39886733,
        "node_id": "MDQ6VXNlcjM5ODg2NzMz",
        "avatar_url": "https://avatars.githubusercontent.com/u/39886733?v=4",
        "gravatar_id": "",
        "url": "https://api.github.com/users/DrahtBot",
        "html_url": "https://github.com/DrahtBot",
        "followers_url": "https://api.github.com/users/DrahtBot/followers",
        "following_url": "https://api.github.com/users/DrahtBot/following%7B/other_user%7D",
        "gists_url": "https://api.github.com/users/DrahtBot/gists%7B/gist_id%7D",
        "starred_url": "https://api.github.com/users/DrahtBot/starred%7B/owner%7D%7B/repo%7D",
        "subscriptions_url": "https://api.github.com/users/DrahtBot/subscriptions",
        "organizations_url": "https://api.github.com/users/DrahtBot/orgs",
        "repos_url": "https://api.github.com/users/DrahtBot/repos",
        "events_url": "https://api.github.com/users/DrahtBot/events%7B/privacy%7D",
        "received_events_url": "https://api.github.com/users/DrahtBot/received_events",
        "type": "User",
        "site_admin": false
      },
      "commit_id": null,
      "commit_url": null,
      "created_at": "2023-09-05T16:12:08Z",
      "updated_at": "2023-09-07T06:11:08Z",
      "author_association": "CONTRIBUTOR",
      "body": "<!--e57a25ab6845829454e8d69fc972939a-->\n\nThe following sections might be updated with supplementary metadata relevant to reviewers and maintainers.\n\n<!--021abf342d371248e50ceaed478a90ca-->\n### Reviews\nSee [the guideline](https://github.com/bitcoin/bitcoin/blob/master/CONTRIBUTING.md#code-review) for information on the review process.\n| Type | Reviewers |\n| ---- | --------- |\n| Concept ACK | [0xB10C](https://github.com/bitcoin/bitcoin/pull/28417#issuecomment-1709533260) |\n\nIf your review is incorrectly listed, please react with 👎 to this comment and the bot will ignore it on the next update.\n",
      "user": {
        "login": "DrahtBot",
        "id": 39886733,
        "node_id": "MDQ6VXNlcjM5ODg2NzMz",
        "avatar_url": "https://avatars.githubusercontent.com/u/39886733?v=4",
        "gravatar_id": "",
        "url": "https://api.github.com/users/DrahtBot",
        "html_url": "https://github.com/DrahtBot",
        "followers_url": "https://api.github.com/users/DrahtBot/followers",
        "following_url": "https://api.github.com/users/DrahtBot/following%7B/other_user%7D",
        "gists_url": "https://api.github.com/users/DrahtBot/gists%7B/gist_id%7D",
        "starred_url": "https://api.github.com/users/DrahtBot/starred%7B/owner%7D%7B/repo%7D",
        "subscriptions_url": "https://api.github.com/users/DrahtBot/subscriptions",
        "organizations_url": "https://api.github.com/users/DrahtBot/orgs",
        "repos_url": "https://api.github.com/users/DrahtBot/repos",
        "events_url": "https://api.github.com/users/DrahtBot/events%7B/privacy%7D",
        "received_events_url": "https://api.github.com/users/DrahtBot/received_events",
        "type": "User",
        "site_admin": false
      },
      "html_url": "https://github.com/bitcoin/bitcoin/pull/28417#issuecomment-1706931582",
      "issue_url": "https://api.github.com/repos/bitcoin/bitcoin/issues/28417"
    },
    {
      "event": "commented",
      "id": 1709533260,
      "node_id": "IC_kwDOABII585l5WhM",
      "url": "https://api.github.com/repos/bitcoin/bitcoin/issues/comments/1709533260",
      "actor": {
        "login": "0xB10C",
        "id": 19157360,
        "node_id": "MDQ6VXNlcjE5MTU3MzYw",
        "avatar_url": "https://avatars.githubusercontent.com/u/19157360?v=4",
        "gravatar_id": "",
        "url": "https://api.github.com/users/0xB10C",
        "html_url": "https://github.com/0xB10C",
        "followers_url": "https://api.github.com/users/0xB10C/followers",
        "following_url": "https://api.github.com/users/0xB10C/following%7B/other_user%7D",
        "gists_url": "https://api.github.com/users/0xB10C/gists%7B/gist_id%7D",
        "starred_url": "https://api.github.com/users/0xB10C/starred%7B/owner%7D%7B/repo%7D",
        "subscriptions_url": "https://api.github.com/users/0xB10C/subscriptions",
        "organizations_url": "https://api.github.com/users/0xB10C/orgs",
        "repos_url": "https://api.github.com/users/0xB10C/repos",
        "events_url": "https://api.github.com/users/0xB10C/events%7B/privacy%7D",
        "received_events_url": "https://api.github.com/users/0xB10C/received_events",
        "type": "User",
        "site_admin": false
      },
      "commit_id": null,
      "commit_url": null,
      "created_at": "2023-09-07T06:11:06Z",
      "updated_at": "2023-09-07T06:11:06Z",
      "author_association": "CONTRIBUTOR",
      "body": "Concept ACK",
      "user": {
        "login": "0xB10C",
        "id": 19157360,
        "node_id": "MDQ6VXNlcjE5MTU3MzYw",
        "avatar_url": "https://avatars.githubusercontent.com/u/19157360?v=4",
        "gravatar_id": "",
        "url": "https://api.github.com/users/0xB10C",
        "html_url": "https://github.com/0xB10C",
        "followers_url": "https://api.github.com/users/0xB10C/followers",
        "following_url": "https://api.github.com/users/0xB10C/following%7B/other_user%7D",
        "gists_url": "https://api.github.com/users/0xB10C/gists%7B/gist_id%7D",
        "starred_url": "https://api.github.com/users/0xB10C/starred%7B/owner%7D%7B/repo%7D",
        "subscriptions_url": "https://api.github.com/users/0xB10C/subscriptions",
        "organizations_url": "https://api.github.com/users/0xB10C/orgs",
        "repos_url": "https://api.github.com/users/0xB10C/repos",
        "events_url": "https://api.github.com/users/0xB10C/events%7B/privacy%7D",
        "received_events_url": "https://api.github.com/users/0xB10C/received_events",
        "type": "User",
        "site_admin": false
      },
      "html_url": "https://github.com/bitcoin/bitcoin/pull/28417#issuecomment-1709533260",
      "issue_url": "https://api.github.com/repos/bitcoin/bitcoin/issues/28417"
    }
  ],
  "comments": []
}