{
  "type": "pull",
  "pull": {
    "url": "https://api.github.com/repos/bitcoin/bitcoin/pulls/28483",
    "id": 1515903663,
    "node_id": "PR_kwDOABII585aWtqv",
    "html_url": "https://github.com/bitcoin/bitcoin/pull/28483",
    "diff_url": "https://github.com/bitcoin/bitcoin/pull/28483.diff",
    "patch_url": "https://github.com/bitcoin/bitcoin/pull/28483.patch",
    "issue_url": "https://api.github.com/repos/bitcoin/bitcoin/issues/28483",
    "commits_url": "https://api.github.com/repos/bitcoin/bitcoin/pulls/28483/commits",
    "review_comments_url": "https://api.github.com/repos/bitcoin/bitcoin/pulls/28483/comments",
    "review_comment_url": "https://api.github.com/repos/bitcoin/bitcoin/pulls/comments%7B/number%7D",
    "comments_url": "https://api.github.com/repos/bitcoin/bitcoin/issues/28483/comments",
    "statuses_url": "https://api.github.com/repos/bitcoin/bitcoin/statuses/fa56c421be04af846f479c30749b17e6663ab418",
    "number": 28483,
    "state": "closed",
    "locked": false,
    "maintainer_can_modify": false,
    "title": "refactor: Return CAutoFile from BlockManager::Open*File()",
    "user": {
      "login": "MarcoFalke",
      "id": 6399679,
      "node_id": "MDQ6VXNlcjYzOTk2Nzk=",
      "avatar_url": "https://avatars.githubusercontent.com/u/6399679?v=4",
      "gravatar_id": "",
      "url": "https://api.github.com/users/MarcoFalke",
      "html_url": "https://github.com/MarcoFalke",
      "followers_url": "https://api.github.com/users/MarcoFalke/followers",
      "following_url": "https://api.github.com/users/MarcoFalke/following%7B/other_user%7D",
      "gists_url": "https://api.github.com/users/MarcoFalke/gists%7B/gist_id%7D",
      "starred_url": "https://api.github.com/users/MarcoFalke/starred%7B/owner%7D%7B/repo%7D",
      "subscriptions_url": "https://api.github.com/users/MarcoFalke/subscriptions",
      "organizations_url": "https://api.github.com/users/MarcoFalke/orgs",
      "repos_url": "https://api.github.com/users/MarcoFalke/repos",
      "events_url": "https://api.github.com/users/MarcoFalke/events%7B/privacy%7D",
      "received_events_url": "https://api.github.com/users/MarcoFalke/received_events",
      "type": "User",
      "site_admin": false
    },
    "body": "This is required for https://github.com/bitcoin/bitcoin/pull/28052, but makes sense on its own, because offloading logic to `CAutoFile` instead of re-implementing it allows to delete code and complexity.",
    "labels": [
      {
        "id": 135961,
        "node_id": "MDU6TGFiZWwxMzU5NjE=",
        "url": "https://api.github.com/repos/bitcoin/bitcoin/labels/Refactoring",
        "name": "Refactoring",
        "color": "E6F6D6",
        "default": false
      }
    ],
    "created_at": "2023-09-14T15:13:51Z",
    "updated_at": "2023-09-28T08:30:50Z",
    "closed_at": "2023-09-26T13:02:24Z",
    "mergeable_state": "unknown",
    "merged_at": "2023-09-26T13:02:24Z",
    "merge_commit_sha": "c9f288244b8d183e09a917025922b99e3368ef78",
    "assignees": [],
    "requested_reviewers": [
      {
        "login": "stickies-v",
        "id": 69010457,
        "node_id": "MDQ6VXNlcjY5MDEwNDU3",
        "avatar_url": "https://avatars.githubusercontent.com/u/69010457?v=4",
        "gravatar_id": "",
        "url": "https://api.github.com/users/stickies-v",
        "html_url": "https://github.com/stickies-v",
        "followers_url": "https://api.github.com/users/stickies-v/followers",
        "following_url": "https://api.github.com/users/stickies-v/following%7B/other_user%7D",
        "gists_url": "https://api.github.com/users/stickies-v/gists%7B/gist_id%7D",
        "starred_url": "https://api.github.com/users/stickies-v/starred%7B/owner%7D%7B/repo%7D",
        "subscriptions_url": "https://api.github.com/users/stickies-v/subscriptions",
        "organizations_url": "https://api.github.com/users/stickies-v/orgs",
        "repos_url": "https://api.github.com/users/stickies-v/repos",
        "events_url": "https://api.github.com/users/stickies-v/events%7B/privacy%7D",
        "received_events_url": "https://api.github.com/users/stickies-v/received_events",
        "type": "User",
        "site_admin": false
      }
    ],
    "requested_teams": [],
    "head": {
      "label": "MarcoFalke:2309-rework-block-file-",
      "ref": "2309-rework-block-file-",
      "sha": "fa56c421be04af846f479c30749b17e6663ab418",
      "user": {
        "login": "MarcoFalke",
        "id": 6399679,
        "node_id": "MDQ6VXNlcjYzOTk2Nzk=",
        "avatar_url": "https://avatars.githubusercontent.com/u/6399679?v=4",
        "gravatar_id": "",
        "url": "https://api.github.com/users/MarcoFalke",
        "html_url": "https://github.com/MarcoFalke",
        "followers_url": "https://api.github.com/users/MarcoFalke/followers",
        "following_url": "https://api.github.com/users/MarcoFalke/following%7B/other_user%7D",
        "gists_url": "https://api.github.com/users/MarcoFalke/gists%7B/gist_id%7D",
        "starred_url": "https://api.github.com/users/MarcoFalke/starred%7B/owner%7D%7B/repo%7D",
        "subscriptions_url": "https://api.github.com/users/MarcoFalke/subscriptions",
        "organizations_url": "https://api.github.com/users/MarcoFalke/orgs",
        "repos_url": "https://api.github.com/users/MarcoFalke/repos",
        "events_url": "https://api.github.com/users/MarcoFalke/events%7B/privacy%7D",
        "received_events_url": "https://api.github.com/users/MarcoFalke/received_events",
        "type": "User",
        "site_admin": false
      },
      "repo": {
        "id": 40046254,
        "node_id": "MDEwOlJlcG9zaXRvcnk0MDA0NjI1NA==",
        "name": "b-c",
        "full_name": "MarcoFalke/b-c",
        "owner": {
          "login": "MarcoFalke",
          "id": 6399679,
          "node_id": "MDQ6VXNlcjYzOTk2Nzk=",
          "avatar_url": "https://avatars.githubusercontent.com/u/6399679?v=4",
          "gravatar_id": "",
          "url": "https://api.github.com/users/MarcoFalke",
          "html_url": "https://github.com/MarcoFalke",
          "followers_url": "https://api.github.com/users/MarcoFalke/followers",
          "following_url": "https://api.github.com/users/MarcoFalke/following%7B/other_user%7D",
          "gists_url": "https://api.github.com/users/MarcoFalke/gists%7B/gist_id%7D",
          "starred_url": "https://api.github.com/users/MarcoFalke/starred%7B/owner%7D%7B/repo%7D",
          "subscriptions_url": "https://api.github.com/users/MarcoFalke/subscriptions",
          "organizations_url": "https://api.github.com/users/MarcoFalke/orgs",
          "repos_url": "https://api.github.com/users/MarcoFalke/repos",
          "events_url": "https://api.github.com/users/MarcoFalke/events%7B/privacy%7D",
          "received_events_url": "https://api.github.com/users/MarcoFalke/received_events",
          "type": "User",
          "site_admin": false
        },
        "private": false,
        "html_url": "https://github.com/MarcoFalke/b-c",
        "fork": true,
        "url": "https://api.github.com/repos/MarcoFalke/b-c",
        "archive_url": "https://api.github.com/repos/MarcoFalke/b-c/%7Barchive_format%7D%7B/ref%7D",
        "assignees_url": "https://api.github.com/repos/MarcoFalke/b-c/assignees%7B/user%7D",
        "blobs_url": "https://api.github.com/repos/MarcoFalke/b-c/git/blobs%7B/sha%7D",
        "branches_url": "https://api.github.com/repos/MarcoFalke/b-c/branches%7B/branch%7D",
        "collaborators_url": "https://api.github.com/repos/MarcoFalke/b-c/collaborators%7B/collaborator%7D",
        "comments_url": "https://api.github.com/repos/MarcoFalke/b-c/comments%7B/number%7D",
        "commits_url": "https://api.github.com/repos/MarcoFalke/b-c/commits%7B/sha%7D",
        "compare_url": "https://api.github.com/repos/MarcoFalke/b-c/compare/%7Bbase%7D...%7Bhead%7D",
        "contents_url": "https://api.github.com/repos/MarcoFalke/b-c/contents/%7B+path%7D",
        "contributors_url": "https://api.github.com/repos/MarcoFalke/b-c/contributors",
        "deployments_url": "https://api.github.com/repos/MarcoFalke/b-c/deployments",
        "downloads_url": "https://api.github.com/repos/MarcoFalke/b-c/downloads",
        "events_url": "https://api.github.com/repos/MarcoFalke/b-c/events",
        "forks_url": "https://api.github.com/repos/MarcoFalke/b-c/forks",
        "git_commits_url": "https://api.github.com/repos/MarcoFalke/b-c/git/commits%7B/sha%7D",
        "git_refs_url": "https://api.github.com/repos/MarcoFalke/b-c/git/refs%7B/sha%7D",
        "git_tags_url": "https://api.github.com/repos/MarcoFalke/b-c/git/tags%7B/sha%7D",
        "git_url": "git://github.com/MarcoFalke/b-c.git",
        "issue_comment_url": "https://api.github.com/repos/MarcoFalke/b-c/issues/comments%7B/number%7D",
        "issue_events_url": "https://api.github.com/repos/MarcoFalke/b-c/issues/events%7B/number%7D",
        "issues_url": "https://api.github.com/repos/MarcoFalke/b-c/issues%7B/number%7D",
        "keys_url": "https://api.github.com/repos/MarcoFalke/b-c/keys%7B/key_id%7D",
        "labels_url": "https://api.github.com/repos/MarcoFalke/b-c/labels%7B/name%7D",
        "languages_url": "https://api.github.com/repos/MarcoFalke/b-c/languages",
        "merges_url": "https://api.github.com/repos/MarcoFalke/b-c/merges",
        "milestones_url": "https://api.github.com/repos/MarcoFalke/b-c/milestones%7B/number%7D",
        "notifications_url": "https://api.github.com/repos/MarcoFalke/b-c/notifications%7B?since,all,participating}",
        "pulls_url": "https://api.github.com/repos/MarcoFalke/b-c/pulls%7B/number%7D",
        "releases_url": "https://api.github.com/repos/MarcoFalke/b-c/releases%7B/id%7D",
        "ssh_url": "git@github.com:MarcoFalke/b-c.git",
        "stargazers_url": "https://api.github.com/repos/MarcoFalke/b-c/stargazers",
        "statuses_url": "https://api.github.com/repos/MarcoFalke/b-c/statuses/%7Bsha%7D",
        "subscribers_url": "https://api.github.com/repos/MarcoFalke/b-c/subscribers",
        "subscription_url": "https://api.github.com/repos/MarcoFalke/b-c/subscription",
        "tags_url": "https://api.github.com/repos/MarcoFalke/b-c/tags",
        "teams_url": "https://api.github.com/repos/MarcoFalke/b-c/teams",
        "trees_url": "https://api.github.com/repos/MarcoFalke/b-c/git/trees%7B/sha%7D",
        "clone_url": "https://github.com/MarcoFalke/b-c.git",
        "hooks_url": "https://api.github.com/repos/MarcoFalke/b-c/hooks",
        "svn_url": "https://github.com/MarcoFalke/b-c",
        "homepage": "",
        "language": "C++",
        "forks_count": 12,
        "stargazers_count": 25,
        "watchers_count": 25,
        "size": 212379,
        "default_branch": "master",
        "open_issues_count": 19,
        "is_template": false,
        "topics": [],
        "has_issues": true,
        "has_projects": true,
        "has_wiki": false,
        "has_pages": false,
        "has_downloads": false,
        "archived": false,
        "disabled": false,
        "visibility": "public",
        "pushed_at": "2023-09-28T08:59:53Z",
        "created_at": "2015-08-01T12:42:47Z",
        "updated_at": "2023-08-27T18:39:53Z",
        "license": {
          "key": "mit",
          "name": "MIT License",
          "node_id": "MDc6TGljZW5zZTEz",
          "spdx_id": "MIT",
          "url": "https://api.github.com/licenses/mit",
          "html_url": null,
          "description": null,
          "implementation": null,
          "permissions": null,
          "conditions": null,
          "limitations": null,
          "body": null,
          "featured": null
        }
      }
    },
    "base": {
      "label": "bitcoin:master",
      "ref": "master",
      "sha": "717a4d89449f607c5203138b128e1e30b4493f2c",
      "user": {
        "login": "bitcoin",
        "id": 528860,
        "node_id": "MDEyOk9yZ2FuaXphdGlvbjUyODg2MA==",
        "avatar_url": "https://avatars.githubusercontent.com/u/528860?v=4",
        "gravatar_id": "",
        "url": "https://api.github.com/users/bitcoin",
        "html_url": "https://github.com/bitcoin",
        "followers_url": "https://api.github.com/users/bitcoin/followers",
        "following_url": "https://api.github.com/users/bitcoin/following%7B/other_user%7D",
        "gists_url": "https://api.github.com/users/bitcoin/gists%7B/gist_id%7D",
        "starred_url": "https://api.github.com/users/bitcoin/starred%7B/owner%7D%7B/repo%7D",
        "subscriptions_url": "https://api.github.com/users/bitcoin/subscriptions",
        "organizations_url": "https://api.github.com/users/bitcoin/orgs",
        "repos_url": "https://api.github.com/users/bitcoin/repos",
        "events_url": "https://api.github.com/users/bitcoin/events%7B/privacy%7D",
        "received_events_url": "https://api.github.com/users/bitcoin/received_events",
        "type": "Organization",
        "site_admin": false
      },
      "repo": {
        "id": 1181927,
        "node_id": "MDEwOlJlcG9zaXRvcnkxMTgxOTI3",
        "name": "bitcoin",
        "full_name": "bitcoin/bitcoin",
        "owner": {
          "login": "bitcoin",
          "id": 528860,
          "node_id": "MDEyOk9yZ2FuaXphdGlvbjUyODg2MA==",
          "avatar_url": "https://avatars.githubusercontent.com/u/528860?v=4",
          "gravatar_id": "",
          "url": "https://api.github.com/users/bitcoin",
          "html_url": "https://github.com/bitcoin",
          "followers_url": "https://api.github.com/users/bitcoin/followers",
          "following_url": "https://api.github.com/users/bitcoin/following%7B/other_user%7D",
          "gists_url": "https://api.github.com/users/bitcoin/gists%7B/gist_id%7D",
          "starred_url": "https://api.github.com/users/bitcoin/starred%7B/owner%7D%7B/repo%7D",
          "subscriptions_url": "https://api.github.com/users/bitcoin/subscriptions",
          "organizations_url": "https://api.github.com/users/bitcoin/orgs",
          "repos_url": "https://api.github.com/users/bitcoin/repos",
          "events_url": "https://api.github.com/users/bitcoin/events%7B/privacy%7D",
          "received_events_url": "https://api.github.com/users/bitcoin/received_events",
          "type": "Organization",
          "site_admin": false
        },
        "private": false,
        "html_url": "https://github.com/bitcoin/bitcoin",
        "description": "Bitcoin Core integration/staging tree",
        "fork": false,
        "url": "https://api.github.com/repos/bitcoin/bitcoin",
        "archive_url": "https://api.github.com/repos/bitcoin/bitcoin/%7Barchive_format%7D%7B/ref%7D",
        "assignees_url": "https://api.github.com/repos/bitcoin/bitcoin/assignees%7B/user%7D",
        "blobs_url": "https://api.github.com/repos/bitcoin/bitcoin/git/blobs%7B/sha%7D",
        "branches_url": "https://api.github.com/repos/bitcoin/bitcoin/branches%7B/branch%7D",
        "collaborators_url": "https://api.github.com/repos/bitcoin/bitcoin/collaborators%7B/collaborator%7D",
        "comments_url": "https://api.github.com/repos/bitcoin/bitcoin/comments%7B/number%7D",
        "commits_url": "https://api.github.com/repos/bitcoin/bitcoin/commits%7B/sha%7D",
        "compare_url": "https://api.github.com/repos/bitcoin/bitcoin/compare/%7Bbase%7D...%7Bhead%7D",
        "contents_url": "https://api.github.com/repos/bitcoin/bitcoin/contents/%7B+path%7D",
        "contributors_url": "https://api.github.com/repos/bitcoin/bitcoin/contributors",
        "deployments_url": "https://api.github.com/repos/bitcoin/bitcoin/deployments",
        "downloads_url": "https://api.github.com/repos/bitcoin/bitcoin/downloads",
        "events_url": "https://api.github.com/repos/bitcoin/bitcoin/events",
        "forks_url": "https://api.github.com/repos/bitcoin/bitcoin/forks",
        "git_commits_url": "https://api.github.com/repos/bitcoin/bitcoin/git/commits%7B/sha%7D",
        "git_refs_url": "https://api.github.com/repos/bitcoin/bitcoin/git/refs%7B/sha%7D",
        "git_tags_url": "https://api.github.com/repos/bitcoin/bitcoin/git/tags%7B/sha%7D",
        "git_url": "git://github.com/bitcoin/bitcoin.git",
        "issue_comment_url": "https://api.github.com/repos/bitcoin/bitcoin/issues/comments%7B/number%7D",
        "issue_events_url": "https://api.github.com/repos/bitcoin/bitcoin/issues/events%7B/number%7D",
        "issues_url": "https://api.github.com/repos/bitcoin/bitcoin/issues%7B/number%7D",
        "keys_url": "https://api.github.com/repos/bitcoin/bitcoin/keys%7B/key_id%7D",
        "labels_url": "https://api.github.com/repos/bitcoin/bitcoin/labels%7B/name%7D",
        "languages_url": "https://api.github.com/repos/bitcoin/bitcoin/languages",
        "merges_url": "https://api.github.com/repos/bitcoin/bitcoin/merges",
        "milestones_url": "https://api.github.com/repos/bitcoin/bitcoin/milestones%7B/number%7D",
        "notifications_url": "https://api.github.com/repos/bitcoin/bitcoin/notifications%7B?since,all,participating}",
        "pulls_url": "https://api.github.com/repos/bitcoin/bitcoin/pulls%7B/number%7D",
        "releases_url": "https://api.github.com/repos/bitcoin/bitcoin/releases%7B/id%7D",
        "ssh_url": "git@github.com:bitcoin/bitcoin.git",
        "stargazers_url": "https://api.github.com/repos/bitcoin/bitcoin/stargazers",
        "statuses_url": "https://api.github.com/repos/bitcoin/bitcoin/statuses/%7Bsha%7D",
        "subscribers_url": "https://api.github.com/repos/bitcoin/bitcoin/subscribers",
        "subscription_url": "https://api.github.com/repos/bitcoin/bitcoin/subscription",
        "tags_url": "https://api.github.com/repos/bitcoin/bitcoin/tags",
        "teams_url": "https://api.github.com/repos/bitcoin/bitcoin/teams",
        "trees_url": "https://api.github.com/repos/bitcoin/bitcoin/git/trees%7B/sha%7D",
        "clone_url": "https://github.com/bitcoin/bitcoin.git",
        "hooks_url": "https://api.github.com/repos/bitcoin/bitcoin/hooks",
        "svn_url": "https://github.com/bitcoin/bitcoin",
        "homepage": "https://bitcoincore.org/en/download",
        "language": "C++",
        "forks_count": 35769,
        "stargazers_count": 71501,
        "watchers_count": 71501,
        "size": 240214,
        "default_branch": "master",
        "open_issues_count": 640,
        "is_template": false,
        "topics": [
          "bitcoin",
          "c-plus-plus",
          "cryptocurrency",
          "cryptography",
          "p2p"
        ],
        "has_issues": true,
        "has_projects": true,
        "has_wiki": false,
        "has_pages": false,
        "has_downloads": false,
        "archived": false,
        "disabled": false,
        "visibility": "public",
        "pushed_at": "2023-09-28T07:03:43Z",
        "created_at": "2010-12-19T15:16:43Z",
        "updated_at": "2023-09-28T08:34:54Z",
        "license": {
          "key": "mit",
          "name": "MIT License",
          "node_id": "MDc6TGljZW5zZTEz",
          "spdx_id": "MIT",
          "url": "https://api.github.com/licenses/mit",
          "html_url": null,
          "description": null,
          "implementation": null,
          "permissions": null,
          "conditions": null,
          "limitations": null,
          "body": null,
          "featured": null
        }
      }
    },
    "_links": {
      "self": {
        "href": "https://api.github.com/repos/bitcoin/bitcoin/pulls/28483"
      }
    },
    "author_association": "MEMBER",
    "draft": false,
    "additions": 66,
    "deletions": 84,
    "changed_files": 12,
    "commits": 3,
    "review_comments": 6,
    "comments": 1
  },
  "events": [
    {
      "event": "commented",
      "id": 1719650799,
      "node_id": "IC_kwDOABII585mf8nv",
      "url": "https://api.github.com/repos/bitcoin/bitcoin/issues/comments/1719650799",
      "actor": {
        "login": "DrahtBot",
        "id": 39886733,
        "node_id": "MDQ6VXNlcjM5ODg2NzMz",
        "avatar_url": "https://avatars.githubusercontent.com/u/39886733?v=4",
        "gravatar_id": "",
        "url": "https://api.github.com/users/DrahtBot",
        "html_url": "https://github.com/DrahtBot",
        "followers_url": "https://api.github.com/users/DrahtBot/followers",
        "following_url": "https://api.github.com/users/DrahtBot/following%7B/other_user%7D",
        "gists_url": "https://api.github.com/users/DrahtBot/gists%7B/gist_id%7D",
        "starred_url": "https://api.github.com/users/DrahtBot/starred%7B/owner%7D%7B/repo%7D",
        "subscriptions_url": "https://api.github.com/users/DrahtBot/subscriptions",
        "organizations_url": "https://api.github.com/users/DrahtBot/orgs",
        "repos_url": "https://api.github.com/users/DrahtBot/repos",
        "events_url": "https://api.github.com/users/DrahtBot/events%7B/privacy%7D",
        "received_events_url": "https://api.github.com/users/DrahtBot/received_events",
        "type": "User",
        "site_admin": false
      },
      "commit_id": null,
      "commit_url": null,
      "created_at": "2023-09-14T15:13:54Z",
      "updated_at": "2023-09-26T12:43:53Z",
      "author_association": "CONTRIBUTOR",
      "body": "<!--e57a25ab6845829454e8d69fc972939a-->\n\nThe following sections might be updated with supplementary metadata relevant to reviewers and maintainers.\n\n<!--021abf342d371248e50ceaed478a90ca-->\n### Reviews\nSee [the guideline](https://github.com/bitcoin/bitcoin/blob/master/CONTRIBUTING.md#code-review) for information on the review process.\n| Type | Reviewers |\n| ---- | --------- |\n| ACK | [TheCharlatan](https://github.com/bitcoin/bitcoin/pull/28483#pullrequestreview-1629558135), [willcl-ark](https://github.com/bitcoin/bitcoin/pull/28483#pullrequestreview-1644173239) |\n\nIf your review is incorrectly listed, please react with 👎 to this comment and the bot will ignore it on the next update.\n<!--174a7506f384e20aa4161008e828411d-->\n### Conflicts\nReviewers, this pull request conflicts with the following ones:\n\n* [#28052](https://github.com/bitcoin/bitcoin/pull/28052) (blockstorage: XOR blocksdir *.dat files by MarcoFalke)\n* [#24230](https://github.com/bitcoin/bitcoin/pull/24230) (indexes: Stop using node internal types and locking cs_main, improve sync logic by ryanofsky)\n\nIf you consider this pull request important, please also help to review the conflicting pull requests. Ideally, start with the one that should be merged first.\n",
      "user": {
        "login": "DrahtBot",
        "id": 39886733,
        "node_id": "MDQ6VXNlcjM5ODg2NzMz",
        "avatar_url": "https://avatars.githubusercontent.com/u/39886733?v=4",
        "gravatar_id": "",
        "url": "https://api.github.com/users/DrahtBot",
        "html_url": "https://github.com/DrahtBot",
        "followers_url": "https://api.github.com/users/DrahtBot/followers",
        "following_url": "https://api.github.com/users/DrahtBot/following%7B/other_user%7D",
        "gists_url": "https://api.github.com/users/DrahtBot/gists%7B/gist_id%7D",
        "starred_url": "https://api.github.com/users/DrahtBot/starred%7B/owner%7D%7B/repo%7D",
        "subscriptions_url": "https://api.github.com/users/DrahtBot/subscriptions",
        "organizations_url": "https://api.github.com/users/DrahtBot/orgs",
        "repos_url": "https://api.github.com/users/DrahtBot/repos",
        "events_url": "https://api.github.com/users/DrahtBot/events%7B/privacy%7D",
        "received_events_url": "https://api.github.com/users/DrahtBot/received_events",
        "type": "User",
        "site_admin": false
      },
      "html_url": "https://github.com/bitcoin/bitcoin/pull/28483#issuecomment-1719650799",
      "issue_url": "https://api.github.com/repos/bitcoin/bitcoin/issues/28483"
    },
    {
      "event": "renamed",
      "id": 10373704964,
      "node_id": "RTE_lADOABII585xDrXqzwAAAAJqUi0E",
      "url": "https://api.github.com/repos/bitcoin/bitcoin/issues/events/10373704964",
      "actor": {
        "login": "DrahtBot",
        "id": 39886733,
        "node_id": "MDQ6VXNlcjM5ODg2NzMz",
        "avatar_url": "https://avatars.githubusercontent.com/u/39886733?v=4",
        "gravatar_id": "",
        "url": "https://api.github.com/users/DrahtBot",
        "html_url": "https://github.com/DrahtBot",
        "followers_url": "https://api.github.com/users/DrahtBot/followers",
        "following_url": "https://api.github.com/users/DrahtBot/following%7B/other_user%7D",
        "gists_url": "https://api.github.com/users/DrahtBot/gists%7B/gist_id%7D",
        "starred_url": "https://api.github.com/users/DrahtBot/starred%7B/owner%7D%7B/repo%7D",
        "subscriptions_url": "https://api.github.com/users/DrahtBot/subscriptions",
        "organizations_url": "https://api.github.com/users/DrahtBot/orgs",
        "repos_url": "https://api.github.com/users/DrahtBot/repos",
        "events_url": "https://api.github.com/users/DrahtBot/events%7B/privacy%7D",
        "received_events_url": "https://api.github.com/users/DrahtBot/received_events",
        "type": "User",
        "site_admin": false
      },
      "commit_id": null,
      "commit_url": null,
      "created_at": "2023-09-14T15:13:56Z",
      "rename": {
        "from": "refactor: Return CAutoFile from BlockManager::Open*File() ",
        "to": "refactor: Return CAutoFile from BlockManager::Open*File()"
      }
    },
    {
      "event": "labeled",
      "id": 10373705201,
      "node_id": "LE_lADOABII585xDrXqzwAAAAJqUi3x",
      "url": "https://api.github.com/repos/bitcoin/bitcoin/issues/events/10373705201",
      "actor": {
        "login": "DrahtBot",
        "id": 39886733,
        "node_id": "MDQ6VXNlcjM5ODg2NzMz",
        "avatar_url": "https://avatars.githubusercontent.com/u/39886733?v=4",
        "gravatar_id": "",
        "url": "https://api.github.com/users/DrahtBot",
        "html_url": "https://github.com/DrahtBot",
        "followers_url": "https://api.github.com/users/DrahtBot/followers",
        "following_url": "https://api.github.com/users/DrahtBot/following%7B/other_user%7D",
        "gists_url": "https://api.github.com/users/DrahtBot/gists%7B/gist_id%7D",
        "starred_url": "https://api.github.com/users/DrahtBot/starred%7B/owner%7D%7B/repo%7D",
        "subscriptions_url": "https://api.github.com/users/DrahtBot/subscriptions",
        "organizations_url": "https://api.github.com/users/DrahtBot/orgs",
        "repos_url": "https://api.github.com/users/DrahtBot/repos",
        "events_url": "https://api.github.com/users/DrahtBot/events%7B/privacy%7D",
        "received_events_url": "https://api.github.com/users/DrahtBot/received_events",
        "type": "User",
        "site_admin": false
      },
      "commit_id": null,
      "commit_url": null,
      "created_at": "2023-09-14T15:13:57Z",
      "label": {
        "name": "Refactoring",
        "color": "E6F6D6"
      }
    },
    {
      "event": "cross-referenced",
      "id": null,
      "node_id": null,
      "url": null,
      "actor": {
        "login": "MarcoFalke",
        "id": 6399679,
        "node_id": "MDQ6VXNlcjYzOTk2Nzk=",
        "avatar_url": "https://avatars.githubusercontent.com/u/6399679?v=4",
        "gravatar_id": "",
        "url": "https://api.github.com/users/MarcoFalke",
        "html_url": "https://github.com/MarcoFalke",
        "followers_url": "https://api.github.com/users/MarcoFalke/followers",
        "following_url": "https://api.github.com/users/MarcoFalke/following%7B/other_user%7D",
        "gists_url": "https://api.github.com/users/MarcoFalke/gists%7B/gist_id%7D",
        "starred_url": "https://api.github.com/users/MarcoFalke/starred%7B/owner%7D%7B/repo%7D",
        "subscriptions_url": "https://api.github.com/users/MarcoFalke/subscriptions",
        "organizations_url": "https://api.github.com/users/MarcoFalke/orgs",
        "repos_url": "https://api.github.com/users/MarcoFalke/repos",
        "events_url": "https://api.github.com/users/MarcoFalke/events%7B/privacy%7D",
        "received_events_url": "https://api.github.com/users/MarcoFalke/received_events",
        "type": "User",
        "site_admin": false
      },
      "commit_id": null,
      "commit_url": null,
      "created_at": "2023-09-14T15:14:54Z",
      "updated_at": "2023-09-14T15:14:54Z",
      "source": {
        "issue": {
          "id": 1794835202,
          "node_id": "PR_kwDOABII585U_Njk",
          "url": "https://api.github.com/repos/bitcoin/bitcoin/issues/28052",
          "repository_url": "https://api.github.com/repos/bitcoin/bitcoin",
          "labels_url": "https://api.github.com/repos/bitcoin/bitcoin/issues/28052/labels%7B/name%7D",
          "comments_url": "https://api.github.com/repos/bitcoin/bitcoin/issues/28052/comments",
          "events_url": "https://api.github.com/repos/bitcoin/bitcoin/issues/28052/events",
          "html_url": "https://github.com/bitcoin/bitcoin/pull/28052",
          "number": 28052,
          "state": "open",
          "state_reason": null,
          "title": "blockstorage: XOR blocksdir *.dat files",
          "body": "Currently the *.dat files in the blocksdir store the data received from remote peers as-is. This may be problematic when a program other than Bitcoin Core tries to interpret them by accident. For example, an anti-virus program or other program may scan them and move them into quarantine, or delete them, or corrupt them. This may cause Bitcoin Core to fail a reorg, or fail to reply to block requests (via P2P, RPC, REST, ...).\r\n\r\nFix this, similar to https://github.com/bitcoin/bitcoin/pull/6650, by rolling a random XOR pattern over the dat files when writing or reading them.\r\n\r\nObviously this can only protect against programs that accidentally and unintentionally are trying to mess with the dat files. Any program that intentionally wants to mess with the dat files can still trivially do so.\r\n\r\nThe XOR pattern is only applied when the blocksdir is freshly created, and there is an option to disable it (on creation), so that people can disable it, if needed.",
          "user": {
            "login": "MarcoFalke",
            "id": 6399679,
            "node_id": "MDQ6VXNlcjYzOTk2Nzk=",
            "avatar_url": "https://avatars.githubusercontent.com/u/6399679?v=4",
            "gravatar_id": "",
            "url": "https://api.github.com/users/MarcoFalke",
            "html_url": "https://github.com/MarcoFalke",
            "followers_url": "https://api.github.com/users/MarcoFalke/followers",
            "following_url": "https://api.github.com/users/MarcoFalke/following%7B/other_user%7D",
            "gists_url": "https://api.github.com/users/MarcoFalke/gists%7B/gist_id%7D",
            "starred_url": "https://api.github.com/users/MarcoFalke/starred%7B/owner%7D%7B/repo%7D",
            "subscriptions_url": "https://api.github.com/users/MarcoFalke/subscriptions",
            "organizations_url": "https://api.github.com/users/MarcoFalke/orgs",
            "repos_url": "https://api.github.com/users/MarcoFalke/repos",
            "events_url": "https://api.github.com/users/MarcoFalke/events%7B/privacy%7D",
            "received_events_url": "https://api.github.com/users/MarcoFalke/received_events",
            "type": "User",
            "site_admin": false
          },
          "labels": [
            {
              "id": 219890555,
              "node_id": "MDU6TGFiZWwyMTk4OTA1NTU=",
              "url": "https://api.github.com/repos/bitcoin/bitcoin/labels/Block%20storage",
              "name": "Block storage",
              "color": "000000",
              "default": false
            },
            {
              "id": 955867938,
              "node_id": "MDU6TGFiZWw5NTU4Njc5Mzg=",
              "url": "https://api.github.com/repos/bitcoin/bitcoin/labels/Needs%20rebase",
              "name": "Needs rebase",
              "description": "",
              "color": "cccccc",
              "default": false
            }
          ],
          "assignees": [],
          "author_association": "MEMBER",
          "locked": false,
          "comments": 14,
          "pull_request": {
            "url": "https://api.github.com/repos/bitcoin/bitcoin/pulls/28052",
            "html_url": "https://github.com/bitcoin/bitcoin/pull/28052",
            "diff_url": "https://github.com/bitcoin/bitcoin/pull/28052.diff",
            "patch_url": "https://github.com/bitcoin/bitcoin/pull/28052.patch"
          },
          "created_at": "2023-07-08T08:07:53Z",
          "updated_at": "2023-09-26T13:42:38Z"
        },
        "type": "issue"
      }
    },
    {
      "event": "cross-referenced",
      "id": null,
      "node_id": null,
      "url": null,
      "actor": {
        "login": "DrahtBot",
        "id": 39886733,
        "node_id": "MDQ6VXNlcjM5ODg2NzMz",
        "avatar_url": "https://avatars.githubusercontent.com/u/39886733?v=4",
        "gravatar_id": "",
        "url": "https://api.github.com/users/DrahtBot",
        "html_url": "https://github.com/DrahtBot",
        "followers_url": "https://api.github.com/users/DrahtBot/followers",
        "following_url": "https://api.github.com/users/DrahtBot/following%7B/other_user%7D",
        "gists_url": "https://api.github.com/users/DrahtBot/gists%7B/gist_id%7D",
        "starred_url": "https://api.github.com/users/DrahtBot/starred%7B/owner%7D%7B/repo%7D",
        "subscriptions_url": "https://api.github.com/users/DrahtBot/subscriptions",
        "organizations_url": "https://api.github.com/users/DrahtBot/orgs",
        "repos_url": "https://api.github.com/users/DrahtBot/repos",
        "events_url": "https://api.github.com/users/DrahtBot/events%7B/privacy%7D",
        "received_events_url": "https://api.github.com/users/DrahtBot/received_events",
        "type": "User",
        "site_admin": false
      },
      "commit_id": null,
      "commit_url": null,
      "created_at": "2023-09-14T22:07:04Z",
      "updated_at": "2023-09-14T22:07:04Z",
      "source": {
        "issue": {
          "id": 1120958552,
          "node_id": "PR_kwDOABII584x6sdb",
          "url": "https://api.github.com/repos/bitcoin/bitcoin/issues/24230",
          "repository_url": "https://api.github.com/repos/bitcoin/bitcoin",
          "labels_url": "https://api.github.com/repos/bitcoin/bitcoin/issues/24230/labels%7B/name%7D",
          "comments_url": "https://api.github.com/repos/bitcoin/bitcoin/issues/24230/comments",
          "events_url": "https://api.github.com/repos/bitcoin/bitcoin/issues/24230/events",
          "html_url": "https://github.com/bitcoin/bitcoin/pull/24230",
          "number": 24230,
          "state": "open",
          "state_reason": null,
          "title": "indexes: Stop using node internal types and locking cs_main, improve sync logic",
          "body": "This PR lets indexing code mostly run outside of the node process. It also improves indexing sync logic, which is moved out of indexing code to a new [`node::SyncChain()`](https://github.com/ryanofsky/bitcoin/blob/8d8cdcb37005030f646ba3c45f7f54f556efb8bf/src/node/chain.h#L24-L39) function.\r\n\r\nAlmost all the commits in this PR are small refactoring changes that move code from `src/index/` to `src/node/`, or replace references to node types like `CBlockIndex`, `CChain`, `CChainState` in index code. There are only two commits affecting indexing sync logic which make complicated or substantive changes:\r\n\r\n- [`8746b35301c5` indexes: Rewrite chain sync logic, remove racy init](https://github.com/bitcoin/bitcoin/pull/24230/commits/8746b35301c5f65ff3200555fb2b82417fd2c758)\r\n- [`ad88f50ddd12` indexes: Initialize indexes without holding cs_main](https://github.com/bitcoin/bitcoin/pull/24230/commits/ad88f50ddd129dddd974bbf9fd7d86ec86b65508)\r\n\r\n\r\nThe commit messages have more details about these and other changes. Followups to this PR will reuse indexing sync code for wallets (#15719, #11756) and let indexes run in separate processes (#10102)",
          "user": {
            "login": "ryanofsky",
            "id": 7133040,
            "node_id": "MDQ6VXNlcjcxMzMwNDA=",
            "avatar_url": "https://avatars.githubusercontent.com/u/7133040?v=4",
            "gravatar_id": "",
            "url": "https://api.github.com/users/ryanofsky",
            "html_url": "https://github.com/ryanofsky",
            "followers_url": "https://api.github.com/users/ryanofsky/followers",
            "following_url": "https://api.github.com/users/ryanofsky/following%7B/other_user%7D",
            "gists_url": "https://api.github.com/users/ryanofsky/gists%7B/gist_id%7D",
            "starred_url": "https://api.github.com/users/ryanofsky/starred%7B/owner%7D%7B/repo%7D",
            "subscriptions_url": "https://api.github.com/users/ryanofsky/subscriptions",
            "organizations_url": "https://api.github.com/users/ryanofsky/orgs",
            "repos_url": "https://api.github.com/users/ryanofsky/repos",
            "events_url": "https://api.github.com/users/ryanofsky/events%7B/privacy%7D",
            "received_events_url": "https://api.github.com/users/ryanofsky/received_events",
            "type": "User",
            "site_admin": false
          },
          "labels": [
            {
              "id": 97470796,
              "node_id": "MDU6TGFiZWw5NzQ3MDc5Ng==",
              "url": "https://api.github.com/repos/bitcoin/bitcoin/labels/UTXO%20Db%20and%20Indexes",
              "name": "UTXO Db and Indexes",
              "color": "fbca04",
              "default": false
            },
            {
              "id": 955867938,
              "node_id": "MDU6TGFiZWw5NTU4Njc5Mzg=",
              "url": "https://api.github.com/repos/bitcoin/bitcoin/labels/Needs%20rebase",
              "name": "Needs rebase",
              "description": "",
              "color": "cccccc",
              "default": false
            }
          ],
          "assignees": [],
          "author_association": "CONTRIBUTOR",
          "locked": false,
          "comments": 39,
          "pull_request": {
            "url": "https://api.github.com/repos/bitcoin/bitcoin/pulls/24230",
            "html_url": "https://github.com/bitcoin/bitcoin/pull/24230",
            "diff_url": "https://github.com/bitcoin/bitcoin/pull/24230.diff",
            "patch_url": "https://github.com/bitcoin/bitcoin/pull/24230.patch"
          },
          "created_at": "2022-02-01T16:56:28Z",
          "updated_at": "2023-09-26T13:52:37Z"
        },
        "type": "issue"
      }
    },
    {
      "event": "reviewed",
      "id": 1628749532,
      "node_id": "PRR_kwDOABII585hFL7c",
      "url": null,
      "actor": null,
      "commit_id": "fa33b6fba270e5867f208b242f50145e1ed3550e",
      "commit_url": null,
      "created_at": null,
      "author_association": "CONTRIBUTOR",
      "body": "ACK fa33b6fba270e5867f208b242f50145e1ed3550e",
      "user": {
        "login": "TheCharlatan",
        "id": 8421793,
        "node_id": "MDQ6VXNlcjg0MjE3OTM=",
        "avatar_url": "https://avatars.githubusercontent.com/u/8421793?v=4",
        "gravatar_id": "",
        "url": "https://api.github.com/users/TheCharlatan",
        "html_url": "https://github.com/TheCharlatan",
        "followers_url": "https://api.github.com/users/TheCharlatan/followers",
        "following_url": "https://api.github.com/users/TheCharlatan/following%7B/other_user%7D",
        "gists_url": "https://api.github.com/users/TheCharlatan/gists%7B/gist_id%7D",
        "starred_url": "https://api.github.com/users/TheCharlatan/starred%7B/owner%7D%7B/repo%7D",
        "subscriptions_url": "https://api.github.com/users/TheCharlatan/subscriptions",
        "organizations_url": "https://api.github.com/users/TheCharlatan/orgs",
        "repos_url": "https://api.github.com/users/TheCharlatan/repos",
        "events_url": "https://api.github.com/users/TheCharlatan/events%7B/privacy%7D",
        "received_events_url": "https://api.github.com/users/TheCharlatan/received_events",
        "type": "User",
        "site_admin": false
      },
      "html_url": "https://github.com/bitcoin/bitcoin/pull/28483#pullrequestreview-1628749532",
      "submitted_at": "2023-09-15T12:11:22Z",
      "state": "APPROVED",
      "pull_request_url": "https://api.github.com/repos/bitcoin/bitcoin/pulls/28483"
    },
    {
      "event": "committed",
      "id": null,
      "node_id": "C_kwDOABII59oAKGZhMzg5ZDkwMmZiZjVmYWMxOWZiYThjNWQwYzVlMGEyNWYxNWNhNjM",
      "url": "https://api.github.com/repos/bitcoin/bitcoin/git/commits/fa389d902fbf5fac19fba8c5d0c5e0a25f15ca63",
      "actor": null,
      "commit_id": null,
      "commit_url": null,
      "created_at": null,
      "html_url": "https://github.com/bitcoin/bitcoin/commit/fa389d902fbf5fac19fba8c5d0c5e0a25f15ca63",
      "tree": {
        "sha": "d34f7fbba3507483e03c6d120ab23c930c2ddbdb",
        "url": "https://api.github.com/repos/bitcoin/bitcoin/git/trees/d34f7fbba3507483e03c6d120ab23c930c2ddbdb"
      },
      "verification": {
        "verified": false,
        "reason": "no_user",
        "payload": "tree d34f7fbba3507483e03c6d120ab23c930c2ddbdb\nparent f608a409f7591b4f5cf170898bee58b9d9dcf1b6\nauthor MarcoFalke <*~=`'#}+{/-|&$^_@721217.xyz> 1688489989 +0200\ncommitter MarcoFalke <*~=`'#}+{/-|&$^_@721217.xyz> 1694781231 +0200\n\nrefactor: Drop unused fclose() from BufferedFile\n\nThis was only explicitly used in the tests, where it can be replaced by\nwrapping the original raw file pointer into a CAutoFile on creation and\nthen calling CAutoFile::fclose().\n\nAlso, it was used in LoadExternalBlockFile(), where it can also be\nreplaced by the (implicit call to the) CAutoFile destructor after\nwrapping the original raw file pointer in a CAutoFile.\n",
        "signature": "-----BEGIN SSH SIGNATURE-----\nU1NIU0lHAAAAAQAAADMAAAALc3NoLWVkMjU1MTkAAAAgqxY/aMPiuXoCFn6iAEyAhvUqFX\njanTudd31Jtt35ct0AAAADZ2l0AAAAAAAAAAZzaGE1MTIAAABTAAAAC3NzaC1lZDI1NTE5\nAAAAQDe3qyXU/va6OXxZZfNW9oCIrdJGGBe0blBGnrloBxtGgCs2etDL/oUMOFlH0OxLKc\nr+Fjyr46i64yhgzxJbPgs=\n-----END SSH SIGNATURE-----"
      },
      "parents": [
        {
          "url": "https://api.github.com/repos/bitcoin/bitcoin/git/commits/f608a409f7591b4f5cf170898bee58b9d9dcf1b6",
          "sha": "f608a409f7591b4f5cf170898bee58b9d9dcf1b6",
          "html_url": "https://github.com/bitcoin/bitcoin/commit/f608a409f7591b4f5cf170898bee58b9d9dcf1b6"
        }
      ],
      "message": "refactor: Drop unused fclose() from BufferedFile\n\nThis was only explicitly used in the tests, where it can be replaced by\nwrapping the original raw file pointer into a CAutoFile on creation and\nthen calling CAutoFile::fclose().\n\nAlso, it was used in LoadExternalBlockFile(), where it can also be\nreplaced by the (implicit call to the) CAutoFile destructor after\nwrapping the original raw file pointer in a CAutoFile.",
      "committer": {
        "name": "MarcoFalke",
        "email": "*~=`'#}+{/-|&$^_@721217.xyz",
        "date": "2023-09-15T12:33:51Z"
      },
      "author": {
        "name": "MarcoFalke",
        "email": "*~=`'#}+{/-|&$^_@721217.xyz",
        "date": "2023-07-04T16:59:49Z"
      },
      "sha": "fa389d902fbf5fac19fba8c5d0c5e0a25f15ca63"
    },
    {
      "event": "committed",
      "id": null,
      "node_id": "C_kwDOABII59oAKDk5OTliODljZDM3ZmIyYTIzYzVlYmNkOTFkOWNiMzFkNjkzNzU5MzM",
      "url": "https://api.github.com/repos/bitcoin/bitcoin/git/commits/9999b89cd37fb2a23c5ebcd91d9cb31d69375933",
      "actor": null,
      "commit_id": null,
      "commit_url": null,
      "created_at": null,
      "html_url": "https://github.com/bitcoin/bitcoin/commit/9999b89cd37fb2a23c5ebcd91d9cb31d69375933",
      "tree": {
        "sha": "3ded8f9c6e98d3ba651d6261851c20d5d7312c5c",
        "url": "https://api.github.com/repos/bitcoin/bitcoin/git/trees/3ded8f9c6e98d3ba651d6261851c20d5d7312c5c"
      },
      "verification": {
        "verified": false,
        "reason": "no_user",
        "payload": "tree 3ded8f9c6e98d3ba651d6261851c20d5d7312c5c\nparent fa389d902fbf5fac19fba8c5d0c5e0a25f15ca63\nauthor MarcoFalke <*~=`'#}+{/-|&$^_@721217.xyz> 1688483353 +0200\ncommitter MarcoFalke <*~=`'#}+{/-|&$^_@721217.xyz> 1694781257 +0200\n\nMake BufferedFile to be a CAutoFile wrapper\n\nThis refactor allows to forward some calls to the underlying CAutoFile,\ninstead of re-implementing the logic in the buffered file.\n",
        "signature": "-----BEGIN SSH SIGNATURE-----\nU1NIU0lHAAAAAQAAADMAAAALc3NoLWVkMjU1MTkAAAAgqxY/aMPiuXoCFn6iAEyAhvUqFX\njanTudd31Jtt35ct0AAAADZ2l0AAAAAAAAAAZzaGE1MTIAAABTAAAAC3NzaC1lZDI1NTE5\nAAAAQO2NOxbkC5cg3/3+O7SVD1UwVIH1gIoKP8CvlST5mm6w+W2N7zvbgQPGxv/aIK0HT+\nQkPPHOZUvcM3OPADeMsQk=\n-----END SSH SIGNATURE-----"
      },
      "parents": [
        {
          "url": "https://api.github.com/repos/bitcoin/bitcoin/git/commits/fa389d902fbf5fac19fba8c5d0c5e0a25f15ca63",
          "sha": "fa389d902fbf5fac19fba8c5d0c5e0a25f15ca63",
          "html_url": "https://github.com/bitcoin/bitcoin/commit/fa389d902fbf5fac19fba8c5d0c5e0a25f15ca63"
        }
      ],
      "message": "Make BufferedFile to be a CAutoFile wrapper\n\nThis refactor allows to forward some calls to the underlying CAutoFile,\ninstead of re-implementing the logic in the buffered file.",
      "committer": {
        "name": "MarcoFalke",
        "email": "*~=`'#}+{/-|&$^_@721217.xyz",
        "date": "2023-09-15T12:34:17Z"
      },
      "author": {
        "name": "MarcoFalke",
        "email": "*~=`'#}+{/-|&$^_@721217.xyz",
        "date": "2023-07-04T15:09:13Z"
      },
      "sha": "9999b89cd37fb2a23c5ebcd91d9cb31d69375933"
    },
    {
      "event": "committed",
      "id": null,
      "node_id": "C_kwDOABII59oAKGZhNTZjNDIxYmUwNGFmODQ2ZjQ3OWMzMDc0OWIxN2U2NjYzYWI0MTg",
      "url": "https://api.github.com/repos/bitcoin/bitcoin/git/commits/fa56c421be04af846f479c30749b17e6663ab418",
      "actor": null,
      "commit_id": null,
      "commit_url": null,
      "created_at": null,
      "html_url": "https://github.com/bitcoin/bitcoin/commit/fa56c421be04af846f479c30749b17e6663ab418",
      "tree": {
        "sha": "26b3f14db47fb94a320da39e86eed7c5988ff654",
        "url": "https://api.github.com/repos/bitcoin/bitcoin/git/trees/26b3f14db47fb94a320da39e86eed7c5988ff654"
      },
      "verification": {
        "verified": false,
        "reason": "no_user",
        "payload": "tree 26b3f14db47fb94a320da39e86eed7c5988ff654\nparent 9999b89cd37fb2a23c5ebcd91d9cb31d69375933\nauthor MarcoFalke <*~=`'#}+{/-|&$^_@721217.xyz> 1688135113 +0200\ncommitter MarcoFalke <*~=`'#}+{/-|&$^_@721217.xyz> 1694781264 +0200\n\nReturn CAutoFile from BlockManager::Open*File()\n\nThis is a refactor.\n",
        "signature": "-----BEGIN SSH SIGNATURE-----\nU1NIU0lHAAAAAQAAADMAAAALc3NoLWVkMjU1MTkAAAAgqxY/aMPiuXoCFn6iAEyAhvUqFX\njanTudd31Jtt35ct0AAAADZ2l0AAAAAAAAAAZzaGE1MTIAAABTAAAAC3NzaC1lZDI1NTE5\nAAAAQHQGvsrbXobb6wefGCRO/GaKt9OH0i5CE5RcaGWT5xbDX5xyIl/yImNz0NAIdMGWlp\nfDtfKbWPuHxODZA1Y+PA0=\n-----END SSH SIGNATURE-----"
      },
      "parents": [
        {
          "url": "https://api.github.com/repos/bitcoin/bitcoin/git/commits/9999b89cd37fb2a23c5ebcd91d9cb31d69375933",
          "sha": "9999b89cd37fb2a23c5ebcd91d9cb31d69375933",
          "html_url": "https://github.com/bitcoin/bitcoin/commit/9999b89cd37fb2a23c5ebcd91d9cb31d69375933"
        }
      ],
      "message": "Return CAutoFile from BlockManager::Open*File()\n\nThis is a refactor.",
      "committer": {
        "name": "MarcoFalke",
        "email": "*~=`'#}+{/-|&$^_@721217.xyz",
        "date": "2023-09-15T12:34:24Z"
      },
      "author": {
        "name": "MarcoFalke",
        "email": "*~=`'#}+{/-|&$^_@721217.xyz",
        "date": "2023-06-30T14:25:13Z"
      },
      "sha": "fa56c421be04af846f479c30749b17e6663ab418"
    },
    {
      "event": "head_ref_force_pushed",
      "id": 10382994537,
      "node_id": "HRFPE_lADOABII585xDrXqzwAAAAJq3-xp",
      "url": "https://api.github.com/repos/bitcoin/bitcoin/issues/events/10382994537",
      "actor": {
        "login": "MarcoFalke",
        "id": 6399679,
        "node_id": "MDQ6VXNlcjYzOTk2Nzk=",
        "avatar_url": "https://avatars.githubusercontent.com/u/6399679?v=4",
        "gravatar_id": "",
        "url": "https://api.github.com/users/MarcoFalke",
        "html_url": "https://github.com/MarcoFalke",
        "followers_url": "https://api.github.com/users/MarcoFalke/followers",
        "following_url": "https://api.github.com/users/MarcoFalke/following%7B/other_user%7D",
        "gists_url": "https://api.github.com/users/MarcoFalke/gists%7B/gist_id%7D",
        "starred_url": "https://api.github.com/users/MarcoFalke/starred%7B/owner%7D%7B/repo%7D",
        "subscriptions_url": "https://api.github.com/users/MarcoFalke/subscriptions",
        "organizations_url": "https://api.github.com/users/MarcoFalke/orgs",
        "repos_url": "https://api.github.com/users/MarcoFalke/repos",
        "events_url": "https://api.github.com/users/MarcoFalke/events%7B/privacy%7D",
        "received_events_url": "https://api.github.com/users/MarcoFalke/received_events",
        "type": "User",
        "site_admin": false
      },
      "commit_id": null,
      "commit_url": null,
      "created_at": "2023-09-15T12:37:56Z"
    },
    {
      "event": "labeled",
      "id": 10384019429,
      "node_id": "LE_lADOABII585xDrXqzwAAAAJq74_l",
      "url": "https://api.github.com/repos/bitcoin/bitcoin/issues/events/10384019429",
      "actor": {
        "login": "DrahtBot",
        "id": 39886733,
        "node_id": "MDQ6VXNlcjM5ODg2NzMz",
        "avatar_url": "https://avatars.githubusercontent.com/u/39886733?v=4",
        "gravatar_id": "",
        "url": "https://api.github.com/users/DrahtBot",
        "html_url": "https://github.com/DrahtBot",
        "followers_url": "https://api.github.com/users/DrahtBot/followers",
        "following_url": "https://api.github.com/users/DrahtBot/following%7B/other_user%7D",
        "gists_url": "https://api.github.com/users/DrahtBot/gists%7B/gist_id%7D",
        "starred_url": "https://api.github.com/users/DrahtBot/starred%7B/owner%7D%7B/repo%7D",
        "subscriptions_url": "https://api.github.com/users/DrahtBot/subscriptions",
        "organizations_url": "https://api.github.com/users/DrahtBot/orgs",
        "repos_url": "https://api.github.com/users/DrahtBot/repos",
        "events_url": "https://api.github.com/users/DrahtBot/events%7B/privacy%7D",
        "received_events_url": "https://api.github.com/users/DrahtBot/received_events",
        "type": "User",
        "site_admin": false
      },
      "commit_id": null,
      "commit_url": null,
      "created_at": "2023-09-15T14:14:52Z",
      "label": {
        "name": "CI failed",
        "color": "cccccc"
      }
    },
    {
      "event": "unlabeled",
      "id": 10385307052,
      "node_id": "UNLE_lADOABII585xDrXqzwAAAAJrAzWs",
      "url": "https://api.github.com/repos/bitcoin/bitcoin/issues/events/10385307052",
      "actor": {
        "login": "DrahtBot",
        "id": 39886733,
        "node_id": "MDQ6VXNlcjM5ODg2NzMz",
        "avatar_url": "https://avatars.githubusercontent.com/u/39886733?v=4",
        "gravatar_id": "",
        "url": "https://api.github.com/users/DrahtBot",
        "html_url": "https://github.com/DrahtBot",
        "followers_url": "https://api.github.com/users/DrahtBot/followers",
        "following_url": "https://api.github.com/users/DrahtBot/following%7B/other_user%7D",
        "gists_url": "https://api.github.com/users/DrahtBot/gists%7B/gist_id%7D",
        "starred_url": "https://api.github.com/users/DrahtBot/starred%7B/owner%7D%7B/repo%7D",
        "subscriptions_url": "https://api.github.com/users/DrahtBot/subscriptions",
        "organizations_url": "https://api.github.com/users/DrahtBot/orgs",
        "repos_url": "https://api.github.com/users/DrahtBot/repos",
        "events_url": "https://api.github.com/users/DrahtBot/events%7B/privacy%7D",
        "received_events_url": "https://api.github.com/users/DrahtBot/received_events",
        "type": "User",
        "site_admin": false
      },
      "commit_id": null,
      "commit_url": null,
      "created_at": "2023-09-15T16:13:49Z",
      "label": {
        "name": "CI failed",
        "color": "cccccc"
      }
    },
    {
      "event": "reviewed",
      "id": 1629558135,
      "node_id": "PRR_kwDOABII585hIRV3",
      "url": null,
      "actor": null,
      "commit_id": "fa56c421be04af846f479c30749b17e6663ab418",
      "commit_url": null,
      "created_at": null,
      "author_association": "CONTRIBUTOR",
      "body": "Re-ACK fa56c421be04af846f479c30749b17e6663ab418\r\n\r\nJust addressing nits.",
      "user": {
        "login": "TheCharlatan",
        "id": 8421793,
        "node_id": "MDQ6VXNlcjg0MjE3OTM=",
        "avatar_url": "https://avatars.githubusercontent.com/u/8421793?v=4",
        "gravatar_id": "",
        "url": "https://api.github.com/users/TheCharlatan",
        "html_url": "https://github.com/TheCharlatan",
        "followers_url": "https://api.github.com/users/TheCharlatan/followers",
        "following_url": "https://api.github.com/users/TheCharlatan/following%7B/other_user%7D",
        "gists_url": "https://api.github.com/users/TheCharlatan/gists%7B/gist_id%7D",
        "starred_url": "https://api.github.com/users/TheCharlatan/starred%7B/owner%7D%7B/repo%7D",
        "subscriptions_url": "https://api.github.com/users/TheCharlatan/subscriptions",
        "organizations_url": "https://api.github.com/users/TheCharlatan/orgs",
        "repos_url": "https://api.github.com/users/TheCharlatan/repos",
        "events_url": "https://api.github.com/users/TheCharlatan/events%7B/privacy%7D",
        "received_events_url": "https://api.github.com/users/TheCharlatan/received_events",
        "type": "User",
        "site_admin": false
      },
      "html_url": "https://github.com/bitcoin/bitcoin/pull/28483#pullrequestreview-1629558135",
      "submitted_at": "2023-09-15T19:05:23Z",
      "state": "APPROVED",
      "pull_request_url": "https://api.github.com/repos/bitcoin/bitcoin/pulls/28483"
    },
    {
      "event": "review_requested",
      "id": 10389503921,
      "node_id": "RRE_lADOABII585xDrXqzwAAAAJrQz-x",
      "url": "https://api.github.com/repos/bitcoin/bitcoin/issues/events/10389503921",
      "actor": {
        "login": "fanquake",
        "id": 863730,
        "node_id": "MDQ6VXNlcjg2MzczMA==",
        "avatar_url": "https://avatars.githubusercontent.com/u/863730?v=4",
        "gravatar_id": "",
        "url": "https://api.github.com/users/fanquake",
        "html_url": "https://github.com/fanquake",
        "followers_url": "https://api.github.com/users/fanquake/followers",
        "following_url": "https://api.github.com/users/fanquake/following%7B/other_user%7D",
        "gists_url": "https://api.github.com/users/fanquake/gists%7B/gist_id%7D",
        "starred_url": "https://api.github.com/users/fanquake/starred%7B/owner%7D%7B/repo%7D",
        "subscriptions_url": "https://api.github.com/users/fanquake/subscriptions",
        "organizations_url": "https://api.github.com/users/fanquake/orgs",
        "repos_url": "https://api.github.com/users/fanquake/repos",
        "events_url": "https://api.github.com/users/fanquake/events%7B/privacy%7D",
        "received_events_url": "https://api.github.com/users/fanquake/received_events",
        "type": "User",
        "site_admin": false
      },
      "commit_id": null,
      "commit_url": null,
      "created_at": "2023-09-16T11:05:43Z",
      "requested_reviewer": {
        "login": "stickies-v",
        "id": 69010457,
        "node_id": "MDQ6VXNlcjY5MDEwNDU3",
        "avatar_url": "https://avatars.githubusercontent.com/u/69010457?v=4",
        "gravatar_id": "",
        "url": "https://api.github.com/users/stickies-v",
        "html_url": "https://github.com/stickies-v",
        "followers_url": "https://api.github.com/users/stickies-v/followers",
        "following_url": "https://api.github.com/users/stickies-v/following%7B/other_user%7D",
        "gists_url": "https://api.github.com/users/stickies-v/gists%7B/gist_id%7D",
        "starred_url": "https://api.github.com/users/stickies-v/starred%7B/owner%7D%7B/repo%7D",
        "subscriptions_url": "https://api.github.com/users/stickies-v/subscriptions",
        "organizations_url": "https://api.github.com/users/stickies-v/orgs",
        "repos_url": "https://api.github.com/users/stickies-v/repos",
        "events_url": "https://api.github.com/users/stickies-v/events%7B/privacy%7D",
        "received_events_url": "https://api.github.com/users/stickies-v/received_events",
        "type": "User",
        "site_admin": false
      },
      "review_requester": {
        "login": "fanquake",
        "id": 863730,
        "node_id": "MDQ6VXNlcjg2MzczMA==",
        "avatar_url": "https://avatars.githubusercontent.com/u/863730?v=4",
        "gravatar_id": "",
        "url": "https://api.github.com/users/fanquake",
        "html_url": "https://github.com/fanquake",
        "followers_url": "https://api.github.com/users/fanquake/followers",
        "following_url": "https://api.github.com/users/fanquake/following%7B/other_user%7D",
        "gists_url": "https://api.github.com/users/fanquake/gists%7B/gist_id%7D",
        "starred_url": "https://api.github.com/users/fanquake/starred%7B/owner%7D%7B/repo%7D",
        "subscriptions_url": "https://api.github.com/users/fanquake/subscriptions",
        "organizations_url": "https://api.github.com/users/fanquake/orgs",
        "repos_url": "https://api.github.com/users/fanquake/repos",
        "events_url": "https://api.github.com/users/fanquake/events%7B/privacy%7D",
        "received_events_url": "https://api.github.com/users/fanquake/received_events",
        "type": "User",
        "site_admin": false
      }
    },
    {
      "event": "reviewed",
      "id": 1644173239,
      "node_id": "PRR_kwDOABII585iABe3",
      "url": null,
      "actor": null,
      "commit_id": "fa56c421be04af846f479c30749b17e6663ab418",
      "commit_url": null,
      "created_at": null,
      "author_association": "CONTRIBUTOR",
      "body": "tACK fa56c421be\r\n\r\nClean refactor needed for future work.",
      "user": {
        "login": "willcl-ark",
        "id": 6606587,
        "node_id": "MDQ6VXNlcjY2MDY1ODc=",
        "avatar_url": "https://avatars.githubusercontent.com/u/6606587?v=4",
        "gravatar_id": "",
        "url": "https://api.github.com/users/willcl-ark",
        "html_url": "https://github.com/willcl-ark",
        "followers_url": "https://api.github.com/users/willcl-ark/followers",
        "following_url": "https://api.github.com/users/willcl-ark/following%7B/other_user%7D",
        "gists_url": "https://api.github.com/users/willcl-ark/gists%7B/gist_id%7D",
        "starred_url": "https://api.github.com/users/willcl-ark/starred%7B/owner%7D%7B/repo%7D",
        "subscriptions_url": "https://api.github.com/users/willcl-ark/subscriptions",
        "organizations_url": "https://api.github.com/users/willcl-ark/orgs",
        "repos_url": "https://api.github.com/users/willcl-ark/repos",
        "events_url": "https://api.github.com/users/willcl-ark/events%7B/privacy%7D",
        "received_events_url": "https://api.github.com/users/willcl-ark/received_events",
        "type": "User",
        "site_admin": false
      },
      "html_url": "https://github.com/bitcoin/bitcoin/pull/28483#pullrequestreview-1644173239",
      "submitted_at": "2023-09-26T12:43:50Z",
      "state": "APPROVED",
      "pull_request_url": "https://api.github.com/repos/bitcoin/bitcoin/pulls/28483"
    },
    {
      "event": "merged",
      "id": 10474934606,
      "node_id": "ME_lADOABII585xDrXqzwAAAAJwWtFO",
      "url": "https://api.github.com/repos/bitcoin/bitcoin/issues/events/10474934606",
      "actor": {
        "login": "fanquake",
        "id": 863730,
        "node_id": "MDQ6VXNlcjg2MzczMA==",
        "avatar_url": "https://avatars.githubusercontent.com/u/863730?v=4",
        "gravatar_id": "",
        "url": "https://api.github.com/users/fanquake",
        "html_url": "https://github.com/fanquake",
        "followers_url": "https://api.github.com/users/fanquake/followers",
        "following_url": "https://api.github.com/users/fanquake/following%7B/other_user%7D",
        "gists_url": "https://api.github.com/users/fanquake/gists%7B/gist_id%7D",
        "starred_url": "https://api.github.com/users/fanquake/starred%7B/owner%7D%7B/repo%7D",
        "subscriptions_url": "https://api.github.com/users/fanquake/subscriptions",
        "organizations_url": "https://api.github.com/users/fanquake/orgs",
        "repos_url": "https://api.github.com/users/fanquake/repos",
        "events_url": "https://api.github.com/users/fanquake/events%7B/privacy%7D",
        "received_events_url": "https://api.github.com/users/fanquake/received_events",
        "type": "User",
        "site_admin": false
      },
      "commit_id": "c9f288244b8d183e09a917025922b99e3368ef78",
      "commit_url": "https://api.github.com/repos/bitcoin/bitcoin/commits/c9f288244b8d183e09a917025922b99e3368ef78",
      "created_at": "2023-09-26T13:02:24Z"
    },
    {
      "event": "closed",
      "id": 10474934678,
      "node_id": "CE_lADOABII585xDrXqzwAAAAJwWtGW",
      "url": "https://api.github.com/repos/bitcoin/bitcoin/issues/events/10474934678",
      "actor": {
        "login": "fanquake",
        "id": 863730,
        "node_id": "MDQ6VXNlcjg2MzczMA==",
        "avatar_url": "https://avatars.githubusercontent.com/u/863730?v=4",
        "gravatar_id": "",
        "url": "https://api.github.com/users/fanquake",
        "html_url": "https://github.com/fanquake",
        "followers_url": "https://api.github.com/users/fanquake/followers",
        "following_url": "https://api.github.com/users/fanquake/following%7B/other_user%7D",
        "gists_url": "https://api.github.com/users/fanquake/gists%7B/gist_id%7D",
        "starred_url": "https://api.github.com/users/fanquake/starred%7B/owner%7D%7B/repo%7D",
        "subscriptions_url": "https://api.github.com/users/fanquake/subscriptions",
        "organizations_url": "https://api.github.com/users/fanquake/orgs",
        "repos_url": "https://api.github.com/users/fanquake/repos",
        "events_url": "https://api.github.com/users/fanquake/events%7B/privacy%7D",
        "received_events_url": "https://api.github.com/users/fanquake/received_events",
        "type": "User",
        "site_admin": false
      },
      "commit_id": null,
      "commit_url": null,
      "created_at": "2023-09-26T13:02:24Z"
    },
    {
      "event": "referenced",
      "id": 10490008055,
      "node_id": "REFE_lADOABII585xDrXqzwAAAAJxQNH3",
      "url": "https://api.github.com/repos/bitcoin/bitcoin/issues/events/10490008055",
      "actor": {
        "login": "Frank-GER",
        "id": 87550788,
        "node_id": "MDQ6VXNlcjg3NTUwNzg4",
        "avatar_url": "https://avatars.githubusercontent.com/u/87550788?v=4",
        "gravatar_id": "",
        "url": "https://api.github.com/users/Frank-GER",
        "html_url": "https://github.com/Frank-GER",
        "followers_url": "https://api.github.com/users/Frank-GER/followers",
        "following_url": "https://api.github.com/users/Frank-GER/following%7B/other_user%7D",
        "gists_url": "https://api.github.com/users/Frank-GER/gists%7B/gist_id%7D",
        "starred_url": "https://api.github.com/users/Frank-GER/starred%7B/owner%7D%7B/repo%7D",
        "subscriptions_url": "https://api.github.com/users/Frank-GER/subscriptions",
        "organizations_url": "https://api.github.com/users/Frank-GER/orgs",
        "repos_url": "https://api.github.com/users/Frank-GER/repos",
        "events_url": "https://api.github.com/users/Frank-GER/events%7B/privacy%7D",
        "received_events_url": "https://api.github.com/users/Frank-GER/received_events",
        "type": "User",
        "site_admin": false
      },
      "commit_id": "45c80f5aa8d3dc3a8b0177a485cf64cd94e9f978",
      "commit_url": "https://api.github.com/repos/syscoin/syscoin/commits/45c80f5aa8d3dc3a8b0177a485cf64cd94e9f978",
      "created_at": "2023-09-27T16:46:32Z"
    },
    {
      "event": "head_ref_deleted",
      "id": 10496196402,
      "node_id": "HRDE_lADOABII585xDrXqzwAAAAJxnz8y",
      "url": "https://api.github.com/repos/bitcoin/bitcoin/issues/events/10496196402",
      "actor": {
        "login": "MarcoFalke",
        "id": 6399679,
        "node_id": "MDQ6VXNlcjYzOTk2Nzk=",
        "avatar_url": "https://avatars.githubusercontent.com/u/6399679?v=4",
        "gravatar_id": "",
        "url": "https://api.github.com/users/MarcoFalke",
        "html_url": "https://github.com/MarcoFalke",
        "followers_url": "https://api.github.com/users/MarcoFalke/followers",
        "following_url": "https://api.github.com/users/MarcoFalke/following%7B/other_user%7D",
        "gists_url": "https://api.github.com/users/MarcoFalke/gists%7B/gist_id%7D",
        "starred_url": "https://api.github.com/users/MarcoFalke/starred%7B/owner%7D%7B/repo%7D",
        "subscriptions_url": "https://api.github.com/users/MarcoFalke/subscriptions",
        "organizations_url": "https://api.github.com/users/MarcoFalke/orgs",
        "repos_url": "https://api.github.com/users/MarcoFalke/repos",
        "events_url": "https://api.github.com/users/MarcoFalke/events%7B/privacy%7D",
        "received_events_url": "https://api.github.com/users/MarcoFalke/received_events",
        "type": "User",
        "site_admin": false
      },
      "commit_id": null,
      "commit_url": null,
      "created_at": "2023-09-28T08:30:50Z"
    }
  ],
  "comments": [
    {
      "url": "https://api.github.com/repos/bitcoin/bitcoin/pulls/comments/1327161518",
      "pull_request_review_id": 1628749532,
      "id": 1327161518,
      "node_id": "PRRC_kwDOABII585PGuCu",
      "diff_hunk": "@@ -637,25 +637,8 @@ class BufferedFile\n         src = fileIn;\n     }\n \n-    ~BufferedFile()\n-    {\n-        fclose();\n-    }\n-\n-    // Disallow copies\n-    BufferedFile(const BufferedFile&) = delete;\n-    BufferedFile& operator=(const BufferedFile&) = delete;",
      "path": "src/streams.h",
      "position": 53,
      "original_position": 11,
      "commit_id": "fa56c421be04af846f479c30749b17e6663ab418",
      "original_commit_id": "faa45328e6bf7f0da371b773d913924f4b50d86a",
      "in_reply_to_id": null,
      "user": {
        "login": "TheCharlatan",
        "id": 8421793,
        "node_id": "MDQ6VXNlcjg0MjE3OTM=",
        "avatar_url": "https://avatars.githubusercontent.com/u/8421793?v=4",
        "gravatar_id": "",
        "url": "https://api.github.com/users/TheCharlatan",
        "html_url": "https://github.com/TheCharlatan",
        "followers_url": "https://api.github.com/users/TheCharlatan/followers",
        "following_url": "https://api.github.com/users/TheCharlatan/following%7B/other_user%7D",
        "gists_url": "https://api.github.com/users/TheCharlatan/gists%7B/gist_id%7D",
        "starred_url": "https://api.github.com/users/TheCharlatan/starred%7B/owner%7D%7B/repo%7D",
        "subscriptions_url": "https://api.github.com/users/TheCharlatan/subscriptions",
        "organizations_url": "https://api.github.com/users/TheCharlatan/orgs",
        "repos_url": "https://api.github.com/users/TheCharlatan/repos",
        "events_url": "https://api.github.com/users/TheCharlatan/events%7B/privacy%7D",
        "received_events_url": "https://api.github.com/users/TheCharlatan/received_events",
        "type": "User",
        "site_admin": false
      },
      "body": "Nit: Would removing this in the second commit when the `FILE *` is changed to `CAutoFile` make more sense?",
      "created_at": "2023-09-15T11:28:52Z",
      "updated_at": "2023-09-15T12:11:22Z",
      "html_url": "https://github.com/bitcoin/bitcoin/pull/28483#discussion_r1327161518",
      "author_association": "CONTRIBUTOR",
      "_links": {
        "self": {
          "href": "https://api.github.com/repos/bitcoin/bitcoin/pulls/comments/1327161518"
        },
        "pull_request": {
          "href": "https://api.github.com/repos/bitcoin/bitcoin/pulls/28483"
        }
      },
      "start_line": null,
      "original_start_line": null,
      "start_side": null,
      "line": 647,
      "original_line": 647,
      "side": "LEFT"
    },
    {
      "url": "https://api.github.com/repos/bitcoin/bitcoin/pulls/comments/1327191728",
      "pull_request_review_id": 1628749532,
      "id": 1327191728,
      "node_id": "PRRC_kwDOABII585PG1aw",
      "diff_hunk": "@@ -598,9 +596,9 @@ class BufferedFile\n             readNow = nAvail;\n         if (readNow == 0)\n             return false;\n-        size_t nBytes = fread((void*)&vchBuf[pos], 1, readNow, src);\n+        size_t nBytes{m_src.detail_fread(Span{vchBuf}.subspan(pos,readNow))};",
      "path": "src/streams.h",
      "position": null,
      "original_position": 25,
      "commit_id": "fa56c421be04af846f479c30749b17e6663ab418",
      "original_commit_id": "fa33b6fba270e5867f208b242f50145e1ed3550e",
      "in_reply_to_id": null,
      "user": {
        "login": "TheCharlatan",
        "id": 8421793,
        "node_id": "MDQ6VXNlcjg0MjE3OTM=",
        "avatar_url": "https://avatars.githubusercontent.com/u/8421793?v=4",
        "gravatar_id": "",
        "url": "https://api.github.com/users/TheCharlatan",
        "html_url": "https://github.com/TheCharlatan",
        "followers_url": "https://api.github.com/users/TheCharlatan/followers",
        "following_url": "https://api.github.com/users/TheCharlatan/following%7B/other_user%7D",
        "gists_url": "https://api.github.com/users/TheCharlatan/gists%7B/gist_id%7D",
        "starred_url": "https://api.github.com/users/TheCharlatan/starred%7B/owner%7D%7B/repo%7D",
        "subscriptions_url": "https://api.github.com/users/TheCharlatan/subscriptions",
        "organizations_url": "https://api.github.com/users/TheCharlatan/orgs",
        "repos_url": "https://api.github.com/users/TheCharlatan/repos",
        "events_url": "https://api.github.com/users/TheCharlatan/events%7B/privacy%7D",
        "received_events_url": "https://api.github.com/users/TheCharlatan/received_events",
        "type": "User",
        "site_admin": false
      },
      "body": "Nit (clang-format): Space after `pos,`.",
      "created_at": "2023-09-15T12:01:10Z",
      "updated_at": "2023-09-15T12:11:22Z",
      "html_url": "https://github.com/bitcoin/bitcoin/pull/28483#discussion_r1327191728",
      "author_association": "CONTRIBUTOR",
      "_links": {
        "self": {
          "href": "https://api.github.com/repos/bitcoin/bitcoin/pulls/comments/1327191728"
        },
        "pull_request": {
          "href": "https://api.github.com/repos/bitcoin/bitcoin/pulls/28483"
        }
      },
      "start_line": null,
      "original_start_line": null,
      "start_side": null,
      "line": null,
      "original_line": 599,
      "side": "RIGHT"
    },
    {
      "url": "https://api.github.com/repos/bitcoin/bitcoin/pulls/comments/1327198966",
      "pull_request_review_id": 1628749532,
      "id": 1327198966,
      "node_id": "PRRC_kwDOABII585PG3L2",
      "diff_hunk": "@@ -10,21 +10,21 @@\n static void FindByte(benchmark::Bench& bench)\n {\n     // Setup\n-    FILE* file = fsbridge::fopen(\"streams_tmp\", \"w+b\");\n+    CAutoFile file{fsbridge::fopen(\"streams_tmp\", \"w+b\"), 0};\n     const size_t file_size = 200;\n     uint8_t data[file_size] = {0};\n     data[file_size-1] = 1;\n-    fwrite(&data, sizeof(uint8_t), file_size, file);\n-    rewind(file);\n-    BufferedFile bf{file, /*nBufSize=*/file_size + 1, /*nRewindIn=*/file_size, 0};\n+    file << data;\n+    std::rewind(file.Get());",
      "path": "src/bench/streams_findbyte.cpp",
      "position": 24,
      "original_position": 13,
      "commit_id": "fa56c421be04af846f479c30749b17e6663ab418",
      "original_commit_id": "fa33b6fba270e5867f208b242f50145e1ed3550e",
      "in_reply_to_id": null,
      "user": {
        "login": "TheCharlatan",
        "id": 8421793,
        "node_id": "MDQ6VXNlcjg0MjE3OTM=",
        "avatar_url": "https://avatars.githubusercontent.com/u/8421793?v=4",
        "gravatar_id": "",
        "url": "https://api.github.com/users/TheCharlatan",
        "html_url": "https://github.com/TheCharlatan",
        "followers_url": "https://api.github.com/users/TheCharlatan/followers",
        "following_url": "https://api.github.com/users/TheCharlatan/following%7B/other_user%7D",
        "gists_url": "https://api.github.com/users/TheCharlatan/gists%7B/gist_id%7D",
        "starred_url": "https://api.github.com/users/TheCharlatan/starred%7B/owner%7D%7B/repo%7D",
        "subscriptions_url": "https://api.github.com/users/TheCharlatan/subscriptions",
        "organizations_url": "https://api.github.com/users/TheCharlatan/orgs",
        "repos_url": "https://api.github.com/users/TheCharlatan/repos",
        "events_url": "https://api.github.com/users/TheCharlatan/events%7B/privacy%7D",
        "received_events_url": "https://api.github.com/users/TheCharlatan/received_events",
        "type": "User",
        "site_admin": false
      },
      "body": "Nit: Include `cstdio` where this is used?",
      "created_at": "2023-09-15T12:08:43Z",
      "updated_at": "2023-09-15T12:11:22Z",
      "html_url": "https://github.com/bitcoin/bitcoin/pull/28483#discussion_r1327198966",
      "author_association": "CONTRIBUTOR",
      "_links": {
        "self": {
          "href": "https://api.github.com/repos/bitcoin/bitcoin/pulls/comments/1327198966"
        },
        "pull_request": {
          "href": "https://api.github.com/repos/bitcoin/bitcoin/pulls/28483"
        }
      },
      "start_line": null,
      "original_start_line": null,
      "start_side": null,
      "line": 22,
      "original_line": 22,
      "side": "RIGHT"
    },
    {
      "url": "https://api.github.com/repos/bitcoin/bitcoin/pulls/comments/1327212016",
      "pull_request_review_id": 1628829640,
      "id": 1327212016,
      "node_id": "PRRC_kwDOABII585PG6Xw",
      "diff_hunk": "@@ -637,25 +637,8 @@ class BufferedFile\n         src = fileIn;\n     }\n \n-    ~BufferedFile()\n-    {\n-        fclose();\n-    }\n-\n-    // Disallow copies\n-    BufferedFile(const BufferedFile&) = delete;\n-    BufferedFile& operator=(const BufferedFile&) = delete;",
      "path": "src/streams.h",
      "position": 53,
      "original_position": 11,
      "commit_id": "fa56c421be04af846f479c30749b17e6663ab418",
      "original_commit_id": "faa45328e6bf7f0da371b773d913924f4b50d86a",
      "in_reply_to_id": 1327161518,
      "user": {
        "login": "MarcoFalke",
        "id": 6399679,
        "node_id": "MDQ6VXNlcjYzOTk2Nzk=",
        "avatar_url": "https://avatars.githubusercontent.com/u/6399679?v=4",
        "gravatar_id": "",
        "url": "https://api.github.com/users/MarcoFalke",
        "html_url": "https://github.com/MarcoFalke",
        "followers_url": "https://api.github.com/users/MarcoFalke/followers",
        "following_url": "https://api.github.com/users/MarcoFalke/following%7B/other_user%7D",
        "gists_url": "https://api.github.com/users/MarcoFalke/gists%7B/gist_id%7D",
        "starred_url": "https://api.github.com/users/MarcoFalke/starred%7B/owner%7D%7B/repo%7D",
        "subscriptions_url": "https://api.github.com/users/MarcoFalke/subscriptions",
        "organizations_url": "https://api.github.com/users/MarcoFalke/orgs",
        "repos_url": "https://api.github.com/users/MarcoFalke/repos",
        "events_url": "https://api.github.com/users/MarcoFalke/events%7B/privacy%7D",
        "received_events_url": "https://api.github.com/users/MarcoFalke/received_events",
        "type": "User",
        "site_admin": false
      },
      "body": "Now that `fclose` is removed, copies are allowed, because they no longer lead to a double-free undefined behavior segfault (Calling `fclose` twice on the same pointer)",
      "created_at": "2023-09-15T12:21:43Z",
      "updated_at": "2023-09-15T12:21:44Z",
      "html_url": "https://github.com/bitcoin/bitcoin/pull/28483#discussion_r1327212016",
      "author_association": "MEMBER",
      "_links": {
        "self": {
          "href": "https://api.github.com/repos/bitcoin/bitcoin/pulls/comments/1327212016"
        },
        "pull_request": {
          "href": "https://api.github.com/repos/bitcoin/bitcoin/pulls/28483"
        }
      },
      "start_line": null,
      "original_start_line": null,
      "start_side": null,
      "line": 647,
      "original_line": 647,
      "side": "LEFT"
    },
    {
      "url": "https://api.github.com/repos/bitcoin/bitcoin/pulls/comments/1327231535",
      "pull_request_review_id": 1628862725,
      "id": 1327231535,
      "node_id": "PRRC_kwDOABII585PG_Iv",
      "diff_hunk": "@@ -598,9 +596,9 @@ class BufferedFile\n             readNow = nAvail;\n         if (readNow == 0)\n             return false;\n-        size_t nBytes = fread((void*)&vchBuf[pos], 1, readNow, src);\n+        size_t nBytes{m_src.detail_fread(Span{vchBuf}.subspan(pos,readNow))};",
      "path": "src/streams.h",
      "position": null,
      "original_position": 25,
      "commit_id": "fa56c421be04af846f479c30749b17e6663ab418",
      "original_commit_id": "fa33b6fba270e5867f208b242f50145e1ed3550e",
      "in_reply_to_id": 1327191728,
      "user": {
        "login": "MarcoFalke",
        "id": 6399679,
        "node_id": "MDQ6VXNlcjYzOTk2Nzk=",
        "avatar_url": "https://avatars.githubusercontent.com/u/6399679?v=4",
        "gravatar_id": "",
        "url": "https://api.github.com/users/MarcoFalke",
        "html_url": "https://github.com/MarcoFalke",
        "followers_url": "https://api.github.com/users/MarcoFalke/followers",
        "following_url": "https://api.github.com/users/MarcoFalke/following%7B/other_user%7D",
        "gists_url": "https://api.github.com/users/MarcoFalke/gists%7B/gist_id%7D",
        "starred_url": "https://api.github.com/users/MarcoFalke/starred%7B/owner%7D%7B/repo%7D",
        "subscriptions_url": "https://api.github.com/users/MarcoFalke/subscriptions",
        "organizations_url": "https://api.github.com/users/MarcoFalke/orgs",
        "repos_url": "https://api.github.com/users/MarcoFalke/repos",
        "events_url": "https://api.github.com/users/MarcoFalke/events%7B/privacy%7D",
        "received_events_url": "https://api.github.com/users/MarcoFalke/received_events",
        "type": "User",
        "site_admin": false
      },
      "body": "Thanks, done",
      "created_at": "2023-09-15T12:38:18Z",
      "updated_at": "2023-09-15T12:38:18Z",
      "html_url": "https://github.com/bitcoin/bitcoin/pull/28483#discussion_r1327231535",
      "author_association": "MEMBER",
      "_links": {
        "self": {
          "href": "https://api.github.com/repos/bitcoin/bitcoin/pulls/comments/1327231535"
        },
        "pull_request": {
          "href": "https://api.github.com/repos/bitcoin/bitcoin/pulls/28483"
        }
      },
      "start_line": null,
      "original_start_line": null,
      "start_side": null,
      "line": null,
      "original_line": 599,
      "side": "RIGHT"
    },
    {
      "url": "https://api.github.com/repos/bitcoin/bitcoin/pulls/comments/1327232218",
      "pull_request_review_id": 1628863699,
      "id": 1327232218,
      "node_id": "PRRC_kwDOABII585PG_Ta",
      "diff_hunk": "@@ -10,21 +10,21 @@\n static void FindByte(benchmark::Bench& bench)\n {\n     // Setup\n-    FILE* file = fsbridge::fopen(\"streams_tmp\", \"w+b\");\n+    CAutoFile file{fsbridge::fopen(\"streams_tmp\", \"w+b\"), 0};\n     const size_t file_size = 200;\n     uint8_t data[file_size] = {0};\n     data[file_size-1] = 1;\n-    fwrite(&data, sizeof(uint8_t), file_size, file);\n-    rewind(file);\n-    BufferedFile bf{file, /*nBufSize=*/file_size + 1, /*nRewindIn=*/file_size, 0};\n+    file << data;\n+    std::rewind(file.Get());",
      "path": "src/bench/streams_findbyte.cpp",
      "position": 24,
      "original_position": 13,
      "commit_id": "fa56c421be04af846f479c30749b17e6663ab418",
      "original_commit_id": "fa33b6fba270e5867f208b242f50145e1ed3550e",
      "in_reply_to_id": 1327198966,
      "user": {
        "login": "MarcoFalke",
        "id": 6399679,
        "node_id": "MDQ6VXNlcjYzOTk2Nzk=",
        "avatar_url": "https://avatars.githubusercontent.com/u/6399679?v=4",
        "gravatar_id": "",
        "url": "https://api.github.com/users/MarcoFalke",
        "html_url": "https://github.com/MarcoFalke",
        "followers_url": "https://api.github.com/users/MarcoFalke/followers",
        "following_url": "https://api.github.com/users/MarcoFalke/following%7B/other_user%7D",
        "gists_url": "https://api.github.com/users/MarcoFalke/gists%7B/gist_id%7D",
        "starred_url": "https://api.github.com/users/MarcoFalke/starred%7B/owner%7D%7B/repo%7D",
        "subscriptions_url": "https://api.github.com/users/MarcoFalke/subscriptions",
        "organizations_url": "https://api.github.com/users/MarcoFalke/orgs",
        "repos_url": "https://api.github.com/users/MarcoFalke/repos",
        "events_url": "https://api.github.com/users/MarcoFalke/events%7B/privacy%7D",
        "received_events_url": "https://api.github.com/users/MarcoFalke/received_events",
        "type": "User",
        "site_admin": false
      },
      "body": "Added iwyu suggestions here",
      "created_at": "2023-09-15T12:38:55Z",
      "updated_at": "2023-09-15T12:38:56Z",
      "html_url": "https://github.com/bitcoin/bitcoin/pull/28483#discussion_r1327232218",
      "author_association": "MEMBER",
      "_links": {
        "self": {
          "href": "https://api.github.com/repos/bitcoin/bitcoin/pulls/comments/1327232218"
        },
        "pull_request": {
          "href": "https://api.github.com/repos/bitcoin/bitcoin/pulls/28483"
        }
      },
      "start_line": null,
      "original_start_line": null,
      "start_side": null,
      "line": 22,
      "original_line": 22,
      "side": "RIGHT"
    }
  ]
}