{
  "type": "pull",
  "pull": {
    "url": "https://api.github.com/repos/bitcoin/bitcoin/pulls/28492",
    "id": 1517613854,
    "node_id": "PR_kwDOABII585adPMe",
    "html_url": "https://github.com/bitcoin/bitcoin/pull/28492",
    "diff_url": "https://github.com/bitcoin/bitcoin/pull/28492.diff",
    "patch_url": "https://github.com/bitcoin/bitcoin/pull/28492.patch",
    "issue_url": "https://api.github.com/repos/bitcoin/bitcoin/issues/28492",
    "commits_url": "https://api.github.com/repos/bitcoin/bitcoin/pulls/28492/commits",
    "review_comments_url": "https://api.github.com/repos/bitcoin/bitcoin/pulls/28492/comments",
    "review_comment_url": "https://api.github.com/repos/bitcoin/bitcoin/pulls/comments%7B/number%7D",
    "comments_url": "https://api.github.com/repos/bitcoin/bitcoin/issues/28492/comments",
    "statuses_url": "https://api.github.com/repos/bitcoin/bitcoin/statuses/a99e9e655a58b2364a74aec5cafb827a73c6b0c4",
    "number": 28492,
    "state": "closed",
    "locked": false,
    "maintainer_can_modify": false,
    "title": "RPC: `descriptorprocesspsbt` returns hex encoded tx if complete",
    "user": {
      "login": "ismaelsadeeq",
      "id": 48946461,
      "node_id": "MDQ6VXNlcjQ4OTQ2NDYx",
      "avatar_url": "https://avatars.githubusercontent.com/u/48946461?v=4",
      "gravatar_id": "",
      "url": "https://api.github.com/users/ismaelsadeeq",
      "html_url": "https://github.com/ismaelsadeeq",
      "followers_url": "https://api.github.com/users/ismaelsadeeq/followers",
      "following_url": "https://api.github.com/users/ismaelsadeeq/following%7B/other_user%7D",
      "gists_url": "https://api.github.com/users/ismaelsadeeq/gists%7B/gist_id%7D",
      "starred_url": "https://api.github.com/users/ismaelsadeeq/starred%7B/owner%7D%7B/repo%7D",
      "subscriptions_url": "https://api.github.com/users/ismaelsadeeq/subscriptions",
      "organizations_url": "https://api.github.com/users/ismaelsadeeq/orgs",
      "repos_url": "https://api.github.com/users/ismaelsadeeq/repos",
      "events_url": "https://api.github.com/users/ismaelsadeeq/events%7B/privacy%7D",
      "received_events_url": "https://api.github.com/users/ismaelsadeeq/received_events",
      "type": "User",
      "site_admin": false
    },
    "body": "Coming from [#28414 comment](https://github.com/bitcoin/bitcoin/pull/28414#pullrequestreview-1618684391) Same thing also for `descriptorprocesspsbt`.\r\n\r\nBefore this PR `descriptorprocesspsbt` returns a boolean `complete` which indicates that the psbt is final, users then have to call `finalizepsbt` to get the hex encoded network transaction.\r\n\r\nIn this PR if the psbt is complete the return object also has the hex encoded network transaction ready for broadcast with `sendrawtransaction`.\r\n\r\nThis save users calling `finalizepsbt` with the descriptor, if it is already complete.",
    "labels": [
      {
        "id": 98279177,
        "node_id": "MDU6TGFiZWw5ODI3OTE3Nw==",
        "url": "https://api.github.com/repos/bitcoin/bitcoin/labels/RPC/REST/ZMQ",
        "name": "RPC/REST/ZMQ",
        "color": "0052cc",
        "default": false
      }
    ],
    "created_at": "2023-09-15T16:10:57Z",
    "updated_at": "2023-09-23T15:56:04Z",
    "closed_at": "2023-09-23T15:56:03Z",
    "mergeable_state": "unknown",
    "merged_at": "2023-09-23T15:56:03Z",
    "merge_commit_sha": "719cb301e69fa15ceed61d6f0fbaebc5eb5c04a9",
    "assignees": [],
    "requested_reviewers": [],
    "requested_teams": [],
    "head": {
      "label": "ismaelsadeeq:09-2023-return-final-psbt",
      "ref": "09-2023-return-final-psbt",
      "sha": "a99e9e655a58b2364a74aec5cafb827a73c6b0c4",
      "user": {
        "login": "ismaelsadeeq",
        "id": 48946461,
        "node_id": "MDQ6VXNlcjQ4OTQ2NDYx",
        "avatar_url": "https://avatars.githubusercontent.com/u/48946461?v=4",
        "gravatar_id": "",
        "url": "https://api.github.com/users/ismaelsadeeq",
        "html_url": "https://github.com/ismaelsadeeq",
        "followers_url": "https://api.github.com/users/ismaelsadeeq/followers",
        "following_url": "https://api.github.com/users/ismaelsadeeq/following%7B/other_user%7D",
        "gists_url": "https://api.github.com/users/ismaelsadeeq/gists%7B/gist_id%7D",
        "starred_url": "https://api.github.com/users/ismaelsadeeq/starred%7B/owner%7D%7B/repo%7D",
        "subscriptions_url": "https://api.github.com/users/ismaelsadeeq/subscriptions",
        "organizations_url": "https://api.github.com/users/ismaelsadeeq/orgs",
        "repos_url": "https://api.github.com/users/ismaelsadeeq/repos",
        "events_url": "https://api.github.com/users/ismaelsadeeq/events%7B/privacy%7D",
        "received_events_url": "https://api.github.com/users/ismaelsadeeq/received_events",
        "type": "User",
        "site_admin": false
      },
      "repo": {
        "id": 577730599,
        "node_id": "R_kgDOIm94Jw",
        "name": "bitcoin",
        "full_name": "ismaelsadeeq/bitcoin",
        "owner": {
          "login": "ismaelsadeeq",
          "id": 48946461,
          "node_id": "MDQ6VXNlcjQ4OTQ2NDYx",
          "avatar_url": "https://avatars.githubusercontent.com/u/48946461?v=4",
          "gravatar_id": "",
          "url": "https://api.github.com/users/ismaelsadeeq",
          "html_url": "https://github.com/ismaelsadeeq",
          "followers_url": "https://api.github.com/users/ismaelsadeeq/followers",
          "following_url": "https://api.github.com/users/ismaelsadeeq/following%7B/other_user%7D",
          "gists_url": "https://api.github.com/users/ismaelsadeeq/gists%7B/gist_id%7D",
          "starred_url": "https://api.github.com/users/ismaelsadeeq/starred%7B/owner%7D%7B/repo%7D",
          "subscriptions_url": "https://api.github.com/users/ismaelsadeeq/subscriptions",
          "organizations_url": "https://api.github.com/users/ismaelsadeeq/orgs",
          "repos_url": "https://api.github.com/users/ismaelsadeeq/repos",
          "events_url": "https://api.github.com/users/ismaelsadeeq/events%7B/privacy%7D",
          "received_events_url": "https://api.github.com/users/ismaelsadeeq/received_events",
          "type": "User",
          "site_admin": false
        },
        "private": false,
        "html_url": "https://github.com/ismaelsadeeq/bitcoin",
        "description": "Bitcoin Core integration/staging tree",
        "fork": true,
        "url": "https://api.github.com/repos/ismaelsadeeq/bitcoin",
        "archive_url": "https://api.github.com/repos/ismaelsadeeq/bitcoin/%7Barchive_format%7D%7B/ref%7D",
        "assignees_url": "https://api.github.com/repos/ismaelsadeeq/bitcoin/assignees%7B/user%7D",
        "blobs_url": "https://api.github.com/repos/ismaelsadeeq/bitcoin/git/blobs%7B/sha%7D",
        "branches_url": "https://api.github.com/repos/ismaelsadeeq/bitcoin/branches%7B/branch%7D",
        "collaborators_url": "https://api.github.com/repos/ismaelsadeeq/bitcoin/collaborators%7B/collaborator%7D",
        "comments_url": "https://api.github.com/repos/ismaelsadeeq/bitcoin/comments%7B/number%7D",
        "commits_url": "https://api.github.com/repos/ismaelsadeeq/bitcoin/commits%7B/sha%7D",
        "compare_url": "https://api.github.com/repos/ismaelsadeeq/bitcoin/compare/%7Bbase%7D...%7Bhead%7D",
        "contents_url": "https://api.github.com/repos/ismaelsadeeq/bitcoin/contents/%7B+path%7D",
        "contributors_url": "https://api.github.com/repos/ismaelsadeeq/bitcoin/contributors",
        "deployments_url": "https://api.github.com/repos/ismaelsadeeq/bitcoin/deployments",
        "downloads_url": "https://api.github.com/repos/ismaelsadeeq/bitcoin/downloads",
        "events_url": "https://api.github.com/repos/ismaelsadeeq/bitcoin/events",
        "forks_url": "https://api.github.com/repos/ismaelsadeeq/bitcoin/forks",
        "git_commits_url": "https://api.github.com/repos/ismaelsadeeq/bitcoin/git/commits%7B/sha%7D",
        "git_refs_url": "https://api.github.com/repos/ismaelsadeeq/bitcoin/git/refs%7B/sha%7D",
        "git_tags_url": "https://api.github.com/repos/ismaelsadeeq/bitcoin/git/tags%7B/sha%7D",
        "git_url": "git://github.com/ismaelsadeeq/bitcoin.git",
        "issue_comment_url": "https://api.github.com/repos/ismaelsadeeq/bitcoin/issues/comments%7B/number%7D",
        "issue_events_url": "https://api.github.com/repos/ismaelsadeeq/bitcoin/issues/events%7B/number%7D",
        "issues_url": "https://api.github.com/repos/ismaelsadeeq/bitcoin/issues%7B/number%7D",
        "keys_url": "https://api.github.com/repos/ismaelsadeeq/bitcoin/keys%7B/key_id%7D",
        "labels_url": "https://api.github.com/repos/ismaelsadeeq/bitcoin/labels%7B/name%7D",
        "languages_url": "https://api.github.com/repos/ismaelsadeeq/bitcoin/languages",
        "merges_url": "https://api.github.com/repos/ismaelsadeeq/bitcoin/merges",
        "milestones_url": "https://api.github.com/repos/ismaelsadeeq/bitcoin/milestones%7B/number%7D",
        "notifications_url": "https://api.github.com/repos/ismaelsadeeq/bitcoin/notifications%7B?since,all,participating}",
        "pulls_url": "https://api.github.com/repos/ismaelsadeeq/bitcoin/pulls%7B/number%7D",
        "releases_url": "https://api.github.com/repos/ismaelsadeeq/bitcoin/releases%7B/id%7D",
        "ssh_url": "git@github.com:ismaelsadeeq/bitcoin.git",
        "stargazers_url": "https://api.github.com/repos/ismaelsadeeq/bitcoin/stargazers",
        "statuses_url": "https://api.github.com/repos/ismaelsadeeq/bitcoin/statuses/%7Bsha%7D",
        "subscribers_url": "https://api.github.com/repos/ismaelsadeeq/bitcoin/subscribers",
        "subscription_url": "https://api.github.com/repos/ismaelsadeeq/bitcoin/subscription",
        "tags_url": "https://api.github.com/repos/ismaelsadeeq/bitcoin/tags",
        "teams_url": "https://api.github.com/repos/ismaelsadeeq/bitcoin/teams",
        "trees_url": "https://api.github.com/repos/ismaelsadeeq/bitcoin/git/trees%7B/sha%7D",
        "clone_url": "https://github.com/ismaelsadeeq/bitcoin.git",
        "hooks_url": "https://api.github.com/repos/ismaelsadeeq/bitcoin/hooks",
        "svn_url": "https://github.com/ismaelsadeeq/bitcoin",
        "homepage": "https://bitcoincore.org/en/download",
        "language": "C++",
        "forks_count": 0,
        "stargazers_count": 0,
        "watchers_count": 0,
        "size": 237511,
        "default_branch": "master",
        "open_issues_count": 0,
        "is_template": false,
        "topics": [],
        "has_issues": false,
        "has_projects": true,
        "has_wiki": false,
        "has_pages": false,
        "has_downloads": false,
        "archived": false,
        "disabled": false,
        "visibility": "public",
        "pushed_at": "2023-09-21T13:01:30Z",
        "created_at": "2022-12-13T11:54:34Z",
        "updated_at": "2023-03-10T09:46:26Z",
        "license": {
          "key": "mit",
          "name": "MIT License",
          "node_id": "MDc6TGljZW5zZTEz",
          "spdx_id": "MIT",
          "url": "https://api.github.com/licenses/mit",
          "html_url": null,
          "description": null,
          "implementation": null,
          "permissions": null,
          "conditions": null,
          "limitations": null,
          "body": null,
          "featured": null
        }
      }
    },
    "base": {
      "label": "bitcoin:master",
      "ref": "master",
      "sha": "5c7cdda992442d8b1dce5bc4b239e8645c507a3c",
      "user": {
        "login": "bitcoin",
        "id": 528860,
        "node_id": "MDEyOk9yZ2FuaXphdGlvbjUyODg2MA==",
        "avatar_url": "https://avatars.githubusercontent.com/u/528860?v=4",
        "gravatar_id": "",
        "url": "https://api.github.com/users/bitcoin",
        "html_url": "https://github.com/bitcoin",
        "followers_url": "https://api.github.com/users/bitcoin/followers",
        "following_url": "https://api.github.com/users/bitcoin/following%7B/other_user%7D",
        "gists_url": "https://api.github.com/users/bitcoin/gists%7B/gist_id%7D",
        "starred_url": "https://api.github.com/users/bitcoin/starred%7B/owner%7D%7B/repo%7D",
        "subscriptions_url": "https://api.github.com/users/bitcoin/subscriptions",
        "organizations_url": "https://api.github.com/users/bitcoin/orgs",
        "repos_url": "https://api.github.com/users/bitcoin/repos",
        "events_url": "https://api.github.com/users/bitcoin/events%7B/privacy%7D",
        "received_events_url": "https://api.github.com/users/bitcoin/received_events",
        "type": "Organization",
        "site_admin": false
      },
      "repo": {
        "id": 1181927,
        "node_id": "MDEwOlJlcG9zaXRvcnkxMTgxOTI3",
        "name": "bitcoin",
        "full_name": "bitcoin/bitcoin",
        "owner": {
          "login": "bitcoin",
          "id": 528860,
          "node_id": "MDEyOk9yZ2FuaXphdGlvbjUyODg2MA==",
          "avatar_url": "https://avatars.githubusercontent.com/u/528860?v=4",
          "gravatar_id": "",
          "url": "https://api.github.com/users/bitcoin",
          "html_url": "https://github.com/bitcoin",
          "followers_url": "https://api.github.com/users/bitcoin/followers",
          "following_url": "https://api.github.com/users/bitcoin/following%7B/other_user%7D",
          "gists_url": "https://api.github.com/users/bitcoin/gists%7B/gist_id%7D",
          "starred_url": "https://api.github.com/users/bitcoin/starred%7B/owner%7D%7B/repo%7D",
          "subscriptions_url": "https://api.github.com/users/bitcoin/subscriptions",
          "organizations_url": "https://api.github.com/users/bitcoin/orgs",
          "repos_url": "https://api.github.com/users/bitcoin/repos",
          "events_url": "https://api.github.com/users/bitcoin/events%7B/privacy%7D",
          "received_events_url": "https://api.github.com/users/bitcoin/received_events",
          "type": "Organization",
          "site_admin": false
        },
        "private": false,
        "html_url": "https://github.com/bitcoin/bitcoin",
        "description": "Bitcoin Core integration/staging tree",
        "fork": false,
        "url": "https://api.github.com/repos/bitcoin/bitcoin",
        "archive_url": "https://api.github.com/repos/bitcoin/bitcoin/%7Barchive_format%7D%7B/ref%7D",
        "assignees_url": "https://api.github.com/repos/bitcoin/bitcoin/assignees%7B/user%7D",
        "blobs_url": "https://api.github.com/repos/bitcoin/bitcoin/git/blobs%7B/sha%7D",
        "branches_url": "https://api.github.com/repos/bitcoin/bitcoin/branches%7B/branch%7D",
        "collaborators_url": "https://api.github.com/repos/bitcoin/bitcoin/collaborators%7B/collaborator%7D",
        "comments_url": "https://api.github.com/repos/bitcoin/bitcoin/comments%7B/number%7D",
        "commits_url": "https://api.github.com/repos/bitcoin/bitcoin/commits%7B/sha%7D",
        "compare_url": "https://api.github.com/repos/bitcoin/bitcoin/compare/%7Bbase%7D...%7Bhead%7D",
        "contents_url": "https://api.github.com/repos/bitcoin/bitcoin/contents/%7B+path%7D",
        "contributors_url": "https://api.github.com/repos/bitcoin/bitcoin/contributors",
        "deployments_url": "https://api.github.com/repos/bitcoin/bitcoin/deployments",
        "downloads_url": "https://api.github.com/repos/bitcoin/bitcoin/downloads",
        "events_url": "https://api.github.com/repos/bitcoin/bitcoin/events",
        "forks_url": "https://api.github.com/repos/bitcoin/bitcoin/forks",
        "git_commits_url": "https://api.github.com/repos/bitcoin/bitcoin/git/commits%7B/sha%7D",
        "git_refs_url": "https://api.github.com/repos/bitcoin/bitcoin/git/refs%7B/sha%7D",
        "git_tags_url": "https://api.github.com/repos/bitcoin/bitcoin/git/tags%7B/sha%7D",
        "git_url": "git://github.com/bitcoin/bitcoin.git",
        "issue_comment_url": "https://api.github.com/repos/bitcoin/bitcoin/issues/comments%7B/number%7D",
        "issue_events_url": "https://api.github.com/repos/bitcoin/bitcoin/issues/events%7B/number%7D",
        "issues_url": "https://api.github.com/repos/bitcoin/bitcoin/issues%7B/number%7D",
        "keys_url": "https://api.github.com/repos/bitcoin/bitcoin/keys%7B/key_id%7D",
        "labels_url": "https://api.github.com/repos/bitcoin/bitcoin/labels%7B/name%7D",
        "languages_url": "https://api.github.com/repos/bitcoin/bitcoin/languages",
        "merges_url": "https://api.github.com/repos/bitcoin/bitcoin/merges",
        "milestones_url": "https://api.github.com/repos/bitcoin/bitcoin/milestones%7B/number%7D",
        "notifications_url": "https://api.github.com/repos/bitcoin/bitcoin/notifications%7B?since,all,participating}",
        "pulls_url": "https://api.github.com/repos/bitcoin/bitcoin/pulls%7B/number%7D",
        "releases_url": "https://api.github.com/repos/bitcoin/bitcoin/releases%7B/id%7D",
        "ssh_url": "git@github.com:bitcoin/bitcoin.git",
        "stargazers_url": "https://api.github.com/repos/bitcoin/bitcoin/stargazers",
        "statuses_url": "https://api.github.com/repos/bitcoin/bitcoin/statuses/%7Bsha%7D",
        "subscribers_url": "https://api.github.com/repos/bitcoin/bitcoin/subscribers",
        "subscription_url": "https://api.github.com/repos/bitcoin/bitcoin/subscription",
        "tags_url": "https://api.github.com/repos/bitcoin/bitcoin/tags",
        "teams_url": "https://api.github.com/repos/bitcoin/bitcoin/teams",
        "trees_url": "https://api.github.com/repos/bitcoin/bitcoin/git/trees%7B/sha%7D",
        "clone_url": "https://github.com/bitcoin/bitcoin.git",
        "hooks_url": "https://api.github.com/repos/bitcoin/bitcoin/hooks",
        "svn_url": "https://github.com/bitcoin/bitcoin",
        "homepage": "https://bitcoincore.org/en/download",
        "language": "C++",
        "forks_count": 35730,
        "stargazers_count": 71462,
        "watchers_count": 71462,
        "size": 240159,
        "default_branch": "master",
        "open_issues_count": 634,
        "is_template": false,
        "topics": [
          "bitcoin",
          "c-plus-plus",
          "cryptocurrency",
          "cryptography",
          "p2p"
        ],
        "has_issues": true,
        "has_projects": true,
        "has_wiki": false,
        "has_pages": false,
        "has_downloads": false,
        "archived": false,
        "disabled": false,
        "visibility": "public",
        "pushed_at": "2023-09-23T15:55:58Z",
        "created_at": "2010-12-19T15:16:43Z",
        "updated_at": "2023-09-23T14:38:44Z",
        "license": {
          "key": "mit",
          "name": "MIT License",
          "node_id": "MDc6TGljZW5zZTEz",
          "spdx_id": "MIT",
          "url": "https://api.github.com/licenses/mit",
          "html_url": null,
          "description": null,
          "implementation": null,
          "permissions": null,
          "conditions": null,
          "limitations": null,
          "body": null,
          "featured": null
        }
      }
    },
    "_links": {
      "self": {
        "href": "https://api.github.com/repos/bitcoin/bitcoin/pulls/28492"
      }
    },
    "author_association": "CONTRIBUTOR",
    "draft": false,
    "additions": 23,
    "deletions": 9,
    "changed_files": 3,
    "commits": 3,
    "review_comments": 4,
    "comments": 2
  },
  "events": [
    {
      "event": "committed",
      "id": null,
      "node_id": "C_kwDOABII59oAKGM0MDUyMDdhMThmZGVlNzVhNGRlYTQ3MGJiMGQxM2U1OWUxNWNlNDU",
      "url": "https://api.github.com/repos/bitcoin/bitcoin/git/commits/c405207a18fdee75a4dea470bb0d13e59e15ce45",
      "actor": null,
      "commit_id": null,
      "commit_url": null,
      "created_at": null,
      "html_url": "https://github.com/bitcoin/bitcoin/commit/c405207a18fdee75a4dea470bb0d13e59e15ce45",
      "tree": {
        "sha": "6eb8a68a51c9c5ac7bbeb7e2d7b42319a48c0f05",
        "url": "https://api.github.com/repos/bitcoin/bitcoin/git/trees/6eb8a68a51c9c5ac7bbeb7e2d7b42319a48c0f05"
      },
      "verification": {
        "verified": false,
        "reason": "unsigned",
        "payload": null,
        "signature": null
      },
      "parents": [
        {
          "url": "https://api.github.com/repos/bitcoin/bitcoin/git/commits/f1a9fd627b1a669c4dfab797da42825230708f2a",
          "sha": "f1a9fd627b1a669c4dfab797da42825230708f2a",
          "html_url": "https://github.com/bitcoin/bitcoin/commit/f1a9fd627b1a669c4dfab797da42825230708f2a"
        }
      ],
      "message": "rpc: `descriptorprocesspsbt` return hex encoded tx\n\nIf processed psbt is complete return hex encoded network\ntransaction in the output.",
      "committer": {
        "name": "ismaelsadeeq",
        "email": "ask4ismailsadiq@gmail.com",
        "date": "2023-09-15T15:46:09Z"
      },
      "author": {
        "name": "ismaelsadeeq",
        "email": "ask4ismailsadiq@gmail.com",
        "date": "2023-09-15T15:46:09Z"
      },
      "sha": "c405207a18fdee75a4dea470bb0d13e59e15ce45"
    },
    {
      "event": "committed",
      "id": null,
      "node_id": "C_kwDOABII59oAKDJiNGVkZjg4OWE0YjU1NWM4YzdmNjc5M2ZhNWQ4MjBlNTUxM2VjYWM",
      "url": "https://api.github.com/repos/bitcoin/bitcoin/git/commits/2b4edf889a4b555c8c7f6793fa5d820e5513ecac",
      "actor": null,
      "commit_id": null,
      "commit_url": null,
      "created_at": null,
      "html_url": "https://github.com/bitcoin/bitcoin/commit/2b4edf889a4b555c8c7f6793fa5d820e5513ecac",
      "tree": {
        "sha": "b57ce6c701e526a1c40e199135b469861a6b7177",
        "url": "https://api.github.com/repos/bitcoin/bitcoin/git/trees/b57ce6c701e526a1c40e199135b469861a6b7177"
      },
      "verification": {
        "verified": false,
        "reason": "unsigned",
        "payload": null,
        "signature": null
      },
      "parents": [
        {
          "url": "https://api.github.com/repos/bitcoin/bitcoin/git/commits/c405207a18fdee75a4dea470bb0d13e59e15ce45",
          "sha": "c405207a18fdee75a4dea470bb0d13e59e15ce45",
          "html_url": "https://github.com/bitcoin/bitcoin/commit/c405207a18fdee75a4dea470bb0d13e59e15ce45"
        }
      ],
      "message": "test: check `descriptorprocesspsbt` return hex encoded tx\n\nTest that if the processed psbt is complete the hex encoded tx\nis returned and remove unneccessary rpc call to finalize the\npsbt.",
      "committer": {
        "name": "ismaelsadeeq",
        "email": "ask4ismailsadiq@gmail.com",
        "date": "2023-09-15T15:48:36Z"
      },
      "author": {
        "name": "ismaelsadeeq",
        "email": "ask4ismailsadiq@gmail.com",
        "date": "2023-09-15T15:48:36Z"
      },
      "sha": "2b4edf889a4b555c8c7f6793fa5d820e5513ecac"
    },
    {
      "event": "committed",
      "id": null,
      "node_id": "C_kwDOABII59oAKGE5OWU5ZTY1NWE1OGIyMzY0YTc0YWVjNWNhZmI4MjdhNzNjNmIwYzQ",
      "url": "https://api.github.com/repos/bitcoin/bitcoin/git/commits/a99e9e655a58b2364a74aec5cafb827a73c6b0c4",
      "actor": null,
      "commit_id": null,
      "commit_url": null,
      "created_at": null,
      "html_url": "https://github.com/bitcoin/bitcoin/commit/a99e9e655a58b2364a74aec5cafb827a73c6b0c4",
      "tree": {
        "sha": "220e988888b498cf80712787cebd3847009144d8",
        "url": "https://api.github.com/repos/bitcoin/bitcoin/git/trees/220e988888b498cf80712787cebd3847009144d8"
      },
      "verification": {
        "verified": false,
        "reason": "unsigned",
        "payload": null,
        "signature": null
      },
      "parents": [
        {
          "url": "https://api.github.com/repos/bitcoin/bitcoin/git/commits/2b4edf889a4b555c8c7f6793fa5d820e5513ecac",
          "sha": "2b4edf889a4b555c8c7f6793fa5d820e5513ecac",
          "html_url": "https://github.com/bitcoin/bitcoin/commit/2b4edf889a4b555c8c7f6793fa5d820e5513ecac"
        }
      ],
      "message": "doc: add release note",
      "committer": {
        "name": "ismaelsadeeq",
        "email": "ask4ismailsadiq@gmail.com",
        "date": "2023-09-15T15:53:59Z"
      },
      "author": {
        "name": "ismaelsadeeq",
        "email": "ask4ismailsadiq@gmail.com",
        "date": "2023-09-15T15:53:59Z"
      },
      "sha": "a99e9e655a58b2364a74aec5cafb827a73c6b0c4"
    },
    {
      "event": "commented",
      "id": 1721527073,
      "node_id": "IC_kwDOABII585mnGsh",
      "url": "https://api.github.com/repos/bitcoin/bitcoin/issues/comments/1721527073",
      "actor": {
        "login": "DrahtBot",
        "id": 39886733,
        "node_id": "MDQ6VXNlcjM5ODg2NzMz",
        "avatar_url": "https://avatars.githubusercontent.com/u/39886733?v=4",
        "gravatar_id": "",
        "url": "https://api.github.com/users/DrahtBot",
        "html_url": "https://github.com/DrahtBot",
        "followers_url": "https://api.github.com/users/DrahtBot/followers",
        "following_url": "https://api.github.com/users/DrahtBot/following%7B/other_user%7D",
        "gists_url": "https://api.github.com/users/DrahtBot/gists%7B/gist_id%7D",
        "starred_url": "https://api.github.com/users/DrahtBot/starred%7B/owner%7D%7B/repo%7D",
        "subscriptions_url": "https://api.github.com/users/DrahtBot/subscriptions",
        "organizations_url": "https://api.github.com/users/DrahtBot/orgs",
        "repos_url": "https://api.github.com/users/DrahtBot/repos",
        "events_url": "https://api.github.com/users/DrahtBot/events%7B/privacy%7D",
        "received_events_url": "https://api.github.com/users/DrahtBot/received_events",
        "type": "User",
        "site_admin": false
      },
      "commit_id": null,
      "commit_url": null,
      "created_at": "2023-09-15T16:10:59Z",
      "updated_at": "2023-09-23T15:47:39Z",
      "author_association": "CONTRIBUTOR",
      "body": "<!--e57a25ab6845829454e8d69fc972939a-->\n\nThe following sections might be updated with supplementary metadata relevant to reviewers and maintainers.\n\n<!--021abf342d371248e50ceaed478a90ca-->\n### Reviews\nSee [the guideline](https://github.com/bitcoin/bitcoin/blob/master/CONTRIBUTING.md#code-review) for information on the review process.\n| Type | Reviewers |\n| ---- | --------- |\n| ACK | [pinheadmz](https://github.com/bitcoin/bitcoin/pull/28492#pullrequestreview-1629603033), [ishaanam](https://github.com/bitcoin/bitcoin/pull/28492#pullrequestreview-1629478751), [achow101](https://github.com/bitcoin/bitcoin/pull/28492#issuecomment-1732346496) |\n\nIf your review is incorrectly listed, please react with 👎 to this comment and the bot will ignore it on the next update.\n",
      "user": {
        "login": "DrahtBot",
        "id": 39886733,
        "node_id": "MDQ6VXNlcjM5ODg2NzMz",
        "avatar_url": "https://avatars.githubusercontent.com/u/39886733?v=4",
        "gravatar_id": "",
        "url": "https://api.github.com/users/DrahtBot",
        "html_url": "https://github.com/DrahtBot",
        "followers_url": "https://api.github.com/users/DrahtBot/followers",
        "following_url": "https://api.github.com/users/DrahtBot/following%7B/other_user%7D",
        "gists_url": "https://api.github.com/users/DrahtBot/gists%7B/gist_id%7D",
        "starred_url": "https://api.github.com/users/DrahtBot/starred%7B/owner%7D%7B/repo%7D",
        "subscriptions_url": "https://api.github.com/users/DrahtBot/subscriptions",
        "organizations_url": "https://api.github.com/users/DrahtBot/orgs",
        "repos_url": "https://api.github.com/users/DrahtBot/repos",
        "events_url": "https://api.github.com/users/DrahtBot/events%7B/privacy%7D",
        "received_events_url": "https://api.github.com/users/DrahtBot/received_events",
        "type": "User",
        "site_admin": false
      },
      "html_url": "https://github.com/bitcoin/bitcoin/pull/28492#issuecomment-1721527073",
      "issue_url": "https://api.github.com/repos/bitcoin/bitcoin/issues/28492"
    },
    {
      "event": "labeled",
      "id": 10385283790,
      "node_id": "LE_lADOABII585xLDnXzwAAAAJrAtrO",
      "url": "https://api.github.com/repos/bitcoin/bitcoin/issues/events/10385283790",
      "actor": {
        "login": "DrahtBot",
        "id": 39886733,
        "node_id": "MDQ6VXNlcjM5ODg2NzMz",
        "avatar_url": "https://avatars.githubusercontent.com/u/39886733?v=4",
        "gravatar_id": "",
        "url": "https://api.github.com/users/DrahtBot",
        "html_url": "https://github.com/DrahtBot",
        "followers_url": "https://api.github.com/users/DrahtBot/followers",
        "following_url": "https://api.github.com/users/DrahtBot/following%7B/other_user%7D",
        "gists_url": "https://api.github.com/users/DrahtBot/gists%7B/gist_id%7D",
        "starred_url": "https://api.github.com/users/DrahtBot/starred%7B/owner%7D%7B/repo%7D",
        "subscriptions_url": "https://api.github.com/users/DrahtBot/subscriptions",
        "organizations_url": "https://api.github.com/users/DrahtBot/orgs",
        "repos_url": "https://api.github.com/users/DrahtBot/repos",
        "events_url": "https://api.github.com/users/DrahtBot/events%7B/privacy%7D",
        "received_events_url": "https://api.github.com/users/DrahtBot/received_events",
        "type": "User",
        "site_admin": false
      },
      "commit_id": null,
      "commit_url": null,
      "created_at": "2023-09-15T16:11:01Z",
      "label": {
        "name": "RPC/REST/ZMQ",
        "color": "0052cc"
      }
    },
    {
      "event": "cross-referenced",
      "id": null,
      "node_id": null,
      "url": null,
      "actor": {
        "login": "ismaelsadeeq",
        "id": 48946461,
        "node_id": "MDQ6VXNlcjQ4OTQ2NDYx",
        "avatar_url": "https://avatars.githubusercontent.com/u/48946461?v=4",
        "gravatar_id": "",
        "url": "https://api.github.com/users/ismaelsadeeq",
        "html_url": "https://github.com/ismaelsadeeq",
        "followers_url": "https://api.github.com/users/ismaelsadeeq/followers",
        "following_url": "https://api.github.com/users/ismaelsadeeq/following%7B/other_user%7D",
        "gists_url": "https://api.github.com/users/ismaelsadeeq/gists%7B/gist_id%7D",
        "starred_url": "https://api.github.com/users/ismaelsadeeq/starred%7B/owner%7D%7B/repo%7D",
        "subscriptions_url": "https://api.github.com/users/ismaelsadeeq/subscriptions",
        "organizations_url": "https://api.github.com/users/ismaelsadeeq/orgs",
        "repos_url": "https://api.github.com/users/ismaelsadeeq/repos",
        "events_url": "https://api.github.com/users/ismaelsadeeq/events%7B/privacy%7D",
        "received_events_url": "https://api.github.com/users/ismaelsadeeq/received_events",
        "type": "User",
        "site_admin": false
      },
      "commit_id": null,
      "commit_url": null,
      "created_at": "2023-09-15T16:26:01Z",
      "updated_at": "2023-09-15T16:26:01Z",
      "source": {
        "issue": {
          "id": 1881940996,
          "node_id": "PR_kwDOABII585Zkp7M",
          "url": "https://api.github.com/repos/bitcoin/bitcoin/issues/28414",
          "repository_url": "https://api.github.com/repos/bitcoin/bitcoin",
          "labels_url": "https://api.github.com/repos/bitcoin/bitcoin/issues/28414/labels%7B/name%7D",
          "comments_url": "https://api.github.com/repos/bitcoin/bitcoin/issues/28414/comments",
          "events_url": "https://api.github.com/repos/bitcoin/bitcoin/issues/28414/events",
          "html_url": "https://github.com/bitcoin/bitcoin/pull/28414",
          "number": 28414,
          "state": "closed",
          "state_reason": null,
          "title": "wallet rpc: return final tx hex from walletprocesspsbt if complete",
          "body": "See https://github.com/bitcoin/bitcoin/pull/28363#discussion_r1315753887\r\n\r\n`walletprocesspsbt` currently returns a base64-encoded PSBT and a boolean indicating if the tx is \"complete\". If it is complete, the base64 PSBT can be finalized with `finalizepsbt` which returns the hex-encoded transaction suitable for `sendrawtransaction`.\r\n\r\nWith this patch, `walletprocesspsbt` return object will ALSO include the broadcast-able hex string if the tx is already final. This saves users the extra step of calling `finalizepsbt` assuming they have already inspected and approve the transaction from earlier steps.",
          "user": {
            "login": "pinheadmz",
            "id": 2084648,
            "node_id": "MDQ6VXNlcjIwODQ2NDg=",
            "avatar_url": "https://avatars.githubusercontent.com/u/2084648?v=4",
            "gravatar_id": "",
            "url": "https://api.github.com/users/pinheadmz",
            "html_url": "https://github.com/pinheadmz",
            "followers_url": "https://api.github.com/users/pinheadmz/followers",
            "following_url": "https://api.github.com/users/pinheadmz/following%7B/other_user%7D",
            "gists_url": "https://api.github.com/users/pinheadmz/gists%7B/gist_id%7D",
            "starred_url": "https://api.github.com/users/pinheadmz/starred%7B/owner%7D%7B/repo%7D",
            "subscriptions_url": "https://api.github.com/users/pinheadmz/subscriptions",
            "organizations_url": "https://api.github.com/users/pinheadmz/orgs",
            "repos_url": "https://api.github.com/users/pinheadmz/repos",
            "events_url": "https://api.github.com/users/pinheadmz/events%7B/privacy%7D",
            "received_events_url": "https://api.github.com/users/pinheadmz/received_events",
            "type": "User",
            "site_admin": false
          },
          "labels": [],
          "assignees": [],
          "author_association": "MEMBER",
          "locked": false,
          "comments": 7,
          "pull_request": {
            "url": "https://api.github.com/repos/bitcoin/bitcoin/pulls/28414",
            "html_url": "https://github.com/bitcoin/bitcoin/pull/28414",
            "diff_url": "https://github.com/bitcoin/bitcoin/pull/28414.diff",
            "patch_url": "https://github.com/bitcoin/bitcoin/pull/28414.patch"
          },
          "closed_at": "2023-09-12T16:28:31Z",
          "created_at": "2023-09-05T13:03:59Z",
          "updated_at": "2023-09-15T16:26:00Z"
        },
        "type": "issue"
      }
    },
    {
      "event": "subscribed",
      "id": 10385554910,
      "node_id": "SE_lADOABII585xLDnXzwAAAAJrBv3e",
      "url": "https://api.github.com/repos/bitcoin/bitcoin/issues/events/10385554910",
      "actor": {
        "login": "MarnixCroes",
        "id": 93143998,
        "node_id": "U_kgDOBY1Dvg",
        "avatar_url": "https://avatars.githubusercontent.com/u/93143998?v=4",
        "gravatar_id": "",
        "url": "https://api.github.com/users/MarnixCroes",
        "html_url": "https://github.com/MarnixCroes",
        "followers_url": "https://api.github.com/users/MarnixCroes/followers",
        "following_url": "https://api.github.com/users/MarnixCroes/following%7B/other_user%7D",
        "gists_url": "https://api.github.com/users/MarnixCroes/gists%7B/gist_id%7D",
        "starred_url": "https://api.github.com/users/MarnixCroes/starred%7B/owner%7D%7B/repo%7D",
        "subscriptions_url": "https://api.github.com/users/MarnixCroes/subscriptions",
        "organizations_url": "https://api.github.com/users/MarnixCroes/orgs",
        "repos_url": "https://api.github.com/users/MarnixCroes/repos",
        "events_url": "https://api.github.com/users/MarnixCroes/events%7B/privacy%7D",
        "received_events_url": "https://api.github.com/users/MarnixCroes/received_events",
        "type": "User",
        "site_admin": false
      },
      "commit_id": null,
      "commit_url": null,
      "created_at": "2023-09-15T16:44:04Z"
    },
    {
      "event": "reviewed",
      "id": 1629603033,
      "node_id": "PRR_kwDOABII585hIcTZ",
      "url": null,
      "actor": null,
      "commit_id": "a99e9e655a58b2364a74aec5cafb827a73c6b0c4",
      "commit_url": null,
      "created_at": null,
      "author_association": "MEMBER",
      "body": "ACK a99e9e655a58b2364a74aec5cafb827a73c6b0c4\r\n\r\nreviewed code and tested locally :+1:\r\n\r\n<details><summary>Show Signature</summary>\r\n\r\n```\r\n-----BEGIN PGP SIGNED MESSAGE-----\r\nHash: SHA256\r\n\r\nACK a99e9e655a58b2364a74aec5cafb827a73c6b0c4\r\n-----BEGIN PGP SIGNATURE-----\r\n\r\niQIzBAEBCAAdFiEE5hdzzW4BBA4vG9eM5+KYS2KJyToFAmUEszgACgkQ5+KYS2KJ\r\nyTqdKA//XiTF0aXFKBoFAxJLU1oPrMNTD5RpgP9mvSu0rHuKf8g1KvAqUv1doeUH\r\nA2/RpbWPxHJyivbg7S3h3Dfzfrzbh5TRCO+47zSiIKzINtJ92VG1CXwe+Uu7O35v\r\nEz6eUBk6tYeZOo+udIbtKXhQFfE8MQ8IiJ/qjJj4UGw1ehvJZ9FiKF80JHGv7HK0\r\npRVrZqNsYpQ44DYuwAxUJQuiz0uX/hPulpheAxdk1kAoFaVmWXH+YEhXfuvqwIPc\r\nFyTZE/BWaVYTQaT9S0bT0QXntq5L9x/jQI9fANrPZ10REpySHgD9uuJxfF1ZZ077\r\nrlLgq7S9+kY8kTr+mfXSgBJdr/dHQRnY9yrFrwUbLOZx0DI6Y439k0V1ZXmbuLmb\r\nxVQ78rNNomEUE3KznhiTXAmFiJEYKOnpEqOf8Dny/UQ4nuNUvEtzPJmm2f4hFkfC\r\nxM6C9bjZp2oYFyE0dKpp2Pcw6TDroUW8kdt4R21hm4rwWZ2gz0/JHlimPQP1qtPf\r\nPFy5gWSMM9P0z4F5xFZfqgaPDCxYEPQ5Zsu/WonS1oE8glIhVPLeE++vAtd0iqAZ\r\nIbs8qTFQDaZUlfkdyEVB+Bx+OykD67sFUd5f62579d08LeCaat1Hlddk0tuWbNXs\r\nTcTop9JnD9ihmWGyU6oM8agHO8EqXmJDccfEWXxf52BkutECzhM=\r\n=R4/T\r\n-----END PGP SIGNATURE-----\r\n```\r\n\r\npinheadmz's public key is [on keybase](https://keybase.io/pinheadmz/pgp_keys.asc?fingerprint=e61773cd6e01040e2f1bd78ce7e2984b6289c93a)\r\n</details>\r\n",
      "user": {
        "login": "pinheadmz",
        "id": 2084648,
        "node_id": "MDQ6VXNlcjIwODQ2NDg=",
        "avatar_url": "https://avatars.githubusercontent.com/u/2084648?v=4",
        "gravatar_id": "",
        "url": "https://api.github.com/users/pinheadmz",
        "html_url": "https://github.com/pinheadmz",
        "followers_url": "https://api.github.com/users/pinheadmz/followers",
        "following_url": "https://api.github.com/users/pinheadmz/following%7B/other_user%7D",
        "gists_url": "https://api.github.com/users/pinheadmz/gists%7B/gist_id%7D",
        "starred_url": "https://api.github.com/users/pinheadmz/starred%7B/owner%7D%7B/repo%7D",
        "subscriptions_url": "https://api.github.com/users/pinheadmz/subscriptions",
        "organizations_url": "https://api.github.com/users/pinheadmz/orgs",
        "repos_url": "https://api.github.com/users/pinheadmz/repos",
        "events_url": "https://api.github.com/users/pinheadmz/events%7B/privacy%7D",
        "received_events_url": "https://api.github.com/users/pinheadmz/received_events",
        "type": "User",
        "site_admin": false
      },
      "html_url": "https://github.com/bitcoin/bitcoin/pull/28492#pullrequestreview-1629603033",
      "submitted_at": "2023-09-15T19:41:06Z",
      "state": "APPROVED",
      "pull_request_url": "https://api.github.com/repos/bitcoin/bitcoin/pulls/28492"
    },
    {
      "event": "reviewed",
      "id": 1629478751,
      "node_id": "PRR_kwDOABII585hH99f",
      "url": null,
      "actor": null,
      "commit_id": "a99e9e655a58b2364a74aec5cafb827a73c6b0c4",
      "commit_url": null,
      "created_at": null,
      "author_association": "CONTRIBUTOR",
      "body": "ACK a99e9e655a58b2364a74aec5cafb827a73c6b0c4",
      "user": {
        "login": "ishaanam",
        "id": 75942586,
        "node_id": "MDQ6VXNlcjc1OTQyNTg2",
        "avatar_url": "https://avatars.githubusercontent.com/u/75942586?v=4",
        "gravatar_id": "",
        "url": "https://api.github.com/users/ishaanam",
        "html_url": "https://github.com/ishaanam",
        "followers_url": "https://api.github.com/users/ishaanam/followers",
        "following_url": "https://api.github.com/users/ishaanam/following%7B/other_user%7D",
        "gists_url": "https://api.github.com/users/ishaanam/gists%7B/gist_id%7D",
        "starred_url": "https://api.github.com/users/ishaanam/starred%7B/owner%7D%7B/repo%7D",
        "subscriptions_url": "https://api.github.com/users/ishaanam/subscriptions",
        "organizations_url": "https://api.github.com/users/ishaanam/orgs",
        "repos_url": "https://api.github.com/users/ishaanam/repos",
        "events_url": "https://api.github.com/users/ishaanam/events%7B/privacy%7D",
        "received_events_url": "https://api.github.com/users/ishaanam/received_events",
        "type": "User",
        "site_admin": false
      },
      "html_url": "https://github.com/bitcoin/bitcoin/pull/28492#pullrequestreview-1629478751",
      "submitted_at": "2023-09-16T01:52:23Z",
      "state": "COMMENTED",
      "pull_request_url": "https://api.github.com/repos/bitcoin/bitcoin/pulls/28492"
    },
    {
      "event": "commented",
      "id": 1732346496,
      "node_id": "IC_kwDOABII585nQYKA",
      "url": "https://api.github.com/repos/bitcoin/bitcoin/issues/comments/1732346496",
      "actor": {
        "login": "achow101",
        "id": 3782274,
        "node_id": "MDQ6VXNlcjM3ODIyNzQ=",
        "avatar_url": "https://avatars.githubusercontent.com/u/3782274?v=4",
        "gravatar_id": "",
        "url": "https://api.github.com/users/achow101",
        "html_url": "https://github.com/achow101",
        "followers_url": "https://api.github.com/users/achow101/followers",
        "following_url": "https://api.github.com/users/achow101/following%7B/other_user%7D",
        "gists_url": "https://api.github.com/users/achow101/gists%7B/gist_id%7D",
        "starred_url": "https://api.github.com/users/achow101/starred%7B/owner%7D%7B/repo%7D",
        "subscriptions_url": "https://api.github.com/users/achow101/subscriptions",
        "organizations_url": "https://api.github.com/users/achow101/orgs",
        "repos_url": "https://api.github.com/users/achow101/repos",
        "events_url": "https://api.github.com/users/achow101/events%7B/privacy%7D",
        "received_events_url": "https://api.github.com/users/achow101/received_events",
        "type": "User",
        "site_admin": false
      },
      "commit_id": null,
      "commit_url": null,
      "created_at": "2023-09-23T15:47:36Z",
      "updated_at": "2023-09-23T15:47:36Z",
      "author_association": "MEMBER",
      "body": "ACK a99e9e655a58b2364a74aec5cafb827a73c6b0c4",
      "user": {
        "login": "achow101",
        "id": 3782274,
        "node_id": "MDQ6VXNlcjM3ODIyNzQ=",
        "avatar_url": "https://avatars.githubusercontent.com/u/3782274?v=4",
        "gravatar_id": "",
        "url": "https://api.github.com/users/achow101",
        "html_url": "https://github.com/achow101",
        "followers_url": "https://api.github.com/users/achow101/followers",
        "following_url": "https://api.github.com/users/achow101/following%7B/other_user%7D",
        "gists_url": "https://api.github.com/users/achow101/gists%7B/gist_id%7D",
        "starred_url": "https://api.github.com/users/achow101/starred%7B/owner%7D%7B/repo%7D",
        "subscriptions_url": "https://api.github.com/users/achow101/subscriptions",
        "organizations_url": "https://api.github.com/users/achow101/orgs",
        "repos_url": "https://api.github.com/users/achow101/repos",
        "events_url": "https://api.github.com/users/achow101/events%7B/privacy%7D",
        "received_events_url": "https://api.github.com/users/achow101/received_events",
        "type": "User",
        "site_admin": false
      },
      "html_url": "https://github.com/bitcoin/bitcoin/pull/28492#issuecomment-1732346496",
      "issue_url": "https://api.github.com/repos/bitcoin/bitcoin/issues/28492"
    },
    {
      "event": "merged",
      "id": 10453465908,
      "node_id": "ME_lADOABII585xLDnXzwAAAAJvEzs0",
      "url": "https://api.github.com/repos/bitcoin/bitcoin/issues/events/10453465908",
      "actor": {
        "login": "achow101",
        "id": 3782274,
        "node_id": "MDQ6VXNlcjM3ODIyNzQ=",
        "avatar_url": "https://avatars.githubusercontent.com/u/3782274?v=4",
        "gravatar_id": "",
        "url": "https://api.github.com/users/achow101",
        "html_url": "https://github.com/achow101",
        "followers_url": "https://api.github.com/users/achow101/followers",
        "following_url": "https://api.github.com/users/achow101/following%7B/other_user%7D",
        "gists_url": "https://api.github.com/users/achow101/gists%7B/gist_id%7D",
        "starred_url": "https://api.github.com/users/achow101/starred%7B/owner%7D%7B/repo%7D",
        "subscriptions_url": "https://api.github.com/users/achow101/subscriptions",
        "organizations_url": "https://api.github.com/users/achow101/orgs",
        "repos_url": "https://api.github.com/users/achow101/repos",
        "events_url": "https://api.github.com/users/achow101/events%7B/privacy%7D",
        "received_events_url": "https://api.github.com/users/achow101/received_events",
        "type": "User",
        "site_admin": false
      },
      "commit_id": "719cb301e69fa15ceed61d6f0fbaebc5eb5c04a9",
      "commit_url": "https://api.github.com/repos/bitcoin/bitcoin/commits/719cb301e69fa15ceed61d6f0fbaebc5eb5c04a9",
      "created_at": "2023-09-23T15:56:03Z"
    },
    {
      "event": "closed",
      "id": 10453465915,
      "node_id": "CE_lADOABII585xLDnXzwAAAAJvEzs7",
      "url": "https://api.github.com/repos/bitcoin/bitcoin/issues/events/10453465915",
      "actor": {
        "login": "achow101",
        "id": 3782274,
        "node_id": "MDQ6VXNlcjM3ODIyNzQ=",
        "avatar_url": "https://avatars.githubusercontent.com/u/3782274?v=4",
        "gravatar_id": "",
        "url": "https://api.github.com/users/achow101",
        "html_url": "https://github.com/achow101",
        "followers_url": "https://api.github.com/users/achow101/followers",
        "following_url": "https://api.github.com/users/achow101/following%7B/other_user%7D",
        "gists_url": "https://api.github.com/users/achow101/gists%7B/gist_id%7D",
        "starred_url": "https://api.github.com/users/achow101/starred%7B/owner%7D%7B/repo%7D",
        "subscriptions_url": "https://api.github.com/users/achow101/subscriptions",
        "organizations_url": "https://api.github.com/users/achow101/orgs",
        "repos_url": "https://api.github.com/users/achow101/repos",
        "events_url": "https://api.github.com/users/achow101/events%7B/privacy%7D",
        "received_events_url": "https://api.github.com/users/achow101/received_events",
        "type": "User",
        "site_admin": false
      },
      "commit_id": null,
      "commit_url": null,
      "created_at": "2023-09-23T15:56:04Z"
    }
  ],
  "comments": [
    {
      "url": "https://api.github.com/repos/bitcoin/bitcoin/pulls/comments/1327626192",
      "pull_request_review_id": 1629478751,
      "id": 1327626192,
      "node_id": "PRRC_kwDOABII585PIffQ",
      "diff_hunk": "@@ -1,5 +1,6 @@\n RPC Wallet\n ----------\n \n-- RPC `walletprocesspsbt` return object now includes field `hex` (if the transaction\n-is complete) containing the serialized transaction suitable for RPC `sendrawtransaction`. (#28414)\n+- RPC `walletprocesspsbt`, and `descriptorprocesspsbt` return object now includes field `hex` (if the transaction\n+is complete) containing the serialized transaction suitable for RPC `sendrawtransaction`.",
      "path": "doc/release-notes-28414.md",
      "position": 7,
      "original_position": 7,
      "commit_id": "a99e9e655a58b2364a74aec5cafb827a73c6b0c4",
      "original_commit_id": "a99e9e655a58b2364a74aec5cafb827a73c6b0c4",
      "in_reply_to_id": null,
      "user": {
        "login": "ishaanam",
        "id": 75942586,
        "node_id": "MDQ6VXNlcjc1OTQyNTg2",
        "avatar_url": "https://avatars.githubusercontent.com/u/75942586?v=4",
        "gravatar_id": "",
        "url": "https://api.github.com/users/ishaanam",
        "html_url": "https://github.com/ishaanam",
        "followers_url": "https://api.github.com/users/ishaanam/followers",
        "following_url": "https://api.github.com/users/ishaanam/following%7B/other_user%7D",
        "gists_url": "https://api.github.com/users/ishaanam/gists%7B/gist_id%7D",
        "starred_url": "https://api.github.com/users/ishaanam/starred%7B/owner%7D%7B/repo%7D",
        "subscriptions_url": "https://api.github.com/users/ishaanam/subscriptions",
        "organizations_url": "https://api.github.com/users/ishaanam/orgs",
        "repos_url": "https://api.github.com/users/ishaanam/repos",
        "events_url": "https://api.github.com/users/ishaanam/events%7B/privacy%7D",
        "received_events_url": "https://api.github.com/users/ishaanam/received_events",
        "type": "User",
        "site_admin": false
      },
      "body": "nit: \r\n```suggestion\r\n- The `walletprocesspsbt` and `descriptorprocesspsbt` RPCs' return objects now include field `hex` (if the transaction\r\nis complete) containing the serialized transaction suitable for RPC `sendrawtransaction`.\r\n```",
      "created_at": "2023-09-15T18:01:30Z",
      "updated_at": "2023-09-16T01:52:23Z",
      "html_url": "https://github.com/bitcoin/bitcoin/pull/28492#discussion_r1327626192",
      "author_association": "CONTRIBUTOR",
      "_links": {
        "self": {
          "href": "https://api.github.com/repos/bitcoin/bitcoin/pulls/comments/1327626192"
        },
        "pull_request": {
          "href": "https://api.github.com/repos/bitcoin/bitcoin/pulls/28492"
        }
      },
      "start_line": 4,
      "original_start_line": 4,
      "start_side": "RIGHT",
      "line": 5,
      "original_line": 5,
      "side": "RIGHT"
    },
    {
      "url": "https://api.github.com/repos/bitcoin/bitcoin/pulls/comments/1327710021",
      "pull_request_review_id": 1629603033,
      "id": 1327710021,
      "node_id": "PRRC_kwDOABII585PIz9F",
      "diff_hunk": "@@ -978,17 +978,22 @@ def test_psbt_input_keys(psbt_input, keys):\n         test_psbt_input_keys(decoded['inputs'][0], ['witness_utxo', 'non_witness_utxo'])\n \n         # Test that the psbt is not finalized and does not have bip32_derivs unless specified\n-        psbt = self.nodes[2].descriptorprocesspsbt(psbt=psbt, descriptors=[descriptor], sighashtype=\"ALL\", bip32derivs=True, finalize=False)[\"psbt\"]\n-        decoded = self.nodes[2].decodepsbt(psbt)\n+        processed_psbt = self.nodes[2].descriptorprocesspsbt(psbt=psbt, descriptors=[descriptor], sighashtype=\"ALL\", bip32derivs=True, finalize=False)\n+        decoded = self.nodes[2].decodepsbt(processed_psbt['psbt'])\n         test_psbt_input_keys(decoded['inputs'][0], ['witness_utxo', 'non_witness_utxo', 'partial_signatures', 'bip32_derivs'])\n \n-        psbt = self.nodes[2].descriptorprocesspsbt(psbt=psbt, descriptors=[descriptor], sighashtype=\"ALL\", bip32derivs=False, finalize=True)[\"psbt\"]\n-        decoded = self.nodes[2].decodepsbt(psbt)\n+        # If psbt not finalized, test that result does not have hex\n+        assert \"hex\" not in processed_psbt\n+\n+        processed_psbt = self.nodes[2].descriptorprocesspsbt(psbt=psbt, descriptors=[descriptor], sighashtype=\"ALL\", bip32derivs=False, finalize=True)\n+        decoded = self.nodes[2].decodepsbt(processed_psbt['psbt'])",
      "path": "test/functional/rpc_psbt.py",
      "position": 16,
      "original_position": 16,
      "commit_id": "a99e9e655a58b2364a74aec5cafb827a73c6b0c4",
      "original_commit_id": "a99e9e655a58b2364a74aec5cafb827a73c6b0c4",
      "in_reply_to_id": null,
      "user": {
        "login": "pinheadmz",
        "id": 2084648,
        "node_id": "MDQ6VXNlcjIwODQ2NDg=",
        "avatar_url": "https://avatars.githubusercontent.com/u/2084648?v=4",
        "gravatar_id": "",
        "url": "https://api.github.com/users/pinheadmz",
        "html_url": "https://github.com/pinheadmz",
        "followers_url": "https://api.github.com/users/pinheadmz/followers",
        "following_url": "https://api.github.com/users/pinheadmz/following%7B/other_user%7D",
        "gists_url": "https://api.github.com/users/pinheadmz/gists%7B/gist_id%7D",
        "starred_url": "https://api.github.com/users/pinheadmz/starred%7B/owner%7D%7B/repo%7D",
        "subscriptions_url": "https://api.github.com/users/pinheadmz/subscriptions",
        "organizations_url": "https://api.github.com/users/pinheadmz/orgs",
        "repos_url": "https://api.github.com/users/pinheadmz/repos",
        "events_url": "https://api.github.com/users/pinheadmz/events%7B/privacy%7D",
        "received_events_url": "https://api.github.com/users/pinheadmz/received_events",
        "type": "User",
        "site_admin": false
      },
      "body": "nit: might be cleaner to not re-use variable names `processed_psbt` and `decoded` but im not sure how strict we are about stuff like that in tests",
      "created_at": "2023-09-15T19:37:16Z",
      "updated_at": "2023-09-15T19:41:06Z",
      "html_url": "https://github.com/bitcoin/bitcoin/pull/28492#discussion_r1327710021",
      "author_association": "MEMBER",
      "_links": {
        "self": {
          "href": "https://api.github.com/repos/bitcoin/bitcoin/pulls/comments/1327710021"
        },
        "pull_request": {
          "href": "https://api.github.com/repos/bitcoin/bitcoin/pulls/28492"
        }
      },
      "start_line": 988,
      "original_start_line": 988,
      "start_side": "RIGHT",
      "line": 989,
      "original_line": 989,
      "side": "RIGHT"
    },
    {
      "url": "https://api.github.com/repos/bitcoin/bitcoin/pulls/comments/1334767521",
      "pull_request_review_id": 1640563526,
      "id": 1334767521,
      "node_id": "PRRC_kwDOABII585Pju-h",
      "diff_hunk": "@@ -1,5 +1,6 @@\n RPC Wallet\n ----------\n \n-- RPC `walletprocesspsbt` return object now includes field `hex` (if the transaction\n-is complete) containing the serialized transaction suitable for RPC `sendrawtransaction`. (#28414)\n+- RPC `walletprocesspsbt`, and `descriptorprocesspsbt` return object now includes field `hex` (if the transaction\n+is complete) containing the serialized transaction suitable for RPC `sendrawtransaction`.",
      "path": "doc/release-notes-28414.md",
      "position": 7,
      "original_position": 7,
      "commit_id": "a99e9e655a58b2364a74aec5cafb827a73c6b0c4",
      "original_commit_id": "a99e9e655a58b2364a74aec5cafb827a73c6b0c4",
      "in_reply_to_id": 1327626192,
      "user": {
        "login": "ismaelsadeeq",
        "id": 48946461,
        "node_id": "MDQ6VXNlcjQ4OTQ2NDYx",
        "avatar_url": "https://avatars.githubusercontent.com/u/48946461?v=4",
        "gravatar_id": "",
        "url": "https://api.github.com/users/ismaelsadeeq",
        "html_url": "https://github.com/ismaelsadeeq",
        "followers_url": "https://api.github.com/users/ismaelsadeeq/followers",
        "following_url": "https://api.github.com/users/ismaelsadeeq/following%7B/other_user%7D",
        "gists_url": "https://api.github.com/users/ismaelsadeeq/gists%7B/gist_id%7D",
        "starred_url": "https://api.github.com/users/ismaelsadeeq/starred%7B/owner%7D%7B/repo%7D",
        "subscriptions_url": "https://api.github.com/users/ismaelsadeeq/subscriptions",
        "organizations_url": "https://api.github.com/users/ismaelsadeeq/orgs",
        "repos_url": "https://api.github.com/users/ismaelsadeeq/repos",
        "events_url": "https://api.github.com/users/ismaelsadeeq/events%7B/privacy%7D",
        "received_events_url": "https://api.github.com/users/ismaelsadeeq/received_events",
        "type": "User",
        "site_admin": false
      },
      "body": "Thanks, this basically means the same thing IMO,  resolving this.",
      "created_at": "2023-09-22T19:55:02Z",
      "updated_at": "2023-09-22T19:55:03Z",
      "html_url": "https://github.com/bitcoin/bitcoin/pull/28492#discussion_r1334767521",
      "author_association": "CONTRIBUTOR",
      "_links": {
        "self": {
          "href": "https://api.github.com/repos/bitcoin/bitcoin/pulls/comments/1334767521"
        },
        "pull_request": {
          "href": "https://api.github.com/repos/bitcoin/bitcoin/pulls/28492"
        }
      },
      "start_line": 4,
      "original_start_line": 4,
      "start_side": "RIGHT",
      "line": 5,
      "original_line": 5,
      "side": "RIGHT"
    },
    {
      "url": "https://api.github.com/repos/bitcoin/bitcoin/pulls/comments/1334773910",
      "pull_request_review_id": 1640574048,
      "id": 1334773910,
      "node_id": "PRRC_kwDOABII585PjwiW",
      "diff_hunk": "@@ -978,17 +978,22 @@ def test_psbt_input_keys(psbt_input, keys):\n         test_psbt_input_keys(decoded['inputs'][0], ['witness_utxo', 'non_witness_utxo'])\n \n         # Test that the psbt is not finalized and does not have bip32_derivs unless specified\n-        psbt = self.nodes[2].descriptorprocesspsbt(psbt=psbt, descriptors=[descriptor], sighashtype=\"ALL\", bip32derivs=True, finalize=False)[\"psbt\"]\n-        decoded = self.nodes[2].decodepsbt(psbt)\n+        processed_psbt = self.nodes[2].descriptorprocesspsbt(psbt=psbt, descriptors=[descriptor], sighashtype=\"ALL\", bip32derivs=True, finalize=False)\n+        decoded = self.nodes[2].decodepsbt(processed_psbt['psbt'])\n         test_psbt_input_keys(decoded['inputs'][0], ['witness_utxo', 'non_witness_utxo', 'partial_signatures', 'bip32_derivs'])\n \n-        psbt = self.nodes[2].descriptorprocesspsbt(psbt=psbt, descriptors=[descriptor], sighashtype=\"ALL\", bip32derivs=False, finalize=True)[\"psbt\"]\n-        decoded = self.nodes[2].decodepsbt(psbt)\n+        # If psbt not finalized, test that result does not have hex\n+        assert \"hex\" not in processed_psbt\n+\n+        processed_psbt = self.nodes[2].descriptorprocesspsbt(psbt=psbt, descriptors=[descriptor], sighashtype=\"ALL\", bip32derivs=False, finalize=True)\n+        decoded = self.nodes[2].decodepsbt(processed_psbt['psbt'])",
      "path": "test/functional/rpc_psbt.py",
      "position": 16,
      "original_position": 16,
      "commit_id": "a99e9e655a58b2364a74aec5cafb827a73c6b0c4",
      "original_commit_id": "a99e9e655a58b2364a74aec5cafb827a73c6b0c4",
      "in_reply_to_id": 1327710021,
      "user": {
        "login": "ismaelsadeeq",
        "id": 48946461,
        "node_id": "MDQ6VXNlcjQ4OTQ2NDYx",
        "avatar_url": "https://avatars.githubusercontent.com/u/48946461?v=4",
        "gravatar_id": "",
        "url": "https://api.github.com/users/ismaelsadeeq",
        "html_url": "https://github.com/ismaelsadeeq",
        "followers_url": "https://api.github.com/users/ismaelsadeeq/followers",
        "following_url": "https://api.github.com/users/ismaelsadeeq/following%7B/other_user%7D",
        "gists_url": "https://api.github.com/users/ismaelsadeeq/gists%7B/gist_id%7D",
        "starred_url": "https://api.github.com/users/ismaelsadeeq/starred%7B/owner%7D%7B/repo%7D",
        "subscriptions_url": "https://api.github.com/users/ismaelsadeeq/subscriptions",
        "organizations_url": "https://api.github.com/users/ismaelsadeeq/orgs",
        "repos_url": "https://api.github.com/users/ismaelsadeeq/repos",
        "events_url": "https://api.github.com/users/ismaelsadeeq/events%7B/privacy%7D",
        "received_events_url": "https://api.github.com/users/ismaelsadeeq/received_events",
        "type": "User",
        "site_admin": false
      },
      "body": "Thanks for your review!\r\nWill use distinct variable names in future contribution, but happy to update this if another reviewer ask for it.",
      "created_at": "2023-09-22T20:03:51Z",
      "updated_at": "2023-09-22T20:03:51Z",
      "html_url": "https://github.com/bitcoin/bitcoin/pull/28492#discussion_r1334773910",
      "author_association": "CONTRIBUTOR",
      "_links": {
        "self": {
          "href": "https://api.github.com/repos/bitcoin/bitcoin/pulls/comments/1334773910"
        },
        "pull_request": {
          "href": "https://api.github.com/repos/bitcoin/bitcoin/pulls/28492"
        }
      },
      "start_line": 988,
      "original_start_line": 988,
      "start_side": "RIGHT",
      "line": 989,
      "original_line": 989,
      "side": "RIGHT"
    }
  ]
}