{
  "type": "pull",
  "pull": {
    "url": "https://api.github.com/repos/bitcoin/bitcoin/pulls/28578",
    "id": 1540943768,
    "node_id": "PR_kwDOABII585b2O-Y",
    "html_url": "https://github.com/bitcoin/bitcoin/pull/28578",
    "diff_url": "https://github.com/bitcoin/bitcoin/pull/28578.diff",
    "patch_url": "https://github.com/bitcoin/bitcoin/pull/28578.patch",
    "issue_url": "https://api.github.com/repos/bitcoin/bitcoin/issues/28578",
    "commits_url": "https://api.github.com/repos/bitcoin/bitcoin/pulls/28578/commits",
    "review_comments_url": "https://api.github.com/repos/bitcoin/bitcoin/pulls/28578/comments",
    "review_comment_url": "https://api.github.com/repos/bitcoin/bitcoin/pulls/comments%7B/number%7D",
    "comments_url": "https://api.github.com/repos/bitcoin/bitcoin/issues/28578/comments",
    "statuses_url": "https://api.github.com/repos/bitcoin/bitcoin/statuses/2f31c32fe27ee49d8397b3fd3ac2bea753273701",
    "number": 28578,
    "state": "open",
    "locked": false,
    "maintainer_can_modify": true,
    "title": "fuzz: add target for `DescriptorScriptPubKeyMan`",
    "user": {
      "login": "brunoerg",
      "id": 19480819,
      "node_id": "MDQ6VXNlcjE5NDgwODE5",
      "avatar_url": "https://avatars.githubusercontent.com/u/19480819?v=4",
      "gravatar_id": "",
      "url": "https://api.github.com/users/brunoerg",
      "html_url": "https://github.com/brunoerg",
      "followers_url": "https://api.github.com/users/brunoerg/followers",
      "following_url": "https://api.github.com/users/brunoerg/following%7B/other_user%7D",
      "gists_url": "https://api.github.com/users/brunoerg/gists%7B/gist_id%7D",
      "starred_url": "https://api.github.com/users/brunoerg/starred%7B/owner%7D%7B/repo%7D",
      "subscriptions_url": "https://api.github.com/users/brunoerg/subscriptions",
      "organizations_url": "https://api.github.com/users/brunoerg/orgs",
      "repos_url": "https://api.github.com/users/brunoerg/repos",
      "events_url": "https://api.github.com/users/brunoerg/events%7B/privacy%7D",
      "received_events_url": "https://api.github.com/users/brunoerg/received_events",
      "type": "User",
      "site_admin": false
    },
    "body": "This PR adds fuzz target for `DescriptorScriptPubKeyMan`. Also, moves `MockedDescriptorConverter` to `fuzz/util/descriptor` to be used here and in `descriptor` target.",
    "labels": [
      {
        "id": 62963516,
        "node_id": "MDU6TGFiZWw2Mjk2MzUxNg==",
        "url": "https://api.github.com/repos/bitcoin/bitcoin/labels/Tests",
        "name": "Tests",
        "color": "d4c5f9",
        "default": false
      }
    ],
    "created_at": "2023-10-04T01:03:23Z",
    "updated_at": "2023-11-06T22:32:05Z",
    "mergeable": true,
    "mergeable_state": "blocked",
    "merge_commit_sha": "a8eb5a9950e203aab54df3a77e5d918026937a7f",
    "assignees": [],
    "requested_reviewers": [],
    "requested_teams": [],
    "rebaseable": true,
    "head": {
      "label": "brunoerg:2023-07-fuzz-scriptpubkey-descriptor",
      "ref": "2023-07-fuzz-scriptpubkey-descriptor",
      "sha": "2f31c32fe27ee49d8397b3fd3ac2bea753273701",
      "user": {
        "login": "brunoerg",
        "id": 19480819,
        "node_id": "MDQ6VXNlcjE5NDgwODE5",
        "avatar_url": "https://avatars.githubusercontent.com/u/19480819?v=4",
        "gravatar_id": "",
        "url": "https://api.github.com/users/brunoerg",
        "html_url": "https://github.com/brunoerg",
        "followers_url": "https://api.github.com/users/brunoerg/followers",
        "following_url": "https://api.github.com/users/brunoerg/following%7B/other_user%7D",
        "gists_url": "https://api.github.com/users/brunoerg/gists%7B/gist_id%7D",
        "starred_url": "https://api.github.com/users/brunoerg/starred%7B/owner%7D%7B/repo%7D",
        "subscriptions_url": "https://api.github.com/users/brunoerg/subscriptions",
        "organizations_url": "https://api.github.com/users/brunoerg/orgs",
        "repos_url": "https://api.github.com/users/brunoerg/repos",
        "events_url": "https://api.github.com/users/brunoerg/events%7B/privacy%7D",
        "received_events_url": "https://api.github.com/users/brunoerg/received_events",
        "type": "User",
        "site_admin": false
      },
      "repo": {
        "id": 267841305,
        "node_id": "MDEwOlJlcG9zaXRvcnkyNjc4NDEzMDU=",
        "name": "bitcoin",
        "full_name": "brunoerg/bitcoin",
        "owner": {
          "login": "brunoerg",
          "id": 19480819,
          "node_id": "MDQ6VXNlcjE5NDgwODE5",
          "avatar_url": "https://avatars.githubusercontent.com/u/19480819?v=4",
          "gravatar_id": "",
          "url": "https://api.github.com/users/brunoerg",
          "html_url": "https://github.com/brunoerg",
          "followers_url": "https://api.github.com/users/brunoerg/followers",
          "following_url": "https://api.github.com/users/brunoerg/following%7B/other_user%7D",
          "gists_url": "https://api.github.com/users/brunoerg/gists%7B/gist_id%7D",
          "starred_url": "https://api.github.com/users/brunoerg/starred%7B/owner%7D%7B/repo%7D",
          "subscriptions_url": "https://api.github.com/users/brunoerg/subscriptions",
          "organizations_url": "https://api.github.com/users/brunoerg/orgs",
          "repos_url": "https://api.github.com/users/brunoerg/repos",
          "events_url": "https://api.github.com/users/brunoerg/events%7B/privacy%7D",
          "received_events_url": "https://api.github.com/users/brunoerg/received_events",
          "type": "User",
          "site_admin": false
        },
        "private": false,
        "html_url": "https://github.com/brunoerg/bitcoin",
        "description": "Bitcoin Core integration/staging tree",
        "fork": true,
        "url": "https://api.github.com/repos/brunoerg/bitcoin",
        "archive_url": "https://api.github.com/repos/brunoerg/bitcoin/%7Barchive_format%7D%7B/ref%7D",
        "assignees_url": "https://api.github.com/repos/brunoerg/bitcoin/assignees%7B/user%7D",
        "blobs_url": "https://api.github.com/repos/brunoerg/bitcoin/git/blobs%7B/sha%7D",
        "branches_url": "https://api.github.com/repos/brunoerg/bitcoin/branches%7B/branch%7D",
        "collaborators_url": "https://api.github.com/repos/brunoerg/bitcoin/collaborators%7B/collaborator%7D",
        "comments_url": "https://api.github.com/repos/brunoerg/bitcoin/comments%7B/number%7D",
        "commits_url": "https://api.github.com/repos/brunoerg/bitcoin/commits%7B/sha%7D",
        "compare_url": "https://api.github.com/repos/brunoerg/bitcoin/compare/%7Bbase%7D...%7Bhead%7D",
        "contents_url": "https://api.github.com/repos/brunoerg/bitcoin/contents/%7B+path%7D",
        "contributors_url": "https://api.github.com/repos/brunoerg/bitcoin/contributors",
        "deployments_url": "https://api.github.com/repos/brunoerg/bitcoin/deployments",
        "downloads_url": "https://api.github.com/repos/brunoerg/bitcoin/downloads",
        "events_url": "https://api.github.com/repos/brunoerg/bitcoin/events",
        "forks_url": "https://api.github.com/repos/brunoerg/bitcoin/forks",
        "git_commits_url": "https://api.github.com/repos/brunoerg/bitcoin/git/commits%7B/sha%7D",
        "git_refs_url": "https://api.github.com/repos/brunoerg/bitcoin/git/refs%7B/sha%7D",
        "git_tags_url": "https://api.github.com/repos/brunoerg/bitcoin/git/tags%7B/sha%7D",
        "git_url": "git://github.com/brunoerg/bitcoin.git",
        "issue_comment_url": "https://api.github.com/repos/brunoerg/bitcoin/issues/comments%7B/number%7D",
        "issue_events_url": "https://api.github.com/repos/brunoerg/bitcoin/issues/events%7B/number%7D",
        "issues_url": "https://api.github.com/repos/brunoerg/bitcoin/issues%7B/number%7D",
        "keys_url": "https://api.github.com/repos/brunoerg/bitcoin/keys%7B/key_id%7D",
        "labels_url": "https://api.github.com/repos/brunoerg/bitcoin/labels%7B/name%7D",
        "languages_url": "https://api.github.com/repos/brunoerg/bitcoin/languages",
        "merges_url": "https://api.github.com/repos/brunoerg/bitcoin/merges",
        "milestones_url": "https://api.github.com/repos/brunoerg/bitcoin/milestones%7B/number%7D",
        "notifications_url": "https://api.github.com/repos/brunoerg/bitcoin/notifications%7B?since,all,participating}",
        "pulls_url": "https://api.github.com/repos/brunoerg/bitcoin/pulls%7B/number%7D",
        "releases_url": "https://api.github.com/repos/brunoerg/bitcoin/releases%7B/id%7D",
        "ssh_url": "git@github.com:brunoerg/bitcoin.git",
        "stargazers_url": "https://api.github.com/repos/brunoerg/bitcoin/stargazers",
        "statuses_url": "https://api.github.com/repos/brunoerg/bitcoin/statuses/%7Bsha%7D",
        "subscribers_url": "https://api.github.com/repos/brunoerg/bitcoin/subscribers",
        "subscription_url": "https://api.github.com/repos/brunoerg/bitcoin/subscription",
        "tags_url": "https://api.github.com/repos/brunoerg/bitcoin/tags",
        "teams_url": "https://api.github.com/repos/brunoerg/bitcoin/teams",
        "trees_url": "https://api.github.com/repos/brunoerg/bitcoin/git/trees%7B/sha%7D",
        "clone_url": "https://github.com/brunoerg/bitcoin.git",
        "hooks_url": "https://api.github.com/repos/brunoerg/bitcoin/hooks",
        "svn_url": "https://github.com/brunoerg/bitcoin",
        "homepage": "https://bitcoincore.org/en/download",
        "language": "C++",
        "forks_count": 0,
        "stargazers_count": 3,
        "watchers_count": 3,
        "size": 228758,
        "default_branch": "master",
        "open_issues_count": 0,
        "is_template": false,
        "topics": [],
        "has_issues": false,
        "has_projects": true,
        "has_wiki": false,
        "has_pages": false,
        "has_downloads": false,
        "archived": false,
        "disabled": false,
        "visibility": "public",
        "pushed_at": "2023-10-31T11:51:49Z",
        "created_at": "2020-05-29T11:30:10Z",
        "updated_at": "2022-12-07T18:05:58Z",
        "license": {
          "key": "mit",
          "name": "MIT License",
          "node_id": "MDc6TGljZW5zZTEz",
          "spdx_id": "MIT",
          "url": "https://api.github.com/licenses/mit",
          "html_url": null,
          "description": null,
          "implementation": null,
          "permissions": null,
          "conditions": null,
          "limitations": null,
          "body": null,
          "featured": null
        }
      }
    },
    "base": {
      "label": "bitcoin:master",
      "ref": "master",
      "sha": "5ea4fc05edde66c5c90383bc054590dfbdb2b645",
      "user": {
        "login": "bitcoin",
        "id": 528860,
        "node_id": "MDEyOk9yZ2FuaXphdGlvbjUyODg2MA==",
        "avatar_url": "https://avatars.githubusercontent.com/u/528860?v=4",
        "gravatar_id": "",
        "url": "https://api.github.com/users/bitcoin",
        "html_url": "https://github.com/bitcoin",
        "followers_url": "https://api.github.com/users/bitcoin/followers",
        "following_url": "https://api.github.com/users/bitcoin/following%7B/other_user%7D",
        "gists_url": "https://api.github.com/users/bitcoin/gists%7B/gist_id%7D",
        "starred_url": "https://api.github.com/users/bitcoin/starred%7B/owner%7D%7B/repo%7D",
        "subscriptions_url": "https://api.github.com/users/bitcoin/subscriptions",
        "organizations_url": "https://api.github.com/users/bitcoin/orgs",
        "repos_url": "https://api.github.com/users/bitcoin/repos",
        "events_url": "https://api.github.com/users/bitcoin/events%7B/privacy%7D",
        "received_events_url": "https://api.github.com/users/bitcoin/received_events",
        "type": "Organization",
        "site_admin": false
      },
      "repo": {
        "id": 1181927,
        "node_id": "MDEwOlJlcG9zaXRvcnkxMTgxOTI3",
        "name": "bitcoin",
        "full_name": "bitcoin/bitcoin",
        "owner": {
          "login": "bitcoin",
          "id": 528860,
          "node_id": "MDEyOk9yZ2FuaXphdGlvbjUyODg2MA==",
          "avatar_url": "https://avatars.githubusercontent.com/u/528860?v=4",
          "gravatar_id": "",
          "url": "https://api.github.com/users/bitcoin",
          "html_url": "https://github.com/bitcoin",
          "followers_url": "https://api.github.com/users/bitcoin/followers",
          "following_url": "https://api.github.com/users/bitcoin/following%7B/other_user%7D",
          "gists_url": "https://api.github.com/users/bitcoin/gists%7B/gist_id%7D",
          "starred_url": "https://api.github.com/users/bitcoin/starred%7B/owner%7D%7B/repo%7D",
          "subscriptions_url": "https://api.github.com/users/bitcoin/subscriptions",
          "organizations_url": "https://api.github.com/users/bitcoin/orgs",
          "repos_url": "https://api.github.com/users/bitcoin/repos",
          "events_url": "https://api.github.com/users/bitcoin/events%7B/privacy%7D",
          "received_events_url": "https://api.github.com/users/bitcoin/received_events",
          "type": "Organization",
          "site_admin": false
        },
        "private": false,
        "html_url": "https://github.com/bitcoin/bitcoin",
        "description": "Bitcoin Core integration/staging tree",
        "fork": false,
        "url": "https://api.github.com/repos/bitcoin/bitcoin",
        "archive_url": "https://api.github.com/repos/bitcoin/bitcoin/%7Barchive_format%7D%7B/ref%7D",
        "assignees_url": "https://api.github.com/repos/bitcoin/bitcoin/assignees%7B/user%7D",
        "blobs_url": "https://api.github.com/repos/bitcoin/bitcoin/git/blobs%7B/sha%7D",
        "branches_url": "https://api.github.com/repos/bitcoin/bitcoin/branches%7B/branch%7D",
        "collaborators_url": "https://api.github.com/repos/bitcoin/bitcoin/collaborators%7B/collaborator%7D",
        "comments_url": "https://api.github.com/repos/bitcoin/bitcoin/comments%7B/number%7D",
        "commits_url": "https://api.github.com/repos/bitcoin/bitcoin/commits%7B/sha%7D",
        "compare_url": "https://api.github.com/repos/bitcoin/bitcoin/compare/%7Bbase%7D...%7Bhead%7D",
        "contents_url": "https://api.github.com/repos/bitcoin/bitcoin/contents/%7B+path%7D",
        "contributors_url": "https://api.github.com/repos/bitcoin/bitcoin/contributors",
        "deployments_url": "https://api.github.com/repos/bitcoin/bitcoin/deployments",
        "downloads_url": "https://api.github.com/repos/bitcoin/bitcoin/downloads",
        "events_url": "https://api.github.com/repos/bitcoin/bitcoin/events",
        "forks_url": "https://api.github.com/repos/bitcoin/bitcoin/forks",
        "git_commits_url": "https://api.github.com/repos/bitcoin/bitcoin/git/commits%7B/sha%7D",
        "git_refs_url": "https://api.github.com/repos/bitcoin/bitcoin/git/refs%7B/sha%7D",
        "git_tags_url": "https://api.github.com/repos/bitcoin/bitcoin/git/tags%7B/sha%7D",
        "git_url": "git://github.com/bitcoin/bitcoin.git",
        "issue_comment_url": "https://api.github.com/repos/bitcoin/bitcoin/issues/comments%7B/number%7D",
        "issue_events_url": "https://api.github.com/repos/bitcoin/bitcoin/issues/events%7B/number%7D",
        "issues_url": "https://api.github.com/repos/bitcoin/bitcoin/issues%7B/number%7D",
        "keys_url": "https://api.github.com/repos/bitcoin/bitcoin/keys%7B/key_id%7D",
        "labels_url": "https://api.github.com/repos/bitcoin/bitcoin/labels%7B/name%7D",
        "languages_url": "https://api.github.com/repos/bitcoin/bitcoin/languages",
        "merges_url": "https://api.github.com/repos/bitcoin/bitcoin/merges",
        "milestones_url": "https://api.github.com/repos/bitcoin/bitcoin/milestones%7B/number%7D",
        "notifications_url": "https://api.github.com/repos/bitcoin/bitcoin/notifications%7B?since,all,participating}",
        "pulls_url": "https://api.github.com/repos/bitcoin/bitcoin/pulls%7B/number%7D",
        "releases_url": "https://api.github.com/repos/bitcoin/bitcoin/releases%7B/id%7D",
        "ssh_url": "git@github.com:bitcoin/bitcoin.git",
        "stargazers_url": "https://api.github.com/repos/bitcoin/bitcoin/stargazers",
        "statuses_url": "https://api.github.com/repos/bitcoin/bitcoin/statuses/%7Bsha%7D",
        "subscribers_url": "https://api.github.com/repos/bitcoin/bitcoin/subscribers",
        "subscription_url": "https://api.github.com/repos/bitcoin/bitcoin/subscription",
        "tags_url": "https://api.github.com/repos/bitcoin/bitcoin/tags",
        "teams_url": "https://api.github.com/repos/bitcoin/bitcoin/teams",
        "trees_url": "https://api.github.com/repos/bitcoin/bitcoin/git/trees%7B/sha%7D",
        "clone_url": "https://github.com/bitcoin/bitcoin.git",
        "hooks_url": "https://api.github.com/repos/bitcoin/bitcoin/hooks",
        "svn_url": "https://github.com/bitcoin/bitcoin",
        "homepage": "https://bitcoincore.org/en/download",
        "language": "C++",
        "forks_count": 35921,
        "stargazers_count": 72039,
        "watchers_count": 72039,
        "size": 244440,
        "default_branch": "master",
        "open_issues_count": 635,
        "is_template": false,
        "topics": [
          "bitcoin",
          "c-plus-plus",
          "cryptocurrency",
          "cryptography",
          "p2p"
        ],
        "has_issues": true,
        "has_projects": true,
        "has_wiki": false,
        "has_pages": false,
        "has_downloads": false,
        "archived": false,
        "disabled": false,
        "visibility": "public",
        "pushed_at": "2023-11-06T22:50:01Z",
        "created_at": "2010-12-19T15:16:43Z",
        "updated_at": "2023-11-06T22:07:52Z",
        "license": {
          "key": "mit",
          "name": "MIT License",
          "node_id": "MDc6TGljZW5zZTEz",
          "spdx_id": "MIT",
          "url": "https://api.github.com/licenses/mit",
          "html_url": null,
          "description": null,
          "implementation": null,
          "permissions": null,
          "conditions": null,
          "limitations": null,
          "body": null,
          "featured": null
        }
      }
    },
    "_links": {
      "self": {
        "href": "https://api.github.com/repos/bitcoin/bitcoin/pulls/28578"
      }
    },
    "author_association": "CONTRIBUTOR",
    "draft": false,
    "additions": 247,
    "deletions": 96,
    "changed_files": 6,
    "commits": 2,
    "review_comments": 7,
    "comments": 8
  },
  "events": [
    {
      "event": "commented",
      "id": 1745970922,
      "node_id": "IC_kwDOABII585oEWbq",
      "url": "https://api.github.com/repos/bitcoin/bitcoin/issues/comments/1745970922",
      "actor": {
        "login": "DrahtBot",
        "id": 39886733,
        "node_id": "MDQ6VXNlcjM5ODg2NzMz",
        "avatar_url": "https://avatars.githubusercontent.com/u/39886733?v=4",
        "gravatar_id": "",
        "url": "https://api.github.com/users/DrahtBot",
        "html_url": "https://github.com/DrahtBot",
        "followers_url": "https://api.github.com/users/DrahtBot/followers",
        "following_url": "https://api.github.com/users/DrahtBot/following%7B/other_user%7D",
        "gists_url": "https://api.github.com/users/DrahtBot/gists%7B/gist_id%7D",
        "starred_url": "https://api.github.com/users/DrahtBot/starred%7B/owner%7D%7B/repo%7D",
        "subscriptions_url": "https://api.github.com/users/DrahtBot/subscriptions",
        "organizations_url": "https://api.github.com/users/DrahtBot/orgs",
        "repos_url": "https://api.github.com/users/DrahtBot/repos",
        "events_url": "https://api.github.com/users/DrahtBot/events%7B/privacy%7D",
        "received_events_url": "https://api.github.com/users/DrahtBot/received_events",
        "type": "User",
        "site_admin": false
      },
      "commit_id": null,
      "commit_url": null,
      "created_at": "2023-10-04T01:03:26Z",
      "updated_at": "2023-11-06T22:32:05Z",
      "author_association": "CONTRIBUTOR",
      "body": "<!--e57a25ab6845829454e8d69fc972939a-->\n\nThe following sections might be updated with supplementary metadata relevant to reviewers and maintainers.\n\n<!--006a51241073e994b41acfe9ec718e94-->\n### Code Coverage\nFor detailed information about the code coverage, see the [test coverage report](https://corecheck.dev/bitcoin/bitcoin/pulls/28578).\n<!--021abf342d371248e50ceaed478a90ca-->\n### Reviews\nSee [the guideline](https://github.com/bitcoin/bitcoin/blob/master/CONTRIBUTING.md#code-review) for information on the review process.\n| Type | Reviewers |\n| ---- | --------- |\n| Concept ACK | [Ayush170-Future](https://github.com/bitcoin/bitcoin/pull/28578#pullrequestreview-1713827504) |\n\nIf your review is incorrectly listed, please react with 👎 to this comment and the bot will ignore it on the next update.\n<!--174a7506f384e20aa4161008e828411d-->\n### Conflicts\nNo conflicts as of last run.\n",
      "user": {
        "login": "DrahtBot",
        "id": 39886733,
        "node_id": "MDQ6VXNlcjM5ODg2NzMz",
        "avatar_url": "https://avatars.githubusercontent.com/u/39886733?v=4",
        "gravatar_id": "",
        "url": "https://api.github.com/users/DrahtBot",
        "html_url": "https://github.com/DrahtBot",
        "followers_url": "https://api.github.com/users/DrahtBot/followers",
        "following_url": "https://api.github.com/users/DrahtBot/following%7B/other_user%7D",
        "gists_url": "https://api.github.com/users/DrahtBot/gists%7B/gist_id%7D",
        "starred_url": "https://api.github.com/users/DrahtBot/starred%7B/owner%7D%7B/repo%7D",
        "subscriptions_url": "https://api.github.com/users/DrahtBot/subscriptions",
        "organizations_url": "https://api.github.com/users/DrahtBot/orgs",
        "repos_url": "https://api.github.com/users/DrahtBot/repos",
        "events_url": "https://api.github.com/users/DrahtBot/events%7B/privacy%7D",
        "received_events_url": "https://api.github.com/users/DrahtBot/received_events",
        "type": "User",
        "site_admin": false
      },
      "html_url": "https://github.com/bitcoin/bitcoin/pull/28578#issuecomment-1745970922",
      "issue_url": "https://api.github.com/repos/bitcoin/bitcoin/issues/28578"
    },
    {
      "event": "labeled",
      "id": 10544896081,
      "node_id": "LE_lADOABII585ywEKZzwAAAAJ0hlhR",
      "url": "https://api.github.com/repos/bitcoin/bitcoin/issues/events/10544896081",
      "actor": {
        "login": "DrahtBot",
        "id": 39886733,
        "node_id": "MDQ6VXNlcjM5ODg2NzMz",
        "avatar_url": "https://avatars.githubusercontent.com/u/39886733?v=4",
        "gravatar_id": "",
        "url": "https://api.github.com/users/DrahtBot",
        "html_url": "https://github.com/DrahtBot",
        "followers_url": "https://api.github.com/users/DrahtBot/followers",
        "following_url": "https://api.github.com/users/DrahtBot/following%7B/other_user%7D",
        "gists_url": "https://api.github.com/users/DrahtBot/gists%7B/gist_id%7D",
        "starred_url": "https://api.github.com/users/DrahtBot/starred%7B/owner%7D%7B/repo%7D",
        "subscriptions_url": "https://api.github.com/users/DrahtBot/subscriptions",
        "organizations_url": "https://api.github.com/users/DrahtBot/orgs",
        "repos_url": "https://api.github.com/users/DrahtBot/repos",
        "events_url": "https://api.github.com/users/DrahtBot/events%7B/privacy%7D",
        "received_events_url": "https://api.github.com/users/DrahtBot/received_events",
        "type": "User",
        "site_admin": false
      },
      "commit_id": null,
      "commit_url": null,
      "created_at": "2023-10-04T01:03:27Z",
      "label": {
        "name": "Tests",
        "color": "d4c5f9"
      }
    },
    {
      "event": "reviewed",
      "id": 1656792041,
      "node_id": "PRR_kwDOABII585iwKPp",
      "url": null,
      "actor": null,
      "commit_id": "6aaf739363ea91df1864f5fcc4d9ad38af9d2f7a",
      "commit_url": null,
      "created_at": null,
      "author_association": "MEMBER",
      "body": "concept ack",
      "user": {
        "login": "maflcko",
        "id": 6399679,
        "node_id": "MDQ6VXNlcjYzOTk2Nzk=",
        "avatar_url": "https://avatars.githubusercontent.com/u/6399679?v=4",
        "gravatar_id": "",
        "url": "https://api.github.com/users/maflcko",
        "html_url": "https://github.com/maflcko",
        "followers_url": "https://api.github.com/users/maflcko/followers",
        "following_url": "https://api.github.com/users/maflcko/following%7B/other_user%7D",
        "gists_url": "https://api.github.com/users/maflcko/gists%7B/gist_id%7D",
        "starred_url": "https://api.github.com/users/maflcko/starred%7B/owner%7D%7B/repo%7D",
        "subscriptions_url": "https://api.github.com/users/maflcko/subscriptions",
        "organizations_url": "https://api.github.com/users/maflcko/orgs",
        "repos_url": "https://api.github.com/users/maflcko/repos",
        "events_url": "https://api.github.com/users/maflcko/events%7B/privacy%7D",
        "received_events_url": "https://api.github.com/users/maflcko/received_events",
        "type": "User",
        "site_admin": false
      },
      "html_url": "https://github.com/bitcoin/bitcoin/pull/28578#pullrequestreview-1656792041",
      "submitted_at": "2023-10-04T07:01:05Z",
      "state": "APPROVED",
      "pull_request_url": "https://api.github.com/repos/bitcoin/bitcoin/pulls/28578"
    },
    {
      "event": "head_ref_force_pushed",
      "id": 10550136441,
      "node_id": "HRFPE_lADOABII585ywEKZzwAAAAJ01k55",
      "url": "https://api.github.com/repos/bitcoin/bitcoin/issues/events/10550136441",
      "actor": {
        "login": "brunoerg",
        "id": 19480819,
        "node_id": "MDQ6VXNlcjE5NDgwODE5",
        "avatar_url": "https://avatars.githubusercontent.com/u/19480819?v=4",
        "gravatar_id": "",
        "url": "https://api.github.com/users/brunoerg",
        "html_url": "https://github.com/brunoerg",
        "followers_url": "https://api.github.com/users/brunoerg/followers",
        "following_url": "https://api.github.com/users/brunoerg/following%7B/other_user%7D",
        "gists_url": "https://api.github.com/users/brunoerg/gists%7B/gist_id%7D",
        "starred_url": "https://api.github.com/users/brunoerg/starred%7B/owner%7D%7B/repo%7D",
        "subscriptions_url": "https://api.github.com/users/brunoerg/subscriptions",
        "organizations_url": "https://api.github.com/users/brunoerg/orgs",
        "repos_url": "https://api.github.com/users/brunoerg/repos",
        "events_url": "https://api.github.com/users/brunoerg/events%7B/privacy%7D",
        "received_events_url": "https://api.github.com/users/brunoerg/received_events",
        "type": "User",
        "site_admin": false
      },
      "commit_id": null,
      "commit_url": null,
      "created_at": "2023-10-04T12:03:03Z"
    },
    {
      "event": "labeled",
      "id": 10550137288,
      "node_id": "LE_lADOABII585ywEKZzwAAAAJ01lHI",
      "url": "https://api.github.com/repos/bitcoin/bitcoin/issues/events/10550137288",
      "actor": {
        "login": "DrahtBot",
        "id": 39886733,
        "node_id": "MDQ6VXNlcjM5ODg2NzMz",
        "avatar_url": "https://avatars.githubusercontent.com/u/39886733?v=4",
        "gravatar_id": "",
        "url": "https://api.github.com/users/DrahtBot",
        "html_url": "https://github.com/DrahtBot",
        "followers_url": "https://api.github.com/users/DrahtBot/followers",
        "following_url": "https://api.github.com/users/DrahtBot/following%7B/other_user%7D",
        "gists_url": "https://api.github.com/users/DrahtBot/gists%7B/gist_id%7D",
        "starred_url": "https://api.github.com/users/DrahtBot/starred%7B/owner%7D%7B/repo%7D",
        "subscriptions_url": "https://api.github.com/users/DrahtBot/subscriptions",
        "organizations_url": "https://api.github.com/users/DrahtBot/orgs",
        "repos_url": "https://api.github.com/users/DrahtBot/repos",
        "events_url": "https://api.github.com/users/DrahtBot/events%7B/privacy%7D",
        "received_events_url": "https://api.github.com/users/DrahtBot/received_events",
        "type": "User",
        "site_admin": false
      },
      "commit_id": null,
      "commit_url": null,
      "created_at": "2023-10-04T12:03:08Z",
      "label": {
        "name": "CI failed",
        "color": "cccccc"
      }
    },
    {
      "event": "committed",
      "id": null,
      "node_id": "C_kwDOABII59oAKDAyNjVlY2VhMmYzMzFlMjE1MGY4Y2RhNWQyNzhmMjJhNmQ1MTRjMTY",
      "url": "https://api.github.com/repos/bitcoin/bitcoin/git/commits/0265ecea2f331e2150f8cda5d278f22a6d514c16",
      "actor": null,
      "commit_id": null,
      "commit_url": null,
      "created_at": null,
      "html_url": "https://github.com/bitcoin/bitcoin/commit/0265ecea2f331e2150f8cda5d278f22a6d514c16",
      "tree": {
        "sha": "8cb6edffb0996a9f69a88eddb228637145e2e4b0",
        "url": "https://api.github.com/repos/bitcoin/bitcoin/git/trees/8cb6edffb0996a9f69a88eddb228637145e2e4b0"
      },
      "verification": {
        "verified": false,
        "reason": "unsigned",
        "payload": null,
        "signature": null
      },
      "parents": [
        {
          "url": "https://api.github.com/repos/bitcoin/bitcoin/git/commits/88e5a02b8b9927ee74c7f1d4f3236e88b958d8df",
          "sha": "88e5a02b8b9927ee74c7f1d4f3236e88b958d8df",
          "html_url": "https://github.com/bitcoin/bitcoin/commit/88e5a02b8b9927ee74c7f1d4f3236e88b958d8df"
        }
      ],
      "message": "fuzz: move `MockedDescriptorConverter` to `fuzz/util`",
      "committer": {
        "name": "brunoerg",
        "email": "brunoely.gc@gmail.com",
        "date": "2023-10-04T19:58:04Z"
      },
      "author": {
        "name": "brunoerg",
        "email": "brunoely.gc@gmail.com",
        "date": "2023-10-04T19:28:06Z"
      },
      "sha": "0265ecea2f331e2150f8cda5d278f22a6d514c16"
    },
    {
      "event": "head_ref_force_pushed",
      "id": 10555919654,
      "node_id": "HRFPE_lADOABII585ywEKZzwAAAAJ1Lo0m",
      "url": "https://api.github.com/repos/bitcoin/bitcoin/issues/events/10555919654",
      "actor": {
        "login": "brunoerg",
        "id": 19480819,
        "node_id": "MDQ6VXNlcjE5NDgwODE5",
        "avatar_url": "https://avatars.githubusercontent.com/u/19480819?v=4",
        "gravatar_id": "",
        "url": "https://api.github.com/users/brunoerg",
        "html_url": "https://github.com/brunoerg",
        "followers_url": "https://api.github.com/users/brunoerg/followers",
        "following_url": "https://api.github.com/users/brunoerg/following%7B/other_user%7D",
        "gists_url": "https://api.github.com/users/brunoerg/gists%7B/gist_id%7D",
        "starred_url": "https://api.github.com/users/brunoerg/starred%7B/owner%7D%7B/repo%7D",
        "subscriptions_url": "https://api.github.com/users/brunoerg/subscriptions",
        "organizations_url": "https://api.github.com/users/brunoerg/orgs",
        "repos_url": "https://api.github.com/users/brunoerg/repos",
        "events_url": "https://api.github.com/users/brunoerg/events%7B/privacy%7D",
        "received_events_url": "https://api.github.com/users/brunoerg/received_events",
        "type": "User",
        "site_admin": false
      },
      "commit_id": null,
      "commit_url": null,
      "created_at": "2023-10-04T21:27:24Z"
    },
    {
      "event": "unlabeled",
      "id": 10558078860,
      "node_id": "UNLE_lADOABII585ywEKZzwAAAAJ1T3-M",
      "url": "https://api.github.com/repos/bitcoin/bitcoin/issues/events/10558078860",
      "actor": {
        "login": "DrahtBot",
        "id": 39886733,
        "node_id": "MDQ6VXNlcjM5ODg2NzMz",
        "avatar_url": "https://avatars.githubusercontent.com/u/39886733?v=4",
        "gravatar_id": "",
        "url": "https://api.github.com/users/DrahtBot",
        "html_url": "https://github.com/DrahtBot",
        "followers_url": "https://api.github.com/users/DrahtBot/followers",
        "following_url": "https://api.github.com/users/DrahtBot/following%7B/other_user%7D",
        "gists_url": "https://api.github.com/users/DrahtBot/gists%7B/gist_id%7D",
        "starred_url": "https://api.github.com/users/DrahtBot/starred%7B/owner%7D%7B/repo%7D",
        "subscriptions_url": "https://api.github.com/users/DrahtBot/subscriptions",
        "organizations_url": "https://api.github.com/users/DrahtBot/orgs",
        "repos_url": "https://api.github.com/users/DrahtBot/repos",
        "events_url": "https://api.github.com/users/DrahtBot/events%7B/privacy%7D",
        "received_events_url": "https://api.github.com/users/DrahtBot/received_events",
        "type": "User",
        "site_admin": false
      },
      "commit_id": null,
      "commit_url": null,
      "created_at": "2023-10-05T04:29:34Z",
      "label": {
        "name": "CI failed",
        "color": "cccccc"
      }
    },
    {
      "event": "reviewed",
      "id": 1659172842,
      "node_id": "PRR_kwDOABII585i5Pfq",
      "url": null,
      "actor": null,
      "commit_id": "5e78c17563956acf3d09ea345f7d33b0ae2eb56e",
      "commit_url": null,
      "created_at": null,
      "author_association": "MEMBER",
      "body": "",
      "user": {
        "login": "maflcko",
        "id": 6399679,
        "node_id": "MDQ6VXNlcjYzOTk2Nzk=",
        "avatar_url": "https://avatars.githubusercontent.com/u/6399679?v=4",
        "gravatar_id": "",
        "url": "https://api.github.com/users/maflcko",
        "html_url": "https://github.com/maflcko",
        "followers_url": "https://api.github.com/users/maflcko/followers",
        "following_url": "https://api.github.com/users/maflcko/following%7B/other_user%7D",
        "gists_url": "https://api.github.com/users/maflcko/gists%7B/gist_id%7D",
        "starred_url": "https://api.github.com/users/maflcko/starred%7B/owner%7D%7B/repo%7D",
        "subscriptions_url": "https://api.github.com/users/maflcko/subscriptions",
        "organizations_url": "https://api.github.com/users/maflcko/orgs",
        "repos_url": "https://api.github.com/users/maflcko/repos",
        "events_url": "https://api.github.com/users/maflcko/events%7B/privacy%7D",
        "received_events_url": "https://api.github.com/users/maflcko/received_events",
        "type": "User",
        "site_admin": false
      },
      "html_url": "https://github.com/bitcoin/bitcoin/pull/28578#pullrequestreview-1659172842",
      "submitted_at": "2023-10-05T08:12:43Z",
      "state": "COMMENTED",
      "pull_request_url": "https://api.github.com/repos/bitcoin/bitcoin/pulls/28578"
    },
    {
      "event": "head_ref_force_pushed",
      "id": 10562594477,
      "node_id": "HRFPE_lADOABII585ywEKZzwAAAAJ1lGat",
      "url": "https://api.github.com/repos/bitcoin/bitcoin/issues/events/10562594477",
      "actor": {
        "login": "brunoerg",
        "id": 19480819,
        "node_id": "MDQ6VXNlcjE5NDgwODE5",
        "avatar_url": "https://avatars.githubusercontent.com/u/19480819?v=4",
        "gravatar_id": "",
        "url": "https://api.github.com/users/brunoerg",
        "html_url": "https://github.com/brunoerg",
        "followers_url": "https://api.github.com/users/brunoerg/followers",
        "following_url": "https://api.github.com/users/brunoerg/following%7B/other_user%7D",
        "gists_url": "https://api.github.com/users/brunoerg/gists%7B/gist_id%7D",
        "starred_url": "https://api.github.com/users/brunoerg/starred%7B/owner%7D%7B/repo%7D",
        "subscriptions_url": "https://api.github.com/users/brunoerg/subscriptions",
        "organizations_url": "https://api.github.com/users/brunoerg/orgs",
        "repos_url": "https://api.github.com/users/brunoerg/repos",
        "events_url": "https://api.github.com/users/brunoerg/events%7B/privacy%7D",
        "received_events_url": "https://api.github.com/users/brunoerg/received_events",
        "type": "User",
        "site_admin": false
      },
      "commit_id": null,
      "commit_url": null,
      "created_at": "2023-10-05T11:45:14Z"
    },
    {
      "event": "commented",
      "id": 1755587298,
      "node_id": "IC_kwDOABII585opCLi",
      "url": "https://api.github.com/repos/bitcoin/bitcoin/issues/comments/1755587298",
      "actor": {
        "login": "dergoegge",
        "id": 8077169,
        "node_id": "MDQ6VXNlcjgwNzcxNjk=",
        "avatar_url": "https://avatars.githubusercontent.com/u/8077169?v=4",
        "gravatar_id": "",
        "url": "https://api.github.com/users/dergoegge",
        "html_url": "https://github.com/dergoegge",
        "followers_url": "https://api.github.com/users/dergoegge/followers",
        "following_url": "https://api.github.com/users/dergoegge/following%7B/other_user%7D",
        "gists_url": "https://api.github.com/users/dergoegge/gists%7B/gist_id%7D",
        "starred_url": "https://api.github.com/users/dergoegge/starred%7B/owner%7D%7B/repo%7D",
        "subscriptions_url": "https://api.github.com/users/dergoegge/subscriptions",
        "organizations_url": "https://api.github.com/users/dergoegge/orgs",
        "repos_url": "https://api.github.com/users/dergoegge/repos",
        "events_url": "https://api.github.com/users/dergoegge/events%7B/privacy%7D",
        "received_events_url": "https://api.github.com/users/dergoegge/received_events",
        "type": "User",
        "site_admin": false
      },
      "commit_id": null,
      "commit_url": null,
      "created_at": "2023-10-10T14:42:28Z",
      "updated_at": "2023-10-10T14:42:28Z",
      "author_association": "MEMBER",
      "body": "```bash\r\n$ echo \"cGsoJTg0KVwzKVwAQWlwZTgzKVwAQQAAAAAAADmDg4ODg4ODg4ODgYODg4ODg4Nwa2hhe3t7g4ODg4ODg4OD\" | base64 --decode > scriptpubkeyman.crash\r\n$ FUZZ=scriptpubkeyman ./src/test/fuzz/fuzz scriptpubkeyman.crash\r\n...\r\nRunning: scriptpubkeyman.crash\r\nfuzz: wallet/test/fuzz/scriptpubkeyman.cpp:93: auto wallet::(anonymous namespace)::scriptpubkeyman_fuzz_target(FuzzBufferType)::(anonymous class)::operator()() const: Assertion `spk_manager->GetDescriptorString(descriptor, fuzzed_data_provider.ConsumeBool())' failed.\r\n==1391778== ERROR: libFuzzer: deadly signal\r\n...\r\n```",
      "user": {
        "login": "dergoegge",
        "id": 8077169,
        "node_id": "MDQ6VXNlcjgwNzcxNjk=",
        "avatar_url": "https://avatars.githubusercontent.com/u/8077169?v=4",
        "gravatar_id": "",
        "url": "https://api.github.com/users/dergoegge",
        "html_url": "https://github.com/dergoegge",
        "followers_url": "https://api.github.com/users/dergoegge/followers",
        "following_url": "https://api.github.com/users/dergoegge/following%7B/other_user%7D",
        "gists_url": "https://api.github.com/users/dergoegge/gists%7B/gist_id%7D",
        "starred_url": "https://api.github.com/users/dergoegge/starred%7B/owner%7D%7B/repo%7D",
        "subscriptions_url": "https://api.github.com/users/dergoegge/subscriptions",
        "organizations_url": "https://api.github.com/users/dergoegge/orgs",
        "repos_url": "https://api.github.com/users/dergoegge/repos",
        "events_url": "https://api.github.com/users/dergoegge/events%7B/privacy%7D",
        "received_events_url": "https://api.github.com/users/dergoegge/received_events",
        "type": "User",
        "site_admin": false
      },
      "html_url": "https://github.com/bitcoin/bitcoin/pull/28578#issuecomment-1755587298",
      "issue_url": "https://api.github.com/repos/bitcoin/bitcoin/issues/28578"
    },
    {
      "event": "head_ref_force_pushed",
      "id": 10608282779,
      "node_id": "HRFPE_lADOABII585ywEKZzwAAAAJ4TYyb",
      "url": "https://api.github.com/repos/bitcoin/bitcoin/issues/events/10608282779",
      "actor": {
        "login": "brunoerg",
        "id": 19480819,
        "node_id": "MDQ6VXNlcjE5NDgwODE5",
        "avatar_url": "https://avatars.githubusercontent.com/u/19480819?v=4",
        "gravatar_id": "",
        "url": "https://api.github.com/users/brunoerg",
        "html_url": "https://github.com/brunoerg",
        "followers_url": "https://api.github.com/users/brunoerg/followers",
        "following_url": "https://api.github.com/users/brunoerg/following%7B/other_user%7D",
        "gists_url": "https://api.github.com/users/brunoerg/gists%7B/gist_id%7D",
        "starred_url": "https://api.github.com/users/brunoerg/starred%7B/owner%7D%7B/repo%7D",
        "subscriptions_url": "https://api.github.com/users/brunoerg/subscriptions",
        "organizations_url": "https://api.github.com/users/brunoerg/orgs",
        "repos_url": "https://api.github.com/users/brunoerg/repos",
        "events_url": "https://api.github.com/users/brunoerg/events%7B/privacy%7D",
        "received_events_url": "https://api.github.com/users/brunoerg/received_events",
        "type": "User",
        "site_admin": false
      },
      "commit_id": null,
      "commit_url": null,
      "created_at": "2023-10-10T18:45:43Z"
    },
    {
      "event": "commented",
      "id": 1756035199,
      "node_id": "IC_kwDOABII585oqvh_",
      "url": "https://api.github.com/repos/bitcoin/bitcoin/issues/comments/1756035199",
      "actor": {
        "login": "brunoerg",
        "id": 19480819,
        "node_id": "MDQ6VXNlcjE5NDgwODE5",
        "avatar_url": "https://avatars.githubusercontent.com/u/19480819?v=4",
        "gravatar_id": "",
        "url": "https://api.github.com/users/brunoerg",
        "html_url": "https://github.com/brunoerg",
        "followers_url": "https://api.github.com/users/brunoerg/followers",
        "following_url": "https://api.github.com/users/brunoerg/following%7B/other_user%7D",
        "gists_url": "https://api.github.com/users/brunoerg/gists%7B/gist_id%7D",
        "starred_url": "https://api.github.com/users/brunoerg/starred%7B/owner%7D%7B/repo%7D",
        "subscriptions_url": "https://api.github.com/users/brunoerg/subscriptions",
        "organizations_url": "https://api.github.com/users/brunoerg/orgs",
        "repos_url": "https://api.github.com/users/brunoerg/repos",
        "events_url": "https://api.github.com/users/brunoerg/events%7B/privacy%7D",
        "received_events_url": "https://api.github.com/users/brunoerg/received_events",
        "type": "User",
        "site_admin": false
      },
      "commit_id": null,
      "commit_url": null,
      "created_at": "2023-10-10T18:46:24Z",
      "updated_at": "2023-10-10T18:46:24Z",
      "author_association": "CONTRIBUTOR",
      "body": "Thanks, @dergoegge. Fixed it by removing the `assert`, we can't ensure it.",
      "user": {
        "login": "brunoerg",
        "id": 19480819,
        "node_id": "MDQ6VXNlcjE5NDgwODE5",
        "avatar_url": "https://avatars.githubusercontent.com/u/19480819?v=4",
        "gravatar_id": "",
        "url": "https://api.github.com/users/brunoerg",
        "html_url": "https://github.com/brunoerg",
        "followers_url": "https://api.github.com/users/brunoerg/followers",
        "following_url": "https://api.github.com/users/brunoerg/following%7B/other_user%7D",
        "gists_url": "https://api.github.com/users/brunoerg/gists%7B/gist_id%7D",
        "starred_url": "https://api.github.com/users/brunoerg/starred%7B/owner%7D%7B/repo%7D",
        "subscriptions_url": "https://api.github.com/users/brunoerg/subscriptions",
        "organizations_url": "https://api.github.com/users/brunoerg/orgs",
        "repos_url": "https://api.github.com/users/brunoerg/repos",
        "events_url": "https://api.github.com/users/brunoerg/events%7B/privacy%7D",
        "received_events_url": "https://api.github.com/users/brunoerg/received_events",
        "type": "User",
        "site_admin": false
      },
      "html_url": "https://github.com/bitcoin/bitcoin/pull/28578#issuecomment-1756035199",
      "issue_url": "https://api.github.com/repos/bitcoin/bitcoin/issues/28578"
    },
    {
      "event": "mentioned",
      "id": 10608288878,
      "node_id": "MEE_lADOABII585ywEKZzwAAAAJ4TaRu",
      "url": "https://api.github.com/repos/bitcoin/bitcoin/issues/events/10608288878",
      "actor": {
        "login": "dergoegge",
        "id": 8077169,
        "node_id": "MDQ6VXNlcjgwNzcxNjk=",
        "avatar_url": "https://avatars.githubusercontent.com/u/8077169?v=4",
        "gravatar_id": "",
        "url": "https://api.github.com/users/dergoegge",
        "html_url": "https://github.com/dergoegge",
        "followers_url": "https://api.github.com/users/dergoegge/followers",
        "following_url": "https://api.github.com/users/dergoegge/following%7B/other_user%7D",
        "gists_url": "https://api.github.com/users/dergoegge/gists%7B/gist_id%7D",
        "starred_url": "https://api.github.com/users/dergoegge/starred%7B/owner%7D%7B/repo%7D",
        "subscriptions_url": "https://api.github.com/users/dergoegge/subscriptions",
        "organizations_url": "https://api.github.com/users/dergoegge/orgs",
        "repos_url": "https://api.github.com/users/dergoegge/repos",
        "events_url": "https://api.github.com/users/dergoegge/events%7B/privacy%7D",
        "received_events_url": "https://api.github.com/users/dergoegge/received_events",
        "type": "User",
        "site_admin": false
      },
      "commit_id": null,
      "commit_url": null,
      "created_at": "2023-10-10T18:46:25Z"
    },
    {
      "event": "subscribed",
      "id": 10608288893,
      "node_id": "SE_lADOABII585ywEKZzwAAAAJ4TaR9",
      "url": "https://api.github.com/repos/bitcoin/bitcoin/issues/events/10608288893",
      "actor": {
        "login": "dergoegge",
        "id": 8077169,
        "node_id": "MDQ6VXNlcjgwNzcxNjk=",
        "avatar_url": "https://avatars.githubusercontent.com/u/8077169?v=4",
        "gravatar_id": "",
        "url": "https://api.github.com/users/dergoegge",
        "html_url": "https://github.com/dergoegge",
        "followers_url": "https://api.github.com/users/dergoegge/followers",
        "following_url": "https://api.github.com/users/dergoegge/following%7B/other_user%7D",
        "gists_url": "https://api.github.com/users/dergoegge/gists%7B/gist_id%7D",
        "starred_url": "https://api.github.com/users/dergoegge/starred%7B/owner%7D%7B/repo%7D",
        "subscriptions_url": "https://api.github.com/users/dergoegge/subscriptions",
        "organizations_url": "https://api.github.com/users/dergoegge/orgs",
        "repos_url": "https://api.github.com/users/dergoegge/repos",
        "events_url": "https://api.github.com/users/dergoegge/events%7B/privacy%7D",
        "received_events_url": "https://api.github.com/users/dergoegge/received_events",
        "type": "User",
        "site_admin": false
      },
      "commit_id": null,
      "commit_url": null,
      "created_at": "2023-10-10T18:46:25Z"
    },
    {
      "event": "commented",
      "id": 1757161935,
      "node_id": "IC_kwDOABII585ovCnP",
      "url": "https://api.github.com/repos/bitcoin/bitcoin/issues/comments/1757161935",
      "actor": {
        "login": "dergoegge",
        "id": 8077169,
        "node_id": "MDQ6VXNlcjgwNzcxNjk=",
        "avatar_url": "https://avatars.githubusercontent.com/u/8077169?v=4",
        "gravatar_id": "",
        "url": "https://api.github.com/users/dergoegge",
        "html_url": "https://github.com/dergoegge",
        "followers_url": "https://api.github.com/users/dergoegge/followers",
        "following_url": "https://api.github.com/users/dergoegge/following%7B/other_user%7D",
        "gists_url": "https://api.github.com/users/dergoegge/gists%7B/gist_id%7D",
        "starred_url": "https://api.github.com/users/dergoegge/starred%7B/owner%7D%7B/repo%7D",
        "subscriptions_url": "https://api.github.com/users/dergoegge/subscriptions",
        "organizations_url": "https://api.github.com/users/dergoegge/orgs",
        "repos_url": "https://api.github.com/users/dergoegge/repos",
        "events_url": "https://api.github.com/users/dergoegge/events%7B/privacy%7D",
        "received_events_url": "https://api.github.com/users/dergoegge/received_events",
        "type": "User",
        "site_admin": false
      },
      "commit_id": null,
      "commit_url": null,
      "created_at": "2023-10-11T08:45:16Z",
      "updated_at": "2023-10-11T08:45:16Z",
      "author_association": "MEMBER",
      "body": "```bash\r\n$ echo \"cGsoJTQxLyopXDMAXABhZGRyKGJjMYMxMTAwMDIwMDAwMDBnJyw2ZGRyKGI1bikp\" | base64 --decode > scriptpubkeyman2.crash\r\n$ FUZZ=scriptpubkeyman ./src/test/fuzz/fuzz scriptpubkeyman2.crash\r\n...\r\nfuzz: wallet/scriptpubkeyman.cpp:2008: virtual util::Result<CTxDestination> wallet::DescriptorScriptPubKeyMan::GetNewDestination(const OutputType): Assertion `desc_addr_type' failed.\r\n==1499877== ERROR: libFuzzer: deadly signal\r\n...\r\n```",
      "user": {
        "login": "dergoegge",
        "id": 8077169,
        "node_id": "MDQ6VXNlcjgwNzcxNjk=",
        "avatar_url": "https://avatars.githubusercontent.com/u/8077169?v=4",
        "gravatar_id": "",
        "url": "https://api.github.com/users/dergoegge",
        "html_url": "https://github.com/dergoegge",
        "followers_url": "https://api.github.com/users/dergoegge/followers",
        "following_url": "https://api.github.com/users/dergoegge/following%7B/other_user%7D",
        "gists_url": "https://api.github.com/users/dergoegge/gists%7B/gist_id%7D",
        "starred_url": "https://api.github.com/users/dergoegge/starred%7B/owner%7D%7B/repo%7D",
        "subscriptions_url": "https://api.github.com/users/dergoegge/subscriptions",
        "organizations_url": "https://api.github.com/users/dergoegge/orgs",
        "repos_url": "https://api.github.com/users/dergoegge/repos",
        "events_url": "https://api.github.com/users/dergoegge/events%7B/privacy%7D",
        "received_events_url": "https://api.github.com/users/dergoegge/received_events",
        "type": "User",
        "site_admin": false
      },
      "html_url": "https://github.com/bitcoin/bitcoin/pull/28578#issuecomment-1757161935",
      "issue_url": "https://api.github.com/repos/bitcoin/bitcoin/issues/28578"
    },
    {
      "event": "head_ref_force_pushed",
      "id": 10620525326,
      "node_id": "HRFPE_lADOABII585ywEKZzwAAAAJ5CFsO",
      "url": "https://api.github.com/repos/bitcoin/bitcoin/issues/events/10620525326",
      "actor": {
        "login": "brunoerg",
        "id": 19480819,
        "node_id": "MDQ6VXNlcjE5NDgwODE5",
        "avatar_url": "https://avatars.githubusercontent.com/u/19480819?v=4",
        "gravatar_id": "",
        "url": "https://api.github.com/users/brunoerg",
        "html_url": "https://github.com/brunoerg",
        "followers_url": "https://api.github.com/users/brunoerg/followers",
        "following_url": "https://api.github.com/users/brunoerg/following%7B/other_user%7D",
        "gists_url": "https://api.github.com/users/brunoerg/gists%7B/gist_id%7D",
        "starred_url": "https://api.github.com/users/brunoerg/starred%7B/owner%7D%7B/repo%7D",
        "subscriptions_url": "https://api.github.com/users/brunoerg/subscriptions",
        "organizations_url": "https://api.github.com/users/brunoerg/orgs",
        "repos_url": "https://api.github.com/users/brunoerg/repos",
        "events_url": "https://api.github.com/users/brunoerg/events%7B/privacy%7D",
        "received_events_url": "https://api.github.com/users/brunoerg/received_events",
        "type": "User",
        "site_admin": false
      },
      "commit_id": null,
      "commit_url": null,
      "created_at": "2023-10-11T15:35:55Z"
    },
    {
      "event": "commented",
      "id": 1759227123,
      "node_id": "IC_kwDOABII585o26zz",
      "url": "https://api.github.com/repos/bitcoin/bitcoin/issues/comments/1759227123",
      "actor": {
        "login": "dergoegge",
        "id": 8077169,
        "node_id": "MDQ6VXNlcjgwNzcxNjk=",
        "avatar_url": "https://avatars.githubusercontent.com/u/8077169?v=4",
        "gravatar_id": "",
        "url": "https://api.github.com/users/dergoegge",
        "html_url": "https://github.com/dergoegge",
        "followers_url": "https://api.github.com/users/dergoegge/followers",
        "following_url": "https://api.github.com/users/dergoegge/following%7B/other_user%7D",
        "gists_url": "https://api.github.com/users/dergoegge/gists%7B/gist_id%7D",
        "starred_url": "https://api.github.com/users/dergoegge/starred%7B/owner%7D%7B/repo%7D",
        "subscriptions_url": "https://api.github.com/users/dergoegge/subscriptions",
        "organizations_url": "https://api.github.com/users/dergoegge/orgs",
        "repos_url": "https://api.github.com/users/dergoegge/repos",
        "events_url": "https://api.github.com/users/dergoegge/events%7B/privacy%7D",
        "received_events_url": "https://api.github.com/users/dergoegge/received_events",
        "type": "User",
        "site_admin": false
      },
      "commit_id": null,
      "commit_url": null,
      "created_at": "2023-10-12T09:09:21Z",
      "updated_at": "2023-10-12T09:09:21Z",
      "author_association": "MEMBER",
      "body": "```bash\r\n$ echo \"dHIoJTA1LyopXDQXFw==\"  | base64 --decode > scriptpubkeyman3.crash\r\n$ FUZZ=scriptpubkeyman ./src/test/fuzz/fuzz scriptpubkeyman3.crash\r\n...\r\nterminate called after throwing an instance of 'std::runtime_error'\r\n  what():  GetNewDestination: Types are inconsistent. Stored type does not match type of newly generated address\r\n...\r\n```\r\n\r\n---\r\n\r\nI would recommend that you run the targets that you write for a while before opening a PR. It could very well be that it finds actual bugs that we don't want to be public right away.",
      "user": {
        "login": "dergoegge",
        "id": 8077169,
        "node_id": "MDQ6VXNlcjgwNzcxNjk=",
        "avatar_url": "https://avatars.githubusercontent.com/u/8077169?v=4",
        "gravatar_id": "",
        "url": "https://api.github.com/users/dergoegge",
        "html_url": "https://github.com/dergoegge",
        "followers_url": "https://api.github.com/users/dergoegge/followers",
        "following_url": "https://api.github.com/users/dergoegge/following%7B/other_user%7D",
        "gists_url": "https://api.github.com/users/dergoegge/gists%7B/gist_id%7D",
        "starred_url": "https://api.github.com/users/dergoegge/starred%7B/owner%7D%7B/repo%7D",
        "subscriptions_url": "https://api.github.com/users/dergoegge/subscriptions",
        "organizations_url": "https://api.github.com/users/dergoegge/orgs",
        "repos_url": "https://api.github.com/users/dergoegge/repos",
        "events_url": "https://api.github.com/users/dergoegge/events%7B/privacy%7D",
        "received_events_url": "https://api.github.com/users/dergoegge/received_events",
        "type": "User",
        "site_admin": false
      },
      "html_url": "https://github.com/bitcoin/bitcoin/pull/28578#issuecomment-1759227123",
      "issue_url": "https://api.github.com/repos/bitcoin/bitcoin/issues/28578"
    },
    {
      "event": "committed",
      "id": null,
      "node_id": "C_kwDOABII59oAKDJmMzFjMzJmZTI3ZWU0OWQ4Mzk3YjNmZDNhYzJiZWE3NTMyNzM3MDE",
      "url": "https://api.github.com/repos/bitcoin/bitcoin/git/commits/2f31c32fe27ee49d8397b3fd3ac2bea753273701",
      "actor": null,
      "commit_id": null,
      "commit_url": null,
      "created_at": null,
      "html_url": "https://github.com/bitcoin/bitcoin/commit/2f31c32fe27ee49d8397b3fd3ac2bea753273701",
      "tree": {
        "sha": "a028798210f25173c1edf5199fdbcfa782991d93",
        "url": "https://api.github.com/repos/bitcoin/bitcoin/git/trees/a028798210f25173c1edf5199fdbcfa782991d93"
      },
      "verification": {
        "verified": false,
        "reason": "unsigned",
        "payload": null,
        "signature": null
      },
      "parents": [
        {
          "url": "https://api.github.com/repos/bitcoin/bitcoin/git/commits/0265ecea2f331e2150f8cda5d278f22a6d514c16",
          "sha": "0265ecea2f331e2150f8cda5d278f22a6d514c16",
          "html_url": "https://github.com/bitcoin/bitcoin/commit/0265ecea2f331e2150f8cda5d278f22a6d514c16"
        }
      ],
      "message": "fuzz: add target for `DescriptorScriptPubKeyMan`",
      "committer": {
        "name": "brunoerg",
        "email": "brunoely.gc@gmail.com",
        "date": "2023-10-12T13:42:44Z"
      },
      "author": {
        "name": "brunoerg",
        "email": "brunoely.gc@gmail.com",
        "date": "2023-07-25T19:14:40Z"
      },
      "sha": "2f31c32fe27ee49d8397b3fd3ac2bea753273701"
    },
    {
      "event": "head_ref_force_pushed",
      "id": 10636701735,
      "node_id": "HRFPE_lADOABII585ywEKZzwAAAAJ5_zAn",
      "url": "https://api.github.com/repos/bitcoin/bitcoin/issues/events/10636701735",
      "actor": {
        "login": "brunoerg",
        "id": 19480819,
        "node_id": "MDQ6VXNlcjE5NDgwODE5",
        "avatar_url": "https://avatars.githubusercontent.com/u/19480819?v=4",
        "gravatar_id": "",
        "url": "https://api.github.com/users/brunoerg",
        "html_url": "https://github.com/brunoerg",
        "followers_url": "https://api.github.com/users/brunoerg/followers",
        "following_url": "https://api.github.com/users/brunoerg/following%7B/other_user%7D",
        "gists_url": "https://api.github.com/users/brunoerg/gists%7B/gist_id%7D",
        "starred_url": "https://api.github.com/users/brunoerg/starred%7B/owner%7D%7B/repo%7D",
        "subscriptions_url": "https://api.github.com/users/brunoerg/subscriptions",
        "organizations_url": "https://api.github.com/users/brunoerg/orgs",
        "repos_url": "https://api.github.com/users/brunoerg/repos",
        "events_url": "https://api.github.com/users/brunoerg/events%7B/privacy%7D",
        "received_events_url": "https://api.github.com/users/brunoerg/received_events",
        "type": "User",
        "site_admin": false
      },
      "commit_id": null,
      "commit_url": null,
      "created_at": "2023-10-12T20:45:15Z"
    },
    {
      "event": "commented",
      "id": 1760347322,
      "node_id": "IC_kwDOABII585o7MS6",
      "url": "https://api.github.com/repos/bitcoin/bitcoin/issues/comments/1760347322",
      "actor": {
        "login": "brunoerg",
        "id": 19480819,
        "node_id": "MDQ6VXNlcjE5NDgwODE5",
        "avatar_url": "https://avatars.githubusercontent.com/u/19480819?v=4",
        "gravatar_id": "",
        "url": "https://api.github.com/users/brunoerg",
        "html_url": "https://github.com/brunoerg",
        "followers_url": "https://api.github.com/users/brunoerg/followers",
        "following_url": "https://api.github.com/users/brunoerg/following%7B/other_user%7D",
        "gists_url": "https://api.github.com/users/brunoerg/gists%7B/gist_id%7D",
        "starred_url": "https://api.github.com/users/brunoerg/starred%7B/owner%7D%7B/repo%7D",
        "subscriptions_url": "https://api.github.com/users/brunoerg/subscriptions",
        "organizations_url": "https://api.github.com/users/brunoerg/orgs",
        "repos_url": "https://api.github.com/users/brunoerg/repos",
        "events_url": "https://api.github.com/users/brunoerg/events%7B/privacy%7D",
        "received_events_url": "https://api.github.com/users/brunoerg/received_events",
        "type": "User",
        "site_admin": false
      },
      "commit_id": null,
      "commit_url": null,
      "created_at": "2023-10-12T20:50:24Z",
      "updated_at": "2023-10-12T20:50:24Z",
      "author_association": "CONTRIBUTOR",
      "body": "> I would recommend that you run the targets that you write for a while before opening a PR. It could very well be that it finds actual bugs that we don't want to be public right away.\r\n\r\nSure, sorry for that, left it running but not in my main machine so didn't get some of them. Force-pushed with a fix for `GetNewDestination`.  We can't fuzz it with random outputs types because any inconsistence will throw a runtime error. Any other one will return a `util::Error`. Left it running for some hours before pushing and will continue running it overnight.",
      "user": {
        "login": "brunoerg",
        "id": 19480819,
        "node_id": "MDQ6VXNlcjE5NDgwODE5",
        "avatar_url": "https://avatars.githubusercontent.com/u/19480819?v=4",
        "gravatar_id": "",
        "url": "https://api.github.com/users/brunoerg",
        "html_url": "https://github.com/brunoerg",
        "followers_url": "https://api.github.com/users/brunoerg/followers",
        "following_url": "https://api.github.com/users/brunoerg/following%7B/other_user%7D",
        "gists_url": "https://api.github.com/users/brunoerg/gists%7B/gist_id%7D",
        "starred_url": "https://api.github.com/users/brunoerg/starred%7B/owner%7D%7B/repo%7D",
        "subscriptions_url": "https://api.github.com/users/brunoerg/subscriptions",
        "organizations_url": "https://api.github.com/users/brunoerg/orgs",
        "repos_url": "https://api.github.com/users/brunoerg/repos",
        "events_url": "https://api.github.com/users/brunoerg/events%7B/privacy%7D",
        "received_events_url": "https://api.github.com/users/brunoerg/received_events",
        "type": "User",
        "site_admin": false
      },
      "html_url": "https://github.com/bitcoin/bitcoin/pull/28578#issuecomment-1760347322",
      "issue_url": "https://api.github.com/repos/bitcoin/bitcoin/issues/28578"
    },
    {
      "event": "labeled",
      "id": 10697028554,
      "node_id": "LE_lADOABII585ywEKZzwAAAAJ9l7PK",
      "url": "https://api.github.com/repos/bitcoin/bitcoin/issues/events/10697028554",
      "actor": {
        "login": "DrahtBot",
        "id": 39886733,
        "node_id": "MDQ6VXNlcjM5ODg2NzMz",
        "avatar_url": "https://avatars.githubusercontent.com/u/39886733?v=4",
        "gravatar_id": "",
        "url": "https://api.github.com/users/DrahtBot",
        "html_url": "https://github.com/DrahtBot",
        "followers_url": "https://api.github.com/users/DrahtBot/followers",
        "following_url": "https://api.github.com/users/DrahtBot/following%7B/other_user%7D",
        "gists_url": "https://api.github.com/users/DrahtBot/gists%7B/gist_id%7D",
        "starred_url": "https://api.github.com/users/DrahtBot/starred%7B/owner%7D%7B/repo%7D",
        "subscriptions_url": "https://api.github.com/users/DrahtBot/subscriptions",
        "organizations_url": "https://api.github.com/users/DrahtBot/orgs",
        "repos_url": "https://api.github.com/users/DrahtBot/repos",
        "events_url": "https://api.github.com/users/DrahtBot/events%7B/privacy%7D",
        "received_events_url": "https://api.github.com/users/DrahtBot/received_events",
        "type": "User",
        "site_admin": false
      },
      "commit_id": null,
      "commit_url": null,
      "created_at": "2023-10-18T17:37:56Z",
      "label": {
        "name": "CI failed",
        "color": "cccccc"
      }
    },
    {
      "event": "unlabeled",
      "id": 10725326932,
      "node_id": "UNLE_lADOABII585ywEKZzwAAAAJ_R4BU",
      "url": "https://api.github.com/repos/bitcoin/bitcoin/issues/events/10725326932",
      "actor": {
        "login": "DrahtBot",
        "id": 39886733,
        "node_id": "MDQ6VXNlcjM5ODg2NzMz",
        "avatar_url": "https://avatars.githubusercontent.com/u/39886733?v=4",
        "gravatar_id": "",
        "url": "https://api.github.com/users/DrahtBot",
        "html_url": "https://github.com/DrahtBot",
        "followers_url": "https://api.github.com/users/DrahtBot/followers",
        "following_url": "https://api.github.com/users/DrahtBot/following%7B/other_user%7D",
        "gists_url": "https://api.github.com/users/DrahtBot/gists%7B/gist_id%7D",
        "starred_url": "https://api.github.com/users/DrahtBot/starred%7B/owner%7D%7B/repo%7D",
        "subscriptions_url": "https://api.github.com/users/DrahtBot/subscriptions",
        "organizations_url": "https://api.github.com/users/DrahtBot/orgs",
        "repos_url": "https://api.github.com/users/DrahtBot/repos",
        "events_url": "https://api.github.com/users/DrahtBot/events%7B/privacy%7D",
        "received_events_url": "https://api.github.com/users/DrahtBot/received_events",
        "type": "User",
        "site_admin": false
      },
      "commit_id": null,
      "commit_url": null,
      "created_at": "2023-10-20T14:35:55Z",
      "label": {
        "name": "CI failed",
        "color": "cccccc"
      }
    },
    {
      "event": "cross-referenced",
      "id": null,
      "node_id": null,
      "url": null,
      "actor": {
        "login": "DrahtBot",
        "id": 39886733,
        "node_id": "MDQ6VXNlcjM5ODg2NzMz",
        "avatar_url": "https://avatars.githubusercontent.com/u/39886733?v=4",
        "gravatar_id": "",
        "url": "https://api.github.com/users/DrahtBot",
        "html_url": "https://github.com/DrahtBot",
        "followers_url": "https://api.github.com/users/DrahtBot/followers",
        "following_url": "https://api.github.com/users/DrahtBot/following%7B/other_user%7D",
        "gists_url": "https://api.github.com/users/DrahtBot/gists%7B/gist_id%7D",
        "starred_url": "https://api.github.com/users/DrahtBot/starred%7B/owner%7D%7B/repo%7D",
        "subscriptions_url": "https://api.github.com/users/DrahtBot/subscriptions",
        "organizations_url": "https://api.github.com/users/DrahtBot/orgs",
        "repos_url": "https://api.github.com/users/DrahtBot/repos",
        "events_url": "https://api.github.com/users/DrahtBot/events%7B/privacy%7D",
        "received_events_url": "https://api.github.com/users/DrahtBot/received_events",
        "type": "User",
        "site_admin": false
      },
      "commit_id": null,
      "commit_url": null,
      "created_at": "2023-10-24T02:47:02Z",
      "updated_at": "2023-10-24T02:47:02Z",
      "source": {
        "issue": {
          "id": 1958204865,
          "node_id": "PR_kwDOABII585dlfBo",
          "url": "https://api.github.com/repos/bitcoin/bitcoin/issues/28710",
          "repository_url": "https://api.github.com/repos/bitcoin/bitcoin",
          "labels_url": "https://api.github.com/repos/bitcoin/bitcoin/issues/28710/labels%7B/name%7D",
          "comments_url": "https://api.github.com/repos/bitcoin/bitcoin/issues/28710/comments",
          "events_url": "https://api.github.com/repos/bitcoin/bitcoin/issues/28710/events",
          "html_url": "https://github.com/bitcoin/bitcoin/pull/28710",
          "number": 28710,
          "state": "open",
          "state_reason": null,
          "title": "Remove the legacy wallet and BDB dependency",
          "body": "The final step of #20160.\r\n\r\nA bare minimum of legacy wallet code is kept in order to perform wallet migration. Migration of legacy wallets uses the independent BDB parser and a minimal `LegacyDataSPKM` that allows the legacy data to be loaded so that the migration can be completed.\r\n\r\nAll tests which tested legacy wallet behavior have been removed. The `--descriptors` and `--legacy-wallet` options are removed from the functional tests.\r\n\r\nBDB has been removed as a dependency and documentation have been updated to reflect that.\r\n\r\nDepends on #26596",
          "user": {
            "login": "achow101",
            "id": 3782274,
            "node_id": "MDQ6VXNlcjM3ODIyNzQ=",
            "avatar_url": "https://avatars.githubusercontent.com/u/3782274?v=4",
            "gravatar_id": "",
            "url": "https://api.github.com/users/achow101",
            "html_url": "https://github.com/achow101",
            "followers_url": "https://api.github.com/users/achow101/followers",
            "following_url": "https://api.github.com/users/achow101/following%7B/other_user%7D",
            "gists_url": "https://api.github.com/users/achow101/gists%7B/gist_id%7D",
            "starred_url": "https://api.github.com/users/achow101/starred%7B/owner%7D%7B/repo%7D",
            "subscriptions_url": "https://api.github.com/users/achow101/subscriptions",
            "organizations_url": "https://api.github.com/users/achow101/orgs",
            "repos_url": "https://api.github.com/users/achow101/repos",
            "events_url": "https://api.github.com/users/achow101/events%7B/privacy%7D",
            "received_events_url": "https://api.github.com/users/achow101/received_events",
            "type": "User",
            "site_admin": false
          },
          "labels": [
            {
              "id": 955867938,
              "node_id": "MDU6TGFiZWw5NTU4Njc5Mzg=",
              "url": "https://api.github.com/repos/bitcoin/bitcoin/labels/Needs%20rebase",
              "name": "Needs rebase",
              "description": "",
              "color": "cccccc",
              "default": false
            },
            {
              "id": 5334691551,
              "node_id": "LA_kwDOABII588AAAABPfju3w",
              "url": "https://api.github.com/repos/bitcoin/bitcoin/labels/CI%20failed",
              "name": "CI failed",
              "description": "",
              "color": "cccccc",
              "default": false
            }
          ],
          "assignees": [],
          "author_association": "MEMBER",
          "locked": false,
          "comments": 2,
          "pull_request": {
            "url": "https://api.github.com/repos/bitcoin/bitcoin/pulls/28710",
            "html_url": "https://github.com/bitcoin/bitcoin/pull/28710",
            "diff_url": "https://github.com/bitcoin/bitcoin/pull/28710.diff",
            "patch_url": "https://github.com/bitcoin/bitcoin/pull/28710.patch"
          },
          "created_at": "2023-10-23T23:36:07Z",
          "updated_at": "2023-11-06T21:29:38Z"
        },
        "type": "issue"
      }
    },
    {
      "event": "reviewed",
      "id": 1713827504,
      "node_id": "PRR_kwDOABII585mJu6w",
      "url": null,
      "actor": null,
      "commit_id": "2f31c32fe27ee49d8397b3fd3ac2bea753273701",
      "commit_url": null,
      "created_at": null,
      "author_association": "CONTRIBUTOR",
      "body": "ACK\r\n\r\nReviewed the whole code. Looks great to me!",
      "user": {
        "login": "Ayush170-Future",
        "id": 76209654,
        "node_id": "MDQ6VXNlcjc2MjA5NjU0",
        "avatar_url": "https://avatars.githubusercontent.com/u/76209654?v=4",
        "gravatar_id": "",
        "url": "https://api.github.com/users/Ayush170-Future",
        "html_url": "https://github.com/Ayush170-Future",
        "followers_url": "https://api.github.com/users/Ayush170-Future/followers",
        "following_url": "https://api.github.com/users/Ayush170-Future/following%7B/other_user%7D",
        "gists_url": "https://api.github.com/users/Ayush170-Future/gists%7B/gist_id%7D",
        "starred_url": "https://api.github.com/users/Ayush170-Future/starred%7B/owner%7D%7B/repo%7D",
        "subscriptions_url": "https://api.github.com/users/Ayush170-Future/subscriptions",
        "organizations_url": "https://api.github.com/users/Ayush170-Future/orgs",
        "repos_url": "https://api.github.com/users/Ayush170-Future/repos",
        "events_url": "https://api.github.com/users/Ayush170-Future/events%7B/privacy%7D",
        "received_events_url": "https://api.github.com/users/Ayush170-Future/received_events",
        "type": "User",
        "site_admin": false
      },
      "html_url": "https://github.com/bitcoin/bitcoin/pull/28578#pullrequestreview-1713827504",
      "submitted_at": "2023-11-04T17:34:21Z",
      "state": "APPROVED",
      "pull_request_url": "https://api.github.com/repos/bitcoin/bitcoin/pulls/28578"
    },
    {
      "event": "commented",
      "id": 1794443638,
      "node_id": "IC_kwDOABII585q9Ql2",
      "url": "https://api.github.com/repos/bitcoin/bitcoin/issues/comments/1794443638",
      "actor": {
        "login": "dergoegge",
        "id": 8077169,
        "node_id": "MDQ6VXNlcjgwNzcxNjk=",
        "avatar_url": "https://avatars.githubusercontent.com/u/8077169?v=4",
        "gravatar_id": "",
        "url": "https://api.github.com/users/dergoegge",
        "html_url": "https://github.com/dergoegge",
        "followers_url": "https://api.github.com/users/dergoegge/followers",
        "following_url": "https://api.github.com/users/dergoegge/following%7B/other_user%7D",
        "gists_url": "https://api.github.com/users/dergoegge/gists%7B/gist_id%7D",
        "starred_url": "https://api.github.com/users/dergoegge/starred%7B/owner%7D%7B/repo%7D",
        "subscriptions_url": "https://api.github.com/users/dergoegge/subscriptions",
        "organizations_url": "https://api.github.com/users/dergoegge/orgs",
        "repos_url": "https://api.github.com/users/dergoegge/repos",
        "events_url": "https://api.github.com/users/dergoegge/events%7B/privacy%7D",
        "received_events_url": "https://api.github.com/users/dergoegge/received_events",
        "type": "User",
        "site_admin": false
      },
      "commit_id": null,
      "commit_url": null,
      "created_at": "2023-11-06T09:49:31Z",
      "updated_at": "2023-11-06T09:49:31Z",
      "author_association": "MEMBER",
      "body": "Here's a coverage report: https://dergoegge.github.io/bitcoin-coverage/pr28578/fuzz.coverage/index.html (~1000h CPU time).\r\n\r\nIs there a reason not to cover more of `DescriptorScriptPubKeyMan` in this PR? e.g. `DescriptorScriptPubKeyMan::SignTransaction` or `DescriptorScriptPubKeyMan::FillPSBT`. ",
      "user": {
        "login": "dergoegge",
        "id": 8077169,
        "node_id": "MDQ6VXNlcjgwNzcxNjk=",
        "avatar_url": "https://avatars.githubusercontent.com/u/8077169?v=4",
        "gravatar_id": "",
        "url": "https://api.github.com/users/dergoegge",
        "html_url": "https://github.com/dergoegge",
        "followers_url": "https://api.github.com/users/dergoegge/followers",
        "following_url": "https://api.github.com/users/dergoegge/following%7B/other_user%7D",
        "gists_url": "https://api.github.com/users/dergoegge/gists%7B/gist_id%7D",
        "starred_url": "https://api.github.com/users/dergoegge/starred%7B/owner%7D%7B/repo%7D",
        "subscriptions_url": "https://api.github.com/users/dergoegge/subscriptions",
        "organizations_url": "https://api.github.com/users/dergoegge/orgs",
        "repos_url": "https://api.github.com/users/dergoegge/repos",
        "events_url": "https://api.github.com/users/dergoegge/events%7B/privacy%7D",
        "received_events_url": "https://api.github.com/users/dergoegge/received_events",
        "type": "User",
        "site_admin": false
      },
      "html_url": "https://github.com/bitcoin/bitcoin/pull/28578#issuecomment-1794443638",
      "issue_url": "https://api.github.com/repos/bitcoin/bitcoin/issues/28578"
    },
    {
      "event": "commented",
      "id": 1796506821,
      "node_id": "IC_kwDOABII585rFITF",
      "url": "https://api.github.com/repos/bitcoin/bitcoin/issues/comments/1796506821",
      "actor": {
        "login": "brunoerg",
        "id": 19480819,
        "node_id": "MDQ6VXNlcjE5NDgwODE5",
        "avatar_url": "https://avatars.githubusercontent.com/u/19480819?v=4",
        "gravatar_id": "",
        "url": "https://api.github.com/users/brunoerg",
        "html_url": "https://github.com/brunoerg",
        "followers_url": "https://api.github.com/users/brunoerg/followers",
        "following_url": "https://api.github.com/users/brunoerg/following%7B/other_user%7D",
        "gists_url": "https://api.github.com/users/brunoerg/gists%7B/gist_id%7D",
        "starred_url": "https://api.github.com/users/brunoerg/starred%7B/owner%7D%7B/repo%7D",
        "subscriptions_url": "https://api.github.com/users/brunoerg/subscriptions",
        "organizations_url": "https://api.github.com/users/brunoerg/orgs",
        "repos_url": "https://api.github.com/users/brunoerg/repos",
        "events_url": "https://api.github.com/users/brunoerg/events%7B/privacy%7D",
        "received_events_url": "https://api.github.com/users/brunoerg/received_events",
        "type": "User",
        "site_admin": false
      },
      "commit_id": null,
      "commit_url": null,
      "created_at": "2023-11-06T21:19:24Z",
      "updated_at": "2023-11-06T21:19:24Z",
      "author_association": "CONTRIBUTOR",
      "body": "> Is there a reason not to cover more of DescriptorScriptPubKeyMan in this PR? e.g. DescriptorScriptPubKeyMan::SignTransaction or DescriptorScriptPubKeyMan::FillPSBT.\r\n\r\nNot exactly, perhaps one of them may be very slow, let me test more functions and then I can add them all here, np.",
      "user": {
        "login": "brunoerg",
        "id": 19480819,
        "node_id": "MDQ6VXNlcjE5NDgwODE5",
        "avatar_url": "https://avatars.githubusercontent.com/u/19480819?v=4",
        "gravatar_id": "",
        "url": "https://api.github.com/users/brunoerg",
        "html_url": "https://github.com/brunoerg",
        "followers_url": "https://api.github.com/users/brunoerg/followers",
        "following_url": "https://api.github.com/users/brunoerg/following%7B/other_user%7D",
        "gists_url": "https://api.github.com/users/brunoerg/gists%7B/gist_id%7D",
        "starred_url": "https://api.github.com/users/brunoerg/starred%7B/owner%7D%7B/repo%7D",
        "subscriptions_url": "https://api.github.com/users/brunoerg/subscriptions",
        "organizations_url": "https://api.github.com/users/brunoerg/orgs",
        "repos_url": "https://api.github.com/users/brunoerg/repos",
        "events_url": "https://api.github.com/users/brunoerg/events%7B/privacy%7D",
        "received_events_url": "https://api.github.com/users/brunoerg/received_events",
        "type": "User",
        "site_admin": false
      },
      "html_url": "https://github.com/bitcoin/bitcoin/pull/28578#issuecomment-1796506821",
      "issue_url": "https://api.github.com/repos/bitcoin/bitcoin/issues/28578"
    }
  ],
  "comments": [
    {
      "url": "https://api.github.com/repos/bitcoin/bitcoin/pulls/comments/1345291276",
      "pull_request_review_id": 1656792041,
      "id": 1345291276,
      "node_id": "PRRC_kwDOABII585QL4QM",
      "diff_hunk": "@@ -0,0 +1,138 @@\n+// Copyright (c) 2022 The Bitcoin Core developers\n+// Distributed under the MIT software license, see the accompanying\n+// file COPYING or http://www.opensource.org/licenses/mit-license.php.\n+\n+#include <test/fuzz/FuzzedDataProvider.h>\n+#include <test/fuzz/fuzz.h>\n+#include <test/fuzz/util.h>\n+#include <test/util/setup_common.h>\n+#include <key_io.h>\n+#include <wallet/context.h>\n+#include <wallet/scriptpubkeyman.h>\n+#include <wallet/wallet.h>\n+#include <wallet/test/util.h>\n+#include <validation.h>\n+\n+namespace wallet {\n+namespace {\n+const TestingSetup* g_setup;\n+\n+void initialize_spkm()\n+{\n+    static const auto testing_setup = MakeNoLogFileContext<const TestingSetup>(ChainType::MAIN);\n+    g_setup = testing_setup.get();\n+}\n+\n+static std::string CreateDescriptorString(FuzzedDataProvider& fuzzed_data_provider)",
      "path": "src/wallet/test/fuzz/scriptpubkeyman.cpp",
      "position": null,
      "original_position": 26,
      "commit_id": "2f31c32fe27ee49d8397b3fd3ac2bea753273701",
      "original_commit_id": "6aaf739363ea91df1864f5fcc4d9ad38af9d2f7a",
      "in_reply_to_id": null,
      "user": {
        "login": "maflcko",
        "id": 6399679,
        "node_id": "MDQ6VXNlcjYzOTk2Nzk=",
        "avatar_url": "https://avatars.githubusercontent.com/u/6399679?v=4",
        "gravatar_id": "",
        "url": "https://api.github.com/users/maflcko",
        "html_url": "https://github.com/maflcko",
        "followers_url": "https://api.github.com/users/maflcko/followers",
        "following_url": "https://api.github.com/users/maflcko/following%7B/other_user%7D",
        "gists_url": "https://api.github.com/users/maflcko/gists%7B/gist_id%7D",
        "starred_url": "https://api.github.com/users/maflcko/starred%7B/owner%7D%7B/repo%7D",
        "subscriptions_url": "https://api.github.com/users/maflcko/subscriptions",
        "organizations_url": "https://api.github.com/users/maflcko/orgs",
        "repos_url": "https://api.github.com/users/maflcko/repos",
        "events_url": "https://api.github.com/users/maflcko/events%7B/privacy%7D",
        "received_events_url": "https://api.github.com/users/maflcko/received_events",
        "type": "User",
        "site_admin": false
      },
      "body": "How is this different from `MOCKED_DESC_CONVERTER.GetDescriptor(mocked_descriptor)` ?",
      "created_at": "2023-10-04T06:59:30Z",
      "updated_at": "2023-10-04T07:01:05Z",
      "html_url": "https://github.com/bitcoin/bitcoin/pull/28578#discussion_r1345291276",
      "author_association": "MEMBER",
      "_links": {
        "self": {
          "href": "https://api.github.com/repos/bitcoin/bitcoin/pulls/comments/1345291276"
        },
        "pull_request": {
          "href": "https://api.github.com/repos/bitcoin/bitcoin/pulls/28578"
        }
      },
      "start_line": null,
      "original_start_line": null,
      "start_side": null,
      "line": null,
      "original_line": 26,
      "side": "RIGHT"
    },
    {
      "url": "https://api.github.com/repos/bitcoin/bitcoin/pulls/comments/1345292604",
      "pull_request_review_id": 1656792041,
      "id": 1345292604,
      "node_id": "PRRC_kwDOABII585QL4k8",
      "diff_hunk": "@@ -0,0 +1,138 @@\n+// Copyright (c) 2022 The Bitcoin Core developers",
      "path": "src/wallet/test/fuzz/scriptpubkeyman.cpp",
      "position": null,
      "original_position": 1,
      "commit_id": "2f31c32fe27ee49d8397b3fd3ac2bea753273701",
      "original_commit_id": "6aaf739363ea91df1864f5fcc4d9ad38af9d2f7a",
      "in_reply_to_id": null,
      "user": {
        "login": "maflcko",
        "id": 6399679,
        "node_id": "MDQ6VXNlcjYzOTk2Nzk=",
        "avatar_url": "https://avatars.githubusercontent.com/u/6399679?v=4",
        "gravatar_id": "",
        "url": "https://api.github.com/users/maflcko",
        "html_url": "https://github.com/maflcko",
        "followers_url": "https://api.github.com/users/maflcko/followers",
        "following_url": "https://api.github.com/users/maflcko/following%7B/other_user%7D",
        "gists_url": "https://api.github.com/users/maflcko/gists%7B/gist_id%7D",
        "starred_url": "https://api.github.com/users/maflcko/starred%7B/owner%7D%7B/repo%7D",
        "subscriptions_url": "https://api.github.com/users/maflcko/subscriptions",
        "organizations_url": "https://api.github.com/users/maflcko/orgs",
        "repos_url": "https://api.github.com/users/maflcko/repos",
        "events_url": "https://api.github.com/users/maflcko/events%7B/privacy%7D",
        "received_events_url": "https://api.github.com/users/maflcko/received_events",
        "type": "User",
        "site_admin": false
      },
      "body": "```suggestion\r\n// Copyright (c) 2023-present The Bitcoin Core developers\r\n```\r\n\r\nnit: Wrong year? Also, for new code could omit the years completely, or use `-present` to avoid having to ever touch it again.",
      "created_at": "2023-10-04T07:00:47Z",
      "updated_at": "2023-10-04T07:01:05Z",
      "html_url": "https://github.com/bitcoin/bitcoin/pull/28578#discussion_r1345292604",
      "author_association": "MEMBER",
      "_links": {
        "self": {
          "href": "https://api.github.com/repos/bitcoin/bitcoin/pulls/comments/1345292604"
        },
        "pull_request": {
          "href": "https://api.github.com/repos/bitcoin/bitcoin/pulls/28578"
        }
      },
      "start_line": null,
      "original_start_line": null,
      "start_side": null,
      "line": null,
      "original_line": 1,
      "side": "RIGHT"
    },
    {
      "url": "https://api.github.com/repos/bitcoin/bitcoin/pulls/comments/1345683247",
      "pull_request_review_id": 1657364293,
      "id": 1345683247,
      "node_id": "PRRC_kwDOABII585QNX8v",
      "diff_hunk": "@@ -0,0 +1,138 @@\n+// Copyright (c) 2022 The Bitcoin Core developers",
      "path": "src/wallet/test/fuzz/scriptpubkeyman.cpp",
      "position": null,
      "original_position": 1,
      "commit_id": "2f31c32fe27ee49d8397b3fd3ac2bea753273701",
      "original_commit_id": "6aaf739363ea91df1864f5fcc4d9ad38af9d2f7a",
      "in_reply_to_id": 1345292604,
      "user": {
        "login": "brunoerg",
        "id": 19480819,
        "node_id": "MDQ6VXNlcjE5NDgwODE5",
        "avatar_url": "https://avatars.githubusercontent.com/u/19480819?v=4",
        "gravatar_id": "",
        "url": "https://api.github.com/users/brunoerg",
        "html_url": "https://github.com/brunoerg",
        "followers_url": "https://api.github.com/users/brunoerg/followers",
        "following_url": "https://api.github.com/users/brunoerg/following%7B/other_user%7D",
        "gists_url": "https://api.github.com/users/brunoerg/gists%7B/gist_id%7D",
        "starred_url": "https://api.github.com/users/brunoerg/starred%7B/owner%7D%7B/repo%7D",
        "subscriptions_url": "https://api.github.com/users/brunoerg/subscriptions",
        "organizations_url": "https://api.github.com/users/brunoerg/orgs",
        "repos_url": "https://api.github.com/users/brunoerg/repos",
        "events_url": "https://api.github.com/users/brunoerg/events%7B/privacy%7D",
        "received_events_url": "https://api.github.com/users/brunoerg/received_events",
        "type": "User",
        "site_admin": false
      },
      "body": "fixed",
      "created_at": "2023-10-04T12:03:05Z",
      "updated_at": "2023-10-04T12:03:06Z",
      "html_url": "https://github.com/bitcoin/bitcoin/pull/28578#discussion_r1345683247",
      "author_association": "CONTRIBUTOR",
      "_links": {
        "self": {
          "href": "https://api.github.com/repos/bitcoin/bitcoin/pulls/comments/1345683247"
        },
        "pull_request": {
          "href": "https://api.github.com/repos/bitcoin/bitcoin/pulls/28578"
        }
      },
      "start_line": null,
      "original_start_line": null,
      "start_side": null,
      "line": null,
      "original_line": 1,
      "side": "RIGHT"
    },
    {
      "url": "https://api.github.com/repos/bitcoin/bitcoin/pulls/comments/1345692298",
      "pull_request_review_id": 1657376684,
      "id": 1345692298,
      "node_id": "PRRC_kwDOABII585QNaKK",
      "diff_hunk": "@@ -0,0 +1,138 @@\n+// Copyright (c) 2022 The Bitcoin Core developers\n+// Distributed under the MIT software license, see the accompanying\n+// file COPYING or http://www.opensource.org/licenses/mit-license.php.\n+\n+#include <test/fuzz/FuzzedDataProvider.h>\n+#include <test/fuzz/fuzz.h>\n+#include <test/fuzz/util.h>\n+#include <test/util/setup_common.h>\n+#include <key_io.h>\n+#include <wallet/context.h>\n+#include <wallet/scriptpubkeyman.h>\n+#include <wallet/wallet.h>\n+#include <wallet/test/util.h>\n+#include <validation.h>\n+\n+namespace wallet {\n+namespace {\n+const TestingSetup* g_setup;\n+\n+void initialize_spkm()\n+{\n+    static const auto testing_setup = MakeNoLogFileContext<const TestingSetup>(ChainType::MAIN);\n+    g_setup = testing_setup.get();\n+}\n+\n+static std::string CreateDescriptorString(FuzzedDataProvider& fuzzed_data_provider)",
      "path": "src/wallet/test/fuzz/scriptpubkeyman.cpp",
      "position": null,
      "original_position": 26,
      "commit_id": "2f31c32fe27ee49d8397b3fd3ac2bea753273701",
      "original_commit_id": "6aaf739363ea91df1864f5fcc4d9ad38af9d2f7a",
      "in_reply_to_id": 1345291276,
      "user": {
        "login": "brunoerg",
        "id": 19480819,
        "node_id": "MDQ6VXNlcjE5NDgwODE5",
        "avatar_url": "https://avatars.githubusercontent.com/u/19480819?v=4",
        "gravatar_id": "",
        "url": "https://api.github.com/users/brunoerg",
        "html_url": "https://github.com/brunoerg",
        "followers_url": "https://api.github.com/users/brunoerg/followers",
        "following_url": "https://api.github.com/users/brunoerg/following%7B/other_user%7D",
        "gists_url": "https://api.github.com/users/brunoerg/gists%7B/gist_id%7D",
        "starred_url": "https://api.github.com/users/brunoerg/starred%7B/owner%7D%7B/repo%7D",
        "subscriptions_url": "https://api.github.com/users/brunoerg/subscriptions",
        "organizations_url": "https://api.github.com/users/brunoerg/orgs",
        "repos_url": "https://api.github.com/users/brunoerg/repos",
        "events_url": "https://api.github.com/users/brunoerg/events%7B/privacy%7D",
        "received_events_url": "https://api.github.com/users/brunoerg/received_events",
        "type": "User",
        "site_admin": false
      },
      "body": "Good question, let me check. If they are similar, we can move `MockedDescriptorConverter` to a util file and use it here.",
      "created_at": "2023-10-04T12:10:00Z",
      "updated_at": "2023-10-04T12:10:00Z",
      "html_url": "https://github.com/bitcoin/bitcoin/pull/28578#discussion_r1345692298",
      "author_association": "CONTRIBUTOR",
      "_links": {
        "self": {
          "href": "https://api.github.com/repos/bitcoin/bitcoin/pulls/comments/1345692298"
        },
        "pull_request": {
          "href": "https://api.github.com/repos/bitcoin/bitcoin/pulls/28578"
        }
      },
      "start_line": null,
      "original_start_line": null,
      "start_side": null,
      "line": null,
      "original_line": 26,
      "side": "RIGHT"
    },
    {
      "url": "https://api.github.com/repos/bitcoin/bitcoin/pulls/comments/1346487893",
      "pull_request_review_id": 1658518357,
      "id": 1346487893,
      "node_id": "PRRC_kwDOABII585QQcZV",
      "diff_hunk": "@@ -0,0 +1,138 @@\n+// Copyright (c) 2022 The Bitcoin Core developers\n+// Distributed under the MIT software license, see the accompanying\n+// file COPYING or http://www.opensource.org/licenses/mit-license.php.\n+\n+#include <test/fuzz/FuzzedDataProvider.h>\n+#include <test/fuzz/fuzz.h>\n+#include <test/fuzz/util.h>\n+#include <test/util/setup_common.h>\n+#include <key_io.h>\n+#include <wallet/context.h>\n+#include <wallet/scriptpubkeyman.h>\n+#include <wallet/wallet.h>\n+#include <wallet/test/util.h>\n+#include <validation.h>\n+\n+namespace wallet {\n+namespace {\n+const TestingSetup* g_setup;\n+\n+void initialize_spkm()\n+{\n+    static const auto testing_setup = MakeNoLogFileContext<const TestingSetup>(ChainType::MAIN);\n+    g_setup = testing_setup.get();\n+}\n+\n+static std::string CreateDescriptorString(FuzzedDataProvider& fuzzed_data_provider)",
      "path": "src/wallet/test/fuzz/scriptpubkeyman.cpp",
      "position": null,
      "original_position": 26,
      "commit_id": "2f31c32fe27ee49d8397b3fd3ac2bea753273701",
      "original_commit_id": "6aaf739363ea91df1864f5fcc4d9ad38af9d2f7a",
      "in_reply_to_id": 1345291276,
      "user": {
        "login": "brunoerg",
        "id": 19480819,
        "node_id": "MDQ6VXNlcjE5NDgwODE5",
        "avatar_url": "https://avatars.githubusercontent.com/u/19480819?v=4",
        "gravatar_id": "",
        "url": "https://api.github.com/users/brunoerg",
        "html_url": "https://github.com/brunoerg",
        "followers_url": "https://api.github.com/users/brunoerg/followers",
        "following_url": "https://api.github.com/users/brunoerg/following%7B/other_user%7D",
        "gists_url": "https://api.github.com/users/brunoerg/gists%7B/gist_id%7D",
        "starred_url": "https://api.github.com/users/brunoerg/starred%7B/owner%7D%7B/repo%7D",
        "subscriptions_url": "https://api.github.com/users/brunoerg/subscriptions",
        "organizations_url": "https://api.github.com/users/brunoerg/orgs",
        "repos_url": "https://api.github.com/users/brunoerg/repos",
        "events_url": "https://api.github.com/users/brunoerg/events%7B/privacy%7D",
        "received_events_url": "https://api.github.com/users/brunoerg/received_events",
        "type": "User",
        "site_admin": false
      },
      "body": "done!",
      "created_at": "2023-10-04T21:28:11Z",
      "updated_at": "2023-10-04T21:28:11Z",
      "html_url": "https://github.com/bitcoin/bitcoin/pull/28578#discussion_r1346487893",
      "author_association": "CONTRIBUTOR",
      "_links": {
        "self": {
          "href": "https://api.github.com/repos/bitcoin/bitcoin/pulls/comments/1346487893"
        },
        "pull_request": {
          "href": "https://api.github.com/repos/bitcoin/bitcoin/pulls/28578"
        }
      },
      "start_line": null,
      "original_start_line": null,
      "start_side": null,
      "line": null,
      "original_line": 26,
      "side": "RIGHT"
    },
    {
      "url": "https://api.github.com/repos/bitcoin/bitcoin/pulls/comments/1346988511",
      "pull_request_review_id": 1659172842,
      "id": 1346988511,
      "node_id": "PRRC_kwDOABII585QSWnf",
      "diff_hunk": "@@ -0,0 +1,105 @@\n+// Copyright (c) 2023-present The Bitcoin Core developers\n+// Distributed under the MIT software license, see the accompanying\n+// file COPYING or http://www.opensource.org/licenses/mit-license.php.\n+\n+#include <chainparams.h>\n+#include <validation.h>\n+#include <test/fuzz/FuzzedDataProvider.h>\n+#include <test/fuzz/fuzz.h>\n+#include <test/fuzz/util.h>\n+#include <test/fuzz/util/descriptor.h>\n+#include <test/util/setup_common.h>\n+#include <wallet/scriptpubkeyman.h>\n+#include <wallet/wallet.h>\n+#include <wallet/test/util.h>\n+\n+namespace wallet {\n+namespace {\n+const TestingSetup* g_setup;\n+\n+//! The converter of mocked descriptors, needs to be initialized when the target is.\n+MockedDescriptorConverter MOCKED_DESC_CONVERTER;\n+\n+void initialize_spkm()\n+{\n+    static const auto testing_setup{MakeNoLogFileContext<const TestingSetup>()};\n+    g_setup = testing_setup.get();\n+    SelectParams(ChainType::MAIN);\n+    MOCKED_DESC_CONVERTER.Init();\n+}\n+\n+static DescriptorScriptPubKeyMan* CreateDescriptor(FuzzedDataProvider& fuzzed_data_provider, CWallet& keystore)\n+{\n+    const auto random_bytes{ConsumeRandomLengthByteVector(fuzzed_data_provider)};",
      "path": "src/wallet/test/fuzz/scriptpubkeyman.cpp",
      "position": null,
      "original_position": 33,
      "commit_id": "2f31c32fe27ee49d8397b3fd3ac2bea753273701",
      "original_commit_id": "5e78c17563956acf3d09ea345f7d33b0ae2eb56e",
      "in_reply_to_id": null,
      "user": {
        "login": "maflcko",
        "id": 6399679,
        "node_id": "MDQ6VXNlcjYzOTk2Nzk=",
        "avatar_url": "https://avatars.githubusercontent.com/u/6399679?v=4",
        "gravatar_id": "",
        "url": "https://api.github.com/users/maflcko",
        "html_url": "https://github.com/maflcko",
        "followers_url": "https://api.github.com/users/maflcko/followers",
        "following_url": "https://api.github.com/users/maflcko/following%7B/other_user%7D",
        "gists_url": "https://api.github.com/users/maflcko/gists%7B/gist_id%7D",
        "starred_url": "https://api.github.com/users/maflcko/starred%7B/owner%7D%7B/repo%7D",
        "subscriptions_url": "https://api.github.com/users/maflcko/subscriptions",
        "organizations_url": "https://api.github.com/users/maflcko/orgs",
        "repos_url": "https://api.github.com/users/maflcko/repos",
        "events_url": "https://api.github.com/users/maflcko/events%7B/privacy%7D",
        "received_events_url": "https://api.github.com/users/maflcko/received_events",
        "type": "User",
        "site_admin": false
      },
      "body": "can use `fuzzed_data_provider.ConsumeRandomLengthString` directly",
      "created_at": "2023-10-05T08:10:59Z",
      "updated_at": "2023-10-05T08:12:43Z",
      "html_url": "https://github.com/bitcoin/bitcoin/pull/28578#discussion_r1346988511",
      "author_association": "MEMBER",
      "_links": {
        "self": {
          "href": "https://api.github.com/repos/bitcoin/bitcoin/pulls/comments/1346988511"
        },
        "pull_request": {
          "href": "https://api.github.com/repos/bitcoin/bitcoin/pulls/28578"
        }
      },
      "start_line": null,
      "original_start_line": null,
      "start_side": null,
      "line": null,
      "original_line": 33,
      "side": "RIGHT"
    },
    {
      "url": "https://api.github.com/repos/bitcoin/bitcoin/pulls/comments/1347292066",
      "pull_request_review_id": 1659642976,
      "id": 1347292066,
      "node_id": "PRRC_kwDOABII585QTgui",
      "diff_hunk": "@@ -0,0 +1,105 @@\n+// Copyright (c) 2023-present The Bitcoin Core developers\n+// Distributed under the MIT software license, see the accompanying\n+// file COPYING or http://www.opensource.org/licenses/mit-license.php.\n+\n+#include <chainparams.h>\n+#include <validation.h>\n+#include <test/fuzz/FuzzedDataProvider.h>\n+#include <test/fuzz/fuzz.h>\n+#include <test/fuzz/util.h>\n+#include <test/fuzz/util/descriptor.h>\n+#include <test/util/setup_common.h>\n+#include <wallet/scriptpubkeyman.h>\n+#include <wallet/wallet.h>\n+#include <wallet/test/util.h>\n+\n+namespace wallet {\n+namespace {\n+const TestingSetup* g_setup;\n+\n+//! The converter of mocked descriptors, needs to be initialized when the target is.\n+MockedDescriptorConverter MOCKED_DESC_CONVERTER;\n+\n+void initialize_spkm()\n+{\n+    static const auto testing_setup{MakeNoLogFileContext<const TestingSetup>()};\n+    g_setup = testing_setup.get();\n+    SelectParams(ChainType::MAIN);\n+    MOCKED_DESC_CONVERTER.Init();\n+}\n+\n+static DescriptorScriptPubKeyMan* CreateDescriptor(FuzzedDataProvider& fuzzed_data_provider, CWallet& keystore)\n+{\n+    const auto random_bytes{ConsumeRandomLengthByteVector(fuzzed_data_provider)};",
      "path": "src/wallet/test/fuzz/scriptpubkeyman.cpp",
      "position": null,
      "original_position": 33,
      "commit_id": "2f31c32fe27ee49d8397b3fd3ac2bea753273701",
      "original_commit_id": "5e78c17563956acf3d09ea345f7d33b0ae2eb56e",
      "in_reply_to_id": 1346988511,
      "user": {
        "login": "brunoerg",
        "id": 19480819,
        "node_id": "MDQ6VXNlcjE5NDgwODE5",
        "avatar_url": "https://avatars.githubusercontent.com/u/19480819?v=4",
        "gravatar_id": "",
        "url": "https://api.github.com/users/brunoerg",
        "html_url": "https://github.com/brunoerg",
        "followers_url": "https://api.github.com/users/brunoerg/followers",
        "following_url": "https://api.github.com/users/brunoerg/following%7B/other_user%7D",
        "gists_url": "https://api.github.com/users/brunoerg/gists%7B/gist_id%7D",
        "starred_url": "https://api.github.com/users/brunoerg/starred%7B/owner%7D%7B/repo%7D",
        "subscriptions_url": "https://api.github.com/users/brunoerg/subscriptions",
        "organizations_url": "https://api.github.com/users/brunoerg/orgs",
        "repos_url": "https://api.github.com/users/brunoerg/repos",
        "events_url": "https://api.github.com/users/brunoerg/events%7B/privacy%7D",
        "received_events_url": "https://api.github.com/users/brunoerg/received_events",
        "type": "User",
        "site_admin": false
      },
      "body": "done",
      "created_at": "2023-10-05T11:45:21Z",
      "updated_at": "2023-10-05T11:45:21Z",
      "html_url": "https://github.com/bitcoin/bitcoin/pull/28578#discussion_r1347292066",
      "author_association": "CONTRIBUTOR",
      "_links": {
        "self": {
          "href": "https://api.github.com/repos/bitcoin/bitcoin/pulls/comments/1347292066"
        },
        "pull_request": {
          "href": "https://api.github.com/repos/bitcoin/bitcoin/pulls/28578"
        }
      },
      "start_line": null,
      "original_start_line": null,
      "start_side": null,
      "line": null,
      "original_line": 33,
      "side": "RIGHT"
    }
  ]
}