{
  "type": "pull",
  "pull": {
    "url": "https://api.github.com/repos/bitcoin/bitcoin/pulls/28678",
    "id": 1563555910,
    "node_id": "PR_kwDOABII585dMfhG",
    "html_url": "https://github.com/bitcoin/bitcoin/pull/28678",
    "diff_url": "https://github.com/bitcoin/bitcoin/pull/28678.diff",
    "patch_url": "https://github.com/bitcoin/bitcoin/pull/28678.patch",
    "issue_url": "https://api.github.com/repos/bitcoin/bitcoin/issues/28678",
    "commits_url": "https://api.github.com/repos/bitcoin/bitcoin/pulls/28678/commits",
    "review_comments_url": "https://api.github.com/repos/bitcoin/bitcoin/pulls/28678/comments",
    "review_comment_url": "https://api.github.com/repos/bitcoin/bitcoin/pulls/comments%7B/number%7D",
    "comments_url": "https://api.github.com/repos/bitcoin/bitcoin/issues/28678/comments",
    "statuses_url": "https://api.github.com/repos/bitcoin/bitcoin/statuses/12ad92c882b2efc266935f8473ddbd837216f8f9",
    "number": 28678,
    "state": "open",
    "locked": false,
    "maintainer_can_modify": true,
    "title": "miniscript: convert non-critical asserts to Assumes",
    "user": {
      "login": "sipa",
      "id": 548488,
      "node_id": "MDQ6VXNlcjU0ODQ4OA==",
      "avatar_url": "https://avatars.githubusercontent.com/u/548488?v=4",
      "gravatar_id": "",
      "url": "https://api.github.com/users/sipa",
      "html_url": "https://github.com/sipa",
      "followers_url": "https://api.github.com/users/sipa/followers",
      "following_url": "https://api.github.com/users/sipa/following%7B/other_user%7D",
      "gists_url": "https://api.github.com/users/sipa/gists%7B/gist_id%7D",
      "starred_url": "https://api.github.com/users/sipa/starred%7B/owner%7D%7B/repo%7D",
      "subscriptions_url": "https://api.github.com/users/sipa/subscriptions",
      "organizations_url": "https://api.github.com/users/sipa/orgs",
      "repos_url": "https://api.github.com/users/sipa/repos",
      "events_url": "https://api.github.com/users/sipa/events%7B/privacy%7D",
      "received_events_url": "https://api.github.com/users/sipa/received_events",
      "type": "User",
      "site_admin": false
    },
    "body": "It's better practice to use `Assume` for non-critical assumptions made in the code. This is especially relevant for P2P-exposed functionality, which I don't believe is the case for miniscript, but still, use `Assume`s except in places where a crash or UB will be inevitable on a failed `assert` anyway.",
    "labels": [
      {
        "id": 1482182044,
        "node_id": "MDU6TGFiZWwxNDgyMTgyMDQ0",
        "url": "https://api.github.com/repos/bitcoin/bitcoin/labels/Descriptors",
        "name": "Descriptors",
        "description": "",
        "color": "e9f76c",
        "default": false
      }
    ],
    "created_at": "2023-10-18T22:00:52Z",
    "updated_at": "2023-10-31T13:53:44Z",
    "mergeable": true,
    "mergeable_state": "blocked",
    "merge_commit_sha": "ef1a10b81864f477d992b056be441348d04751e8",
    "assignees": [],
    "requested_reviewers": [],
    "requested_teams": [],
    "rebaseable": true,
    "head": {
      "label": "sipa:202310_miniscript_assume",
      "ref": "202310_miniscript_assume",
      "sha": "12ad92c882b2efc266935f8473ddbd837216f8f9",
      "user": {
        "login": "sipa",
        "id": 548488,
        "node_id": "MDQ6VXNlcjU0ODQ4OA==",
        "avatar_url": "https://avatars.githubusercontent.com/u/548488?v=4",
        "gravatar_id": "",
        "url": "https://api.github.com/users/sipa",
        "html_url": "https://github.com/sipa",
        "followers_url": "https://api.github.com/users/sipa/followers",
        "following_url": "https://api.github.com/users/sipa/following%7B/other_user%7D",
        "gists_url": "https://api.github.com/users/sipa/gists%7B/gist_id%7D",
        "starred_url": "https://api.github.com/users/sipa/starred%7B/owner%7D%7B/repo%7D",
        "subscriptions_url": "https://api.github.com/users/sipa/subscriptions",
        "organizations_url": "https://api.github.com/users/sipa/orgs",
        "repos_url": "https://api.github.com/users/sipa/repos",
        "events_url": "https://api.github.com/users/sipa/events%7B/privacy%7D",
        "received_events_url": "https://api.github.com/users/sipa/received_events",
        "type": "User",
        "site_admin": false
      },
      "repo": {
        "id": 1458655,
        "node_id": "MDEwOlJlcG9zaXRvcnkxNDU4NjU1",
        "name": "bitcoin",
        "full_name": "sipa/bitcoin",
        "owner": {
          "login": "sipa",
          "id": 548488,
          "node_id": "MDQ6VXNlcjU0ODQ4OA==",
          "avatar_url": "https://avatars.githubusercontent.com/u/548488?v=4",
          "gravatar_id": "",
          "url": "https://api.github.com/users/sipa",
          "html_url": "https://github.com/sipa",
          "followers_url": "https://api.github.com/users/sipa/followers",
          "following_url": "https://api.github.com/users/sipa/following%7B/other_user%7D",
          "gists_url": "https://api.github.com/users/sipa/gists%7B/gist_id%7D",
          "starred_url": "https://api.github.com/users/sipa/starred%7B/owner%7D%7B/repo%7D",
          "subscriptions_url": "https://api.github.com/users/sipa/subscriptions",
          "organizations_url": "https://api.github.com/users/sipa/orgs",
          "repos_url": "https://api.github.com/users/sipa/repos",
          "events_url": "https://api.github.com/users/sipa/events%7B/privacy%7D",
          "received_events_url": "https://api.github.com/users/sipa/received_events",
          "type": "User",
          "site_admin": false
        },
        "private": false,
        "html_url": "https://github.com/sipa/bitcoin",
        "description": "Bitcoin integration/staging tree",
        "fork": true,
        "url": "https://api.github.com/repos/sipa/bitcoin",
        "archive_url": "https://api.github.com/repos/sipa/bitcoin/%7Barchive_format%7D%7B/ref%7D",
        "assignees_url": "https://api.github.com/repos/sipa/bitcoin/assignees%7B/user%7D",
        "blobs_url": "https://api.github.com/repos/sipa/bitcoin/git/blobs%7B/sha%7D",
        "branches_url": "https://api.github.com/repos/sipa/bitcoin/branches%7B/branch%7D",
        "collaborators_url": "https://api.github.com/repos/sipa/bitcoin/collaborators%7B/collaborator%7D",
        "comments_url": "https://api.github.com/repos/sipa/bitcoin/comments%7B/number%7D",
        "commits_url": "https://api.github.com/repos/sipa/bitcoin/commits%7B/sha%7D",
        "compare_url": "https://api.github.com/repos/sipa/bitcoin/compare/%7Bbase%7D...%7Bhead%7D",
        "contents_url": "https://api.github.com/repos/sipa/bitcoin/contents/%7B+path%7D",
        "contributors_url": "https://api.github.com/repos/sipa/bitcoin/contributors",
        "deployments_url": "https://api.github.com/repos/sipa/bitcoin/deployments",
        "downloads_url": "https://api.github.com/repos/sipa/bitcoin/downloads",
        "events_url": "https://api.github.com/repos/sipa/bitcoin/events",
        "forks_url": "https://api.github.com/repos/sipa/bitcoin/forks",
        "git_commits_url": "https://api.github.com/repos/sipa/bitcoin/git/commits%7B/sha%7D",
        "git_refs_url": "https://api.github.com/repos/sipa/bitcoin/git/refs%7B/sha%7D",
        "git_tags_url": "https://api.github.com/repos/sipa/bitcoin/git/tags%7B/sha%7D",
        "git_url": "git://github.com/sipa/bitcoin.git",
        "issue_comment_url": "https://api.github.com/repos/sipa/bitcoin/issues/comments%7B/number%7D",
        "issue_events_url": "https://api.github.com/repos/sipa/bitcoin/issues/events%7B/number%7D",
        "issues_url": "https://api.github.com/repos/sipa/bitcoin/issues%7B/number%7D",
        "keys_url": "https://api.github.com/repos/sipa/bitcoin/keys%7B/key_id%7D",
        "labels_url": "https://api.github.com/repos/sipa/bitcoin/labels%7B/name%7D",
        "languages_url": "https://api.github.com/repos/sipa/bitcoin/languages",
        "merges_url": "https://api.github.com/repos/sipa/bitcoin/merges",
        "milestones_url": "https://api.github.com/repos/sipa/bitcoin/milestones%7B/number%7D",
        "notifications_url": "https://api.github.com/repos/sipa/bitcoin/notifications%7B?since,all,participating}",
        "pulls_url": "https://api.github.com/repos/sipa/bitcoin/pulls%7B/number%7D",
        "releases_url": "https://api.github.com/repos/sipa/bitcoin/releases%7B/id%7D",
        "ssh_url": "git@github.com:sipa/bitcoin.git",
        "stargazers_url": "https://api.github.com/repos/sipa/bitcoin/stargazers",
        "statuses_url": "https://api.github.com/repos/sipa/bitcoin/statuses/%7Bsha%7D",
        "subscribers_url": "https://api.github.com/repos/sipa/bitcoin/subscribers",
        "subscription_url": "https://api.github.com/repos/sipa/bitcoin/subscription",
        "tags_url": "https://api.github.com/repos/sipa/bitcoin/tags",
        "teams_url": "https://api.github.com/repos/sipa/bitcoin/teams",
        "trees_url": "https://api.github.com/repos/sipa/bitcoin/git/trees%7B/sha%7D",
        "clone_url": "https://github.com/sipa/bitcoin.git",
        "hooks_url": "https://api.github.com/repos/sipa/bitcoin/hooks",
        "svn_url": "https://github.com/sipa/bitcoin",
        "homepage": "http://www.bitcoin.org",
        "language": "TypeScript",
        "forks_count": 22,
        "stargazers_count": 84,
        "watchers_count": 84,
        "size": 224481,
        "default_branch": "lows",
        "open_issues_count": 16,
        "is_template": false,
        "topics": [],
        "has_issues": true,
        "has_projects": true,
        "has_wiki": true,
        "has_pages": false,
        "has_downloads": false,
        "archived": false,
        "disabled": false,
        "visibility": "public",
        "pushed_at": "2023-10-20T20:44:32Z",
        "created_at": "2011-03-09T10:46:59Z",
        "updated_at": "2023-10-20T10:27:50Z",
        "license": {
          "key": "mit",
          "name": "MIT License",
          "node_id": "MDc6TGljZW5zZTEz",
          "spdx_id": "MIT",
          "url": "https://api.github.com/licenses/mit",
          "html_url": null,
          "description": null,
          "implementation": null,
          "permissions": null,
          "conditions": null,
          "limitations": null,
          "body": null,
          "featured": null
        }
      }
    },
    "base": {
      "label": "bitcoin:master",
      "ref": "master",
      "sha": "655dc716aa6043613171a1338e22928de89a7d3e",
      "user": {
        "login": "bitcoin",
        "id": 528860,
        "node_id": "MDEyOk9yZ2FuaXphdGlvbjUyODg2MA==",
        "avatar_url": "https://avatars.githubusercontent.com/u/528860?v=4",
        "gravatar_id": "",
        "url": "https://api.github.com/users/bitcoin",
        "html_url": "https://github.com/bitcoin",
        "followers_url": "https://api.github.com/users/bitcoin/followers",
        "following_url": "https://api.github.com/users/bitcoin/following%7B/other_user%7D",
        "gists_url": "https://api.github.com/users/bitcoin/gists%7B/gist_id%7D",
        "starred_url": "https://api.github.com/users/bitcoin/starred%7B/owner%7D%7B/repo%7D",
        "subscriptions_url": "https://api.github.com/users/bitcoin/subscriptions",
        "organizations_url": "https://api.github.com/users/bitcoin/orgs",
        "repos_url": "https://api.github.com/users/bitcoin/repos",
        "events_url": "https://api.github.com/users/bitcoin/events%7B/privacy%7D",
        "received_events_url": "https://api.github.com/users/bitcoin/received_events",
        "type": "Organization",
        "site_admin": false
      },
      "repo": {
        "id": 1181927,
        "node_id": "MDEwOlJlcG9zaXRvcnkxMTgxOTI3",
        "name": "bitcoin",
        "full_name": "bitcoin/bitcoin",
        "owner": {
          "login": "bitcoin",
          "id": 528860,
          "node_id": "MDEyOk9yZ2FuaXphdGlvbjUyODg2MA==",
          "avatar_url": "https://avatars.githubusercontent.com/u/528860?v=4",
          "gravatar_id": "",
          "url": "https://api.github.com/users/bitcoin",
          "html_url": "https://github.com/bitcoin",
          "followers_url": "https://api.github.com/users/bitcoin/followers",
          "following_url": "https://api.github.com/users/bitcoin/following%7B/other_user%7D",
          "gists_url": "https://api.github.com/users/bitcoin/gists%7B/gist_id%7D",
          "starred_url": "https://api.github.com/users/bitcoin/starred%7B/owner%7D%7B/repo%7D",
          "subscriptions_url": "https://api.github.com/users/bitcoin/subscriptions",
          "organizations_url": "https://api.github.com/users/bitcoin/orgs",
          "repos_url": "https://api.github.com/users/bitcoin/repos",
          "events_url": "https://api.github.com/users/bitcoin/events%7B/privacy%7D",
          "received_events_url": "https://api.github.com/users/bitcoin/received_events",
          "type": "Organization",
          "site_admin": false
        },
        "private": false,
        "html_url": "https://github.com/bitcoin/bitcoin",
        "description": "Bitcoin Core integration/staging tree",
        "fork": false,
        "url": "https://api.github.com/repos/bitcoin/bitcoin",
        "archive_url": "https://api.github.com/repos/bitcoin/bitcoin/%7Barchive_format%7D%7B/ref%7D",
        "assignees_url": "https://api.github.com/repos/bitcoin/bitcoin/assignees%7B/user%7D",
        "blobs_url": "https://api.github.com/repos/bitcoin/bitcoin/git/blobs%7B/sha%7D",
        "branches_url": "https://api.github.com/repos/bitcoin/bitcoin/branches%7B/branch%7D",
        "collaborators_url": "https://api.github.com/repos/bitcoin/bitcoin/collaborators%7B/collaborator%7D",
        "comments_url": "https://api.github.com/repos/bitcoin/bitcoin/comments%7B/number%7D",
        "commits_url": "https://api.github.com/repos/bitcoin/bitcoin/commits%7B/sha%7D",
        "compare_url": "https://api.github.com/repos/bitcoin/bitcoin/compare/%7Bbase%7D...%7Bhead%7D",
        "contents_url": "https://api.github.com/repos/bitcoin/bitcoin/contents/%7B+path%7D",
        "contributors_url": "https://api.github.com/repos/bitcoin/bitcoin/contributors",
        "deployments_url": "https://api.github.com/repos/bitcoin/bitcoin/deployments",
        "downloads_url": "https://api.github.com/repos/bitcoin/bitcoin/downloads",
        "events_url": "https://api.github.com/repos/bitcoin/bitcoin/events",
        "forks_url": "https://api.github.com/repos/bitcoin/bitcoin/forks",
        "git_commits_url": "https://api.github.com/repos/bitcoin/bitcoin/git/commits%7B/sha%7D",
        "git_refs_url": "https://api.github.com/repos/bitcoin/bitcoin/git/refs%7B/sha%7D",
        "git_tags_url": "https://api.github.com/repos/bitcoin/bitcoin/git/tags%7B/sha%7D",
        "git_url": "git://github.com/bitcoin/bitcoin.git",
        "issue_comment_url": "https://api.github.com/repos/bitcoin/bitcoin/issues/comments%7B/number%7D",
        "issue_events_url": "https://api.github.com/repos/bitcoin/bitcoin/issues/events%7B/number%7D",
        "issues_url": "https://api.github.com/repos/bitcoin/bitcoin/issues%7B/number%7D",
        "keys_url": "https://api.github.com/repos/bitcoin/bitcoin/keys%7B/key_id%7D",
        "labels_url": "https://api.github.com/repos/bitcoin/bitcoin/labels%7B/name%7D",
        "languages_url": "https://api.github.com/repos/bitcoin/bitcoin/languages",
        "merges_url": "https://api.github.com/repos/bitcoin/bitcoin/merges",
        "milestones_url": "https://api.github.com/repos/bitcoin/bitcoin/milestones%7B/number%7D",
        "notifications_url": "https://api.github.com/repos/bitcoin/bitcoin/notifications%7B?since,all,participating}",
        "pulls_url": "https://api.github.com/repos/bitcoin/bitcoin/pulls%7B/number%7D",
        "releases_url": "https://api.github.com/repos/bitcoin/bitcoin/releases%7B/id%7D",
        "ssh_url": "git@github.com:bitcoin/bitcoin.git",
        "stargazers_url": "https://api.github.com/repos/bitcoin/bitcoin/stargazers",
        "statuses_url": "https://api.github.com/repos/bitcoin/bitcoin/statuses/%7Bsha%7D",
        "subscribers_url": "https://api.github.com/repos/bitcoin/bitcoin/subscribers",
        "subscription_url": "https://api.github.com/repos/bitcoin/bitcoin/subscription",
        "tags_url": "https://api.github.com/repos/bitcoin/bitcoin/tags",
        "teams_url": "https://api.github.com/repos/bitcoin/bitcoin/teams",
        "trees_url": "https://api.github.com/repos/bitcoin/bitcoin/git/trees%7B/sha%7D",
        "clone_url": "https://github.com/bitcoin/bitcoin.git",
        "hooks_url": "https://api.github.com/repos/bitcoin/bitcoin/hooks",
        "svn_url": "https://github.com/bitcoin/bitcoin",
        "homepage": "https://bitcoincore.org/en/download",
        "language": "C++",
        "forks_count": 35909,
        "stargazers_count": 71990,
        "watchers_count": 71990,
        "size": 243912,
        "default_branch": "master",
        "open_issues_count": 630,
        "is_template": false,
        "topics": [
          "bitcoin",
          "c-plus-plus",
          "cryptocurrency",
          "cryptography",
          "p2p"
        ],
        "has_issues": true,
        "has_projects": true,
        "has_wiki": false,
        "has_pages": false,
        "has_downloads": false,
        "archived": false,
        "disabled": false,
        "visibility": "public",
        "pushed_at": "2023-10-31T12:13:57Z",
        "created_at": "2010-12-19T15:16:43Z",
        "updated_at": "2023-10-31T12:14:14Z",
        "license": {
          "key": "mit",
          "name": "MIT License",
          "node_id": "MDc6TGljZW5zZTEz",
          "spdx_id": "MIT",
          "url": "https://api.github.com/licenses/mit",
          "html_url": null,
          "description": null,
          "implementation": null,
          "permissions": null,
          "conditions": null,
          "limitations": null,
          "body": null,
          "featured": null
        }
      }
    },
    "_links": {
      "self": {
        "href": "https://api.github.com/repos/bitcoin/bitcoin/pulls/28678"
      }
    },
    "author_association": "MEMBER",
    "draft": false,
    "additions": 82,
    "deletions": 74,
    "changed_files": 2,
    "commits": 2,
    "review_comments": 0,
    "comments": 2
  },
  "events": [
    {
      "event": "committed",
      "id": null,
      "node_id": "C_kwDOABII59oAKDg4ZjhlNDQ2ODMwNjhmYzg1NjFjNDY4OGIwMThmMTFkNWUxNTY3OTM",
      "url": "https://api.github.com/repos/bitcoin/bitcoin/git/commits/88f8e44683068fc8561c4688b018f11d5e156793",
      "actor": null,
      "commit_id": null,
      "commit_url": null,
      "created_at": null,
      "html_url": "https://github.com/bitcoin/bitcoin/commit/88f8e44683068fc8561c4688b018f11d5e156793",
      "tree": {
        "sha": "534a0c89ba1ad1b44cd22aadf9cc5f0007d429d0",
        "url": "https://api.github.com/repos/bitcoin/bitcoin/git/trees/534a0c89ba1ad1b44cd22aadf9cc5f0007d429d0"
      },
      "verification": {
        "verified": false,
        "reason": "unsigned",
        "payload": null,
        "signature": null
      },
      "parents": [
        {
          "url": "https://api.github.com/repos/bitcoin/bitcoin/git/commits/655dc716aa6043613171a1338e22928de89a7d3e",
          "sha": "655dc716aa6043613171a1338e22928de89a7d3e",
          "html_url": "https://github.com/bitcoin/bitcoin/commit/655dc716aa6043613171a1338e22928de89a7d3e"
        }
      ],
      "message": "miniscript: move satisfaction sanity check to its own function",
      "committer": {
        "name": "Pieter Wuille",
        "email": "pieter@wuille.net",
        "date": "2023-10-18T21:55:26Z"
      },
      "author": {
        "name": "Pieter Wuille",
        "email": "pieter@wuille.net",
        "date": "2023-10-16T21:48:07Z"
      },
      "sha": "88f8e44683068fc8561c4688b018f11d5e156793"
    },
    {
      "event": "committed",
      "id": null,
      "node_id": "C_kwDOABII59oAKDEyYWQ5MmM4ODJiMmVmYzI2NjkzNWY4NDczZGRiZDgzNzIxNmY4Zjk",
      "url": "https://api.github.com/repos/bitcoin/bitcoin/git/commits/12ad92c882b2efc266935f8473ddbd837216f8f9",
      "actor": null,
      "commit_id": null,
      "commit_url": null,
      "created_at": null,
      "html_url": "https://github.com/bitcoin/bitcoin/commit/12ad92c882b2efc266935f8473ddbd837216f8f9",
      "tree": {
        "sha": "cd7b0dd2b28e6f9d035761dbabddaf474657d145",
        "url": "https://api.github.com/repos/bitcoin/bitcoin/git/trees/cd7b0dd2b28e6f9d035761dbabddaf474657d145"
      },
      "verification": {
        "verified": false,
        "reason": "unsigned",
        "payload": null,
        "signature": null
      },
      "parents": [
        {
          "url": "https://api.github.com/repos/bitcoin/bitcoin/git/commits/88f8e44683068fc8561c4688b018f11d5e156793",
          "sha": "88f8e44683068fc8561c4688b018f11d5e156793",
          "html_url": "https://github.com/bitcoin/bitcoin/commit/88f8e44683068fc8561c4688b018f11d5e156793"
        }
      ],
      "message": "miniscript: convert non-critical asserts to Assumes",
      "committer": {
        "name": "Pieter Wuille",
        "email": "pieter@wuille.net",
        "date": "2023-10-18T21:55:32Z"
      },
      "author": {
        "name": "Pieter Wuille",
        "email": "pieter@wuille.net",
        "date": "2023-10-16T21:52:19Z"
      },
      "sha": "12ad92c882b2efc266935f8473ddbd837216f8f9"
    },
    {
      "event": "commented",
      "id": 1769443734,
      "node_id": "IC_kwDOABII585pd5GW",
      "url": "https://api.github.com/repos/bitcoin/bitcoin/issues/comments/1769443734",
      "actor": {
        "login": "DrahtBot",
        "id": 39886733,
        "node_id": "MDQ6VXNlcjM5ODg2NzMz",
        "avatar_url": "https://avatars.githubusercontent.com/u/39886733?v=4",
        "gravatar_id": "",
        "url": "https://api.github.com/users/DrahtBot",
        "html_url": "https://github.com/DrahtBot",
        "followers_url": "https://api.github.com/users/DrahtBot/followers",
        "following_url": "https://api.github.com/users/DrahtBot/following%7B/other_user%7D",
        "gists_url": "https://api.github.com/users/DrahtBot/gists%7B/gist_id%7D",
        "starred_url": "https://api.github.com/users/DrahtBot/starred%7B/owner%7D%7B/repo%7D",
        "subscriptions_url": "https://api.github.com/users/DrahtBot/subscriptions",
        "organizations_url": "https://api.github.com/users/DrahtBot/orgs",
        "repos_url": "https://api.github.com/users/DrahtBot/repos",
        "events_url": "https://api.github.com/users/DrahtBot/events%7B/privacy%7D",
        "received_events_url": "https://api.github.com/users/DrahtBot/received_events",
        "type": "User",
        "site_admin": false
      },
      "commit_id": null,
      "commit_url": null,
      "created_at": "2023-10-18T22:00:55Z",
      "updated_at": "2023-10-31T13:53:44Z",
      "author_association": "CONTRIBUTOR",
      "body": "<!--e57a25ab6845829454e8d69fc972939a-->\n\nThe following sections might be updated with supplementary metadata relevant to reviewers and maintainers.\n\n<!--006a51241073e994b41acfe9ec718e94-->\n### Code Coverage\nFor detailed information about the code coverage, see the [test coverage report](https://corecheck.dev/bitcoin/bitcoin/pulls/28678).\n<!--021abf342d371248e50ceaed478a90ca-->\n### Reviews\nSee [the guideline](https://github.com/bitcoin/bitcoin/blob/master/CONTRIBUTING.md#code-review) for information on the review process.\n| Type | Reviewers |\n| ---- | --------- |\n| Concept ACK | [laanwj](https://github.com/bitcoin/bitcoin/pull/28678#issuecomment-1787266550) |\n\nIf your review is incorrectly listed, please react with 👎 to this comment and the bot will ignore it on the next update.\n",
      "user": {
        "login": "DrahtBot",
        "id": 39886733,
        "node_id": "MDQ6VXNlcjM5ODg2NzMz",
        "avatar_url": "https://avatars.githubusercontent.com/u/39886733?v=4",
        "gravatar_id": "",
        "url": "https://api.github.com/users/DrahtBot",
        "html_url": "https://github.com/DrahtBot",
        "followers_url": "https://api.github.com/users/DrahtBot/followers",
        "following_url": "https://api.github.com/users/DrahtBot/following%7B/other_user%7D",
        "gists_url": "https://api.github.com/users/DrahtBot/gists%7B/gist_id%7D",
        "starred_url": "https://api.github.com/users/DrahtBot/starred%7B/owner%7D%7B/repo%7D",
        "subscriptions_url": "https://api.github.com/users/DrahtBot/subscriptions",
        "organizations_url": "https://api.github.com/users/DrahtBot/orgs",
        "repos_url": "https://api.github.com/users/DrahtBot/repos",
        "events_url": "https://api.github.com/users/DrahtBot/events%7B/privacy%7D",
        "received_events_url": "https://api.github.com/users/DrahtBot/received_events",
        "type": "User",
        "site_admin": false
      },
      "html_url": "https://github.com/bitcoin/bitcoin/pull/28678#issuecomment-1769443734",
      "issue_url": "https://api.github.com/repos/bitcoin/bitcoin/issues/28678"
    },
    {
      "event": "labeled",
      "id": 10699878028,
      "node_id": "LE_lADOABII5850Ri6azwAAAAJ9wy6M",
      "url": "https://api.github.com/repos/bitcoin/bitcoin/issues/events/10699878028",
      "actor": {
        "login": "DrahtBot",
        "id": 39886733,
        "node_id": "MDQ6VXNlcjM5ODg2NzMz",
        "avatar_url": "https://avatars.githubusercontent.com/u/39886733?v=4",
        "gravatar_id": "",
        "url": "https://api.github.com/users/DrahtBot",
        "html_url": "https://github.com/DrahtBot",
        "followers_url": "https://api.github.com/users/DrahtBot/followers",
        "following_url": "https://api.github.com/users/DrahtBot/following%7B/other_user%7D",
        "gists_url": "https://api.github.com/users/DrahtBot/gists%7B/gist_id%7D",
        "starred_url": "https://api.github.com/users/DrahtBot/starred%7B/owner%7D%7B/repo%7D",
        "subscriptions_url": "https://api.github.com/users/DrahtBot/subscriptions",
        "organizations_url": "https://api.github.com/users/DrahtBot/orgs",
        "repos_url": "https://api.github.com/users/DrahtBot/repos",
        "events_url": "https://api.github.com/users/DrahtBot/events%7B/privacy%7D",
        "received_events_url": "https://api.github.com/users/DrahtBot/received_events",
        "type": "User",
        "site_admin": false
      },
      "commit_id": null,
      "commit_url": null,
      "created_at": "2023-10-18T22:00:57Z",
      "label": {
        "name": "Descriptors",
        "color": "e9f76c"
      }
    },
    {
      "event": "review_requested",
      "id": 10700380738,
      "node_id": "RRE_lADOABII5850Ri6azwAAAAJ9ytpC",
      "url": "https://api.github.com/repos/bitcoin/bitcoin/issues/events/10700380738",
      "actor": {
        "login": "fanquake",
        "id": 863730,
        "node_id": "MDQ6VXNlcjg2MzczMA==",
        "avatar_url": "https://avatars.githubusercontent.com/u/863730?v=4",
        "gravatar_id": "",
        "url": "https://api.github.com/users/fanquake",
        "html_url": "https://github.com/fanquake",
        "followers_url": "https://api.github.com/users/fanquake/followers",
        "following_url": "https://api.github.com/users/fanquake/following%7B/other_user%7D",
        "gists_url": "https://api.github.com/users/fanquake/gists%7B/gist_id%7D",
        "starred_url": "https://api.github.com/users/fanquake/starred%7B/owner%7D%7B/repo%7D",
        "subscriptions_url": "https://api.github.com/users/fanquake/subscriptions",
        "organizations_url": "https://api.github.com/users/fanquake/orgs",
        "repos_url": "https://api.github.com/users/fanquake/repos",
        "events_url": "https://api.github.com/users/fanquake/events%7B/privacy%7D",
        "received_events_url": "https://api.github.com/users/fanquake/received_events",
        "type": "User",
        "site_admin": false
      },
      "commit_id": null,
      "commit_url": null,
      "created_at": "2023-10-18T22:17:57Z",
      "requested_reviewer": {
        "login": "darosior",
        "id": 22457751,
        "node_id": "MDQ6VXNlcjIyNDU3NzUx",
        "avatar_url": "https://avatars.githubusercontent.com/u/22457751?v=4",
        "gravatar_id": "",
        "url": "https://api.github.com/users/darosior",
        "html_url": "https://github.com/darosior",
        "followers_url": "https://api.github.com/users/darosior/followers",
        "following_url": "https://api.github.com/users/darosior/following%7B/other_user%7D",
        "gists_url": "https://api.github.com/users/darosior/gists%7B/gist_id%7D",
        "starred_url": "https://api.github.com/users/darosior/starred%7B/owner%7D%7B/repo%7D",
        "subscriptions_url": "https://api.github.com/users/darosior/subscriptions",
        "organizations_url": "https://api.github.com/users/darosior/orgs",
        "repos_url": "https://api.github.com/users/darosior/repos",
        "events_url": "https://api.github.com/users/darosior/events%7B/privacy%7D",
        "received_events_url": "https://api.github.com/users/darosior/received_events",
        "type": "User",
        "site_admin": false
      },
      "review_requester": {
        "login": "fanquake",
        "id": 863730,
        "node_id": "MDQ6VXNlcjg2MzczMA==",
        "avatar_url": "https://avatars.githubusercontent.com/u/863730?v=4",
        "gravatar_id": "",
        "url": "https://api.github.com/users/fanquake",
        "html_url": "https://github.com/fanquake",
        "followers_url": "https://api.github.com/users/fanquake/followers",
        "following_url": "https://api.github.com/users/fanquake/following%7B/other_user%7D",
        "gists_url": "https://api.github.com/users/fanquake/gists%7B/gist_id%7D",
        "starred_url": "https://api.github.com/users/fanquake/starred%7B/owner%7D%7B/repo%7D",
        "subscriptions_url": "https://api.github.com/users/fanquake/subscriptions",
        "organizations_url": "https://api.github.com/users/fanquake/orgs",
        "repos_url": "https://api.github.com/users/fanquake/repos",
        "events_url": "https://api.github.com/users/fanquake/events%7B/privacy%7D",
        "received_events_url": "https://api.github.com/users/fanquake/received_events",
        "type": "User",
        "site_admin": false
      }
    },
    {
      "event": "reviewed",
      "id": 1686865307,
      "node_id": "PRR_kwDOABII585ki4Wb",
      "url": null,
      "actor": null,
      "commit_id": "12ad92c882b2efc266935f8473ddbd837216f8f9",
      "commit_url": null,
      "created_at": null,
      "author_association": "MEMBER",
      "body": "Those checks can be reached through the RPC interface or the wallet. In the unlikely scenario they are reached in a release build it would be better if they raise an exception instead of continuing silently. For instance if the type of the miniscript descriptor you imported was miscomputed for some reason you probably don't want to move forward and receive funds on it. Therefore i think it's better to use `CHECK_NONFATAL`?",
      "user": {
        "login": "darosior",
        "id": 22457751,
        "node_id": "MDQ6VXNlcjIyNDU3NzUx",
        "avatar_url": "https://avatars.githubusercontent.com/u/22457751?v=4",
        "gravatar_id": "",
        "url": "https://api.github.com/users/darosior",
        "html_url": "https://github.com/darosior",
        "followers_url": "https://api.github.com/users/darosior/followers",
        "following_url": "https://api.github.com/users/darosior/following%7B/other_user%7D",
        "gists_url": "https://api.github.com/users/darosior/gists%7B/gist_id%7D",
        "starred_url": "https://api.github.com/users/darosior/starred%7B/owner%7D%7B/repo%7D",
        "subscriptions_url": "https://api.github.com/users/darosior/subscriptions",
        "organizations_url": "https://api.github.com/users/darosior/orgs",
        "repos_url": "https://api.github.com/users/darosior/repos",
        "events_url": "https://api.github.com/users/darosior/events%7B/privacy%7D",
        "received_events_url": "https://api.github.com/users/darosior/received_events",
        "type": "User",
        "site_admin": false
      },
      "html_url": "https://github.com/bitcoin/bitcoin/pull/28678#pullrequestreview-1686865307",
      "submitted_at": "2023-10-19T06:55:15Z",
      "state": "COMMENTED",
      "pull_request_url": "https://api.github.com/repos/bitcoin/bitcoin/pulls/28678"
    },
    {
      "event": "commented",
      "id": 1787266550,
      "node_id": "IC_kwDOABII585qh4X2",
      "url": "https://api.github.com/repos/bitcoin/bitcoin/issues/comments/1787266550",
      "actor": {
        "login": "laanwj",
        "id": 126646,
        "node_id": "MDQ6VXNlcjEyNjY0Ng==",
        "avatar_url": "https://avatars.githubusercontent.com/u/126646?v=4",
        "gravatar_id": "",
        "url": "https://api.github.com/users/laanwj",
        "html_url": "https://github.com/laanwj",
        "followers_url": "https://api.github.com/users/laanwj/followers",
        "following_url": "https://api.github.com/users/laanwj/following%7B/other_user%7D",
        "gists_url": "https://api.github.com/users/laanwj/gists%7B/gist_id%7D",
        "starred_url": "https://api.github.com/users/laanwj/starred%7B/owner%7D%7B/repo%7D",
        "subscriptions_url": "https://api.github.com/users/laanwj/subscriptions",
        "organizations_url": "https://api.github.com/users/laanwj/orgs",
        "repos_url": "https://api.github.com/users/laanwj/repos",
        "events_url": "https://api.github.com/users/laanwj/events%7B/privacy%7D",
        "received_events_url": "https://api.github.com/users/laanwj/received_events",
        "type": "User",
        "site_admin": false
      },
      "commit_id": null,
      "commit_url": null,
      "created_at": "2023-10-31T13:53:40Z",
      "updated_at": "2023-10-31T13:53:40Z",
      "author_association": "MEMBER",
      "body": "Concept ACK. Not having these potentially crash the application is an improvement.\r\nAlso agree with @darosior though, we don't want error conditions that can be caused by user input to go by silently, either.",
      "user": {
        "login": "laanwj",
        "id": 126646,
        "node_id": "MDQ6VXNlcjEyNjY0Ng==",
        "avatar_url": "https://avatars.githubusercontent.com/u/126646?v=4",
        "gravatar_id": "",
        "url": "https://api.github.com/users/laanwj",
        "html_url": "https://github.com/laanwj",
        "followers_url": "https://api.github.com/users/laanwj/followers",
        "following_url": "https://api.github.com/users/laanwj/following%7B/other_user%7D",
        "gists_url": "https://api.github.com/users/laanwj/gists%7B/gist_id%7D",
        "starred_url": "https://api.github.com/users/laanwj/starred%7B/owner%7D%7B/repo%7D",
        "subscriptions_url": "https://api.github.com/users/laanwj/subscriptions",
        "organizations_url": "https://api.github.com/users/laanwj/orgs",
        "repos_url": "https://api.github.com/users/laanwj/repos",
        "events_url": "https://api.github.com/users/laanwj/events%7B/privacy%7D",
        "received_events_url": "https://api.github.com/users/laanwj/received_events",
        "type": "User",
        "site_admin": false
      },
      "html_url": "https://github.com/bitcoin/bitcoin/pull/28678#issuecomment-1787266550",
      "issue_url": "https://api.github.com/repos/bitcoin/bitcoin/issues/28678"
    },
    {
      "event": "mentioned",
      "id": 10821239755,
      "node_id": "MEE_lADOABII5850Ri6azwAAAAKE_wPL",
      "url": "https://api.github.com/repos/bitcoin/bitcoin/issues/events/10821239755",
      "actor": {
        "login": "darosior",
        "id": 22457751,
        "node_id": "MDQ6VXNlcjIyNDU3NzUx",
        "avatar_url": "https://avatars.githubusercontent.com/u/22457751?v=4",
        "gravatar_id": "",
        "url": "https://api.github.com/users/darosior",
        "html_url": "https://github.com/darosior",
        "followers_url": "https://api.github.com/users/darosior/followers",
        "following_url": "https://api.github.com/users/darosior/following%7B/other_user%7D",
        "gists_url": "https://api.github.com/users/darosior/gists%7B/gist_id%7D",
        "starred_url": "https://api.github.com/users/darosior/starred%7B/owner%7D%7B/repo%7D",
        "subscriptions_url": "https://api.github.com/users/darosior/subscriptions",
        "organizations_url": "https://api.github.com/users/darosior/orgs",
        "repos_url": "https://api.github.com/users/darosior/repos",
        "events_url": "https://api.github.com/users/darosior/events%7B/privacy%7D",
        "received_events_url": "https://api.github.com/users/darosior/received_events",
        "type": "User",
        "site_admin": false
      },
      "commit_id": null,
      "commit_url": null,
      "created_at": "2023-10-31T13:53:41Z"
    },
    {
      "event": "subscribed",
      "id": 10821239778,
      "node_id": "SE_lADOABII5850Ri6azwAAAAKE_wPi",
      "url": "https://api.github.com/repos/bitcoin/bitcoin/issues/events/10821239778",
      "actor": {
        "login": "darosior",
        "id": 22457751,
        "node_id": "MDQ6VXNlcjIyNDU3NzUx",
        "avatar_url": "https://avatars.githubusercontent.com/u/22457751?v=4",
        "gravatar_id": "",
        "url": "https://api.github.com/users/darosior",
        "html_url": "https://github.com/darosior",
        "followers_url": "https://api.github.com/users/darosior/followers",
        "following_url": "https://api.github.com/users/darosior/following%7B/other_user%7D",
        "gists_url": "https://api.github.com/users/darosior/gists%7B/gist_id%7D",
        "starred_url": "https://api.github.com/users/darosior/starred%7B/owner%7D%7B/repo%7D",
        "subscriptions_url": "https://api.github.com/users/darosior/subscriptions",
        "organizations_url": "https://api.github.com/users/darosior/orgs",
        "repos_url": "https://api.github.com/users/darosior/repos",
        "events_url": "https://api.github.com/users/darosior/events%7B/privacy%7D",
        "received_events_url": "https://api.github.com/users/darosior/received_events",
        "type": "User",
        "site_admin": false
      },
      "commit_id": null,
      "commit_url": null,
      "created_at": "2023-10-31T13:53:41Z"
    }
  ],
  "comments": []
}