{
  "type": "pull",
  "pull": {
    "url": "https://api.github.com/repos/bitcoin/bitcoin/pulls/28787",
    "id": 1586586423,
    "node_id": "PR_kwDOABII585ekWM3",
    "html_url": "https://github.com/bitcoin/bitcoin/pull/28787",
    "diff_url": "https://github.com/bitcoin/bitcoin/pull/28787.diff",
    "patch_url": "https://github.com/bitcoin/bitcoin/pull/28787.patch",
    "issue_url": "https://api.github.com/repos/bitcoin/bitcoin/issues/28787",
    "commits_url": "https://api.github.com/repos/bitcoin/bitcoin/pulls/28787/commits",
    "review_comments_url": "https://api.github.com/repos/bitcoin/bitcoin/pulls/28787/comments",
    "review_comment_url": "https://api.github.com/repos/bitcoin/bitcoin/pulls/comments%7B/number%7D",
    "comments_url": "https://api.github.com/repos/bitcoin/bitcoin/issues/28787/comments",
    "statuses_url": "https://api.github.com/repos/bitcoin/bitcoin/statuses/5039c346ca87d6112ea1eb124bdc622ba9e9a513",
    "number": 28787,
    "state": "open",
    "locked": false,
    "maintainer_can_modify": true,
    "title": "init: completely remove `-zapwallettxes` (remaining hidden option)",
    "user": {
      "login": "theStack",
      "id": 91535,
      "node_id": "MDQ6VXNlcjkxNTM1",
      "avatar_url": "https://avatars.githubusercontent.com/u/91535?v=4",
      "gravatar_id": "",
      "url": "https://api.github.com/users/theStack",
      "html_url": "https://github.com/theStack",
      "followers_url": "https://api.github.com/users/theStack/followers",
      "following_url": "https://api.github.com/users/theStack/following%7B/other_user%7D",
      "gists_url": "https://api.github.com/users/theStack/gists%7B/gist_id%7D",
      "starred_url": "https://api.github.com/users/theStack/starred%7B/owner%7D%7B/repo%7D",
      "subscriptions_url": "https://api.github.com/users/theStack/subscriptions",
      "organizations_url": "https://api.github.com/users/theStack/orgs",
      "repos_url": "https://api.github.com/users/theStack/repos",
      "events_url": "https://api.github.com/users/theStack/events%7B/privacy%7D",
      "received_events_url": "https://api.github.com/users/theStack/received_events",
      "type": "User",
      "site_admin": false
    },
    "body": "The `-zapwallettxes` functionality has been removed in v0.21.0 (see commit 3340dbadd38f5624642cf0e14dddbe6f83a3863b / PR #19671), with the parameter being kept as hidden option, to inform users via an exit error that `abandontransaction` should be used instead.\r\n\r\nAs any guides that still suggest to use `-zapwallettxes` would refer to a Bitcoin Core version that is EOL since many years (i.e. <= v0.20.x), it is highly unlikely that the error caused by the option is still relevant for any user, hence it seems fine to remove it now.\r\n\r\n<!--\r\n*** Please remove the following help text before submitting: ***\r\n\r\nPull requests without a rationale and clear improvement may be closed\r\nimmediately.\r\n\r\nGUI-related pull requests should be opened against\r\nhttps://github.com/bitcoin-core/gui\r\nfirst. See CONTRIBUTING.md\r\n-->\r\n\r\n<!--\r\nPlease provide clear motivation for your patch and explain how it improves\r\nBitcoin Core user experience or Bitcoin Core developer experience\r\nsignificantly:\r\n\r\n* Any test improvements or new tests that improve coverage are always welcome.\r\n* All other changes should have accompanying unit tests (see `src/test/`) or\r\n  functional tests (see `test/`). Contributors should note which tests cover\r\n  modified code. If no tests exist for a region of modified code, new tests\r\n  should accompany the change.\r\n* Bug fixes are most welcome when they come with steps to reproduce or an\r\n  explanation of the potential issue as well as reasoning for the way the bug\r\n  was fixed.\r\n* Features are welcome, but might be rejected due to design or scope issues.\r\n  If a feature is based on a lot of dependencies, contributors should first\r\n  consider building the system outside of Bitcoin Core, if possible.\r\n* Refactoring changes are only accepted if they are required for a feature or\r\n  bug fix or otherwise improve developer experience significantly. For example,\r\n  most \"code style\" refactoring changes require a thorough explanation why they\r\n  are useful, what downsides they have and why they *significantly* improve\r\n  developer experience or avoid serious programming bugs. Note that code style\r\n  is often a subjective matter. Unless they are explicitly mentioned to be\r\n  preferred in the [developer notes](/doc/developer-notes.md), stylistic code\r\n  changes are usually rejected.\r\n-->\r\n\r\n<!--\r\nBitcoin Core has a thorough review process and even the most trivial change\r\nneeds to pass a lot of eyes and requires non-zero or even substantial time\r\neffort to review. There is a huge lack of active reviewers on the project, so\r\npatches often sit for a long time.\r\n-->\r\n",
    "labels": [],
    "created_at": "2023-11-03T19:10:49Z",
    "updated_at": "2023-11-03T19:10:54Z",
    "mergeable": true,
    "mergeable_state": "blocked",
    "merge_commit_sha": "e63314b6fbd0ff0d8c77dc9d09619527a5c3831a",
    "assignees": [],
    "requested_reviewers": [],
    "requested_teams": [],
    "rebaseable": true,
    "head": {
      "label": "theStack:202311-init-remove_zapwallettxes_remains",
      "ref": "202311-init-remove_zapwallettxes_remains",
      "sha": "5039c346ca87d6112ea1eb124bdc622ba9e9a513",
      "user": {
        "login": "theStack",
        "id": 91535,
        "node_id": "MDQ6VXNlcjkxNTM1",
        "avatar_url": "https://avatars.githubusercontent.com/u/91535?v=4",
        "gravatar_id": "",
        "url": "https://api.github.com/users/theStack",
        "html_url": "https://github.com/theStack",
        "followers_url": "https://api.github.com/users/theStack/followers",
        "following_url": "https://api.github.com/users/theStack/following%7B/other_user%7D",
        "gists_url": "https://api.github.com/users/theStack/gists%7B/gist_id%7D",
        "starred_url": "https://api.github.com/users/theStack/starred%7B/owner%7D%7B/repo%7D",
        "subscriptions_url": "https://api.github.com/users/theStack/subscriptions",
        "organizations_url": "https://api.github.com/users/theStack/orgs",
        "repos_url": "https://api.github.com/users/theStack/repos",
        "events_url": "https://api.github.com/users/theStack/events%7B/privacy%7D",
        "received_events_url": "https://api.github.com/users/theStack/received_events",
        "type": "User",
        "site_admin": false
      },
      "repo": {
        "id": 204970720,
        "node_id": "MDEwOlJlcG9zaXRvcnkyMDQ5NzA3MjA=",
        "name": "bitcoin",
        "full_name": "theStack/bitcoin",
        "owner": {
          "login": "theStack",
          "id": 91535,
          "node_id": "MDQ6VXNlcjkxNTM1",
          "avatar_url": "https://avatars.githubusercontent.com/u/91535?v=4",
          "gravatar_id": "",
          "url": "https://api.github.com/users/theStack",
          "html_url": "https://github.com/theStack",
          "followers_url": "https://api.github.com/users/theStack/followers",
          "following_url": "https://api.github.com/users/theStack/following%7B/other_user%7D",
          "gists_url": "https://api.github.com/users/theStack/gists%7B/gist_id%7D",
          "starred_url": "https://api.github.com/users/theStack/starred%7B/owner%7D%7B/repo%7D",
          "subscriptions_url": "https://api.github.com/users/theStack/subscriptions",
          "organizations_url": "https://api.github.com/users/theStack/orgs",
          "repos_url": "https://api.github.com/users/theStack/repos",
          "events_url": "https://api.github.com/users/theStack/events%7B/privacy%7D",
          "received_events_url": "https://api.github.com/users/theStack/received_events",
          "type": "User",
          "site_admin": false
        },
        "private": false,
        "html_url": "https://github.com/theStack/bitcoin",
        "description": "Bitcoin Core integration/staging tree",
        "fork": true,
        "url": "https://api.github.com/repos/theStack/bitcoin",
        "archive_url": "https://api.github.com/repos/theStack/bitcoin/%7Barchive_format%7D%7B/ref%7D",
        "assignees_url": "https://api.github.com/repos/theStack/bitcoin/assignees%7B/user%7D",
        "blobs_url": "https://api.github.com/repos/theStack/bitcoin/git/blobs%7B/sha%7D",
        "branches_url": "https://api.github.com/repos/theStack/bitcoin/branches%7B/branch%7D",
        "collaborators_url": "https://api.github.com/repos/theStack/bitcoin/collaborators%7B/collaborator%7D",
        "comments_url": "https://api.github.com/repos/theStack/bitcoin/comments%7B/number%7D",
        "commits_url": "https://api.github.com/repos/theStack/bitcoin/commits%7B/sha%7D",
        "compare_url": "https://api.github.com/repos/theStack/bitcoin/compare/%7Bbase%7D...%7Bhead%7D",
        "contents_url": "https://api.github.com/repos/theStack/bitcoin/contents/%7B+path%7D",
        "contributors_url": "https://api.github.com/repos/theStack/bitcoin/contributors",
        "deployments_url": "https://api.github.com/repos/theStack/bitcoin/deployments",
        "downloads_url": "https://api.github.com/repos/theStack/bitcoin/downloads",
        "events_url": "https://api.github.com/repos/theStack/bitcoin/events",
        "forks_url": "https://api.github.com/repos/theStack/bitcoin/forks",
        "git_commits_url": "https://api.github.com/repos/theStack/bitcoin/git/commits%7B/sha%7D",
        "git_refs_url": "https://api.github.com/repos/theStack/bitcoin/git/refs%7B/sha%7D",
        "git_tags_url": "https://api.github.com/repos/theStack/bitcoin/git/tags%7B/sha%7D",
        "git_url": "git://github.com/theStack/bitcoin.git",
        "issue_comment_url": "https://api.github.com/repos/theStack/bitcoin/issues/comments%7B/number%7D",
        "issue_events_url": "https://api.github.com/repos/theStack/bitcoin/issues/events%7B/number%7D",
        "issues_url": "https://api.github.com/repos/theStack/bitcoin/issues%7B/number%7D",
        "keys_url": "https://api.github.com/repos/theStack/bitcoin/keys%7B/key_id%7D",
        "labels_url": "https://api.github.com/repos/theStack/bitcoin/labels%7B/name%7D",
        "languages_url": "https://api.github.com/repos/theStack/bitcoin/languages",
        "merges_url": "https://api.github.com/repos/theStack/bitcoin/merges",
        "milestones_url": "https://api.github.com/repos/theStack/bitcoin/milestones%7B/number%7D",
        "notifications_url": "https://api.github.com/repos/theStack/bitcoin/notifications%7B?since,all,participating}",
        "pulls_url": "https://api.github.com/repos/theStack/bitcoin/pulls%7B/number%7D",
        "releases_url": "https://api.github.com/repos/theStack/bitcoin/releases%7B/id%7D",
        "ssh_url": "git@github.com:theStack/bitcoin.git",
        "stargazers_url": "https://api.github.com/repos/theStack/bitcoin/stargazers",
        "statuses_url": "https://api.github.com/repos/theStack/bitcoin/statuses/%7Bsha%7D",
        "subscribers_url": "https://api.github.com/repos/theStack/bitcoin/subscribers",
        "subscription_url": "https://api.github.com/repos/theStack/bitcoin/subscription",
        "tags_url": "https://api.github.com/repos/theStack/bitcoin/tags",
        "teams_url": "https://api.github.com/repos/theStack/bitcoin/teams",
        "trees_url": "https://api.github.com/repos/theStack/bitcoin/git/trees%7B/sha%7D",
        "clone_url": "https://github.com/theStack/bitcoin.git",
        "hooks_url": "https://api.github.com/repos/theStack/bitcoin/hooks",
        "svn_url": "https://github.com/theStack/bitcoin",
        "homepage": "https://bitcoincore.org/en/download",
        "language": "C++",
        "forks_count": 0,
        "stargazers_count": 0,
        "watchers_count": 0,
        "size": 225759,
        "default_branch": "master",
        "open_issues_count": 0,
        "is_template": false,
        "topics": [],
        "has_issues": false,
        "has_projects": true,
        "has_wiki": false,
        "has_pages": false,
        "has_downloads": false,
        "archived": false,
        "disabled": false,
        "visibility": "public",
        "pushed_at": "2023-11-03T19:08:51Z",
        "created_at": "2019-08-28T15:59:29Z",
        "updated_at": "2022-12-07T18:05:55Z",
        "license": {
          "key": "mit",
          "name": "MIT License",
          "node_id": "MDc6TGljZW5zZTEz",
          "spdx_id": "MIT",
          "url": "https://api.github.com/licenses/mit",
          "html_url": null,
          "description": null,
          "implementation": null,
          "permissions": null,
          "conditions": null,
          "limitations": null,
          "body": null,
          "featured": null
        }
      }
    },
    "base": {
      "label": "bitcoin:master",
      "ref": "master",
      "sha": "d9007f51a7480246abe4c16f2e3d190988470bec",
      "user": {
        "login": "bitcoin",
        "id": 528860,
        "node_id": "MDEyOk9yZ2FuaXphdGlvbjUyODg2MA==",
        "avatar_url": "https://avatars.githubusercontent.com/u/528860?v=4",
        "gravatar_id": "",
        "url": "https://api.github.com/users/bitcoin",
        "html_url": "https://github.com/bitcoin",
        "followers_url": "https://api.github.com/users/bitcoin/followers",
        "following_url": "https://api.github.com/users/bitcoin/following%7B/other_user%7D",
        "gists_url": "https://api.github.com/users/bitcoin/gists%7B/gist_id%7D",
        "starred_url": "https://api.github.com/users/bitcoin/starred%7B/owner%7D%7B/repo%7D",
        "subscriptions_url": "https://api.github.com/users/bitcoin/subscriptions",
        "organizations_url": "https://api.github.com/users/bitcoin/orgs",
        "repos_url": "https://api.github.com/users/bitcoin/repos",
        "events_url": "https://api.github.com/users/bitcoin/events%7B/privacy%7D",
        "received_events_url": "https://api.github.com/users/bitcoin/received_events",
        "type": "Organization",
        "site_admin": false
      },
      "repo": {
        "id": 1181927,
        "node_id": "MDEwOlJlcG9zaXRvcnkxMTgxOTI3",
        "name": "bitcoin",
        "full_name": "bitcoin/bitcoin",
        "owner": {
          "login": "bitcoin",
          "id": 528860,
          "node_id": "MDEyOk9yZ2FuaXphdGlvbjUyODg2MA==",
          "avatar_url": "https://avatars.githubusercontent.com/u/528860?v=4",
          "gravatar_id": "",
          "url": "https://api.github.com/users/bitcoin",
          "html_url": "https://github.com/bitcoin",
          "followers_url": "https://api.github.com/users/bitcoin/followers",
          "following_url": "https://api.github.com/users/bitcoin/following%7B/other_user%7D",
          "gists_url": "https://api.github.com/users/bitcoin/gists%7B/gist_id%7D",
          "starred_url": "https://api.github.com/users/bitcoin/starred%7B/owner%7D%7B/repo%7D",
          "subscriptions_url": "https://api.github.com/users/bitcoin/subscriptions",
          "organizations_url": "https://api.github.com/users/bitcoin/orgs",
          "repos_url": "https://api.github.com/users/bitcoin/repos",
          "events_url": "https://api.github.com/users/bitcoin/events%7B/privacy%7D",
          "received_events_url": "https://api.github.com/users/bitcoin/received_events",
          "type": "Organization",
          "site_admin": false
        },
        "private": false,
        "html_url": "https://github.com/bitcoin/bitcoin",
        "description": "Bitcoin Core integration/staging tree",
        "fork": false,
        "url": "https://api.github.com/repos/bitcoin/bitcoin",
        "archive_url": "https://api.github.com/repos/bitcoin/bitcoin/%7Barchive_format%7D%7B/ref%7D",
        "assignees_url": "https://api.github.com/repos/bitcoin/bitcoin/assignees%7B/user%7D",
        "blobs_url": "https://api.github.com/repos/bitcoin/bitcoin/git/blobs%7B/sha%7D",
        "branches_url": "https://api.github.com/repos/bitcoin/bitcoin/branches%7B/branch%7D",
        "collaborators_url": "https://api.github.com/repos/bitcoin/bitcoin/collaborators%7B/collaborator%7D",
        "comments_url": "https://api.github.com/repos/bitcoin/bitcoin/comments%7B/number%7D",
        "commits_url": "https://api.github.com/repos/bitcoin/bitcoin/commits%7B/sha%7D",
        "compare_url": "https://api.github.com/repos/bitcoin/bitcoin/compare/%7Bbase%7D...%7Bhead%7D",
        "contents_url": "https://api.github.com/repos/bitcoin/bitcoin/contents/%7B+path%7D",
        "contributors_url": "https://api.github.com/repos/bitcoin/bitcoin/contributors",
        "deployments_url": "https://api.github.com/repos/bitcoin/bitcoin/deployments",
        "downloads_url": "https://api.github.com/repos/bitcoin/bitcoin/downloads",
        "events_url": "https://api.github.com/repos/bitcoin/bitcoin/events",
        "forks_url": "https://api.github.com/repos/bitcoin/bitcoin/forks",
        "git_commits_url": "https://api.github.com/repos/bitcoin/bitcoin/git/commits%7B/sha%7D",
        "git_refs_url": "https://api.github.com/repos/bitcoin/bitcoin/git/refs%7B/sha%7D",
        "git_tags_url": "https://api.github.com/repos/bitcoin/bitcoin/git/tags%7B/sha%7D",
        "git_url": "git://github.com/bitcoin/bitcoin.git",
        "issue_comment_url": "https://api.github.com/repos/bitcoin/bitcoin/issues/comments%7B/number%7D",
        "issue_events_url": "https://api.github.com/repos/bitcoin/bitcoin/issues/events%7B/number%7D",
        "issues_url": "https://api.github.com/repos/bitcoin/bitcoin/issues%7B/number%7D",
        "keys_url": "https://api.github.com/repos/bitcoin/bitcoin/keys%7B/key_id%7D",
        "labels_url": "https://api.github.com/repos/bitcoin/bitcoin/labels%7B/name%7D",
        "languages_url": "https://api.github.com/repos/bitcoin/bitcoin/languages",
        "merges_url": "https://api.github.com/repos/bitcoin/bitcoin/merges",
        "milestones_url": "https://api.github.com/repos/bitcoin/bitcoin/milestones%7B/number%7D",
        "notifications_url": "https://api.github.com/repos/bitcoin/bitcoin/notifications%7B?since,all,participating}",
        "pulls_url": "https://api.github.com/repos/bitcoin/bitcoin/pulls%7B/number%7D",
        "releases_url": "https://api.github.com/repos/bitcoin/bitcoin/releases%7B/id%7D",
        "ssh_url": "git@github.com:bitcoin/bitcoin.git",
        "stargazers_url": "https://api.github.com/repos/bitcoin/bitcoin/stargazers",
        "statuses_url": "https://api.github.com/repos/bitcoin/bitcoin/statuses/%7Bsha%7D",
        "subscribers_url": "https://api.github.com/repos/bitcoin/bitcoin/subscribers",
        "subscription_url": "https://api.github.com/repos/bitcoin/bitcoin/subscription",
        "tags_url": "https://api.github.com/repos/bitcoin/bitcoin/tags",
        "teams_url": "https://api.github.com/repos/bitcoin/bitcoin/teams",
        "trees_url": "https://api.github.com/repos/bitcoin/bitcoin/git/trees%7B/sha%7D",
        "clone_url": "https://github.com/bitcoin/bitcoin.git",
        "hooks_url": "https://api.github.com/repos/bitcoin/bitcoin/hooks",
        "svn_url": "https://github.com/bitcoin/bitcoin",
        "homepage": "https://bitcoincore.org/en/download",
        "language": "C++",
        "forks_count": 35922,
        "stargazers_count": 72023,
        "watchers_count": 72023,
        "size": 244403,
        "default_branch": "master",
        "open_issues_count": 629,
        "is_template": false,
        "topics": [
          "bitcoin",
          "c-plus-plus",
          "cryptocurrency",
          "cryptography",
          "p2p"
        ],
        "has_issues": true,
        "has_projects": true,
        "has_wiki": false,
        "has_pages": false,
        "has_downloads": false,
        "archived": false,
        "disabled": false,
        "visibility": "public",
        "pushed_at": "2023-11-03T19:11:02Z",
        "created_at": "2010-12-19T15:16:43Z",
        "updated_at": "2023-11-03T19:25:34Z",
        "license": {
          "key": "mit",
          "name": "MIT License",
          "node_id": "MDc6TGljZW5zZTEz",
          "spdx_id": "MIT",
          "url": "https://api.github.com/licenses/mit",
          "html_url": null,
          "description": null,
          "implementation": null,
          "permissions": null,
          "conditions": null,
          "limitations": null,
          "body": null,
          "featured": null
        }
      }
    },
    "_links": {
      "self": {
        "href": "https://api.github.com/repos/bitcoin/bitcoin/pulls/28787"
      }
    },
    "author_association": "CONTRIBUTOR",
    "draft": false,
    "additions": 1,
    "deletions": 7,
    "changed_files": 2,
    "commits": 1,
    "review_comments": 0,
    "comments": 1
  },
  "events": [
    {
      "event": "committed",
      "id": null,
      "node_id": "C_kwDOABII59oAKDUwMzljMzQ2Y2E4N2Q2MTEyZWExZWIxMjRiZGM2MjJiYTllOWE1MTM",
      "url": "https://api.github.com/repos/bitcoin/bitcoin/git/commits/5039c346ca87d6112ea1eb124bdc622ba9e9a513",
      "actor": null,
      "commit_id": null,
      "commit_url": null,
      "created_at": null,
      "html_url": "https://github.com/bitcoin/bitcoin/commit/5039c346ca87d6112ea1eb124bdc622ba9e9a513",
      "tree": {
        "sha": "a4251a764e843228c3a827ecd99e866ddb2a9bab",
        "url": "https://api.github.com/repos/bitcoin/bitcoin/git/trees/a4251a764e843228c3a827ecd99e866ddb2a9bab"
      },
      "verification": {
        "verified": false,
        "reason": "unsigned",
        "payload": null,
        "signature": null
      },
      "parents": [
        {
          "url": "https://api.github.com/repos/bitcoin/bitcoin/git/commits/d9007f51a7480246abe4c16f2e3d190988470bec",
          "sha": "d9007f51a7480246abe4c16f2e3d190988470bec",
          "html_url": "https://github.com/bitcoin/bitcoin/commit/d9007f51a7480246abe4c16f2e3d190988470bec"
        }
      ],
      "message": "init: completely remove `-zapwallettxes` (remaining hidden option)\n\nThe `-zapwallettxes` functionality has been removed in v0.21.0\n(see commit 3340dbadd38f5624642cf0e14dddbe6f83a3863b / PR #19671),\nwith the parameter being kept as hidden option, to inform users via\nan exit error that `abandontransaction` should be used instead.\n\nAs any guides that still suggest to use `-zapwallettxes` would refer to\na Bitcoin Core version that is EOL since many years (i.e. <= v0.20.x),\nit is highly unlikely that the error caused by the option is still\nrelevant for any user, hence it seems fine to remove it now.",
      "committer": {
        "name": "Sebastian Falbesoner",
        "email": "sebastian.falbesoner@gmail.com",
        "date": "2023-11-03T19:00:44Z"
      },
      "author": {
        "name": "Sebastian Falbesoner",
        "email": "sebastian.falbesoner@gmail.com",
        "date": "2023-11-03T18:13:19Z"
      },
      "sha": "5039c346ca87d6112ea1eb124bdc622ba9e9a513"
    },
    {
      "event": "commented",
      "id": 1792966351,
      "node_id": "IC_kwDOABII585q3n7P",
      "url": "https://api.github.com/repos/bitcoin/bitcoin/issues/comments/1792966351",
      "actor": {
        "login": "DrahtBot",
        "id": 39886733,
        "node_id": "MDQ6VXNlcjM5ODg2NzMz",
        "avatar_url": "https://avatars.githubusercontent.com/u/39886733?v=4",
        "gravatar_id": "",
        "url": "https://api.github.com/users/DrahtBot",
        "html_url": "https://github.com/DrahtBot",
        "followers_url": "https://api.github.com/users/DrahtBot/followers",
        "following_url": "https://api.github.com/users/DrahtBot/following%7B/other_user%7D",
        "gists_url": "https://api.github.com/users/DrahtBot/gists%7B/gist_id%7D",
        "starred_url": "https://api.github.com/users/DrahtBot/starred%7B/owner%7D%7B/repo%7D",
        "subscriptions_url": "https://api.github.com/users/DrahtBot/subscriptions",
        "organizations_url": "https://api.github.com/users/DrahtBot/orgs",
        "repos_url": "https://api.github.com/users/DrahtBot/repos",
        "events_url": "https://api.github.com/users/DrahtBot/events%7B/privacy%7D",
        "received_events_url": "https://api.github.com/users/DrahtBot/received_events",
        "type": "User",
        "site_admin": false
      },
      "commit_id": null,
      "commit_url": null,
      "created_at": "2023-11-03T19:10:53Z",
      "updated_at": "2023-11-03T19:10:54Z",
      "author_association": "CONTRIBUTOR",
      "body": "<!--e57a25ab6845829454e8d69fc972939a-->\n\nThe following sections might be updated with supplementary metadata relevant to reviewers and maintainers.\n\n<!--006a51241073e994b41acfe9ec718e94-->\n### Code Coverage\nFor detailed information about the code coverage, see the [test coverage report](https://corecheck.dev/bitcoin/bitcoin/pulls/28787).\n<!--021abf342d371248e50ceaed478a90ca-->\n### Reviews\nSee [the guideline](https://github.com/bitcoin/bitcoin/blob/master/CONTRIBUTING.md#code-review) for information on the review process.\nA summary of reviews will appear here.\n",
      "user": {
        "login": "DrahtBot",
        "id": 39886733,
        "node_id": "MDQ6VXNlcjM5ODg2NzMz",
        "avatar_url": "https://avatars.githubusercontent.com/u/39886733?v=4",
        "gravatar_id": "",
        "url": "https://api.github.com/users/DrahtBot",
        "html_url": "https://github.com/DrahtBot",
        "followers_url": "https://api.github.com/users/DrahtBot/followers",
        "following_url": "https://api.github.com/users/DrahtBot/following%7B/other_user%7D",
        "gists_url": "https://api.github.com/users/DrahtBot/gists%7B/gist_id%7D",
        "starred_url": "https://api.github.com/users/DrahtBot/starred%7B/owner%7D%7B/repo%7D",
        "subscriptions_url": "https://api.github.com/users/DrahtBot/subscriptions",
        "organizations_url": "https://api.github.com/users/DrahtBot/orgs",
        "repos_url": "https://api.github.com/users/DrahtBot/repos",
        "events_url": "https://api.github.com/users/DrahtBot/events%7B/privacy%7D",
        "received_events_url": "https://api.github.com/users/DrahtBot/received_events",
        "type": "User",
        "site_admin": false
      },
      "html_url": "https://github.com/bitcoin/bitcoin/pull/28787#issuecomment-1792966351",
      "issue_url": "https://api.github.com/repos/bitcoin/bitcoin/issues/28787"
    }
  ],
  "comments": []
}