{
  "type": "pull",
  "pull": {
    "url": "https://api.github.com/repos/bitcoin/bitcoin/pulls/28781",
    "id": 1585850811,
    "node_id": "PR_kwDOABII585ehim7",
    "html_url": "https://github.com/bitcoin/bitcoin/pull/28781",
    "diff_url": "https://github.com/bitcoin/bitcoin/pull/28781.diff",
    "patch_url": "https://github.com/bitcoin/bitcoin/pull/28781.patch",
    "issue_url": "https://api.github.com/repos/bitcoin/bitcoin/issues/28781",
    "commits_url": "https://api.github.com/repos/bitcoin/bitcoin/pulls/28781/commits",
    "review_comments_url": "https://api.github.com/repos/bitcoin/bitcoin/pulls/28781/comments",
    "review_comment_url": "https://api.github.com/repos/bitcoin/bitcoin/pulls/comments%7B/number%7D",
    "comments_url": "https://api.github.com/repos/bitcoin/bitcoin/issues/28781/comments",
    "statuses_url": "https://api.github.com/repos/bitcoin/bitcoin/statuses/49a92579c705831c7ffbcfb24cdf17a94e9a11a0",
    "number": 28781,
    "state": "open",
    "locked": false,
    "maintainer_can_modify": false,
    "title": "depends: latest config.guess & config.sub",
    "user": {
      "login": "fanquake",
      "id": 863730,
      "node_id": "MDQ6VXNlcjg2MzczMA==",
      "avatar_url": "https://avatars.githubusercontent.com/u/863730?v=4",
      "gravatar_id": "",
      "url": "https://api.github.com/users/fanquake",
      "html_url": "https://github.com/fanquake",
      "followers_url": "https://api.github.com/users/fanquake/followers",
      "following_url": "https://api.github.com/users/fanquake/following%7B/other_user%7D",
      "gists_url": "https://api.github.com/users/fanquake/gists%7B/gist_id%7D",
      "starred_url": "https://api.github.com/users/fanquake/starred%7B/owner%7D%7B/repo%7D",
      "subscriptions_url": "https://api.github.com/users/fanquake/subscriptions",
      "organizations_url": "https://api.github.com/users/fanquake/orgs",
      "repos_url": "https://api.github.com/users/fanquake/repos",
      "events_url": "https://api.github.com/users/fanquake/events%7B/privacy%7D",
      "received_events_url": "https://api.github.com/users/fanquake/received_events",
      "type": "User",
      "site_admin": false
    },
    "body": "Before we make any local modifications (i.e #28733) pull the latest files from upstream. ",
    "labels": [
      {
        "id": 61889416,
        "node_id": "MDU6TGFiZWw2MTg4OTQxNg==",
        "url": "https://api.github.com/repos/bitcoin/bitcoin/labels/Build%20system",
        "name": "Build system",
        "color": "5319e7",
        "default": false
      }
    ],
    "created_at": "2023-11-03T11:11:46Z",
    "updated_at": "2023-11-03T19:14:01Z",
    "mergeable": true,
    "mergeable_state": "blocked",
    "merge_commit_sha": "662c50ea6de0c002561876d7199d8c277634f0cc",
    "assignees": [],
    "requested_reviewers": [],
    "requested_teams": [],
    "rebaseable": true,
    "head": {
      "label": "fanquake:latest_config_guess_sub",
      "ref": "latest_config_guess_sub",
      "sha": "49a92579c705831c7ffbcfb24cdf17a94e9a11a0",
      "user": {
        "login": "fanquake",
        "id": 863730,
        "node_id": "MDQ6VXNlcjg2MzczMA==",
        "avatar_url": "https://avatars.githubusercontent.com/u/863730?v=4",
        "gravatar_id": "",
        "url": "https://api.github.com/users/fanquake",
        "html_url": "https://github.com/fanquake",
        "followers_url": "https://api.github.com/users/fanquake/followers",
        "following_url": "https://api.github.com/users/fanquake/following%7B/other_user%7D",
        "gists_url": "https://api.github.com/users/fanquake/gists%7B/gist_id%7D",
        "starred_url": "https://api.github.com/users/fanquake/starred%7B/owner%7D%7B/repo%7D",
        "subscriptions_url": "https://api.github.com/users/fanquake/subscriptions",
        "organizations_url": "https://api.github.com/users/fanquake/orgs",
        "repos_url": "https://api.github.com/users/fanquake/repos",
        "events_url": "https://api.github.com/users/fanquake/events%7B/privacy%7D",
        "received_events_url": "https://api.github.com/users/fanquake/received_events",
        "type": "User",
        "site_admin": false
      },
      "repo": {
        "id": 5910539,
        "node_id": "MDEwOlJlcG9zaXRvcnk1OTEwNTM5",
        "name": "bitcoin",
        "full_name": "fanquake/bitcoin",
        "owner": {
          "login": "fanquake",
          "id": 863730,
          "node_id": "MDQ6VXNlcjg2MzczMA==",
          "avatar_url": "https://avatars.githubusercontent.com/u/863730?v=4",
          "gravatar_id": "",
          "url": "https://api.github.com/users/fanquake",
          "html_url": "https://github.com/fanquake",
          "followers_url": "https://api.github.com/users/fanquake/followers",
          "following_url": "https://api.github.com/users/fanquake/following%7B/other_user%7D",
          "gists_url": "https://api.github.com/users/fanquake/gists%7B/gist_id%7D",
          "starred_url": "https://api.github.com/users/fanquake/starred%7B/owner%7D%7B/repo%7D",
          "subscriptions_url": "https://api.github.com/users/fanquake/subscriptions",
          "organizations_url": "https://api.github.com/users/fanquake/orgs",
          "repos_url": "https://api.github.com/users/fanquake/repos",
          "events_url": "https://api.github.com/users/fanquake/events%7B/privacy%7D",
          "received_events_url": "https://api.github.com/users/fanquake/received_events",
          "type": "User",
          "site_admin": false
        },
        "private": false,
        "html_url": "https://github.com/fanquake/bitcoin",
        "description": "Bitcoin integration/staging tree",
        "fork": true,
        "url": "https://api.github.com/repos/fanquake/bitcoin",
        "archive_url": "https://api.github.com/repos/fanquake/bitcoin/%7Barchive_format%7D%7B/ref%7D",
        "assignees_url": "https://api.github.com/repos/fanquake/bitcoin/assignees%7B/user%7D",
        "blobs_url": "https://api.github.com/repos/fanquake/bitcoin/git/blobs%7B/sha%7D",
        "branches_url": "https://api.github.com/repos/fanquake/bitcoin/branches%7B/branch%7D",
        "collaborators_url": "https://api.github.com/repos/fanquake/bitcoin/collaborators%7B/collaborator%7D",
        "comments_url": "https://api.github.com/repos/fanquake/bitcoin/comments%7B/number%7D",
        "commits_url": "https://api.github.com/repos/fanquake/bitcoin/commits%7B/sha%7D",
        "compare_url": "https://api.github.com/repos/fanquake/bitcoin/compare/%7Bbase%7D...%7Bhead%7D",
        "contents_url": "https://api.github.com/repos/fanquake/bitcoin/contents/%7B+path%7D",
        "contributors_url": "https://api.github.com/repos/fanquake/bitcoin/contributors",
        "deployments_url": "https://api.github.com/repos/fanquake/bitcoin/deployments",
        "downloads_url": "https://api.github.com/repos/fanquake/bitcoin/downloads",
        "events_url": "https://api.github.com/repos/fanquake/bitcoin/events",
        "forks_url": "https://api.github.com/repos/fanquake/bitcoin/forks",
        "git_commits_url": "https://api.github.com/repos/fanquake/bitcoin/git/commits%7B/sha%7D",
        "git_refs_url": "https://api.github.com/repos/fanquake/bitcoin/git/refs%7B/sha%7D",
        "git_tags_url": "https://api.github.com/repos/fanquake/bitcoin/git/tags%7B/sha%7D",
        "git_url": "git://github.com/fanquake/bitcoin.git",
        "issue_comment_url": "https://api.github.com/repos/fanquake/bitcoin/issues/comments%7B/number%7D",
        "issue_events_url": "https://api.github.com/repos/fanquake/bitcoin/issues/events%7B/number%7D",
        "issues_url": "https://api.github.com/repos/fanquake/bitcoin/issues%7B/number%7D",
        "keys_url": "https://api.github.com/repos/fanquake/bitcoin/keys%7B/key_id%7D",
        "labels_url": "https://api.github.com/repos/fanquake/bitcoin/labels%7B/name%7D",
        "languages_url": "https://api.github.com/repos/fanquake/bitcoin/languages",
        "merges_url": "https://api.github.com/repos/fanquake/bitcoin/merges",
        "milestones_url": "https://api.github.com/repos/fanquake/bitcoin/milestones%7B/number%7D",
        "notifications_url": "https://api.github.com/repos/fanquake/bitcoin/notifications%7B?since,all,participating}",
        "pulls_url": "https://api.github.com/repos/fanquake/bitcoin/pulls%7B/number%7D",
        "releases_url": "https://api.github.com/repos/fanquake/bitcoin/releases%7B/id%7D",
        "ssh_url": "git@github.com:fanquake/bitcoin.git",
        "stargazers_url": "https://api.github.com/repos/fanquake/bitcoin/stargazers",
        "statuses_url": "https://api.github.com/repos/fanquake/bitcoin/statuses/%7Bsha%7D",
        "subscribers_url": "https://api.github.com/repos/fanquake/bitcoin/subscribers",
        "subscription_url": "https://api.github.com/repos/fanquake/bitcoin/subscription",
        "tags_url": "https://api.github.com/repos/fanquake/bitcoin/tags",
        "teams_url": "https://api.github.com/repos/fanquake/bitcoin/teams",
        "trees_url": "https://api.github.com/repos/fanquake/bitcoin/git/trees%7B/sha%7D",
        "clone_url": "https://github.com/fanquake/bitcoin.git",
        "hooks_url": "https://api.github.com/repos/fanquake/bitcoin/hooks",
        "svn_url": "https://github.com/fanquake/bitcoin",
        "homepage": "http://www.bitcoincore.org",
        "language": "C++",
        "forks_count": 5,
        "stargazers_count": 14,
        "watchers_count": 14,
        "size": 222648,
        "default_branch": "master",
        "open_issues_count": 0,
        "is_template": false,
        "topics": [],
        "has_issues": false,
        "has_projects": false,
        "has_wiki": false,
        "has_pages": false,
        "has_downloads": false,
        "archived": false,
        "disabled": false,
        "visibility": "public",
        "pushed_at": "2023-11-03T17:33:31Z",
        "created_at": "2012-09-22T05:28:42Z",
        "updated_at": "2023-10-12T04:21:10Z",
        "license": {
          "key": "mit",
          "name": "MIT License",
          "node_id": "MDc6TGljZW5zZTEz",
          "spdx_id": "MIT",
          "url": "https://api.github.com/licenses/mit",
          "html_url": null,
          "description": null,
          "implementation": null,
          "permissions": null,
          "conditions": null,
          "limitations": null,
          "body": null,
          "featured": null
        }
      }
    },
    "base": {
      "label": "bitcoin:master",
      "ref": "master",
      "sha": "9b68c9b85efebfa23daec6471b87e9cbb514a006",
      "user": {
        "login": "bitcoin",
        "id": 528860,
        "node_id": "MDEyOk9yZ2FuaXphdGlvbjUyODg2MA==",
        "avatar_url": "https://avatars.githubusercontent.com/u/528860?v=4",
        "gravatar_id": "",
        "url": "https://api.github.com/users/bitcoin",
        "html_url": "https://github.com/bitcoin",
        "followers_url": "https://api.github.com/users/bitcoin/followers",
        "following_url": "https://api.github.com/users/bitcoin/following%7B/other_user%7D",
        "gists_url": "https://api.github.com/users/bitcoin/gists%7B/gist_id%7D",
        "starred_url": "https://api.github.com/users/bitcoin/starred%7B/owner%7D%7B/repo%7D",
        "subscriptions_url": "https://api.github.com/users/bitcoin/subscriptions",
        "organizations_url": "https://api.github.com/users/bitcoin/orgs",
        "repos_url": "https://api.github.com/users/bitcoin/repos",
        "events_url": "https://api.github.com/users/bitcoin/events%7B/privacy%7D",
        "received_events_url": "https://api.github.com/users/bitcoin/received_events",
        "type": "Organization",
        "site_admin": false
      },
      "repo": {
        "id": 1181927,
        "node_id": "MDEwOlJlcG9zaXRvcnkxMTgxOTI3",
        "name": "bitcoin",
        "full_name": "bitcoin/bitcoin",
        "owner": {
          "login": "bitcoin",
          "id": 528860,
          "node_id": "MDEyOk9yZ2FuaXphdGlvbjUyODg2MA==",
          "avatar_url": "https://avatars.githubusercontent.com/u/528860?v=4",
          "gravatar_id": "",
          "url": "https://api.github.com/users/bitcoin",
          "html_url": "https://github.com/bitcoin",
          "followers_url": "https://api.github.com/users/bitcoin/followers",
          "following_url": "https://api.github.com/users/bitcoin/following%7B/other_user%7D",
          "gists_url": "https://api.github.com/users/bitcoin/gists%7B/gist_id%7D",
          "starred_url": "https://api.github.com/users/bitcoin/starred%7B/owner%7D%7B/repo%7D",
          "subscriptions_url": "https://api.github.com/users/bitcoin/subscriptions",
          "organizations_url": "https://api.github.com/users/bitcoin/orgs",
          "repos_url": "https://api.github.com/users/bitcoin/repos",
          "events_url": "https://api.github.com/users/bitcoin/events%7B/privacy%7D",
          "received_events_url": "https://api.github.com/users/bitcoin/received_events",
          "type": "Organization",
          "site_admin": false
        },
        "private": false,
        "html_url": "https://github.com/bitcoin/bitcoin",
        "description": "Bitcoin Core integration/staging tree",
        "fork": false,
        "url": "https://api.github.com/repos/bitcoin/bitcoin",
        "archive_url": "https://api.github.com/repos/bitcoin/bitcoin/%7Barchive_format%7D%7B/ref%7D",
        "assignees_url": "https://api.github.com/repos/bitcoin/bitcoin/assignees%7B/user%7D",
        "blobs_url": "https://api.github.com/repos/bitcoin/bitcoin/git/blobs%7B/sha%7D",
        "branches_url": "https://api.github.com/repos/bitcoin/bitcoin/branches%7B/branch%7D",
        "collaborators_url": "https://api.github.com/repos/bitcoin/bitcoin/collaborators%7B/collaborator%7D",
        "comments_url": "https://api.github.com/repos/bitcoin/bitcoin/comments%7B/number%7D",
        "commits_url": "https://api.github.com/repos/bitcoin/bitcoin/commits%7B/sha%7D",
        "compare_url": "https://api.github.com/repos/bitcoin/bitcoin/compare/%7Bbase%7D...%7Bhead%7D",
        "contents_url": "https://api.github.com/repos/bitcoin/bitcoin/contents/%7B+path%7D",
        "contributors_url": "https://api.github.com/repos/bitcoin/bitcoin/contributors",
        "deployments_url": "https://api.github.com/repos/bitcoin/bitcoin/deployments",
        "downloads_url": "https://api.github.com/repos/bitcoin/bitcoin/downloads",
        "events_url": "https://api.github.com/repos/bitcoin/bitcoin/events",
        "forks_url": "https://api.github.com/repos/bitcoin/bitcoin/forks",
        "git_commits_url": "https://api.github.com/repos/bitcoin/bitcoin/git/commits%7B/sha%7D",
        "git_refs_url": "https://api.github.com/repos/bitcoin/bitcoin/git/refs%7B/sha%7D",
        "git_tags_url": "https://api.github.com/repos/bitcoin/bitcoin/git/tags%7B/sha%7D",
        "git_url": "git://github.com/bitcoin/bitcoin.git",
        "issue_comment_url": "https://api.github.com/repos/bitcoin/bitcoin/issues/comments%7B/number%7D",
        "issue_events_url": "https://api.github.com/repos/bitcoin/bitcoin/issues/events%7B/number%7D",
        "issues_url": "https://api.github.com/repos/bitcoin/bitcoin/issues%7B/number%7D",
        "keys_url": "https://api.github.com/repos/bitcoin/bitcoin/keys%7B/key_id%7D",
        "labels_url": "https://api.github.com/repos/bitcoin/bitcoin/labels%7B/name%7D",
        "languages_url": "https://api.github.com/repos/bitcoin/bitcoin/languages",
        "merges_url": "https://api.github.com/repos/bitcoin/bitcoin/merges",
        "milestones_url": "https://api.github.com/repos/bitcoin/bitcoin/milestones%7B/number%7D",
        "notifications_url": "https://api.github.com/repos/bitcoin/bitcoin/notifications%7B?since,all,participating}",
        "pulls_url": "https://api.github.com/repos/bitcoin/bitcoin/pulls%7B/number%7D",
        "releases_url": "https://api.github.com/repos/bitcoin/bitcoin/releases%7B/id%7D",
        "ssh_url": "git@github.com:bitcoin/bitcoin.git",
        "stargazers_url": "https://api.github.com/repos/bitcoin/bitcoin/stargazers",
        "statuses_url": "https://api.github.com/repos/bitcoin/bitcoin/statuses/%7Bsha%7D",
        "subscribers_url": "https://api.github.com/repos/bitcoin/bitcoin/subscribers",
        "subscription_url": "https://api.github.com/repos/bitcoin/bitcoin/subscription",
        "tags_url": "https://api.github.com/repos/bitcoin/bitcoin/tags",
        "teams_url": "https://api.github.com/repos/bitcoin/bitcoin/teams",
        "trees_url": "https://api.github.com/repos/bitcoin/bitcoin/git/trees%7B/sha%7D",
        "clone_url": "https://github.com/bitcoin/bitcoin.git",
        "hooks_url": "https://api.github.com/repos/bitcoin/bitcoin/hooks",
        "svn_url": "https://github.com/bitcoin/bitcoin",
        "homepage": "https://bitcoincore.org/en/download",
        "language": "C++",
        "forks_count": 35922,
        "stargazers_count": 72023,
        "watchers_count": 72023,
        "size": 244403,
        "default_branch": "master",
        "open_issues_count": 629,
        "is_template": false,
        "topics": [
          "bitcoin",
          "c-plus-plus",
          "cryptocurrency",
          "cryptography",
          "p2p"
        ],
        "has_issues": true,
        "has_projects": true,
        "has_wiki": false,
        "has_pages": false,
        "has_downloads": false,
        "archived": false,
        "disabled": false,
        "visibility": "public",
        "pushed_at": "2023-11-03T19:11:02Z",
        "created_at": "2010-12-19T15:16:43Z",
        "updated_at": "2023-11-03T19:25:34Z",
        "license": {
          "key": "mit",
          "name": "MIT License",
          "node_id": "MDc6TGljZW5zZTEz",
          "spdx_id": "MIT",
          "url": "https://api.github.com/licenses/mit",
          "html_url": null,
          "description": null,
          "implementation": null,
          "permissions": null,
          "conditions": null,
          "limitations": null,
          "body": null,
          "featured": null
        }
      }
    },
    "_links": {
      "self": {
        "href": "https://api.github.com/repos/bitcoin/bitcoin/pulls/28781"
      }
    },
    "author_association": "MEMBER",
    "draft": false,
    "additions": 175,
    "deletions": 89,
    "changed_files": 2,
    "commits": 2,
    "review_comments": 0,
    "comments": 2
  },
  "events": [
    {
      "event": "committed",
      "id": null,
      "node_id": "C_kwDOABII59oAKGNlZDA0MzVhNzE4ZGRkYTE0NTFmYjQ5YWYwM2JlZjA3Y2EyNWIzMzM",
      "url": "https://api.github.com/repos/bitcoin/bitcoin/git/commits/ced0435a718ddda1451fb49af03bef07ca25b333",
      "actor": null,
      "commit_id": null,
      "commit_url": null,
      "created_at": null,
      "html_url": "https://github.com/bitcoin/bitcoin/commit/ced0435a718ddda1451fb49af03bef07ca25b333",
      "tree": {
        "sha": "00c61882f1accc547036dbf80661925f1f26e1cb",
        "url": "https://api.github.com/repos/bitcoin/bitcoin/git/trees/00c61882f1accc547036dbf80661925f1f26e1cb"
      },
      "verification": {
        "verified": true,
        "reason": "valid",
        "payload": "tree 00c61882f1accc547036dbf80661925f1f26e1cb\nparent 9b68c9b85efebfa23daec6471b87e9cbb514a006\nauthor fanquake <fanquake@gmail.com> 1699009449 +0000\ncommitter fanquake <fanquake@gmail.com> 1699009449 +0000\n\nbuild: latest config.guess in depends\n",
        "signature": "-----BEGIN PGP SIGNATURE-----\n\niQIzBAABCAAdFiEEz7FuIclQ9n+pXlWPLuufXMCVJsEFAmVE06kACgkQLuufXMCV\nJsETpxAAgg3xcaSV13d0D1Twq0GbHrXazQeEdg6yEfdWFiECS9tcMkyXWwTcGOw4\nK13bZ08/jg1b5QJ/QKLisA9xzgP7iRXW1Omqhg7aXYldoI9GN25k28KgjeP0mh20\n/IfZ58QAUl2vEslPu1u4+pxpQCNlyjQ+Zji5Zyem+0EyjSCjUf16ihP2ibmum2Ax\nNsvbSuA4+sQtqOy69w+rgidjA61AdGkMRSancOPou83WrrUcQy71RD18Ud1HyUTL\njj8Q4emzFxj+SXlNvKlSMaaVLReRSHY5hKSgnlskGVSNQwYiF6md/DiP9HmtOzdb\nymKn6MaBtJUvrV9CKAh4spRCirYFiojVIFN36imFwS+8YRDfb88kdsSL9VV+JUg8\n5xfs/ZDGGy5eDq68Y0aBeeTgxIiq3fti5A5zWwTeaKLwGfcF4B/yo8F64QWTWNi0\n7Zi8g97HT1ENNCPvaqu22KalHV/WNitM3VeW9FyeapWH+K+BDZiA476qk7A9YB3O\n4q5ToTeR9J2V+UZz6rbnC5DpwhvZIYzunlvQmzxvghaLI7sYD+PRbAL9NN6mu8P9\nnUEz9qra6d1QTCMG/AXjJjyF+hCP9HrX9b2DSsyKX1NawpzBNZMUWsBFB06mW4HW\nSp3zgQSVN7hXmcG3beR4QFZ/EN7Gx9fxXyyQGntiPNsWkzJeDe0=\n=jQO4\n-----END PGP SIGNATURE-----"
      },
      "parents": [
        {
          "url": "https://api.github.com/repos/bitcoin/bitcoin/git/commits/9b68c9b85efebfa23daec6471b87e9cbb514a006",
          "sha": "9b68c9b85efebfa23daec6471b87e9cbb514a006",
          "html_url": "https://github.com/bitcoin/bitcoin/commit/9b68c9b85efebfa23daec6471b87e9cbb514a006"
        }
      ],
      "message": "build: latest config.guess in depends",
      "committer": {
        "name": "fanquake",
        "email": "fanquake@gmail.com",
        "date": "2023-11-03T11:04:09Z"
      },
      "author": {
        "name": "fanquake",
        "email": "fanquake@gmail.com",
        "date": "2023-11-03T11:04:09Z"
      },
      "sha": "ced0435a718ddda1451fb49af03bef07ca25b333"
    },
    {
      "event": "committed",
      "id": null,
      "node_id": "C_kwDOABII59oAKDQ5YTkyNTc5YzcwNTgzMWM3ZmZiY2ZiMjRjZGYxN2E5NGU5YTExYTA",
      "url": "https://api.github.com/repos/bitcoin/bitcoin/git/commits/49a92579c705831c7ffbcfb24cdf17a94e9a11a0",
      "actor": null,
      "commit_id": null,
      "commit_url": null,
      "created_at": null,
      "html_url": "https://github.com/bitcoin/bitcoin/commit/49a92579c705831c7ffbcfb24cdf17a94e9a11a0",
      "tree": {
        "sha": "591af3e5de6645b5b7ed9bb7b48907eb0229167d",
        "url": "https://api.github.com/repos/bitcoin/bitcoin/git/trees/591af3e5de6645b5b7ed9bb7b48907eb0229167d"
      },
      "verification": {
        "verified": true,
        "reason": "valid",
        "payload": "tree 591af3e5de6645b5b7ed9bb7b48907eb0229167d\nparent ced0435a718ddda1451fb49af03bef07ca25b333\nauthor fanquake <fanquake@gmail.com> 1699009477 +0000\ncommitter fanquake <fanquake@gmail.com> 1699009477 +0000\n\nbuild: latest config.sub in depends\n",
        "signature": "-----BEGIN PGP SIGNATURE-----\n\niQIzBAABCAAdFiEEz7FuIclQ9n+pXlWPLuufXMCVJsEFAmVE08UACgkQLuufXMCV\nJsF3QhAAgo+4PE4Wbt0PojApg6uSJUTlldqM61amkSr+GOZNM66oWQnMTPevi0mF\nBCGt/kO2JgLD5jnInxq4YCcoCHQQAZdcPvGDSyvbv53A7nDaC5iuqrStmFnpZrDH\ny8djTMhpj70otqbsrIWmjgr+9sW+AAyEK654yW25YfJTnzH3Fs42aHHDUu/2H6Nh\nOIhsCi+3fSmgmLR+VhiF7wqkbaoQFNccEPJM9I/MHFq0ktwLSD/eGkFAC18JsBvn\nSKnTy26O6AwtuPhqraKuo7zDCxSmsExLySkdHybQnZcIZi0TEtOiM6UUXK2iHKOp\nrBJTXn/it+a/PSbweh8k33EnAEPsmlcJq7rV6ZzPL7RkXf5Tn+9dAj/EAQ/w75K1\nY7MHbdODYchKE8NElCqFZ5SmEzOiLhyqW3Q97gguqyhVZDmwq2aYbHz3A9dCNXlY\nK2mU9Mp0gFP6ZIVzBxbM99pHlnUGgryt/i1TvU+bv+IvZv1aCQHQITw/ST5jtoax\nnkrREGUXNNHCkyYrwhF9a1X5e+R8ekyiCpyp/mBRX0NaK+qKp5/hYDo9y7JnabY6\nXykWebZCkwCkWoh3/D1n3nxMEJ3CkP3kFxuKpFQ3f05rTmlgpowT9BdXRfm6suit\nHBwIh94MVt5rzTdxK4eAMlHqQHsdJgt/SsTtfT+WmFc0URFvb+k=\n=atIa\n-----END PGP SIGNATURE-----"
      },
      "parents": [
        {
          "url": "https://api.github.com/repos/bitcoin/bitcoin/git/commits/ced0435a718ddda1451fb49af03bef07ca25b333",
          "sha": "ced0435a718ddda1451fb49af03bef07ca25b333",
          "html_url": "https://github.com/bitcoin/bitcoin/commit/ced0435a718ddda1451fb49af03bef07ca25b333"
        }
      ],
      "message": "build: latest config.sub in depends",
      "committer": {
        "name": "fanquake",
        "email": "fanquake@gmail.com",
        "date": "2023-11-03T11:04:37Z"
      },
      "author": {
        "name": "fanquake",
        "email": "fanquake@gmail.com",
        "date": "2023-11-03T11:04:37Z"
      },
      "sha": "49a92579c705831c7ffbcfb24cdf17a94e9a11a0"
    },
    {
      "event": "commented",
      "id": 1792255123,
      "node_id": "IC_kwDOABII585q06ST",
      "url": "https://api.github.com/repos/bitcoin/bitcoin/issues/comments/1792255123",
      "actor": {
        "login": "DrahtBot",
        "id": 39886733,
        "node_id": "MDQ6VXNlcjM5ODg2NzMz",
        "avatar_url": "https://avatars.githubusercontent.com/u/39886733?v=4",
        "gravatar_id": "",
        "url": "https://api.github.com/users/DrahtBot",
        "html_url": "https://github.com/DrahtBot",
        "followers_url": "https://api.github.com/users/DrahtBot/followers",
        "following_url": "https://api.github.com/users/DrahtBot/following%7B/other_user%7D",
        "gists_url": "https://api.github.com/users/DrahtBot/gists%7B/gist_id%7D",
        "starred_url": "https://api.github.com/users/DrahtBot/starred%7B/owner%7D%7B/repo%7D",
        "subscriptions_url": "https://api.github.com/users/DrahtBot/subscriptions",
        "organizations_url": "https://api.github.com/users/DrahtBot/orgs",
        "repos_url": "https://api.github.com/users/DrahtBot/repos",
        "events_url": "https://api.github.com/users/DrahtBot/events%7B/privacy%7D",
        "received_events_url": "https://api.github.com/users/DrahtBot/received_events",
        "type": "User",
        "site_admin": false
      },
      "commit_id": null,
      "commit_url": null,
      "created_at": "2023-11-03T11:11:50Z",
      "updated_at": "2023-11-03T11:11:52Z",
      "author_association": "CONTRIBUTOR",
      "body": "<!--e57a25ab6845829454e8d69fc972939a-->\n\nThe following sections might be updated with supplementary metadata relevant to reviewers and maintainers.\n\n<!--006a51241073e994b41acfe9ec718e94-->\n### Code Coverage\nFor detailed information about the code coverage, see the [test coverage report](https://corecheck.dev/bitcoin/bitcoin/pulls/28781).\n<!--021abf342d371248e50ceaed478a90ca-->\n### Reviews\nSee [the guideline](https://github.com/bitcoin/bitcoin/blob/master/CONTRIBUTING.md#code-review) for information on the review process.\nA summary of reviews will appear here.\n",
      "user": {
        "login": "DrahtBot",
        "id": 39886733,
        "node_id": "MDQ6VXNlcjM5ODg2NzMz",
        "avatar_url": "https://avatars.githubusercontent.com/u/39886733?v=4",
        "gravatar_id": "",
        "url": "https://api.github.com/users/DrahtBot",
        "html_url": "https://github.com/DrahtBot",
        "followers_url": "https://api.github.com/users/DrahtBot/followers",
        "following_url": "https://api.github.com/users/DrahtBot/following%7B/other_user%7D",
        "gists_url": "https://api.github.com/users/DrahtBot/gists%7B/gist_id%7D",
        "starred_url": "https://api.github.com/users/DrahtBot/starred%7B/owner%7D%7B/repo%7D",
        "subscriptions_url": "https://api.github.com/users/DrahtBot/subscriptions",
        "organizations_url": "https://api.github.com/users/DrahtBot/orgs",
        "repos_url": "https://api.github.com/users/DrahtBot/repos",
        "events_url": "https://api.github.com/users/DrahtBot/events%7B/privacy%7D",
        "received_events_url": "https://api.github.com/users/DrahtBot/received_events",
        "type": "User",
        "site_admin": false
      },
      "html_url": "https://github.com/bitcoin/bitcoin/pull/28781#issuecomment-1792255123",
      "issue_url": "https://api.github.com/repos/bitcoin/bitcoin/issues/28781"
    },
    {
      "event": "labeled",
      "id": 10854488267,
      "node_id": "LE_lADOABII5851xqu9zwAAAAKG-ljL",
      "url": "https://api.github.com/repos/bitcoin/bitcoin/issues/events/10854488267",
      "actor": {
        "login": "DrahtBot",
        "id": 39886733,
        "node_id": "MDQ6VXNlcjM5ODg2NzMz",
        "avatar_url": "https://avatars.githubusercontent.com/u/39886733?v=4",
        "gravatar_id": "",
        "url": "https://api.github.com/users/DrahtBot",
        "html_url": "https://github.com/DrahtBot",
        "followers_url": "https://api.github.com/users/DrahtBot/followers",
        "following_url": "https://api.github.com/users/DrahtBot/following%7B/other_user%7D",
        "gists_url": "https://api.github.com/users/DrahtBot/gists%7B/gist_id%7D",
        "starred_url": "https://api.github.com/users/DrahtBot/starred%7B/owner%7D%7B/repo%7D",
        "subscriptions_url": "https://api.github.com/users/DrahtBot/subscriptions",
        "organizations_url": "https://api.github.com/users/DrahtBot/orgs",
        "repos_url": "https://api.github.com/users/DrahtBot/repos",
        "events_url": "https://api.github.com/users/DrahtBot/events%7B/privacy%7D",
        "received_events_url": "https://api.github.com/users/DrahtBot/received_events",
        "type": "User",
        "site_admin": false
      },
      "commit_id": null,
      "commit_url": null,
      "created_at": "2023-11-03T11:11:54Z",
      "label": {
        "name": "Build system",
        "color": "5319e7"
      }
    },
    {
      "event": "labeled",
      "id": 10854795220,
      "node_id": "LE_lADOABII5851xqu9zwAAAAKG_wfU",
      "url": "https://api.github.com/repos/bitcoin/bitcoin/issues/events/10854795220",
      "actor": {
        "login": "maflcko",
        "id": 6399679,
        "node_id": "MDQ6VXNlcjYzOTk2Nzk=",
        "avatar_url": "https://avatars.githubusercontent.com/u/6399679?v=4",
        "gravatar_id": "",
        "url": "https://api.github.com/users/maflcko",
        "html_url": "https://github.com/maflcko",
        "followers_url": "https://api.github.com/users/maflcko/followers",
        "following_url": "https://api.github.com/users/maflcko/following%7B/other_user%7D",
        "gists_url": "https://api.github.com/users/maflcko/gists%7B/gist_id%7D",
        "starred_url": "https://api.github.com/users/maflcko/starred%7B/owner%7D%7B/repo%7D",
        "subscriptions_url": "https://api.github.com/users/maflcko/subscriptions",
        "organizations_url": "https://api.github.com/users/maflcko/orgs",
        "repos_url": "https://api.github.com/users/maflcko/repos",
        "events_url": "https://api.github.com/users/maflcko/events%7B/privacy%7D",
        "received_events_url": "https://api.github.com/users/maflcko/received_events",
        "type": "User",
        "site_admin": false
      },
      "commit_id": null,
      "commit_url": null,
      "created_at": "2023-11-03T11:42:28Z",
      "label": {
        "name": "DrahtBot Guix build requested",
        "color": "bfd4f2"
      }
    },
    {
      "event": "commented",
      "id": 1792969279,
      "node_id": "IC_kwDOABII585q3oo_",
      "url": "https://api.github.com/repos/bitcoin/bitcoin/issues/comments/1792969279",
      "actor": {
        "login": "DrahtBot",
        "id": 39886733,
        "node_id": "MDQ6VXNlcjM5ODg2NzMz",
        "avatar_url": "https://avatars.githubusercontent.com/u/39886733?v=4",
        "gravatar_id": "",
        "url": "https://api.github.com/users/DrahtBot",
        "html_url": "https://github.com/DrahtBot",
        "followers_url": "https://api.github.com/users/DrahtBot/followers",
        "following_url": "https://api.github.com/users/DrahtBot/following%7B/other_user%7D",
        "gists_url": "https://api.github.com/users/DrahtBot/gists%7B/gist_id%7D",
        "starred_url": "https://api.github.com/users/DrahtBot/starred%7B/owner%7D%7B/repo%7D",
        "subscriptions_url": "https://api.github.com/users/DrahtBot/subscriptions",
        "organizations_url": "https://api.github.com/users/DrahtBot/orgs",
        "repos_url": "https://api.github.com/users/DrahtBot/repos",
        "events_url": "https://api.github.com/users/DrahtBot/events%7B/privacy%7D",
        "received_events_url": "https://api.github.com/users/DrahtBot/received_events",
        "type": "User",
        "site_admin": false
      },
      "commit_id": null,
      "commit_url": null,
      "created_at": "2023-11-03T19:14:00Z",
      "updated_at": "2023-11-03T19:14:00Z",
      "author_association": "CONTRIBUTOR",
      "body": "<!--9cd9c72976c961c55c7acef8f6ba82cd-->\n### Guix builds (on x86_64)\n\n| File | commit f23ac10ca5a322e87664b58233dccc4cb74c0570<br>(master) | commit 3eec27387d9a2a96e4f0522574f5f685a65288e4<br>(master and this pull) |\n|--|--|--|\n| SHA256SUMS.part | [`92659357fc97fc8e...`](https://drahtbot.space/guix/bitcoin/bitcoin/f23ac10ca5a322e87664b58233dccc4cb74c0570/SHA256SUMS.part) | [`05d597a54bc93c12...`](https://drahtbot.space/guix/bitcoin/bitcoin/3eec27387d9a2a96e4f0522574f5f685a65288e4/SHA256SUMS.part) |\n| *-aarch64-linux-gnu-debug.tar.gz | [`8e85af4277097e63...`](https://drahtbot.space/guix/bitcoin/bitcoin/f23ac10ca5a322e87664b58233dccc4cb74c0570/bitcoin-f23ac10ca5a3-aarch64-linux-gnu-debug.tar.gz) | [`e1a6a511f5c9e9f8...`](https://drahtbot.space/guix/bitcoin/bitcoin/3eec27387d9a2a96e4f0522574f5f685a65288e4/bitcoin-3eec27387d9a-aarch64-linux-gnu-debug.tar.gz) |\n| *-aarch64-linux-gnu.tar.gz | [`d29c219e45146ed7...`](https://drahtbot.space/guix/bitcoin/bitcoin/f23ac10ca5a322e87664b58233dccc4cb74c0570/bitcoin-f23ac10ca5a3-aarch64-linux-gnu.tar.gz) | [`c075762450d511b6...`](https://drahtbot.space/guix/bitcoin/bitcoin/3eec27387d9a2a96e4f0522574f5f685a65288e4/bitcoin-3eec27387d9a-aarch64-linux-gnu.tar.gz) |\n| *-arm-linux-gnueabihf-debug.tar.gz | [`e9564bc7151e514d...`](https://drahtbot.space/guix/bitcoin/bitcoin/f23ac10ca5a322e87664b58233dccc4cb74c0570/bitcoin-f23ac10ca5a3-arm-linux-gnueabihf-debug.tar.gz) | [`236ea97b8289ec70...`](https://drahtbot.space/guix/bitcoin/bitcoin/3eec27387d9a2a96e4f0522574f5f685a65288e4/bitcoin-3eec27387d9a-arm-linux-gnueabihf-debug.tar.gz) |\n| *-arm-linux-gnueabihf.tar.gz | [`0dea490de2900729...`](https://drahtbot.space/guix/bitcoin/bitcoin/f23ac10ca5a322e87664b58233dccc4cb74c0570/bitcoin-f23ac10ca5a3-arm-linux-gnueabihf.tar.gz) | [`83ec611d091a507f...`](https://drahtbot.space/guix/bitcoin/bitcoin/3eec27387d9a2a96e4f0522574f5f685a65288e4/bitcoin-3eec27387d9a-arm-linux-gnueabihf.tar.gz) |\n| *-arm64-apple-darwin-unsigned.tar.gz | [`ed905a38a6985922...`](https://drahtbot.space/guix/bitcoin/bitcoin/f23ac10ca5a322e87664b58233dccc4cb74c0570/bitcoin-f23ac10ca5a3-arm64-apple-darwin-unsigned.tar.gz) | [`ae1e11e4c4a0d6a6...`](https://drahtbot.space/guix/bitcoin/bitcoin/3eec27387d9a2a96e4f0522574f5f685a65288e4/bitcoin-3eec27387d9a-arm64-apple-darwin-unsigned.tar.gz) |\n| *-arm64-apple-darwin-unsigned.zip | [`5ff300abccc86e16...`](https://drahtbot.space/guix/bitcoin/bitcoin/f23ac10ca5a322e87664b58233dccc4cb74c0570/bitcoin-f23ac10ca5a3-arm64-apple-darwin-unsigned.zip) | [`d97711885bce1870...`](https://drahtbot.space/guix/bitcoin/bitcoin/3eec27387d9a2a96e4f0522574f5f685a65288e4/bitcoin-3eec27387d9a-arm64-apple-darwin-unsigned.zip) |\n| *-arm64-apple-darwin.tar.gz | [`a46b5b97c3daaad9...`](https://drahtbot.space/guix/bitcoin/bitcoin/f23ac10ca5a322e87664b58233dccc4cb74c0570/bitcoin-f23ac10ca5a3-arm64-apple-darwin.tar.gz) | [`bc94087b3e5a6617...`](https://drahtbot.space/guix/bitcoin/bitcoin/3eec27387d9a2a96e4f0522574f5f685a65288e4/bitcoin-3eec27387d9a-arm64-apple-darwin.tar.gz) |\n| *-powerpc64-linux-gnu-debug.tar.gz | [`ed88e835f99cd5cc...`](https://drahtbot.space/guix/bitcoin/bitcoin/f23ac10ca5a322e87664b58233dccc4cb74c0570/bitcoin-f23ac10ca5a3-powerpc64-linux-gnu-debug.tar.gz) | [`50e0ac72ee290678...`](https://drahtbot.space/guix/bitcoin/bitcoin/3eec27387d9a2a96e4f0522574f5f685a65288e4/bitcoin-3eec27387d9a-powerpc64-linux-gnu-debug.tar.gz) |\n| *-powerpc64-linux-gnu.tar.gz | [`0be7a7cb50a4dd4a...`](https://drahtbot.space/guix/bitcoin/bitcoin/f23ac10ca5a322e87664b58233dccc4cb74c0570/bitcoin-f23ac10ca5a3-powerpc64-linux-gnu.tar.gz) | [`aa3dd496a6fb389e...`](https://drahtbot.space/guix/bitcoin/bitcoin/3eec27387d9a2a96e4f0522574f5f685a65288e4/bitcoin-3eec27387d9a-powerpc64-linux-gnu.tar.gz) |\n| *-powerpc64le-linux-gnu-debug.tar.gz | [`9565b3c366b349e0...`](https://drahtbot.space/guix/bitcoin/bitcoin/f23ac10ca5a322e87664b58233dccc4cb74c0570/bitcoin-f23ac10ca5a3-powerpc64le-linux-gnu-debug.tar.gz) | [`bc087d6174cfc345...`](https://drahtbot.space/guix/bitcoin/bitcoin/3eec27387d9a2a96e4f0522574f5f685a65288e4/bitcoin-3eec27387d9a-powerpc64le-linux-gnu-debug.tar.gz) |\n| *-powerpc64le-linux-gnu.tar.gz | [`01c7d06acaa2bda9...`](https://drahtbot.space/guix/bitcoin/bitcoin/f23ac10ca5a322e87664b58233dccc4cb74c0570/bitcoin-f23ac10ca5a3-powerpc64le-linux-gnu.tar.gz) | [`0d43c5dea67063f2...`](https://drahtbot.space/guix/bitcoin/bitcoin/3eec27387d9a2a96e4f0522574f5f685a65288e4/bitcoin-3eec27387d9a-powerpc64le-linux-gnu.tar.gz) |\n| *-riscv64-linux-gnu-debug.tar.gz | [`bcc048b2f5be12e1...`](https://drahtbot.space/guix/bitcoin/bitcoin/f23ac10ca5a322e87664b58233dccc4cb74c0570/bitcoin-f23ac10ca5a3-riscv64-linux-gnu-debug.tar.gz) | [`a678cee087806e28...`](https://drahtbot.space/guix/bitcoin/bitcoin/3eec27387d9a2a96e4f0522574f5f685a65288e4/bitcoin-3eec27387d9a-riscv64-linux-gnu-debug.tar.gz) |\n| *-riscv64-linux-gnu.tar.gz | [`e9b064d98292bf76...`](https://drahtbot.space/guix/bitcoin/bitcoin/f23ac10ca5a322e87664b58233dccc4cb74c0570/bitcoin-f23ac10ca5a3-riscv64-linux-gnu.tar.gz) | [`d911a2eb449393e1...`](https://drahtbot.space/guix/bitcoin/bitcoin/3eec27387d9a2a96e4f0522574f5f685a65288e4/bitcoin-3eec27387d9a-riscv64-linux-gnu.tar.gz) |\n| *-x86_64-apple-darwin-unsigned.tar.gz | [`a0715a07c1dcf9d3...`](https://drahtbot.space/guix/bitcoin/bitcoin/f23ac10ca5a322e87664b58233dccc4cb74c0570/bitcoin-f23ac10ca5a3-x86_64-apple-darwin-unsigned.tar.gz) | [`16ba3465b0999ae4...`](https://drahtbot.space/guix/bitcoin/bitcoin/3eec27387d9a2a96e4f0522574f5f685a65288e4/bitcoin-3eec27387d9a-x86_64-apple-darwin-unsigned.tar.gz) |\n| *-x86_64-apple-darwin-unsigned.zip | [`31b6d7106c930a54...`](https://drahtbot.space/guix/bitcoin/bitcoin/f23ac10ca5a322e87664b58233dccc4cb74c0570/bitcoin-f23ac10ca5a3-x86_64-apple-darwin-unsigned.zip) | [`5840f7bf72cc7077...`](https://drahtbot.space/guix/bitcoin/bitcoin/3eec27387d9a2a96e4f0522574f5f685a65288e4/bitcoin-3eec27387d9a-x86_64-apple-darwin-unsigned.zip) |\n| *-x86_64-apple-darwin.tar.gz | [`5ab5018cc8162e08...`](https://drahtbot.space/guix/bitcoin/bitcoin/f23ac10ca5a322e87664b58233dccc4cb74c0570/bitcoin-f23ac10ca5a3-x86_64-apple-darwin.tar.gz) | [`3e9658991e69f1fe...`](https://drahtbot.space/guix/bitcoin/bitcoin/3eec27387d9a2a96e4f0522574f5f685a65288e4/bitcoin-3eec27387d9a-x86_64-apple-darwin.tar.gz) |\n| *-x86_64-linux-gnu-debug.tar.gz | [`250b3ad75c897648...`](https://drahtbot.space/guix/bitcoin/bitcoin/f23ac10ca5a322e87664b58233dccc4cb74c0570/bitcoin-f23ac10ca5a3-x86_64-linux-gnu-debug.tar.gz) | [`ae321f4e458106fa...`](https://drahtbot.space/guix/bitcoin/bitcoin/3eec27387d9a2a96e4f0522574f5f685a65288e4/bitcoin-3eec27387d9a-x86_64-linux-gnu-debug.tar.gz) |\n| *-x86_64-linux-gnu.tar.gz | [`2011c32866473392...`](https://drahtbot.space/guix/bitcoin/bitcoin/f23ac10ca5a322e87664b58233dccc4cb74c0570/bitcoin-f23ac10ca5a3-x86_64-linux-gnu.tar.gz) | [`6dd6568d002af8cc...`](https://drahtbot.space/guix/bitcoin/bitcoin/3eec27387d9a2a96e4f0522574f5f685a65288e4/bitcoin-3eec27387d9a-x86_64-linux-gnu.tar.gz) |\n| *.tar.gz | [`2ea368703376018d...`](https://drahtbot.space/guix/bitcoin/bitcoin/f23ac10ca5a322e87664b58233dccc4cb74c0570/bitcoin-f23ac10ca5a3.tar.gz) | [`6369c3d5aaeb2e3b...`](https://drahtbot.space/guix/bitcoin/bitcoin/3eec27387d9a2a96e4f0522574f5f685a65288e4/bitcoin-3eec27387d9a.tar.gz) |\n| guix_build.log | [`cb9055f69265de9e...`](https://drahtbot.space/guix/bitcoin/bitcoin/f23ac10ca5a322e87664b58233dccc4cb74c0570/guix_build.log) | [`70c848a9ea7a386f...`](https://drahtbot.space/guix/bitcoin/bitcoin/3eec27387d9a2a96e4f0522574f5f685a65288e4/guix_build.log) |\n| guix_build.log.diff |  | [`509a7762d863f38f...`](https://drahtbot.space/guix/bitcoin/bitcoin/3eec27387d9a2a96e4f0522574f5f685a65288e4/guix_build.log.diff) |\n\n",
      "user": {
        "login": "DrahtBot",
        "id": 39886733,
        "node_id": "MDQ6VXNlcjM5ODg2NzMz",
        "avatar_url": "https://avatars.githubusercontent.com/u/39886733?v=4",
        "gravatar_id": "",
        "url": "https://api.github.com/users/DrahtBot",
        "html_url": "https://github.com/DrahtBot",
        "followers_url": "https://api.github.com/users/DrahtBot/followers",
        "following_url": "https://api.github.com/users/DrahtBot/following%7B/other_user%7D",
        "gists_url": "https://api.github.com/users/DrahtBot/gists%7B/gist_id%7D",
        "starred_url": "https://api.github.com/users/DrahtBot/starred%7B/owner%7D%7B/repo%7D",
        "subscriptions_url": "https://api.github.com/users/DrahtBot/subscriptions",
        "organizations_url": "https://api.github.com/users/DrahtBot/orgs",
        "repos_url": "https://api.github.com/users/DrahtBot/repos",
        "events_url": "https://api.github.com/users/DrahtBot/events%7B/privacy%7D",
        "received_events_url": "https://api.github.com/users/DrahtBot/received_events",
        "type": "User",
        "site_admin": false
      },
      "html_url": "https://github.com/bitcoin/bitcoin/pull/28781#issuecomment-1792969279",
      "issue_url": "https://api.github.com/repos/bitcoin/bitcoin/issues/28781"
    },
    {
      "event": "unlabeled",
      "id": 10859712314,
      "node_id": "UNLE_lADOABII5851xqu9zwAAAAKHSg86",
      "url": "https://api.github.com/repos/bitcoin/bitcoin/issues/events/10859712314",
      "actor": {
        "login": "DrahtBot",
        "id": 39886733,
        "node_id": "MDQ6VXNlcjM5ODg2NzMz",
        "avatar_url": "https://avatars.githubusercontent.com/u/39886733?v=4",
        "gravatar_id": "",
        "url": "https://api.github.com/users/DrahtBot",
        "html_url": "https://github.com/DrahtBot",
        "followers_url": "https://api.github.com/users/DrahtBot/followers",
        "following_url": "https://api.github.com/users/DrahtBot/following%7B/other_user%7D",
        "gists_url": "https://api.github.com/users/DrahtBot/gists%7B/gist_id%7D",
        "starred_url": "https://api.github.com/users/DrahtBot/starred%7B/owner%7D%7B/repo%7D",
        "subscriptions_url": "https://api.github.com/users/DrahtBot/subscriptions",
        "organizations_url": "https://api.github.com/users/DrahtBot/orgs",
        "repos_url": "https://api.github.com/users/DrahtBot/repos",
        "events_url": "https://api.github.com/users/DrahtBot/events%7B/privacy%7D",
        "received_events_url": "https://api.github.com/users/DrahtBot/received_events",
        "type": "User",
        "site_admin": false
      },
      "commit_id": null,
      "commit_url": null,
      "created_at": "2023-11-03T19:14:01Z",
      "label": {
        "name": "DrahtBot Guix build requested",
        "color": "bfd4f2"
      }
    }
  ],
  "comments": []
}