{
  "type": "issue",
  "issue": {
    "id": 281914473,
    "node_id": "MDU6SXNzdWUyODE5MTQ0NzM=",
    "url": "https://api.github.com/repos/bitcoin/bitcoin/issues/11891",
    "repository_url": "https://api.github.com/repos/bitcoin/bitcoin",
    "labels_url": "https://api.github.com/repos/bitcoin/bitcoin/issues/11891/labels%7B/name%7D",
    "comments_url": "https://api.github.com/repos/bitcoin/bitcoin/issues/11891/comments",
    "events_url": "https://api.github.com/repos/bitcoin/bitcoin/issues/11891/events",
    "html_url": "https://github.com/bitcoin/bitcoin/issues/11891",
    "number": 11891,
    "state": "open",
    "state_reason": null,
    "title": "Misleading error/reject message: mandatory-script-verify-flag-failed (Signature must be zero for failed CHECK(MULTI)SIG operation)",
    "body": "This is very equivalent to https://bitcoin.stackexchange.com/questions/61030/got-64-non-mandatory-script-verify-flag-signature-must-be-zero-for-failed-chec/61040\r\n\r\nWhile implementing multisig for https://github.com/Ayms/bitcoin-transactions and just sending funds to a multisig test address (https://btgexp.com/tx/e2fe7ed1c528986fd30d97dd4bb62cc9c17db94c0753333250dc0c32ab5a8bd8) I got this error\r\n\r\nSimply because prevamount: (0.00460457*100000000)=460456.99999999994 was wrongly rounded to 460456, then the signature was incorrect\r\n\r\n\"Signature must be zero for failed CHECK(MULTI)SIG operation\" is unclear, this probably can be replaced by something more clear like \"Wrong signature\" and why not \"check prevamounts\"",
    "user": {
      "login": "Ayms",
      "id": 759202,
      "node_id": "MDQ6VXNlcjc1OTIwMg==",
      "avatar_url": "https://avatars.githubusercontent.com/u/759202?v=4",
      "gravatar_id": "",
      "url": "https://api.github.com/users/Ayms",
      "html_url": "https://github.com/Ayms",
      "followers_url": "https://api.github.com/users/Ayms/followers",
      "following_url": "https://api.github.com/users/Ayms/following%7B/other_user%7D",
      "gists_url": "https://api.github.com/users/Ayms/gists%7B/gist_id%7D",
      "starred_url": "https://api.github.com/users/Ayms/starred%7B/owner%7D%7B/repo%7D",
      "subscriptions_url": "https://api.github.com/users/Ayms/subscriptions",
      "organizations_url": "https://api.github.com/users/Ayms/orgs",
      "repos_url": "https://api.github.com/users/Ayms/repos",
      "events_url": "https://api.github.com/users/Ayms/events%7B/privacy%7D",
      "received_events_url": "https://api.github.com/users/Ayms/received_events",
      "type": "User",
      "site_admin": false
    },
    "labels": [
      {
        "id": 64583,
        "node_id": "MDU6TGFiZWw2NDU4Mw==",
        "url": "https://api.github.com/repos/bitcoin/bitcoin/labels/Feature",
        "name": "Feature",
        "color": "7cf575",
        "default": false
      },
      {
        "id": 118379652,
        "node_id": "MDU6TGFiZWwxMTgzNzk2NTI=",
        "url": "https://api.github.com/repos/bitcoin/bitcoin/labels/Validation",
        "name": "Validation",
        "color": "6060aa",
        "default": false
      }
    ],
    "assignees": [],
    "author_association": "NONE",
    "locked": false,
    "comments": 9,
    "created_at": "2017-12-13T22:10:41Z",
    "updated_at": "2021-12-02T11:52:53Z"
  },
  "events": [
    {
      "event": "closed",
      "id": 1394301969,
      "node_id": "MDExOkNsb3NlZEV2ZW50MTM5NDMwMTk2OQ==",
      "url": "https://api.github.com/repos/bitcoin/bitcoin/issues/events/1394301969",
      "actor": {
        "login": "Ayms",
        "id": 759202,
        "node_id": "MDQ6VXNlcjc1OTIwMg==",
        "avatar_url": "https://avatars.githubusercontent.com/u/759202?v=4",
        "gravatar_id": "",
        "url": "https://api.github.com/users/Ayms",
        "html_url": "https://github.com/Ayms",
        "followers_url": "https://api.github.com/users/Ayms/followers",
        "following_url": "https://api.github.com/users/Ayms/following%7B/other_user%7D",
        "gists_url": "https://api.github.com/users/Ayms/gists%7B/gist_id%7D",
        "starred_url": "https://api.github.com/users/Ayms/starred%7B/owner%7D%7B/repo%7D",
        "subscriptions_url": "https://api.github.com/users/Ayms/subscriptions",
        "organizations_url": "https://api.github.com/users/Ayms/orgs",
        "repos_url": "https://api.github.com/users/Ayms/repos",
        "events_url": "https://api.github.com/users/Ayms/events%7B/privacy%7D",
        "received_events_url": "https://api.github.com/users/Ayms/received_events",
        "type": "User",
        "site_admin": false
      },
      "commit_id": null,
      "commit_url": null,
      "created_at": "2017-12-19T15:01:38Z"
    },
    {
      "event": "reopened",
      "id": 1394432885,
      "node_id": "MDEzOlJlb3BlbmVkRXZlbnQxMzk0NDMyODg1",
      "url": "https://api.github.com/repos/bitcoin/bitcoin/issues/events/1394432885",
      "actor": {
        "login": "MarcoFalke",
        "id": 6399679,
        "node_id": "MDQ6VXNlcjYzOTk2Nzk=",
        "avatar_url": "https://avatars.githubusercontent.com/u/6399679?v=4",
        "gravatar_id": "",
        "url": "https://api.github.com/users/MarcoFalke",
        "html_url": "https://github.com/MarcoFalke",
        "followers_url": "https://api.github.com/users/MarcoFalke/followers",
        "following_url": "https://api.github.com/users/MarcoFalke/following%7B/other_user%7D",
        "gists_url": "https://api.github.com/users/MarcoFalke/gists%7B/gist_id%7D",
        "starred_url": "https://api.github.com/users/MarcoFalke/starred%7B/owner%7D%7B/repo%7D",
        "subscriptions_url": "https://api.github.com/users/MarcoFalke/subscriptions",
        "organizations_url": "https://api.github.com/users/MarcoFalke/orgs",
        "repos_url": "https://api.github.com/users/MarcoFalke/repos",
        "events_url": "https://api.github.com/users/MarcoFalke/events%7B/privacy%7D",
        "received_events_url": "https://api.github.com/users/MarcoFalke/received_events",
        "type": "User",
        "site_admin": false
      },
      "commit_id": null,
      "commit_url": null,
      "created_at": "2017-12-19T16:02:15Z"
    },
    {
      "event": "commented",
      "id": 352802945,
      "node_id": "MDEyOklzc3VlQ29tbWVudDM1MjgwMjk0NQ==",
      "url": "https://api.github.com/repos/bitcoin/bitcoin/issues/comments/352802945",
      "actor": {
        "login": "TheBlueMatt",
        "id": 649246,
        "node_id": "MDQ6VXNlcjY0OTI0Ng==",
        "avatar_url": "https://avatars.githubusercontent.com/u/649246?v=4",
        "gravatar_id": "",
        "url": "https://api.github.com/users/TheBlueMatt",
        "html_url": "https://github.com/TheBlueMatt",
        "followers_url": "https://api.github.com/users/TheBlueMatt/followers",
        "following_url": "https://api.github.com/users/TheBlueMatt/following%7B/other_user%7D",
        "gists_url": "https://api.github.com/users/TheBlueMatt/gists%7B/gist_id%7D",
        "starred_url": "https://api.github.com/users/TheBlueMatt/starred%7B/owner%7D%7B/repo%7D",
        "subscriptions_url": "https://api.github.com/users/TheBlueMatt/subscriptions",
        "organizations_url": "https://api.github.com/users/TheBlueMatt/orgs",
        "repos_url": "https://api.github.com/users/TheBlueMatt/repos",
        "events_url": "https://api.github.com/users/TheBlueMatt/events%7B/privacy%7D",
        "received_events_url": "https://api.github.com/users/TheBlueMatt/received_events",
        "type": "User",
        "site_admin": false
      },
      "commit_id": null,
      "commit_url": null,
      "created_at": "2017-12-19T16:02:48Z",
      "updated_at": "2017-12-19T16:02:48Z",
      "author_association": "CONTRIBUTOR",
      "body": "Minor usability issue that may still be worth fixing, if its easy to fix. One simple way to address some similar cases is to take the \"first error\" we get starting from base flags and adding more flags on top until the script fails, at least for ATMP calls from eg sendrawtransaction.",
      "user": {
        "login": "TheBlueMatt",
        "id": 649246,
        "node_id": "MDQ6VXNlcjY0OTI0Ng==",
        "avatar_url": "https://avatars.githubusercontent.com/u/649246?v=4",
        "gravatar_id": "",
        "url": "https://api.github.com/users/TheBlueMatt",
        "html_url": "https://github.com/TheBlueMatt",
        "followers_url": "https://api.github.com/users/TheBlueMatt/followers",
        "following_url": "https://api.github.com/users/TheBlueMatt/following%7B/other_user%7D",
        "gists_url": "https://api.github.com/users/TheBlueMatt/gists%7B/gist_id%7D",
        "starred_url": "https://api.github.com/users/TheBlueMatt/starred%7B/owner%7D%7B/repo%7D",
        "subscriptions_url": "https://api.github.com/users/TheBlueMatt/subscriptions",
        "organizations_url": "https://api.github.com/users/TheBlueMatt/orgs",
        "repos_url": "https://api.github.com/users/TheBlueMatt/repos",
        "events_url": "https://api.github.com/users/TheBlueMatt/events%7B/privacy%7D",
        "received_events_url": "https://api.github.com/users/TheBlueMatt/received_events",
        "type": "User",
        "site_admin": false
      },
      "html_url": "https://github.com/bitcoin/bitcoin/issues/11891#issuecomment-352802945",
      "issue_url": "https://api.github.com/repos/bitcoin/bitcoin/issues/11891"
    },
    {
      "event": "commented",
      "id": 352811011,
      "node_id": "MDEyOklzc3VlQ29tbWVudDM1MjgxMTAxMQ==",
      "url": "https://api.github.com/repos/bitcoin/bitcoin/issues/comments/352811011",
      "actor": {
        "login": "Ayms",
        "id": 759202,
        "node_id": "MDQ6VXNlcjc1OTIwMg==",
        "avatar_url": "https://avatars.githubusercontent.com/u/759202?v=4",
        "gravatar_id": "",
        "url": "https://api.github.com/users/Ayms",
        "html_url": "https://github.com/Ayms",
        "followers_url": "https://api.github.com/users/Ayms/followers",
        "following_url": "https://api.github.com/users/Ayms/following%7B/other_user%7D",
        "gists_url": "https://api.github.com/users/Ayms/gists%7B/gist_id%7D",
        "starred_url": "https://api.github.com/users/Ayms/starred%7B/owner%7D%7B/repo%7D",
        "subscriptions_url": "https://api.github.com/users/Ayms/subscriptions",
        "organizations_url": "https://api.github.com/users/Ayms/orgs",
        "repos_url": "https://api.github.com/users/Ayms/repos",
        "events_url": "https://api.github.com/users/Ayms/events%7B/privacy%7D",
        "received_events_url": "https://api.github.com/users/Ayms/received_events",
        "type": "User",
        "site_admin": false
      },
      "commit_id": null,
      "commit_url": null,
      "created_at": "2017-12-19T16:27:55Z",
      "updated_at": "2017-12-19T16:46:11Z",
      "author_association": "NONE",
      "body": "I closed it because I noticed that other error messages are unclear too, I don't remember exactly the wording but for example I got \"unnecessary data too large\" or something like this, because an unnecessary OP_PUSHDATA was used, and I got  a \"dust\" reject message too who did not say what was the limit \"output amount should not be below xxx satoshis\", etc\r\n\r\nFlags telling what failed would be great but probably they won't be precise enough, then it's probably easier to include in the error messages what are the common mistakes/limits",
      "user": {
        "login": "Ayms",
        "id": 759202,
        "node_id": "MDQ6VXNlcjc1OTIwMg==",
        "avatar_url": "https://avatars.githubusercontent.com/u/759202?v=4",
        "gravatar_id": "",
        "url": "https://api.github.com/users/Ayms",
        "html_url": "https://github.com/Ayms",
        "followers_url": "https://api.github.com/users/Ayms/followers",
        "following_url": "https://api.github.com/users/Ayms/following%7B/other_user%7D",
        "gists_url": "https://api.github.com/users/Ayms/gists%7B/gist_id%7D",
        "starred_url": "https://api.github.com/users/Ayms/starred%7B/owner%7D%7B/repo%7D",
        "subscriptions_url": "https://api.github.com/users/Ayms/subscriptions",
        "organizations_url": "https://api.github.com/users/Ayms/orgs",
        "repos_url": "https://api.github.com/users/Ayms/repos",
        "events_url": "https://api.github.com/users/Ayms/events%7B/privacy%7D",
        "received_events_url": "https://api.github.com/users/Ayms/received_events",
        "type": "User",
        "site_admin": false
      },
      "html_url": "https://github.com/bitcoin/bitcoin/issues/11891#issuecomment-352811011",
      "issue_url": "https://api.github.com/repos/bitcoin/bitcoin/issues/11891"
    },
    {
      "event": "commented",
      "id": 353415260,
      "node_id": "MDEyOklzc3VlQ29tbWVudDM1MzQxNTI2MA==",
      "url": "https://api.github.com/repos/bitcoin/bitcoin/issues/comments/353415260",
      "actor": {
        "login": "Ayms",
        "id": 759202,
        "node_id": "MDQ6VXNlcjc1OTIwMg==",
        "avatar_url": "https://avatars.githubusercontent.com/u/759202?v=4",
        "gravatar_id": "",
        "url": "https://api.github.com/users/Ayms",
        "html_url": "https://github.com/Ayms",
        "followers_url": "https://api.github.com/users/Ayms/followers",
        "following_url": "https://api.github.com/users/Ayms/following%7B/other_user%7D",
        "gists_url": "https://api.github.com/users/Ayms/gists%7B/gist_id%7D",
        "starred_url": "https://api.github.com/users/Ayms/starred%7B/owner%7D%7B/repo%7D",
        "subscriptions_url": "https://api.github.com/users/Ayms/subscriptions",
        "organizations_url": "https://api.github.com/users/Ayms/orgs",
        "repos_url": "https://api.github.com/users/Ayms/repos",
        "events_url": "https://api.github.com/users/Ayms/events%7B/privacy%7D",
        "received_events_url": "https://api.github.com/users/Ayms/received_events",
        "type": "User",
        "site_admin": false
      },
      "commit_id": null,
      "commit_url": null,
      "created_at": "2017-12-21T17:54:18Z",
      "updated_at": "2017-12-21T17:54:18Z",
      "author_association": "NONE",
      "body": "This is coming back, please see https://github.com/Ayms/bitcoin-transactions/issues/5\r\n\r\nI am sure that the serialization for signing is correct (btw cli could display this info \"message to be signed (before hash): xxxx\")\r\n\r\nI suspect that [r,s] does not follow one of the rules of bitcoin core, that's not the canonical format, because I don't get this error and already checked, is there a link somewhere for the signatures format check?",
      "user": {
        "login": "Ayms",
        "id": 759202,
        "node_id": "MDQ6VXNlcjc1OTIwMg==",
        "avatar_url": "https://avatars.githubusercontent.com/u/759202?v=4",
        "gravatar_id": "",
        "url": "https://api.github.com/users/Ayms",
        "html_url": "https://github.com/Ayms",
        "followers_url": "https://api.github.com/users/Ayms/followers",
        "following_url": "https://api.github.com/users/Ayms/following%7B/other_user%7D",
        "gists_url": "https://api.github.com/users/Ayms/gists%7B/gist_id%7D",
        "starred_url": "https://api.github.com/users/Ayms/starred%7B/owner%7D%7B/repo%7D",
        "subscriptions_url": "https://api.github.com/users/Ayms/subscriptions",
        "organizations_url": "https://api.github.com/users/Ayms/orgs",
        "repos_url": "https://api.github.com/users/Ayms/repos",
        "events_url": "https://api.github.com/users/Ayms/events%7B/privacy%7D",
        "received_events_url": "https://api.github.com/users/Ayms/received_events",
        "type": "User",
        "site_admin": false
      },
      "html_url": "https://github.com/bitcoin/bitcoin/issues/11891#issuecomment-353415260",
      "issue_url": "https://api.github.com/repos/bitcoin/bitcoin/issues/11891"
    },
    {
      "event": "cross-referenced",
      "id": null,
      "node_id": null,
      "url": null,
      "actor": {
        "login": "Ayms",
        "id": 759202,
        "node_id": "MDQ6VXNlcjc1OTIwMg==",
        "avatar_url": "https://avatars.githubusercontent.com/u/759202?v=4",
        "gravatar_id": "",
        "url": "https://api.github.com/users/Ayms",
        "html_url": "https://github.com/Ayms",
        "followers_url": "https://api.github.com/users/Ayms/followers",
        "following_url": "https://api.github.com/users/Ayms/following%7B/other_user%7D",
        "gists_url": "https://api.github.com/users/Ayms/gists%7B/gist_id%7D",
        "starred_url": "https://api.github.com/users/Ayms/starred%7B/owner%7D%7B/repo%7D",
        "subscriptions_url": "https://api.github.com/users/Ayms/subscriptions",
        "organizations_url": "https://api.github.com/users/Ayms/orgs",
        "repos_url": "https://api.github.com/users/Ayms/repos",
        "events_url": "https://api.github.com/users/Ayms/events%7B/privacy%7D",
        "received_events_url": "https://api.github.com/users/Ayms/received_events",
        "type": "User",
        "site_admin": false
      },
      "commit_id": null,
      "commit_url": null,
      "created_at": "2017-12-21T22:18:18Z",
      "updated_at": "2017-12-21T22:18:18Z",
      "source": {
        "issue": {
          "id": 283845000,
          "node_id": "MDU6SXNzdWUyODM4NDUwMDA=",
          "url": "https://api.github.com/repos/Ayms/bitcoin-transactions/issues/5",
          "repository_url": "https://api.github.com/repos/Ayms/bitcoin-transactions",
          "labels_url": "https://api.github.com/repos/Ayms/bitcoin-transactions/issues/5/labels%7B/name%7D",
          "comments_url": "https://api.github.com/repos/Ayms/bitcoin-transactions/issues/5/comments",
          "events_url": "https://api.github.com/repos/Ayms/bitcoin-transactions/issues/5/events",
          "html_url": "https://github.com/Ayms/bitcoin-transactions/issues/5",
          "number": 5,
          "state": "closed",
          "state_reason": "completed",
          "title": "MultiSig wallet BTG transaction error",
          "body": "Hi,\r\n\r\nthank you for this great script. I am using it to get my BTG out of Multisig Electrum wallet.\r\n\r\nI managed to create 3 successful transactions, 3 more to be done. Unfortunately, all remaining 3 get rejected when sending them to the network.\r\n\r\nThe error I get when trying to broadcast the body via https://btgexplorer.com/tx/send is:\r\n\r\n16: mandatory-script-verify-flag-failed (Signature must be zero for failed CHECK(MULTI)SIG operation). Code:-26\r\n\r\nWhen I send them with the script, it gets rejected too. \r\n\r\nOne of the tranasctions:\r\n\r\n```\r\nnode tx.js BTG create prevtx=57b3cadfdb1ed2c24404db6b8b96afaa4b8ce2f7ef64836a5f9245fd32a\r\n51df5 prevaddr=3GauZViffpjJxZnNjw8WYS4NRuegkxdKvX prevamount=0.02477516 previndex=1 privkey=[key1]-[key2]-[redeem]-2of3 addr=GeLviuVRCnzFD2PvTRUPJPwjaCjzwg5CDc fees=0.00001\r\n```\r\n\r\nLet me know what info would you need to inspect the problem, thank you for your help and time.\r\n\r\nOndrej",
          "user": {
            "login": "ondrique",
            "id": 1532160,
            "node_id": "MDQ6VXNlcjE1MzIxNjA=",
            "avatar_url": "https://avatars.githubusercontent.com/u/1532160?v=4",
            "gravatar_id": "",
            "url": "https://api.github.com/users/ondrique",
            "html_url": "https://github.com/ondrique",
            "followers_url": "https://api.github.com/users/ondrique/followers",
            "following_url": "https://api.github.com/users/ondrique/following%7B/other_user%7D",
            "gists_url": "https://api.github.com/users/ondrique/gists%7B/gist_id%7D",
            "starred_url": "https://api.github.com/users/ondrique/starred%7B/owner%7D%7B/repo%7D",
            "subscriptions_url": "https://api.github.com/users/ondrique/subscriptions",
            "organizations_url": "https://api.github.com/users/ondrique/orgs",
            "repos_url": "https://api.github.com/users/ondrique/repos",
            "events_url": "https://api.github.com/users/ondrique/events%7B/privacy%7D",
            "received_events_url": "https://api.github.com/users/ondrique/received_events",
            "type": "User",
            "site_admin": false
          },
          "labels": [],
          "assignees": [],
          "author_association": "NONE",
          "locked": false,
          "comments": 10,
          "closed_at": "2017-12-24T13:16:30Z",
          "created_at": "2017-12-21T10:55:48Z",
          "updated_at": "2017-12-24T17:23:02Z"
        },
        "type": "issue"
      }
    },
    {
      "event": "commented",
      "id": 389518937,
      "node_id": "MDEyOklzc3VlQ29tbWVudDM4OTUxODkzNw==",
      "url": "https://api.github.com/repos/bitcoin/bitcoin/issues/comments/389518937",
      "actor": {
        "login": "tdiesler",
        "id": 244946,
        "node_id": "MDQ6VXNlcjI0NDk0Ng==",
        "avatar_url": "https://avatars.githubusercontent.com/u/244946?v=4",
        "gravatar_id": "",
        "url": "https://api.github.com/users/tdiesler",
        "html_url": "https://github.com/tdiesler",
        "followers_url": "https://api.github.com/users/tdiesler/followers",
        "following_url": "https://api.github.com/users/tdiesler/following%7B/other_user%7D",
        "gists_url": "https://api.github.com/users/tdiesler/gists%7B/gist_id%7D",
        "starred_url": "https://api.github.com/users/tdiesler/starred%7B/owner%7D%7B/repo%7D",
        "subscriptions_url": "https://api.github.com/users/tdiesler/subscriptions",
        "organizations_url": "https://api.github.com/users/tdiesler/orgs",
        "repos_url": "https://api.github.com/users/tdiesler/repos",
        "events_url": "https://api.github.com/users/tdiesler/events%7B/privacy%7D",
        "received_events_url": "https://api.github.com/users/tdiesler/received_events",
        "type": "User",
        "site_admin": false
      },
      "commit_id": null,
      "commit_url": null,
      "created_at": "2018-05-16T13:30:11Z",
      "updated_at": "2018-05-16T14:06:57Z",
      "author_association": "NONE",
      "body": "Here is a step-by-step walk through on a fresh regtest network, which attempts to do the following\r\n\r\nClient version: v0.16.0\r\n\r\n* get an address for account Bob\r\n* send 10.0 BTC to Bob\r\n* get an address for Marry\r\n* create a raw transaction that sends Marry 9.99 BTC\r\n* sign the raw transaction with Bob's private key\r\n\r\nSending the raw transaction fails with \r\n\r\n64: non-mandatory-script-verify-flag (Signature must be zero for failed CHECK(MULTI)SIG operation) (code -26)\r\n\r\n```\r\n> generate 101\r\n\r\n> getaccountaddress Bob\r\n\r\n2N6hRqr3EEFxT8wzQvrKok9m7c8UebetSD3\r\n\r\n> sendtoaddress 2N6hRqr3EEFxT8wzQvrKok9m7c8UebetSD3 10.0\r\n\r\n3b6297de06455879df0f34ec4e6dc811500f73a6294ccf5a9d012bef5f6adf6b\r\n\r\n> generate 1\r\n\r\n> listaccounts\r\n\r\n{\r\n  \"\": 89.99996240,\r\n  \"Bob\": 10.00000000\r\n}\r\n\r\n> listunspent 1\r\n\r\n[\r\n  {\r\n    \"txid\": \"3b6297de06455879df0f34ec4e6dc811500f73a6294ccf5a9d012bef5f6adf6b\",\r\n    \"vout\": 0,\r\n    \"address\": \"2N5gfUJjeas3rPaB3qGE7AwFPdDHkwsygKo\",\r\n    \"redeemScript\": \"0014817dd0e02d4bf98c5c3003a710250f65fae490c7\",\r\n    \"scriptPubKey\": \"a91488712e431e27588c9af8833ce4c55771e66cf7cb87\",\r\n    \"amount\": 39.99996240,\r\n    \"confirmations\": 1,\r\n    \"spendable\": true,\r\n    \"solvable\": true,\r\n    \"safe\": true\r\n  },\r\n  {\r\n    \"txid\": \"3b6297de06455879df0f34ec4e6dc811500f73a6294ccf5a9d012bef5f6adf6b\",\r\n    \"vout\": 1,\r\n    \"address\": \"2N6hRqr3EEFxT8wzQvrKok9m7c8UebetSD3\",\r\n    \"account\": \"Bob\",\r\n    \"redeemScript\": \"0014e8f6002e2336e40c22dcdb5b80c7eeef2b5d405f\",\r\n    \"scriptPubKey\": \"a914938e5889d8de2c6d7fd78e13fd63cb96e7dc265e87\",\r\n    \"amount\": 10.00000000,\r\n    \"confirmations\": 1,\r\n    \"spendable\": true,\r\n    \"solvable\": true,\r\n    \"safe\": true\r\n  },\r\n  {\r\n    \"txid\": \"c4b779821931f31fcc9f3d795b2b6f23540013b9bdbb90325f80de818f1258e0\",\r\n    \"vout\": 0,\r\n    \"address\": \"mw9SJs5QTjusS2GXSVqanYnvydWT8stXVJ\",\r\n    \"scriptPubKey\": \"2103ea92592e87e23efe22aab49282fcc00906204d2c799b4dce82ef7ce390f47c7fac\",\r\n    \"amount\": 50.00000000,\r\n    \"confirmations\": 101,\r\n    \"spendable\": true,\r\n    \"solvable\": true,\r\n    \"safe\": true\r\n  }\r\n]\r\n\r\n> getaccountaddress Marry\r\n\r\n2MudXihor4iwz6newMoG6yU3R4eQrZ32mu1\r\n\r\n> createrawtransaction '[{\"txid\":\"3b6297de06455879df0f34ec4e6dc811500f73a6294ccf5a9d012bef5f6adf6b\",\"vout\":1}]' '{\"2MudXihor4iwz6newMoG6yU3R4eQrZ32mu1\":9.99}'\r\n\r\n02000000016bdf6a5fef2b019d5acf4c29a6730f5011c86d4eec340fdf79584506de97623b0100000000ffffffff01c0878b3b0000000017a9141a283442bd9961bfa3e572bea276505f14b8f7158700000000\r\n\r\n> dumpprivkey 2N6hRqr3EEFxT8wzQvrKok9m7c8UebetSD3\r\n\r\ncNXTN1Z7GeCSsAZVRYYuzTumkGmT5y95knzFAidaYu6bghBzsZzg\r\n\r\n> signrawtransaction '02000000016bdf6a5fef2b019d5acf4c29a6730f5011c86d4eec340fdf79584506de97623b0100000000ffffffff01c0878b3b0000000017a9141a283442bd9961bfa3e572bea276505f14b8f7158700000000' '[{\"txid\":\"3b6297de06455879df0f34ec4e6dc811500f73a6294ccf5a9d012bef5f6adf6b\",\"vout\":1, \"scriptPubKey\":\"a914938e5889d8de2c6d7fd78e13fd63cb96e7dc265e87\", \"redeemScript\":\"0014e8f6002e2336e40c22dcdb5b80c7eeef2b5d405f\"}]' '[\"cNXTN1Z7GeCSsAZVRYYuzTumkGmT5y95knzFAidaYu6bghBzsZzg\"]'\r\n\r\n{\r\n  \"hex\": \"020000000001016bdf6a5fef2b019d5acf4c29a6730f5011c86d4eec340fdf79584506de97623b0100000017160014e8f6002e2336e40c22dcdb5b80c7eeef2b5d405fffffffff01c0878b3b0000000017a9141a283442bd9961bfa3e572bea276505f14b8f7158702473044022069c41acf0c377763ca48bcac20bcb0956a9320b9e5a404a5847816ba1a13dd69022023a75d6b5da3cb82efa050d2f64ea4b46ba83b7dde66cf6aebf1845a7f8173d20121029336bea825e6b65a732bc1e2588ab4b7364b74a42ce2318ebea3bba44aa200d100000000\",\r\n  \"complete\": true\r\n}\r\n\r\n> sendrawtransaction 020000000001016bdf6a5fef2b019d5acf4c29a6730f5011c86d4eec340fdf79584506de97623b0100000017160014e8f6002e2336e40c22dcdb5b80c7eeef2b5d405fffffffff01c0878b3b0000000017a9141a283442bd9961bfa3e572bea276505f14b8f7158702473044022069c41acf0c377763ca48bcac20bcb0956a9320b9e5a404a5847816ba1a13dd69022023a75d6b5da3cb82efa050d2f64ea4b46ba83b7dde66cf6aebf1845a7f8173d20121029336bea825e6b65a732bc1e2588ab4b7364b74a42ce2318ebea3bba44aa200d100000000\r\n\r\n64: non-mandatory-script-verify-flag (Signature must be zero for failed CHECK(MULTI)SIG operation)\r\n```",
      "user": {
        "login": "tdiesler",
        "id": 244946,
        "node_id": "MDQ6VXNlcjI0NDk0Ng==",
        "avatar_url": "https://avatars.githubusercontent.com/u/244946?v=4",
        "gravatar_id": "",
        "url": "https://api.github.com/users/tdiesler",
        "html_url": "https://github.com/tdiesler",
        "followers_url": "https://api.github.com/users/tdiesler/followers",
        "following_url": "https://api.github.com/users/tdiesler/following%7B/other_user%7D",
        "gists_url": "https://api.github.com/users/tdiesler/gists%7B/gist_id%7D",
        "starred_url": "https://api.github.com/users/tdiesler/starred%7B/owner%7D%7B/repo%7D",
        "subscriptions_url": "https://api.github.com/users/tdiesler/subscriptions",
        "organizations_url": "https://api.github.com/users/tdiesler/orgs",
        "repos_url": "https://api.github.com/users/tdiesler/repos",
        "events_url": "https://api.github.com/users/tdiesler/events%7B/privacy%7D",
        "received_events_url": "https://api.github.com/users/tdiesler/received_events",
        "type": "User",
        "site_admin": false
      },
      "html_url": "https://github.com/bitcoin/bitcoin/issues/11891#issuecomment-389518937",
      "issue_url": "https://api.github.com/repos/bitcoin/bitcoin/issues/11891"
    },
    {
      "event": "commented",
      "id": 406537586,
      "node_id": "MDEyOklzc3VlQ29tbWVudDQwNjUzNzU4Ng==",
      "url": "https://api.github.com/repos/bitcoin/bitcoin/issues/comments/406537586",
      "actor": {
        "login": "land-pack",
        "id": 11912387,
        "node_id": "MDQ6VXNlcjExOTEyMzg3",
        "avatar_url": "https://avatars.githubusercontent.com/u/11912387?v=4",
        "gravatar_id": "",
        "url": "https://api.github.com/users/land-pack",
        "html_url": "https://github.com/land-pack",
        "followers_url": "https://api.github.com/users/land-pack/followers",
        "following_url": "https://api.github.com/users/land-pack/following%7B/other_user%7D",
        "gists_url": "https://api.github.com/users/land-pack/gists%7B/gist_id%7D",
        "starred_url": "https://api.github.com/users/land-pack/starred%7B/owner%7D%7B/repo%7D",
        "subscriptions_url": "https://api.github.com/users/land-pack/subscriptions",
        "organizations_url": "https://api.github.com/users/land-pack/orgs",
        "repos_url": "https://api.github.com/users/land-pack/repos",
        "events_url": "https://api.github.com/users/land-pack/events%7B/privacy%7D",
        "received_events_url": "https://api.github.com/users/land-pack/received_events",
        "type": "User",
        "site_admin": false
      },
      "commit_id": null,
      "commit_url": null,
      "created_at": "2018-07-20T09:04:30Z",
      "updated_at": "2018-07-20T09:04:30Z",
      "author_association": "NONE",
      "body": "@tdiesler Do you fixed it ?",
      "user": {
        "login": "land-pack",
        "id": 11912387,
        "node_id": "MDQ6VXNlcjExOTEyMzg3",
        "avatar_url": "https://avatars.githubusercontent.com/u/11912387?v=4",
        "gravatar_id": "",
        "url": "https://api.github.com/users/land-pack",
        "html_url": "https://github.com/land-pack",
        "followers_url": "https://api.github.com/users/land-pack/followers",
        "following_url": "https://api.github.com/users/land-pack/following%7B/other_user%7D",
        "gists_url": "https://api.github.com/users/land-pack/gists%7B/gist_id%7D",
        "starred_url": "https://api.github.com/users/land-pack/starred%7B/owner%7D%7B/repo%7D",
        "subscriptions_url": "https://api.github.com/users/land-pack/subscriptions",
        "organizations_url": "https://api.github.com/users/land-pack/orgs",
        "repos_url": "https://api.github.com/users/land-pack/repos",
        "events_url": "https://api.github.com/users/land-pack/events%7B/privacy%7D",
        "received_events_url": "https://api.github.com/users/land-pack/received_events",
        "type": "User",
        "site_admin": false
      },
      "html_url": "https://github.com/bitcoin/bitcoin/issues/11891#issuecomment-406537586",
      "issue_url": "https://api.github.com/repos/bitcoin/bitcoin/issues/11891"
    },
    {
      "event": "mentioned",
      "id": 1744340022,
      "node_id": "MDE0Ok1lbnRpb25lZEV2ZW50MTc0NDM0MDAyMg==",
      "url": "https://api.github.com/repos/bitcoin/bitcoin/issues/events/1744340022",
      "actor": {
        "login": "tdiesler",
        "id": 244946,
        "node_id": "MDQ6VXNlcjI0NDk0Ng==",
        "avatar_url": "https://avatars.githubusercontent.com/u/244946?v=4",
        "gravatar_id": "",
        "url": "https://api.github.com/users/tdiesler",
        "html_url": "https://github.com/tdiesler",
        "followers_url": "https://api.github.com/users/tdiesler/followers",
        "following_url": "https://api.github.com/users/tdiesler/following%7B/other_user%7D",
        "gists_url": "https://api.github.com/users/tdiesler/gists%7B/gist_id%7D",
        "starred_url": "https://api.github.com/users/tdiesler/starred%7B/owner%7D%7B/repo%7D",
        "subscriptions_url": "https://api.github.com/users/tdiesler/subscriptions",
        "organizations_url": "https://api.github.com/users/tdiesler/orgs",
        "repos_url": "https://api.github.com/users/tdiesler/repos",
        "events_url": "https://api.github.com/users/tdiesler/events%7B/privacy%7D",
        "received_events_url": "https://api.github.com/users/tdiesler/received_events",
        "type": "User",
        "site_admin": false
      },
      "commit_id": null,
      "commit_url": null,
      "created_at": "2018-07-20T09:04:30Z"
    },
    {
      "event": "subscribed",
      "id": 1744340026,
      "node_id": "MDE1OlN1YnNjcmliZWRFdmVudDE3NDQzNDAwMjY=",
      "url": "https://api.github.com/repos/bitcoin/bitcoin/issues/events/1744340026",
      "actor": {
        "login": "tdiesler",
        "id": 244946,
        "node_id": "MDQ6VXNlcjI0NDk0Ng==",
        "avatar_url": "https://avatars.githubusercontent.com/u/244946?v=4",
        "gravatar_id": "",
        "url": "https://api.github.com/users/tdiesler",
        "html_url": "https://github.com/tdiesler",
        "followers_url": "https://api.github.com/users/tdiesler/followers",
        "following_url": "https://api.github.com/users/tdiesler/following%7B/other_user%7D",
        "gists_url": "https://api.github.com/users/tdiesler/gists%7B/gist_id%7D",
        "starred_url": "https://api.github.com/users/tdiesler/starred%7B/owner%7D%7B/repo%7D",
        "subscriptions_url": "https://api.github.com/users/tdiesler/subscriptions",
        "organizations_url": "https://api.github.com/users/tdiesler/orgs",
        "repos_url": "https://api.github.com/users/tdiesler/repos",
        "events_url": "https://api.github.com/users/tdiesler/events%7B/privacy%7D",
        "received_events_url": "https://api.github.com/users/tdiesler/received_events",
        "type": "User",
        "site_admin": false
      },
      "commit_id": null,
      "commit_url": null,
      "created_at": "2018-07-20T09:04:30Z"
    },
    {
      "event": "commented",
      "id": 406955728,
      "node_id": "MDEyOklzc3VlQ29tbWVudDQwNjk1NTcyOA==",
      "url": "https://api.github.com/repos/bitcoin/bitcoin/issues/comments/406955728",
      "actor": {
        "login": "tdiesler",
        "id": 244946,
        "node_id": "MDQ6VXNlcjI0NDk0Ng==",
        "avatar_url": "https://avatars.githubusercontent.com/u/244946?v=4",
        "gravatar_id": "",
        "url": "https://api.github.com/users/tdiesler",
        "html_url": "https://github.com/tdiesler",
        "followers_url": "https://api.github.com/users/tdiesler/followers",
        "following_url": "https://api.github.com/users/tdiesler/following%7B/other_user%7D",
        "gists_url": "https://api.github.com/users/tdiesler/gists%7B/gist_id%7D",
        "starred_url": "https://api.github.com/users/tdiesler/starred%7B/owner%7D%7B/repo%7D",
        "subscriptions_url": "https://api.github.com/users/tdiesler/subscriptions",
        "organizations_url": "https://api.github.com/users/tdiesler/orgs",
        "repos_url": "https://api.github.com/users/tdiesler/repos",
        "events_url": "https://api.github.com/users/tdiesler/events%7B/privacy%7D",
        "received_events_url": "https://api.github.com/users/tdiesler/received_events",
        "type": "User",
        "site_admin": false
      },
      "commit_id": null,
      "commit_url": null,
      "created_at": "2018-07-23T06:41:45Z",
      "updated_at": "2018-07-23T06:41:45Z",
      "author_association": "NONE",
      "body": "@land-pack Unfortunately, I don't speak C.",
      "user": {
        "login": "tdiesler",
        "id": 244946,
        "node_id": "MDQ6VXNlcjI0NDk0Ng==",
        "avatar_url": "https://avatars.githubusercontent.com/u/244946?v=4",
        "gravatar_id": "",
        "url": "https://api.github.com/users/tdiesler",
        "html_url": "https://github.com/tdiesler",
        "followers_url": "https://api.github.com/users/tdiesler/followers",
        "following_url": "https://api.github.com/users/tdiesler/following%7B/other_user%7D",
        "gists_url": "https://api.github.com/users/tdiesler/gists%7B/gist_id%7D",
        "starred_url": "https://api.github.com/users/tdiesler/starred%7B/owner%7D%7B/repo%7D",
        "subscriptions_url": "https://api.github.com/users/tdiesler/subscriptions",
        "organizations_url": "https://api.github.com/users/tdiesler/orgs",
        "repos_url": "https://api.github.com/users/tdiesler/repos",
        "events_url": "https://api.github.com/users/tdiesler/events%7B/privacy%7D",
        "received_events_url": "https://api.github.com/users/tdiesler/received_events",
        "type": "User",
        "site_admin": false
      },
      "html_url": "https://github.com/bitcoin/bitcoin/issues/11891#issuecomment-406955728",
      "issue_url": "https://api.github.com/repos/bitcoin/bitcoin/issues/11891"
    },
    {
      "event": "mentioned",
      "id": 1746939221,
      "node_id": "MDE0Ok1lbnRpb25lZEV2ZW50MTc0NjkzOTIyMQ==",
      "url": "https://api.github.com/repos/bitcoin/bitcoin/issues/events/1746939221",
      "actor": {
        "login": "land-pack",
        "id": 11912387,
        "node_id": "MDQ6VXNlcjExOTEyMzg3",
        "avatar_url": "https://avatars.githubusercontent.com/u/11912387?v=4",
        "gravatar_id": "",
        "url": "https://api.github.com/users/land-pack",
        "html_url": "https://github.com/land-pack",
        "followers_url": "https://api.github.com/users/land-pack/followers",
        "following_url": "https://api.github.com/users/land-pack/following%7B/other_user%7D",
        "gists_url": "https://api.github.com/users/land-pack/gists%7B/gist_id%7D",
        "starred_url": "https://api.github.com/users/land-pack/starred%7B/owner%7D%7B/repo%7D",
        "subscriptions_url": "https://api.github.com/users/land-pack/subscriptions",
        "organizations_url": "https://api.github.com/users/land-pack/orgs",
        "repos_url": "https://api.github.com/users/land-pack/repos",
        "events_url": "https://api.github.com/users/land-pack/events%7B/privacy%7D",
        "received_events_url": "https://api.github.com/users/land-pack/received_events",
        "type": "User",
        "site_admin": false
      },
      "commit_id": null,
      "commit_url": null,
      "created_at": "2018-07-23T06:41:45Z"
    },
    {
      "event": "subscribed",
      "id": 1746939222,
      "node_id": "MDE1OlN1YnNjcmliZWRFdmVudDE3NDY5MzkyMjI=",
      "url": "https://api.github.com/repos/bitcoin/bitcoin/issues/events/1746939222",
      "actor": {
        "login": "land-pack",
        "id": 11912387,
        "node_id": "MDQ6VXNlcjExOTEyMzg3",
        "avatar_url": "https://avatars.githubusercontent.com/u/11912387?v=4",
        "gravatar_id": "",
        "url": "https://api.github.com/users/land-pack",
        "html_url": "https://github.com/land-pack",
        "followers_url": "https://api.github.com/users/land-pack/followers",
        "following_url": "https://api.github.com/users/land-pack/following%7B/other_user%7D",
        "gists_url": "https://api.github.com/users/land-pack/gists%7B/gist_id%7D",
        "starred_url": "https://api.github.com/users/land-pack/starred%7B/owner%7D%7B/repo%7D",
        "subscriptions_url": "https://api.github.com/users/land-pack/subscriptions",
        "organizations_url": "https://api.github.com/users/land-pack/orgs",
        "repos_url": "https://api.github.com/users/land-pack/repos",
        "events_url": "https://api.github.com/users/land-pack/events%7B/privacy%7D",
        "received_events_url": "https://api.github.com/users/land-pack/received_events",
        "type": "User",
        "site_admin": false
      },
      "commit_id": null,
      "commit_url": null,
      "created_at": "2018-07-23T06:41:45Z"
    },
    {
      "event": "commented",
      "id": 417210787,
      "node_id": "MDEyOklzc3VlQ29tbWVudDQxNzIxMDc4Nw==",
      "url": "https://api.github.com/repos/bitcoin/bitcoin/issues/comments/417210787",
      "actor": {
        "login": "Gillian217",
        "id": 37716672,
        "node_id": "MDQ6VXNlcjM3NzE2Njcy",
        "avatar_url": "https://avatars.githubusercontent.com/u/37716672?v=4",
        "gravatar_id": "",
        "url": "https://api.github.com/users/Gillian217",
        "html_url": "https://github.com/Gillian217",
        "followers_url": "https://api.github.com/users/Gillian217/followers",
        "following_url": "https://api.github.com/users/Gillian217/following%7B/other_user%7D",
        "gists_url": "https://api.github.com/users/Gillian217/gists%7B/gist_id%7D",
        "starred_url": "https://api.github.com/users/Gillian217/starred%7B/owner%7D%7B/repo%7D",
        "subscriptions_url": "https://api.github.com/users/Gillian217/subscriptions",
        "organizations_url": "https://api.github.com/users/Gillian217/orgs",
        "repos_url": "https://api.github.com/users/Gillian217/repos",
        "events_url": "https://api.github.com/users/Gillian217/events%7B/privacy%7D",
        "received_events_url": "https://api.github.com/users/Gillian217/received_events",
        "type": "User",
        "site_admin": false
      },
      "commit_id": null,
      "commit_url": null,
      "created_at": "2018-08-30T06:58:43Z",
      "updated_at": "2018-08-30T06:58:43Z",
      "author_association": "NONE",
      "body": "Hi sir, just want to ask if you have already a fix with this issue, I encounter the same error using bitcoin core console. \r\ncreaterawtransaction:\r\n![screenshot from 2018-08-30 12-59-20](https://user-images.githubusercontent.com/37716672/44834850-e300fd00-ac64-11e8-83a8-d9c403423294.png)\r\nsignrawtransaction:\r\n![screenshot from 2018-08-30 13-01-29](https://user-images.githubusercontent.com/37716672/44834876-ef855580-ac64-11e8-8b54-ae41f2c9fb0d.png)\r\nsendrawtransaction:\r\n![screenshot from 2018-08-30 13-02-02](https://user-images.githubusercontent.com/37716672/44834893-f8762700-ac64-11e8-8785-43c8701c61ad.png)\r\nhope you could help me.",
      "user": {
        "login": "Gillian217",
        "id": 37716672,
        "node_id": "MDQ6VXNlcjM3NzE2Njcy",
        "avatar_url": "https://avatars.githubusercontent.com/u/37716672?v=4",
        "gravatar_id": "",
        "url": "https://api.github.com/users/Gillian217",
        "html_url": "https://github.com/Gillian217",
        "followers_url": "https://api.github.com/users/Gillian217/followers",
        "following_url": "https://api.github.com/users/Gillian217/following%7B/other_user%7D",
        "gists_url": "https://api.github.com/users/Gillian217/gists%7B/gist_id%7D",
        "starred_url": "https://api.github.com/users/Gillian217/starred%7B/owner%7D%7B/repo%7D",
        "subscriptions_url": "https://api.github.com/users/Gillian217/subscriptions",
        "organizations_url": "https://api.github.com/users/Gillian217/orgs",
        "repos_url": "https://api.github.com/users/Gillian217/repos",
        "events_url": "https://api.github.com/users/Gillian217/events%7B/privacy%7D",
        "received_events_url": "https://api.github.com/users/Gillian217/received_events",
        "type": "User",
        "site_admin": false
      },
      "html_url": "https://github.com/bitcoin/bitcoin/issues/11891#issuecomment-417210787",
      "issue_url": "https://api.github.com/repos/bitcoin/bitcoin/issues/11891"
    },
    {
      "event": "commented",
      "id": 518167995,
      "node_id": "MDEyOklzc3VlQ29tbWVudDUxODE2Nzk5NQ==",
      "url": "https://api.github.com/repos/bitcoin/bitcoin/issues/comments/518167995",
      "actor": {
        "login": "gitchand",
        "id": 52155473,
        "node_id": "MDQ6VXNlcjUyMTU1NDcz",
        "avatar_url": "https://avatars.githubusercontent.com/u/52155473?v=4",
        "gravatar_id": "",
        "url": "https://api.github.com/users/gitchand",
        "html_url": "https://github.com/gitchand",
        "followers_url": "https://api.github.com/users/gitchand/followers",
        "following_url": "https://api.github.com/users/gitchand/following%7B/other_user%7D",
        "gists_url": "https://api.github.com/users/gitchand/gists%7B/gist_id%7D",
        "starred_url": "https://api.github.com/users/gitchand/starred%7B/owner%7D%7B/repo%7D",
        "subscriptions_url": "https://api.github.com/users/gitchand/subscriptions",
        "organizations_url": "https://api.github.com/users/gitchand/orgs",
        "repos_url": "https://api.github.com/users/gitchand/repos",
        "events_url": "https://api.github.com/users/gitchand/events%7B/privacy%7D",
        "received_events_url": "https://api.github.com/users/gitchand/received_events",
        "type": "User",
        "site_admin": false
      },
      "commit_id": null,
      "commit_url": null,
      "created_at": "2019-08-05T09:53:59Z",
      "updated_at": "2019-08-05T09:53:59Z",
      "author_association": "NONE",
      "body": "While pushing a bch tx :\r\nAn error occured:\r\n16: mandatory-script-verify-flag-failed (Signature must be zero for failed CHECK(MULTI)SIG operation). Code:-26",
      "user": {
        "login": "gitchand",
        "id": 52155473,
        "node_id": "MDQ6VXNlcjUyMTU1NDcz",
        "avatar_url": "https://avatars.githubusercontent.com/u/52155473?v=4",
        "gravatar_id": "",
        "url": "https://api.github.com/users/gitchand",
        "html_url": "https://github.com/gitchand",
        "followers_url": "https://api.github.com/users/gitchand/followers",
        "following_url": "https://api.github.com/users/gitchand/following%7B/other_user%7D",
        "gists_url": "https://api.github.com/users/gitchand/gists%7B/gist_id%7D",
        "starred_url": "https://api.github.com/users/gitchand/starred%7B/owner%7D%7B/repo%7D",
        "subscriptions_url": "https://api.github.com/users/gitchand/subscriptions",
        "organizations_url": "https://api.github.com/users/gitchand/orgs",
        "repos_url": "https://api.github.com/users/gitchand/repos",
        "events_url": "https://api.github.com/users/gitchand/events%7B/privacy%7D",
        "received_events_url": "https://api.github.com/users/gitchand/received_events",
        "type": "User",
        "site_admin": false
      },
      "html_url": "https://github.com/bitcoin/bitcoin/issues/11891#issuecomment-518167995",
      "issue_url": "https://api.github.com/repos/bitcoin/bitcoin/issues/11891"
    },
    {
      "event": "cross-referenced",
      "id": null,
      "node_id": null,
      "url": null,
      "actor": {
        "login": "MarcoFalke",
        "id": 6399679,
        "node_id": "MDQ6VXNlcjYzOTk2Nzk=",
        "avatar_url": "https://avatars.githubusercontent.com/u/6399679?v=4",
        "gravatar_id": "",
        "url": "https://api.github.com/users/MarcoFalke",
        "html_url": "https://github.com/MarcoFalke",
        "followers_url": "https://api.github.com/users/MarcoFalke/followers",
        "following_url": "https://api.github.com/users/MarcoFalke/following%7B/other_user%7D",
        "gists_url": "https://api.github.com/users/MarcoFalke/gists%7B/gist_id%7D",
        "starred_url": "https://api.github.com/users/MarcoFalke/starred%7B/owner%7D%7B/repo%7D",
        "subscriptions_url": "https://api.github.com/users/MarcoFalke/subscriptions",
        "organizations_url": "https://api.github.com/users/MarcoFalke/orgs",
        "repos_url": "https://api.github.com/users/MarcoFalke/repos",
        "events_url": "https://api.github.com/users/MarcoFalke/events%7B/privacy%7D",
        "received_events_url": "https://api.github.com/users/MarcoFalke/received_events",
        "type": "User",
        "site_admin": false
      },
      "commit_id": null,
      "commit_url": null,
      "created_at": "2019-08-25T16:08:47Z",
      "updated_at": "2019-08-25T16:08:47Z",
      "source": {
        "issue": {
          "id": 484836881,
          "node_id": "MDU6SXNzdWU0ODQ4MzY4ODE=",
          "url": "https://api.github.com/repos/bitcoin/bitcoin/issues/16712",
          "repository_url": "https://api.github.com/repos/bitcoin/bitcoin",
          "labels_url": "https://api.github.com/repos/bitcoin/bitcoin/issues/16712/labels%7B/name%7D",
          "comments_url": "https://api.github.com/repos/bitcoin/bitcoin/issues/16712/comments",
          "events_url": "https://api.github.com/repos/bitcoin/bitcoin/issues/16712/events",
          "html_url": "https://github.com/bitcoin/bitcoin/issues/16712",
          "number": 16712,
          "state": "open",
          "state_reason": null,
          "title": "Signature must be zero for failed CHECK(MULTI)SIG operation",
          "body": "## start bicoind\r\n```\r\nbitcoind -rpcuser=test -rpcpassword=test -rpcport=18443 -rpcbind=0.0.0.0 -datadir=btc_private -txindex -regtest=1 -listenonion=0 -debug -daemon\r\n```\r\n```\r\nalias btccli=\"bitcoin-cli -regtest -rpcuser=test -rpcpassword=test\"\r\n```\r\n\r\n## get 3 new address \r\n```\r\naddress: 2N8VaTaHNq4GPt1rbvaEAEPFwoSZ8CgDUM9\r\npubkey: 0355479b300b217d781cf058941cc1677283c24460665d27dbfced339b29428c93\r\nprivatekey: cPZdtTsenRcKbmthFBcQB4QerVSut6Z9hMPyKo6zMeGRBGSxDGMM\r\n\r\naddress: 2N3yHeRmfNaqsR5rBVUk4fZhmfmiZswH5Rh\r\npubkey: 021e2ef4e12c9d13fc45e709469de0ea8fe556bdbd436f13e936346f6dd267455c\r\nprivatekey: cQxcb3foiTWKBfKT1B8fxWALzgD1SpS2QM6JcsCdFnXM5ebY5zNX\r\n\r\naddress: 2N7T4f6CAEHPyV4RfUD6NUz36AzT7J48nrz\r\npubkey: 033bebbfa8539df7d9b381d6bb34fabe3fc660c3c7a2f69047ac850575597ee8de\r\nprivatekey: cNpLyk4X6PSyUDiJ7tPwQXRHzYPXsVCzg72g47ZW5yVyfVkmqWSt\r\n```\r\n## get multisig address\r\n```\r\nbtccli addmultisigaddress 2 '[\"2N8VaTaHNq4GPt1rbvaEAEPFwoSZ8CgDUM9\",\"2N3yHeRmfNaqsR5rBVUk4fZhmfmiZswH5Rh\",\"2N7T4f6CAEHPyV4RfUD6NUz36AzT7J48nrz\"]'\r\n\r\n{\r\n  \"address\": \"2MwabVCD88Uz7gBWyUd4mA2cXyEBMuN7w93\",\r\n  \"redeemScript\": \"52210355479b300b217d781cf058941cc1677283c24460665d27dbfced339b29428c9321021e2ef4e12c9d13fc45e709469de0ea8fe556bdbd436f13e936346f6dd267455c21033bebbfa8539df7d9b381d6bb34fabe3fc660c3c7a2f69047ac850575597ee8de53ae\"\r\n}\r\n```\r\n\r\n```\r\nbtccli listunspent 1 99999999 '[\"2MwabVCD88Uz7gBWyUd4mA2cXyEBMuN7w93\"]'\r\n\r\n[\r\n  {\r\n    \"txid\": \"66a370cb1fa86f706d3c1ff581ee80ab0c6ef69403cb09ba2eb262a27e4c0643\",\r\n    \"vout\": 0,\r\n    \"address\": \"2MwabVCD88Uz7gBWyUd4mA2cXyEBMuN7w93\",\r\n    \"label\": \"\",\r\n    \"redeemScript\": \"0020e4a6d84b97591a2812a4909e6cfc35429975957e674c4e92ad9054b3cca445bd\",\r\n    \"witnessScript\": \"52210355479b300b217d781cf058941cc1677283c24460665d27dbfced339b29428c9321021e2ef4e12c9d13fc45e709469de0ea8fe556bdbd436f13e936346f6dd267455c21033bebbfa8539df7d9b381d6bb34fabe3fc660c3c7a2f69047ac850575597ee8de53ae\",\r\n    \"scriptPubKey\": \"a9142f8a5a37a7ff99fd8671d2dcd7e62d7b4d0fd97b87\",\r\n    \"amount\": 50.00000000,\r\n    \"confirmations\": 102,\r\n    \"spendable\": true,\r\n    \"solvable\": true,\r\n    \"desc\": \"sh(wsh(multi(2,[696a000f/0'/0'/0']0355479b300b217d781cf058941cc1677283c24460665d27dbfced339b29428c93,[696a000f/0'/0'/1']021e2ef4e12c9d13fc45e709469de0ea8fe556bdbd436f13e936346f6dd267455c,[696a000f/0'/0'/2']033bebbfa8539df7d9b381d6bb34fabe3fc660c3c7a2f69047ac850575597ee8de)))#3cvzvrcg\",\r\n    \"safe\": true\r\n  },\r\n  {\r\n    \"txid\": \"9eaa9439244b18def82abd3f85aca817126653d20add52ad2208aaa4e4f43891\",\r\n    \"vout\": 0,\r\n    \"address\": \"2MwabVCD88Uz7gBWyUd4mA2cXyEBMuN7w93\",\r\n    \"label\": \"\",\r\n    \"redeemScript\": \"0020e4a6d84b97591a2812a4909e6cfc35429975957e674c4e92ad9054b3cca445bd\",\r\n    \"witnessScript\": \"52210355479b300b217d781cf058941cc1677283c24460665d27dbfced339b29428c9321021e2ef4e12c9d13fc45e709469de0ea8fe556bdbd436f13e936346f6dd267455c21033bebbfa8539df7d9b381d6bb34fabe3fc660c3c7a2f69047ac850575597ee8de53ae\",\r\n    \"scriptPubKey\": \"a9142f8a5a37a7ff99fd8671d2dcd7e62d7b4d0fd97b87\",\r\n    \"amount\": 50.00000000,\r\n    \"confirmations\": 101,\r\n    \"spendable\": true,\r\n    \"solvable\": true,\r\n    \"desc\": \"sh(wsh(multi(2,[696a000f/0'/0'/0']0355479b300b217d781cf058941cc1677283c24460665d27dbfced339b29428c93,[696a000f/0'/0'/1']021e2ef4e12c9d13fc45e709469de0ea8fe556bdbd436f13e936346f6dd267455c,[696a000f/0'/0'/2']033bebbfa8539df7d9b381d6bb34fabe3fc660c3c7a2f69047ac850575597ee8de)))#3cvzvrcg\",\r\n    \"safe\": true\r\n  }\r\n]\r\n```\r\n\r\n```\r\nbtccli createrawtransaction '[{\"txid\":\"9eaa9439244b18def82abd3f85aca817126653d20add52ad2208aaa4e4f43891\",\"vout\":0,\"scriptPubKey\":\"a9142f8a5a37a7ff99fd8671d2dcd7e62d7b4d0fd97b87\",\"redeemScript\":\"52210355479b300b217d781cf058941cc1677283c24460665d27dbfced339b29428c9321021e2ef4e12c9d13fc45e709469de0ea8fe556bdbd436f13e936346f6dd267455c21033bebbfa8539df7d9b381d6bb34fabe3fc660c3c7a2f69047ac850575597ee8de53ae\"}]' '{\"2MzycLC1fr83bHGiGhARtYbkaQ8iXoULN76\":49.999}'\r\n\r\n02000000019138f4e4a4aa0822ad52dd0ad253661217a8ac853fbd2af8de184b243994aa9e0000000000ffffffff01606b042a0100000017a91454cd00871f090949693d111080b290b18db4637e8700000000\r\n```\r\n\r\n```\r\nbtccli signrawtransactionwithkey '02000000019138f4e4a4aa0822ad52dd0ad253661217a8ac853fbd2af8de184b243994aa9e0000000000ffffffff01606b042a0100000017a91454cd00871f090949693d111080b290b18db4637e8700000000' '[\"cPZdtTsenRcKbmthFBcQB4QerVSut6Z9hMPyKo6zMeGRBGSxDGMM\"]' '[{\"txid\":\"9eaa9439244b18def82abd3f85aca817126653d20add52ad2208aaa4e4f43891\",\"vout\":0,\"scriptPubKey\":\"a9142f8a5a37a7ff99fd8671d2dcd7e62d7b4d0fd97b87\",\"redeemScript\":\"52210355479b300b217d781cf058941cc1677283c24460665d27dbfced339b29428c9321021e2ef4e12c9d13fc45e709469de0ea8fe556bdbd436f13e936346f6dd267455c21033bebbfa8539df7d9b381d6bb34fabe3fc660c3c7a2f69047ac850575597ee8de53ae\",\"amount\":50}]'\r\n\r\n{\r\n  \"hex\": \"020000000001019138f4e4a4aa0822ad52dd0ad253661217a8ac853fbd2af8de184b243994aa9e0000000023220020e4a6d84b97591a2812a4909e6cfc35429975957e674c4e92ad9054b3cca445bdffffffff01606b042a0100000017a91454cd00871f090949693d111080b290b18db4637e87040047304402205ac40d5e704b78d044798e0b8b7f8bc7afb259fb5806bf0e4cb387f3d2d2dfd2022052c39670918c38cf3d5815f4d6c50af88b84614715043b3f92e4fcbce29a228201006952210355479b300b217d781cf058941cc1677283c24460665d27dbfced339b29428c9321021e2ef4e12c9d13fc45e709469de0ea8fe556bdbd436f13e936346f6dd267455c21033bebbfa8539df7d9b381d6bb34fabe3fc660c3c7a2f69047ac850575597ee8de53ae00000000\",\r\n  \"complete\": false,\r\n  \"errors\": [\r\n    {\r\n      \"txid\": \"9eaa9439244b18def82abd3f85aca817126653d20add52ad2208aaa4e4f43891\",\r\n      \"vout\": 0,\r\n      \"witness\": [\r\n        \"\",\r\n        \"304402205ac40d5e704b78d044798e0b8b7f8bc7afb259fb5806bf0e4cb387f3d2d2dfd2022052c39670918c38cf3d5815f4d6c50af88b84614715043b3f92e4fcbce29a228201\",\r\n        \"\",\r\n        \"52210355479b300b217d781cf058941cc1677283c24460665d27dbfced339b29428c9321021e2ef4e12c9d13fc45e709469de0ea8fe556bdbd436f13e936346f6dd267455c21033bebbfa8539df7d9b381d6bb34fabe3fc660c3c7a2f69047ac850575597ee8de53ae\"\r\n      ],\r\n      \"scriptSig\": \"220020e4a6d84b97591a2812a4909e6cfc35429975957e674c4e92ad9054b3cca445bd\",\r\n      \"sequence\": 4294967295,\r\n      \"error\": \"Signature must be zero for failed CHECK(MULTI)SIG operation\"\r\n    }\r\n  ]\r\n}\r\n```\r\n\r\n```\r\nbtccli signrawtransactionwithkey '020000000001019138f4e4a4aa0822ad52dd0ad253661217a8ac853fbd2af8de184b243994aa9e0000000023220020e4a6d84b97591a2812a4909e6cfc35429975957e674c4e92ad9054b3cca445bdffffffff01606b042a0100000017a91454cd00871f090949693d111080b290b18db4637e87040047304402205ac40d5e704b78d044798e0b8b7f8bc7afb259fb5806bf0e4cb387f3d2d2dfd2022052c39670918c38cf3d5815f4d6c50af88b84614715043b3f92e4fcbce29a228201006952210355479b300b217d781cf058941cc1677283c24460665d27dbfced339b29428c9321021e2ef4e12c9d13fc45e709469de0ea8fe556bdbd436f13e936346f6dd267455c21033bebbfa8539df7d9b381d6bb34fabe3fc660c3c7a2f69047ac850575597ee8de53ae00000000' '[\"cQxcb3foiTWKBfKT1B8fxWALzgD1SpS2QM6JcsCdFnXM5ebY5zNX\"]' '[{\"txid\":\"9eaa9439244b18def82abd3f85aca817126653d20add52ad2208aaa4e4f43891\",\"vout\":0,\"scriptPubKey\":\"a9142f8a5a37a7ff99fd8671d2dcd7e62d7b4d0fd97b87\",\"redeemScript\":\"52210355479b300b217d781cf058941cc1677283c24460665d27dbfced339b29428c9321021e2ef4e12c9d13fc45e709469de0ea8fe556bdbd436f13e936346f6dd267455c21033bebbfa8539df7d9b381d6bb34fabe3fc660c3c7a2f69047ac850575597ee8de53ae\",\"amount\":50}]'\r\n\r\n{\r\n  \"hex\": \"020000000001019138f4e4a4aa0822ad52dd0ad253661217a8ac853fbd2af8de184b243994aa9e0000000023220020e4a6d84b97591a2812a4909e6cfc35429975957e674c4e92ad9054b3cca445bdffffffff01606b042a0100000017a91454cd00871f090949693d111080b290b18db4637e87040047304402205ac40d5e704b78d044798e0b8b7f8bc7afb259fb5806bf0e4cb387f3d2d2dfd2022052c39670918c38cf3d5815f4d6c50af88b84614715043b3f92e4fcbce29a228201473044022072d263ac076bb5647c9cbcefc7fda411a9208cd1a8a75148b090a24b929ac590022034a230442504d91fe561004e64b0eba403b80e42afb12afaa7808b916ff3e54a016952210355479b300b217d781cf058941cc1677283c24460665d27dbfced339b29428c9321021e2ef4e12c9d13fc45e709469de0ea8fe556bdbd436f13e936346f6dd267455c21033bebbfa8539df7d9b381d6bb34fabe3fc660c3c7a2f69047ac850575597ee8de53ae00000000\",\r\n  \"complete\": true\r\n}\r\n```\r\n\r\n```\r\nbtccli sendrawtransaction 020000000001019138f4e4a4aa0822ad52dd0ad253661217a8ac853fbd2af8de184b243994aa9e0000000023220020e4a6d84b97591a2812a4909e6cfc35429975957e674c4e92ad9054b3cca445bdffffffff01606b042a0100000017a91454cd00871f090949693d111080b290b18db4637e87040047304402205ac40d5e704b78d044798e0b8b7f8bc7afb259fb5806bf0e4cb387f3d2d2dfd2022052c39670918c38cf3d5815f4d6c50af88b84614715043b3f92e4fcbce29a228201473044022072d263ac076bb5647c9cbcefc7fda411a9208cd1a8a75148b090a24b929ac590022034a230442504d91fe561004e64b0eba403b80e42afb12afaa7808b916ff3e54a016952210355479b300b217d781cf058941cc1677283c24460665d27dbfced339b29428c9321021e2ef4e12c9d13fc45e709469de0ea8fe556bdbd436f13e936346f6dd267455c21033bebbfa8539df7d9b381d6bb34fabe3fc660c3c7a2f69047ac850575597ee8de53ae00000000\r\nerror code: -26\r\nerror message:\r\nnon-mandatory-script-verify-flag (Signature must be zero for failed CHECK(MULTI)SIG operation) (code 64)\r\n```\r\n\r\nwhy i got a error like above? i need help, thanks!\r\n",
          "user": {
            "login": "xiangjianmeng",
            "id": 18412271,
            "node_id": "MDQ6VXNlcjE4NDEyMjcx",
            "avatar_url": "https://avatars.githubusercontent.com/u/18412271?v=4",
            "gravatar_id": "",
            "url": "https://api.github.com/users/xiangjianmeng",
            "html_url": "https://github.com/xiangjianmeng",
            "followers_url": "https://api.github.com/users/xiangjianmeng/followers",
            "following_url": "https://api.github.com/users/xiangjianmeng/following%7B/other_user%7D",
            "gists_url": "https://api.github.com/users/xiangjianmeng/gists%7B/gist_id%7D",
            "starred_url": "https://api.github.com/users/xiangjianmeng/starred%7B/owner%7D%7B/repo%7D",
            "subscriptions_url": "https://api.github.com/users/xiangjianmeng/subscriptions",
            "organizations_url": "https://api.github.com/users/xiangjianmeng/orgs",
            "repos_url": "https://api.github.com/users/xiangjianmeng/repos",
            "events_url": "https://api.github.com/users/xiangjianmeng/events%7B/privacy%7D",
            "received_events_url": "https://api.github.com/users/xiangjianmeng/received_events",
            "type": "User",
            "site_admin": false
          },
          "labels": [],
          "assignees": [],
          "author_association": "NONE",
          "locked": false,
          "comments": 2,
          "created_at": "2019-08-24T15:56:58Z",
          "updated_at": "2021-08-01T02:14:30Z"
        },
        "type": "issue"
      }
    },
    {
      "event": "labeled",
      "id": 3280125184,
      "node_id": "MDEyOkxhYmVsZWRFdmVudDMyODAxMjUxODQ=",
      "url": "https://api.github.com/repos/bitcoin/bitcoin/issues/events/3280125184",
      "actor": {
        "login": "MarcoFalke",
        "id": 6399679,
        "node_id": "MDQ6VXNlcjYzOTk2Nzk=",
        "avatar_url": "https://avatars.githubusercontent.com/u/6399679?v=4",
        "gravatar_id": "",
        "url": "https://api.github.com/users/MarcoFalke",
        "html_url": "https://github.com/MarcoFalke",
        "followers_url": "https://api.github.com/users/MarcoFalke/followers",
        "following_url": "https://api.github.com/users/MarcoFalke/following%7B/other_user%7D",
        "gists_url": "https://api.github.com/users/MarcoFalke/gists%7B/gist_id%7D",
        "starred_url": "https://api.github.com/users/MarcoFalke/starred%7B/owner%7D%7B/repo%7D",
        "subscriptions_url": "https://api.github.com/users/MarcoFalke/subscriptions",
        "organizations_url": "https://api.github.com/users/MarcoFalke/orgs",
        "repos_url": "https://api.github.com/users/MarcoFalke/repos",
        "events_url": "https://api.github.com/users/MarcoFalke/events%7B/privacy%7D",
        "received_events_url": "https://api.github.com/users/MarcoFalke/received_events",
        "type": "User",
        "site_admin": false
      },
      "commit_id": null,
      "commit_url": null,
      "created_at": "2020-04-28T12:41:32Z",
      "label": {
        "name": "Feature",
        "color": "7cf575"
      }
    },
    {
      "event": "labeled",
      "id": 3280125185,
      "node_id": "MDEyOkxhYmVsZWRFdmVudDMyODAxMjUxODU=",
      "url": "https://api.github.com/repos/bitcoin/bitcoin/issues/events/3280125185",
      "actor": {
        "login": "MarcoFalke",
        "id": 6399679,
        "node_id": "MDQ6VXNlcjYzOTk2Nzk=",
        "avatar_url": "https://avatars.githubusercontent.com/u/6399679?v=4",
        "gravatar_id": "",
        "url": "https://api.github.com/users/MarcoFalke",
        "html_url": "https://github.com/MarcoFalke",
        "followers_url": "https://api.github.com/users/MarcoFalke/followers",
        "following_url": "https://api.github.com/users/MarcoFalke/following%7B/other_user%7D",
        "gists_url": "https://api.github.com/users/MarcoFalke/gists%7B/gist_id%7D",
        "starred_url": "https://api.github.com/users/MarcoFalke/starred%7B/owner%7D%7B/repo%7D",
        "subscriptions_url": "https://api.github.com/users/MarcoFalke/subscriptions",
        "organizations_url": "https://api.github.com/users/MarcoFalke/orgs",
        "repos_url": "https://api.github.com/users/MarcoFalke/repos",
        "events_url": "https://api.github.com/users/MarcoFalke/events%7B/privacy%7D",
        "received_events_url": "https://api.github.com/users/MarcoFalke/received_events",
        "type": "User",
        "site_admin": false
      },
      "commit_id": null,
      "commit_url": null,
      "created_at": "2020-04-28T12:41:32Z",
      "label": {
        "name": "Validation",
        "color": "6060aa"
      }
    },
    {
      "event": "cross-referenced",
      "id": null,
      "node_id": null,
      "url": null,
      "actor": {
        "login": "cryptcoin-junkey",
        "id": 16408160,
        "node_id": "MDQ6VXNlcjE2NDA4MTYw",
        "avatar_url": "https://avatars.githubusercontent.com/u/16408160?v=4",
        "gravatar_id": "",
        "url": "https://api.github.com/users/cryptcoin-junkey",
        "html_url": "https://github.com/cryptcoin-junkey",
        "followers_url": "https://api.github.com/users/cryptcoin-junkey/followers",
        "following_url": "https://api.github.com/users/cryptcoin-junkey/following%7B/other_user%7D",
        "gists_url": "https://api.github.com/users/cryptcoin-junkey/gists%7B/gist_id%7D",
        "starred_url": "https://api.github.com/users/cryptcoin-junkey/starred%7B/owner%7D%7B/repo%7D",
        "subscriptions_url": "https://api.github.com/users/cryptcoin-junkey/subscriptions",
        "organizations_url": "https://api.github.com/users/cryptcoin-junkey/orgs",
        "repos_url": "https://api.github.com/users/cryptcoin-junkey/repos",
        "events_url": "https://api.github.com/users/cryptcoin-junkey/events%7B/privacy%7D",
        "received_events_url": "https://api.github.com/users/cryptcoin-junkey/received_events",
        "type": "User",
        "site_admin": false
      },
      "commit_id": null,
      "commit_url": null,
      "created_at": "2020-10-13T06:40:49Z",
      "updated_at": "2020-10-13T06:40:49Z",
      "source": {
        "issue": {
          "id": 59465221,
          "node_id": "MDU6SXNzdWU1OTQ2NTIyMQ==",
          "url": "https://api.github.com/repos/CounterpartyXCP/counterwallet/issues/714",
          "repository_url": "https://api.github.com/repos/CounterpartyXCP/counterwallet",
          "labels_url": "https://api.github.com/repos/CounterpartyXCP/counterwallet/issues/714/labels%7B/name%7D",
          "comments_url": "https://api.github.com/repos/CounterpartyXCP/counterwallet/issues/714/comments",
          "events_url": "https://api.github.com/repos/CounterpartyXCP/counterwallet/issues/714/events",
          "html_url": "https://github.com/CounterpartyXCP/counterwallet/issues/714",
          "number": 714,
          "state": "open",
          "state_reason": null,
          "title": "Unable to sign multisig transaction with a 2-of-3",
          "body": "Signing a 2-of-3 results in an error\n\n`Type: Server error\nCode: -32000\nMessage: Bad status code returned: '500'. result body: '{\"result\":null,\"error\":{\"code\":-26,\"message\":\"16: mandatory-script-verify-flag-failed (Operation not valid with the current stack size)\"},\"id\":0} '.`\n\nSigning a 1-of-2 works without issues.\n\nAnother user reported the following error when trying to sign and broadcast a transaction from a 2-of-3:\n\n`Error making request to https://cw02.counterwallet.io/_api: JSON-RPC Error:\nType: Server error\nCode: -32000\nMessage: Bad status code returned: '500'. result body: '{\"result\":null,\"error\":{\"code\":-25,\"message\":\"\"},\"id\":0} '.`\n## \n\r\n\r\n<bountysource-plugin>\r\n---\r\nWant to back this issue? **[Post a bounty on it!](https://www.bountysource.com/issues/9106721-unable-to-sign-multisig-transaction-with-a-2-of-3?utm_campaign=plugin&utm_content=tracker%2F542579&utm_medium=issues&utm_source=github)** We accept bounties via [Bountysource](https://www.bountysource.com/?utm_campaign=plugin&utm_content=tracker%2F542579&utm_medium=issues&utm_source=github).\r\n</bountysource-plugin>",
          "user": {
            "login": "ivanaszuber",
            "id": 7252063,
            "node_id": "MDQ6VXNlcjcyNTIwNjM=",
            "avatar_url": "https://avatars.githubusercontent.com/u/7252063?v=4",
            "gravatar_id": "",
            "url": "https://api.github.com/users/ivanaszuber",
            "html_url": "https://github.com/ivanaszuber",
            "followers_url": "https://api.github.com/users/ivanaszuber/followers",
            "following_url": "https://api.github.com/users/ivanaszuber/following%7B/other_user%7D",
            "gists_url": "https://api.github.com/users/ivanaszuber/gists%7B/gist_id%7D",
            "starred_url": "https://api.github.com/users/ivanaszuber/starred%7B/owner%7D%7B/repo%7D",
            "subscriptions_url": "https://api.github.com/users/ivanaszuber/subscriptions",
            "organizations_url": "https://api.github.com/users/ivanaszuber/orgs",
            "repos_url": "https://api.github.com/users/ivanaszuber/repos",
            "events_url": "https://api.github.com/users/ivanaszuber/events%7B/privacy%7D",
            "received_events_url": "https://api.github.com/users/ivanaszuber/received_events",
            "type": "User",
            "site_admin": false
          },
          "labels": [],
          "assignees": [],
          "author_association": "CONTRIBUTOR",
          "locked": false,
          "comments": 8,
          "created_at": "2015-03-02T10:47:56Z",
          "updated_at": "2020-10-13T06:40:49Z"
        },
        "type": "issue"
      }
    },
    {
      "event": "commented",
      "id": 984557555,
      "node_id": "IC_kwDOABII5846ryfz",
      "url": "https://api.github.com/repos/bitcoin/bitcoin/issues/comments/984557555",
      "actor": {
        "login": "ccconnor",
        "id": 6925912,
        "node_id": "MDQ6VXNlcjY5MjU5MTI=",
        "avatar_url": "https://avatars.githubusercontent.com/u/6925912?v=4",
        "gravatar_id": "",
        "url": "https://api.github.com/users/ccconnor",
        "html_url": "https://github.com/ccconnor",
        "followers_url": "https://api.github.com/users/ccconnor/followers",
        "following_url": "https://api.github.com/users/ccconnor/following%7B/other_user%7D",
        "gists_url": "https://api.github.com/users/ccconnor/gists%7B/gist_id%7D",
        "starred_url": "https://api.github.com/users/ccconnor/starred%7B/owner%7D%7B/repo%7D",
        "subscriptions_url": "https://api.github.com/users/ccconnor/subscriptions",
        "organizations_url": "https://api.github.com/users/ccconnor/orgs",
        "repos_url": "https://api.github.com/users/ccconnor/repos",
        "events_url": "https://api.github.com/users/ccconnor/events%7B/privacy%7D",
        "received_events_url": "https://api.github.com/users/ccconnor/received_events",
        "type": "User",
        "site_admin": false
      },
      "commit_id": null,
      "commit_url": null,
      "created_at": "2021-12-02T11:52:53Z",
      "updated_at": "2021-12-02T11:52:53Z",
      "author_association": "NONE",
      "body": "I run into the same issue in bcha(xec) regtest.\r\n```\r\ncurl --location --request POST 'http://localhost:6650' \\\r\n--header 'Authorization: Basic xxxxxxxxxx' \\\r\n--header 'Content-Type: application/json' \\\r\n--data-raw '{\r\n    \"jsonrpc\": \"1.0\",\r\n    \"id\": \"curltest\",\r\n    \"method\": \"sendtoaddress\",\r\n    \"params\": [\r\n        \"n4LbNgMA1LNr1CqvPHa71ndypUSQucPwpi\",\r\n        1000000\r\n    ]\r\n}'\r\n```",
      "user": {
        "login": "ccconnor",
        "id": 6925912,
        "node_id": "MDQ6VXNlcjY5MjU5MTI=",
        "avatar_url": "https://avatars.githubusercontent.com/u/6925912?v=4",
        "gravatar_id": "",
        "url": "https://api.github.com/users/ccconnor",
        "html_url": "https://github.com/ccconnor",
        "followers_url": "https://api.github.com/users/ccconnor/followers",
        "following_url": "https://api.github.com/users/ccconnor/following%7B/other_user%7D",
        "gists_url": "https://api.github.com/users/ccconnor/gists%7B/gist_id%7D",
        "starred_url": "https://api.github.com/users/ccconnor/starred%7B/owner%7D%7B/repo%7D",
        "subscriptions_url": "https://api.github.com/users/ccconnor/subscriptions",
        "organizations_url": "https://api.github.com/users/ccconnor/orgs",
        "repos_url": "https://api.github.com/users/ccconnor/repos",
        "events_url": "https://api.github.com/users/ccconnor/events%7B/privacy%7D",
        "received_events_url": "https://api.github.com/users/ccconnor/received_events",
        "type": "User",
        "site_admin": false
      },
      "html_url": "https://github.com/bitcoin/bitcoin/issues/11891#issuecomment-984557555",
      "issue_url": "https://api.github.com/repos/bitcoin/bitcoin/issues/11891"
    }
  ]
}