{
  "type": "issue",
  "issue": {
    "id": 372623334,
    "node_id": "MDU6SXNzdWUzNzI2MjMzMzQ=",
    "url": "https://api.github.com/repos/bitcoin/bitcoin/issues/14542",
    "repository_url": "https://api.github.com/repos/bitcoin/bitcoin",
    "labels_url": "https://api.github.com/repos/bitcoin/bitcoin/issues/14542/labels%7B/name%7D",
    "comments_url": "https://api.github.com/repos/bitcoin/bitcoin/issues/14542/comments",
    "events_url": "https://api.github.com/repos/bitcoin/bitcoin/issues/14542/events",
    "html_url": "https://github.com/bitcoin/bitcoin/issues/14542",
    "number": 14542,
    "state": "closed",
    "state_reason": "completed",
    "title": "fundrawtransaction - select input transaction with minimum confirmations",
    "body": "when using to fundrawtransaction, how to select input transaction with minimum confirmations option ? @jonasschnelli what's default option for funded when select inputs ?",
    "user": {
      "login": "g5501439",
      "id": 44376478,
      "node_id": "MDQ6VXNlcjQ0Mzc2NDc4",
      "avatar_url": "https://avatars.githubusercontent.com/u/44376478?v=4",
      "gravatar_id": "",
      "url": "https://api.github.com/users/g5501439",
      "html_url": "https://github.com/g5501439",
      "followers_url": "https://api.github.com/users/g5501439/followers",
      "following_url": "https://api.github.com/users/g5501439/following%7B/other_user%7D",
      "gists_url": "https://api.github.com/users/g5501439/gists%7B/gist_id%7D",
      "starred_url": "https://api.github.com/users/g5501439/starred%7B/owner%7D%7B/repo%7D",
      "subscriptions_url": "https://api.github.com/users/g5501439/subscriptions",
      "organizations_url": "https://api.github.com/users/g5501439/orgs",
      "repos_url": "https://api.github.com/users/g5501439/repos",
      "events_url": "https://api.github.com/users/g5501439/events%7B/privacy%7D",
      "received_events_url": "https://api.github.com/users/g5501439/received_events",
      "type": "User",
      "site_admin": false
    },
    "labels": [
      {
        "id": 98279177,
        "node_id": "MDU6TGFiZWw5ODI3OTE3Nw==",
        "url": "https://api.github.com/repos/bitcoin/bitcoin/labels/RPC/REST/ZMQ",
        "name": "RPC/REST/ZMQ",
        "color": "0052cc",
        "default": false
      }
    ],
    "assignees": [],
    "author_association": "NONE",
    "locked": false,
    "comments": 6,
    "closed_at": "2023-01-16T22:24:04Z",
    "created_at": "2018-10-22T17:44:06Z",
    "updated_at": "2023-01-16T22:24:04Z"
  },
  "events": [
    {
      "event": "mentioned",
      "id": 1918108061,
      "node_id": "MDE0Ok1lbnRpb25lZEV2ZW50MTkxODEwODA2MQ==",
      "url": "https://api.github.com/repos/bitcoin/bitcoin/issues/events/1918108061",
      "actor": {
        "login": "jonasschnelli",
        "id": 178464,
        "node_id": "MDQ6VXNlcjE3ODQ2NA==",
        "avatar_url": "https://avatars.githubusercontent.com/u/178464?v=4",
        "gravatar_id": "",
        "url": "https://api.github.com/users/jonasschnelli",
        "html_url": "https://github.com/jonasschnelli",
        "followers_url": "https://api.github.com/users/jonasschnelli/followers",
        "following_url": "https://api.github.com/users/jonasschnelli/following%7B/other_user%7D",
        "gists_url": "https://api.github.com/users/jonasschnelli/gists%7B/gist_id%7D",
        "starred_url": "https://api.github.com/users/jonasschnelli/starred%7B/owner%7D%7B/repo%7D",
        "subscriptions_url": "https://api.github.com/users/jonasschnelli/subscriptions",
        "organizations_url": "https://api.github.com/users/jonasschnelli/orgs",
        "repos_url": "https://api.github.com/users/jonasschnelli/repos",
        "events_url": "https://api.github.com/users/jonasschnelli/events%7B/privacy%7D",
        "received_events_url": "https://api.github.com/users/jonasschnelli/received_events",
        "type": "User",
        "site_admin": false
      },
      "commit_id": null,
      "commit_url": null,
      "created_at": "2018-10-22T17:44:06Z"
    },
    {
      "event": "subscribed",
      "id": 1918108062,
      "node_id": "MDE1OlN1YnNjcmliZWRFdmVudDE5MTgxMDgwNjI=",
      "url": "https://api.github.com/repos/bitcoin/bitcoin/issues/events/1918108062",
      "actor": {
        "login": "jonasschnelli",
        "id": 178464,
        "node_id": "MDQ6VXNlcjE3ODQ2NA==",
        "avatar_url": "https://avatars.githubusercontent.com/u/178464?v=4",
        "gravatar_id": "",
        "url": "https://api.github.com/users/jonasschnelli",
        "html_url": "https://github.com/jonasschnelli",
        "followers_url": "https://api.github.com/users/jonasschnelli/followers",
        "following_url": "https://api.github.com/users/jonasschnelli/following%7B/other_user%7D",
        "gists_url": "https://api.github.com/users/jonasschnelli/gists%7B/gist_id%7D",
        "starred_url": "https://api.github.com/users/jonasschnelli/starred%7B/owner%7D%7B/repo%7D",
        "subscriptions_url": "https://api.github.com/users/jonasschnelli/subscriptions",
        "organizations_url": "https://api.github.com/users/jonasschnelli/orgs",
        "repos_url": "https://api.github.com/users/jonasschnelli/repos",
        "events_url": "https://api.github.com/users/jonasschnelli/events%7B/privacy%7D",
        "received_events_url": "https://api.github.com/users/jonasschnelli/received_events",
        "type": "User",
        "site_admin": false
      },
      "commit_id": null,
      "commit_url": null,
      "created_at": "2018-10-22T17:44:06Z"
    },
    {
      "event": "labeled",
      "id": 1918803563,
      "node_id": "MDEyOkxhYmVsZWRFdmVudDE5MTg4MDM1NjM=",
      "url": "https://api.github.com/repos/bitcoin/bitcoin/issues/events/1918803563",
      "actor": {
        "login": "fanquake",
        "id": 863730,
        "node_id": "MDQ6VXNlcjg2MzczMA==",
        "avatar_url": "https://avatars.githubusercontent.com/u/863730?v=4",
        "gravatar_id": "",
        "url": "https://api.github.com/users/fanquake",
        "html_url": "https://github.com/fanquake",
        "followers_url": "https://api.github.com/users/fanquake/followers",
        "following_url": "https://api.github.com/users/fanquake/following%7B/other_user%7D",
        "gists_url": "https://api.github.com/users/fanquake/gists%7B/gist_id%7D",
        "starred_url": "https://api.github.com/users/fanquake/starred%7B/owner%7D%7B/repo%7D",
        "subscriptions_url": "https://api.github.com/users/fanquake/subscriptions",
        "organizations_url": "https://api.github.com/users/fanquake/orgs",
        "repos_url": "https://api.github.com/users/fanquake/repos",
        "events_url": "https://api.github.com/users/fanquake/events%7B/privacy%7D",
        "received_events_url": "https://api.github.com/users/fanquake/received_events",
        "type": "User",
        "site_admin": false
      },
      "commit_id": null,
      "commit_url": null,
      "created_at": "2018-10-22T22:58:46Z",
      "label": {
        "name": "RPC/REST/ZMQ",
        "color": "0052cc"
      }
    },
    {
      "event": "commented",
      "id": 432722960,
      "node_id": "MDEyOklzc3VlQ29tbWVudDQzMjcyMjk2MA==",
      "url": "https://api.github.com/repos/bitcoin/bitcoin/issues/comments/432722960",
      "actor": {
        "login": "promag",
        "id": 3534524,
        "node_id": "MDQ6VXNlcjM1MzQ1MjQ=",
        "avatar_url": "https://avatars.githubusercontent.com/u/3534524?v=4",
        "gravatar_id": "",
        "url": "https://api.github.com/users/promag",
        "html_url": "https://github.com/promag",
        "followers_url": "https://api.github.com/users/promag/followers",
        "following_url": "https://api.github.com/users/promag/following%7B/other_user%7D",
        "gists_url": "https://api.github.com/users/promag/gists%7B/gist_id%7D",
        "starred_url": "https://api.github.com/users/promag/starred%7B/owner%7D%7B/repo%7D",
        "subscriptions_url": "https://api.github.com/users/promag/subscriptions",
        "organizations_url": "https://api.github.com/users/promag/orgs",
        "repos_url": "https://api.github.com/users/promag/repos",
        "events_url": "https://api.github.com/users/promag/events%7B/privacy%7D",
        "received_events_url": "https://api.github.com/users/promag/received_events",
        "type": "User",
        "site_admin": false
      },
      "commit_id": null,
      "commit_url": null,
      "created_at": "2018-10-24T16:11:13Z",
      "updated_at": "2018-10-24T16:11:13Z",
      "author_association": "MEMBER",
      "body": "I don't understand the 2nd question.\r\n\r\nAs for the 1st, that is not possible. Why would you want to do that?",
      "user": {
        "login": "promag",
        "id": 3534524,
        "node_id": "MDQ6VXNlcjM1MzQ1MjQ=",
        "avatar_url": "https://avatars.githubusercontent.com/u/3534524?v=4",
        "gravatar_id": "",
        "url": "https://api.github.com/users/promag",
        "html_url": "https://github.com/promag",
        "followers_url": "https://api.github.com/users/promag/followers",
        "following_url": "https://api.github.com/users/promag/following%7B/other_user%7D",
        "gists_url": "https://api.github.com/users/promag/gists%7B/gist_id%7D",
        "starred_url": "https://api.github.com/users/promag/starred%7B/owner%7D%7B/repo%7D",
        "subscriptions_url": "https://api.github.com/users/promag/subscriptions",
        "organizations_url": "https://api.github.com/users/promag/orgs",
        "repos_url": "https://api.github.com/users/promag/repos",
        "events_url": "https://api.github.com/users/promag/events%7B/privacy%7D",
        "received_events_url": "https://api.github.com/users/promag/received_events",
        "type": "User",
        "site_admin": false
      },
      "html_url": "https://github.com/bitcoin/bitcoin/issues/14542#issuecomment-432722960",
      "issue_url": "https://api.github.com/repos/bitcoin/bitcoin/issues/14542"
    },
    {
      "event": "commented",
      "id": 432838113,
      "node_id": "MDEyOklzc3VlQ29tbWVudDQzMjgzODExMw==",
      "url": "https://api.github.com/repos/bitcoin/bitcoin/issues/comments/432838113",
      "actor": {
        "login": "onesandzer0es",
        "id": 26227848,
        "node_id": "MDQ6VXNlcjI2MjI3ODQ4",
        "avatar_url": "https://avatars.githubusercontent.com/u/26227848?v=4",
        "gravatar_id": "",
        "url": "https://api.github.com/users/onesandzer0es",
        "html_url": "https://github.com/onesandzer0es",
        "followers_url": "https://api.github.com/users/onesandzer0es/followers",
        "following_url": "https://api.github.com/users/onesandzer0es/following%7B/other_user%7D",
        "gists_url": "https://api.github.com/users/onesandzer0es/gists%7B/gist_id%7D",
        "starred_url": "https://api.github.com/users/onesandzer0es/starred%7B/owner%7D%7B/repo%7D",
        "subscriptions_url": "https://api.github.com/users/onesandzer0es/subscriptions",
        "organizations_url": "https://api.github.com/users/onesandzer0es/orgs",
        "repos_url": "https://api.github.com/users/onesandzer0es/repos",
        "events_url": "https://api.github.com/users/onesandzer0es/events%7B/privacy%7D",
        "received_events_url": "https://api.github.com/users/onesandzer0es/received_events",
        "type": "User",
        "site_admin": false
      },
      "commit_id": null,
      "commit_url": null,
      "created_at": "2018-10-24T21:40:46Z",
      "updated_at": "2018-10-24T21:40:46Z",
      "author_association": "NONE",
      "body": "If the fundrawtransaction method selects input (1 confirmation tx), and what happens if the non-valid chain breaks ?\r\n\r\nI guess with the createrawtransaction method, 6 confirmations txs can be selected, why can't this selection be made with the fundrawtransaction method ? @promag ",
      "user": {
        "login": "onesandzer0es",
        "id": 26227848,
        "node_id": "MDQ6VXNlcjI2MjI3ODQ4",
        "avatar_url": "https://avatars.githubusercontent.com/u/26227848?v=4",
        "gravatar_id": "",
        "url": "https://api.github.com/users/onesandzer0es",
        "html_url": "https://github.com/onesandzer0es",
        "followers_url": "https://api.github.com/users/onesandzer0es/followers",
        "following_url": "https://api.github.com/users/onesandzer0es/following%7B/other_user%7D",
        "gists_url": "https://api.github.com/users/onesandzer0es/gists%7B/gist_id%7D",
        "starred_url": "https://api.github.com/users/onesandzer0es/starred%7B/owner%7D%7B/repo%7D",
        "subscriptions_url": "https://api.github.com/users/onesandzer0es/subscriptions",
        "organizations_url": "https://api.github.com/users/onesandzer0es/orgs",
        "repos_url": "https://api.github.com/users/onesandzer0es/repos",
        "events_url": "https://api.github.com/users/onesandzer0es/events%7B/privacy%7D",
        "received_events_url": "https://api.github.com/users/onesandzer0es/received_events",
        "type": "User",
        "site_admin": false
      },
      "html_url": "https://github.com/bitcoin/bitcoin/issues/14542#issuecomment-432838113",
      "issue_url": "https://api.github.com/repos/bitcoin/bitcoin/issues/14542"
    },
    {
      "event": "mentioned",
      "id": 1924706316,
      "node_id": "MDE0Ok1lbnRpb25lZEV2ZW50MTkyNDcwNjMxNg==",
      "url": "https://api.github.com/repos/bitcoin/bitcoin/issues/events/1924706316",
      "actor": {
        "login": "promag",
        "id": 3534524,
        "node_id": "MDQ6VXNlcjM1MzQ1MjQ=",
        "avatar_url": "https://avatars.githubusercontent.com/u/3534524?v=4",
        "gravatar_id": "",
        "url": "https://api.github.com/users/promag",
        "html_url": "https://github.com/promag",
        "followers_url": "https://api.github.com/users/promag/followers",
        "following_url": "https://api.github.com/users/promag/following%7B/other_user%7D",
        "gists_url": "https://api.github.com/users/promag/gists%7B/gist_id%7D",
        "starred_url": "https://api.github.com/users/promag/starred%7B/owner%7D%7B/repo%7D",
        "subscriptions_url": "https://api.github.com/users/promag/subscriptions",
        "organizations_url": "https://api.github.com/users/promag/orgs",
        "repos_url": "https://api.github.com/users/promag/repos",
        "events_url": "https://api.github.com/users/promag/events%7B/privacy%7D",
        "received_events_url": "https://api.github.com/users/promag/received_events",
        "type": "User",
        "site_admin": false
      },
      "commit_id": null,
      "commit_url": null,
      "created_at": "2018-10-24T21:40:46Z"
    },
    {
      "event": "subscribed",
      "id": 1924706318,
      "node_id": "MDE1OlN1YnNjcmliZWRFdmVudDE5MjQ3MDYzMTg=",
      "url": "https://api.github.com/repos/bitcoin/bitcoin/issues/events/1924706318",
      "actor": {
        "login": "promag",
        "id": 3534524,
        "node_id": "MDQ6VXNlcjM1MzQ1MjQ=",
        "avatar_url": "https://avatars.githubusercontent.com/u/3534524?v=4",
        "gravatar_id": "",
        "url": "https://api.github.com/users/promag",
        "html_url": "https://github.com/promag",
        "followers_url": "https://api.github.com/users/promag/followers",
        "following_url": "https://api.github.com/users/promag/following%7B/other_user%7D",
        "gists_url": "https://api.github.com/users/promag/gists%7B/gist_id%7D",
        "starred_url": "https://api.github.com/users/promag/starred%7B/owner%7D%7B/repo%7D",
        "subscriptions_url": "https://api.github.com/users/promag/subscriptions",
        "organizations_url": "https://api.github.com/users/promag/orgs",
        "repos_url": "https://api.github.com/users/promag/repos",
        "events_url": "https://api.github.com/users/promag/events%7B/privacy%7D",
        "received_events_url": "https://api.github.com/users/promag/received_events",
        "type": "User",
        "site_admin": false
      },
      "commit_id": null,
      "commit_url": null,
      "created_at": "2018-10-24T21:40:46Z"
    },
    {
      "event": "commented",
      "id": 432850563,
      "node_id": "MDEyOklzc3VlQ29tbWVudDQzMjg1MDU2Mw==",
      "url": "https://api.github.com/repos/bitcoin/bitcoin/issues/comments/432850563",
      "actor": {
        "login": "promag",
        "id": 3534524,
        "node_id": "MDQ6VXNlcjM1MzQ1MjQ=",
        "avatar_url": "https://avatars.githubusercontent.com/u/3534524?v=4",
        "gravatar_id": "",
        "url": "https://api.github.com/users/promag",
        "html_url": "https://github.com/promag",
        "followers_url": "https://api.github.com/users/promag/followers",
        "following_url": "https://api.github.com/users/promag/following%7B/other_user%7D",
        "gists_url": "https://api.github.com/users/promag/gists%7B/gist_id%7D",
        "starred_url": "https://api.github.com/users/promag/starred%7B/owner%7D%7B/repo%7D",
        "subscriptions_url": "https://api.github.com/users/promag/subscriptions",
        "organizations_url": "https://api.github.com/users/promag/orgs",
        "repos_url": "https://api.github.com/users/promag/repos",
        "events_url": "https://api.github.com/users/promag/events%7B/privacy%7D",
        "received_events_url": "https://api.github.com/users/promag/received_events",
        "type": "User",
        "site_admin": false
      },
      "commit_id": null,
      "commit_url": null,
      "created_at": "2018-10-24T22:30:19Z",
      "updated_at": "2018-10-24T22:30:19Z",
      "author_association": "MEMBER",
      "body": "It's not that simple, the coin selection algorithm takes into account several aspects, especially if an input is a transaction created by the wallet and the corresponding depth. AFAIK you can't override the minimum input depth.",
      "user": {
        "login": "promag",
        "id": 3534524,
        "node_id": "MDQ6VXNlcjM1MzQ1MjQ=",
        "avatar_url": "https://avatars.githubusercontent.com/u/3534524?v=4",
        "gravatar_id": "",
        "url": "https://api.github.com/users/promag",
        "html_url": "https://github.com/promag",
        "followers_url": "https://api.github.com/users/promag/followers",
        "following_url": "https://api.github.com/users/promag/following%7B/other_user%7D",
        "gists_url": "https://api.github.com/users/promag/gists%7B/gist_id%7D",
        "starred_url": "https://api.github.com/users/promag/starred%7B/owner%7D%7B/repo%7D",
        "subscriptions_url": "https://api.github.com/users/promag/subscriptions",
        "organizations_url": "https://api.github.com/users/promag/orgs",
        "repos_url": "https://api.github.com/users/promag/repos",
        "events_url": "https://api.github.com/users/promag/events%7B/privacy%7D",
        "received_events_url": "https://api.github.com/users/promag/received_events",
        "type": "User",
        "site_admin": false
      },
      "html_url": "https://github.com/bitcoin/bitcoin/issues/14542#issuecomment-432850563",
      "issue_url": "https://api.github.com/repos/bitcoin/bitcoin/issues/14542"
    },
    {
      "event": "commented",
      "id": 432924178,
      "node_id": "MDEyOklzc3VlQ29tbWVudDQzMjkyNDE3OA==",
      "url": "https://api.github.com/repos/bitcoin/bitcoin/issues/comments/432924178",
      "actor": {
        "login": "onesandzer0es",
        "id": 26227848,
        "node_id": "MDQ6VXNlcjI2MjI3ODQ4",
        "avatar_url": "https://avatars.githubusercontent.com/u/26227848?v=4",
        "gravatar_id": "",
        "url": "https://api.github.com/users/onesandzer0es",
        "html_url": "https://github.com/onesandzer0es",
        "followers_url": "https://api.github.com/users/onesandzer0es/followers",
        "following_url": "https://api.github.com/users/onesandzer0es/following%7B/other_user%7D",
        "gists_url": "https://api.github.com/users/onesandzer0es/gists%7B/gist_id%7D",
        "starred_url": "https://api.github.com/users/onesandzer0es/starred%7B/owner%7D%7B/repo%7D",
        "subscriptions_url": "https://api.github.com/users/onesandzer0es/subscriptions",
        "organizations_url": "https://api.github.com/users/onesandzer0es/orgs",
        "repos_url": "https://api.github.com/users/onesandzer0es/repos",
        "events_url": "https://api.github.com/users/onesandzer0es/events%7B/privacy%7D",
        "received_events_url": "https://api.github.com/users/onesandzer0es/received_events",
        "type": "User",
        "site_admin": false
      },
      "commit_id": null,
      "commit_url": null,
      "created_at": "2018-10-25T05:56:33Z",
      "updated_at": "2018-10-25T05:56:33Z",
      "author_association": "NONE",
      "body": "So, in the coin selection algorithm, only the coin amount of UTXO are paid attention ? Is algorithm also taken care of the number of confirmations that received ?",
      "user": {
        "login": "onesandzer0es",
        "id": 26227848,
        "node_id": "MDQ6VXNlcjI2MjI3ODQ4",
        "avatar_url": "https://avatars.githubusercontent.com/u/26227848?v=4",
        "gravatar_id": "",
        "url": "https://api.github.com/users/onesandzer0es",
        "html_url": "https://github.com/onesandzer0es",
        "followers_url": "https://api.github.com/users/onesandzer0es/followers",
        "following_url": "https://api.github.com/users/onesandzer0es/following%7B/other_user%7D",
        "gists_url": "https://api.github.com/users/onesandzer0es/gists%7B/gist_id%7D",
        "starred_url": "https://api.github.com/users/onesandzer0es/starred%7B/owner%7D%7B/repo%7D",
        "subscriptions_url": "https://api.github.com/users/onesandzer0es/subscriptions",
        "organizations_url": "https://api.github.com/users/onesandzer0es/orgs",
        "repos_url": "https://api.github.com/users/onesandzer0es/repos",
        "events_url": "https://api.github.com/users/onesandzer0es/events%7B/privacy%7D",
        "received_events_url": "https://api.github.com/users/onesandzer0es/received_events",
        "type": "User",
        "site_admin": false
      },
      "html_url": "https://github.com/bitcoin/bitcoin/issues/14542#issuecomment-432924178",
      "issue_url": "https://api.github.com/repos/bitcoin/bitcoin/issues/14542"
    },
    {
      "event": "commented",
      "id": 432929433,
      "node_id": "MDEyOklzc3VlQ29tbWVudDQzMjkyOTQzMw==",
      "url": "https://api.github.com/repos/bitcoin/bitcoin/issues/comments/432929433",
      "actor": {
        "login": "sipa",
        "id": 548488,
        "node_id": "MDQ6VXNlcjU0ODQ4OA==",
        "avatar_url": "https://avatars.githubusercontent.com/u/548488?v=4",
        "gravatar_id": "",
        "url": "https://api.github.com/users/sipa",
        "html_url": "https://github.com/sipa",
        "followers_url": "https://api.github.com/users/sipa/followers",
        "following_url": "https://api.github.com/users/sipa/following%7B/other_user%7D",
        "gists_url": "https://api.github.com/users/sipa/gists%7B/gist_id%7D",
        "starred_url": "https://api.github.com/users/sipa/starred%7B/owner%7D%7B/repo%7D",
        "subscriptions_url": "https://api.github.com/users/sipa/subscriptions",
        "organizations_url": "https://api.github.com/users/sipa/orgs",
        "repos_url": "https://api.github.com/users/sipa/repos",
        "events_url": "https://api.github.com/users/sipa/events%7B/privacy%7D",
        "received_events_url": "https://api.github.com/users/sipa/received_events",
        "type": "User",
        "site_admin": false
      },
      "commit_id": null,
      "commit_url": null,
      "created_at": "2018-10-25T06:23:23Z",
      "updated_at": "2018-10-25T06:23:23Z",
      "author_association": "MEMBER",
      "body": "I think it's totally reasonable to add an option to `fundrawtransaction` and `walletcreatefundedpsbt` to restrict coin selection to outputs with at least a certain number of confirmations.",
      "user": {
        "login": "sipa",
        "id": 548488,
        "node_id": "MDQ6VXNlcjU0ODQ4OA==",
        "avatar_url": "https://avatars.githubusercontent.com/u/548488?v=4",
        "gravatar_id": "",
        "url": "https://api.github.com/users/sipa",
        "html_url": "https://github.com/sipa",
        "followers_url": "https://api.github.com/users/sipa/followers",
        "following_url": "https://api.github.com/users/sipa/following%7B/other_user%7D",
        "gists_url": "https://api.github.com/users/sipa/gists%7B/gist_id%7D",
        "starred_url": "https://api.github.com/users/sipa/starred%7B/owner%7D%7B/repo%7D",
        "subscriptions_url": "https://api.github.com/users/sipa/subscriptions",
        "organizations_url": "https://api.github.com/users/sipa/orgs",
        "repos_url": "https://api.github.com/users/sipa/repos",
        "events_url": "https://api.github.com/users/sipa/events%7B/privacy%7D",
        "received_events_url": "https://api.github.com/users/sipa/received_events",
        "type": "User",
        "site_admin": false
      },
      "html_url": "https://github.com/bitcoin/bitcoin/issues/14542#issuecomment-432929433",
      "issue_url": "https://api.github.com/repos/bitcoin/bitcoin/issues/14542"
    },
    {
      "event": "cross-referenced",
      "id": null,
      "node_id": null,
      "url": null,
      "actor": {
        "login": "promag",
        "id": 3534524,
        "node_id": "MDQ6VXNlcjM1MzQ1MjQ=",
        "avatar_url": "https://avatars.githubusercontent.com/u/3534524?v=4",
        "gravatar_id": "",
        "url": "https://api.github.com/users/promag",
        "html_url": "https://github.com/promag",
        "followers_url": "https://api.github.com/users/promag/followers",
        "following_url": "https://api.github.com/users/promag/following%7B/other_user%7D",
        "gists_url": "https://api.github.com/users/promag/gists%7B/gist_id%7D",
        "starred_url": "https://api.github.com/users/promag/starred%7B/owner%7D%7B/repo%7D",
        "subscriptions_url": "https://api.github.com/users/promag/subscriptions",
        "organizations_url": "https://api.github.com/users/promag/orgs",
        "repos_url": "https://api.github.com/users/promag/repos",
        "events_url": "https://api.github.com/users/promag/events%7B/privacy%7D",
        "received_events_url": "https://api.github.com/users/promag/received_events",
        "type": "User",
        "site_admin": false
      },
      "commit_id": null,
      "commit_url": null,
      "created_at": "2018-11-02T14:31:34Z",
      "updated_at": "2018-11-02T14:31:34Z",
      "source": {
        "issue": {
          "id": 376833787,
          "node_id": "MDExOlB1bGxSZXF1ZXN0MjI3OTU1MDc5",
          "url": "https://api.github.com/repos/bitcoin/bitcoin/issues/14641",
          "repository_url": "https://api.github.com/repos/bitcoin/bitcoin",
          "labels_url": "https://api.github.com/repos/bitcoin/bitcoin/issues/14641/labels%7B/name%7D",
          "comments_url": "https://api.github.com/repos/bitcoin/bitcoin/issues/14641/comments",
          "events_url": "https://api.github.com/repos/bitcoin/bitcoin/issues/14641/events",
          "html_url": "https://github.com/bitcoin/bitcoin/pull/14641",
          "number": 14641,
          "state": "closed",
          "state_reason": null,
          "title": "rpc: Add min_conf option to fund transaction calls",
          "body": "This PR adds min_conf option to `fundrawtransaction` and `walletcreatefundedpsbt ` RPC.\r\n\r\nFixes #14542.",
          "user": {
            "login": "promag",
            "id": 3534524,
            "node_id": "MDQ6VXNlcjM1MzQ1MjQ=",
            "avatar_url": "https://avatars.githubusercontent.com/u/3534524?v=4",
            "gravatar_id": "",
            "url": "https://api.github.com/users/promag",
            "html_url": "https://github.com/promag",
            "followers_url": "https://api.github.com/users/promag/followers",
            "following_url": "https://api.github.com/users/promag/following%7B/other_user%7D",
            "gists_url": "https://api.github.com/users/promag/gists%7B/gist_id%7D",
            "starred_url": "https://api.github.com/users/promag/starred%7B/owner%7D%7B/repo%7D",
            "subscriptions_url": "https://api.github.com/users/promag/subscriptions",
            "organizations_url": "https://api.github.com/users/promag/orgs",
            "repos_url": "https://api.github.com/users/promag/repos",
            "events_url": "https://api.github.com/users/promag/events%7B/privacy%7D",
            "received_events_url": "https://api.github.com/users/promag/received_events",
            "type": "User",
            "site_admin": false
          },
          "labels": [
            {
              "id": 64583,
              "node_id": "MDU6TGFiZWw2NDU4Mw==",
              "url": "https://api.github.com/repos/bitcoin/bitcoin/labels/Feature",
              "name": "Feature",
              "color": "7cf575",
              "default": false
            },
            {
              "id": 149424,
              "node_id": "MDU6TGFiZWwxNDk0MjQ=",
              "url": "https://api.github.com/repos/bitcoin/bitcoin/labels/Wallet",
              "name": "Wallet",
              "color": "08a781",
              "default": false
            },
            {
              "id": 98279177,
              "node_id": "MDU6TGFiZWw5ODI3OTE3Nw==",
              "url": "https://api.github.com/repos/bitcoin/bitcoin/labels/RPC/REST/ZMQ",
              "name": "RPC/REST/ZMQ",
              "color": "0052cc",
              "default": false
            },
            {
              "id": 955867938,
              "node_id": "MDU6TGFiZWw5NTU4Njc5Mzg=",
              "url": "https://api.github.com/repos/bitcoin/bitcoin/labels/Needs%20rebase",
              "name": "Needs rebase",
              "description": "",
              "color": "cccccc",
              "default": false
            }
          ],
          "assignees": [],
          "author_association": "MEMBER",
          "locked": true,
          "comments": 30,
          "pull_request": {
            "url": "https://api.github.com/repos/bitcoin/bitcoin/pulls/14641",
            "html_url": "https://github.com/bitcoin/bitcoin/pull/14641",
            "diff_url": "https://github.com/bitcoin/bitcoin/pull/14641.diff",
            "patch_url": "https://github.com/bitcoin/bitcoin/pull/14641.patch"
          },
          "closed_at": "2022-04-26T12:30:42Z",
          "created_at": "2018-11-02T14:31:34Z",
          "updated_at": "2023-06-15T10:06:33Z"
        },
        "type": "issue"
      }
    },
    {
      "event": "commented",
      "id": 1150189745,
      "node_id": "IC_kwDOABII585EjoCx",
      "url": "https://api.github.com/repos/bitcoin/bitcoin/issues/comments/1150189745",
      "actor": {
        "login": "ishaanam",
        "id": 75942586,
        "node_id": "MDQ6VXNlcjc1OTQyNTg2",
        "avatar_url": "https://avatars.githubusercontent.com/u/75942586?v=4",
        "gravatar_id": "",
        "url": "https://api.github.com/users/ishaanam",
        "html_url": "https://github.com/ishaanam",
        "followers_url": "https://api.github.com/users/ishaanam/followers",
        "following_url": "https://api.github.com/users/ishaanam/following%7B/other_user%7D",
        "gists_url": "https://api.github.com/users/ishaanam/gists%7B/gist_id%7D",
        "starred_url": "https://api.github.com/users/ishaanam/starred%7B/owner%7D%7B/repo%7D",
        "subscriptions_url": "https://api.github.com/users/ishaanam/subscriptions",
        "organizations_url": "https://api.github.com/users/ishaanam/orgs",
        "repos_url": "https://api.github.com/users/ishaanam/repos",
        "events_url": "https://api.github.com/users/ishaanam/events%7B/privacy%7D",
        "received_events_url": "https://api.github.com/users/ishaanam/received_events",
        "type": "User",
        "site_admin": false
      },
      "commit_id": null,
      "commit_url": null,
      "created_at": "2022-06-08T17:21:20Z",
      "updated_at": "2022-06-08T17:21:20Z",
      "author_association": "CONTRIBUTOR",
      "body": "I've been working on adding a minconf option to `fundrawtransaction` and `walletcreatefundedpsbt`. I can open a PR for this if this is still something people would find useful?",
      "user": {
        "login": "ishaanam",
        "id": 75942586,
        "node_id": "MDQ6VXNlcjc1OTQyNTg2",
        "avatar_url": "https://avatars.githubusercontent.com/u/75942586?v=4",
        "gravatar_id": "",
        "url": "https://api.github.com/users/ishaanam",
        "html_url": "https://github.com/ishaanam",
        "followers_url": "https://api.github.com/users/ishaanam/followers",
        "following_url": "https://api.github.com/users/ishaanam/following%7B/other_user%7D",
        "gists_url": "https://api.github.com/users/ishaanam/gists%7B/gist_id%7D",
        "starred_url": "https://api.github.com/users/ishaanam/starred%7B/owner%7D%7B/repo%7D",
        "subscriptions_url": "https://api.github.com/users/ishaanam/subscriptions",
        "organizations_url": "https://api.github.com/users/ishaanam/orgs",
        "repos_url": "https://api.github.com/users/ishaanam/repos",
        "events_url": "https://api.github.com/users/ishaanam/events%7B/privacy%7D",
        "received_events_url": "https://api.github.com/users/ishaanam/received_events",
        "type": "User",
        "site_admin": false
      },
      "html_url": "https://github.com/bitcoin/bitcoin/issues/14542#issuecomment-1150189745",
      "issue_url": "https://api.github.com/repos/bitcoin/bitcoin/issues/14542"
    },
    {
      "event": "cross-referenced",
      "id": null,
      "node_id": null,
      "url": null,
      "actor": {
        "login": "ishaanam",
        "id": 75942586,
        "node_id": "MDQ6VXNlcjc1OTQyNTg2",
        "avatar_url": "https://avatars.githubusercontent.com/u/75942586?v=4",
        "gravatar_id": "",
        "url": "https://api.github.com/users/ishaanam",
        "html_url": "https://github.com/ishaanam",
        "followers_url": "https://api.github.com/users/ishaanam/followers",
        "following_url": "https://api.github.com/users/ishaanam/following%7B/other_user%7D",
        "gists_url": "https://api.github.com/users/ishaanam/gists%7B/gist_id%7D",
        "starred_url": "https://api.github.com/users/ishaanam/starred%7B/owner%7D%7B/repo%7D",
        "subscriptions_url": "https://api.github.com/users/ishaanam/subscriptions",
        "organizations_url": "https://api.github.com/users/ishaanam/orgs",
        "repos_url": "https://api.github.com/users/ishaanam/repos",
        "events_url": "https://api.github.com/users/ishaanam/events%7B/privacy%7D",
        "received_events_url": "https://api.github.com/users/ishaanam/received_events",
        "type": "User",
        "site_admin": false
      },
      "commit_id": null,
      "commit_url": null,
      "created_at": "2022-06-15T00:08:34Z",
      "updated_at": "2022-06-15T00:08:34Z",
      "source": {
        "issue": {
          "id": 1271491278,
          "node_id": "PR_kwDOABII5845q0OI",
          "url": "https://api.github.com/repos/bitcoin/bitcoin/issues/25375",
          "repository_url": "https://api.github.com/repos/bitcoin/bitcoin",
          "labels_url": "https://api.github.com/repos/bitcoin/bitcoin/issues/25375/labels%7B/name%7D",
          "comments_url": "https://api.github.com/repos/bitcoin/bitcoin/issues/25375/comments",
          "events_url": "https://api.github.com/repos/bitcoin/bitcoin/issues/25375/events",
          "html_url": "https://github.com/bitcoin/bitcoin/pull/25375",
          "number": 25375,
          "state": "closed",
          "state_reason": null,
          "title": "rpc: add minconf/maxconf options to sendall and fund transaction calls",
          "body": "This PR adds a \"minconf\" option to `fundrawtransaction`, `walletcreatefundedpsbt`,  and `sendall`.\r\nAlternative implementation of #14641\r\nFixes #14542\r\n\r\nEdit: This PR now also adds this option to `send`",
          "user": {
            "login": "ishaanam",
            "id": 75942586,
            "node_id": "MDQ6VXNlcjc1OTQyNTg2",
            "avatar_url": "https://avatars.githubusercontent.com/u/75942586?v=4",
            "gravatar_id": "",
            "url": "https://api.github.com/users/ishaanam",
            "html_url": "https://github.com/ishaanam",
            "followers_url": "https://api.github.com/users/ishaanam/followers",
            "following_url": "https://api.github.com/users/ishaanam/following%7B/other_user%7D",
            "gists_url": "https://api.github.com/users/ishaanam/gists%7B/gist_id%7D",
            "starred_url": "https://api.github.com/users/ishaanam/starred%7B/owner%7D%7B/repo%7D",
            "subscriptions_url": "https://api.github.com/users/ishaanam/subscriptions",
            "organizations_url": "https://api.github.com/users/ishaanam/orgs",
            "repos_url": "https://api.github.com/users/ishaanam/repos",
            "events_url": "https://api.github.com/users/ishaanam/events%7B/privacy%7D",
            "received_events_url": "https://api.github.com/users/ishaanam/received_events",
            "type": "User",
            "site_admin": false
          },
          "labels": [
            {
              "id": 149424,
              "node_id": "MDU6TGFiZWwxNDk0MjQ=",
              "url": "https://api.github.com/repos/bitcoin/bitcoin/labels/Wallet",
              "name": "Wallet",
              "color": "08a781",
              "default": false
            },
            {
              "id": 98279177,
              "node_id": "MDU6TGFiZWw5ODI3OTE3Nw==",
              "url": "https://api.github.com/repos/bitcoin/bitcoin/labels/RPC/REST/ZMQ",
              "name": "RPC/REST/ZMQ",
              "color": "0052cc",
              "default": false
            }
          ],
          "assignees": [],
          "author_association": "CONTRIBUTOR",
          "locked": false,
          "comments": 19,
          "pull_request": {
            "url": "https://api.github.com/repos/bitcoin/bitcoin/pulls/25375",
            "html_url": "https://github.com/bitcoin/bitcoin/pull/25375",
            "diff_url": "https://github.com/bitcoin/bitcoin/pull/25375.diff",
            "patch_url": "https://github.com/bitcoin/bitcoin/pull/25375.patch"
          },
          "closed_at": "2023-01-16T22:24:14Z",
          "created_at": "2022-06-15T00:08:34Z",
          "updated_at": "2023-01-23T04:49:58Z"
        },
        "type": "issue"
      }
    },
    {
      "event": "closed",
      "id": 8240424385,
      "node_id": "CE_lADOABII584WNcfmzwAAAAHrKuXB",
      "url": "https://api.github.com/repos/bitcoin/bitcoin/issues/events/8240424385",
      "actor": {
        "login": "achow101",
        "id": 3782274,
        "node_id": "MDQ6VXNlcjM3ODIyNzQ=",
        "avatar_url": "https://avatars.githubusercontent.com/u/3782274?v=4",
        "gravatar_id": "",
        "url": "https://api.github.com/users/achow101",
        "html_url": "https://github.com/achow101",
        "followers_url": "https://api.github.com/users/achow101/followers",
        "following_url": "https://api.github.com/users/achow101/following%7B/other_user%7D",
        "gists_url": "https://api.github.com/users/achow101/gists%7B/gist_id%7D",
        "starred_url": "https://api.github.com/users/achow101/starred%7B/owner%7D%7B/repo%7D",
        "subscriptions_url": "https://api.github.com/users/achow101/subscriptions",
        "organizations_url": "https://api.github.com/users/achow101/orgs",
        "repos_url": "https://api.github.com/users/achow101/repos",
        "events_url": "https://api.github.com/users/achow101/events%7B/privacy%7D",
        "received_events_url": "https://api.github.com/users/achow101/received_events",
        "type": "User",
        "site_admin": false
      },
      "commit_id": "b55b11f92a4717bfbe9214d134b1941effcb391a",
      "commit_url": "https://api.github.com/repos/bitcoin/bitcoin/commits/b55b11f92a4717bfbe9214d134b1941effcb391a",
      "created_at": "2023-01-16T22:24:04Z"
    }
  ]
}