{
  "type": "issue",
  "issue": {
    "id": 519880792,
    "node_id": "MDU6SXNzdWU1MTk4ODA3OTI=",
    "url": "https://api.github.com/repos/bitcoin/bitcoin/issues/17413",
    "repository_url": "https://api.github.com/repos/bitcoin/bitcoin",
    "labels_url": "https://api.github.com/repos/bitcoin/bitcoin/issues/17413/labels%7B/name%7D",
    "comments_url": "https://api.github.com/repos/bitcoin/bitcoin/issues/17413/comments",
    "events_url": "https://api.github.com/repos/bitcoin/bitcoin/issues/17413/events",
    "html_url": "https://github.com/bitcoin/bitcoin/issues/17413",
    "number": 17413,
    "state": "open",
    "state_reason": null,
    "title": "Subtree exclude mess in linters and update scripts",
    "body": "For various operations, it is important to exclude subtrees that have imported code:\r\n\r\n- Doxygen: prevent cluttering our documentation with documentation that belongs with that library itself\r\n- Scripted-diff: commits are not allowed to touch subtrees, this is easy to accidentally do with scripted changes\r\n- Linters: some linters check policies that do not apply to upstream projects\r\n- Test coverage: distorts the results; low test coverage of subsidiary libraries does not mean anything\r\n\r\nIt would be good for consistency, and to reduce developer frustration, for this list to be in one place only, then sourced from where it is needed.\r\n\r\nFor example, for the `crc32c` subtree I had to update these places:\r\n\r\n- `contrib/devtools/copyright_header.py` (`EXCLUDE_DIRS`)\r\n- `doc/Doxyfile.in` (`EXCLUDE`)\r\n- `test/lint/lint-include-guards.py` (`EXCLUDE_FILES_WITH_PREFIX`)\r\n- `test/lint/lint-includes.py` (`EXCLUDED_DIRS`)\r\n- `test/lint/lint-python-utf8-encoding.py` (`EXCLUDED_DIRS`)\r\n- `test/lint/lint-spelling.py` (`FILES_ARGS`, git ls-files inline)\r\n- `test/lint/lint-whitespace.py` (`EXCLUDED_DIRS`)\r\n- `Makefile.am` (`LCOV_FILTER_PATTERN`)\r\n\r\nI'm not yet sure whether I forgot any places (because the excludes are specified in different formats in different places).\r\n\r\n### Good first issue\r\n\r\nThe purpose of the `good first issue` label is to highlight which issues are suitable for a new contributor without a deep understanding of the codebase.\r\n\r\nUseful skills: *shell scripting*, *python*\r\n\r\nWant to work on this issue?\r\n\r\nYou do not need to request permission to start working on this. You are encouraged to comment on the issue if you are planning to work on it. This will help other contributors monitor which issues are actively being addressed and is also an effective way to request assistance if and when you need it.\r\n\r\nFor guidance on contributing, please read [CONTRIBUTING.md](https://github.com/bitcoin/bitcoin/blob/master/CONTRIBUTING.md) before opening your pull request.\r\n",
    "user": {
      "login": "laanwj",
      "id": 126646,
      "node_id": "MDQ6VXNlcjEyNjY0Ng==",
      "avatar_url": "https://avatars.githubusercontent.com/u/126646?v=4",
      "gravatar_id": "",
      "url": "https://api.github.com/users/laanwj",
      "html_url": "https://github.com/laanwj",
      "followers_url": "https://api.github.com/users/laanwj/followers",
      "following_url": "https://api.github.com/users/laanwj/following%7B/other_user%7D",
      "gists_url": "https://api.github.com/users/laanwj/gists%7B/gist_id%7D",
      "starred_url": "https://api.github.com/users/laanwj/starred%7B/owner%7D%7B/repo%7D",
      "subscriptions_url": "https://api.github.com/users/laanwj/subscriptions",
      "organizations_url": "https://api.github.com/users/laanwj/orgs",
      "repos_url": "https://api.github.com/users/laanwj/repos",
      "events_url": "https://api.github.com/users/laanwj/events%7B/privacy%7D",
      "received_events_url": "https://api.github.com/users/laanwj/received_events",
      "type": "User",
      "site_admin": false
    },
    "labels": [
      {
        "id": 231994551,
        "node_id": "MDU6TGFiZWwyMzE5OTQ1NTE=",
        "url": "https://api.github.com/repos/bitcoin/bitcoin/labels/Scripts%20and%20tools",
        "name": "Scripts and tools",
        "color": "ffffee",
        "default": false
      },
      {
        "id": 349312277,
        "node_id": "MDU6TGFiZWwzNDkzMTIyNzc=",
        "url": "https://api.github.com/repos/bitcoin/bitcoin/labels/good%20first%20issue",
        "name": "good first issue",
        "color": "c2e0c6",
        "default": true
      }
    ],
    "assignees": [],
    "author_association": "MEMBER",
    "locked": false,
    "comments": 5,
    "created_at": "2019-11-08T08:33:31Z",
    "updated_at": "2022-05-09T13:18:43Z"
  },
  "events": [
    {
      "event": "labeled",
      "id": 2782098684,
      "node_id": "MDEyOkxhYmVsZWRFdmVudDI3ODIwOTg2ODQ=",
      "url": "https://api.github.com/repos/bitcoin/bitcoin/issues/events/2782098684",
      "actor": {
        "login": "laanwj",
        "id": 126646,
        "node_id": "MDQ6VXNlcjEyNjY0Ng==",
        "avatar_url": "https://avatars.githubusercontent.com/u/126646?v=4",
        "gravatar_id": "",
        "url": "https://api.github.com/users/laanwj",
        "html_url": "https://github.com/laanwj",
        "followers_url": "https://api.github.com/users/laanwj/followers",
        "following_url": "https://api.github.com/users/laanwj/following%7B/other_user%7D",
        "gists_url": "https://api.github.com/users/laanwj/gists%7B/gist_id%7D",
        "starred_url": "https://api.github.com/users/laanwj/starred%7B/owner%7D%7B/repo%7D",
        "subscriptions_url": "https://api.github.com/users/laanwj/subscriptions",
        "organizations_url": "https://api.github.com/users/laanwj/orgs",
        "repos_url": "https://api.github.com/users/laanwj/repos",
        "events_url": "https://api.github.com/users/laanwj/events%7B/privacy%7D",
        "received_events_url": "https://api.github.com/users/laanwj/received_events",
        "type": "User",
        "site_admin": false
      },
      "commit_id": null,
      "commit_url": null,
      "created_at": "2019-11-08T08:33:31Z",
      "label": {
        "name": "good first issue",
        "color": "c2e0c6"
      }
    },
    {
      "event": "labeled",
      "id": 2782324048,
      "node_id": "MDEyOkxhYmVsZWRFdmVudDI3ODIzMjQwNDg=",
      "url": "https://api.github.com/repos/bitcoin/bitcoin/issues/events/2782324048",
      "actor": {
        "login": "laanwj",
        "id": 126646,
        "node_id": "MDQ6VXNlcjEyNjY0Ng==",
        "avatar_url": "https://avatars.githubusercontent.com/u/126646?v=4",
        "gravatar_id": "",
        "url": "https://api.github.com/users/laanwj",
        "html_url": "https://github.com/laanwj",
        "followers_url": "https://api.github.com/users/laanwj/followers",
        "following_url": "https://api.github.com/users/laanwj/following%7B/other_user%7D",
        "gists_url": "https://api.github.com/users/laanwj/gists%7B/gist_id%7D",
        "starred_url": "https://api.github.com/users/laanwj/starred%7B/owner%7D%7B/repo%7D",
        "subscriptions_url": "https://api.github.com/users/laanwj/subscriptions",
        "organizations_url": "https://api.github.com/users/laanwj/orgs",
        "repos_url": "https://api.github.com/users/laanwj/repos",
        "events_url": "https://api.github.com/users/laanwj/events%7B/privacy%7D",
        "received_events_url": "https://api.github.com/users/laanwj/received_events",
        "type": "User",
        "site_admin": false
      },
      "commit_id": null,
      "commit_url": null,
      "created_at": "2019-11-08T09:54:04Z",
      "label": {
        "name": "Scripts and tools",
        "color": "ffffee"
      }
    },
    {
      "event": "cross-referenced",
      "id": null,
      "node_id": null,
      "url": null,
      "actor": {
        "login": "MarcoFalke",
        "id": 6399679,
        "node_id": "MDQ6VXNlcjYzOTk2Nzk=",
        "avatar_url": "https://avatars.githubusercontent.com/u/6399679?v=4",
        "gravatar_id": "",
        "url": "https://api.github.com/users/MarcoFalke",
        "html_url": "https://github.com/MarcoFalke",
        "followers_url": "https://api.github.com/users/MarcoFalke/followers",
        "following_url": "https://api.github.com/users/MarcoFalke/following%7B/other_user%7D",
        "gists_url": "https://api.github.com/users/MarcoFalke/gists%7B/gist_id%7D",
        "starred_url": "https://api.github.com/users/MarcoFalke/starred%7B/owner%7D%7B/repo%7D",
        "subscriptions_url": "https://api.github.com/users/MarcoFalke/subscriptions",
        "organizations_url": "https://api.github.com/users/MarcoFalke/orgs",
        "repos_url": "https://api.github.com/users/MarcoFalke/repos",
        "events_url": "https://api.github.com/users/MarcoFalke/events%7B/privacy%7D",
        "received_events_url": "https://api.github.com/users/MarcoFalke/received_events",
        "type": "User",
        "site_admin": false
      },
      "commit_id": null,
      "commit_url": null,
      "created_at": "2019-11-18T20:53:36Z",
      "updated_at": "2019-11-18T20:53:36Z",
      "source": {
        "issue": {
          "id": 518932591,
          "node_id": "MDExOlB1bGxSZXF1ZXN0MzM3NzY2NTI1",
          "url": "https://api.github.com/repos/bitcoin/bitcoin/issues/17398",
          "repository_url": "https://api.github.com/repos/bitcoin/bitcoin",
          "labels_url": "https://api.github.com/repos/bitcoin/bitcoin/issues/17398/labels%7B/name%7D",
          "comments_url": "https://api.github.com/repos/bitcoin/bitcoin/issues/17398/comments",
          "events_url": "https://api.github.com/repos/bitcoin/bitcoin/issues/17398/events",
          "html_url": "https://github.com/bitcoin/bitcoin/pull/17398",
          "number": 17398,
          "state": "closed",
          "state_reason": null,
          "title": "build: Update leveldb to 1.22+",
          "body": "This updates leveldb to currently newest upstream commit https://github.com/bitcoin-core/leveldb/commit/0c40829872a9f00f38e11dc370ff8adb3e19f25b:\r\n\r\n- CRC32C hardware acceleration is now an external library [crc32c](https://github.com/google/crc32c). This adds acceleration on ARM, and should be faster on x86 because of using prefetch. It also makes it easy to support similar instruction sets on other platforms in the future.\r\n- Thread handling uses C++11, instead of platform specific code.\r\n- Native windows environment was added. No need to maintain our own hacky one, anymore.\r\n- Upstream now builds using CMake. This doesn't mean we need to use that (phew), but internal configuration changed to a a series of checks, instead of OS profiles. This means the blanket error \"Cannot build leveldb for $host. Please file a bug report' is removed.\r\n\r\nAll changes: https://github.com/google/leveldb/compare/a53934a3ae1244679f812d998a4f16f2c7f309a6...0c40829872a9f00f38e11dc370ff8adb3e19f25b\r\n\r\nPretty much all our changes have been subsumed by upstream, so we figured it was cleaner to start over with a new branch from upstream with the still-relevant patches applied: https://github.com/bitcoin-core/leveldb/tree/bitcoin-fork-new\r\n\r\nThere's quite some testing to be done (see below). See https://github.com/bitcoin-core/leveldb/issues/25 and https://github.com/bitcoin-core/leveldb/pull/26 for more history and context.\r\n\r\nTODO:\r\n- [x] Subtree `crc32c`\r\n- [x] Make linters happy about crc32 subtree\r\n- [x] Integrate `crc32c` library into build system\r\n- [x] MSVC build system",
          "user": {
            "login": "laanwj",
            "id": 126646,
            "node_id": "MDQ6VXNlcjEyNjY0Ng==",
            "avatar_url": "https://avatars.githubusercontent.com/u/126646?v=4",
            "gravatar_id": "",
            "url": "https://api.github.com/users/laanwj",
            "html_url": "https://github.com/laanwj",
            "followers_url": "https://api.github.com/users/laanwj/followers",
            "following_url": "https://api.github.com/users/laanwj/following%7B/other_user%7D",
            "gists_url": "https://api.github.com/users/laanwj/gists%7B/gist_id%7D",
            "starred_url": "https://api.github.com/users/laanwj/starred%7B/owner%7D%7B/repo%7D",
            "subscriptions_url": "https://api.github.com/users/laanwj/subscriptions",
            "organizations_url": "https://api.github.com/users/laanwj/orgs",
            "repos_url": "https://api.github.com/users/laanwj/repos",
            "events_url": "https://api.github.com/users/laanwj/events%7B/privacy%7D",
            "received_events_url": "https://api.github.com/users/laanwj/received_events",
            "type": "User",
            "site_admin": false
          },
          "labels": [
            {
              "id": 97470796,
              "node_id": "MDU6TGFiZWw5NzQ3MDc5Ng==",
              "url": "https://api.github.com/repos/bitcoin/bitcoin/labels/UTXO%20Db%20and%20Indexes",
              "name": "UTXO Db and Indexes",
              "color": "fbca04",
              "default": false
            },
            {
              "id": 159815356,
              "node_id": "MDU6TGFiZWwxNTk4MTUzNTY=",
              "url": "https://api.github.com/repos/bitcoin/bitcoin/labels/Upstream",
              "name": "Upstream",
              "color": "bfd4f2",
              "default": false
            }
          ],
          "assignees": [],
          "author_association": "MEMBER",
          "milestone": {
            "url": "https://api.github.com/repos/bitcoin/bitcoin/milestones/42",
            "html_url": "https://github.com/bitcoin/bitcoin/milestone/42",
            "labels_url": "https://api.github.com/repos/bitcoin/bitcoin/milestones/42/labels",
            "id": 4116761,
            "node_id": "MDk6TWlsZXN0b25lNDExNjc2MQ==",
            "number": 42,
            "state": "closed",
            "title": "0.20.0",
            "description": "",
            "creator": {
              "login": "MarcoFalke",
              "id": 6399679,
              "node_id": "MDQ6VXNlcjYzOTk2Nzk=",
              "avatar_url": "https://avatars.githubusercontent.com/u/6399679?v=4",
              "gravatar_id": "",
              "url": "https://api.github.com/users/MarcoFalke",
              "html_url": "https://github.com/MarcoFalke",
              "followers_url": "https://api.github.com/users/MarcoFalke/followers",
              "following_url": "https://api.github.com/users/MarcoFalke/following%7B/other_user%7D",
              "gists_url": "https://api.github.com/users/MarcoFalke/gists%7B/gist_id%7D",
              "starred_url": "https://api.github.com/users/MarcoFalke/starred%7B/owner%7D%7B/repo%7D",
              "subscriptions_url": "https://api.github.com/users/MarcoFalke/subscriptions",
              "organizations_url": "https://api.github.com/users/MarcoFalke/orgs",
              "repos_url": "https://api.github.com/users/MarcoFalke/repos",
              "events_url": "https://api.github.com/users/MarcoFalke/events%7B/privacy%7D",
              "received_events_url": "https://api.github.com/users/MarcoFalke/received_events",
              "type": "User",
              "site_admin": false
            },
            "open_issues": 0,
            "closed_issues": 91,
            "created_at": "2019-03-06T20:02:40Z",
            "updated_at": "2020-06-02T07:55:47Z",
            "closed_at": "2020-06-02T07:55:47Z"
          },
          "locked": true,
          "active_lock_reason": "resolved",
          "comments": 58,
          "pull_request": {
            "url": "https://api.github.com/repos/bitcoin/bitcoin/pulls/17398",
            "html_url": "https://github.com/bitcoin/bitcoin/pull/17398",
            "diff_url": "https://github.com/bitcoin/bitcoin/pull/17398.diff",
            "patch_url": "https://github.com/bitcoin/bitcoin/pull/17398.patch"
          },
          "closed_at": "2020-02-10T10:37:15Z",
          "created_at": "2019-11-06T23:07:51Z",
          "updated_at": "2022-02-15T10:26:53Z"
        },
        "type": "issue"
      }
    },
    {
      "event": "commented",
      "id": 568193371,
      "node_id": "MDEyOklzc3VlQ29tbWVudDU2ODE5MzM3MQ==",
      "url": "https://api.github.com/repos/bitcoin/bitcoin/issues/comments/568193371",
      "actor": {
        "login": "hackerrdave",
        "id": 5226601,
        "node_id": "MDQ6VXNlcjUyMjY2MDE=",
        "avatar_url": "https://avatars.githubusercontent.com/u/5226601?v=4",
        "gravatar_id": "",
        "url": "https://api.github.com/users/hackerrdave",
        "html_url": "https://github.com/hackerrdave",
        "followers_url": "https://api.github.com/users/hackerrdave/followers",
        "following_url": "https://api.github.com/users/hackerrdave/following%7B/other_user%7D",
        "gists_url": "https://api.github.com/users/hackerrdave/gists%7B/gist_id%7D",
        "starred_url": "https://api.github.com/users/hackerrdave/starred%7B/owner%7D%7B/repo%7D",
        "subscriptions_url": "https://api.github.com/users/hackerrdave/subscriptions",
        "organizations_url": "https://api.github.com/users/hackerrdave/orgs",
        "repos_url": "https://api.github.com/users/hackerrdave/repos",
        "events_url": "https://api.github.com/users/hackerrdave/events%7B/privacy%7D",
        "received_events_url": "https://api.github.com/users/hackerrdave/received_events",
        "type": "User",
        "site_admin": false
      },
      "commit_id": null,
      "commit_url": null,
      "created_at": "2019-12-21T16:25:14Z",
      "updated_at": "2019-12-21T16:25:14Z",
      "author_association": "CONTRIBUTOR",
      "body": "Going to take a crack at this",
      "user": {
        "login": "hackerrdave",
        "id": 5226601,
        "node_id": "MDQ6VXNlcjUyMjY2MDE=",
        "avatar_url": "https://avatars.githubusercontent.com/u/5226601?v=4",
        "gravatar_id": "",
        "url": "https://api.github.com/users/hackerrdave",
        "html_url": "https://github.com/hackerrdave",
        "followers_url": "https://api.github.com/users/hackerrdave/followers",
        "following_url": "https://api.github.com/users/hackerrdave/following%7B/other_user%7D",
        "gists_url": "https://api.github.com/users/hackerrdave/gists%7B/gist_id%7D",
        "starred_url": "https://api.github.com/users/hackerrdave/starred%7B/owner%7D%7B/repo%7D",
        "subscriptions_url": "https://api.github.com/users/hackerrdave/subscriptions",
        "organizations_url": "https://api.github.com/users/hackerrdave/orgs",
        "repos_url": "https://api.github.com/users/hackerrdave/repos",
        "events_url": "https://api.github.com/users/hackerrdave/events%7B/privacy%7D",
        "received_events_url": "https://api.github.com/users/hackerrdave/received_events",
        "type": "User",
        "site_admin": false
      },
      "html_url": "https://github.com/bitcoin/bitcoin/issues/17413#issuecomment-568193371",
      "issue_url": "https://api.github.com/repos/bitcoin/bitcoin/issues/17413"
    },
    {
      "event": "commented",
      "id": 1013306231,
      "node_id": "IC_kwDOABII5848ZdN3",
      "url": "https://api.github.com/repos/bitcoin/bitcoin/issues/comments/1013306231",
      "actor": {
        "login": "niVelion",
        "id": 97605837,
        "node_id": "U_kgDOBdFYzQ",
        "avatar_url": "https://avatars.githubusercontent.com/u/97605837?v=4",
        "gravatar_id": "",
        "url": "https://api.github.com/users/niVelion",
        "html_url": "https://github.com/niVelion",
        "followers_url": "https://api.github.com/users/niVelion/followers",
        "following_url": "https://api.github.com/users/niVelion/following%7B/other_user%7D",
        "gists_url": "https://api.github.com/users/niVelion/gists%7B/gist_id%7D",
        "starred_url": "https://api.github.com/users/niVelion/starred%7B/owner%7D%7B/repo%7D",
        "subscriptions_url": "https://api.github.com/users/niVelion/subscriptions",
        "organizations_url": "https://api.github.com/users/niVelion/orgs",
        "repos_url": "https://api.github.com/users/niVelion/repos",
        "events_url": "https://api.github.com/users/niVelion/events%7B/privacy%7D",
        "received_events_url": "https://api.github.com/users/niVelion/received_events",
        "type": "User",
        "site_admin": false
      },
      "commit_id": null,
      "commit_url": null,
      "created_at": "2022-01-14T17:13:05Z",
      "updated_at": "2022-01-14T17:13:05Z",
      "author_association": "NONE",
      "body": "I've just had a look over the mentioned files, and am copying my notes here to make them public.\r\n\r\nUnless otherwise noted, the filetype is shell code.\r\n\r\n1. https://github.com/bitcoin/bitcoin/blob/master/contrib/devtools/copyright_header.py#L32-40\r\n\r\nPython: Quoted string array.\r\n\r\n```\r\nEXCLUDE_DIRS = [\r\n    # git subtrees\r\n    \"src/crypto/ctaes/\",\r\n    \"src/leveldb/\",\r\n    \"src/minisketch\",\r\n    \"src/secp256k1/\",\r\n    \"src/univalue/\",\r\n    \"src/crc32c/\",\r\n]\r\n```\r\n\r\n2. https://github.com/bitcoin/bitcoin/blob/master/doc/Doxyfile.in#L864-L866\r\n\r\nUnquoted values.\r\n\r\n```\r\nEXCLUDE                = src/crc32c \\\r\n                         src/leveldb \\\r\n                         src/json\r\n```\r\n\r\n3. https://github.com/bitcoin/bitcoin/blob/master/test/lint/extended-lint-cppcheck.sh#L76\r\n\r\nQuoted strings, prefixed with :(exclude).\r\n\r\n```\r\nWARNINGS=$(git ls-files -- \"*.cpp\" \"*.h\" \":(exclude)src/leveldb/\" \":(exclude)src/crc32c/\" \":(exclude)src/secp256k1/\" \":(exclude)src/minisketch/\" \":(exclude)src/univalue/\" | \\\r\n```\r\n\r\n\r\n4. https://github.com/bitcoin/bitcoin/blob/master/test/lint/lint-include-guards.sh#L13\r\n\r\nRegular Expression.\r\n\r\n```\r\nREGEXP_EXCLUDE_FILES_WITH_PREFIX=\"src/(crypto/ctaes/|leveldb/|crc32c/|secp256k1/|minisketch/|test/fuzz/FuzzedDataProvider.h|tinyformat.h|bench/nanobench.h|univalue/)\"\r\n```\r\n\r\n5. https://github.com/bitcoin/bitcoin/blob/master/test/lint/lint-includes.sh#L12\r\n\r\nRegular Expression.\r\n\r\n```\r\nIGNORE_REGEXP=\"/(leveldb|secp256k1|minisketch|univalue|crc32c)/\"\r\n```\r\n\r\n6. https://github.com/bitcoin/bitcoin/blob/master/test/lint/lint-python-utf8-encoding.sh#L12\r\n\r\nQuoted string, prefixed with :(exclude).\r\n\r\n```\r\nOUTPUT=$(git grep \" open(\" -- \"*.py\" \":(exclude)src/crc32c/\" | grep -vE \"encoding=.(ascii|utf8|utf-8).\" | grep -vE \"open\\([^,]*, ['\\\"][^'\\\"]*b[^'\\\"]*['\\\"]\")\r\n```\r\n\r\n6a. https://github.com/bitcoin/bitcoin/blob/master/test/lint/lint-python-utf8-encoding.sh#L20\r\n\r\n```\r\nOUTPUT=$(git grep \"check_output(\" -- \"*.py\" \":(exclude)src/crc32c/\"| grep \"universal_newlines=True\" | grep -vE \"encoding=.(ascii|utf8|utf-8).\")\r\n```\r\n\r\n7. https://github.com/bitcoin/bitcoin/blob/master/test/lint/lint-spelling.sh#L18\r\n\r\nQuoted strings, prefixed with :(exclude).\r\n\r\n```\r\nmapfile -t FILES < <(git ls-files -- \":(exclude)build-aux/m4/\" \":(exclude)contrib/seeds/*.txt\" \":(exclude)depends/\" \":(exclude)doc/release-notes/\" \":(exclude)src/leveldb/\" \":(exclude)src/crc32c/\" \":(exclude)src/qt/locale/\" \":(exclude)src/qt/*.qrc\" \":(exclude)src/secp256k1/\" \":(exclude)src/minisketch/\" \":(exclude)src/univalue/\" \":(exclude)contrib/builder-keys/keys.txt\" \":(exclude)contrib/guix/patches\")\r\n```\r\n\r\n8. https://github.com/bitcoin/bitcoin/blob/master/test/lint/lint-whitespace.sh#L36\r\n\r\nQuoted strings, prefixed with :(exclude).\r\n\r\n```\r\n  if ! git diff -U0 \"${COMMIT_RANGE}\" -- \".\" \":(exclude)depends/patches/\" \":(exclude)contrib/guix/patches/\" \":(exclude)src/leveldb/\" \":(exclude)src/crc32c/\" \":(exclude)src/secp256k1/\" \":(exclude)src/minisketch/\" \":(exclude)src/univalue/\" \":(exclude)doc/release-notes/\" \":(exclude)src/qt/locale/\"; then\r\n```\r\n\r\n8a. https://github.com/bitcoin/bitcoin/blob/master/test/lint/lint-whitespace.sh#L43\r\n\r\nQuoted strings, prefixed with :(exclude).\r\n\r\n```\r\n  if ! git diff -U0 \"${COMMIT_RANGE}\" -- *.cpp *.h *.md *.py *.sh \":(exclude)src/leveldb/\" \":(exclude)src/crc32c/\" \":(exclude)src/secp256k1/\" \":(exclude)src/minisketch/\" \":(exclude)src/univalue/\" \":(exclude)doc/release-notes/\" \":(exclude)src/qt/locale/\"; then\r\n```\r\n\r\n9. https://github.com/bitcoin/bitcoin/blob/master/Makefile.am#L186-L198\r\n\r\nAutomake: Quoted strings.\r\n\r\n```\r\nLCOV_FILTER_PATTERN = \\\r\n\t-p \"/usr/local/\" \\\r\n\t-p \"/usr/include/\" \\\r\n\t-p \"/usr/lib/\" \\\r\n\t-p \"/usr/lib64/\" \\\r\n\t-p \"src/leveldb/\" \\\r\n\t-p \"src/crc32c/\" \\\r\n\t-p \"src/bench/\" \\\r\n\t-p \"src/univalue\" \\\r\n\t-p \"src/crypto/ctaes\" \\\r\n\t-p \"src/minisketch\" \\\r\n\t-p \"src/secp256k1\" \\\r\n\t-p \"depends\"\r\n```\r\n\r\n__Additionally, searching the repo for `univalue` I found these possible additional locations.__\r\n\r\n10. https://github.com/bitcoin/bitcoin/blob/master/test/lint/lint-files.py#L22\r\n\r\nPython: RegExp.\r\n\r\n```\r\nALLOWED_SOURCE_FILENAME_EXCEPTION_REGEXP = (\r\n    \"^src/(secp256k1/|minisketch/|univalue/|test/fuzz/FuzzedDataProvider.h)\"\r\n)\r\n```\r\n\r\n11. https://github.com/bitcoin/bitcoin/blob/master/test/lint/lint-format-strings.sh#L37\r\n\r\nPipe separated; part of regexp.\r\n\r\n```\r\n    for MATCHING_FILE in $(git grep --full-name -l \"${FUNCTION_NAME}\" -- \"*.c\" \"*.cpp\" \"*.h\" | sort | grep -vE \"^src/(leveldb|secp256k1|minisketch|tinyformat|univalue|test/fuzz/strprintf.cpp)\"); do\r\n```\r\n\r\n12.  https://github.com/bitcoin/bitcoin/blob/master/test/lint/lint-locale-dependence.sh#L49\r\n\r\nPipe separarated; part of regexp.\r\n\r\n```\r\nREGEXP_IGNORE_EXTERNAL_DEPENDENCIES=\"^src/(crypto/ctaes/|leveldb/|secp256k1/|minisketch/|tinyformat.h|univalue/)\"\r\n```\r\n\r\n13. https://github.com/bitcoin/bitcoin/blob/master/test/lint/lint-shell-locale.sh#L15-18\r\n\r\nPipe separated; part of regexp.\r\n\r\n```\r\nfor SHELL_SCRIPT in $(git ls-files -- \"*.sh\" | grep -vE \"src/(secp256k1|minisketch|univalue)/\"); do\r\n    if grep -q \"# This script is intentionally locale dependent by not setting \\\"export LC_ALL=C\\\"\" \"${SHELL_SCRIPT}\"; then\r\n        continue\r\n    fi\r\n```\r\n\r\n14. https://github.com/bitcoin/bitcoin/blob/master/test/lint/lint-shell.sh#L28\r\n\r\nPipe separated; part of regexp.\r\n\r\n```\r\nmapfile -t FILES < <(git ls-files -- '*.sh' | grep -vE 'src/(leveldb|secp256k1|minisketch|univalue)/')\r\n```",
      "user": {
        "login": "niVelion",
        "id": 97605837,
        "node_id": "U_kgDOBdFYzQ",
        "avatar_url": "https://avatars.githubusercontent.com/u/97605837?v=4",
        "gravatar_id": "",
        "url": "https://api.github.com/users/niVelion",
        "html_url": "https://github.com/niVelion",
        "followers_url": "https://api.github.com/users/niVelion/followers",
        "following_url": "https://api.github.com/users/niVelion/following%7B/other_user%7D",
        "gists_url": "https://api.github.com/users/niVelion/gists%7B/gist_id%7D",
        "starred_url": "https://api.github.com/users/niVelion/starred%7B/owner%7D%7B/repo%7D",
        "subscriptions_url": "https://api.github.com/users/niVelion/subscriptions",
        "organizations_url": "https://api.github.com/users/niVelion/orgs",
        "repos_url": "https://api.github.com/users/niVelion/repos",
        "events_url": "https://api.github.com/users/niVelion/events%7B/privacy%7D",
        "received_events_url": "https://api.github.com/users/niVelion/received_events",
        "type": "User",
        "site_admin": false
      },
      "html_url": "https://github.com/bitcoin/bitcoin/issues/17413#issuecomment-1013306231",
      "issue_url": "https://api.github.com/repos/bitcoin/bitcoin/issues/17413"
    },
    {
      "event": "commented",
      "id": 1043303892,
      "node_id": "IC_kwDOABII584-L43U",
      "url": "https://api.github.com/repos/bitcoin/bitcoin/issues/comments/1043303892",
      "actor": {
        "login": "maxraustin",
        "id": 22504085,
        "node_id": "MDQ6VXNlcjIyNTA0MDg1",
        "avatar_url": "https://avatars.githubusercontent.com/u/22504085?v=4",
        "gravatar_id": "",
        "url": "https://api.github.com/users/maxraustin",
        "html_url": "https://github.com/maxraustin",
        "followers_url": "https://api.github.com/users/maxraustin/followers",
        "following_url": "https://api.github.com/users/maxraustin/following%7B/other_user%7D",
        "gists_url": "https://api.github.com/users/maxraustin/gists%7B/gist_id%7D",
        "starred_url": "https://api.github.com/users/maxraustin/starred%7B/owner%7D%7B/repo%7D",
        "subscriptions_url": "https://api.github.com/users/maxraustin/subscriptions",
        "organizations_url": "https://api.github.com/users/maxraustin/orgs",
        "repos_url": "https://api.github.com/users/maxraustin/repos",
        "events_url": "https://api.github.com/users/maxraustin/events%7B/privacy%7D",
        "received_events_url": "https://api.github.com/users/maxraustin/received_events",
        "type": "User",
        "site_admin": false
      },
      "commit_id": null,
      "commit_url": null,
      "created_at": "2022-02-17T18:56:07Z",
      "updated_at": "2022-02-17T18:56:07Z",
      "author_association": "NONE",
      "body": "My group and I are interested in looking into this one as a starter issue, have started brainstorming solutions.",
      "user": {
        "login": "maxraustin",
        "id": 22504085,
        "node_id": "MDQ6VXNlcjIyNTA0MDg1",
        "avatar_url": "https://avatars.githubusercontent.com/u/22504085?v=4",
        "gravatar_id": "",
        "url": "https://api.github.com/users/maxraustin",
        "html_url": "https://github.com/maxraustin",
        "followers_url": "https://api.github.com/users/maxraustin/followers",
        "following_url": "https://api.github.com/users/maxraustin/following%7B/other_user%7D",
        "gists_url": "https://api.github.com/users/maxraustin/gists%7B/gist_id%7D",
        "starred_url": "https://api.github.com/users/maxraustin/starred%7B/owner%7D%7B/repo%7D",
        "subscriptions_url": "https://api.github.com/users/maxraustin/subscriptions",
        "organizations_url": "https://api.github.com/users/maxraustin/orgs",
        "repos_url": "https://api.github.com/users/maxraustin/repos",
        "events_url": "https://api.github.com/users/maxraustin/events%7B/privacy%7D",
        "received_events_url": "https://api.github.com/users/maxraustin/received_events",
        "type": "User",
        "site_admin": false
      },
      "html_url": "https://github.com/bitcoin/bitcoin/issues/17413#issuecomment-1043303892",
      "issue_url": "https://api.github.com/repos/bitcoin/bitcoin/issues/17413"
    },
    {
      "event": "referenced",
      "id": 6128717403,
      "node_id": "REFE_lADOABII584e_MBYzwAAAAFtTM5b",
      "url": "https://api.github.com/repos/bitcoin/bitcoin/issues/events/6128717403",
      "actor": {
        "login": "maxraustin",
        "id": 22504085,
        "node_id": "MDQ6VXNlcjIyNTA0MDg1",
        "avatar_url": "https://avatars.githubusercontent.com/u/22504085?v=4",
        "gravatar_id": "",
        "url": "https://api.github.com/users/maxraustin",
        "html_url": "https://github.com/maxraustin",
        "followers_url": "https://api.github.com/users/maxraustin/followers",
        "following_url": "https://api.github.com/users/maxraustin/following%7B/other_user%7D",
        "gists_url": "https://api.github.com/users/maxraustin/gists%7B/gist_id%7D",
        "starred_url": "https://api.github.com/users/maxraustin/starred%7B/owner%7D%7B/repo%7D",
        "subscriptions_url": "https://api.github.com/users/maxraustin/subscriptions",
        "organizations_url": "https://api.github.com/users/maxraustin/orgs",
        "repos_url": "https://api.github.com/users/maxraustin/repos",
        "events_url": "https://api.github.com/users/maxraustin/events%7B/privacy%7D",
        "received_events_url": "https://api.github.com/users/maxraustin/received_events",
        "type": "User",
        "site_admin": false
      },
      "commit_id": "58ebed98140cf1cfef165e07eda32efe297977f5",
      "commit_url": "https://api.github.com/repos/maxraustin/bitcoin/commits/58ebed98140cf1cfef165e07eda32efe297977f5",
      "created_at": "2022-02-23T23:45:15Z"
    },
    {
      "event": "cross-referenced",
      "id": null,
      "node_id": null,
      "url": null,
      "actor": {
        "login": "maxraustin",
        "id": 22504085,
        "node_id": "MDQ6VXNlcjIyNTA0MDg1",
        "avatar_url": "https://avatars.githubusercontent.com/u/22504085?v=4",
        "gravatar_id": "",
        "url": "https://api.github.com/users/maxraustin",
        "html_url": "https://github.com/maxraustin",
        "followers_url": "https://api.github.com/users/maxraustin/followers",
        "following_url": "https://api.github.com/users/maxraustin/following%7B/other_user%7D",
        "gists_url": "https://api.github.com/users/maxraustin/gists%7B/gist_id%7D",
        "starred_url": "https://api.github.com/users/maxraustin/starred%7B/owner%7D%7B/repo%7D",
        "subscriptions_url": "https://api.github.com/users/maxraustin/subscriptions",
        "organizations_url": "https://api.github.com/users/maxraustin/orgs",
        "repos_url": "https://api.github.com/users/maxraustin/repos",
        "events_url": "https://api.github.com/users/maxraustin/events%7B/privacy%7D",
        "received_events_url": "https://api.github.com/users/maxraustin/received_events",
        "type": "User",
        "site_admin": false
      },
      "commit_id": null,
      "commit_url": null,
      "created_at": "2022-02-24T01:09:28Z",
      "updated_at": "2022-02-24T01:09:28Z",
      "source": {
        "issue": {
          "id": 1148746971,
          "node_id": "PR_kwDOABII584zYK1o",
          "url": "https://api.github.com/repos/bitcoin/bitcoin/issues/24435",
          "repository_url": "https://api.github.com/repos/bitcoin/bitcoin",
          "labels_url": "https://api.github.com/repos/bitcoin/bitcoin/issues/24435/labels%7B/name%7D",
          "comments_url": "https://api.github.com/repos/bitcoin/bitcoin/issues/24435/comments",
          "events_url": "https://api.github.com/repos/bitcoin/bitcoin/issues/24435/events",
          "html_url": "https://github.com/bitcoin/bitcoin/pull/24435",
          "number": 24435,
          "state": "closed",
          "state_reason": null,
          "title": "test: Refactor subtree exclusion in lint tests",
          "body": "refs #17413. \r\n\r\nThere are several commonly excluded directories in the lint tests. Rather than having these subtrees be copied in each of these test files, they can be pulled from a shared list so that any future changes to these exclusions can be isolated to one location rather than spread out among many files. \r\n\r\nThis first commit is a proof of concept demonstrating how this can be applied. I saw that we currently have a list of ignored words in a text file used for the spelling lint test, so I followed that general idea and moved the list of ignored subtrees into a text file as well. This can be read and parsed into whatever format we want. The extended-lint-cppcheck.sh and lint-includes.sh tests use a regex with just these directories, but some of the examples in the linked issue have additional unique exclusions so the solution needs to be able to support that.\r\n\r\nI wanted to create an early WIP pull request with a proof of concept to present the idea for discussion. There are several other areas that this list of subtrees can be used, outlined in the ref'd issue.",
          "user": {
            "login": "maxraustin",
            "id": 22504085,
            "node_id": "MDQ6VXNlcjIyNTA0MDg1",
            "avatar_url": "https://avatars.githubusercontent.com/u/22504085?v=4",
            "gravatar_id": "",
            "url": "https://api.github.com/users/maxraustin",
            "html_url": "https://github.com/maxraustin",
            "followers_url": "https://api.github.com/users/maxraustin/followers",
            "following_url": "https://api.github.com/users/maxraustin/following%7B/other_user%7D",
            "gists_url": "https://api.github.com/users/maxraustin/gists%7B/gist_id%7D",
            "starred_url": "https://api.github.com/users/maxraustin/starred%7B/owner%7D%7B/repo%7D",
            "subscriptions_url": "https://api.github.com/users/maxraustin/subscriptions",
            "organizations_url": "https://api.github.com/users/maxraustin/orgs",
            "repos_url": "https://api.github.com/users/maxraustin/repos",
            "events_url": "https://api.github.com/users/maxraustin/events%7B/privacy%7D",
            "received_events_url": "https://api.github.com/users/maxraustin/received_events",
            "type": "User",
            "site_admin": false
          },
          "labels": [
            {
              "id": 62963516,
              "node_id": "MDU6TGFiZWw2Mjk2MzUxNg==",
              "url": "https://api.github.com/repos/bitcoin/bitcoin/labels/Tests",
              "name": "Tests",
              "color": "d4c5f9",
              "default": false
            },
            {
              "id": 749416508,
              "node_id": "MDU6TGFiZWw3NDk0MTY1MDg=",
              "url": "https://api.github.com/repos/bitcoin/bitcoin/labels/Up%20for%20grabs",
              "name": "Up for grabs",
              "color": "99a810",
              "default": false
            },
            {
              "id": 955867938,
              "node_id": "MDU6TGFiZWw5NTU4Njc5Mzg=",
              "url": "https://api.github.com/repos/bitcoin/bitcoin/labels/Needs%20rebase",
              "name": "Needs rebase",
              "description": "",
              "color": "cccccc",
              "default": false
            }
          ],
          "assignees": [],
          "author_association": "NONE",
          "locked": false,
          "comments": 9,
          "pull_request": {
            "url": "https://api.github.com/repos/bitcoin/bitcoin/pulls/24435",
            "html_url": "https://github.com/bitcoin/bitcoin/pull/24435",
            "diff_url": "https://github.com/bitcoin/bitcoin/pull/24435.diff",
            "patch_url": "https://github.com/bitcoin/bitcoin/pull/24435.patch"
          },
          "closed_at": "2022-10-12T19:07:16Z",
          "created_at": "2022-02-24T01:09:28Z",
          "updated_at": "2022-10-21T08:48:30Z"
        },
        "type": "issue"
      }
    },
    {
      "event": "referenced",
      "id": 6302505926,
      "node_id": "REFE_lADOABII584e_MBYzwAAAAF3qJvG",
      "url": "https://api.github.com/repos/bitcoin/bitcoin/issues/events/6302505926",
      "actor": {
        "login": "maxraustin",
        "id": 22504085,
        "node_id": "MDQ6VXNlcjIyNTA0MDg1",
        "avatar_url": "https://avatars.githubusercontent.com/u/22504085?v=4",
        "gravatar_id": "",
        "url": "https://api.github.com/users/maxraustin",
        "html_url": "https://github.com/maxraustin",
        "followers_url": "https://api.github.com/users/maxraustin/followers",
        "following_url": "https://api.github.com/users/maxraustin/following%7B/other_user%7D",
        "gists_url": "https://api.github.com/users/maxraustin/gists%7B/gist_id%7D",
        "starred_url": "https://api.github.com/users/maxraustin/starred%7B/owner%7D%7B/repo%7D",
        "subscriptions_url": "https://api.github.com/users/maxraustin/subscriptions",
        "organizations_url": "https://api.github.com/users/maxraustin/orgs",
        "repos_url": "https://api.github.com/users/maxraustin/repos",
        "events_url": "https://api.github.com/users/maxraustin/events%7B/privacy%7D",
        "received_events_url": "https://api.github.com/users/maxraustin/received_events",
        "type": "User",
        "site_admin": false
      },
      "commit_id": "a47b81708f0e99b2e587064b482001e7f75bbc29",
      "commit_url": "https://api.github.com/repos/maxraustin/bitcoin/commits/a47b81708f0e99b2e587064b482001e7f75bbc29",
      "created_at": "2022-03-24T20:43:22Z"
    },
    {
      "event": "commented",
      "id": 1099970488,
      "node_id": "IC_kwDOABII585BkDe4",
      "url": "https://api.github.com/repos/bitcoin/bitcoin/issues/comments/1099970488",
      "actor": {
        "login": "laanwj",
        "id": 126646,
        "node_id": "MDQ6VXNlcjEyNjY0Ng==",
        "avatar_url": "https://avatars.githubusercontent.com/u/126646?v=4",
        "gravatar_id": "",
        "url": "https://api.github.com/users/laanwj",
        "html_url": "https://github.com/laanwj",
        "followers_url": "https://api.github.com/users/laanwj/followers",
        "following_url": "https://api.github.com/users/laanwj/following%7B/other_user%7D",
        "gists_url": "https://api.github.com/users/laanwj/gists%7B/gist_id%7D",
        "starred_url": "https://api.github.com/users/laanwj/starred%7B/owner%7D%7B/repo%7D",
        "subscriptions_url": "https://api.github.com/users/laanwj/subscriptions",
        "organizations_url": "https://api.github.com/users/laanwj/orgs",
        "repos_url": "https://api.github.com/users/laanwj/repos",
        "events_url": "https://api.github.com/users/laanwj/events%7B/privacy%7D",
        "received_events_url": "https://api.github.com/users/laanwj/received_events",
        "type": "User",
        "site_admin": false
      },
      "commit_id": null,
      "commit_url": null,
      "created_at": "2022-04-15T08:44:47Z",
      "updated_at": "2022-04-15T08:44:47Z",
      "author_association": "MEMBER",
      "body": "I expect this is going to be slightly easier to do after #24783. At least the linters are uniformly Python after this, so there's no need for a zillion different implementations of directory exclusion list logic.",
      "user": {
        "login": "laanwj",
        "id": 126646,
        "node_id": "MDQ6VXNlcjEyNjY0Ng==",
        "avatar_url": "https://avatars.githubusercontent.com/u/126646?v=4",
        "gravatar_id": "",
        "url": "https://api.github.com/users/laanwj",
        "html_url": "https://github.com/laanwj",
        "followers_url": "https://api.github.com/users/laanwj/followers",
        "following_url": "https://api.github.com/users/laanwj/following%7B/other_user%7D",
        "gists_url": "https://api.github.com/users/laanwj/gists%7B/gist_id%7D",
        "starred_url": "https://api.github.com/users/laanwj/starred%7B/owner%7D%7B/repo%7D",
        "subscriptions_url": "https://api.github.com/users/laanwj/subscriptions",
        "organizations_url": "https://api.github.com/users/laanwj/orgs",
        "repos_url": "https://api.github.com/users/laanwj/repos",
        "events_url": "https://api.github.com/users/laanwj/events%7B/privacy%7D",
        "received_events_url": "https://api.github.com/users/laanwj/received_events",
        "type": "User",
        "site_admin": false
      },
      "html_url": "https://github.com/bitcoin/bitcoin/issues/17413#issuecomment-1099970488",
      "issue_url": "https://api.github.com/repos/bitcoin/bitcoin/issues/17413"
    },
    {
      "event": "commented",
      "id": 1121091912,
      "node_id": "IC_kwDOABII585C0oFI",
      "url": "https://api.github.com/repos/bitcoin/bitcoin/issues/comments/1121091912",
      "actor": {
        "login": "laanwj",
        "id": 126646,
        "node_id": "MDQ6VXNlcjEyNjY0Ng==",
        "avatar_url": "https://avatars.githubusercontent.com/u/126646?v=4",
        "gravatar_id": "",
        "url": "https://api.github.com/users/laanwj",
        "html_url": "https://github.com/laanwj",
        "followers_url": "https://api.github.com/users/laanwj/followers",
        "following_url": "https://api.github.com/users/laanwj/following%7B/other_user%7D",
        "gists_url": "https://api.github.com/users/laanwj/gists%7B/gist_id%7D",
        "starred_url": "https://api.github.com/users/laanwj/starred%7B/owner%7D%7B/repo%7D",
        "subscriptions_url": "https://api.github.com/users/laanwj/subscriptions",
        "organizations_url": "https://api.github.com/users/laanwj/orgs",
        "repos_url": "https://api.github.com/users/laanwj/repos",
        "events_url": "https://api.github.com/users/laanwj/events%7B/privacy%7D",
        "received_events_url": "https://api.github.com/users/laanwj/received_events",
        "type": "User",
        "site_admin": false
      },
      "commit_id": null,
      "commit_url": null,
      "created_at": "2022-05-09T13:18:43Z",
      "updated_at": "2022-05-09T13:18:43Z",
      "author_association": "MEMBER",
      "body": "Updated the OP after #24783. I think it would make sense to converge on a `EXCLUDED_DIRS` list; many scripts were converted to this approach from using a regexp.",
      "user": {
        "login": "laanwj",
        "id": 126646,
        "node_id": "MDQ6VXNlcjEyNjY0Ng==",
        "avatar_url": "https://avatars.githubusercontent.com/u/126646?v=4",
        "gravatar_id": "",
        "url": "https://api.github.com/users/laanwj",
        "html_url": "https://github.com/laanwj",
        "followers_url": "https://api.github.com/users/laanwj/followers",
        "following_url": "https://api.github.com/users/laanwj/following%7B/other_user%7D",
        "gists_url": "https://api.github.com/users/laanwj/gists%7B/gist_id%7D",
        "starred_url": "https://api.github.com/users/laanwj/starred%7B/owner%7D%7B/repo%7D",
        "subscriptions_url": "https://api.github.com/users/laanwj/subscriptions",
        "organizations_url": "https://api.github.com/users/laanwj/orgs",
        "repos_url": "https://api.github.com/users/laanwj/repos",
        "events_url": "https://api.github.com/users/laanwj/events%7B/privacy%7D",
        "received_events_url": "https://api.github.com/users/laanwj/received_events",
        "type": "User",
        "site_admin": false
      },
      "html_url": "https://github.com/bitcoin/bitcoin/issues/17413#issuecomment-1121091912",
      "issue_url": "https://api.github.com/repos/bitcoin/bitcoin/issues/17413"
    }
  ]
}