{
  "type": "issue",
  "issue": {
    "id": 639290532,
    "node_id": "MDU6SXNzdWU2MzkyOTA1MzI=",
    "url": "https://api.github.com/repos/bitcoin/bitcoin/issues/19291",
    "repository_url": "https://api.github.com/repos/bitcoin/bitcoin",
    "labels_url": "https://api.github.com/repos/bitcoin/bitcoin/issues/19291/labels%7B/name%7D",
    "comments_url": "https://api.github.com/repos/bitcoin/bitcoin/issues/19291/comments",
    "events_url": "https://api.github.com/repos/bitcoin/bitcoin/issues/19291/events",
    "html_url": "https://github.com/bitcoin/bitcoin/issues/19291",
    "number": 19291,
    "state": "closed",
    "state_reason": "completed",
    "title": "gui: Pruning keeps getting reenabled",
    "body": "<!-- This issue tracker is only for technical issues related to Bitcoin Core.\r\n\r\nGeneral bitcoin questions and/or support requests are best directed to the Bitcoin StackExchange at https://bitcoin.stackexchange.com.\r\n\r\nFor reporting security issues, please read instructions at https://bitcoincore.org/en/contact/.\r\n\r\nIf the node is \"stuck\" during sync or giving \"block checksum mismatch\" errors, please ensure your hardware is stable by running memtest and observe CPU temperature with a load-test tool such as linpack before creating an issue! -->\r\n\r\n<!-- Describe the issue -->\r\n\r\n**Expected behavior**\r\n\r\nI want my Bitcoin Core node to *never* prune the blockchain. \r\n\r\n<!--- What behavior did you expect? -->\r\n\r\n**Actual behavior**\r\n\r\nOccasionally, Bitcoin Core will enable the pruning option. This causes it to prune the blockchain, and forces me to resync when I disable it.  I started seeing this in 0.19 and it still persists in 0.20. It may also be related to my moving to a new computer which upgraded me to Catalina. I'm not really sure.\r\n  \r\n<!--- What was the actual behavior (provide screenshots if the issue is GUI-related)? -->\r\n\r\n**To reproduce**\r\n\r\nI think it might be related to the fact that my data directory is on an external hard drive. If I start Bitcoin Core before mounting in the drive, it will popup the dialog as if it is my first time starting Bitcoin Core, asking me where to store the block chain. In the dialog, the datadir location is defaulted to put it in the location where my external hard drive mount would be, like `/Volumes/Drive/Bitcoin`. If I then mount the drive and choose next in the dialog, the sync works, but pruning is enabled and it immediately prunes the blockchain. I can go into the settings at this point and uncheck pruning, but at that point, it requires a full resync. And it ends up being enabled again the next time I start Bitcoin Core. Needless to say, this is extremely annoying and makes Bitcoin Core almost unusable for me.\r\n\r\nI even tried setting `prune=0` in my bitcoin.conf file, which is on the external drive, but it has no effect. \r\n\r\nI suspect what is happening is that pruning is enabled by default, and since it can't find my datadir when it launches, Bitcoin Core thinks that it is doing a fresh sync and sets it to true. This setting is then not updated, even from the bitcoin.conf (which itself lives on the external drive) once that datadir is loaded. The fact that it remembers where the datadir is implies that some settings are stored locally, though I can't really tell where. Is it possible for me to store my no-prune setting locally as well? \r\n\r\nNote that I used to do this exact workflow of opening Bitcoin Core before mounting my drive all the time in previous node versions and macOS versions, and it never enabled pruning on me. \r\n\r\n(as an aside, I feel like Bitcoin Core should be smart enough to recognize that a datadir in `/Volumes` on macOS is an external drive, even when it doesn't currently exist). \r\n\r\n<!--- How reliably can you reproduce the issue, what are the steps to do so? -->\r\n\r\n**System information**\r\n\r\n<!-- What version of Bitcoin Core are you using, where did you get it (website, self-compiled, etc)? -->\r\n\r\nBitcoin Core 0.20.0 macOS GUI version. Downloaded from https://bitcoincore.org/. \r\n\r\n<!-- What type of machine are you observing the error on (OS/CPU and disk type)? -->\r\n\r\nmacOS Catalina 10.15.5.\r\n\r\n<!-- GUI-related issue? What is your operating system and its version? If Linux, what is your desktop environment and graphical shell? -->\r\n\r\n<!-- Any extra information that might be useful in the debugging process. -->\r\n<!--- This is normally the contents of a `debug.log` or `config.log` file. Raw text or a link to a pastebin type site are preferred. -->\r\n\r\nContents of `/Volume/Drive/Bitcoin/bitcoin.conf`:\r\n\r\n```\r\nserver=1\r\ndbcache=4096\r\nrpcport=8332\r\nprune=0\r\n```",
    "user": {
      "login": "dummy65839",
      "id": 66979985,
      "node_id": "MDQ6VXNlcjY2OTc5OTg1",
      "avatar_url": "https://avatars.githubusercontent.com/u/66979985?v=4",
      "gravatar_id": "",
      "url": "https://api.github.com/users/dummy65839",
      "html_url": "https://github.com/dummy65839",
      "followers_url": "https://api.github.com/users/dummy65839/followers",
      "following_url": "https://api.github.com/users/dummy65839/following%7B/other_user%7D",
      "gists_url": "https://api.github.com/users/dummy65839/gists%7B/gist_id%7D",
      "starred_url": "https://api.github.com/users/dummy65839/starred%7B/owner%7D%7B/repo%7D",
      "subscriptions_url": "https://api.github.com/users/dummy65839/subscriptions",
      "organizations_url": "https://api.github.com/users/dummy65839/orgs",
      "repos_url": "https://api.github.com/users/dummy65839/repos",
      "events_url": "https://api.github.com/users/dummy65839/events%7B/privacy%7D",
      "received_events_url": "https://api.github.com/users/dummy65839/received_events",
      "type": "User",
      "site_admin": false
    },
    "labels": [
      {
        "id": 64585,
        "node_id": "MDU6TGFiZWw2NDU4NQ==",
        "url": "https://api.github.com/repos/bitcoin/bitcoin/labels/Bug",
        "name": "Bug",
        "color": "FBBAAB",
        "default": false
      },
      {
        "id": 135946,
        "node_id": "MDU6TGFiZWwxMzU5NDY=",
        "url": "https://api.github.com/repos/bitcoin/bitcoin/labels/GUI",
        "name": "GUI",
        "color": "02d7e1",
        "default": false
      }
    ],
    "assignees": [],
    "author_association": "NONE",
    "locked": false,
    "comments": 9,
    "closed_at": "2023-02-07T13:30:44Z",
    "created_at": "2020-06-16T00:54:38Z",
    "updated_at": "2023-02-07T13:30:44Z"
  },
  "events": [
    {
      "event": "labeled",
      "id": 3446768750,
      "node_id": "MDEyOkxhYmVsZWRFdmVudDM0NDY3Njg3NTA=",
      "url": "https://api.github.com/repos/bitcoin/bitcoin/issues/events/3446768750",
      "actor": {
        "login": "dummy65839",
        "id": 66979985,
        "node_id": "MDQ6VXNlcjY2OTc5OTg1",
        "avatar_url": "https://avatars.githubusercontent.com/u/66979985?v=4",
        "gravatar_id": "",
        "url": "https://api.github.com/users/dummy65839",
        "html_url": "https://github.com/dummy65839",
        "followers_url": "https://api.github.com/users/dummy65839/followers",
        "following_url": "https://api.github.com/users/dummy65839/following%7B/other_user%7D",
        "gists_url": "https://api.github.com/users/dummy65839/gists%7B/gist_id%7D",
        "starred_url": "https://api.github.com/users/dummy65839/starred%7B/owner%7D%7B/repo%7D",
        "subscriptions_url": "https://api.github.com/users/dummy65839/subscriptions",
        "organizations_url": "https://api.github.com/users/dummy65839/orgs",
        "repos_url": "https://api.github.com/users/dummy65839/repos",
        "events_url": "https://api.github.com/users/dummy65839/events%7B/privacy%7D",
        "received_events_url": "https://api.github.com/users/dummy65839/received_events",
        "type": "User",
        "site_admin": false
      },
      "commit_id": null,
      "commit_url": null,
      "created_at": "2020-06-16T00:54:38Z",
      "label": {
        "name": "Bug",
        "color": "FBBAAB"
      }
    },
    {
      "event": "commented",
      "id": 644471698,
      "node_id": "MDEyOklzc3VlQ29tbWVudDY0NDQ3MTY5OA==",
      "url": "https://api.github.com/repos/bitcoin/bitcoin/issues/comments/644471698",
      "actor": {
        "login": "sipa",
        "id": 548488,
        "node_id": "MDQ6VXNlcjU0ODQ4OA==",
        "avatar_url": "https://avatars.githubusercontent.com/u/548488?v=4",
        "gravatar_id": "",
        "url": "https://api.github.com/users/sipa",
        "html_url": "https://github.com/sipa",
        "followers_url": "https://api.github.com/users/sipa/followers",
        "following_url": "https://api.github.com/users/sipa/following%7B/other_user%7D",
        "gists_url": "https://api.github.com/users/sipa/gists%7B/gist_id%7D",
        "starred_url": "https://api.github.com/users/sipa/starred%7B/owner%7D%7B/repo%7D",
        "subscriptions_url": "https://api.github.com/users/sipa/subscriptions",
        "organizations_url": "https://api.github.com/users/sipa/orgs",
        "repos_url": "https://api.github.com/users/sipa/repos",
        "events_url": "https://api.github.com/users/sipa/events%7B/privacy%7D",
        "received_events_url": "https://api.github.com/users/sipa/received_events",
        "type": "User",
        "site_admin": false
      },
      "commit_id": null,
      "commit_url": null,
      "created_at": "2020-06-16T01:12:57Z",
      "updated_at": "2020-06-16T01:12:57Z",
      "author_association": "MEMBER",
      "body": "What does \"Bitcoin Core will enable the pruning option\" mean? How do you observe that it is in fact pruning?\r\n\r\nNo setting should ever change automatically.",
      "user": {
        "login": "sipa",
        "id": 548488,
        "node_id": "MDQ6VXNlcjU0ODQ4OA==",
        "avatar_url": "https://avatars.githubusercontent.com/u/548488?v=4",
        "gravatar_id": "",
        "url": "https://api.github.com/users/sipa",
        "html_url": "https://github.com/sipa",
        "followers_url": "https://api.github.com/users/sipa/followers",
        "following_url": "https://api.github.com/users/sipa/following%7B/other_user%7D",
        "gists_url": "https://api.github.com/users/sipa/gists%7B/gist_id%7D",
        "starred_url": "https://api.github.com/users/sipa/starred%7B/owner%7D%7B/repo%7D",
        "subscriptions_url": "https://api.github.com/users/sipa/subscriptions",
        "organizations_url": "https://api.github.com/users/sipa/orgs",
        "repos_url": "https://api.github.com/users/sipa/repos",
        "events_url": "https://api.github.com/users/sipa/events%7B/privacy%7D",
        "received_events_url": "https://api.github.com/users/sipa/received_events",
        "type": "User",
        "site_admin": false
      },
      "html_url": "https://github.com/bitcoin/bitcoin/issues/19291#issuecomment-644471698",
      "issue_url": "https://api.github.com/repos/bitcoin/bitcoin/issues/19291"
    },
    {
      "event": "commented",
      "id": 644474370,
      "node_id": "MDEyOklzc3VlQ29tbWVudDY0NDQ3NDM3MA==",
      "url": "https://api.github.com/repos/bitcoin/bitcoin/issues/comments/644474370",
      "actor": {
        "login": "achow101",
        "id": 3782274,
        "node_id": "MDQ6VXNlcjM3ODIyNzQ=",
        "avatar_url": "https://avatars.githubusercontent.com/u/3782274?v=4",
        "gravatar_id": "",
        "url": "https://api.github.com/users/achow101",
        "html_url": "https://github.com/achow101",
        "followers_url": "https://api.github.com/users/achow101/followers",
        "following_url": "https://api.github.com/users/achow101/following%7B/other_user%7D",
        "gists_url": "https://api.github.com/users/achow101/gists%7B/gist_id%7D",
        "starred_url": "https://api.github.com/users/achow101/starred%7B/owner%7D%7B/repo%7D",
        "subscriptions_url": "https://api.github.com/users/achow101/subscriptions",
        "organizations_url": "https://api.github.com/users/achow101/orgs",
        "repos_url": "https://api.github.com/users/achow101/repos",
        "events_url": "https://api.github.com/users/achow101/events%7B/privacy%7D",
        "received_events_url": "https://api.github.com/users/achow101/received_events",
        "type": "User",
        "site_admin": false
      },
      "commit_id": null,
      "commit_url": null,
      "created_at": "2020-06-16T01:22:39Z",
      "updated_at": "2020-06-16T01:22:39Z",
      "author_association": "MEMBER",
      "body": "\"Smart\" pruning was introduced to the welcome screen in #16714. If the welcome screen is shown, it will enable pruning if there it believes there is not enough space for the blockchain. This pruning setting is stored in the Qt settings which is stored independently from the datadir and is platform specific. The welcome screen will be shown if the configured datadir does not exist and wasn't specified in the command line options.\r\n\r\nIf you add the ` -datadir=/Volume/Drive/Bitcoin` to the shortcut that you use to launch Bitcoin Core, it should just throw an error if the datadir isn't mounted and the welcome screen won't be shown so you pruning won't be enabled.",
      "user": {
        "login": "achow101",
        "id": 3782274,
        "node_id": "MDQ6VXNlcjM3ODIyNzQ=",
        "avatar_url": "https://avatars.githubusercontent.com/u/3782274?v=4",
        "gravatar_id": "",
        "url": "https://api.github.com/users/achow101",
        "html_url": "https://github.com/achow101",
        "followers_url": "https://api.github.com/users/achow101/followers",
        "following_url": "https://api.github.com/users/achow101/following%7B/other_user%7D",
        "gists_url": "https://api.github.com/users/achow101/gists%7B/gist_id%7D",
        "starred_url": "https://api.github.com/users/achow101/starred%7B/owner%7D%7B/repo%7D",
        "subscriptions_url": "https://api.github.com/users/achow101/subscriptions",
        "organizations_url": "https://api.github.com/users/achow101/orgs",
        "repos_url": "https://api.github.com/users/achow101/repos",
        "events_url": "https://api.github.com/users/achow101/events%7B/privacy%7D",
        "received_events_url": "https://api.github.com/users/achow101/received_events",
        "type": "User",
        "site_admin": false
      },
      "html_url": "https://github.com/bitcoin/bitcoin/issues/19291#issuecomment-644474370",
      "issue_url": "https://api.github.com/repos/bitcoin/bitcoin/issues/19291"
    },
    {
      "event": "commented",
      "id": 644565957,
      "node_id": "MDEyOklzc3VlQ29tbWVudDY0NDU2NTk1Nw==",
      "url": "https://api.github.com/repos/bitcoin/bitcoin/issues/comments/644565957",
      "actor": {
        "login": "dummy65839",
        "id": 66979985,
        "node_id": "MDQ6VXNlcjY2OTc5OTg1",
        "avatar_url": "https://avatars.githubusercontent.com/u/66979985?v=4",
        "gravatar_id": "",
        "url": "https://api.github.com/users/dummy65839",
        "html_url": "https://github.com/dummy65839",
        "followers_url": "https://api.github.com/users/dummy65839/followers",
        "following_url": "https://api.github.com/users/dummy65839/following%7B/other_user%7D",
        "gists_url": "https://api.github.com/users/dummy65839/gists%7B/gist_id%7D",
        "starred_url": "https://api.github.com/users/dummy65839/starred%7B/owner%7D%7B/repo%7D",
        "subscriptions_url": "https://api.github.com/users/dummy65839/subscriptions",
        "organizations_url": "https://api.github.com/users/dummy65839/orgs",
        "repos_url": "https://api.github.com/users/dummy65839/repos",
        "events_url": "https://api.github.com/users/dummy65839/events%7B/privacy%7D",
        "received_events_url": "https://api.github.com/users/dummy65839/received_events",
        "type": "User",
        "site_admin": false
      },
      "commit_id": null,
      "commit_url": null,
      "created_at": "2020-06-16T06:44:51Z",
      "updated_at": "2020-06-16T06:45:03Z",
      "author_association": "NONE",
      "body": "> What does \"Bitcoin Core will enable the pruning option\" mean? How do you observe that it is in fact pruning?\r\n\r\nI observe it in the debug log, as well as by the fact that the option becomes checked in the settings. \r\n\r\n> If you add the -datadir=/Volume/Drive/Bitcoin to the shortcut that you use to launch Bitcoin Core, it should just throw an error if the datadir isn't mounted and the welcome screen won't be shown so you pruning won't be enabled.\r\n\r\nI just launch the .app GUI on macOS. How can I add the option to that? ",
      "user": {
        "login": "dummy65839",
        "id": 66979985,
        "node_id": "MDQ6VXNlcjY2OTc5OTg1",
        "avatar_url": "https://avatars.githubusercontent.com/u/66979985?v=4",
        "gravatar_id": "",
        "url": "https://api.github.com/users/dummy65839",
        "html_url": "https://github.com/dummy65839",
        "followers_url": "https://api.github.com/users/dummy65839/followers",
        "following_url": "https://api.github.com/users/dummy65839/following%7B/other_user%7D",
        "gists_url": "https://api.github.com/users/dummy65839/gists%7B/gist_id%7D",
        "starred_url": "https://api.github.com/users/dummy65839/starred%7B/owner%7D%7B/repo%7D",
        "subscriptions_url": "https://api.github.com/users/dummy65839/subscriptions",
        "organizations_url": "https://api.github.com/users/dummy65839/orgs",
        "repos_url": "https://api.github.com/users/dummy65839/repos",
        "events_url": "https://api.github.com/users/dummy65839/events%7B/privacy%7D",
        "received_events_url": "https://api.github.com/users/dummy65839/received_events",
        "type": "User",
        "site_admin": false
      },
      "html_url": "https://github.com/bitcoin/bitcoin/issues/19291#issuecomment-644565957",
      "issue_url": "https://api.github.com/repos/bitcoin/bitcoin/issues/19291"
    },
    {
      "event": "commented",
      "id": 644713755,
      "node_id": "MDEyOklzc3VlQ29tbWVudDY0NDcxMzc1NQ==",
      "url": "https://api.github.com/repos/bitcoin/bitcoin/issues/comments/644713755",
      "actor": {
        "login": "ryanofsky",
        "id": 7133040,
        "node_id": "MDQ6VXNlcjcxMzMwNDA=",
        "avatar_url": "https://avatars.githubusercontent.com/u/7133040?v=4",
        "gravatar_id": "",
        "url": "https://api.github.com/users/ryanofsky",
        "html_url": "https://github.com/ryanofsky",
        "followers_url": "https://api.github.com/users/ryanofsky/followers",
        "following_url": "https://api.github.com/users/ryanofsky/following%7B/other_user%7D",
        "gists_url": "https://api.github.com/users/ryanofsky/gists%7B/gist_id%7D",
        "starred_url": "https://api.github.com/users/ryanofsky/starred%7B/owner%7D%7B/repo%7D",
        "subscriptions_url": "https://api.github.com/users/ryanofsky/subscriptions",
        "organizations_url": "https://api.github.com/users/ryanofsky/orgs",
        "repos_url": "https://api.github.com/users/ryanofsky/repos",
        "events_url": "https://api.github.com/users/ryanofsky/events%7B/privacy%7D",
        "received_events_url": "https://api.github.com/users/ryanofsky/received_events",
        "type": "User",
        "site_admin": false
      },
      "commit_id": null,
      "commit_url": null,
      "created_at": "2020-06-16T11:49:25Z",
      "updated_at": "2020-06-16T11:55:30Z",
      "author_association": "CONTRIBUTOR",
      "body": "> I just launch the .app GUI on macOS. How can I add the option to that?\r\n\r\nHaven't tried, but googling turned up this https://superuser.com/questions/16750/how-can-i-run-an-application-with-command-line-arguments-in-mac-os\r\n\r\nThis appears to be a real bug. Thank you for taking the time to report this! \r\n\r\nDuring startup, Intro::showIfNeeded will be called to show the intro if the datadir doesn't exist. The Intro dialog will check or uncheck the prune checkbox automatically depending on how much disk space it thinks is free.\r\n\r\n> If I start Bitcoin Core before mounting in the drive, it will popup the dialog as if it is my first time starting Bitcoin Core,\r\n\r\n**If you manually uncheck the pruning checkbox in the intro dialog that pops up when the drive is not mounted you will avoid this problem**, but if you forget to uncheck the pruning box, leaving it checked will enable pruning (setting gets applied with BitcoinApplication::InitializePruneSetting force=true) and overrides the bitcoin.conf setting.\r\n\r\nThere are a few changes we can can make to fix this. One we should probably make is let the bitcoin.conf setting always take precedence, ignoring whether pruning is checked or unchecked in the intro dialog. This would be an improvement because bitcoin.conf already takes precedence over the gui setting in the normal case where bitcoin app is started and the intro dialog doesn't execute. Obviously though, it is not great to show the pruning checkbox in the intro dialog and then ignore it.\r\n\r\nI think a better fix would be to change Intro::showIfNeeded to not show the intro dialog straight away when a gui datadir path is set (QSettings \"strDataDir\" entry exists) and the directory doesn't exist. I think in this case it would be better to show a different dialog \"Error: Bitcoin data directory \"/Volume/Drive/Bitcoin\" does not exist\" with options \"Choose a new data directory\" \"Quit\" to give more clarity about what is going on and give the user a chance to mount the drive and avoid the intro dialog mess.\r\n\r\nAdditionally it would also be good if the intro dialog didn't just check for free disk space in the selected data dir, but also loaded any bitcoin.conf file there to see if it contains a pruning setting. If it does contain a pruning setting it should disable the checkbox and make it unclickable, leaving it checked if automatic pruning is enabled in the bitcoin.conf, unchecked if it is disabled. This is actually partially implemented already. There is currently code to [disable and force check the checkbox](https://github.com/bitcoin/bitcoin/blob/46bdd4b537cbf9a25ce170eb6831c2b092eacbc8/src/qt/intro.cpp#L141-L144) when pruning is explicitly enabled, but no code to disable and force-uncheck the checkbox when it's explicitly disabled, and also no code to read the contents of bitcoin.conf file from the currently selected datadir (right now it is just looking at the command line -prune value).\r\n\r\nNote: #15936 indirectly relates to this bug because it currently changes settings precedence from gui settings < bitcoin.conf settings < command line settings to bitcoin.conf settings < gui settings (settings.json) < command line settings. So with #15936 the GUI setting always overrides the bitcoin.conf setting instead of sometimes overriding it (not inconsistently depending on whether intro dialog executed). #15936 actually makes the bug worse here since the gui setting is wrong in this case, but this can be fixed with changes above, and changing the precendence does have some other benefits I need to write down somewhere, probably https://github.com/bitcoin-core/bitcoin-devwiki/wiki/Settings-design-questions\r\n\r\n\r\n",
      "user": {
        "login": "ryanofsky",
        "id": 7133040,
        "node_id": "MDQ6VXNlcjcxMzMwNDA=",
        "avatar_url": "https://avatars.githubusercontent.com/u/7133040?v=4",
        "gravatar_id": "",
        "url": "https://api.github.com/users/ryanofsky",
        "html_url": "https://github.com/ryanofsky",
        "followers_url": "https://api.github.com/users/ryanofsky/followers",
        "following_url": "https://api.github.com/users/ryanofsky/following%7B/other_user%7D",
        "gists_url": "https://api.github.com/users/ryanofsky/gists%7B/gist_id%7D",
        "starred_url": "https://api.github.com/users/ryanofsky/starred%7B/owner%7D%7B/repo%7D",
        "subscriptions_url": "https://api.github.com/users/ryanofsky/subscriptions",
        "organizations_url": "https://api.github.com/users/ryanofsky/orgs",
        "repos_url": "https://api.github.com/users/ryanofsky/repos",
        "events_url": "https://api.github.com/users/ryanofsky/events%7B/privacy%7D",
        "received_events_url": "https://api.github.com/users/ryanofsky/received_events",
        "type": "User",
        "site_admin": false
      },
      "html_url": "https://github.com/bitcoin/bitcoin/issues/19291#issuecomment-644713755",
      "issue_url": "https://api.github.com/repos/bitcoin/bitcoin/issues/19291"
    },
    {
      "event": "labeled",
      "id": 3450144622,
      "node_id": "MDEyOkxhYmVsZWRFdmVudDM0NTAxNDQ2MjI=",
      "url": "https://api.github.com/repos/bitcoin/bitcoin/issues/events/3450144622",
      "actor": {
        "login": "MarcoFalke",
        "id": 6399679,
        "node_id": "MDQ6VXNlcjYzOTk2Nzk=",
        "avatar_url": "https://avatars.githubusercontent.com/u/6399679?v=4",
        "gravatar_id": "",
        "url": "https://api.github.com/users/MarcoFalke",
        "html_url": "https://github.com/MarcoFalke",
        "followers_url": "https://api.github.com/users/MarcoFalke/followers",
        "following_url": "https://api.github.com/users/MarcoFalke/following%7B/other_user%7D",
        "gists_url": "https://api.github.com/users/MarcoFalke/gists%7B/gist_id%7D",
        "starred_url": "https://api.github.com/users/MarcoFalke/starred%7B/owner%7D%7B/repo%7D",
        "subscriptions_url": "https://api.github.com/users/MarcoFalke/subscriptions",
        "organizations_url": "https://api.github.com/users/MarcoFalke/orgs",
        "repos_url": "https://api.github.com/users/MarcoFalke/repos",
        "events_url": "https://api.github.com/users/MarcoFalke/events%7B/privacy%7D",
        "received_events_url": "https://api.github.com/users/MarcoFalke/received_events",
        "type": "User",
        "site_admin": false
      },
      "commit_id": null,
      "commit_url": null,
      "created_at": "2020-06-16T17:41:53Z",
      "label": {
        "name": "GUI",
        "color": "02d7e1"
      }
    },
    {
      "event": "renamed",
      "id": 3450144881,
      "node_id": "MDE3OlJlbmFtZWRUaXRsZUV2ZW50MzQ1MDE0NDg4MQ==",
      "url": "https://api.github.com/repos/bitcoin/bitcoin/issues/events/3450144881",
      "actor": {
        "login": "MarcoFalke",
        "id": 6399679,
        "node_id": "MDQ6VXNlcjYzOTk2Nzk=",
        "avatar_url": "https://avatars.githubusercontent.com/u/6399679?v=4",
        "gravatar_id": "",
        "url": "https://api.github.com/users/MarcoFalke",
        "html_url": "https://github.com/MarcoFalke",
        "followers_url": "https://api.github.com/users/MarcoFalke/followers",
        "following_url": "https://api.github.com/users/MarcoFalke/following%7B/other_user%7D",
        "gists_url": "https://api.github.com/users/MarcoFalke/gists%7B/gist_id%7D",
        "starred_url": "https://api.github.com/users/MarcoFalke/starred%7B/owner%7D%7B/repo%7D",
        "subscriptions_url": "https://api.github.com/users/MarcoFalke/subscriptions",
        "organizations_url": "https://api.github.com/users/MarcoFalke/orgs",
        "repos_url": "https://api.github.com/users/MarcoFalke/repos",
        "events_url": "https://api.github.com/users/MarcoFalke/events%7B/privacy%7D",
        "received_events_url": "https://api.github.com/users/MarcoFalke/received_events",
        "type": "User",
        "site_admin": false
      },
      "commit_id": null,
      "commit_url": null,
      "created_at": "2020-06-16T17:41:56Z",
      "rename": {
        "from": "Pruning keeps getting reenabled",
        "to": "gui: Pruning keeps getting reenabled"
      }
    },
    {
      "event": "commented",
      "id": 644958772,
      "node_id": "MDEyOklzc3VlQ29tbWVudDY0NDk1ODc3Mg==",
      "url": "https://api.github.com/repos/bitcoin/bitcoin/issues/comments/644958772",
      "actor": {
        "login": "dummy65839",
        "id": 66979985,
        "node_id": "MDQ6VXNlcjY2OTc5OTg1",
        "avatar_url": "https://avatars.githubusercontent.com/u/66979985?v=4",
        "gravatar_id": "",
        "url": "https://api.github.com/users/dummy65839",
        "html_url": "https://github.com/dummy65839",
        "followers_url": "https://api.github.com/users/dummy65839/followers",
        "following_url": "https://api.github.com/users/dummy65839/following%7B/other_user%7D",
        "gists_url": "https://api.github.com/users/dummy65839/gists%7B/gist_id%7D",
        "starred_url": "https://api.github.com/users/dummy65839/starred%7B/owner%7D%7B/repo%7D",
        "subscriptions_url": "https://api.github.com/users/dummy65839/subscriptions",
        "organizations_url": "https://api.github.com/users/dummy65839/orgs",
        "repos_url": "https://api.github.com/users/dummy65839/repos",
        "events_url": "https://api.github.com/users/dummy65839/events%7B/privacy%7D",
        "received_events_url": "https://api.github.com/users/dummy65839/received_events",
        "type": "User",
        "site_admin": false
      },
      "commit_id": null,
      "commit_url": null,
      "created_at": "2020-06-16T19:10:41Z",
      "updated_at": "2020-06-16T19:10:41Z",
      "author_association": "NONE",
      "body": "> I think a better fix would be to change Intro::showIfNeeded to not show the intro dialog straight away when a gui datadir path is set (QSettings \"strDataDir\" entry exists) and the directory doesn't exist. I think in this case it would be better to show a different dialog \"Error: Bitcoin data directory \"/Volume/Drive/Bitcoin\" does not exist\" with options \"Choose a new data directory\" \"Quit\" to give more clarity about what is going on and give the user a chance to mount the drive and avoid the intro dialog mess.\r\n\r\nSo to be clear, is this workflow of loading an existing datadir into the \"new custom data directory\" location *after* Bitcoin Core starts actually supported. It has always worked for me in the past (sans this issue), but maybe there are other bitcoin.conf settings that wouldn't get retroactively changed either?",
      "user": {
        "login": "dummy65839",
        "id": 66979985,
        "node_id": "MDQ6VXNlcjY2OTc5OTg1",
        "avatar_url": "https://avatars.githubusercontent.com/u/66979985?v=4",
        "gravatar_id": "",
        "url": "https://api.github.com/users/dummy65839",
        "html_url": "https://github.com/dummy65839",
        "followers_url": "https://api.github.com/users/dummy65839/followers",
        "following_url": "https://api.github.com/users/dummy65839/following%7B/other_user%7D",
        "gists_url": "https://api.github.com/users/dummy65839/gists%7B/gist_id%7D",
        "starred_url": "https://api.github.com/users/dummy65839/starred%7B/owner%7D%7B/repo%7D",
        "subscriptions_url": "https://api.github.com/users/dummy65839/subscriptions",
        "organizations_url": "https://api.github.com/users/dummy65839/orgs",
        "repos_url": "https://api.github.com/users/dummy65839/repos",
        "events_url": "https://api.github.com/users/dummy65839/events%7B/privacy%7D",
        "received_events_url": "https://api.github.com/users/dummy65839/received_events",
        "type": "User",
        "site_admin": false
      },
      "html_url": "https://github.com/bitcoin/bitcoin/issues/19291#issuecomment-644958772",
      "issue_url": "https://api.github.com/repos/bitcoin/bitcoin/issues/19291"
    },
    {
      "event": "commented",
      "id": 644981455,
      "node_id": "MDEyOklzc3VlQ29tbWVudDY0NDk4MTQ1NQ==",
      "url": "https://api.github.com/repos/bitcoin/bitcoin/issues/comments/644981455",
      "actor": {
        "login": "ryanofsky",
        "id": 7133040,
        "node_id": "MDQ6VXNlcjcxMzMwNDA=",
        "avatar_url": "https://avatars.githubusercontent.com/u/7133040?v=4",
        "gravatar_id": "",
        "url": "https://api.github.com/users/ryanofsky",
        "html_url": "https://github.com/ryanofsky",
        "followers_url": "https://api.github.com/users/ryanofsky/followers",
        "following_url": "https://api.github.com/users/ryanofsky/following%7B/other_user%7D",
        "gists_url": "https://api.github.com/users/ryanofsky/gists%7B/gist_id%7D",
        "starred_url": "https://api.github.com/users/ryanofsky/starred%7B/owner%7D%7B/repo%7D",
        "subscriptions_url": "https://api.github.com/users/ryanofsky/subscriptions",
        "organizations_url": "https://api.github.com/users/ryanofsky/orgs",
        "repos_url": "https://api.github.com/users/ryanofsky/repos",
        "events_url": "https://api.github.com/users/ryanofsky/events%7B/privacy%7D",
        "received_events_url": "https://api.github.com/users/ryanofsky/received_events",
        "type": "User",
        "site_admin": false
      },
      "commit_id": null,
      "commit_url": null,
      "created_at": "2020-06-16T19:59:10Z",
      "updated_at": "2020-06-16T19:59:10Z",
      "author_association": "CONTRIBUTOR",
      "body": "> So to be clear, is this workflow of loading an existing datadir into the \"new custom data directory\" location _after_ Bitcoin Core starts actually supported. It has always worked for me in the past (sans this issue), but maybe there are other bitcoin.conf settings that wouldn't get retroactively changed either?\r\n\r\nIf the question is whether bitcoin.conf settings in the datadir will get applied after choosing the datadir in the intro dialog, the answer is yes. This already works for every setting except the pruning setting, because of the current startup sequence where bitcoin.conf is only first loaded after the intro dialog is closed. The reason pruning is a special case is because we have special code that runs after the intro dialog box is closed and after bitcoin.conf is loaded, that goes back and applies the intro dialog prune checkbox value on top of the bitcoin.conf value, if the intro dialog had been shown. The three fixes I suggested for this are:\r\n\r\n1. Make bitcoin.conf setting always override intro dialog pruning checkbox value if present, by narrowing the special case code mentioned above.\r\n2. Avoid showing the intro dialog altogether when a datadir location is missing, and instead show a \"Data directory not found\" dialog. This way a user who just forgot to mount an external drive isn't blindly thrown into the intro sequence again, unless they actually request to choose a new data location.\r\n3. Fix the pruning checkbox default checked state in the intro dialog to reflect the bitcoin.conf pruning setting in an existing datadir instead of ignoring it.",
      "user": {
        "login": "ryanofsky",
        "id": 7133040,
        "node_id": "MDQ6VXNlcjcxMzMwNDA=",
        "avatar_url": "https://avatars.githubusercontent.com/u/7133040?v=4",
        "gravatar_id": "",
        "url": "https://api.github.com/users/ryanofsky",
        "html_url": "https://github.com/ryanofsky",
        "followers_url": "https://api.github.com/users/ryanofsky/followers",
        "following_url": "https://api.github.com/users/ryanofsky/following%7B/other_user%7D",
        "gists_url": "https://api.github.com/users/ryanofsky/gists%7B/gist_id%7D",
        "starred_url": "https://api.github.com/users/ryanofsky/starred%7B/owner%7D%7B/repo%7D",
        "subscriptions_url": "https://api.github.com/users/ryanofsky/subscriptions",
        "organizations_url": "https://api.github.com/users/ryanofsky/orgs",
        "repos_url": "https://api.github.com/users/ryanofsky/repos",
        "events_url": "https://api.github.com/users/ryanofsky/events%7B/privacy%7D",
        "received_events_url": "https://api.github.com/users/ryanofsky/received_events",
        "type": "User",
        "site_admin": false
      },
      "html_url": "https://github.com/bitcoin/bitcoin/issues/19291#issuecomment-644981455",
      "issue_url": "https://api.github.com/repos/bitcoin/bitcoin/issues/19291"
    },
    {
      "event": "commented",
      "id": 650690885,
      "node_id": "MDEyOklzc3VlQ29tbWVudDY1MDY5MDg4NQ==",
      "url": "https://api.github.com/repos/bitcoin/bitcoin/issues/comments/650690885",
      "actor": {
        "login": "141",
        "id": 2817865,
        "node_id": "MDQ6VXNlcjI4MTc4NjU=",
        "avatar_url": "https://avatars.githubusercontent.com/u/2817865?v=4",
        "gravatar_id": "",
        "url": "https://api.github.com/users/141",
        "html_url": "https://github.com/141",
        "followers_url": "https://api.github.com/users/141/followers",
        "following_url": "https://api.github.com/users/141/following%7B/other_user%7D",
        "gists_url": "https://api.github.com/users/141/gists%7B/gist_id%7D",
        "starred_url": "https://api.github.com/users/141/starred%7B/owner%7D%7B/repo%7D",
        "subscriptions_url": "https://api.github.com/users/141/subscriptions",
        "organizations_url": "https://api.github.com/users/141/orgs",
        "repos_url": "https://api.github.com/users/141/repos",
        "events_url": "https://api.github.com/users/141/events%7B/privacy%7D",
        "received_events_url": "https://api.github.com/users/141/received_events",
        "type": "User",
        "site_admin": false
      },
      "commit_id": null,
      "commit_url": null,
      "created_at": "2020-06-28T04:14:33Z",
      "updated_at": "2020-06-28T04:14:33Z",
      "author_association": "NONE",
      "body": "For unusual circumstances it needs to look at the free space it has in it's block storage directory, since pruning loves to start up overriding the conf file. Thankfully, getting the guisettings to popup was the fix that worked.",
      "user": {
        "login": "141",
        "id": 2817865,
        "node_id": "MDQ6VXNlcjI4MTc4NjU=",
        "avatar_url": "https://avatars.githubusercontent.com/u/2817865?v=4",
        "gravatar_id": "",
        "url": "https://api.github.com/users/141",
        "html_url": "https://github.com/141",
        "followers_url": "https://api.github.com/users/141/followers",
        "following_url": "https://api.github.com/users/141/following%7B/other_user%7D",
        "gists_url": "https://api.github.com/users/141/gists%7B/gist_id%7D",
        "starred_url": "https://api.github.com/users/141/starred%7B/owner%7D%7B/repo%7D",
        "subscriptions_url": "https://api.github.com/users/141/subscriptions",
        "organizations_url": "https://api.github.com/users/141/orgs",
        "repos_url": "https://api.github.com/users/141/repos",
        "events_url": "https://api.github.com/users/141/events%7B/privacy%7D",
        "received_events_url": "https://api.github.com/users/141/received_events",
        "type": "User",
        "site_admin": false
      },
      "html_url": "https://github.com/bitcoin/bitcoin/issues/19291#issuecomment-650690885",
      "issue_url": "https://api.github.com/repos/bitcoin/bitcoin/issues/19291"
    },
    {
      "event": "referenced",
      "id": 3942777197,
      "node_id": "MDE1OlJlZmVyZW5jZWRFdmVudDM5NDI3NzcxOTc=",
      "url": "https://api.github.com/repos/bitcoin/bitcoin/issues/events/3942777197",
      "actor": {
        "login": "jasonbcox",
        "id": 602513,
        "node_id": "MDQ6VXNlcjYwMjUxMw==",
        "avatar_url": "https://avatars.githubusercontent.com/u/602513?v=4",
        "gravatar_id": "",
        "url": "https://api.github.com/users/jasonbcox",
        "html_url": "https://github.com/jasonbcox",
        "followers_url": "https://api.github.com/users/jasonbcox/followers",
        "following_url": "https://api.github.com/users/jasonbcox/following%7B/other_user%7D",
        "gists_url": "https://api.github.com/users/jasonbcox/gists%7B/gist_id%7D",
        "starred_url": "https://api.github.com/users/jasonbcox/starred%7B/owner%7D%7B/repo%7D",
        "subscriptions_url": "https://api.github.com/users/jasonbcox/subscriptions",
        "organizations_url": "https://api.github.com/users/jasonbcox/orgs",
        "repos_url": "https://api.github.com/users/jasonbcox/repos",
        "events_url": "https://api.github.com/users/jasonbcox/events%7B/privacy%7D",
        "received_events_url": "https://api.github.com/users/jasonbcox/received_events",
        "type": "User",
        "site_admin": false
      },
      "commit_id": "1e6e4031d3202fdb06816d2315f74a05da442a1e",
      "commit_url": "https://api.github.com/repos/Bitcoin-ABC/bitcoin-abc/commits/1e6e4031d3202fdb06816d2315f74a05da442a1e",
      "created_at": "2020-10-30T19:22:23Z"
    },
    {
      "event": "commented",
      "id": 1419123148,
      "node_id": "IC_kwDOABII585UlhnM",
      "url": "https://api.github.com/repos/bitcoin/bitcoin/issues/comments/1419123148",
      "actor": {
        "login": "willcl-ark",
        "id": 6606587,
        "node_id": "MDQ6VXNlcjY2MDY1ODc=",
        "avatar_url": "https://avatars.githubusercontent.com/u/6606587?v=4",
        "gravatar_id": "",
        "url": "https://api.github.com/users/willcl-ark",
        "html_url": "https://github.com/willcl-ark",
        "followers_url": "https://api.github.com/users/willcl-ark/followers",
        "following_url": "https://api.github.com/users/willcl-ark/following%7B/other_user%7D",
        "gists_url": "https://api.github.com/users/willcl-ark/gists%7B/gist_id%7D",
        "starred_url": "https://api.github.com/users/willcl-ark/starred%7B/owner%7D%7B/repo%7D",
        "subscriptions_url": "https://api.github.com/users/willcl-ark/subscriptions",
        "organizations_url": "https://api.github.com/users/willcl-ark/orgs",
        "repos_url": "https://api.github.com/users/willcl-ark/repos",
        "events_url": "https://api.github.com/users/willcl-ark/events%7B/privacy%7D",
        "received_events_url": "https://api.github.com/users/willcl-ark/received_events",
        "type": "User",
        "site_admin": false
      },
      "commit_id": null,
      "commit_url": null,
      "created_at": "2023-02-06T13:57:44Z",
      "updated_at": "2023-02-06T13:57:44Z",
      "author_association": "CONTRIBUTOR",
      "body": "As this is pretty much a pure GUI issue, does it make sense to move it over to that repo @hebasto ?",
      "user": {
        "login": "willcl-ark",
        "id": 6606587,
        "node_id": "MDQ6VXNlcjY2MDY1ODc=",
        "avatar_url": "https://avatars.githubusercontent.com/u/6606587?v=4",
        "gravatar_id": "",
        "url": "https://api.github.com/users/willcl-ark",
        "html_url": "https://github.com/willcl-ark",
        "followers_url": "https://api.github.com/users/willcl-ark/followers",
        "following_url": "https://api.github.com/users/willcl-ark/following%7B/other_user%7D",
        "gists_url": "https://api.github.com/users/willcl-ark/gists%7B/gist_id%7D",
        "starred_url": "https://api.github.com/users/willcl-ark/starred%7B/owner%7D%7B/repo%7D",
        "subscriptions_url": "https://api.github.com/users/willcl-ark/subscriptions",
        "organizations_url": "https://api.github.com/users/willcl-ark/orgs",
        "repos_url": "https://api.github.com/users/willcl-ark/repos",
        "events_url": "https://api.github.com/users/willcl-ark/events%7B/privacy%7D",
        "received_events_url": "https://api.github.com/users/willcl-ark/received_events",
        "type": "User",
        "site_admin": false
      },
      "html_url": "https://github.com/bitcoin/bitcoin/issues/19291#issuecomment-1419123148",
      "issue_url": "https://api.github.com/repos/bitcoin/bitcoin/issues/19291"
    },
    {
      "event": "mentioned",
      "id": 8447725649,
      "node_id": "MEE_lADOABII584mGsykzwAAAAH3hhBR",
      "url": "https://api.github.com/repos/bitcoin/bitcoin/issues/events/8447725649",
      "actor": {
        "login": "hebasto",
        "id": 32963518,
        "node_id": "MDQ6VXNlcjMyOTYzNTE4",
        "avatar_url": "https://avatars.githubusercontent.com/u/32963518?v=4",
        "gravatar_id": "",
        "url": "https://api.github.com/users/hebasto",
        "html_url": "https://github.com/hebasto",
        "followers_url": "https://api.github.com/users/hebasto/followers",
        "following_url": "https://api.github.com/users/hebasto/following%7B/other_user%7D",
        "gists_url": "https://api.github.com/users/hebasto/gists%7B/gist_id%7D",
        "starred_url": "https://api.github.com/users/hebasto/starred%7B/owner%7D%7B/repo%7D",
        "subscriptions_url": "https://api.github.com/users/hebasto/subscriptions",
        "organizations_url": "https://api.github.com/users/hebasto/orgs",
        "repos_url": "https://api.github.com/users/hebasto/repos",
        "events_url": "https://api.github.com/users/hebasto/events%7B/privacy%7D",
        "received_events_url": "https://api.github.com/users/hebasto/received_events",
        "type": "User",
        "site_admin": false
      },
      "commit_id": null,
      "commit_url": null,
      "created_at": "2023-02-06T13:57:44Z"
    },
    {
      "event": "subscribed",
      "id": 8447725670,
      "node_id": "SE_lADOABII584mGsykzwAAAAH3hhBm",
      "url": "https://api.github.com/repos/bitcoin/bitcoin/issues/events/8447725670",
      "actor": {
        "login": "hebasto",
        "id": 32963518,
        "node_id": "MDQ6VXNlcjMyOTYzNTE4",
        "avatar_url": "https://avatars.githubusercontent.com/u/32963518?v=4",
        "gravatar_id": "",
        "url": "https://api.github.com/users/hebasto",
        "html_url": "https://github.com/hebasto",
        "followers_url": "https://api.github.com/users/hebasto/followers",
        "following_url": "https://api.github.com/users/hebasto/following%7B/other_user%7D",
        "gists_url": "https://api.github.com/users/hebasto/gists%7B/gist_id%7D",
        "starred_url": "https://api.github.com/users/hebasto/starred%7B/owner%7D%7B/repo%7D",
        "subscriptions_url": "https://api.github.com/users/hebasto/subscriptions",
        "organizations_url": "https://api.github.com/users/hebasto/orgs",
        "repos_url": "https://api.github.com/users/hebasto/repos",
        "events_url": "https://api.github.com/users/hebasto/events%7B/privacy%7D",
        "received_events_url": "https://api.github.com/users/hebasto/received_events",
        "type": "User",
        "site_admin": false
      },
      "commit_id": null,
      "commit_url": null,
      "created_at": "2023-02-06T13:57:44Z"
    },
    {
      "event": "cross-referenced",
      "id": null,
      "node_id": null,
      "url": null,
      "actor": {
        "login": "hebasto",
        "id": 32963518,
        "node_id": "MDQ6VXNlcjMyOTYzNTE4",
        "avatar_url": "https://avatars.githubusercontent.com/u/32963518?v=4",
        "gravatar_id": "",
        "url": "https://api.github.com/users/hebasto",
        "html_url": "https://github.com/hebasto",
        "followers_url": "https://api.github.com/users/hebasto/followers",
        "following_url": "https://api.github.com/users/hebasto/following%7B/other_user%7D",
        "gists_url": "https://api.github.com/users/hebasto/gists%7B/gist_id%7D",
        "starred_url": "https://api.github.com/users/hebasto/starred%7B/owner%7D%7B/repo%7D",
        "subscriptions_url": "https://api.github.com/users/hebasto/subscriptions",
        "organizations_url": "https://api.github.com/users/hebasto/orgs",
        "repos_url": "https://api.github.com/users/hebasto/repos",
        "events_url": "https://api.github.com/users/hebasto/events%7B/privacy%7D",
        "received_events_url": "https://api.github.com/users/hebasto/received_events",
        "type": "User",
        "site_admin": false
      },
      "commit_id": null,
      "commit_url": null,
      "created_at": "2023-02-07T13:30:09Z",
      "updated_at": "2023-02-07T13:30:09Z",
      "source": {
        "issue": {
          "id": 1574339216,
          "node_id": "I_kwDOEEET9c5d1oKQ",
          "url": "https://api.github.com/repos/bitcoin-core/gui/issues/709",
          "repository_url": "https://api.github.com/repos/bitcoin-core/gui",
          "labels_url": "https://api.github.com/repos/bitcoin-core/gui/issues/709/labels%7B/name%7D",
          "comments_url": "https://api.github.com/repos/bitcoin-core/gui/issues/709/comments",
          "events_url": "https://api.github.com/repos/bitcoin-core/gui/issues/709/events",
          "html_url": "https://github.com/bitcoin-core/gui/issues/709",
          "number": 709,
          "state": "open",
          "state_reason": null,
          "title": "Pruning keeps getting reenabled",
          "body": "<!-- This issue tracker is only for technical issues related to Bitcoin Core.\r\n\r\nGeneral bitcoin questions and/or support requests are best directed to the Bitcoin StackExchange at https://bitcoin.stackexchange.com.\r\n\r\nFor reporting security issues, please read instructions at https://bitcoincore.org/en/contact/.\r\n\r\nIf the node is \"stuck\" during sync or giving \"block checksum mismatch\" errors, please ensure your hardware is stable by running memtest and observe CPU temperature with a load-test tool such as linpack before creating an issue! -->\r\n\r\n<!-- Describe the issue -->\r\n\r\n**Expected behavior**\r\n\r\nI want my Bitcoin Core node to *never* prune the blockchain. \r\n\r\n<!--- What behavior did you expect? -->\r\n\r\n**Actual behavior**\r\n\r\nOccasionally, Bitcoin Core will enable the pruning option. This causes it to prune the blockchain, and forces me to resync when I disable it.  I started seeing this in 0.19 and it still persists in 0.20. It may also be related to my moving to a new computer which upgraded me to Catalina. I'm not really sure.\r\n  \r\n<!--- What was the actual behavior (provide screenshots if the issue is GUI-related)? -->\r\n\r\n**To reproduce**\r\n\r\nI think it might be related to the fact that my data directory is on an external hard drive. If I start Bitcoin Core before mounting in the drive, it will popup the dialog as if it is my first time starting Bitcoin Core, asking me where to store the block chain. In the dialog, the datadir location is defaulted to put it in the location where my external hard drive mount would be, like `/Volumes/Drive/Bitcoin`. If I then mount the drive and choose next in the dialog, the sync works, but pruning is enabled and it immediately prunes the blockchain. I can go into the settings at this point and uncheck pruning, but at that point, it requires a full resync. And it ends up being enabled again the next time I start Bitcoin Core. Needless to say, this is extremely annoying and makes Bitcoin Core almost unusable for me.\r\n\r\nI even tried setting `prune=0` in my bitcoin.conf file, which is on the external drive, but it has no effect. \r\n\r\nI suspect what is happening is that pruning is enabled by default, and since it can't find my datadir when it launches, Bitcoin Core thinks that it is doing a fresh sync and sets it to true. This setting is then not updated, even from the bitcoin.conf (which itself lives on the external drive) once that datadir is loaded. The fact that it remembers where the datadir is implies that some settings are stored locally, though I can't really tell where. Is it possible for me to store my no-prune setting locally as well? \r\n\r\nNote that I used to do this exact workflow of opening Bitcoin Core before mounting my drive all the time in previous node versions and macOS versions, and it never enabled pruning on me. \r\n\r\n(as an aside, I feel like Bitcoin Core should be smart enough to recognize that a datadir in `/Volumes` on macOS is an external drive, even when it doesn't currently exist). \r\n\r\n<!--- How reliably can you reproduce the issue, what are the steps to do so? -->\r\n\r\n**System information**\r\n\r\n<!-- What version of Bitcoin Core are you using, where did you get it (website, self-compiled, etc)? -->\r\n\r\nBitcoin Core 0.20.0 macOS GUI version. Downloaded from https://bitcoincore.org/. \r\n\r\n<!-- What type of machine are you observing the error on (OS/CPU and disk type)? -->\r\n\r\nmacOS Catalina 10.15.5.\r\n\r\n<!-- GUI-related issue? What is your operating system and its version? If Linux, what is your desktop environment and graphical shell? -->\r\n\r\n<!-- Any extra information that might be useful in the debugging process. -->\r\n<!--- This is normally the contents of a `debug.log` or `config.log` file. Raw text or a link to a pastebin type site are preferred. -->\r\n\r\nContents of `/Volume/Drive/Bitcoin/bitcoin.conf`:\r\n\r\n```\r\nserver=1\r\ndbcache=4096\r\nrpcport=8332\r\nprune=0\r\n```\r\n\r\n---\r\n\r\nMoved from https://github.com/bitcoin/bitcoin/issues/19291.",
          "user": {
            "login": "hebasto",
            "id": 32963518,
            "node_id": "MDQ6VXNlcjMyOTYzNTE4",
            "avatar_url": "https://avatars.githubusercontent.com/u/32963518?v=4",
            "gravatar_id": "",
            "url": "https://api.github.com/users/hebasto",
            "html_url": "https://github.com/hebasto",
            "followers_url": "https://api.github.com/users/hebasto/followers",
            "following_url": "https://api.github.com/users/hebasto/following%7B/other_user%7D",
            "gists_url": "https://api.github.com/users/hebasto/gists%7B/gist_id%7D",
            "starred_url": "https://api.github.com/users/hebasto/starred%7B/owner%7D%7B/repo%7D",
            "subscriptions_url": "https://api.github.com/users/hebasto/subscriptions",
            "organizations_url": "https://api.github.com/users/hebasto/orgs",
            "repos_url": "https://api.github.com/users/hebasto/repos",
            "events_url": "https://api.github.com/users/hebasto/events%7B/privacy%7D",
            "received_events_url": "https://api.github.com/users/hebasto/received_events",
            "type": "User",
            "site_admin": false
          },
          "labels": [
            {
              "id": 2140649117,
              "node_id": "MDU6TGFiZWwyMTQwNjQ5MTE3",
              "url": "https://api.github.com/repos/bitcoin-core/gui/labels/Bug",
              "name": "Bug",
              "description": "Something isn't working",
              "color": "d73a4a",
              "default": false
            }
          ],
          "assignees": [],
          "author_association": "MEMBER",
          "locked": false,
          "comments": 0,
          "created_at": "2023-02-07T13:30:09Z",
          "updated_at": "2023-02-07T13:30:09Z"
        },
        "type": "issue"
      }
    },
    {
      "event": "commented",
      "id": 1420780260,
      "node_id": "IC_kwDOABII585Ur2Lk",
      "url": "https://api.github.com/repos/bitcoin/bitcoin/issues/comments/1420780260",
      "actor": {
        "login": "hebasto",
        "id": 32963518,
        "node_id": "MDQ6VXNlcjMyOTYzNTE4",
        "avatar_url": "https://avatars.githubusercontent.com/u/32963518?v=4",
        "gravatar_id": "",
        "url": "https://api.github.com/users/hebasto",
        "html_url": "https://github.com/hebasto",
        "followers_url": "https://api.github.com/users/hebasto/followers",
        "following_url": "https://api.github.com/users/hebasto/following%7B/other_user%7D",
        "gists_url": "https://api.github.com/users/hebasto/gists%7B/gist_id%7D",
        "starred_url": "https://api.github.com/users/hebasto/starred%7B/owner%7D%7B/repo%7D",
        "subscriptions_url": "https://api.github.com/users/hebasto/subscriptions",
        "organizations_url": "https://api.github.com/users/hebasto/orgs",
        "repos_url": "https://api.github.com/users/hebasto/repos",
        "events_url": "https://api.github.com/users/hebasto/events%7B/privacy%7D",
        "received_events_url": "https://api.github.com/users/hebasto/received_events",
        "type": "User",
        "site_admin": false
      },
      "commit_id": null,
      "commit_url": null,
      "created_at": "2023-02-07T13:30:40Z",
      "updated_at": "2023-02-07T13:30:40Z",
      "author_association": "MEMBER",
      "body": "Moved to https://github.com/bitcoin-core/gui/issues/709.",
      "user": {
        "login": "hebasto",
        "id": 32963518,
        "node_id": "MDQ6VXNlcjMyOTYzNTE4",
        "avatar_url": "https://avatars.githubusercontent.com/u/32963518?v=4",
        "gravatar_id": "",
        "url": "https://api.github.com/users/hebasto",
        "html_url": "https://github.com/hebasto",
        "followers_url": "https://api.github.com/users/hebasto/followers",
        "following_url": "https://api.github.com/users/hebasto/following%7B/other_user%7D",
        "gists_url": "https://api.github.com/users/hebasto/gists%7B/gist_id%7D",
        "starred_url": "https://api.github.com/users/hebasto/starred%7B/owner%7D%7B/repo%7D",
        "subscriptions_url": "https://api.github.com/users/hebasto/subscriptions",
        "organizations_url": "https://api.github.com/users/hebasto/orgs",
        "repos_url": "https://api.github.com/users/hebasto/repos",
        "events_url": "https://api.github.com/users/hebasto/events%7B/privacy%7D",
        "received_events_url": "https://api.github.com/users/hebasto/received_events",
        "type": "User",
        "site_admin": false
      },
      "html_url": "https://github.com/bitcoin/bitcoin/issues/19291#issuecomment-1420780260",
      "issue_url": "https://api.github.com/repos/bitcoin/bitcoin/issues/19291"
    },
    {
      "event": "closed",
      "id": 8458104794,
      "node_id": "CE_lADOABII584mGsykzwAAAAH4JG_a",
      "url": "https://api.github.com/repos/bitcoin/bitcoin/issues/events/8458104794",
      "actor": {
        "login": "hebasto",
        "id": 32963518,
        "node_id": "MDQ6VXNlcjMyOTYzNTE4",
        "avatar_url": "https://avatars.githubusercontent.com/u/32963518?v=4",
        "gravatar_id": "",
        "url": "https://api.github.com/users/hebasto",
        "html_url": "https://github.com/hebasto",
        "followers_url": "https://api.github.com/users/hebasto/followers",
        "following_url": "https://api.github.com/users/hebasto/following%7B/other_user%7D",
        "gists_url": "https://api.github.com/users/hebasto/gists%7B/gist_id%7D",
        "starred_url": "https://api.github.com/users/hebasto/starred%7B/owner%7D%7B/repo%7D",
        "subscriptions_url": "https://api.github.com/users/hebasto/subscriptions",
        "organizations_url": "https://api.github.com/users/hebasto/orgs",
        "repos_url": "https://api.github.com/users/hebasto/repos",
        "events_url": "https://api.github.com/users/hebasto/events%7B/privacy%7D",
        "received_events_url": "https://api.github.com/users/hebasto/received_events",
        "type": "User",
        "site_admin": false
      },
      "commit_id": null,
      "commit_url": null,
      "created_at": "2023-02-07T13:30:44Z"
    }
  ]
}