{
  "type": "issue",
  "issue": {
    "id": 8694882,
    "node_id": "MDU6SXNzdWU4Njk0ODgy",
    "url": "https://api.github.com/repos/bitcoin/bitcoin/issues/2039",
    "repository_url": "https://api.github.com/repos/bitcoin/bitcoin",
    "labels_url": "https://api.github.com/repos/bitcoin/bitcoin/issues/2039/labels%7B/name%7D",
    "comments_url": "https://api.github.com/repos/bitcoin/bitcoin/issues/2039/comments",
    "events_url": "https://api.github.com/repos/bitcoin/bitcoin/issues/2039/events",
    "html_url": "https://github.com/bitcoin/bitcoin/issues/2039",
    "number": 2039,
    "state": "open",
    "state_reason": null,
    "title": "-reindex fails if blk0*.dat files read-only",
    "body": "To reproduce: chmod -r datadir/blk0_.dat\nExpected behaviour: Reindex read-only block file, and create a new blk0_.dat file when there are new blocks to add.\n",
    "user": {
      "login": "luke-jr",
      "id": 1095675,
      "node_id": "MDQ6VXNlcjEwOTU2NzU=",
      "avatar_url": "https://avatars.githubusercontent.com/u/1095675?v=4",
      "gravatar_id": "",
      "url": "https://api.github.com/users/luke-jr",
      "html_url": "https://github.com/luke-jr",
      "followers_url": "https://api.github.com/users/luke-jr/followers",
      "following_url": "https://api.github.com/users/luke-jr/following%7B/other_user%7D",
      "gists_url": "https://api.github.com/users/luke-jr/gists%7B/gist_id%7D",
      "starred_url": "https://api.github.com/users/luke-jr/starred%7B/owner%7D%7B/repo%7D",
      "subscriptions_url": "https://api.github.com/users/luke-jr/subscriptions",
      "organizations_url": "https://api.github.com/users/luke-jr/orgs",
      "repos_url": "https://api.github.com/users/luke-jr/repos",
      "events_url": "https://api.github.com/users/luke-jr/events%7B/privacy%7D",
      "received_events_url": "https://api.github.com/users/luke-jr/received_events",
      "type": "User",
      "site_admin": false
    },
    "labels": [
      {
        "id": 64583,
        "node_id": "MDU6TGFiZWw2NDU4Mw==",
        "url": "https://api.github.com/repos/bitcoin/bitcoin/labels/Feature",
        "name": "Feature",
        "color": "7cf575",
        "default": false
      }
    ],
    "assignee": {
      "login": "pinheadmz",
      "id": 2084648,
      "node_id": "MDQ6VXNlcjIwODQ2NDg=",
      "avatar_url": "https://avatars.githubusercontent.com/u/2084648?v=4",
      "gravatar_id": "",
      "url": "https://api.github.com/users/pinheadmz",
      "html_url": "https://github.com/pinheadmz",
      "followers_url": "https://api.github.com/users/pinheadmz/followers",
      "following_url": "https://api.github.com/users/pinheadmz/following%7B/other_user%7D",
      "gists_url": "https://api.github.com/users/pinheadmz/gists%7B/gist_id%7D",
      "starred_url": "https://api.github.com/users/pinheadmz/starred%7B/owner%7D%7B/repo%7D",
      "subscriptions_url": "https://api.github.com/users/pinheadmz/subscriptions",
      "organizations_url": "https://api.github.com/users/pinheadmz/orgs",
      "repos_url": "https://api.github.com/users/pinheadmz/repos",
      "events_url": "https://api.github.com/users/pinheadmz/events%7B/privacy%7D",
      "received_events_url": "https://api.github.com/users/pinheadmz/received_events",
      "type": "User",
      "site_admin": false
    },
    "assignees": [
      {
        "login": "pinheadmz",
        "id": 2084648,
        "node_id": "MDQ6VXNlcjIwODQ2NDg=",
        "avatar_url": "https://avatars.githubusercontent.com/u/2084648?v=4",
        "gravatar_id": "",
        "url": "https://api.github.com/users/pinheadmz",
        "html_url": "https://github.com/pinheadmz",
        "followers_url": "https://api.github.com/users/pinheadmz/followers",
        "following_url": "https://api.github.com/users/pinheadmz/following%7B/other_user%7D",
        "gists_url": "https://api.github.com/users/pinheadmz/gists%7B/gist_id%7D",
        "starred_url": "https://api.github.com/users/pinheadmz/starred%7B/owner%7D%7B/repo%7D",
        "subscriptions_url": "https://api.github.com/users/pinheadmz/subscriptions",
        "organizations_url": "https://api.github.com/users/pinheadmz/orgs",
        "repos_url": "https://api.github.com/users/pinheadmz/repos",
        "events_url": "https://api.github.com/users/pinheadmz/events%7B/privacy%7D",
        "received_events_url": "https://api.github.com/users/pinheadmz/received_events",
        "type": "User",
        "site_admin": false
      }
    ],
    "author_association": "MEMBER",
    "locked": false,
    "comments": 4,
    "created_at": "2012-11-26T21:29:06Z",
    "updated_at": "2023-06-02T14:52:22Z"
  },
  "events": [
    {
      "event": "commented",
      "id": 10735433,
      "node_id": "MDEyOklzc3VlQ29tbWVudDEwNzM1NDMz",
      "url": "https://api.github.com/repos/bitcoin/bitcoin/issues/comments/10735433",
      "actor": {
        "login": "jgarzik",
        "id": 494411,
        "node_id": "MDQ6VXNlcjQ5NDQxMQ==",
        "avatar_url": "https://avatars.githubusercontent.com/u/494411?v=4",
        "gravatar_id": "",
        "url": "https://api.github.com/users/jgarzik",
        "html_url": "https://github.com/jgarzik",
        "followers_url": "https://api.github.com/users/jgarzik/followers",
        "following_url": "https://api.github.com/users/jgarzik/following%7B/other_user%7D",
        "gists_url": "https://api.github.com/users/jgarzik/gists%7B/gist_id%7D",
        "starred_url": "https://api.github.com/users/jgarzik/starred%7B/owner%7D%7B/repo%7D",
        "subscriptions_url": "https://api.github.com/users/jgarzik/subscriptions",
        "organizations_url": "https://api.github.com/users/jgarzik/orgs",
        "repos_url": "https://api.github.com/users/jgarzik/repos",
        "events_url": "https://api.github.com/users/jgarzik/events%7B/privacy%7D",
        "received_events_url": "https://api.github.com/users/jgarzik/received_events",
        "type": "User",
        "site_admin": false
      },
      "commit_id": null,
      "commit_url": null,
      "created_at": "2012-11-26T21:47:04Z",
      "updated_at": "2012-11-26T21:47:04Z",
      "author_association": "CONTRIBUTOR",
      "body": "Details of failure?  File changes?  debug.log entries?\n",
      "user": {
        "login": "jgarzik",
        "id": 494411,
        "node_id": "MDQ6VXNlcjQ5NDQxMQ==",
        "avatar_url": "https://avatars.githubusercontent.com/u/494411?v=4",
        "gravatar_id": "",
        "url": "https://api.github.com/users/jgarzik",
        "html_url": "https://github.com/jgarzik",
        "followers_url": "https://api.github.com/users/jgarzik/followers",
        "following_url": "https://api.github.com/users/jgarzik/following%7B/other_user%7D",
        "gists_url": "https://api.github.com/users/jgarzik/gists%7B/gist_id%7D",
        "starred_url": "https://api.github.com/users/jgarzik/starred%7B/owner%7D%7B/repo%7D",
        "subscriptions_url": "https://api.github.com/users/jgarzik/subscriptions",
        "organizations_url": "https://api.github.com/users/jgarzik/orgs",
        "repos_url": "https://api.github.com/users/jgarzik/repos",
        "events_url": "https://api.github.com/users/jgarzik/events%7B/privacy%7D",
        "received_events_url": "https://api.github.com/users/jgarzik/received_events",
        "type": "User",
        "site_admin": false
      },
      "html_url": "https://github.com/bitcoin/bitcoin/issues/2039#issuecomment-10735433",
      "issue_url": "https://api.github.com/repos/bitcoin/bitcoin/issues/2039"
    },
    {
      "event": "commented",
      "id": 103000608,
      "node_id": "MDEyOklzc3VlQ29tbWVudDEwMzAwMDYwOA==",
      "url": "https://api.github.com/repos/bitcoin/bitcoin/issues/comments/103000608",
      "actor": {
        "login": "laanwj",
        "id": 126646,
        "node_id": "MDQ6VXNlcjEyNjY0Ng==",
        "avatar_url": "https://avatars.githubusercontent.com/u/126646?v=4",
        "gravatar_id": "",
        "url": "https://api.github.com/users/laanwj",
        "html_url": "https://github.com/laanwj",
        "followers_url": "https://api.github.com/users/laanwj/followers",
        "following_url": "https://api.github.com/users/laanwj/following%7B/other_user%7D",
        "gists_url": "https://api.github.com/users/laanwj/gists%7B/gist_id%7D",
        "starred_url": "https://api.github.com/users/laanwj/starred%7B/owner%7D%7B/repo%7D",
        "subscriptions_url": "https://api.github.com/users/laanwj/subscriptions",
        "organizations_url": "https://api.github.com/users/laanwj/orgs",
        "repos_url": "https://api.github.com/users/laanwj/repos",
        "events_url": "https://api.github.com/users/laanwj/events%7B/privacy%7D",
        "received_events_url": "https://api.github.com/users/laanwj/received_events",
        "type": "User",
        "site_admin": false
      },
      "commit_id": null,
      "commit_url": null,
      "created_at": "2015-05-18T09:54:03Z",
      "updated_at": "2015-05-18T09:54:03Z",
      "author_association": "MEMBER",
      "body": "bitcoind makes the (generally valid) assumption a that it can write anything in its data directory. Reindexing from read-only block files may be a useful feature in some cases, but I'm removing the bug label.\n",
      "user": {
        "login": "laanwj",
        "id": 126646,
        "node_id": "MDQ6VXNlcjEyNjY0Ng==",
        "avatar_url": "https://avatars.githubusercontent.com/u/126646?v=4",
        "gravatar_id": "",
        "url": "https://api.github.com/users/laanwj",
        "html_url": "https://github.com/laanwj",
        "followers_url": "https://api.github.com/users/laanwj/followers",
        "following_url": "https://api.github.com/users/laanwj/following%7B/other_user%7D",
        "gists_url": "https://api.github.com/users/laanwj/gists%7B/gist_id%7D",
        "starred_url": "https://api.github.com/users/laanwj/starred%7B/owner%7D%7B/repo%7D",
        "subscriptions_url": "https://api.github.com/users/laanwj/subscriptions",
        "organizations_url": "https://api.github.com/users/laanwj/orgs",
        "repos_url": "https://api.github.com/users/laanwj/repos",
        "events_url": "https://api.github.com/users/laanwj/events%7B/privacy%7D",
        "received_events_url": "https://api.github.com/users/laanwj/received_events",
        "type": "User",
        "site_admin": false
      },
      "html_url": "https://github.com/bitcoin/bitcoin/issues/2039#issuecomment-103000608",
      "issue_url": "https://api.github.com/repos/bitcoin/bitcoin/issues/2039"
    },
    {
      "event": "labeled",
      "id": 307222295,
      "node_id": "MDEyOkxhYmVsZWRFdmVudDMwNzIyMjI5NQ==",
      "url": "https://api.github.com/repos/bitcoin/bitcoin/issues/events/307222295",
      "actor": {
        "login": "laanwj",
        "id": 126646,
        "node_id": "MDQ6VXNlcjEyNjY0Ng==",
        "avatar_url": "https://avatars.githubusercontent.com/u/126646?v=4",
        "gravatar_id": "",
        "url": "https://api.github.com/users/laanwj",
        "html_url": "https://github.com/laanwj",
        "followers_url": "https://api.github.com/users/laanwj/followers",
        "following_url": "https://api.github.com/users/laanwj/following%7B/other_user%7D",
        "gists_url": "https://api.github.com/users/laanwj/gists%7B/gist_id%7D",
        "starred_url": "https://api.github.com/users/laanwj/starred%7B/owner%7D%7B/repo%7D",
        "subscriptions_url": "https://api.github.com/users/laanwj/subscriptions",
        "organizations_url": "https://api.github.com/users/laanwj/orgs",
        "repos_url": "https://api.github.com/users/laanwj/repos",
        "events_url": "https://api.github.com/users/laanwj/events%7B/privacy%7D",
        "received_events_url": "https://api.github.com/users/laanwj/received_events",
        "type": "User",
        "site_admin": false
      },
      "commit_id": null,
      "commit_url": null,
      "created_at": "2015-05-18T09:54:26Z",
      "label": {
        "name": "Feature",
        "color": "7cf575"
      }
    },
    {
      "event": "unlabeled",
      "id": 307222296,
      "node_id": "MDE0OlVubGFiZWxlZEV2ZW50MzA3MjIyMjk2",
      "url": "https://api.github.com/repos/bitcoin/bitcoin/issues/events/307222296",
      "actor": {
        "login": "laanwj",
        "id": 126646,
        "node_id": "MDQ6VXNlcjEyNjY0Ng==",
        "avatar_url": "https://avatars.githubusercontent.com/u/126646?v=4",
        "gravatar_id": "",
        "url": "https://api.github.com/users/laanwj",
        "html_url": "https://github.com/laanwj",
        "followers_url": "https://api.github.com/users/laanwj/followers",
        "following_url": "https://api.github.com/users/laanwj/following%7B/other_user%7D",
        "gists_url": "https://api.github.com/users/laanwj/gists%7B/gist_id%7D",
        "starred_url": "https://api.github.com/users/laanwj/starred%7B/owner%7D%7B/repo%7D",
        "subscriptions_url": "https://api.github.com/users/laanwj/subscriptions",
        "organizations_url": "https://api.github.com/users/laanwj/orgs",
        "repos_url": "https://api.github.com/users/laanwj/repos",
        "events_url": "https://api.github.com/users/laanwj/events%7B/privacy%7D",
        "received_events_url": "https://api.github.com/users/laanwj/received_events",
        "type": "User",
        "site_admin": false
      },
      "commit_id": null,
      "commit_url": null,
      "created_at": "2015-05-18T09:54:26Z",
      "label": {
        "name": "Bug",
        "color": "FBBAAB"
      }
    },
    {
      "event": "unlabeled",
      "id": 307222297,
      "node_id": "MDE0OlVubGFiZWxlZEV2ZW50MzA3MjIyMjk3",
      "url": "https://api.github.com/repos/bitcoin/bitcoin/issues/events/307222297",
      "actor": {
        "login": "laanwj",
        "id": 126646,
        "node_id": "MDQ6VXNlcjEyNjY0Ng==",
        "avatar_url": "https://avatars.githubusercontent.com/u/126646?v=4",
        "gravatar_id": "",
        "url": "https://api.github.com/users/laanwj",
        "html_url": "https://github.com/laanwj",
        "followers_url": "https://api.github.com/users/laanwj/followers",
        "following_url": "https://api.github.com/users/laanwj/following%7B/other_user%7D",
        "gists_url": "https://api.github.com/users/laanwj/gists%7B/gist_id%7D",
        "starred_url": "https://api.github.com/users/laanwj/starred%7B/owner%7D%7B/repo%7D",
        "subscriptions_url": "https://api.github.com/users/laanwj/subscriptions",
        "organizations_url": "https://api.github.com/users/laanwj/orgs",
        "repos_url": "https://api.github.com/users/laanwj/repos",
        "events_url": "https://api.github.com/users/laanwj/events%7B/privacy%7D",
        "received_events_url": "https://api.github.com/users/laanwj/received_events",
        "type": "User",
        "site_admin": false
      },
      "commit_id": null,
      "commit_url": null,
      "created_at": "2015-05-18T09:54:26Z",
      "label": {
        "name": "Priority Low",
        "color": "ededed"
      }
    },
    {
      "event": "commented",
      "id": 1101330894,
      "node_id": "IC_kwDOABII585BpPnO",
      "url": "https://api.github.com/repos/bitcoin/bitcoin/issues/comments/1101330894",
      "actor": {
        "login": "mruddy",
        "id": 6440430,
        "node_id": "MDQ6VXNlcjY0NDA0MzA=",
        "avatar_url": "https://avatars.githubusercontent.com/u/6440430?v=4",
        "gravatar_id": "",
        "url": "https://api.github.com/users/mruddy",
        "html_url": "https://github.com/mruddy",
        "followers_url": "https://api.github.com/users/mruddy/followers",
        "following_url": "https://api.github.com/users/mruddy/following%7B/other_user%7D",
        "gists_url": "https://api.github.com/users/mruddy/gists%7B/gist_id%7D",
        "starred_url": "https://api.github.com/users/mruddy/starred%7B/owner%7D%7B/repo%7D",
        "subscriptions_url": "https://api.github.com/users/mruddy/subscriptions",
        "organizations_url": "https://api.github.com/users/mruddy/orgs",
        "repos_url": "https://api.github.com/users/mruddy/repos",
        "events_url": "https://api.github.com/users/mruddy/events%7B/privacy%7D",
        "received_events_url": "https://api.github.com/users/mruddy/received_events",
        "type": "User",
        "site_admin": false
      },
      "commit_id": null,
      "commit_url": null,
      "created_at": "2022-04-18T11:31:25Z",
      "updated_at": "2022-04-18T11:31:25Z",
      "author_association": "CONTRIBUTOR",
      "body": "I was just looking at this. The fix introduced by https://github.com/bitcoin/bitcoin/pull/24858 gets us very close to being able to allow read only blk files that are already finalized. This only makes sense with **finalized** block files as blk files that have logical space under the 128 MiB limit need to be writable for appending additional blocks. Even with the #24858 fix, `BlockManager::FlushBlockFile` still tries to open the finalized block file for writing. But, I don't think it would be very difficult to keep track in `BlockManager::FindBlockPos` via the `m_blockfile_info[nFile]` to know if the current blk file has been appended. We'd have to add another data member to track if any new blocks have been appended to the blockfile. If it hasn't been appended, then we could accept the blk flush failing as it was not changed, and the failure was caused by not being able to open it for writing.\r\n\r\nFor reference, I tested current master branch functionality and got the following while using only a single finalized blk00000.dat (fe4b764e0ce523cfce6d9e4f326e0d0977ee317a51b4a129cda707cfa4699dd7  blocks/blk00000.dat):\r\n```\r\nUnable to open file /tmp/btc/blocks/blk00000.dat\r\nERROR: Flush: failed to open file 0\r\n*** Flushing block file to disk failed. This is likely the result of an I/O error.\r\nError: A fatal internal error occurred, see debug.log for details\r\n```",
      "user": {
        "login": "mruddy",
        "id": 6440430,
        "node_id": "MDQ6VXNlcjY0NDA0MzA=",
        "avatar_url": "https://avatars.githubusercontent.com/u/6440430?v=4",
        "gravatar_id": "",
        "url": "https://api.github.com/users/mruddy",
        "html_url": "https://github.com/mruddy",
        "followers_url": "https://api.github.com/users/mruddy/followers",
        "following_url": "https://api.github.com/users/mruddy/following%7B/other_user%7D",
        "gists_url": "https://api.github.com/users/mruddy/gists%7B/gist_id%7D",
        "starred_url": "https://api.github.com/users/mruddy/starred%7B/owner%7D%7B/repo%7D",
        "subscriptions_url": "https://api.github.com/users/mruddy/subscriptions",
        "organizations_url": "https://api.github.com/users/mruddy/orgs",
        "repos_url": "https://api.github.com/users/mruddy/repos",
        "events_url": "https://api.github.com/users/mruddy/events%7B/privacy%7D",
        "received_events_url": "https://api.github.com/users/mruddy/received_events",
        "type": "User",
        "site_admin": false
      },
      "html_url": "https://github.com/bitcoin/bitcoin/issues/2039#issuecomment-1101330894",
      "issue_url": "https://api.github.com/repos/bitcoin/bitcoin/issues/2039"
    },
    {
      "event": "referenced",
      "id": 7849929442,
      "node_id": "REFE_lADOABII584AhKxizwAAAAHT5Gri",
      "url": "https://api.github.com/repos/bitcoin/bitcoin/issues/events/7849929442",
      "actor": {
        "login": "mruddy",
        "id": 6440430,
        "node_id": "MDQ6VXNlcjY0NDA0MzA=",
        "avatar_url": "https://avatars.githubusercontent.com/u/6440430?v=4",
        "gravatar_id": "",
        "url": "https://api.github.com/users/mruddy",
        "html_url": "https://github.com/mruddy",
        "followers_url": "https://api.github.com/users/mruddy/followers",
        "following_url": "https://api.github.com/users/mruddy/following%7B/other_user%7D",
        "gists_url": "https://api.github.com/users/mruddy/gists%7B/gist_id%7D",
        "starred_url": "https://api.github.com/users/mruddy/starred%7B/owner%7D%7B/repo%7D",
        "subscriptions_url": "https://api.github.com/users/mruddy/subscriptions",
        "organizations_url": "https://api.github.com/users/mruddy/orgs",
        "repos_url": "https://api.github.com/users/mruddy/repos",
        "events_url": "https://api.github.com/users/mruddy/events%7B/privacy%7D",
        "received_events_url": "https://api.github.com/users/mruddy/received_events",
        "type": "User",
        "site_admin": false
      },
      "commit_id": "af864a5a565403b20bea5220412e7f5cf39578ef",
      "commit_url": "https://api.github.com/repos/mruddy/bitcoin/commits/af864a5a565403b20bea5220412e7f5cf39578ef",
      "created_at": "2022-11-19T16:50:04Z"
    },
    {
      "event": "cross-referenced",
      "id": null,
      "node_id": null,
      "url": null,
      "actor": {
        "login": "mruddy",
        "id": 6440430,
        "node_id": "MDQ6VXNlcjY0NDA0MzA=",
        "avatar_url": "https://avatars.githubusercontent.com/u/6440430?v=4",
        "gravatar_id": "",
        "url": "https://api.github.com/users/mruddy",
        "html_url": "https://github.com/mruddy",
        "followers_url": "https://api.github.com/users/mruddy/followers",
        "following_url": "https://api.github.com/users/mruddy/following%7B/other_user%7D",
        "gists_url": "https://api.github.com/users/mruddy/gists%7B/gist_id%7D",
        "starred_url": "https://api.github.com/users/mruddy/starred%7B/owner%7D%7B/repo%7D",
        "subscriptions_url": "https://api.github.com/users/mruddy/subscriptions",
        "organizations_url": "https://api.github.com/users/mruddy/orgs",
        "repos_url": "https://api.github.com/users/mruddy/repos",
        "events_url": "https://api.github.com/users/mruddy/events%7B/privacy%7D",
        "received_events_url": "https://api.github.com/users/mruddy/received_events",
        "type": "User",
        "site_admin": false
      },
      "commit_id": null,
      "commit_url": null,
      "created_at": "2022-11-19T17:17:46Z",
      "updated_at": "2022-11-19T17:17:46Z",
      "source": {
        "issue": {
          "id": 1456585633,
          "node_id": "PR_kwDOABII585DSWnh",
          "url": "https://api.github.com/repos/bitcoin/bitcoin/issues/26535",
          "repository_url": "https://api.github.com/repos/bitcoin/bitcoin",
          "labels_url": "https://api.github.com/repos/bitcoin/bitcoin/issues/26535/labels%7B/name%7D",
          "comments_url": "https://api.github.com/repos/bitcoin/bitcoin/issues/26535/comments",
          "events_url": "https://api.github.com/repos/bitcoin/bitcoin/issues/26535/events",
          "html_url": "https://github.com/bitcoin/bitcoin/pull/26535",
          "number": 26535,
          "state": "closed",
          "state_reason": null,
          "title": "reindex: allow finalized blk files to use read-only permissions",
          "body": "Fixes #2039\r\n\r\nThis PR allows node operators to set file permissions on finalized blk files to be read-only.\r\n\r\nGenerally, we assume that the node can write to anything within the data directory. But, in this case, the finalized blk files don't need to be written to again. So, it might be useful to be able to set them as read-only.\r\n\r\nThis only makes sense with **finalized** block files as blk files that have logical space under the 128 MiB limit need to be writable for appending additional blocks.\r\n\r\nUsing read-only permissions had caused a problem while using `-reindex` because there was an unnecessary flush being performed on unmodified blk files within `BlockManager::FlushBlockFile`.\r\n\r\nThe flush would show up in logs in two ways:\r\n\r\n```\r\n2022-11-19T14:26:57Z [loadblk] Loaded 119965 blocks from external file in 3868921ms\r\n2022-11-19T14:26:57Z [loadblk] Reindexing block file blk00001.dat...\r\n2022-11-19T14:26:57Z [loadblk] Unable to open file /tmp/btc/blocks/blk00000.dat\r\n2022-11-19T14:26:57Z [loadblk] ERROR: Flush: failed to open file 0\r\n2022-11-19T14:26:57Z [loadblk] *** Flushing block file to disk failed. This is likely the result of an I/O error.\r\n2022-11-19T14:26:57Z [loadblk] Error: A fatal internal error occurred, see debug.log for details\r\n```\r\n\r\nor\r\n\r\n```\r\n2022-11-19T13:17:59Z [loadblk] [bench] FlushStateToDisk: write block and undo data to disk started\r\n2022-11-19T13:17:59Z [loadblk] Unable to open file /tmp/btc/blocks/blk00000.dat\r\n2022-11-19T13:17:59Z [loadblk] ERROR: Flush: failed to open file 0\r\n2022-11-19T13:17:59Z [loadblk] *** Flushing block file to disk failed. This is likely the result of an I/O error.\r\n2022-11-19T13:17:59Z [loadblk] Error: A fatal internal error occurred, see debug.log for details\r\n2022-11-19T13:18:14Z [loadblk] [bench] FlushStateToDisk: write block and undo data to disk completed (15582.56ms)\r\n2022-11-19T13:18:14Z [loadblk] [bench] FlushStateToDisk: write block index to disk started\r\n2022-11-19T13:18:14Z [loadblk] [leveldb] WriteBatch memory usage: db=index, before=0.0MiB, after=0.0MiB\r\n2022-11-19T13:18:14Z [loadblk] [bench] FlushStateToDisk: write block index to disk completed (4.38ms)\r\n```\r\n\r\nTo test these changes, you can grab some linearized test blk files over at https://github.com/mruddy/test_blk_files\r\nYou only need to import a handful of the files to test that the flush doesn't cause the problem anymore.\r\n\r\nOnce you have the files, setup with:\r\n\r\n```\r\nmkdir -p /tmp/btc && ./src/qt/bitcoin-qt -debug -logthreadnames -datadir=/tmp/btc -loadblock=/readonly/btc/main/blk{00000..00005}.dat -connect=0\r\n```\r\n\r\nWhen those are done importing, stop the node and run\r\n\r\n```\r\nchmod 0400 /tmp/btc/blocks/blk00000.dat\r\n```\r\n\r\nFinally, start the node again, and this time run the reindex and verify that the failure does not occur as will occur without this PR's patch.\r\n\r\n```\r\n./src/qt/bitcoin-qt -debug -logthreadnames -datadir=/tmp/btc -reindex -connect=0\r\n```",
          "user": {
            "login": "mruddy",
            "id": 6440430,
            "node_id": "MDQ6VXNlcjY0NDA0MzA=",
            "avatar_url": "https://avatars.githubusercontent.com/u/6440430?v=4",
            "gravatar_id": "",
            "url": "https://api.github.com/users/mruddy",
            "html_url": "https://github.com/mruddy",
            "followers_url": "https://api.github.com/users/mruddy/followers",
            "following_url": "https://api.github.com/users/mruddy/following%7B/other_user%7D",
            "gists_url": "https://api.github.com/users/mruddy/gists%7B/gist_id%7D",
            "starred_url": "https://api.github.com/users/mruddy/starred%7B/owner%7D%7B/repo%7D",
            "subscriptions_url": "https://api.github.com/users/mruddy/subscriptions",
            "organizations_url": "https://api.github.com/users/mruddy/orgs",
            "repos_url": "https://api.github.com/users/mruddy/repos",
            "events_url": "https://api.github.com/users/mruddy/events%7B/privacy%7D",
            "received_events_url": "https://api.github.com/users/mruddy/received_events",
            "type": "User",
            "site_admin": false
          },
          "labels": [],
          "assignees": [],
          "author_association": "CONTRIBUTOR",
          "locked": false,
          "comments": 4,
          "pull_request": {
            "url": "https://api.github.com/repos/bitcoin/bitcoin/pulls/26535",
            "html_url": "https://github.com/bitcoin/bitcoin/pull/26535",
            "diff_url": "https://github.com/bitcoin/bitcoin/pull/26535.diff",
            "patch_url": "https://github.com/bitcoin/bitcoin/pull/26535.patch"
          },
          "closed_at": "2023-01-15T13:10:58Z",
          "created_at": "2022-11-19T17:17:46Z",
          "updated_at": "2023-02-22T09:03:24Z"
        },
        "type": "issue"
      }
    },
    {
      "event": "cross-referenced",
      "id": null,
      "node_id": null,
      "url": null,
      "actor": {
        "login": "pinheadmz",
        "id": 2084648,
        "node_id": "MDQ6VXNlcjIwODQ2NDg=",
        "avatar_url": "https://avatars.githubusercontent.com/u/2084648?v=4",
        "gravatar_id": "",
        "url": "https://api.github.com/users/pinheadmz",
        "html_url": "https://github.com/pinheadmz",
        "followers_url": "https://api.github.com/users/pinheadmz/followers",
        "following_url": "https://api.github.com/users/pinheadmz/following%7B/other_user%7D",
        "gists_url": "https://api.github.com/users/pinheadmz/gists%7B/gist_id%7D",
        "starred_url": "https://api.github.com/users/pinheadmz/starred%7B/owner%7D%7B/repo%7D",
        "subscriptions_url": "https://api.github.com/users/pinheadmz/subscriptions",
        "organizations_url": "https://api.github.com/users/pinheadmz/orgs",
        "repos_url": "https://api.github.com/users/pinheadmz/repos",
        "events_url": "https://api.github.com/users/pinheadmz/events%7B/privacy%7D",
        "received_events_url": "https://api.github.com/users/pinheadmz/received_events",
        "type": "User",
        "site_admin": false
      },
      "commit_id": null,
      "commit_url": null,
      "created_at": "2023-02-03T18:50:50Z",
      "updated_at": "2023-02-03T18:50:50Z",
      "source": {
        "issue": {
          "id": 1570294980,
          "node_id": "PR_kwDOABII585JOgro",
          "url": "https://api.github.com/repos/bitcoin/bitcoin/issues/27039",
          "repository_url": "https://api.github.com/repos/bitcoin/bitcoin",
          "labels_url": "https://api.github.com/repos/bitcoin/bitcoin/issues/27039/labels%7B/name%7D",
          "comments_url": "https://api.github.com/repos/bitcoin/bitcoin/issues/27039/comments",
          "events_url": "https://api.github.com/repos/bitcoin/bitcoin/issues/27039/events",
          "html_url": "https://github.com/bitcoin/bitcoin/pull/27039",
          "number": 27039,
          "state": "open",
          "state_reason": null,
          "title": "blockstorage: do not flush block to disk if it is already there",
          "body": "Closes https://github.com/bitcoin/bitcoin/issues/2039\r\nReplaces https://github.com/bitcoin/bitcoin/pull/26535 (added test, addressed feedback from reviews)\r\n\r\nWhen reindexing from flat-file block storage there is no need to write anything back to disk, since the block data is already there. This PR skips flushing to disk those blocks that already have a known position in the datastore. Skipping this means that users can write-protect the `blk` files on disk which may be useful for security or even safely sharing that data between multiple bitcoind instances.\r\n\r\n`FindBlockPos()` may also flush the undo data file, but again this is skipped if the corresponding block position is known, like during the initial stage of a reindex when block data is being indexed. Once the block index is complete the validation mechanism will call `ConnectBlock()` which will save undo data at that time.\r\n\r\nThe call stack looks like this:\r\n\r\n```\r\ninit()\r\nThreadImport() <-- process fReindex flag\r\nLoadExternalBlockFile()\r\nAcceptBlock()\r\nSaveBlockToDisk()\r\nFindBlockPos()\r\nFlushBlockFile() <-- unnecessary if block is already on disk\r\n```\r\n\r\nA larger refactor of this part of the code was started by mzumsande here:  https://github.com/mzumsande/bitcoin/tree/202207_refactor_findblockpos including this fix, reviewers can let me know if the changes should be combined.\r\n\r\nThis branch also adds a unit test for `BlockManager` to ensure that the patch does not affect currently expected behavior.",
          "user": {
            "login": "pinheadmz",
            "id": 2084648,
            "node_id": "MDQ6VXNlcjIwODQ2NDg=",
            "avatar_url": "https://avatars.githubusercontent.com/u/2084648?v=4",
            "gravatar_id": "",
            "url": "https://api.github.com/users/pinheadmz",
            "html_url": "https://github.com/pinheadmz",
            "followers_url": "https://api.github.com/users/pinheadmz/followers",
            "following_url": "https://api.github.com/users/pinheadmz/following%7B/other_user%7D",
            "gists_url": "https://api.github.com/users/pinheadmz/gists%7B/gist_id%7D",
            "starred_url": "https://api.github.com/users/pinheadmz/starred%7B/owner%7D%7B/repo%7D",
            "subscriptions_url": "https://api.github.com/users/pinheadmz/subscriptions",
            "organizations_url": "https://api.github.com/users/pinheadmz/orgs",
            "repos_url": "https://api.github.com/users/pinheadmz/repos",
            "events_url": "https://api.github.com/users/pinheadmz/events%7B/privacy%7D",
            "received_events_url": "https://api.github.com/users/pinheadmz/received_events",
            "type": "User",
            "site_admin": false
          },
          "labels": [
            {
              "id": 219890555,
              "node_id": "MDU6TGFiZWwyMTk4OTA1NTU=",
              "url": "https://api.github.com/repos/bitcoin/bitcoin/labels/Block%20storage",
              "name": "Block storage",
              "color": "000000",
              "default": false
            },
            {
              "id": 955867938,
              "node_id": "MDU6TGFiZWw5NTU4Njc5Mzg=",
              "url": "https://api.github.com/repos/bitcoin/bitcoin/labels/Needs%20rebase",
              "name": "Needs rebase",
              "description": "",
              "color": "cccccc",
              "default": false
            },
            {
              "id": 1648013533,
              "node_id": "MDU6TGFiZWwxNjQ4MDEzNTMz",
              "url": "https://api.github.com/repos/bitcoin/bitcoin/labels/Review%20club",
              "name": "Review club",
              "description": "",
              "color": "0052cc",
              "default": false
            }
          ],
          "assignees": [],
          "author_association": "MEMBER",
          "milestone": {
            "url": "https://api.github.com/repos/bitcoin/bitcoin/milestones/60",
            "html_url": "https://github.com/bitcoin/bitcoin/milestone/60",
            "labels_url": "https://api.github.com/repos/bitcoin/bitcoin/milestones/60/labels",
            "id": 9286970,
            "node_id": "MI_kwDOABII584AjbU6",
            "number": 60,
            "state": "open",
            "title": "26.0",
            "description": "",
            "creator": {
              "login": "fanquake",
              "id": 863730,
              "node_id": "MDQ6VXNlcjg2MzczMA==",
              "avatar_url": "https://avatars.githubusercontent.com/u/863730?v=4",
              "gravatar_id": "",
              "url": "https://api.github.com/users/fanquake",
              "html_url": "https://github.com/fanquake",
              "followers_url": "https://api.github.com/users/fanquake/followers",
              "following_url": "https://api.github.com/users/fanquake/following%7B/other_user%7D",
              "gists_url": "https://api.github.com/users/fanquake/gists%7B/gist_id%7D",
              "starred_url": "https://api.github.com/users/fanquake/starred%7B/owner%7D%7B/repo%7D",
              "subscriptions_url": "https://api.github.com/users/fanquake/subscriptions",
              "organizations_url": "https://api.github.com/users/fanquake/orgs",
              "repos_url": "https://api.github.com/users/fanquake/repos",
              "events_url": "https://api.github.com/users/fanquake/events%7B/privacy%7D",
              "received_events_url": "https://api.github.com/users/fanquake/received_events",
              "type": "User",
              "site_admin": false
            },
            "open_issues": 7,
            "closed_issues": 23,
            "created_at": "2023-04-15T11:36:05Z",
            "updated_at": "2023-08-01T16:50:00Z"
          },
          "locked": false,
          "comments": 18,
          "pull_request": {
            "url": "https://api.github.com/repos/bitcoin/bitcoin/pulls/27039",
            "html_url": "https://github.com/bitcoin/bitcoin/pull/27039",
            "diff_url": "https://github.com/bitcoin/bitcoin/pull/27039.diff",
            "patch_url": "https://github.com/bitcoin/bitcoin/pull/27039.patch"
          },
          "created_at": "2023-02-03T18:50:50Z",
          "updated_at": "2023-07-10T13:48:13Z"
        },
        "type": "issue"
      }
    },
    {
      "event": "commented",
      "id": 1420677366,
      "node_id": "IC_kwDOABII585UrdD2",
      "url": "https://api.github.com/repos/bitcoin/bitcoin/issues/comments/1420677366",
      "actor": {
        "login": "pinheadmz",
        "id": 2084648,
        "node_id": "MDQ6VXNlcjIwODQ2NDg=",
        "avatar_url": "https://avatars.githubusercontent.com/u/2084648?v=4",
        "gravatar_id": "",
        "url": "https://api.github.com/users/pinheadmz",
        "html_url": "https://github.com/pinheadmz",
        "followers_url": "https://api.github.com/users/pinheadmz/followers",
        "following_url": "https://api.github.com/users/pinheadmz/following%7B/other_user%7D",
        "gists_url": "https://api.github.com/users/pinheadmz/gists%7B/gist_id%7D",
        "starred_url": "https://api.github.com/users/pinheadmz/starred%7B/owner%7D%7B/repo%7D",
        "subscriptions_url": "https://api.github.com/users/pinheadmz/subscriptions",
        "organizations_url": "https://api.github.com/users/pinheadmz/orgs",
        "repos_url": "https://api.github.com/users/pinheadmz/repos",
        "events_url": "https://api.github.com/users/pinheadmz/events%7B/privacy%7D",
        "received_events_url": "https://api.github.com/users/pinheadmz/received_events",
        "type": "User",
        "site_admin": false
      },
      "commit_id": null,
      "commit_url": null,
      "created_at": "2023-02-07T12:14:38Z",
      "updated_at": "2023-02-07T12:14:38Z",
      "author_association": "MEMBER",
      "body": "@luke-jr possible fix here, with tests: https://github.com/bitcoin/bitcoin/pull/27039",
      "user": {
        "login": "pinheadmz",
        "id": 2084648,
        "node_id": "MDQ6VXNlcjIwODQ2NDg=",
        "avatar_url": "https://avatars.githubusercontent.com/u/2084648?v=4",
        "gravatar_id": "",
        "url": "https://api.github.com/users/pinheadmz",
        "html_url": "https://github.com/pinheadmz",
        "followers_url": "https://api.github.com/users/pinheadmz/followers",
        "following_url": "https://api.github.com/users/pinheadmz/following%7B/other_user%7D",
        "gists_url": "https://api.github.com/users/pinheadmz/gists%7B/gist_id%7D",
        "starred_url": "https://api.github.com/users/pinheadmz/starred%7B/owner%7D%7B/repo%7D",
        "subscriptions_url": "https://api.github.com/users/pinheadmz/subscriptions",
        "organizations_url": "https://api.github.com/users/pinheadmz/orgs",
        "repos_url": "https://api.github.com/users/pinheadmz/repos",
        "events_url": "https://api.github.com/users/pinheadmz/events%7B/privacy%7D",
        "received_events_url": "https://api.github.com/users/pinheadmz/received_events",
        "type": "User",
        "site_admin": false
      },
      "html_url": "https://github.com/bitcoin/bitcoin/issues/2039#issuecomment-1420677366",
      "issue_url": "https://api.github.com/repos/bitcoin/bitcoin/issues/2039"
    },
    {
      "event": "mentioned",
      "id": 8457408422,
      "node_id": "MEE_lADOABII584AhKxizwAAAAH4Gc-m",
      "url": "https://api.github.com/repos/bitcoin/bitcoin/issues/events/8457408422",
      "actor": {
        "login": "luke-jr",
        "id": 1095675,
        "node_id": "MDQ6VXNlcjEwOTU2NzU=",
        "avatar_url": "https://avatars.githubusercontent.com/u/1095675?v=4",
        "gravatar_id": "",
        "url": "https://api.github.com/users/luke-jr",
        "html_url": "https://github.com/luke-jr",
        "followers_url": "https://api.github.com/users/luke-jr/followers",
        "following_url": "https://api.github.com/users/luke-jr/following%7B/other_user%7D",
        "gists_url": "https://api.github.com/users/luke-jr/gists%7B/gist_id%7D",
        "starred_url": "https://api.github.com/users/luke-jr/starred%7B/owner%7D%7B/repo%7D",
        "subscriptions_url": "https://api.github.com/users/luke-jr/subscriptions",
        "organizations_url": "https://api.github.com/users/luke-jr/orgs",
        "repos_url": "https://api.github.com/users/luke-jr/repos",
        "events_url": "https://api.github.com/users/luke-jr/events%7B/privacy%7D",
        "received_events_url": "https://api.github.com/users/luke-jr/received_events",
        "type": "User",
        "site_admin": false
      },
      "commit_id": null,
      "commit_url": null,
      "created_at": "2023-02-07T12:14:39Z"
    },
    {
      "event": "subscribed",
      "id": 8457408438,
      "node_id": "SE_lADOABII584AhKxizwAAAAH4Gc-2",
      "url": "https://api.github.com/repos/bitcoin/bitcoin/issues/events/8457408438",
      "actor": {
        "login": "luke-jr",
        "id": 1095675,
        "node_id": "MDQ6VXNlcjEwOTU2NzU=",
        "avatar_url": "https://avatars.githubusercontent.com/u/1095675?v=4",
        "gravatar_id": "",
        "url": "https://api.github.com/users/luke-jr",
        "html_url": "https://github.com/luke-jr",
        "followers_url": "https://api.github.com/users/luke-jr/followers",
        "following_url": "https://api.github.com/users/luke-jr/following%7B/other_user%7D",
        "gists_url": "https://api.github.com/users/luke-jr/gists%7B/gist_id%7D",
        "starred_url": "https://api.github.com/users/luke-jr/starred%7B/owner%7D%7B/repo%7D",
        "subscriptions_url": "https://api.github.com/users/luke-jr/subscriptions",
        "organizations_url": "https://api.github.com/users/luke-jr/orgs",
        "repos_url": "https://api.github.com/users/luke-jr/repos",
        "events_url": "https://api.github.com/users/luke-jr/events%7B/privacy%7D",
        "received_events_url": "https://api.github.com/users/luke-jr/received_events",
        "type": "User",
        "site_admin": false
      },
      "commit_id": null,
      "commit_url": null,
      "created_at": "2023-02-07T12:14:39Z"
    },
    {
      "event": "assigned",
      "id": 9415241822,
      "node_id": "AE_lADOABII584AhKxizwAAAAIxMTBe",
      "url": "https://api.github.com/repos/bitcoin/bitcoin/issues/events/9415241822",
      "actor": {
        "login": "pinheadmz",
        "id": 2084648,
        "node_id": "MDQ6VXNlcjIwODQ2NDg=",
        "avatar_url": "https://avatars.githubusercontent.com/u/2084648?v=4",
        "gravatar_id": "",
        "url": "https://api.github.com/users/pinheadmz",
        "html_url": "https://github.com/pinheadmz",
        "followers_url": "https://api.github.com/users/pinheadmz/followers",
        "following_url": "https://api.github.com/users/pinheadmz/following%7B/other_user%7D",
        "gists_url": "https://api.github.com/users/pinheadmz/gists%7B/gist_id%7D",
        "starred_url": "https://api.github.com/users/pinheadmz/starred%7B/owner%7D%7B/repo%7D",
        "subscriptions_url": "https://api.github.com/users/pinheadmz/subscriptions",
        "organizations_url": "https://api.github.com/users/pinheadmz/orgs",
        "repos_url": "https://api.github.com/users/pinheadmz/repos",
        "events_url": "https://api.github.com/users/pinheadmz/events%7B/privacy%7D",
        "received_events_url": "https://api.github.com/users/pinheadmz/received_events",
        "type": "User",
        "site_admin": false
      },
      "commit_id": null,
      "commit_url": null,
      "created_at": "2023-06-02T14:52:22Z",
      "assignee": {
        "login": "pinheadmz",
        "id": 2084648,
        "node_id": "MDQ6VXNlcjIwODQ2NDg=",
        "avatar_url": "https://avatars.githubusercontent.com/u/2084648?v=4",
        "gravatar_id": "",
        "url": "https://api.github.com/users/pinheadmz",
        "html_url": "https://github.com/pinheadmz",
        "followers_url": "https://api.github.com/users/pinheadmz/followers",
        "following_url": "https://api.github.com/users/pinheadmz/following%7B/other_user%7D",
        "gists_url": "https://api.github.com/users/pinheadmz/gists%7B/gist_id%7D",
        "starred_url": "https://api.github.com/users/pinheadmz/starred%7B/owner%7D%7B/repo%7D",
        "subscriptions_url": "https://api.github.com/users/pinheadmz/subscriptions",
        "organizations_url": "https://api.github.com/users/pinheadmz/orgs",
        "repos_url": "https://api.github.com/users/pinheadmz/repos",
        "events_url": "https://api.github.com/users/pinheadmz/events%7B/privacy%7D",
        "received_events_url": "https://api.github.com/users/pinheadmz/received_events",
        "type": "User",
        "site_admin": false
      }
    },
    {
      "event": "cross-referenced",
      "id": null,
      "node_id": null,
      "url": null,
      "actor": {
        "login": "pinheadmz",
        "id": 2084648,
        "node_id": "MDQ6VXNlcjIwODQ2NDg=",
        "avatar_url": "https://avatars.githubusercontent.com/u/2084648?v=4",
        "gravatar_id": "",
        "url": "https://api.github.com/users/pinheadmz",
        "html_url": "https://github.com/pinheadmz",
        "followers_url": "https://api.github.com/users/pinheadmz/followers",
        "following_url": "https://api.github.com/users/pinheadmz/following%7B/other_user%7D",
        "gists_url": "https://api.github.com/users/pinheadmz/gists%7B/gist_id%7D",
        "starred_url": "https://api.github.com/users/pinheadmz/starred%7B/owner%7D%7B/repo%7D",
        "subscriptions_url": "https://api.github.com/users/pinheadmz/subscriptions",
        "organizations_url": "https://api.github.com/users/pinheadmz/orgs",
        "repos_url": "https://api.github.com/users/pinheadmz/repos",
        "events_url": "https://api.github.com/users/pinheadmz/events%7B/privacy%7D",
        "received_events_url": "https://api.github.com/users/pinheadmz/received_events",
        "type": "User",
        "site_admin": false
      },
      "commit_id": null,
      "commit_url": null,
      "created_at": "2023-06-10T13:14:19Z",
      "updated_at": "2023-06-10T13:14:19Z",
      "source": {
        "issue": {
          "id": 1750967441,
          "node_id": "PR_kwDOABII585SrjUA",
          "url": "https://api.github.com/repos/bitcoin/bitcoin/issues/27850",
          "repository_url": "https://api.github.com/repos/bitcoin/bitcoin",
          "labels_url": "https://api.github.com/repos/bitcoin/bitcoin/issues/27850/labels%7B/name%7D",
          "comments_url": "https://api.github.com/repos/bitcoin/bitcoin/issues/27850/comments",
          "events_url": "https://api.github.com/repos/bitcoin/bitcoin/issues/27850/events",
          "html_url": "https://github.com/bitcoin/bitcoin/pull/27850",
          "number": 27850,
          "state": "open",
          "state_reason": null,
          "title": "test: Add unit & functional test coverage for blockstore",
          "body": "This PR adds unit and functional tests to cover the behavior described in #2039. In particular, that bitcoind will crash on startup if a reindex is requested but the `blk` files are read-only. Eventually this behavior can be updated with https://github.com/bitcoin/bitcoin/pull/27039. This PR just commits the test coverage from #27039 as suggested in https://github.com/bitcoin/bitcoin/pull/27039#issuecomment-1584915782\r\n\r\nBecause root users on some platforms can write to read-only files, the test will expect a different outcome if run as root. To enable this, the test framework was expanded with `is_unix_root()` and the CI script modified to create a non-root user and run the functional tests as that user.",
          "user": {
            "login": "pinheadmz",
            "id": 2084648,
            "node_id": "MDQ6VXNlcjIwODQ2NDg=",
            "avatar_url": "https://avatars.githubusercontent.com/u/2084648?v=4",
            "gravatar_id": "",
            "url": "https://api.github.com/users/pinheadmz",
            "html_url": "https://github.com/pinheadmz",
            "followers_url": "https://api.github.com/users/pinheadmz/followers",
            "following_url": "https://api.github.com/users/pinheadmz/following%7B/other_user%7D",
            "gists_url": "https://api.github.com/users/pinheadmz/gists%7B/gist_id%7D",
            "starred_url": "https://api.github.com/users/pinheadmz/starred%7B/owner%7D%7B/repo%7D",
            "subscriptions_url": "https://api.github.com/users/pinheadmz/subscriptions",
            "organizations_url": "https://api.github.com/users/pinheadmz/orgs",
            "repos_url": "https://api.github.com/users/pinheadmz/repos",
            "events_url": "https://api.github.com/users/pinheadmz/events%7B/privacy%7D",
            "received_events_url": "https://api.github.com/users/pinheadmz/received_events",
            "type": "User",
            "site_admin": false
          },
          "labels": [
            {
              "id": 62963516,
              "node_id": "MDU6TGFiZWw2Mjk2MzUxNg==",
              "url": "https://api.github.com/repos/bitcoin/bitcoin/labels/Tests",
              "name": "Tests",
              "color": "d4c5f9",
              "default": false
            }
          ],
          "assignees": [],
          "author_association": "MEMBER",
          "locked": false,
          "comments": 28,
          "pull_request": {
            "url": "https://api.github.com/repos/bitcoin/bitcoin/pulls/27850",
            "html_url": "https://github.com/bitcoin/bitcoin/pull/27850",
            "diff_url": "https://github.com/bitcoin/bitcoin/pull/27850.diff",
            "patch_url": "https://github.com/bitcoin/bitcoin/pull/27850.patch"
          },
          "created_at": "2023-06-10T13:14:19Z",
          "updated_at": "2023-07-30T10:10:54Z"
        },
        "type": "issue"
      }
    },
    {
      "event": "cross-referenced",
      "id": null,
      "node_id": null,
      "url": null,
      "actor": {
        "login": "pinheadmz",
        "id": 2084648,
        "node_id": "MDQ6VXNlcjIwODQ2NDg=",
        "avatar_url": "https://avatars.githubusercontent.com/u/2084648?v=4",
        "gravatar_id": "",
        "url": "https://api.github.com/users/pinheadmz",
        "html_url": "https://github.com/pinheadmz",
        "followers_url": "https://api.github.com/users/pinheadmz/followers",
        "following_url": "https://api.github.com/users/pinheadmz/following%7B/other_user%7D",
        "gists_url": "https://api.github.com/users/pinheadmz/gists%7B/gist_id%7D",
        "starred_url": "https://api.github.com/users/pinheadmz/starred%7B/owner%7D%7B/repo%7D",
        "subscriptions_url": "https://api.github.com/users/pinheadmz/subscriptions",
        "organizations_url": "https://api.github.com/users/pinheadmz/orgs",
        "repos_url": "https://api.github.com/users/pinheadmz/repos",
        "events_url": "https://api.github.com/users/pinheadmz/events%7B/privacy%7D",
        "received_events_url": "https://api.github.com/users/pinheadmz/received_events",
        "type": "User",
        "site_admin": false
      },
      "commit_id": null,
      "commit_url": null,
      "created_at": "2023-06-12T15:24:33Z",
      "updated_at": "2023-06-12T15:24:33Z",
      "source": {
        "issue": {
          "id": 1718198101,
          "node_id": "PR_kwDOABII585Q8Ro8",
          "url": "https://api.github.com/repos/bitcoin/bitcoin/issues/27708",
          "repository_url": "https://api.github.com/repos/bitcoin/bitcoin",
          "labels_url": "https://api.github.com/repos/bitcoin/bitcoin/issues/27708/labels%7B/name%7D",
          "comments_url": "https://api.github.com/repos/bitcoin/bitcoin/issues/27708/comments",
          "events_url": "https://api.github.com/repos/bitcoin/bitcoin/issues/27708/events",
          "html_url": "https://github.com/bitcoin/bitcoin/pull/27708",
          "number": 27708,
          "state": "closed",
          "state_reason": null,
          "title": "Return EXIT_FAILURE on post-init fatal errors",
          "body": "It seems odd to return `EXIT_SUCCESS` when the node aborted execution due a fatal internal error\r\nor any post-init problem that triggers an unrequested shutdown.\r\n\r\ne.g. blocks or coins db I/O errors, disconnect block failure, failure during thread import (external\r\nblocks loading process error), among others.",
          "user": {
            "login": "furszy",
            "id": 5377650,
            "node_id": "MDQ6VXNlcjUzNzc2NTA=",
            "avatar_url": "https://avatars.githubusercontent.com/u/5377650?v=4",
            "gravatar_id": "",
            "url": "https://api.github.com/users/furszy",
            "html_url": "https://github.com/furszy",
            "followers_url": "https://api.github.com/users/furszy/followers",
            "following_url": "https://api.github.com/users/furszy/following%7B/other_user%7D",
            "gists_url": "https://api.github.com/users/furszy/gists%7B/gist_id%7D",
            "starred_url": "https://api.github.com/users/furszy/starred%7B/owner%7D%7B/repo%7D",
            "subscriptions_url": "https://api.github.com/users/furszy/subscriptions",
            "organizations_url": "https://api.github.com/users/furszy/orgs",
            "repos_url": "https://api.github.com/users/furszy/repos",
            "events_url": "https://api.github.com/users/furszy/events%7B/privacy%7D",
            "received_events_url": "https://api.github.com/users/furszy/received_events",
            "type": "User",
            "site_admin": false
          },
          "labels": [],
          "assignees": [],
          "author_association": "MEMBER",
          "locked": false,
          "comments": 13,
          "pull_request": {
            "url": "https://api.github.com/repos/bitcoin/bitcoin/pulls/27708",
            "html_url": "https://github.com/bitcoin/bitcoin/pull/27708",
            "diff_url": "https://github.com/bitcoin/bitcoin/pull/27708.diff",
            "patch_url": "https://github.com/bitcoin/bitcoin/pull/27708.patch"
          },
          "closed_at": "2023-06-12T16:55:02Z",
          "created_at": "2023-05-20T15:04:25Z",
          "updated_at": "2023-06-13T09:08:55Z"
        },
        "type": "issue"
      }
    }
  ]
}