{
  "type": "issue",
  "issue": {
    "id": 860715196,
    "node_id": "MDU6SXNzdWU4NjA3MTUxOTY=",
    "url": "https://api.github.com/repos/bitcoin/bitcoin/issues/21724",
    "repository_url": "https://api.github.com/repos/bitcoin/bitcoin",
    "labels_url": "https://api.github.com/repos/bitcoin/bitcoin/issues/21724/labels%7B/name%7D",
    "comments_url": "https://api.github.com/repos/bitcoin/bitcoin/issues/21724/comments",
    "events_url": "https://api.github.com/repos/bitcoin/bitcoin/issues/21724/events",
    "html_url": "https://github.com/bitcoin/bitcoin/issues/21724",
    "number": 21724,
    "state": "closed",
    "state_reason": "completed",
    "title": "Fatal LevelDB error: Corruption: block checksum mismatch",
    "body": "Had this problem with one long running node. Tried to restart bitcoind with `-debug=leveldb -reindex`, ended up with:\r\n```\r\n2021-04-18T15:00:03Z UpdateTip: new best=0000000000000000001153fc4f4aee341eacc92b28450dfff90810b4d2df216e height=616461 version=0x2fffe000 log2_work=91.642167 tx=500946903 date='2020-02-08T04:25:07Z' progress=0.799912 cache=147.0MiB(649296txo)\r\n2021-04-18T15:00:03Z leveldb: Generated table #215595: 44038 keys, 2177932 bytes\r\n2021-04-18T15:00:04Z leveldb: Generated table #215596: 44998 keys, 2180094 bytes\r\n2021-04-18T15:00:04Z leveldb: Generated table #215597: 23369 keys, 1204615 bytes\r\n2021-04-18T15:00:04Z leveldb: Compacted 1@1 + 2@2 files => 5562641 bytes\r\n2021-04-18T15:00:04Z leveldb: compacted to: files[ 0 10 124 455 1486 0 0 ]\r\n2021-04-18T15:00:04Z leveldb: Delete type=2 #215401\r\n2021-04-18T15:00:04Z leveldb: Delete type=2 #215292\r\n2021-04-18T15:00:04Z leveldb: Delete type=2 #215579\r\n2021-04-18T15:00:04Z leveldb: Delete type=2 #215580\r\n2021-04-18T15:00:04Z leveldb: Compacting 1@2 + 0@3 files\r\n2021-04-18T15:00:04Z LevelDB read failure: Corruption: block checksum mismatch\r\n2021-04-18T15:00:04Z Fatal LevelDB error: Corruption: block checksum mismatch\r\n2021-04-18T15:00:04Z You can use -debug=leveldb to get more complete diagnostic messages\r\n2021-04-18T15:00:05Z leveldb: Generated table #215598: 28652 keys, 1426450 bytes\r\n2021-04-18T15:00:05Z Error: Error reading from database, shutting down.\r\n2021-04-18T15:00:05Z Error reading from database: Fatal LevelDB error: Corruption: block checksum mismatch\r\n```\r\n\r\nAny hints how to debug this?\r\n\r\n```\r\n# bitcoind -version\r\nBitcoin Core version v0.20.1.0-gentoo\r\n```",
    "user": {
      "login": "kristapsk",
      "id": 4500994,
      "node_id": "MDQ6VXNlcjQ1MDA5OTQ=",
      "avatar_url": "https://avatars.githubusercontent.com/u/4500994?v=4",
      "gravatar_id": "",
      "url": "https://api.github.com/users/kristapsk",
      "html_url": "https://github.com/kristapsk",
      "followers_url": "https://api.github.com/users/kristapsk/followers",
      "following_url": "https://api.github.com/users/kristapsk/following%7B/other_user%7D",
      "gists_url": "https://api.github.com/users/kristapsk/gists%7B/gist_id%7D",
      "starred_url": "https://api.github.com/users/kristapsk/starred%7B/owner%7D%7B/repo%7D",
      "subscriptions_url": "https://api.github.com/users/kristapsk/subscriptions",
      "organizations_url": "https://api.github.com/users/kristapsk/orgs",
      "repos_url": "https://api.github.com/users/kristapsk/repos",
      "events_url": "https://api.github.com/users/kristapsk/events%7B/privacy%7D",
      "received_events_url": "https://api.github.com/users/kristapsk/received_events",
      "type": "User",
      "site_admin": false
    },
    "labels": [
      {
        "id": 323697996,
        "node_id": "MDU6TGFiZWwzMjM2OTc5OTY=",
        "url": "https://api.github.com/repos/bitcoin/bitcoin/labels/Data%20corruption",
        "name": "Data corruption",
        "color": "f7c6c7",
        "default": false
      },
      {
        "id": 477890092,
        "node_id": "MDU6TGFiZWw0Nzc4OTAwOTI=",
        "url": "https://api.github.com/repos/bitcoin/bitcoin/labels/Questions%20and%20Help",
        "name": "Questions and Help",
        "color": "006688",
        "default": false
      }
    ],
    "assignees": [],
    "author_association": "CONTRIBUTOR",
    "locked": false,
    "comments": 10,
    "closed_at": "2021-07-02T05:22:37Z",
    "created_at": "2021-04-18T17:16:42Z",
    "updated_at": "2023-06-26T04:20:04Z"
  },
  "events": [
    {
      "event": "labeled",
      "id": 4609309982,
      "node_id": "MDEyOkxhYmVsZWRFdmVudDQ2MDkzMDk5ODI=",
      "url": "https://api.github.com/repos/bitcoin/bitcoin/issues/events/4609309982",
      "actor": {
        "login": "kristapsk",
        "id": 4500994,
        "node_id": "MDQ6VXNlcjQ1MDA5OTQ=",
        "avatar_url": "https://avatars.githubusercontent.com/u/4500994?v=4",
        "gravatar_id": "",
        "url": "https://api.github.com/users/kristapsk",
        "html_url": "https://github.com/kristapsk",
        "followers_url": "https://api.github.com/users/kristapsk/followers",
        "following_url": "https://api.github.com/users/kristapsk/following%7B/other_user%7D",
        "gists_url": "https://api.github.com/users/kristapsk/gists%7B/gist_id%7D",
        "starred_url": "https://api.github.com/users/kristapsk/starred%7B/owner%7D%7B/repo%7D",
        "subscriptions_url": "https://api.github.com/users/kristapsk/subscriptions",
        "organizations_url": "https://api.github.com/users/kristapsk/orgs",
        "repos_url": "https://api.github.com/users/kristapsk/repos",
        "events_url": "https://api.github.com/users/kristapsk/events%7B/privacy%7D",
        "received_events_url": "https://api.github.com/users/kristapsk/received_events",
        "type": "User",
        "site_admin": false
      },
      "commit_id": null,
      "commit_url": null,
      "created_at": "2021-04-18T17:16:42Z",
      "label": {
        "name": "Bug",
        "color": "FBBAAB"
      }
    },
    {
      "event": "commented",
      "id": 822026688,
      "node_id": "MDEyOklzc3VlQ29tbWVudDgyMjAyNjY4OA==",
      "url": "https://api.github.com/repos/bitcoin/bitcoin/issues/comments/822026688",
      "actor": {
        "login": "sipa",
        "id": 548488,
        "node_id": "MDQ6VXNlcjU0ODQ4OA==",
        "avatar_url": "https://avatars.githubusercontent.com/u/548488?v=4",
        "gravatar_id": "",
        "url": "https://api.github.com/users/sipa",
        "html_url": "https://github.com/sipa",
        "followers_url": "https://api.github.com/users/sipa/followers",
        "following_url": "https://api.github.com/users/sipa/following%7B/other_user%7D",
        "gists_url": "https://api.github.com/users/sipa/gists%7B/gist_id%7D",
        "starred_url": "https://api.github.com/users/sipa/starred%7B/owner%7D%7B/repo%7D",
        "subscriptions_url": "https://api.github.com/users/sipa/subscriptions",
        "organizations_url": "https://api.github.com/users/sipa/orgs",
        "repos_url": "https://api.github.com/users/sipa/repos",
        "events_url": "https://api.github.com/users/sipa/events%7B/privacy%7D",
        "received_events_url": "https://api.github.com/users/sipa/received_events",
        "type": "User",
        "site_admin": false
      },
      "commit_id": null,
      "commit_url": null,
      "created_at": "2021-04-18T17:18:24Z",
      "updated_at": "2021-04-18T17:18:24Z",
      "author_association": "MEMBER",
      "body": "Sounds like a hardware or OS problem.",
      "user": {
        "login": "sipa",
        "id": 548488,
        "node_id": "MDQ6VXNlcjU0ODQ4OA==",
        "avatar_url": "https://avatars.githubusercontent.com/u/548488?v=4",
        "gravatar_id": "",
        "url": "https://api.github.com/users/sipa",
        "html_url": "https://github.com/sipa",
        "followers_url": "https://api.github.com/users/sipa/followers",
        "following_url": "https://api.github.com/users/sipa/following%7B/other_user%7D",
        "gists_url": "https://api.github.com/users/sipa/gists%7B/gist_id%7D",
        "starred_url": "https://api.github.com/users/sipa/starred%7B/owner%7D%7B/repo%7D",
        "subscriptions_url": "https://api.github.com/users/sipa/subscriptions",
        "organizations_url": "https://api.github.com/users/sipa/orgs",
        "repos_url": "https://api.github.com/users/sipa/repos",
        "events_url": "https://api.github.com/users/sipa/events%7B/privacy%7D",
        "received_events_url": "https://api.github.com/users/sipa/received_events",
        "type": "User",
        "site_admin": false
      },
      "html_url": "https://github.com/bitcoin/bitcoin/issues/21724#issuecomment-822026688",
      "issue_url": "https://api.github.com/repos/bitcoin/bitcoin/issues/21724"
    },
    {
      "event": "commented",
      "id": 822027076,
      "node_id": "MDEyOklzc3VlQ29tbWVudDgyMjAyNzA3Ng==",
      "url": "https://api.github.com/repos/bitcoin/bitcoin/issues/comments/822027076",
      "actor": {
        "login": "jarolrod",
        "id": 23396902,
        "node_id": "MDQ6VXNlcjIzMzk2OTAy",
        "avatar_url": "https://avatars.githubusercontent.com/u/23396902?v=4",
        "gravatar_id": "",
        "url": "https://api.github.com/users/jarolrod",
        "html_url": "https://github.com/jarolrod",
        "followers_url": "https://api.github.com/users/jarolrod/followers",
        "following_url": "https://api.github.com/users/jarolrod/following%7B/other_user%7D",
        "gists_url": "https://api.github.com/users/jarolrod/gists%7B/gist_id%7D",
        "starred_url": "https://api.github.com/users/jarolrod/starred%7B/owner%7D%7B/repo%7D",
        "subscriptions_url": "https://api.github.com/users/jarolrod/subscriptions",
        "organizations_url": "https://api.github.com/users/jarolrod/orgs",
        "repos_url": "https://api.github.com/users/jarolrod/repos",
        "events_url": "https://api.github.com/users/jarolrod/events%7B/privacy%7D",
        "received_events_url": "https://api.github.com/users/jarolrod/received_events",
        "type": "User",
        "site_admin": false
      },
      "commit_id": null,
      "commit_url": null,
      "created_at": "2021-04-18T17:20:54Z",
      "updated_at": "2021-04-18T17:20:54Z",
      "author_association": "MEMBER",
      "body": "@kristapsk I used to get this on an NVME drive that was overheating. Fixed that and haven't seen this since.",
      "user": {
        "login": "jarolrod",
        "id": 23396902,
        "node_id": "MDQ6VXNlcjIzMzk2OTAy",
        "avatar_url": "https://avatars.githubusercontent.com/u/23396902?v=4",
        "gravatar_id": "",
        "url": "https://api.github.com/users/jarolrod",
        "html_url": "https://github.com/jarolrod",
        "followers_url": "https://api.github.com/users/jarolrod/followers",
        "following_url": "https://api.github.com/users/jarolrod/following%7B/other_user%7D",
        "gists_url": "https://api.github.com/users/jarolrod/gists%7B/gist_id%7D",
        "starred_url": "https://api.github.com/users/jarolrod/starred%7B/owner%7D%7B/repo%7D",
        "subscriptions_url": "https://api.github.com/users/jarolrod/subscriptions",
        "organizations_url": "https://api.github.com/users/jarolrod/orgs",
        "repos_url": "https://api.github.com/users/jarolrod/repos",
        "events_url": "https://api.github.com/users/jarolrod/events%7B/privacy%7D",
        "received_events_url": "https://api.github.com/users/jarolrod/received_events",
        "type": "User",
        "site_admin": false
      },
      "html_url": "https://github.com/bitcoin/bitcoin/issues/21724#issuecomment-822027076",
      "issue_url": "https://api.github.com/repos/bitcoin/bitcoin/issues/21724"
    },
    {
      "event": "mentioned",
      "id": 4609314101,
      "node_id": "MDE0Ok1lbnRpb25lZEV2ZW50NDYwOTMxNDEwMQ==",
      "url": "https://api.github.com/repos/bitcoin/bitcoin/issues/events/4609314101",
      "actor": {
        "login": "kristapsk",
        "id": 4500994,
        "node_id": "MDQ6VXNlcjQ1MDA5OTQ=",
        "avatar_url": "https://avatars.githubusercontent.com/u/4500994?v=4",
        "gravatar_id": "",
        "url": "https://api.github.com/users/kristapsk",
        "html_url": "https://github.com/kristapsk",
        "followers_url": "https://api.github.com/users/kristapsk/followers",
        "following_url": "https://api.github.com/users/kristapsk/following%7B/other_user%7D",
        "gists_url": "https://api.github.com/users/kristapsk/gists%7B/gist_id%7D",
        "starred_url": "https://api.github.com/users/kristapsk/starred%7B/owner%7D%7B/repo%7D",
        "subscriptions_url": "https://api.github.com/users/kristapsk/subscriptions",
        "organizations_url": "https://api.github.com/users/kristapsk/orgs",
        "repos_url": "https://api.github.com/users/kristapsk/repos",
        "events_url": "https://api.github.com/users/kristapsk/events%7B/privacy%7D",
        "received_events_url": "https://api.github.com/users/kristapsk/received_events",
        "type": "User",
        "site_admin": false
      },
      "commit_id": null,
      "commit_url": null,
      "created_at": "2021-04-18T17:20:54Z"
    },
    {
      "event": "subscribed",
      "id": 4609314105,
      "node_id": "MDE1OlN1YnNjcmliZWRFdmVudDQ2MDkzMTQxMDU=",
      "url": "https://api.github.com/repos/bitcoin/bitcoin/issues/events/4609314105",
      "actor": {
        "login": "kristapsk",
        "id": 4500994,
        "node_id": "MDQ6VXNlcjQ1MDA5OTQ=",
        "avatar_url": "https://avatars.githubusercontent.com/u/4500994?v=4",
        "gravatar_id": "",
        "url": "https://api.github.com/users/kristapsk",
        "html_url": "https://github.com/kristapsk",
        "followers_url": "https://api.github.com/users/kristapsk/followers",
        "following_url": "https://api.github.com/users/kristapsk/following%7B/other_user%7D",
        "gists_url": "https://api.github.com/users/kristapsk/gists%7B/gist_id%7D",
        "starred_url": "https://api.github.com/users/kristapsk/starred%7B/owner%7D%7B/repo%7D",
        "subscriptions_url": "https://api.github.com/users/kristapsk/subscriptions",
        "organizations_url": "https://api.github.com/users/kristapsk/orgs",
        "repos_url": "https://api.github.com/users/kristapsk/repos",
        "events_url": "https://api.github.com/users/kristapsk/events%7B/privacy%7D",
        "received_events_url": "https://api.github.com/users/kristapsk/received_events",
        "type": "User",
        "site_admin": false
      },
      "commit_id": null,
      "commit_url": null,
      "created_at": "2021-04-18T17:20:54Z"
    },
    {
      "event": "commented",
      "id": 822029035,
      "node_id": "MDEyOklzc3VlQ29tbWVudDgyMjAyOTAzNQ==",
      "url": "https://api.github.com/repos/bitcoin/bitcoin/issues/comments/822029035",
      "actor": {
        "login": "kristapsk",
        "id": 4500994,
        "node_id": "MDQ6VXNlcjQ1MDA5OTQ=",
        "avatar_url": "https://avatars.githubusercontent.com/u/4500994?v=4",
        "gravatar_id": "",
        "url": "https://api.github.com/users/kristapsk",
        "html_url": "https://github.com/kristapsk",
        "followers_url": "https://api.github.com/users/kristapsk/followers",
        "following_url": "https://api.github.com/users/kristapsk/following%7B/other_user%7D",
        "gists_url": "https://api.github.com/users/kristapsk/gists%7B/gist_id%7D",
        "starred_url": "https://api.github.com/users/kristapsk/starred%7B/owner%7D%7B/repo%7D",
        "subscriptions_url": "https://api.github.com/users/kristapsk/subscriptions",
        "organizations_url": "https://api.github.com/users/kristapsk/orgs",
        "repos_url": "https://api.github.com/users/kristapsk/repos",
        "events_url": "https://api.github.com/users/kristapsk/events%7B/privacy%7D",
        "received_events_url": "https://api.github.com/users/kristapsk/received_events",
        "type": "User",
        "site_admin": false
      },
      "commit_id": null,
      "commit_url": null,
      "created_at": "2021-04-18T17:34:14Z",
      "updated_at": "2021-04-18T17:34:14Z",
      "author_association": "CONTRIBUTOR",
      "body": "It's a Gigabyte Brix with SATA HDD with nothing strange in a `dmesg` output...",
      "user": {
        "login": "kristapsk",
        "id": 4500994,
        "node_id": "MDQ6VXNlcjQ1MDA5OTQ=",
        "avatar_url": "https://avatars.githubusercontent.com/u/4500994?v=4",
        "gravatar_id": "",
        "url": "https://api.github.com/users/kristapsk",
        "html_url": "https://github.com/kristapsk",
        "followers_url": "https://api.github.com/users/kristapsk/followers",
        "following_url": "https://api.github.com/users/kristapsk/following%7B/other_user%7D",
        "gists_url": "https://api.github.com/users/kristapsk/gists%7B/gist_id%7D",
        "starred_url": "https://api.github.com/users/kristapsk/starred%7B/owner%7D%7B/repo%7D",
        "subscriptions_url": "https://api.github.com/users/kristapsk/subscriptions",
        "organizations_url": "https://api.github.com/users/kristapsk/orgs",
        "repos_url": "https://api.github.com/users/kristapsk/repos",
        "events_url": "https://api.github.com/users/kristapsk/events%7B/privacy%7D",
        "received_events_url": "https://api.github.com/users/kristapsk/received_events",
        "type": "User",
        "site_admin": false
      },
      "html_url": "https://github.com/bitcoin/bitcoin/issues/21724#issuecomment-822029035",
      "issue_url": "https://api.github.com/repos/bitcoin/bitcoin/issues/21724"
    },
    {
      "event": "commented",
      "id": 822030076,
      "node_id": "MDEyOklzc3VlQ29tbWVudDgyMjAzMDA3Ng==",
      "url": "https://api.github.com/repos/bitcoin/bitcoin/issues/comments/822030076",
      "actor": {
        "login": "jarolrod",
        "id": 23396902,
        "node_id": "MDQ6VXNlcjIzMzk2OTAy",
        "avatar_url": "https://avatars.githubusercontent.com/u/23396902?v=4",
        "gravatar_id": "",
        "url": "https://api.github.com/users/jarolrod",
        "html_url": "https://github.com/jarolrod",
        "followers_url": "https://api.github.com/users/jarolrod/followers",
        "following_url": "https://api.github.com/users/jarolrod/following%7B/other_user%7D",
        "gists_url": "https://api.github.com/users/jarolrod/gists%7B/gist_id%7D",
        "starred_url": "https://api.github.com/users/jarolrod/starred%7B/owner%7D%7B/repo%7D",
        "subscriptions_url": "https://api.github.com/users/jarolrod/subscriptions",
        "organizations_url": "https://api.github.com/users/jarolrod/orgs",
        "repos_url": "https://api.github.com/users/jarolrod/repos",
        "events_url": "https://api.github.com/users/jarolrod/events%7B/privacy%7D",
        "received_events_url": "https://api.github.com/users/jarolrod/received_events",
        "type": "User",
        "site_admin": false
      },
      "commit_id": null,
      "commit_url": null,
      "created_at": "2021-04-18T17:41:17Z",
      "updated_at": "2021-04-18T17:49:03Z",
      "author_association": "MEMBER",
      "body": "Was bitcoin compiled (i assume so since on Gentoo), try recompiling again? Also, make sure to run diagnostics on your system, there could be a hardware issue somewhere. If not with the HDD then maybe with memory? \r\n\r\nThis is marcofalke's template for these type of issues :)\r\n\r\nBitcoin Core makes heavy use of CPU, RAM, and disk IO. Hardware defects might only become visible when running Bitcoin Core. You might want to check your hardware for defects.\r\n\r\nmemtest86 to check your RAM\r\nto check the CPU behavior under load, use linpack or Prime95\r\nto test your storage device use smartctl or CrystalDiskInfo\r\n\r\nSource: https://bitcoin.stackexchange.com/a/12206\r\n\r\n**Edit:**\r\nBelow are some similar issues, the common theme is a hardware issue with HD, memory, or overheating CPU:\r\n- https://github.com/bitcoin/bitcoin/issues/11355\r\n- https://github.com/bitcoin/bitcoin/issues/13009\r\n- https://github.com/bitcoin/bitcoin/issues/20455\r\n- https://github.com/bitcoin/bitcoin/issues/10897",
      "user": {
        "login": "jarolrod",
        "id": 23396902,
        "node_id": "MDQ6VXNlcjIzMzk2OTAy",
        "avatar_url": "https://avatars.githubusercontent.com/u/23396902?v=4",
        "gravatar_id": "",
        "url": "https://api.github.com/users/jarolrod",
        "html_url": "https://github.com/jarolrod",
        "followers_url": "https://api.github.com/users/jarolrod/followers",
        "following_url": "https://api.github.com/users/jarolrod/following%7B/other_user%7D",
        "gists_url": "https://api.github.com/users/jarolrod/gists%7B/gist_id%7D",
        "starred_url": "https://api.github.com/users/jarolrod/starred%7B/owner%7D%7B/repo%7D",
        "subscriptions_url": "https://api.github.com/users/jarolrod/subscriptions",
        "organizations_url": "https://api.github.com/users/jarolrod/orgs",
        "repos_url": "https://api.github.com/users/jarolrod/repos",
        "events_url": "https://api.github.com/users/jarolrod/events%7B/privacy%7D",
        "received_events_url": "https://api.github.com/users/jarolrod/received_events",
        "type": "User",
        "site_admin": false
      },
      "html_url": "https://github.com/bitcoin/bitcoin/issues/21724#issuecomment-822030076",
      "issue_url": "https://api.github.com/repos/bitcoin/bitcoin/issues/21724"
    },
    {
      "event": "unlabeled",
      "id": 4610317317,
      "node_id": "MDE0OlVubGFiZWxlZEV2ZW50NDYxMDMxNzMxNw==",
      "url": "https://api.github.com/repos/bitcoin/bitcoin/issues/events/4610317317",
      "actor": {
        "login": "MarcoFalke",
        "id": 6399679,
        "node_id": "MDQ6VXNlcjYzOTk2Nzk=",
        "avatar_url": "https://avatars.githubusercontent.com/u/6399679?v=4",
        "gravatar_id": "",
        "url": "https://api.github.com/users/MarcoFalke",
        "html_url": "https://github.com/MarcoFalke",
        "followers_url": "https://api.github.com/users/MarcoFalke/followers",
        "following_url": "https://api.github.com/users/MarcoFalke/following%7B/other_user%7D",
        "gists_url": "https://api.github.com/users/MarcoFalke/gists%7B/gist_id%7D",
        "starred_url": "https://api.github.com/users/MarcoFalke/starred%7B/owner%7D%7B/repo%7D",
        "subscriptions_url": "https://api.github.com/users/MarcoFalke/subscriptions",
        "organizations_url": "https://api.github.com/users/MarcoFalke/orgs",
        "repos_url": "https://api.github.com/users/MarcoFalke/repos",
        "events_url": "https://api.github.com/users/MarcoFalke/events%7B/privacy%7D",
        "received_events_url": "https://api.github.com/users/MarcoFalke/received_events",
        "type": "User",
        "site_admin": false
      },
      "commit_id": null,
      "commit_url": null,
      "created_at": "2021-04-19T05:24:33Z",
      "label": {
        "name": "Bug",
        "color": "FBBAAB"
      }
    },
    {
      "event": "labeled",
      "id": 4610317318,
      "node_id": "MDEyOkxhYmVsZWRFdmVudDQ2MTAzMTczMTg=",
      "url": "https://api.github.com/repos/bitcoin/bitcoin/issues/events/4610317318",
      "actor": {
        "login": "MarcoFalke",
        "id": 6399679,
        "node_id": "MDQ6VXNlcjYzOTk2Nzk=",
        "avatar_url": "https://avatars.githubusercontent.com/u/6399679?v=4",
        "gravatar_id": "",
        "url": "https://api.github.com/users/MarcoFalke",
        "html_url": "https://github.com/MarcoFalke",
        "followers_url": "https://api.github.com/users/MarcoFalke/followers",
        "following_url": "https://api.github.com/users/MarcoFalke/following%7B/other_user%7D",
        "gists_url": "https://api.github.com/users/MarcoFalke/gists%7B/gist_id%7D",
        "starred_url": "https://api.github.com/users/MarcoFalke/starred%7B/owner%7D%7B/repo%7D",
        "subscriptions_url": "https://api.github.com/users/MarcoFalke/subscriptions",
        "organizations_url": "https://api.github.com/users/MarcoFalke/orgs",
        "repos_url": "https://api.github.com/users/MarcoFalke/repos",
        "events_url": "https://api.github.com/users/MarcoFalke/events%7B/privacy%7D",
        "received_events_url": "https://api.github.com/users/MarcoFalke/received_events",
        "type": "User",
        "site_admin": false
      },
      "commit_id": null,
      "commit_url": null,
      "created_at": "2021-04-19T05:24:33Z",
      "label": {
        "name": "Data corruption",
        "color": "f7c6c7"
      }
    },
    {
      "event": "labeled",
      "id": 4610317495,
      "node_id": "MDEyOkxhYmVsZWRFdmVudDQ2MTAzMTc0OTU=",
      "url": "https://api.github.com/repos/bitcoin/bitcoin/issues/events/4610317495",
      "actor": {
        "login": "MarcoFalke",
        "id": 6399679,
        "node_id": "MDQ6VXNlcjYzOTk2Nzk=",
        "avatar_url": "https://avatars.githubusercontent.com/u/6399679?v=4",
        "gravatar_id": "",
        "url": "https://api.github.com/users/MarcoFalke",
        "html_url": "https://github.com/MarcoFalke",
        "followers_url": "https://api.github.com/users/MarcoFalke/followers",
        "following_url": "https://api.github.com/users/MarcoFalke/following%7B/other_user%7D",
        "gists_url": "https://api.github.com/users/MarcoFalke/gists%7B/gist_id%7D",
        "starred_url": "https://api.github.com/users/MarcoFalke/starred%7B/owner%7D%7B/repo%7D",
        "subscriptions_url": "https://api.github.com/users/MarcoFalke/subscriptions",
        "organizations_url": "https://api.github.com/users/MarcoFalke/orgs",
        "repos_url": "https://api.github.com/users/MarcoFalke/repos",
        "events_url": "https://api.github.com/users/MarcoFalke/events%7B/privacy%7D",
        "received_events_url": "https://api.github.com/users/MarcoFalke/received_events",
        "type": "User",
        "site_admin": false
      },
      "commit_id": null,
      "commit_url": null,
      "created_at": "2021-04-19T05:24:37Z",
      "label": {
        "name": "Questions and Help",
        "color": "006688"
      }
    },
    {
      "event": "commented",
      "id": 830863062,
      "node_id": "MDEyOklzc3VlQ29tbWVudDgzMDg2MzA2Mg==",
      "url": "https://api.github.com/repos/bitcoin/bitcoin/issues/comments/830863062",
      "actor": {
        "login": "kristapsk",
        "id": 4500994,
        "node_id": "MDQ6VXNlcjQ1MDA5OTQ=",
        "avatar_url": "https://avatars.githubusercontent.com/u/4500994?v=4",
        "gravatar_id": "",
        "url": "https://api.github.com/users/kristapsk",
        "html_url": "https://github.com/kristapsk",
        "followers_url": "https://api.github.com/users/kristapsk/followers",
        "following_url": "https://api.github.com/users/kristapsk/following%7B/other_user%7D",
        "gists_url": "https://api.github.com/users/kristapsk/gists%7B/gist_id%7D",
        "starred_url": "https://api.github.com/users/kristapsk/starred%7B/owner%7D%7B/repo%7D",
        "subscriptions_url": "https://api.github.com/users/kristapsk/subscriptions",
        "organizations_url": "https://api.github.com/users/kristapsk/orgs",
        "repos_url": "https://api.github.com/users/kristapsk/repos",
        "events_url": "https://api.github.com/users/kristapsk/events%7B/privacy%7D",
        "received_events_url": "https://api.github.com/users/kristapsk/received_events",
        "type": "User",
        "site_admin": false
      },
      "commit_id": null,
      "commit_url": null,
      "created_at": "2021-05-02T19:57:39Z",
      "updated_at": "2021-05-02T19:57:39Z",
      "author_association": "CONTRIBUTOR",
      "body": "@jarolrod , thanks for the hints / links, will test the hardware.",
      "user": {
        "login": "kristapsk",
        "id": 4500994,
        "node_id": "MDQ6VXNlcjQ1MDA5OTQ=",
        "avatar_url": "https://avatars.githubusercontent.com/u/4500994?v=4",
        "gravatar_id": "",
        "url": "https://api.github.com/users/kristapsk",
        "html_url": "https://github.com/kristapsk",
        "followers_url": "https://api.github.com/users/kristapsk/followers",
        "following_url": "https://api.github.com/users/kristapsk/following%7B/other_user%7D",
        "gists_url": "https://api.github.com/users/kristapsk/gists%7B/gist_id%7D",
        "starred_url": "https://api.github.com/users/kristapsk/starred%7B/owner%7D%7B/repo%7D",
        "subscriptions_url": "https://api.github.com/users/kristapsk/subscriptions",
        "organizations_url": "https://api.github.com/users/kristapsk/orgs",
        "repos_url": "https://api.github.com/users/kristapsk/repos",
        "events_url": "https://api.github.com/users/kristapsk/events%7B/privacy%7D",
        "received_events_url": "https://api.github.com/users/kristapsk/received_events",
        "type": "User",
        "site_admin": false
      },
      "html_url": "https://github.com/bitcoin/bitcoin/issues/21724#issuecomment-830863062",
      "issue_url": "https://api.github.com/repos/bitcoin/bitcoin/issues/21724"
    },
    {
      "event": "mentioned",
      "id": 4675195992,
      "node_id": "MDE0Ok1lbnRpb25lZEV2ZW50NDY3NTE5NTk5Mg==",
      "url": "https://api.github.com/repos/bitcoin/bitcoin/issues/events/4675195992",
      "actor": {
        "login": "jarolrod",
        "id": 23396902,
        "node_id": "MDQ6VXNlcjIzMzk2OTAy",
        "avatar_url": "https://avatars.githubusercontent.com/u/23396902?v=4",
        "gravatar_id": "",
        "url": "https://api.github.com/users/jarolrod",
        "html_url": "https://github.com/jarolrod",
        "followers_url": "https://api.github.com/users/jarolrod/followers",
        "following_url": "https://api.github.com/users/jarolrod/following%7B/other_user%7D",
        "gists_url": "https://api.github.com/users/jarolrod/gists%7B/gist_id%7D",
        "starred_url": "https://api.github.com/users/jarolrod/starred%7B/owner%7D%7B/repo%7D",
        "subscriptions_url": "https://api.github.com/users/jarolrod/subscriptions",
        "organizations_url": "https://api.github.com/users/jarolrod/orgs",
        "repos_url": "https://api.github.com/users/jarolrod/repos",
        "events_url": "https://api.github.com/users/jarolrod/events%7B/privacy%7D",
        "received_events_url": "https://api.github.com/users/jarolrod/received_events",
        "type": "User",
        "site_admin": false
      },
      "commit_id": null,
      "commit_url": null,
      "created_at": "2021-05-02T19:57:39Z"
    },
    {
      "event": "subscribed",
      "id": 4675195994,
      "node_id": "MDE1OlN1YnNjcmliZWRFdmVudDQ2NzUxOTU5OTQ=",
      "url": "https://api.github.com/repos/bitcoin/bitcoin/issues/events/4675195994",
      "actor": {
        "login": "jarolrod",
        "id": 23396902,
        "node_id": "MDQ6VXNlcjIzMzk2OTAy",
        "avatar_url": "https://avatars.githubusercontent.com/u/23396902?v=4",
        "gravatar_id": "",
        "url": "https://api.github.com/users/jarolrod",
        "html_url": "https://github.com/jarolrod",
        "followers_url": "https://api.github.com/users/jarolrod/followers",
        "following_url": "https://api.github.com/users/jarolrod/following%7B/other_user%7D",
        "gists_url": "https://api.github.com/users/jarolrod/gists%7B/gist_id%7D",
        "starred_url": "https://api.github.com/users/jarolrod/starred%7B/owner%7D%7B/repo%7D",
        "subscriptions_url": "https://api.github.com/users/jarolrod/subscriptions",
        "organizations_url": "https://api.github.com/users/jarolrod/orgs",
        "repos_url": "https://api.github.com/users/jarolrod/repos",
        "events_url": "https://api.github.com/users/jarolrod/events%7B/privacy%7D",
        "received_events_url": "https://api.github.com/users/jarolrod/received_events",
        "type": "User",
        "site_admin": false
      },
      "commit_id": null,
      "commit_url": null,
      "created_at": "2021-05-02T19:57:39Z"
    },
    {
      "event": "commented",
      "id": 872704785,
      "node_id": "MDEyOklzc3VlQ29tbWVudDg3MjcwNDc4NQ==",
      "url": "https://api.github.com/repos/bitcoin/bitcoin/issues/comments/872704785",
      "actor": {
        "login": "jarolrod",
        "id": 23396902,
        "node_id": "MDQ6VXNlcjIzMzk2OTAy",
        "avatar_url": "https://avatars.githubusercontent.com/u/23396902?v=4",
        "gravatar_id": "",
        "url": "https://api.github.com/users/jarolrod",
        "html_url": "https://github.com/jarolrod",
        "followers_url": "https://api.github.com/users/jarolrod/followers",
        "following_url": "https://api.github.com/users/jarolrod/following%7B/other_user%7D",
        "gists_url": "https://api.github.com/users/jarolrod/gists%7B/gist_id%7D",
        "starred_url": "https://api.github.com/users/jarolrod/starred%7B/owner%7D%7B/repo%7D",
        "subscriptions_url": "https://api.github.com/users/jarolrod/subscriptions",
        "organizations_url": "https://api.github.com/users/jarolrod/orgs",
        "repos_url": "https://api.github.com/users/jarolrod/repos",
        "events_url": "https://api.github.com/users/jarolrod/events%7B/privacy%7D",
        "received_events_url": "https://api.github.com/users/jarolrod/received_events",
        "type": "User",
        "site_admin": false
      },
      "commit_id": null,
      "commit_url": null,
      "created_at": "2021-07-02T04:30:34Z",
      "updated_at": "2021-07-02T04:30:34Z",
      "author_association": "MEMBER",
      "body": "@kristapsk any update?\r\n",
      "user": {
        "login": "jarolrod",
        "id": 23396902,
        "node_id": "MDQ6VXNlcjIzMzk2OTAy",
        "avatar_url": "https://avatars.githubusercontent.com/u/23396902?v=4",
        "gravatar_id": "",
        "url": "https://api.github.com/users/jarolrod",
        "html_url": "https://github.com/jarolrod",
        "followers_url": "https://api.github.com/users/jarolrod/followers",
        "following_url": "https://api.github.com/users/jarolrod/following%7B/other_user%7D",
        "gists_url": "https://api.github.com/users/jarolrod/gists%7B/gist_id%7D",
        "starred_url": "https://api.github.com/users/jarolrod/starred%7B/owner%7D%7B/repo%7D",
        "subscriptions_url": "https://api.github.com/users/jarolrod/subscriptions",
        "organizations_url": "https://api.github.com/users/jarolrod/orgs",
        "repos_url": "https://api.github.com/users/jarolrod/repos",
        "events_url": "https://api.github.com/users/jarolrod/events%7B/privacy%7D",
        "received_events_url": "https://api.github.com/users/jarolrod/received_events",
        "type": "User",
        "site_admin": false
      },
      "html_url": "https://github.com/bitcoin/bitcoin/issues/21724#issuecomment-872704785",
      "issue_url": "https://api.github.com/repos/bitcoin/bitcoin/issues/21724"
    },
    {
      "event": "mentioned",
      "id": 4969282406,
      "node_id": "MDE0Ok1lbnRpb25lZEV2ZW50NDk2OTI4MjQwNg==",
      "url": "https://api.github.com/repos/bitcoin/bitcoin/issues/events/4969282406",
      "actor": {
        "login": "kristapsk",
        "id": 4500994,
        "node_id": "MDQ6VXNlcjQ1MDA5OTQ=",
        "avatar_url": "https://avatars.githubusercontent.com/u/4500994?v=4",
        "gravatar_id": "",
        "url": "https://api.github.com/users/kristapsk",
        "html_url": "https://github.com/kristapsk",
        "followers_url": "https://api.github.com/users/kristapsk/followers",
        "following_url": "https://api.github.com/users/kristapsk/following%7B/other_user%7D",
        "gists_url": "https://api.github.com/users/kristapsk/gists%7B/gist_id%7D",
        "starred_url": "https://api.github.com/users/kristapsk/starred%7B/owner%7D%7B/repo%7D",
        "subscriptions_url": "https://api.github.com/users/kristapsk/subscriptions",
        "organizations_url": "https://api.github.com/users/kristapsk/orgs",
        "repos_url": "https://api.github.com/users/kristapsk/repos",
        "events_url": "https://api.github.com/users/kristapsk/events%7B/privacy%7D",
        "received_events_url": "https://api.github.com/users/kristapsk/received_events",
        "type": "User",
        "site_admin": false
      },
      "commit_id": null,
      "commit_url": null,
      "created_at": "2021-07-02T04:30:34Z"
    },
    {
      "event": "subscribed",
      "id": 4969282408,
      "node_id": "MDE1OlN1YnNjcmliZWRFdmVudDQ5NjkyODI0MDg=",
      "url": "https://api.github.com/repos/bitcoin/bitcoin/issues/events/4969282408",
      "actor": {
        "login": "kristapsk",
        "id": 4500994,
        "node_id": "MDQ6VXNlcjQ1MDA5OTQ=",
        "avatar_url": "https://avatars.githubusercontent.com/u/4500994?v=4",
        "gravatar_id": "",
        "url": "https://api.github.com/users/kristapsk",
        "html_url": "https://github.com/kristapsk",
        "followers_url": "https://api.github.com/users/kristapsk/followers",
        "following_url": "https://api.github.com/users/kristapsk/following%7B/other_user%7D",
        "gists_url": "https://api.github.com/users/kristapsk/gists%7B/gist_id%7D",
        "starred_url": "https://api.github.com/users/kristapsk/starred%7B/owner%7D%7B/repo%7D",
        "subscriptions_url": "https://api.github.com/users/kristapsk/subscriptions",
        "organizations_url": "https://api.github.com/users/kristapsk/orgs",
        "repos_url": "https://api.github.com/users/kristapsk/repos",
        "events_url": "https://api.github.com/users/kristapsk/events%7B/privacy%7D",
        "received_events_url": "https://api.github.com/users/kristapsk/received_events",
        "type": "User",
        "site_admin": false
      },
      "commit_id": null,
      "commit_url": null,
      "created_at": "2021-07-02T04:30:34Z"
    },
    {
      "event": "commented",
      "id": 872724227,
      "node_id": "MDEyOklzc3VlQ29tbWVudDg3MjcyNDIyNw==",
      "url": "https://api.github.com/repos/bitcoin/bitcoin/issues/comments/872724227",
      "actor": {
        "login": "MarcoFalke",
        "id": 6399679,
        "node_id": "MDQ6VXNlcjYzOTk2Nzk=",
        "avatar_url": "https://avatars.githubusercontent.com/u/6399679?v=4",
        "gravatar_id": "",
        "url": "https://api.github.com/users/MarcoFalke",
        "html_url": "https://github.com/MarcoFalke",
        "followers_url": "https://api.github.com/users/MarcoFalke/followers",
        "following_url": "https://api.github.com/users/MarcoFalke/following%7B/other_user%7D",
        "gists_url": "https://api.github.com/users/MarcoFalke/gists%7B/gist_id%7D",
        "starred_url": "https://api.github.com/users/MarcoFalke/starred%7B/owner%7D%7B/repo%7D",
        "subscriptions_url": "https://api.github.com/users/MarcoFalke/subscriptions",
        "organizations_url": "https://api.github.com/users/MarcoFalke/orgs",
        "repos_url": "https://api.github.com/users/MarcoFalke/repos",
        "events_url": "https://api.github.com/users/MarcoFalke/events%7B/privacy%7D",
        "received_events_url": "https://api.github.com/users/MarcoFalke/received_events",
        "type": "User",
        "site_admin": false
      },
      "commit_id": null,
      "commit_url": null,
      "created_at": "2021-07-02T05:22:37Z",
      "updated_at": "2021-07-02T05:22:37Z",
      "author_association": "MEMBER",
      "body": "Closing for now",
      "user": {
        "login": "MarcoFalke",
        "id": 6399679,
        "node_id": "MDQ6VXNlcjYzOTk2Nzk=",
        "avatar_url": "https://avatars.githubusercontent.com/u/6399679?v=4",
        "gravatar_id": "",
        "url": "https://api.github.com/users/MarcoFalke",
        "html_url": "https://github.com/MarcoFalke",
        "followers_url": "https://api.github.com/users/MarcoFalke/followers",
        "following_url": "https://api.github.com/users/MarcoFalke/following%7B/other_user%7D",
        "gists_url": "https://api.github.com/users/MarcoFalke/gists%7B/gist_id%7D",
        "starred_url": "https://api.github.com/users/MarcoFalke/starred%7B/owner%7D%7B/repo%7D",
        "subscriptions_url": "https://api.github.com/users/MarcoFalke/subscriptions",
        "organizations_url": "https://api.github.com/users/MarcoFalke/orgs",
        "repos_url": "https://api.github.com/users/MarcoFalke/repos",
        "events_url": "https://api.github.com/users/MarcoFalke/events%7B/privacy%7D",
        "received_events_url": "https://api.github.com/users/MarcoFalke/received_events",
        "type": "User",
        "site_admin": false
      },
      "html_url": "https://github.com/bitcoin/bitcoin/issues/21724#issuecomment-872724227",
      "issue_url": "https://api.github.com/repos/bitcoin/bitcoin/issues/21724"
    },
    {
      "event": "closed",
      "id": 4969417331,
      "node_id": "MDExOkNsb3NlZEV2ZW50NDk2OTQxNzMzMQ==",
      "url": "https://api.github.com/repos/bitcoin/bitcoin/issues/events/4969417331",
      "actor": {
        "login": "MarcoFalke",
        "id": 6399679,
        "node_id": "MDQ6VXNlcjYzOTk2Nzk=",
        "avatar_url": "https://avatars.githubusercontent.com/u/6399679?v=4",
        "gravatar_id": "",
        "url": "https://api.github.com/users/MarcoFalke",
        "html_url": "https://github.com/MarcoFalke",
        "followers_url": "https://api.github.com/users/MarcoFalke/followers",
        "following_url": "https://api.github.com/users/MarcoFalke/following%7B/other_user%7D",
        "gists_url": "https://api.github.com/users/MarcoFalke/gists%7B/gist_id%7D",
        "starred_url": "https://api.github.com/users/MarcoFalke/starred%7B/owner%7D%7B/repo%7D",
        "subscriptions_url": "https://api.github.com/users/MarcoFalke/subscriptions",
        "organizations_url": "https://api.github.com/users/MarcoFalke/orgs",
        "repos_url": "https://api.github.com/users/MarcoFalke/repos",
        "events_url": "https://api.github.com/users/MarcoFalke/events%7B/privacy%7D",
        "received_events_url": "https://api.github.com/users/MarcoFalke/received_events",
        "type": "User",
        "site_admin": false
      },
      "commit_id": null,
      "commit_url": null,
      "created_at": "2021-07-02T05:22:37Z"
    },
    {
      "event": "commented",
      "id": 873321191,
      "node_id": "MDEyOklzc3VlQ29tbWVudDg3MzMyMTE5MQ==",
      "url": "https://api.github.com/repos/bitcoin/bitcoin/issues/comments/873321191",
      "actor": {
        "login": "kristapsk",
        "id": 4500994,
        "node_id": "MDQ6VXNlcjQ1MDA5OTQ=",
        "avatar_url": "https://avatars.githubusercontent.com/u/4500994?v=4",
        "gravatar_id": "",
        "url": "https://api.github.com/users/kristapsk",
        "html_url": "https://github.com/kristapsk",
        "followers_url": "https://api.github.com/users/kristapsk/followers",
        "following_url": "https://api.github.com/users/kristapsk/following%7B/other_user%7D",
        "gists_url": "https://api.github.com/users/kristapsk/gists%7B/gist_id%7D",
        "starred_url": "https://api.github.com/users/kristapsk/starred%7B/owner%7D%7B/repo%7D",
        "subscriptions_url": "https://api.github.com/users/kristapsk/subscriptions",
        "organizations_url": "https://api.github.com/users/kristapsk/orgs",
        "repos_url": "https://api.github.com/users/kristapsk/repos",
        "events_url": "https://api.github.com/users/kristapsk/events%7B/privacy%7D",
        "received_events_url": "https://api.github.com/users/kristapsk/received_events",
        "type": "User",
        "site_admin": false
      },
      "commit_id": null,
      "commit_url": null,
      "created_at": "2021-07-03T01:11:13Z",
      "updated_at": "2021-07-03T01:11:13Z",
      "author_association": "CONTRIBUTOR",
      "body": "Did some hardware tests on a specific machine back in a May, haven't found any problems (but I don't remember details about everything I tested anymore). Was busy with other things, have decided to replace it with something more serious for mainnet. But will try to figure out what's wrong there at some point probably. It's ok to close this for now.",
      "user": {
        "login": "kristapsk",
        "id": 4500994,
        "node_id": "MDQ6VXNlcjQ1MDA5OTQ=",
        "avatar_url": "https://avatars.githubusercontent.com/u/4500994?v=4",
        "gravatar_id": "",
        "url": "https://api.github.com/users/kristapsk",
        "html_url": "https://github.com/kristapsk",
        "followers_url": "https://api.github.com/users/kristapsk/followers",
        "following_url": "https://api.github.com/users/kristapsk/following%7B/other_user%7D",
        "gists_url": "https://api.github.com/users/kristapsk/gists%7B/gist_id%7D",
        "starred_url": "https://api.github.com/users/kristapsk/starred%7B/owner%7D%7B/repo%7D",
        "subscriptions_url": "https://api.github.com/users/kristapsk/subscriptions",
        "organizations_url": "https://api.github.com/users/kristapsk/orgs",
        "repos_url": "https://api.github.com/users/kristapsk/repos",
        "events_url": "https://api.github.com/users/kristapsk/events%7B/privacy%7D",
        "received_events_url": "https://api.github.com/users/kristapsk/received_events",
        "type": "User",
        "site_admin": false
      },
      "html_url": "https://github.com/bitcoin/bitcoin/issues/21724#issuecomment-873321191",
      "issue_url": "https://api.github.com/repos/bitcoin/bitcoin/issues/21724"
    },
    {
      "event": "cross-referenced",
      "id": null,
      "node_id": null,
      "url": null,
      "actor": {
        "login": "elvece",
        "id": 12953208,
        "node_id": "MDQ6VXNlcjEyOTUzMjA4",
        "avatar_url": "https://avatars.githubusercontent.com/u/12953208?v=4",
        "gravatar_id": "",
        "url": "https://api.github.com/users/elvece",
        "html_url": "https://github.com/elvece",
        "followers_url": "https://api.github.com/users/elvece/followers",
        "following_url": "https://api.github.com/users/elvece/following%7B/other_user%7D",
        "gists_url": "https://api.github.com/users/elvece/gists%7B/gist_id%7D",
        "starred_url": "https://api.github.com/users/elvece/starred%7B/owner%7D%7B/repo%7D",
        "subscriptions_url": "https://api.github.com/users/elvece/subscriptions",
        "organizations_url": "https://api.github.com/users/elvece/orgs",
        "repos_url": "https://api.github.com/users/elvece/repos",
        "events_url": "https://api.github.com/users/elvece/events%7B/privacy%7D",
        "received_events_url": "https://api.github.com/users/elvece/received_events",
        "type": "User",
        "site_admin": false
      },
      "commit_id": null,
      "commit_url": null,
      "created_at": "2022-03-30T17:40:26Z",
      "updated_at": "2022-03-30T17:40:26Z",
      "source": {
        "issue": {
          "id": 1186783502,
          "node_id": "I_kwDOEbswDc5GvOEO",
          "url": "https://api.github.com/repos/Start9Labs/bitcoind-wrapper/issues/60",
          "repository_url": "https://api.github.com/repos/Start9Labs/bitcoind-wrapper",
          "labels_url": "https://api.github.com/repos/Start9Labs/bitcoind-wrapper/issues/60/labels%7B/name%7D",
          "comments_url": "https://api.github.com/repos/Start9Labs/bitcoind-wrapper/issues/60/comments",
          "events_url": "https://api.github.com/repos/Start9Labs/bitcoind-wrapper/issues/60/events",
          "html_url": "https://github.com/Start9Labs/bitcoind-wrapper/issues/60",
          "number": 60,
          "state": "closed",
          "state_reason": "completed",
          "title": "Add action to delete txindex if it gets corrupted",
          "body": "Environment:\r\n- raspi 8gb\r\n- dev box (its in the office, regular black embassy plugged into ethernet in wall behind my desk)\r\n- crucial drive (our default product we ship, but I do not know the specifics of the SSD, I can run a command to find out if provided)\r\n\r\nSteps to recreate:\r\n\r\n- fresh install of Bitcoin Core\r\n- toggle txindex on\r\n- all other config settings are default (ie. full archival node)\r\n- let sync for ~1 day (was at about 4%)\r\n- logs indicated a crash loop with the following recurring message (relevant details at end):\r\n\r\nOther notes: \r\n- [Related](https://github.com/bitcoin/bitcoin/issues/21724) (see comment with other links as well)\r\n\r\n```\r\n2022-03-29T11:09:06Z Bitcoin Core version v22.0.0 (release build)\r\n2022-03-29T11:09:06Z InitParameterInteraction: parameter interaction: -externalip set -> setting -discover=0\r\n2022-03-29T11:09:06Z Assuming ancestors of block 00000000000000000008a89e854d57e5667df88f1cdef6fde2fbca1de5b639ad have valid signatures.\r\n2022-03-29T11:09:06Z Setting nMinimumChainWork=00000000000000000000000000000000000000001fa4663bbbe19f82de910280\r\n2022-03-29T11:09:06Z Using the 'standard' SHA256 implementation\r\n2022-03-29T11:09:06Z Default data directory /root/.bitcoin\r\n2022-03-29T11:09:06Z Using data directory /root/.bitcoin\r\n2022-03-29T11:09:06Z Config file: /root/.bitcoin/bitcoin.conf\r\n2022-03-29T11:09:06Z Config file arg: avoidpartialspends=\"1\"\r\n2022-03-29T11:09:06Z Config file arg: bind=\"0.0.0.0:8333\"\r\n2022-03-29T11:09:06Z Config file arg: disablewallet=\"0\"\r\n2022-03-29T11:09:06Z Config file arg: discardfee=\"0.0001\"\r\n2022-03-29T11:09:06Z Config file arg: listen=\"1\"\r\n2022-03-29T11:09:06Z Config file arg: maxmempool=\"300\"\r\n2022-03-29T11:09:06Z Config file arg: mempoolexpiry=\"336\"\r\n2022-03-29T11:09:06Z Config file arg: persistmempool=\"1\"\r\n2022-03-29T11:09:06Z Config file arg: rpcallowip=\"0.0.0.0/0\"\r\n2022-03-29T11:09:06Z Config file arg: rpcbind=****\r\n2022-03-29T11:09:06Z Config file arg: rpcpassword=****\r\n2022-03-29T11:09:06Z Config file arg: rpcserialversion=\"1\"\r\n2022-03-29T11:09:06Z Config file arg: rpcservertimeout=\"30\"\r\n2022-03-29T11:09:06Z Config file arg: rpcthreads=\"1\"\r\n2022-03-29T11:09:06Z Config file arg: rpcuser=****\r\n2022-03-29T11:09:06Z Config file arg: rpcworkqueue=\"16\"\r\n2022-03-29T11:09:06Z Config file arg: txindex=\"1\"\r\n2022-03-29T11:09:06Z Config file arg: whitelist=\"172.18.0.0/16\"\r\n2022-03-29T11:09:06Z Config file arg: zmqpubrawblock=\"tcp://0.0.0.0:28332\"\r\n2022-03-29T11:09:06Z Config file arg: zmqpubrawtx=\"tcp://0.0.0.0:28333\"\r\n2022-03-29T11:09:06Z Command-line arg: conf=\"/root/.bitcoin/bitcoin.conf\"\r\n2022-03-29T11:09:06Z Command-line arg: datadir=\"/root/.bitcoin\"\r\n2022-03-29T11:09:06Z Command-line arg: externalip=\"slctejn6ynv4ajs4pz3uxjfelkz7zefggvgbibtcme5hjsmf7enksrad.onion\"\r\n2022-03-29T11:09:06Z Command-line arg: onion=\"172.18.0.1:9050\"\r\n2022-03-29T11:09:06Z Using at most 125 automatic connections (1048576 file descriptors available)\r\n2022-03-29T11:09:06Z Using 16 MiB out of 32/2 requested for signature cache, able to store 524288 elements\r\n2022-03-29T11:09:06Z Using 16 MiB out of 32/2 requested for script execution cache, able to store 524288 elements\r\n2022-03-29T11:09:06Z Script verification uses 3 additional threads\r\n2022-03-29T11:09:06Z scheduler thread start\r\n2022-03-29T11:09:06Z WARNING: the RPC server is not safe to expose to untrusted networks such as the public internet\r\n2022-03-29T11:09:06Z HTTP: creating work queue of depth 16\r\n2022-03-29T11:09:06Z Config options rpcuser and rpcpassword will soon be deprecated. Locally-run instances may remove rpcuser to use cookie-based auth, or may be replaced with rpcauth. Please see share/rpcauth for rpcauth auth generation.\r\n2022-03-29T11:09:06Z HTTP: starting 1 worker threads\r\n2022-03-29T11:09:06Z Using wallet directory /root/.bitcoin\r\n2022-03-29T11:09:06Z init message: Verifying wallet(s)…\r\n2022-03-29T11:09:06Z init message: Loading banlist…\r\n2022-03-29T11:09:06Z SetNetworkActive: true\r\n2022-03-29T11:09:06Z Failed to read fee estimates from /root/.bitcoin/fee_estimates.dat. Continue anyway.\r\n2022-03-29T11:09:06Z AddLocal(slctejn6ynv4ajs4pz3uxjfelkz7zefggvgbibtcme5hjsmf7enksrad.onion:8333,4)\r\n2022-03-29T11:09:06Z Using /16 prefix for IP bucketing\r\n2022-03-29T11:09:06Z Cache configuration:\r\n2022-03-29T11:09:06Z * Using 2.0 MiB for block index database\r\n2022-03-29T11:09:06Z * Using 56.0 MiB for transaction index database\r\n2022-03-29T11:09:06Z * Using 8.0 MiB for chain state database\r\n2022-03-29T11:09:06Z * Using 384.0 MiB for in-memory UTXO set (plus up to 286.1 MiB of unused mempool space)\r\n2022-03-29T11:09:06Z init message: Loading block index…\r\n2022-03-29T11:09:06Z Switching active chainstate to Chainstate [ibd] @ height -1 (null)\r\n2022-03-29T11:09:06Z Opening LevelDB in /root/.bitcoin/blocks/index\r\n2022-03-29T11:09:06Z Opened LevelDB successfully\r\n2022-03-29T11:09:06Z Using obfuscation key for /root/.bitcoin/blocks/index: 0000000000000000\r\n2022-03-29T11:09:17Z LoadBlockIndexDB: last block file = 421\r\n2022-03-29T11:09:17Z LoadBlockIndexDB: last block file info: CBlockFileInfo(blocks=156, size=129708690, heights=393979...394143, time=2016-01-19...2016-01-20)\r\n2022-03-29T11:09:17Z Checking all blk files are present...\r\n2022-03-29T11:09:17Z Opening LevelDB in /root/.bitcoin/chainstate\r\n2022-03-29T11:09:17Z Opened LevelDB successfully\r\n2022-03-29T11:09:17Z Using obfuscation key for /root/.bitcoin/chainstate: 3d0879cfb3246fa2\r\n2022-03-29T11:09:18Z Loaded best chain: hashBestChain=0000000000000000051a6089df758eb75106fabf9a51e46c1dd9f4bc249e2e4a height=394133 date=2016-01-20T07:08:11Z progress=0.147453\r\n2022-03-29T11:09:18Z init message: Verifying blocks…\r\n2022-03-29T11:09:18Z Verifying last 6 blocks at level 3\r\n2022-03-29T11:09:18Z [0%]...[16%]...[33%]...[50%]...[66%]...[83%]...[99%]...[DONE].\r\n2022-03-29T11:09:19Z No coin database inconsistencies in last 6 blocks (6258 transactions)\r\n2022-03-29T11:09:19Z  block index           13062ms\r\n2022-03-29T11:09:19Z Opening LevelDB in /root/.bitcoin/indexes/txindex\r\n2022-03-29T11:09:19Z Opened LevelDB successfully\r\n2022-03-29T11:09:19Z Using obfuscation key for /root/.bitcoin/indexes/txindex: 0000000000000000\r\n2022-03-29T11:09:19Z txindex thread start\r\n2022-03-29T11:09:19Z txindex is enabled at height 394133\r\n2022-03-29T11:09:19Z block tree size = 729500\r\n2022-03-29T11:09:19Z nBestHeight = 394133\r\n2022-03-29T11:09:19Z txindex thread exit\r\n2022-03-29T11:09:19Z loadblk thread start\r\n2022-03-29T11:09:19Z Failed to open mempool file from disk. Continuing anyway.\r\n2022-03-29T11:09:19Z loadblk thread exit\r\n2022-03-29T11:09:19Z Bound to 0.0.0.0:8333\r\n2022-03-29T11:09:19Z Bound to 127.0.0.1:8334\r\n2022-03-29T11:09:19Z init message: Loading P2P addresses…\r\n2022-03-29T11:09:19Z torcontrol thread start\r\n2022-03-29T11:09:19Z Loaded 16730 addresses from peers.dat  113ms\r\n2022-03-29T11:09:19Z Missing or invalid file /root/.bitcoin/anchors.dat\r\n2022-03-29T11:09:19Z 0 block-relay-only anchors will be tried for connections.\r\n2022-03-29T11:09:19Z init message: Starting network threads…\r\n2022-03-29T11:09:19Z net thread start\r\n2022-03-29T11:09:19Z addcon thread start\r\n2022-03-29T11:09:19Z dnsseed thread start\r\n2022-03-29T11:09:19Z init message: Done loading\r\n2022-03-29T11:09:19Z Waiting 300 seconds before querying DNS seeds.\r\n2022-03-29T11:09:19Z opencon thread start\r\n2022-03-29T11:09:19Z msghand thread start\r\n2022-03-29T11:09:20Z New outbound peer connected: version: 70015, blocks=729542, peer=0 (outbound-full-relay)\r\n2022-03-29T11:09:20Z Synchronizing blockheaders, height: 729542 (~100.00%)\r\n2022-03-29T11:09:21Z UpdateTip: new best=00000000000000000837d8df4299feed2573af12778081bf041fe8f8ebd63df8 height=394134 version=0x00000004 log2_work=83.943519 tx=104619196 date='2016-01-20T07:09:42Z' progress=0.147454 cache=0.9MiB(6790txo)\r\n2022-03-29T11:09:21Z UpdateTip: new best=000000000000000007fd5fa7c84e7f71f2fb0c2ee1625fb226daa5750ee25502 height=394135 version=0x00000004 log2_work=83.943557 tx=104620197 date='2016-01-20T07:19:19Z' progress=0.147455 cache=1.9MiB(14324txo)\r\n2022-03-29T11:09:21Z Fatal LevelDB error: Corruption: block checksum mismatch: /root/.bitcoin/indexes/txindex/032765.ldb\r\n2022-03-29T11:09:21Z You can use -debug=leveldb to get more complete diagnostic messages\r\n2022-03-29T11:09:21Z\r\n\r\n************************\r\nEXCEPTION: 15dbwrapper_error\r\nFatal LevelDB error: Corruption: block checksum mismatch: /root/.bitcoin/indexes/txindex/032765.ldb\r\nbitcoin in scheduler",
          "user": {
            "login": "elvece",
            "id": 12953208,
            "node_id": "MDQ6VXNlcjEyOTUzMjA4",
            "avatar_url": "https://avatars.githubusercontent.com/u/12953208?v=4",
            "gravatar_id": "",
            "url": "https://api.github.com/users/elvece",
            "html_url": "https://github.com/elvece",
            "followers_url": "https://api.github.com/users/elvece/followers",
            "following_url": "https://api.github.com/users/elvece/following%7B/other_user%7D",
            "gists_url": "https://api.github.com/users/elvece/gists%7B/gist_id%7D",
            "starred_url": "https://api.github.com/users/elvece/starred%7B/owner%7D%7B/repo%7D",
            "subscriptions_url": "https://api.github.com/users/elvece/subscriptions",
            "organizations_url": "https://api.github.com/users/elvece/orgs",
            "repos_url": "https://api.github.com/users/elvece/repos",
            "events_url": "https://api.github.com/users/elvece/events%7B/privacy%7D",
            "received_events_url": "https://api.github.com/users/elvece/received_events",
            "type": "User",
            "site_admin": false
          },
          "labels": [
            {
              "id": 3497784487,
              "node_id": "LA_kwDOEbswDc7Qe_Sn",
              "url": "https://api.github.com/repos/Start9Labs/bitcoind-wrapper/labels/Enhancement",
              "name": "Enhancement",
              "description": "New feature or request",
              "color": "a2eeef",
              "default": false
            },
            {
              "id": 3497784488,
              "node_id": "LA_kwDOEbswDc7Qe_So",
              "url": "https://api.github.com/repos/Start9Labs/bitcoind-wrapper/labels/P2%20-%20Desirable",
              "name": "P2 - Desirable",
              "description": "high prioity, nice-to-haves",
              "color": "FEF2C0",
              "default": false
            }
          ],
          "assignee": {
            "login": "chrisguida",
            "id": 7445670,
            "node_id": "MDQ6VXNlcjc0NDU2NzA=",
            "avatar_url": "https://avatars.githubusercontent.com/u/7445670?v=4",
            "gravatar_id": "",
            "url": "https://api.github.com/users/chrisguida",
            "html_url": "https://github.com/chrisguida",
            "followers_url": "https://api.github.com/users/chrisguida/followers",
            "following_url": "https://api.github.com/users/chrisguida/following%7B/other_user%7D",
            "gists_url": "https://api.github.com/users/chrisguida/gists%7B/gist_id%7D",
            "starred_url": "https://api.github.com/users/chrisguida/starred%7B/owner%7D%7B/repo%7D",
            "subscriptions_url": "https://api.github.com/users/chrisguida/subscriptions",
            "organizations_url": "https://api.github.com/users/chrisguida/orgs",
            "repos_url": "https://api.github.com/users/chrisguida/repos",
            "events_url": "https://api.github.com/users/chrisguida/events%7B/privacy%7D",
            "received_events_url": "https://api.github.com/users/chrisguida/received_events",
            "type": "User",
            "site_admin": false
          },
          "assignees": [
            {
              "login": "chrisguida",
              "id": 7445670,
              "node_id": "MDQ6VXNlcjc0NDU2NzA=",
              "avatar_url": "https://avatars.githubusercontent.com/u/7445670?v=4",
              "gravatar_id": "",
              "url": "https://api.github.com/users/chrisguida",
              "html_url": "https://github.com/chrisguida",
              "followers_url": "https://api.github.com/users/chrisguida/followers",
              "following_url": "https://api.github.com/users/chrisguida/following%7B/other_user%7D",
              "gists_url": "https://api.github.com/users/chrisguida/gists%7B/gist_id%7D",
              "starred_url": "https://api.github.com/users/chrisguida/starred%7B/owner%7D%7B/repo%7D",
              "subscriptions_url": "https://api.github.com/users/chrisguida/subscriptions",
              "organizations_url": "https://api.github.com/users/chrisguida/orgs",
              "repos_url": "https://api.github.com/users/chrisguida/repos",
              "events_url": "https://api.github.com/users/chrisguida/events%7B/privacy%7D",
              "received_events_url": "https://api.github.com/users/chrisguida/received_events",
              "type": "User",
              "site_admin": false
            }
          ],
          "author_association": "MEMBER",
          "locked": false,
          "comments": 9,
          "closed_at": "2022-07-28T14:16:48Z",
          "created_at": "2022-03-30T17:40:25Z",
          "updated_at": "2022-07-28T14:16:48Z"
        },
        "type": "issue"
      }
    },
    {
      "event": "commented",
      "id": 1189067439,
      "node_id": "IC_kwDOABII585G37qv",
      "url": "https://api.github.com/repos/bitcoin/bitcoin/issues/comments/1189067439",
      "actor": {
        "login": "ademar111190",
        "id": 1225438,
        "node_id": "MDQ6VXNlcjEyMjU0Mzg=",
        "avatar_url": "https://avatars.githubusercontent.com/u/1225438?v=4",
        "gravatar_id": "",
        "url": "https://api.github.com/users/ademar111190",
        "html_url": "https://github.com/ademar111190",
        "followers_url": "https://api.github.com/users/ademar111190/followers",
        "following_url": "https://api.github.com/users/ademar111190/following%7B/other_user%7D",
        "gists_url": "https://api.github.com/users/ademar111190/gists%7B/gist_id%7D",
        "starred_url": "https://api.github.com/users/ademar111190/starred%7B/owner%7D%7B/repo%7D",
        "subscriptions_url": "https://api.github.com/users/ademar111190/subscriptions",
        "organizations_url": "https://api.github.com/users/ademar111190/orgs",
        "repos_url": "https://api.github.com/users/ademar111190/repos",
        "events_url": "https://api.github.com/users/ademar111190/events%7B/privacy%7D",
        "received_events_url": "https://api.github.com/users/ademar111190/received_events",
        "type": "User",
        "site_admin": false
      },
      "commit_id": null,
      "commit_url": null,
      "created_at": "2022-07-19T13:39:10Z",
      "updated_at": "2022-07-19T13:39:10Z",
      "author_association": "NONE",
      "body": "I had this checksum LevelDB problem frequently in the last weeks, following this answer https://github.com/bitcoin/bitcoin/issues/10897#issuecomment-317355977 I managed to solve it, the HD I have been using to keep a copy of bitcoins blockchain is not working properly anymore, copying everything to a new HD and using it completely solve the errors.",
      "user": {
        "login": "ademar111190",
        "id": 1225438,
        "node_id": "MDQ6VXNlcjEyMjU0Mzg=",
        "avatar_url": "https://avatars.githubusercontent.com/u/1225438?v=4",
        "gravatar_id": "",
        "url": "https://api.github.com/users/ademar111190",
        "html_url": "https://github.com/ademar111190",
        "followers_url": "https://api.github.com/users/ademar111190/followers",
        "following_url": "https://api.github.com/users/ademar111190/following%7B/other_user%7D",
        "gists_url": "https://api.github.com/users/ademar111190/gists%7B/gist_id%7D",
        "starred_url": "https://api.github.com/users/ademar111190/starred%7B/owner%7D%7B/repo%7D",
        "subscriptions_url": "https://api.github.com/users/ademar111190/subscriptions",
        "organizations_url": "https://api.github.com/users/ademar111190/orgs",
        "repos_url": "https://api.github.com/users/ademar111190/repos",
        "events_url": "https://api.github.com/users/ademar111190/events%7B/privacy%7D",
        "received_events_url": "https://api.github.com/users/ademar111190/received_events",
        "type": "User",
        "site_admin": false
      },
      "html_url": "https://github.com/bitcoin/bitcoin/issues/21724#issuecomment-1189067439",
      "issue_url": "https://api.github.com/repos/bitcoin/bitcoin/issues/21724"
    },
    {
      "event": "cross-referenced",
      "id": null,
      "node_id": null,
      "url": null,
      "actor": {
        "login": "kushti",
        "id": 1972441,
        "node_id": "MDQ6VXNlcjE5NzI0NDE=",
        "avatar_url": "https://avatars.githubusercontent.com/u/1972441?v=4",
        "gravatar_id": "",
        "url": "https://api.github.com/users/kushti",
        "html_url": "https://github.com/kushti",
        "followers_url": "https://api.github.com/users/kushti/followers",
        "following_url": "https://api.github.com/users/kushti/following%7B/other_user%7D",
        "gists_url": "https://api.github.com/users/kushti/gists%7B/gist_id%7D",
        "starred_url": "https://api.github.com/users/kushti/starred%7B/owner%7D%7B/repo%7D",
        "subscriptions_url": "https://api.github.com/users/kushti/subscriptions",
        "organizations_url": "https://api.github.com/users/kushti/orgs",
        "repos_url": "https://api.github.com/users/kushti/repos",
        "events_url": "https://api.github.com/users/kushti/events%7B/privacy%7D",
        "received_events_url": "https://api.github.com/users/kushti/received_events",
        "type": "User",
        "site_admin": false
      },
      "commit_id": null,
      "commit_url": null,
      "created_at": "2023-04-07T16:28:29Z",
      "updated_at": "2023-04-07T16:28:29Z",
      "source": {
        "issue": {
          "id": 1658637156,
          "node_id": "I_kwDOBZ2dM85i3Mtk",
          "url": "https://api.github.com/repos/ergoplatform/ergo/issues/1974",
          "repository_url": "https://api.github.com/repos/ergoplatform/ergo",
          "labels_url": "https://api.github.com/repos/ergoplatform/ergo/issues/1974/labels%7B/name%7D",
          "comments_url": "https://api.github.com/repos/ergoplatform/ergo/issues/1974/comments",
          "events_url": "https://api.github.com/repos/ergoplatform/ergo/issues/1974/events",
          "html_url": "https://github.com/ergoplatform/ergo/issues/1974",
          "number": 1974,
          "state": "closed",
          "state_reason": "completed",
          "title": "Ergo node can't sync over certain amount of blocks",
          "body": "Version: 5.0.8\r\nCommand: java -jar -Xmx10G -Dlogback.stdout.level=WARN -Dlogback.file.level=ERR ergo.jar --mainnet -c ergo.conf\r\n32GB DDR4/ Ryzen 7 3700x\r\nWindows 11 Home\r\nJDK 20\r\nSSD NVMe (ergo wallet) HDD - blockchain\r\n11:21:57.781 WARN  [ergoref-api-dispatcher-13] o.e.n.wallet.WalletVars - Trying to update prover's parameters, but prover is not initialized\r\n11:25:15.448 WARN  [ef-critical-dispatcher-39] o.e.n.state.UtxoState - Error while applying full block with header bfe6c9298b491df49dc8ffa8b0f0400610a322287bdcca903ff7a0c2b40fd91e to UTXOState with root 5a505645c0a5ac2fac81f60c68bb9f5c31e0ad1f32a7f61c99e1eb9ba5e5126e13, reason: org.iq80.leveldb.DBException: Corruption: block checksum mismatch \r\norg.iq80.leveldb.DBException: Corruption: block checksum mismatch\r\n\tat org.fusesource.leveldbjni.internal.JniDB.write(JniDB.java:153)\r\n\tat scorex.db.StoreRegistry$RegisteredDB.write(LDBFactory.scala:42)\r\n\tat scorex.db.LDBVersionedStore.$anonfun$update$1(LDBVersionedStore.scala:282)\r\n\tat scala.runtime.java8.JFunction0$mcV$sp.apply(JFunction0$mcV$sp.java:23)\r\n\tat scala.util.Try$.apply(Try.scala:213)\r\n\tat scorex.db.LDBVersionedStore.update(LDBVersionedStore.scala:236)\r\n\tat scorex.crypto.authds.avltree.batch.VersionedLDBAVLStorage.update(VersionedLDBAVLStorage.scala:64)\r\n\tat scorex.crypto.authds.avltree.batch.PersistentBatchAVLProver.generateProofAndUpdateStorage(PersistentBatchAVLProver.scala:25)\r\n\tat org.ergoplatform.nodeView.state.UtxoState.$anonfun$applyModifier$3(UtxoState.scala:144)\r\n\tat scala.util.Success.$anonfun$map$1(Try.scala:255)\r\n\tat scala.util.Success.map(Try.scala:213)\r\n\tat org.ergoplatform.nodeView.state.UtxoState.$anonfun$applyModifier$2(UtxoState.scala:140)\r\n\tat scala.util.Success.flatMap(Try.scala:251)\r\n\tat org.ergoplatform.nodeView.state.UtxoState.applyModifier(UtxoState.scala:137)\r\n\tat org.ergoplatform.nodeView.ErgoNodeViewHolder.$anonfun$applyState$1(ErgoNodeViewHolder.scala:235)\r\n\tat scala.collection.TraversableOnce.$anonfun$foldLeft$1(TraversableOnce.scala:162)\r\n\tat scala.collection.TraversableOnce.$anonfun$foldLeft$1$adapted(TraversableOnce.scala:162)\r\n\tat scala.collection.Iterator.foreach(Iterator.scala:941)\r\n\tat scala.collection.Iterator.foreach$(Iterator.scala:941)\r\n\tat scala.collection.AbstractIterator.foreach(Iterator.scala:1429)\r\n\tat scala.collection.IterableLike.foreach(IterableLike.scala:74)\r\n\tat scala.collection.IterableLike.foreach$(IterableLike.scala:73)\r\n\tat scala.collection.AbstractIterable.foreach(Iterable.scala:56)\r\n\tat scala.collection.TraversableOnce.foldLeft(TraversableOnce.scala:162)\r\n\tat scala.collection.TraversableOnce.foldLeft$(TraversableOnce.scala:160)\r\n\tat scala.collection.AbstractTraversable.foldLeft(Traversable.scala:108)\r\n\tat org.ergoplatform.nodeView.ErgoNodeViewHolder.applyState(ErgoNodeViewHolder.scala:228)\r\n\tat org.ergoplatform.nodeView.ErgoNodeViewHolder.updateState(ErgoNodeViewHolder.scala:202)\r\n\tat org.ergoplatform.nodeView.ErgoNodeViewHolder.pmodModify(ErgoNodeViewHolder.scala:454)\r\n\tat org.ergoplatform.nodeView.ErgoNodeViewHolder$$anonfun$processRemoteModifiers$1.applyFromCacheLoop$1(ErgoNodeViewHolder.scala:293)\r\n\tat org.ergoplatform.nodeView.ErgoNodeViewHolder$$anonfun$processRemoteModifiers$1.applyOrElse(ErgoNodeViewHolder.scala:343)\r\n\tat scala.PartialFunction$OrElse.applyOrElse(PartialFunction.scala:175)\r\n\tat akka.actor.Actor.aroundReceive(Actor.scala:537)\r\n\tat akka.actor.Actor.aroundReceive$(Actor.scala:535)\r\n\tat org.ergoplatform.nodeView.ErgoNodeViewHolder.aroundReceive(ErgoNodeViewHolder.scala:44)\r\n\tat akka.actor.ActorCell.receiveMessage(ActorCell.scala:577)\r\n\tat akka.actor.ActorCell.invoke(ActorCell.scala:547)\r\n\tat akka.dispatch.Mailbox.processMailbox(Mailbox.scala:270)\r\n\tat akka.dispatch.Mailbox.run(Mailbox.scala:231)\r\n\tat java.base/java.util.concurrent.ThreadPoolExecutor.runWorker(ThreadPoolExecutor.java:1144)\r\n\tat java.base/java.util.concurrent.ThreadPoolExecutor$Worker.run(ThreadPoolExecutor.java:642)\r\n\tat java.base/java.lang.Thread.run(Thread.java:1623)\r\nCaused by: org.fusesource.leveldbjni.internal.NativeDB$DBException: Corruption: block checksum mismatch\r\n\tat org.fusesource.leveldbjni.internal.NativeDB.checkStatus(NativeDB.java:200)\r\n\tat org.fusesource.leveldbjni.internal.NativeDB.write(NativeDB.java:285)\r\n\tat org.fusesource.leveldbjni.internal.JniDB.write(JniDB.java:150)\r\n\t... 41 common frames omitted\r\n11:25:15.454 WARN  [ef-critical-dispatcher-39] o.e.n.UtxoNodeViewHolder - Invalid modifier! Typeid: -127 id: bfe6c9298b491df49dc8ffa8b0f0400610a322287bdcca903ff7a0c2b40fd91e \r\norg.iq80.leveldb.DBException: Corruption: block checksum mismatch\r\n\tat org.fusesource.leveldbjni.internal.JniDB.write(JniDB.java:153)\r\n\tat scorex.db.StoreRegistry$RegisteredDB.write(LDBFactory.scala:42)\r\n\tat scorex.db.LDBVersionedStore.$anonfun$update$1(LDBVersionedStore.scala:282)\r\n\tat scala.runtime.java8.JFunction0$mcV$sp.apply(JFunction0$mcV$sp.java:23)\r\n\tat scala.util.Try$.apply(Try.scala:213)\r\n\tat scorex.db.LDBVersionedStore.update(LDBVersionedStore.scala:236)\r\n\tat scorex.crypto.authds.avltree.batch.VersionedLDBAVLStorage.update(VersionedLDBAVLStorage.scala:64)\r\n\tat scorex.crypto.authds.avltree.batch.PersistentBatchAVLProver.generateProofAndUpdateStorage(PersistentBatchAVLProver.scala:25)\r\n\tat org.ergoplatform.nodeView.state.UtxoState.$anonfun$applyModifier$3(UtxoState.scala:144)\r\n\tat scala.util.Success.$anonfun$map$1(Try.scala:255)\r\n\tat scala.util.Success.map(Try.scala:213)\r\n\tat org.ergoplatform.nodeView.state.UtxoState.$anonfun$applyModifier$2(UtxoState.scala:140)\r\n\tat scala.util.Success.flatMap(Try.scala:251)\r\n\tat org.ergoplatform.nodeView.state.UtxoState.applyModifier(UtxoState.scala:137)\r\n\tat org.ergoplatform.nodeView.ErgoNodeViewHolder.$anonfun$applyState$1(ErgoNodeViewHolder.scala:235)\r\n\tat scala.collection.TraversableOnce.$anonfun$foldLeft$1(TraversableOnce.scala:162)\r\n\tat scala.collection.TraversableOnce.$anonfun$foldLeft$1$adapted(TraversableOnce.scala:162)\r\n\tat scala.collection.Iterator.foreach(Iterator.scala:941)\r\n\tat scala.collection.Iterator.foreach$(Iterator.scala:941)\r\n\tat scala.collection.AbstractIterator.foreach(Iterator.scala:1429)\r\n\tat scala.collection.IterableLike.foreach(IterableLike.scala:74)\r\n\tat scala.collection.IterableLike.foreach$(IterableLike.scala:73)\r\n\tat scala.collection.AbstractIterable.foreach(Iterable.scala:56)\r\n\tat scala.collection.TraversableOnce.foldLeft(TraversableOnce.scala:162)\r\n\tat scala.collection.TraversableOnce.foldLeft$(TraversableOnce.scala:160)\r\n\tat scala.collection.AbstractTraversable.foldLeft(Traversable.scala:108)\r\n\tat org.ergoplatform.nodeView.ErgoNodeViewHolder.applyState(ErgoNodeViewHolder.scala:228)\r\n\tat org.ergoplatform.nodeView.ErgoNodeViewHolder.updateState(ErgoNodeViewHolder.scala:202)\r\n\tat org.ergoplatform.nodeView.ErgoNodeViewHolder.pmodModify(ErgoNodeViewHolder.scala:454)\r\n\tat org.ergoplatform.nodeView.ErgoNodeViewHolder$$anonfun$processRemoteModifiers$1.applyFromCacheLoop$1(ErgoNodeViewHolder.scala:293)\r\n\tat org.ergoplatform.nodeView.ErgoNodeViewHolder$$anonfun$processRemoteModifiers$1.applyOrElse(ErgoNodeViewHolder.scala:343)\r\n\tat scala.PartialFunction$OrElse.applyOrElse(PartialFunction.scala:175)\r\n\tat akka.actor.Actor.aroundReceive(Actor.scala:537)\r\n\tat akka.actor.Actor.aroundReceive$(Actor.scala:535)\r\n\tat org.ergoplatform.nodeView.ErgoNodeViewHolder.aroundReceive(ErgoNodeViewHolder.scala:44)\r\n\tat akka.actor.ActorCell.receiveMessage(ActorCell.scala:577)\r\n\tat akka.actor.ActorCell.invoke(ActorCell.scala:547)\r\n\tat akka.dispatch.Mailbox.processMailbox(Mailbox.scala:270)\r\n\tat akka.dispatch.Mailbox.run(Mailbox.scala:231)\r\n\tat java.base/java.util.concurrent.ThreadPoolExecutor.runWorker(ThreadPoolExecutor.java:1144)\r\n\tat java.base/java.util.concurrent.ThreadPoolExecutor$Worker.run(ThreadPoolExecutor.java:642)\r\n\tat java.base/java.lang.Thread.run(Thread.java:1623)\r\nCaused by: org.fusesource.leveldbjni.internal.NativeDB$DBException: Corruption: block checksum mismatch\r\n\tat org.fusesource.leveldbjni.internal.NativeDB.checkStatus(NativeDB.java:200)\r\n\tat org.fusesource.leveldbjni.internal.NativeDB.write(NativeDB.java:285)\r\n\tat org.fusesource.leveldbjni.internal.JniDB.write(JniDB.java:150)\r\n\t... 41 common frames omitted\r\nI've deleated and reinstalled ergo.jar, reinstalled java, resynced node 10 times, nothing seems to help.\r\nPlease help ;-;",
          "user": {
            "login": "HidenInTheDark",
            "id": 50043418,
            "node_id": "MDQ6VXNlcjUwMDQzNDE4",
            "avatar_url": "https://avatars.githubusercontent.com/u/50043418?v=4",
            "gravatar_id": "",
            "url": "https://api.github.com/users/HidenInTheDark",
            "html_url": "https://github.com/HidenInTheDark",
            "followers_url": "https://api.github.com/users/HidenInTheDark/followers",
            "following_url": "https://api.github.com/users/HidenInTheDark/following%7B/other_user%7D",
            "gists_url": "https://api.github.com/users/HidenInTheDark/gists%7B/gist_id%7D",
            "starred_url": "https://api.github.com/users/HidenInTheDark/starred%7B/owner%7D%7B/repo%7D",
            "subscriptions_url": "https://api.github.com/users/HidenInTheDark/subscriptions",
            "organizations_url": "https://api.github.com/users/HidenInTheDark/orgs",
            "repos_url": "https://api.github.com/users/HidenInTheDark/repos",
            "events_url": "https://api.github.com/users/HidenInTheDark/events%7B/privacy%7D",
            "received_events_url": "https://api.github.com/users/HidenInTheDark/received_events",
            "type": "User",
            "site_admin": false
          },
          "labels": [],
          "assignees": [],
          "author_association": "NONE",
          "locked": false,
          "comments": 2,
          "closed_at": "2023-04-08T07:36:52Z",
          "created_at": "2023-04-07T10:15:38Z",
          "updated_at": "2023-04-08T07:36:53Z"
        },
        "type": "issue"
      }
    },
    {
      "event": "cross-referenced",
      "id": null,
      "node_id": null,
      "url": null,
      "actor": {
        "login": "richmills3",
        "id": 44196049,
        "node_id": "MDQ6VXNlcjQ0MTk2MDQ5",
        "avatar_url": "https://avatars.githubusercontent.com/u/44196049?v=4",
        "gravatar_id": "",
        "url": "https://api.github.com/users/richmills3",
        "html_url": "https://github.com/richmills3",
        "followers_url": "https://api.github.com/users/richmills3/followers",
        "following_url": "https://api.github.com/users/richmills3/following%7B/other_user%7D",
        "gists_url": "https://api.github.com/users/richmills3/gists%7B/gist_id%7D",
        "starred_url": "https://api.github.com/users/richmills3/starred%7B/owner%7D%7B/repo%7D",
        "subscriptions_url": "https://api.github.com/users/richmills3/subscriptions",
        "organizations_url": "https://api.github.com/users/richmills3/orgs",
        "repos_url": "https://api.github.com/users/richmills3/repos",
        "events_url": "https://api.github.com/users/richmills3/events%7B/privacy%7D",
        "received_events_url": "https://api.github.com/users/richmills3/received_events",
        "type": "User",
        "site_admin": false
      },
      "commit_id": null,
      "commit_url": null,
      "created_at": "2023-04-12T12:26:23Z",
      "updated_at": "2023-04-12T12:26:23Z",
      "source": {
        "issue": {
          "id": 1661574966,
          "node_id": "I_kwDOCL1R6s5jCZ82",
          "url": "https://api.github.com/repos/bitcoin-sv/bitcoin-sv/issues/294",
          "repository_url": "https://api.github.com/repos/bitcoin-sv/bitcoin-sv",
          "labels_url": "https://api.github.com/repos/bitcoin-sv/bitcoin-sv/issues/294/labels%7B/name%7D",
          "comments_url": "https://api.github.com/repos/bitcoin-sv/bitcoin-sv/issues/294/comments",
          "events_url": "https://api.github.com/repos/bitcoin-sv/bitcoin-sv/issues/294/events",
          "html_url": "https://github.com/bitcoin-sv/bitcoin-sv/issues/294",
          "number": 294,
          "state": "closed",
          "state_reason": "completed",
          "title": "Corruption: block checksum mismatch",
          "body": "### Describe the issue\r\n\r\nWe're attempting to do a fresh sync, but `bitcoind` freezes after 2-3 hours claiming it encountered:\r\n\r\n```\r\nCorruption: block checksum mismatch: /bitcoin-sv/data/blocks/index/000211.ldb\r\n```\r\n\r\n### Can you reliably reproduce the issue?\r\n#### If so, please list the steps to reproduce below:\r\n\r\n1. Nuke the contents of `data/*`\r\n2. Run `bitcoind` in an attempt to sync the blockchain\r\n\r\n### Expected behaviour\r\nIt should sync the entire blockchain.\r\n\r\n### Actual behaviour\r\nIt stalls after 2-3 hours.\r\n\r\n### What version of bitcoin-sv are you using?\r\n1.0.14\r\n\r\n### Machine specs:\r\n- OS: AlmaLinux 8.7 (Stone Smilodon)\r\n- CPU: AMD Ryzen 7 5800X 8-Core Processor\r\n- RAM: 64GiB DDR4 2666MHz\r\n- Disk size: 20TB\r\n- Disk Type (HD/SDD): HD\r\n\r\n### Any extra information that might be useful in the debugging process.\r\n\r\n`bitcoind.log`: https://pastebin.com/tYzY1qkL\r\n`livenet.conf`: https://pastebin.com/LFTqqUar\r\n",
          "user": {
            "login": "ScottMcDermid",
            "id": 7969606,
            "node_id": "MDQ6VXNlcjc5Njk2MDY=",
            "avatar_url": "https://avatars.githubusercontent.com/u/7969606?v=4",
            "gravatar_id": "",
            "url": "https://api.github.com/users/ScottMcDermid",
            "html_url": "https://github.com/ScottMcDermid",
            "followers_url": "https://api.github.com/users/ScottMcDermid/followers",
            "following_url": "https://api.github.com/users/ScottMcDermid/following%7B/other_user%7D",
            "gists_url": "https://api.github.com/users/ScottMcDermid/gists%7B/gist_id%7D",
            "starred_url": "https://api.github.com/users/ScottMcDermid/starred%7B/owner%7D%7B/repo%7D",
            "subscriptions_url": "https://api.github.com/users/ScottMcDermid/subscriptions",
            "organizations_url": "https://api.github.com/users/ScottMcDermid/orgs",
            "repos_url": "https://api.github.com/users/ScottMcDermid/repos",
            "events_url": "https://api.github.com/users/ScottMcDermid/events%7B/privacy%7D",
            "received_events_url": "https://api.github.com/users/ScottMcDermid/received_events",
            "type": "User",
            "site_admin": false
          },
          "labels": [],
          "assignee": {
            "login": "richmills3",
            "id": 44196049,
            "node_id": "MDQ6VXNlcjQ0MTk2MDQ5",
            "avatar_url": "https://avatars.githubusercontent.com/u/44196049?v=4",
            "gravatar_id": "",
            "url": "https://api.github.com/users/richmills3",
            "html_url": "https://github.com/richmills3",
            "followers_url": "https://api.github.com/users/richmills3/followers",
            "following_url": "https://api.github.com/users/richmills3/following%7B/other_user%7D",
            "gists_url": "https://api.github.com/users/richmills3/gists%7B/gist_id%7D",
            "starred_url": "https://api.github.com/users/richmills3/starred%7B/owner%7D%7B/repo%7D",
            "subscriptions_url": "https://api.github.com/users/richmills3/subscriptions",
            "organizations_url": "https://api.github.com/users/richmills3/orgs",
            "repos_url": "https://api.github.com/users/richmills3/repos",
            "events_url": "https://api.github.com/users/richmills3/events%7B/privacy%7D",
            "received_events_url": "https://api.github.com/users/richmills3/received_events",
            "type": "User",
            "site_admin": false
          },
          "assignees": [
            {
              "login": "richmills3",
              "id": 44196049,
              "node_id": "MDQ6VXNlcjQ0MTk2MDQ5",
              "avatar_url": "https://avatars.githubusercontent.com/u/44196049?v=4",
              "gravatar_id": "",
              "url": "https://api.github.com/users/richmills3",
              "html_url": "https://github.com/richmills3",
              "followers_url": "https://api.github.com/users/richmills3/followers",
              "following_url": "https://api.github.com/users/richmills3/following%7B/other_user%7D",
              "gists_url": "https://api.github.com/users/richmills3/gists%7B/gist_id%7D",
              "starred_url": "https://api.github.com/users/richmills3/starred%7B/owner%7D%7B/repo%7D",
              "subscriptions_url": "https://api.github.com/users/richmills3/subscriptions",
              "organizations_url": "https://api.github.com/users/richmills3/orgs",
              "repos_url": "https://api.github.com/users/richmills3/repos",
              "events_url": "https://api.github.com/users/richmills3/events%7B/privacy%7D",
              "received_events_url": "https://api.github.com/users/richmills3/received_events",
              "type": "User",
              "site_admin": false
            }
          ],
          "author_association": "NONE",
          "locked": false,
          "comments": 4,
          "closed_at": "2023-04-27T22:16:09Z",
          "created_at": "2023-04-11T00:09:13Z",
          "updated_at": "2023-04-27T22:16:09Z"
        },
        "type": "issue"
      }
    },
    {
      "event": "commented",
      "id": 1606570109,
      "node_id": "IC_kwDOABII585fwlB9",
      "url": "https://api.github.com/repos/bitcoin/bitcoin/issues/comments/1606570109",
      "actor": {
        "login": "tansanDOTeth",
        "id": 92072158,
        "node_id": "U_kgDOBXzo3g",
        "avatar_url": "https://avatars.githubusercontent.com/u/92072158?v=4",
        "gravatar_id": "",
        "url": "https://api.github.com/users/tansanDOTeth",
        "html_url": "https://github.com/tansanDOTeth",
        "followers_url": "https://api.github.com/users/tansanDOTeth/followers",
        "following_url": "https://api.github.com/users/tansanDOTeth/following%7B/other_user%7D",
        "gists_url": "https://api.github.com/users/tansanDOTeth/gists%7B/gist_id%7D",
        "starred_url": "https://api.github.com/users/tansanDOTeth/starred%7B/owner%7D%7B/repo%7D",
        "subscriptions_url": "https://api.github.com/users/tansanDOTeth/subscriptions",
        "organizations_url": "https://api.github.com/users/tansanDOTeth/orgs",
        "repos_url": "https://api.github.com/users/tansanDOTeth/repos",
        "events_url": "https://api.github.com/users/tansanDOTeth/events%7B/privacy%7D",
        "received_events_url": "https://api.github.com/users/tansanDOTeth/received_events",
        "type": "User",
        "site_admin": false
      },
      "commit_id": null,
      "commit_url": null,
      "created_at": "2023-06-26T04:20:04Z",
      "updated_at": "2023-06-26T04:20:04Z",
      "author_association": "NONE",
      "body": "> I had this checksum LevelDB problem frequently in the last weeks, following this answer [#10897 (comment)](https://github.com/bitcoin/bitcoin/issues/10897#issuecomment-317355977) I managed to solve it, the HD I have been using to keep a copy of bitcoins blockchain is not working properly anymore, copying everything to a new HD and using it completely solve the errors.\r\n\r\nI read that comment, but not sure what I have to do run tests against my external. Do you have more instructions written somewhere?",
      "user": {
        "login": "tansanDOTeth",
        "id": 92072158,
        "node_id": "U_kgDOBXzo3g",
        "avatar_url": "https://avatars.githubusercontent.com/u/92072158?v=4",
        "gravatar_id": "",
        "url": "https://api.github.com/users/tansanDOTeth",
        "html_url": "https://github.com/tansanDOTeth",
        "followers_url": "https://api.github.com/users/tansanDOTeth/followers",
        "following_url": "https://api.github.com/users/tansanDOTeth/following%7B/other_user%7D",
        "gists_url": "https://api.github.com/users/tansanDOTeth/gists%7B/gist_id%7D",
        "starred_url": "https://api.github.com/users/tansanDOTeth/starred%7B/owner%7D%7B/repo%7D",
        "subscriptions_url": "https://api.github.com/users/tansanDOTeth/subscriptions",
        "organizations_url": "https://api.github.com/users/tansanDOTeth/orgs",
        "repos_url": "https://api.github.com/users/tansanDOTeth/repos",
        "events_url": "https://api.github.com/users/tansanDOTeth/events%7B/privacy%7D",
        "received_events_url": "https://api.github.com/users/tansanDOTeth/received_events",
        "type": "User",
        "site_admin": false
      },
      "html_url": "https://github.com/bitcoin/bitcoin/issues/21724#issuecomment-1606570109",
      "issue_url": "https://api.github.com/repos/bitcoin/bitcoin/issues/21724"
    },
    {
      "event": "unsubscribed",
      "id": 9633961847,
      "node_id": "UE_lADOABII584zTXi8zwAAAAI-Opd3",
      "url": "https://api.github.com/repos/bitcoin/bitcoin/issues/events/9633961847",
      "actor": {
        "login": "joostjager",
        "id": 4638168,
        "node_id": "MDQ6VXNlcjQ2MzgxNjg=",
        "avatar_url": "https://avatars.githubusercontent.com/u/4638168?v=4",
        "gravatar_id": "",
        "url": "https://api.github.com/users/joostjager",
        "html_url": "https://github.com/joostjager",
        "followers_url": "https://api.github.com/users/joostjager/followers",
        "following_url": "https://api.github.com/users/joostjager/following%7B/other_user%7D",
        "gists_url": "https://api.github.com/users/joostjager/gists%7B/gist_id%7D",
        "starred_url": "https://api.github.com/users/joostjager/starred%7B/owner%7D%7B/repo%7D",
        "subscriptions_url": "https://api.github.com/users/joostjager/subscriptions",
        "organizations_url": "https://api.github.com/users/joostjager/orgs",
        "repos_url": "https://api.github.com/users/joostjager/repos",
        "events_url": "https://api.github.com/users/joostjager/events%7B/privacy%7D",
        "received_events_url": "https://api.github.com/users/joostjager/received_events",
        "type": "User",
        "site_admin": false
      },
      "commit_id": null,
      "commit_url": null,
      "created_at": "2023-06-26T06:19:13Z"
    }
  ]
}