{
  "type": "issue",
  "issue": {
    "id": 870740577,
    "node_id": "MDU6SXNzdWU4NzA3NDA1Nzc=",
    "url": "https://api.github.com/repos/bitcoin/bitcoin/issues/21803",
    "repository_url": "https://api.github.com/repos/bitcoin/bitcoin",
    "labels_url": "https://api.github.com/repos/bitcoin/bitcoin/issues/21803/labels%7B/name%7D",
    "comments_url": "https://api.github.com/repos/bitcoin/bitcoin/issues/21803/comments",
    "events_url": "https://api.github.com/repos/bitcoin/bitcoin/issues/21803/events",
    "html_url": "https://github.com/bitcoin/bitcoin/issues/21803",
    "number": 21803,
    "state": "closed",
    "state_reason": "completed",
    "title": "Processing of new blocks slower than necessary due to overly selective peer selection",
    "body": "From the debug.log below, 12 seconds was saved by slightly changing the code to allow the first cmpctblock received to be used instead of the cmpctblock requested from the first node that announced the block (via headers).\r\n\r\nI realise perhaps most miners will be using the backbone and so perhaps a 12 second delay between nodes might be uncommon - it could be useful to see what are typical delays in situations where the backbone is used.\r\n\r\n> 2021-04-29T08:02:12.411 recv new best header 0000000000000000000acc7acbceda74c626835d58c2e31c1fe58b2ca7fa1645 (681070) age=19s peer=51\r\n> 2021-04-29T08:02:12.412 Requesting cmpctblock 0000000000000000000acc7acbceda74c626835d58c2e31c1fe58b2ca7fa1645 (681070) age=19s peer=51\r\n> 2021-04-29T08:02:12.414 recv best cmpctblock 0000000000000000000acc7acbceda74c626835d58c2e31c1fe58b2ca7fa1645 (681070) age=19s size=6587 peer=62\r\n> 2021-04-29T08:02:12.414 Rather than wait for peer=51 we'll use this one peer=62\r\n> 2021-04-29T08:02:12.437 Calling ProcessMessage(BLOCKTXN) peer=62\r\n> 2021-04-29T08:02:12.437 recv blocktxn 0000000000000000000acc7acbceda74c626835d58c2e31c1fe58b2ca7fa1645 (681070) age=19s indexes=0 size=33 peer=62\r\n> 2021-04-29T08:02:12.463 made block 0000000000000000000acc7acbceda74c626835d58c2e31c1fe58b2ca7fa1645 with 1 txn prefilled, 1022 txn from mempool (incl at least 0 from extra pool) and 0 txn requested\r\n> 2021-04-29T08:02:12.880 UpdateTip: new best=0000000000000000000acc7acbceda74c626835d58c2e31c1fe58b2ca7fa1645 height=681070 version=0x3fffe000 log2_work=92.841074 tx=637848335 date='2021-04-29T08:01:50Z' progress=1.000000 cache=91.7MiB(692788txo)\r\n> 2021-04-29T08:02:24.280 recv tip cmpctblock 0000000000000000000acc7acbceda74c626835d58c2e31c1fe58b2ca7fa1645 (681070) age=31s size=6587 peer=51\r\n> ",
    "user": {
      "login": "rebroad",
      "id": 1530283,
      "node_id": "MDQ6VXNlcjE1MzAyODM=",
      "avatar_url": "https://avatars.githubusercontent.com/u/1530283?v=4",
      "gravatar_id": "",
      "url": "https://api.github.com/users/rebroad",
      "html_url": "https://github.com/rebroad",
      "followers_url": "https://api.github.com/users/rebroad/followers",
      "following_url": "https://api.github.com/users/rebroad/following%7B/other_user%7D",
      "gists_url": "https://api.github.com/users/rebroad/gists%7B/gist_id%7D",
      "starred_url": "https://api.github.com/users/rebroad/starred%7B/owner%7D%7B/repo%7D",
      "subscriptions_url": "https://api.github.com/users/rebroad/subscriptions",
      "organizations_url": "https://api.github.com/users/rebroad/orgs",
      "repos_url": "https://api.github.com/users/rebroad/repos",
      "events_url": "https://api.github.com/users/rebroad/events%7B/privacy%7D",
      "received_events_url": "https://api.github.com/users/rebroad/received_events",
      "type": "User",
      "site_admin": false
    },
    "labels": [
      {
        "id": 64585,
        "node_id": "MDU6TGFiZWw2NDU4NQ==",
        "url": "https://api.github.com/repos/bitcoin/bitcoin/labels/Bug",
        "name": "Bug",
        "color": "FBBAAB",
        "default": false
      }
    ],
    "assignee": {
      "login": "pinheadmz",
      "id": 2084648,
      "node_id": "MDQ6VXNlcjIwODQ2NDg=",
      "avatar_url": "https://avatars.githubusercontent.com/u/2084648?v=4",
      "gravatar_id": "",
      "url": "https://api.github.com/users/pinheadmz",
      "html_url": "https://github.com/pinheadmz",
      "followers_url": "https://api.github.com/users/pinheadmz/followers",
      "following_url": "https://api.github.com/users/pinheadmz/following%7B/other_user%7D",
      "gists_url": "https://api.github.com/users/pinheadmz/gists%7B/gist_id%7D",
      "starred_url": "https://api.github.com/users/pinheadmz/starred%7B/owner%7D%7B/repo%7D",
      "subscriptions_url": "https://api.github.com/users/pinheadmz/subscriptions",
      "organizations_url": "https://api.github.com/users/pinheadmz/orgs",
      "repos_url": "https://api.github.com/users/pinheadmz/repos",
      "events_url": "https://api.github.com/users/pinheadmz/events%7B/privacy%7D",
      "received_events_url": "https://api.github.com/users/pinheadmz/received_events",
      "type": "User",
      "site_admin": false
    },
    "assignees": [
      {
        "login": "pinheadmz",
        "id": 2084648,
        "node_id": "MDQ6VXNlcjIwODQ2NDg=",
        "avatar_url": "https://avatars.githubusercontent.com/u/2084648?v=4",
        "gravatar_id": "",
        "url": "https://api.github.com/users/pinheadmz",
        "html_url": "https://github.com/pinheadmz",
        "followers_url": "https://api.github.com/users/pinheadmz/followers",
        "following_url": "https://api.github.com/users/pinheadmz/following%7B/other_user%7D",
        "gists_url": "https://api.github.com/users/pinheadmz/gists%7B/gist_id%7D",
        "starred_url": "https://api.github.com/users/pinheadmz/starred%7B/owner%7D%7B/repo%7D",
        "subscriptions_url": "https://api.github.com/users/pinheadmz/subscriptions",
        "organizations_url": "https://api.github.com/users/pinheadmz/orgs",
        "repos_url": "https://api.github.com/users/pinheadmz/repos",
        "events_url": "https://api.github.com/users/pinheadmz/events%7B/privacy%7D",
        "received_events_url": "https://api.github.com/users/pinheadmz/received_events",
        "type": "User",
        "site_admin": false
      }
    ],
    "author_association": "CONTRIBUTOR",
    "locked": false,
    "comments": 6,
    "closed_at": "2023-06-02T15:12:48Z",
    "created_at": "2021-04-29T08:13:58Z",
    "updated_at": "2023-06-02T15:12:49Z"
  },
  "events": [
    {
      "event": "labeled",
      "id": 4661108188,
      "node_id": "MDEyOkxhYmVsZWRFdmVudDQ2NjExMDgxODg=",
      "url": "https://api.github.com/repos/bitcoin/bitcoin/issues/events/4661108188",
      "actor": {
        "login": "rebroad",
        "id": 1530283,
        "node_id": "MDQ6VXNlcjE1MzAyODM=",
        "avatar_url": "https://avatars.githubusercontent.com/u/1530283?v=4",
        "gravatar_id": "",
        "url": "https://api.github.com/users/rebroad",
        "html_url": "https://github.com/rebroad",
        "followers_url": "https://api.github.com/users/rebroad/followers",
        "following_url": "https://api.github.com/users/rebroad/following%7B/other_user%7D",
        "gists_url": "https://api.github.com/users/rebroad/gists%7B/gist_id%7D",
        "starred_url": "https://api.github.com/users/rebroad/starred%7B/owner%7D%7B/repo%7D",
        "subscriptions_url": "https://api.github.com/users/rebroad/subscriptions",
        "organizations_url": "https://api.github.com/users/rebroad/orgs",
        "repos_url": "https://api.github.com/users/rebroad/repos",
        "events_url": "https://api.github.com/users/rebroad/events%7B/privacy%7D",
        "received_events_url": "https://api.github.com/users/rebroad/received_events",
        "type": "User",
        "site_admin": false
      },
      "commit_id": null,
      "commit_url": null,
      "created_at": "2021-04-29T08:13:58Z",
      "label": {
        "name": "Bug",
        "color": "FBBAAB"
      }
    },
    {
      "event": "commented",
      "id": 829364650,
      "node_id": "MDEyOklzc3VlQ29tbWVudDgyOTM2NDY1MA==",
      "url": "https://api.github.com/repos/bitcoin/bitcoin/issues/comments/829364650",
      "actor": {
        "login": "practicalswift",
        "id": 7826565,
        "node_id": "MDQ6VXNlcjc4MjY1NjU=",
        "avatar_url": "https://avatars.githubusercontent.com/u/7826565?v=4",
        "gravatar_id": "",
        "url": "https://api.github.com/users/practicalswift",
        "html_url": "https://github.com/practicalswift",
        "followers_url": "https://api.github.com/users/practicalswift/followers",
        "following_url": "https://api.github.com/users/practicalswift/following%7B/other_user%7D",
        "gists_url": "https://api.github.com/users/practicalswift/gists%7B/gist_id%7D",
        "starred_url": "https://api.github.com/users/practicalswift/starred%7B/owner%7D%7B/repo%7D",
        "subscriptions_url": "https://api.github.com/users/practicalswift/subscriptions",
        "organizations_url": "https://api.github.com/users/practicalswift/orgs",
        "repos_url": "https://api.github.com/users/practicalswift/repos",
        "events_url": "https://api.github.com/users/practicalswift/events%7B/privacy%7D",
        "received_events_url": "https://api.github.com/users/practicalswift/received_events",
        "type": "User",
        "site_admin": false
      },
      "commit_id": null,
      "commit_url": null,
      "created_at": "2021-04-29T16:02:03Z",
      "updated_at": "2021-04-29T16:02:03Z",
      "author_association": "CONTRIBUTOR",
      "body": "> I realise perhaps most miners will be using the backbone […]\r\n\r\nWith \"backbone\" do you mean the FIBRE public network? It's no longer running AFAIK.",
      "user": {
        "login": "practicalswift",
        "id": 7826565,
        "node_id": "MDQ6VXNlcjc4MjY1NjU=",
        "avatar_url": "https://avatars.githubusercontent.com/u/7826565?v=4",
        "gravatar_id": "",
        "url": "https://api.github.com/users/practicalswift",
        "html_url": "https://github.com/practicalswift",
        "followers_url": "https://api.github.com/users/practicalswift/followers",
        "following_url": "https://api.github.com/users/practicalswift/following%7B/other_user%7D",
        "gists_url": "https://api.github.com/users/practicalswift/gists%7B/gist_id%7D",
        "starred_url": "https://api.github.com/users/practicalswift/starred%7B/owner%7D%7B/repo%7D",
        "subscriptions_url": "https://api.github.com/users/practicalswift/subscriptions",
        "organizations_url": "https://api.github.com/users/practicalswift/orgs",
        "repos_url": "https://api.github.com/users/practicalswift/repos",
        "events_url": "https://api.github.com/users/practicalswift/events%7B/privacy%7D",
        "received_events_url": "https://api.github.com/users/practicalswift/received_events",
        "type": "User",
        "site_admin": false
      },
      "html_url": "https://github.com/bitcoin/bitcoin/issues/21803#issuecomment-829364650",
      "issue_url": "https://api.github.com/repos/bitcoin/bitcoin/issues/21803"
    },
    {
      "event": "commented",
      "id": 1476444242,
      "node_id": "IC_kwDOABII585YAMBS",
      "url": "https://api.github.com/repos/bitcoin/bitcoin/issues/comments/1476444242",
      "actor": {
        "login": "pinheadmz",
        "id": 2084648,
        "node_id": "MDQ6VXNlcjIwODQ2NDg=",
        "avatar_url": "https://avatars.githubusercontent.com/u/2084648?v=4",
        "gravatar_id": "",
        "url": "https://api.github.com/users/pinheadmz",
        "html_url": "https://github.com/pinheadmz",
        "followers_url": "https://api.github.com/users/pinheadmz/followers",
        "following_url": "https://api.github.com/users/pinheadmz/following%7B/other_user%7D",
        "gists_url": "https://api.github.com/users/pinheadmz/gists%7B/gist_id%7D",
        "starred_url": "https://api.github.com/users/pinheadmz/starred%7B/owner%7D%7B/repo%7D",
        "subscriptions_url": "https://api.github.com/users/pinheadmz/subscriptions",
        "organizations_url": "https://api.github.com/users/pinheadmz/orgs",
        "repos_url": "https://api.github.com/users/pinheadmz/repos",
        "events_url": "https://api.github.com/users/pinheadmz/events%7B/privacy%7D",
        "received_events_url": "https://api.github.com/users/pinheadmz/received_events",
        "type": "User",
        "site_admin": false
      },
      "commit_id": null,
      "commit_url": null,
      "created_at": "2023-03-20T15:28:28Z",
      "updated_at": "2023-03-20T15:28:28Z",
      "author_association": "MEMBER",
      "body": " > slightly changing the code \r\n\r\nDo you still have this patch available?\r\n\r\nIs it the case that `>  first cmpctblock received` is from a high-bandwidth CB peer but `> first node that announced the block (via headers).` is a low-bandwidth peer? And you're seeing bitcoin ignore the block message because it received the headers first and is requesting the block from the low-bandwidth peer?\r\n",
      "user": {
        "login": "pinheadmz",
        "id": 2084648,
        "node_id": "MDQ6VXNlcjIwODQ2NDg=",
        "avatar_url": "https://avatars.githubusercontent.com/u/2084648?v=4",
        "gravatar_id": "",
        "url": "https://api.github.com/users/pinheadmz",
        "html_url": "https://github.com/pinheadmz",
        "followers_url": "https://api.github.com/users/pinheadmz/followers",
        "following_url": "https://api.github.com/users/pinheadmz/following%7B/other_user%7D",
        "gists_url": "https://api.github.com/users/pinheadmz/gists%7B/gist_id%7D",
        "starred_url": "https://api.github.com/users/pinheadmz/starred%7B/owner%7D%7B/repo%7D",
        "subscriptions_url": "https://api.github.com/users/pinheadmz/subscriptions",
        "organizations_url": "https://api.github.com/users/pinheadmz/orgs",
        "repos_url": "https://api.github.com/users/pinheadmz/repos",
        "events_url": "https://api.github.com/users/pinheadmz/events%7B/privacy%7D",
        "received_events_url": "https://api.github.com/users/pinheadmz/received_events",
        "type": "User",
        "site_admin": false
      },
      "html_url": "https://github.com/bitcoin/bitcoin/issues/21803#issuecomment-1476444242",
      "issue_url": "https://api.github.com/repos/bitcoin/bitcoin/issues/21803"
    },
    {
      "event": "commented",
      "id": 1477495357,
      "node_id": "IC_kwDOABII585YEMo9",
      "url": "https://api.github.com/repos/bitcoin/bitcoin/issues/comments/1477495357",
      "actor": {
        "login": "rebroad",
        "id": 1530283,
        "node_id": "MDQ6VXNlcjE1MzAyODM=",
        "avatar_url": "https://avatars.githubusercontent.com/u/1530283?v=4",
        "gravatar_id": "",
        "url": "https://api.github.com/users/rebroad",
        "html_url": "https://github.com/rebroad",
        "followers_url": "https://api.github.com/users/rebroad/followers",
        "following_url": "https://api.github.com/users/rebroad/following%7B/other_user%7D",
        "gists_url": "https://api.github.com/users/rebroad/gists%7B/gist_id%7D",
        "starred_url": "https://api.github.com/users/rebroad/starred%7B/owner%7D%7B/repo%7D",
        "subscriptions_url": "https://api.github.com/users/rebroad/subscriptions",
        "organizations_url": "https://api.github.com/users/rebroad/orgs",
        "repos_url": "https://api.github.com/users/rebroad/repos",
        "events_url": "https://api.github.com/users/rebroad/events%7B/privacy%7D",
        "received_events_url": "https://api.github.com/users/rebroad/received_events",
        "type": "User",
        "site_admin": false
      },
      "commit_id": null,
      "commit_url": null,
      "created_at": "2023-03-21T09:14:05Z",
      "updated_at": "2023-03-21T12:55:46Z",
      "author_association": "CONTRIBUTOR",
      "body": "The first node that announced the block with the existing code (well, at the time I raised this issue) generally gets designated as a high-bandwidth peer once the blocktxn has been received from it, and the block that provided the cmpctblock first often gets redesignated as a low-bandwidth peer (with the existing code). With my code changes, the node that provided the cmpctblock first is less likely to lose it's high-bandwidth designation, and yet the node that provided the header first does get added to the list of high-bandwidth nodes (as is currently the case).\r\n\r\nfb2e43d1318b0099b7fd62100bc45b549561e2f0 is the patch to allow announce cmpctblocks to be processed.\r\n\r\n84984274b3310be4cda30861cfc6217ef769ed3d and d4f7b724508038b2e3fd6fc6b8aa868fc6cdf397 are patches to request and to process more than one cmpctblock at a time\r\n97af00349eeca55c1a4d74a6016aa897fe24f07c is a minor change that allows smaller blocktxns to be requested.\r\n3d104ec0537e3f9bb2ac5267eae7468220559dc2 is a change that caches the last cmpctblock received rather than redownloading it from another peer, should the peer we're fetching the blocktxn from fail.",
      "user": {
        "login": "rebroad",
        "id": 1530283,
        "node_id": "MDQ6VXNlcjE1MzAyODM=",
        "avatar_url": "https://avatars.githubusercontent.com/u/1530283?v=4",
        "gravatar_id": "",
        "url": "https://api.github.com/users/rebroad",
        "html_url": "https://github.com/rebroad",
        "followers_url": "https://api.github.com/users/rebroad/followers",
        "following_url": "https://api.github.com/users/rebroad/following%7B/other_user%7D",
        "gists_url": "https://api.github.com/users/rebroad/gists%7B/gist_id%7D",
        "starred_url": "https://api.github.com/users/rebroad/starred%7B/owner%7D%7B/repo%7D",
        "subscriptions_url": "https://api.github.com/users/rebroad/subscriptions",
        "organizations_url": "https://api.github.com/users/rebroad/orgs",
        "repos_url": "https://api.github.com/users/rebroad/repos",
        "events_url": "https://api.github.com/users/rebroad/events%7B/privacy%7D",
        "received_events_url": "https://api.github.com/users/rebroad/received_events",
        "type": "User",
        "site_admin": false
      },
      "html_url": "https://github.com/bitcoin/bitcoin/issues/21803#issuecomment-1477495357",
      "issue_url": "https://api.github.com/repos/bitcoin/bitcoin/issues/21803"
    },
    {
      "event": "assigned",
      "id": 9415314221,
      "node_id": "AE_lADOABII584z5nJhzwAAAAIxMkst",
      "url": "https://api.github.com/repos/bitcoin/bitcoin/issues/events/9415314221",
      "actor": {
        "login": "pinheadmz",
        "id": 2084648,
        "node_id": "MDQ6VXNlcjIwODQ2NDg=",
        "avatar_url": "https://avatars.githubusercontent.com/u/2084648?v=4",
        "gravatar_id": "",
        "url": "https://api.github.com/users/pinheadmz",
        "html_url": "https://github.com/pinheadmz",
        "followers_url": "https://api.github.com/users/pinheadmz/followers",
        "following_url": "https://api.github.com/users/pinheadmz/following%7B/other_user%7D",
        "gists_url": "https://api.github.com/users/pinheadmz/gists%7B/gist_id%7D",
        "starred_url": "https://api.github.com/users/pinheadmz/starred%7B/owner%7D%7B/repo%7D",
        "subscriptions_url": "https://api.github.com/users/pinheadmz/subscriptions",
        "organizations_url": "https://api.github.com/users/pinheadmz/orgs",
        "repos_url": "https://api.github.com/users/pinheadmz/repos",
        "events_url": "https://api.github.com/users/pinheadmz/events%7B/privacy%7D",
        "received_events_url": "https://api.github.com/users/pinheadmz/received_events",
        "type": "User",
        "site_admin": false
      },
      "commit_id": null,
      "commit_url": null,
      "created_at": "2023-06-02T14:59:32Z",
      "assignee": {
        "login": "pinheadmz",
        "id": 2084648,
        "node_id": "MDQ6VXNlcjIwODQ2NDg=",
        "avatar_url": "https://avatars.githubusercontent.com/u/2084648?v=4",
        "gravatar_id": "",
        "url": "https://api.github.com/users/pinheadmz",
        "html_url": "https://github.com/pinheadmz",
        "followers_url": "https://api.github.com/users/pinheadmz/followers",
        "following_url": "https://api.github.com/users/pinheadmz/following%7B/other_user%7D",
        "gists_url": "https://api.github.com/users/pinheadmz/gists%7B/gist_id%7D",
        "starred_url": "https://api.github.com/users/pinheadmz/starred%7B/owner%7D%7B/repo%7D",
        "subscriptions_url": "https://api.github.com/users/pinheadmz/subscriptions",
        "organizations_url": "https://api.github.com/users/pinheadmz/orgs",
        "repos_url": "https://api.github.com/users/pinheadmz/repos",
        "events_url": "https://api.github.com/users/pinheadmz/events%7B/privacy%7D",
        "received_events_url": "https://api.github.com/users/pinheadmz/received_events",
        "type": "User",
        "site_admin": false
      }
    },
    {
      "event": "commented",
      "id": 1573877338,
      "node_id": "IC_kwDOABII585dz3Za",
      "url": "https://api.github.com/repos/bitcoin/bitcoin/issues/comments/1573877338",
      "actor": {
        "login": "pinheadmz",
        "id": 2084648,
        "node_id": "MDQ6VXNlcjIwODQ2NDg=",
        "avatar_url": "https://avatars.githubusercontent.com/u/2084648?v=4",
        "gravatar_id": "",
        "url": "https://api.github.com/users/pinheadmz",
        "html_url": "https://github.com/pinheadmz",
        "followers_url": "https://api.github.com/users/pinheadmz/followers",
        "following_url": "https://api.github.com/users/pinheadmz/following%7B/other_user%7D",
        "gists_url": "https://api.github.com/users/pinheadmz/gists%7B/gist_id%7D",
        "starred_url": "https://api.github.com/users/pinheadmz/starred%7B/owner%7D%7B/repo%7D",
        "subscriptions_url": "https://api.github.com/users/pinheadmz/subscriptions",
        "organizations_url": "https://api.github.com/users/pinheadmz/orgs",
        "repos_url": "https://api.github.com/users/pinheadmz/repos",
        "events_url": "https://api.github.com/users/pinheadmz/events%7B/privacy%7D",
        "received_events_url": "https://api.github.com/users/pinheadmz/received_events",
        "type": "User",
        "site_admin": false
      },
      "commit_id": null,
      "commit_url": null,
      "created_at": "2023-06-02T15:00:29Z",
      "updated_at": "2023-06-02T15:00:29Z",
      "author_association": "MEMBER",
      "body": "@rebroad is this issue closed by https://github.com/bitcoin/bitcoin/pull/27626 ?",
      "user": {
        "login": "pinheadmz",
        "id": 2084648,
        "node_id": "MDQ6VXNlcjIwODQ2NDg=",
        "avatar_url": "https://avatars.githubusercontent.com/u/2084648?v=4",
        "gravatar_id": "",
        "url": "https://api.github.com/users/pinheadmz",
        "html_url": "https://github.com/pinheadmz",
        "followers_url": "https://api.github.com/users/pinheadmz/followers",
        "following_url": "https://api.github.com/users/pinheadmz/following%7B/other_user%7D",
        "gists_url": "https://api.github.com/users/pinheadmz/gists%7B/gist_id%7D",
        "starred_url": "https://api.github.com/users/pinheadmz/starred%7B/owner%7D%7B/repo%7D",
        "subscriptions_url": "https://api.github.com/users/pinheadmz/subscriptions",
        "organizations_url": "https://api.github.com/users/pinheadmz/orgs",
        "repos_url": "https://api.github.com/users/pinheadmz/repos",
        "events_url": "https://api.github.com/users/pinheadmz/events%7B/privacy%7D",
        "received_events_url": "https://api.github.com/users/pinheadmz/received_events",
        "type": "User",
        "site_admin": false
      },
      "html_url": "https://github.com/bitcoin/bitcoin/issues/21803#issuecomment-1573877338",
      "issue_url": "https://api.github.com/repos/bitcoin/bitcoin/issues/21803"
    },
    {
      "event": "mentioned",
      "id": 9415324346,
      "node_id": "MEE_lADOABII584z5nJhzwAAAAIxMnK6",
      "url": "https://api.github.com/repos/bitcoin/bitcoin/issues/events/9415324346",
      "actor": {
        "login": "rebroad",
        "id": 1530283,
        "node_id": "MDQ6VXNlcjE1MzAyODM=",
        "avatar_url": "https://avatars.githubusercontent.com/u/1530283?v=4",
        "gravatar_id": "",
        "url": "https://api.github.com/users/rebroad",
        "html_url": "https://github.com/rebroad",
        "followers_url": "https://api.github.com/users/rebroad/followers",
        "following_url": "https://api.github.com/users/rebroad/following%7B/other_user%7D",
        "gists_url": "https://api.github.com/users/rebroad/gists%7B/gist_id%7D",
        "starred_url": "https://api.github.com/users/rebroad/starred%7B/owner%7D%7B/repo%7D",
        "subscriptions_url": "https://api.github.com/users/rebroad/subscriptions",
        "organizations_url": "https://api.github.com/users/rebroad/orgs",
        "repos_url": "https://api.github.com/users/rebroad/repos",
        "events_url": "https://api.github.com/users/rebroad/events%7B/privacy%7D",
        "received_events_url": "https://api.github.com/users/rebroad/received_events",
        "type": "User",
        "site_admin": false
      },
      "commit_id": null,
      "commit_url": null,
      "created_at": "2023-06-02T15:00:30Z"
    },
    {
      "event": "subscribed",
      "id": 9415324362,
      "node_id": "SE_lADOABII584z5nJhzwAAAAIxMnLK",
      "url": "https://api.github.com/repos/bitcoin/bitcoin/issues/events/9415324362",
      "actor": {
        "login": "rebroad",
        "id": 1530283,
        "node_id": "MDQ6VXNlcjE1MzAyODM=",
        "avatar_url": "https://avatars.githubusercontent.com/u/1530283?v=4",
        "gravatar_id": "",
        "url": "https://api.github.com/users/rebroad",
        "html_url": "https://github.com/rebroad",
        "followers_url": "https://api.github.com/users/rebroad/followers",
        "following_url": "https://api.github.com/users/rebroad/following%7B/other_user%7D",
        "gists_url": "https://api.github.com/users/rebroad/gists%7B/gist_id%7D",
        "starred_url": "https://api.github.com/users/rebroad/starred%7B/owner%7D%7B/repo%7D",
        "subscriptions_url": "https://api.github.com/users/rebroad/subscriptions",
        "organizations_url": "https://api.github.com/users/rebroad/orgs",
        "repos_url": "https://api.github.com/users/rebroad/repos",
        "events_url": "https://api.github.com/users/rebroad/events%7B/privacy%7D",
        "received_events_url": "https://api.github.com/users/rebroad/received_events",
        "type": "User",
        "site_admin": false
      },
      "commit_id": null,
      "commit_url": null,
      "created_at": "2023-06-02T15:00:30Z"
    },
    {
      "event": "cross-referenced",
      "id": null,
      "node_id": null,
      "url": null,
      "actor": {
        "login": "pinheadmz",
        "id": 2084648,
        "node_id": "MDQ6VXNlcjIwODQ2NDg=",
        "avatar_url": "https://avatars.githubusercontent.com/u/2084648?v=4",
        "gravatar_id": "",
        "url": "https://api.github.com/users/pinheadmz",
        "html_url": "https://github.com/pinheadmz",
        "followers_url": "https://api.github.com/users/pinheadmz/followers",
        "following_url": "https://api.github.com/users/pinheadmz/following%7B/other_user%7D",
        "gists_url": "https://api.github.com/users/pinheadmz/gists%7B/gist_id%7D",
        "starred_url": "https://api.github.com/users/pinheadmz/starred%7B/owner%7D%7B/repo%7D",
        "subscriptions_url": "https://api.github.com/users/pinheadmz/subscriptions",
        "organizations_url": "https://api.github.com/users/pinheadmz/orgs",
        "repos_url": "https://api.github.com/users/pinheadmz/repos",
        "events_url": "https://api.github.com/users/pinheadmz/events%7B/privacy%7D",
        "received_events_url": "https://api.github.com/users/pinheadmz/received_events",
        "type": "User",
        "site_admin": false
      },
      "commit_id": null,
      "commit_url": null,
      "created_at": "2023-06-02T15:00:46Z",
      "updated_at": "2023-06-02T15:00:46Z",
      "source": {
        "issue": {
          "id": 1705885197,
          "node_id": "PR_kwDOABII585QS9YY",
          "url": "https://api.github.com/repos/bitcoin/bitcoin/issues/27626",
          "repository_url": "https://api.github.com/repos/bitcoin/bitcoin",
          "labels_url": "https://api.github.com/repos/bitcoin/bitcoin/issues/27626/labels%7B/name%7D",
          "comments_url": "https://api.github.com/repos/bitcoin/bitcoin/issues/27626/comments",
          "events_url": "https://api.github.com/repos/bitcoin/bitcoin/issues/27626/events",
          "html_url": "https://github.com/bitcoin/bitcoin/pull/27626",
          "number": 27626,
          "state": "closed",
          "state_reason": null,
          "title": "Parallel compact block downloads, take 3",
          "body": "This is an attempt at mitigating https://github.com/bitcoin/bitcoin/issues/25258 , which is a revival of https://github.com/bitcoin/bitcoin/pull/10984, which is a revival of https://github.com/bitcoin/bitcoin/pull/9447.\r\n\r\nThis PR attempts to mitigate a single case, where high bandwidth peers can bail us out of a flakey\r\npeer not completing blocks for us. We allow up to 2 additional getblocktxns requests per unique block.\r\nThis would hopefully allow the chance for an honest high bandwidth peer to hand us the transactions\r\neven if the first in flight peer stalls out.\r\n\r\nIn contrast to previous effort:\r\n\r\n1) it will not help if subsequent peers send block headers only, so only high-bandwidth peers this time. See: https://github.com/bitcoin/bitcoin/pull/10984/files#diff-6875de769e90cec84d2e8a9c1b962cdbcda44d870d42e4215827e599e11e90e3R1411\r\n2)  `MAX_GETBLOCKTXN_TXN_AFTER_FIRST_IN_FLIGHT` is removed, in favor of aiding recovery during turbulent mempools\r\n3) We require one of the 3 block fetching slots to be an outbound peer. This can be the original offering peer, or subsequent compact blocks given by high bandwidth peers.\r\n",
          "user": {
            "login": "instagibbs",
            "id": 5767891,
            "node_id": "MDQ6VXNlcjU3Njc4OTE=",
            "avatar_url": "https://avatars.githubusercontent.com/u/5767891?v=4",
            "gravatar_id": "",
            "url": "https://api.github.com/users/instagibbs",
            "html_url": "https://github.com/instagibbs",
            "followers_url": "https://api.github.com/users/instagibbs/followers",
            "following_url": "https://api.github.com/users/instagibbs/following%7B/other_user%7D",
            "gists_url": "https://api.github.com/users/instagibbs/gists%7B/gist_id%7D",
            "starred_url": "https://api.github.com/users/instagibbs/starred%7B/owner%7D%7B/repo%7D",
            "subscriptions_url": "https://api.github.com/users/instagibbs/subscriptions",
            "organizations_url": "https://api.github.com/users/instagibbs/orgs",
            "repos_url": "https://api.github.com/users/instagibbs/repos",
            "events_url": "https://api.github.com/users/instagibbs/events%7B/privacy%7D",
            "received_events_url": "https://api.github.com/users/instagibbs/received_events",
            "type": "User",
            "site_admin": false
          },
          "labels": [
            {
              "id": 98298007,
              "node_id": "MDU6TGFiZWw5ODI5ODAwNw==",
              "url": "https://api.github.com/repos/bitcoin/bitcoin/labels/P2P",
              "name": "P2P",
              "color": "006b75",
              "default": false
            }
          ],
          "assignees": [],
          "author_association": "MEMBER",
          "milestone": {
            "url": "https://api.github.com/repos/bitcoin/bitcoin/milestones/60",
            "html_url": "https://github.com/bitcoin/bitcoin/milestone/60",
            "labels_url": "https://api.github.com/repos/bitcoin/bitcoin/milestones/60/labels",
            "id": 9286970,
            "node_id": "MI_kwDOABII584AjbU6",
            "number": 60,
            "state": "open",
            "title": "26.0",
            "description": "",
            "creator": {
              "login": "fanquake",
              "id": 863730,
              "node_id": "MDQ6VXNlcjg2MzczMA==",
              "avatar_url": "https://avatars.githubusercontent.com/u/863730?v=4",
              "gravatar_id": "",
              "url": "https://api.github.com/users/fanquake",
              "html_url": "https://github.com/fanquake",
              "followers_url": "https://api.github.com/users/fanquake/followers",
              "following_url": "https://api.github.com/users/fanquake/following%7B/other_user%7D",
              "gists_url": "https://api.github.com/users/fanquake/gists%7B/gist_id%7D",
              "starred_url": "https://api.github.com/users/fanquake/starred%7B/owner%7D%7B/repo%7D",
              "subscriptions_url": "https://api.github.com/users/fanquake/subscriptions",
              "organizations_url": "https://api.github.com/users/fanquake/orgs",
              "repos_url": "https://api.github.com/users/fanquake/repos",
              "events_url": "https://api.github.com/users/fanquake/events%7B/privacy%7D",
              "received_events_url": "https://api.github.com/users/fanquake/received_events",
              "type": "User",
              "site_admin": false
            },
            "open_issues": 7,
            "closed_issues": 23,
            "created_at": "2023-04-15T11:36:05Z",
            "updated_at": "2023-08-01T16:50:00Z"
          },
          "locked": false,
          "comments": 32,
          "pull_request": {
            "url": "https://api.github.com/repos/bitcoin/bitcoin/pulls/27626",
            "html_url": "https://github.com/bitcoin/bitcoin/pull/27626",
            "diff_url": "https://github.com/bitcoin/bitcoin/pull/27626.diff",
            "patch_url": "https://github.com/bitcoin/bitcoin/pull/27626.patch"
          },
          "closed_at": "2023-05-24T09:09:27Z",
          "created_at": "2023-05-11T14:05:20Z",
          "updated_at": "2023-06-02T15:00:47Z"
        },
        "type": "issue"
      }
    },
    {
      "event": "commented",
      "id": 1573888486,
      "node_id": "IC_kwDOABII585dz6Hm",
      "url": "https://api.github.com/repos/bitcoin/bitcoin/issues/comments/1573888486",
      "actor": {
        "login": "instagibbs",
        "id": 5767891,
        "node_id": "MDQ6VXNlcjU3Njc4OTE=",
        "avatar_url": "https://avatars.githubusercontent.com/u/5767891?v=4",
        "gravatar_id": "",
        "url": "https://api.github.com/users/instagibbs",
        "html_url": "https://github.com/instagibbs",
        "followers_url": "https://api.github.com/users/instagibbs/followers",
        "following_url": "https://api.github.com/users/instagibbs/following%7B/other_user%7D",
        "gists_url": "https://api.github.com/users/instagibbs/gists%7B/gist_id%7D",
        "starred_url": "https://api.github.com/users/instagibbs/starred%7B/owner%7D%7B/repo%7D",
        "subscriptions_url": "https://api.github.com/users/instagibbs/subscriptions",
        "organizations_url": "https://api.github.com/users/instagibbs/orgs",
        "repos_url": "https://api.github.com/users/instagibbs/repos",
        "events_url": "https://api.github.com/users/instagibbs/events%7B/privacy%7D",
        "received_events_url": "https://api.github.com/users/instagibbs/received_events",
        "type": "User",
        "site_admin": false
      },
      "commit_id": null,
      "commit_url": null,
      "created_at": "2023-06-02T15:07:41Z",
      "updated_at": "2023-06-02T15:07:41Z",
      "author_association": "MEMBER",
      "body": "I believe so. A headers peer announcing first doesn't preclude follow-on compact block messages anymore, within some limits of peer type.",
      "user": {
        "login": "instagibbs",
        "id": 5767891,
        "node_id": "MDQ6VXNlcjU3Njc4OTE=",
        "avatar_url": "https://avatars.githubusercontent.com/u/5767891?v=4",
        "gravatar_id": "",
        "url": "https://api.github.com/users/instagibbs",
        "html_url": "https://github.com/instagibbs",
        "followers_url": "https://api.github.com/users/instagibbs/followers",
        "following_url": "https://api.github.com/users/instagibbs/following%7B/other_user%7D",
        "gists_url": "https://api.github.com/users/instagibbs/gists%7B/gist_id%7D",
        "starred_url": "https://api.github.com/users/instagibbs/starred%7B/owner%7D%7B/repo%7D",
        "subscriptions_url": "https://api.github.com/users/instagibbs/subscriptions",
        "organizations_url": "https://api.github.com/users/instagibbs/orgs",
        "repos_url": "https://api.github.com/users/instagibbs/repos",
        "events_url": "https://api.github.com/users/instagibbs/events%7B/privacy%7D",
        "received_events_url": "https://api.github.com/users/instagibbs/received_events",
        "type": "User",
        "site_admin": false
      },
      "html_url": "https://github.com/bitcoin/bitcoin/issues/21803#issuecomment-1573888486",
      "issue_url": "https://api.github.com/repos/bitcoin/bitcoin/issues/21803"
    },
    {
      "event": "commented",
      "id": 1573896728,
      "node_id": "IC_kwDOABII585dz8IY",
      "url": "https://api.github.com/repos/bitcoin/bitcoin/issues/comments/1573896728",
      "actor": {
        "login": "pinheadmz",
        "id": 2084648,
        "node_id": "MDQ6VXNlcjIwODQ2NDg=",
        "avatar_url": "https://avatars.githubusercontent.com/u/2084648?v=4",
        "gravatar_id": "",
        "url": "https://api.github.com/users/pinheadmz",
        "html_url": "https://github.com/pinheadmz",
        "followers_url": "https://api.github.com/users/pinheadmz/followers",
        "following_url": "https://api.github.com/users/pinheadmz/following%7B/other_user%7D",
        "gists_url": "https://api.github.com/users/pinheadmz/gists%7B/gist_id%7D",
        "starred_url": "https://api.github.com/users/pinheadmz/starred%7B/owner%7D%7B/repo%7D",
        "subscriptions_url": "https://api.github.com/users/pinheadmz/subscriptions",
        "organizations_url": "https://api.github.com/users/pinheadmz/orgs",
        "repos_url": "https://api.github.com/users/pinheadmz/repos",
        "events_url": "https://api.github.com/users/pinheadmz/events%7B/privacy%7D",
        "received_events_url": "https://api.github.com/users/pinheadmz/received_events",
        "type": "User",
        "site_admin": false
      },
      "commit_id": null,
      "commit_url": null,
      "created_at": "2023-06-02T15:12:48Z",
      "updated_at": "2023-06-02T15:12:48Z",
      "author_association": "MEMBER",
      "body": "Sweet thanks. @rebroad feel free to comment if you think this is still an issue on master now, we can reopen if need be.",
      "user": {
        "login": "pinheadmz",
        "id": 2084648,
        "node_id": "MDQ6VXNlcjIwODQ2NDg=",
        "avatar_url": "https://avatars.githubusercontent.com/u/2084648?v=4",
        "gravatar_id": "",
        "url": "https://api.github.com/users/pinheadmz",
        "html_url": "https://github.com/pinheadmz",
        "followers_url": "https://api.github.com/users/pinheadmz/followers",
        "following_url": "https://api.github.com/users/pinheadmz/following%7B/other_user%7D",
        "gists_url": "https://api.github.com/users/pinheadmz/gists%7B/gist_id%7D",
        "starred_url": "https://api.github.com/users/pinheadmz/starred%7B/owner%7D%7B/repo%7D",
        "subscriptions_url": "https://api.github.com/users/pinheadmz/subscriptions",
        "organizations_url": "https://api.github.com/users/pinheadmz/orgs",
        "repos_url": "https://api.github.com/users/pinheadmz/repos",
        "events_url": "https://api.github.com/users/pinheadmz/events%7B/privacy%7D",
        "received_events_url": "https://api.github.com/users/pinheadmz/received_events",
        "type": "User",
        "site_admin": false
      },
      "html_url": "https://github.com/bitcoin/bitcoin/issues/21803#issuecomment-1573896728",
      "issue_url": "https://api.github.com/repos/bitcoin/bitcoin/issues/21803"
    },
    {
      "event": "closed",
      "id": 9415459521,
      "node_id": "CE_lADOABII584z5nJhzwAAAAIxNILB",
      "url": "https://api.github.com/repos/bitcoin/bitcoin/issues/events/9415459521",
      "actor": {
        "login": "pinheadmz",
        "id": 2084648,
        "node_id": "MDQ6VXNlcjIwODQ2NDg=",
        "avatar_url": "https://avatars.githubusercontent.com/u/2084648?v=4",
        "gravatar_id": "",
        "url": "https://api.github.com/users/pinheadmz",
        "html_url": "https://github.com/pinheadmz",
        "followers_url": "https://api.github.com/users/pinheadmz/followers",
        "following_url": "https://api.github.com/users/pinheadmz/following%7B/other_user%7D",
        "gists_url": "https://api.github.com/users/pinheadmz/gists%7B/gist_id%7D",
        "starred_url": "https://api.github.com/users/pinheadmz/starred%7B/owner%7D%7B/repo%7D",
        "subscriptions_url": "https://api.github.com/users/pinheadmz/subscriptions",
        "organizations_url": "https://api.github.com/users/pinheadmz/orgs",
        "repos_url": "https://api.github.com/users/pinheadmz/repos",
        "events_url": "https://api.github.com/users/pinheadmz/events%7B/privacy%7D",
        "received_events_url": "https://api.github.com/users/pinheadmz/received_events",
        "type": "User",
        "site_admin": false
      },
      "commit_id": null,
      "commit_url": null,
      "created_at": "2023-06-02T15:12:49Z"
    },
    {
      "event": "mentioned",
      "id": 9415459624,
      "node_id": "MEE_lADOABII584z5nJhzwAAAAIxNIMo",
      "url": "https://api.github.com/repos/bitcoin/bitcoin/issues/events/9415459624",
      "actor": {
        "login": "rebroad",
        "id": 1530283,
        "node_id": "MDQ6VXNlcjE1MzAyODM=",
        "avatar_url": "https://avatars.githubusercontent.com/u/1530283?v=4",
        "gravatar_id": "",
        "url": "https://api.github.com/users/rebroad",
        "html_url": "https://github.com/rebroad",
        "followers_url": "https://api.github.com/users/rebroad/followers",
        "following_url": "https://api.github.com/users/rebroad/following%7B/other_user%7D",
        "gists_url": "https://api.github.com/users/rebroad/gists%7B/gist_id%7D",
        "starred_url": "https://api.github.com/users/rebroad/starred%7B/owner%7D%7B/repo%7D",
        "subscriptions_url": "https://api.github.com/users/rebroad/subscriptions",
        "organizations_url": "https://api.github.com/users/rebroad/orgs",
        "repos_url": "https://api.github.com/users/rebroad/repos",
        "events_url": "https://api.github.com/users/rebroad/events%7B/privacy%7D",
        "received_events_url": "https://api.github.com/users/rebroad/received_events",
        "type": "User",
        "site_admin": false
      },
      "commit_id": null,
      "commit_url": null,
      "created_at": "2023-06-02T15:12:49Z"
    },
    {
      "event": "subscribed",
      "id": 9415459651,
      "node_id": "SE_lADOABII584z5nJhzwAAAAIxNIND",
      "url": "https://api.github.com/repos/bitcoin/bitcoin/issues/events/9415459651",
      "actor": {
        "login": "rebroad",
        "id": 1530283,
        "node_id": "MDQ6VXNlcjE1MzAyODM=",
        "avatar_url": "https://avatars.githubusercontent.com/u/1530283?v=4",
        "gravatar_id": "",
        "url": "https://api.github.com/users/rebroad",
        "html_url": "https://github.com/rebroad",
        "followers_url": "https://api.github.com/users/rebroad/followers",
        "following_url": "https://api.github.com/users/rebroad/following%7B/other_user%7D",
        "gists_url": "https://api.github.com/users/rebroad/gists%7B/gist_id%7D",
        "starred_url": "https://api.github.com/users/rebroad/starred%7B/owner%7D%7B/repo%7D",
        "subscriptions_url": "https://api.github.com/users/rebroad/subscriptions",
        "organizations_url": "https://api.github.com/users/rebroad/orgs",
        "repos_url": "https://api.github.com/users/rebroad/repos",
        "events_url": "https://api.github.com/users/rebroad/events%7B/privacy%7D",
        "received_events_url": "https://api.github.com/users/rebroad/received_events",
        "type": "User",
        "site_admin": false
      },
      "commit_id": null,
      "commit_url": null,
      "created_at": "2023-06-02T15:12:49Z"
    }
  ]
}