{
  "type": "issue",
  "issue": {
    "id": 943755599,
    "node_id": "MDU6SXNzdWU5NDM3NTU1OTk=",
    "url": "https://api.github.com/repos/bitcoin/bitcoin/issues/22438",
    "repository_url": "https://api.github.com/repos/bitcoin/bitcoin",
    "labels_url": "https://api.github.com/repos/bitcoin/bitcoin/issues/22438/labels%7B/name%7D",
    "comments_url": "https://api.github.com/repos/bitcoin/bitcoin/issues/22438/comments",
    "events_url": "https://api.github.com/repos/bitcoin/bitcoin/issues/22438/events",
    "html_url": "https://github.com/bitcoin/bitcoin/issues/22438",
    "number": 22438,
    "state": "closed",
    "state_reason": "completed",
    "title": "Make PrecomputedData hold references instead of pointers?",
    "body": "It would be a lot cleaner and get rid of a bunch of messy asserts/not asserted pointers if these were references.\r\n\r\nIn which situations would we need the API to allow us to not pass a precomputed data or a transaction into the checker?\r\n\r\n\r\nhttps://github.com/bitcoin/bitcoin/pull/21702#discussion_r616858194",
    "user": {
      "login": "JeremyRubin",
      "id": 886523,
      "node_id": "MDQ6VXNlcjg4NjUyMw==",
      "avatar_url": "https://avatars.githubusercontent.com/u/886523?v=4",
      "gravatar_id": "",
      "url": "https://api.github.com/users/JeremyRubin",
      "html_url": "https://github.com/JeremyRubin",
      "followers_url": "https://api.github.com/users/JeremyRubin/followers",
      "following_url": "https://api.github.com/users/JeremyRubin/following%7B/other_user%7D",
      "gists_url": "https://api.github.com/users/JeremyRubin/gists%7B/gist_id%7D",
      "starred_url": "https://api.github.com/users/JeremyRubin/starred%7B/owner%7D%7B/repo%7D",
      "subscriptions_url": "https://api.github.com/users/JeremyRubin/subscriptions",
      "organizations_url": "https://api.github.com/users/JeremyRubin/orgs",
      "repos_url": "https://api.github.com/users/JeremyRubin/repos",
      "events_url": "https://api.github.com/users/JeremyRubin/events%7B/privacy%7D",
      "received_events_url": "https://api.github.com/users/JeremyRubin/received_events",
      "type": "User",
      "site_admin": false
    },
    "labels": [],
    "assignees": [],
    "author_association": "CONTRIBUTOR",
    "locked": false,
    "comments": 3,
    "closed_at": "2022-12-16T16:00:43Z",
    "created_at": "2021-07-13T19:22:00Z",
    "updated_at": "2022-12-16T16:00:43Z"
  },
  "events": [
    {
      "event": "commented",
      "id": 879340279,
      "node_id": "MDEyOklzc3VlQ29tbWVudDg3OTM0MDI3OQ==",
      "url": "https://api.github.com/repos/bitcoin/bitcoin/issues/comments/879340279",
      "actor": {
        "login": "JeremyRubin",
        "id": 886523,
        "node_id": "MDQ6VXNlcjg4NjUyMw==",
        "avatar_url": "https://avatars.githubusercontent.com/u/886523?v=4",
        "gravatar_id": "",
        "url": "https://api.github.com/users/JeremyRubin",
        "html_url": "https://github.com/JeremyRubin",
        "followers_url": "https://api.github.com/users/JeremyRubin/followers",
        "following_url": "https://api.github.com/users/JeremyRubin/following%7B/other_user%7D",
        "gists_url": "https://api.github.com/users/JeremyRubin/gists%7B/gist_id%7D",
        "starred_url": "https://api.github.com/users/JeremyRubin/starred%7B/owner%7D%7B/repo%7D",
        "subscriptions_url": "https://api.github.com/users/JeremyRubin/subscriptions",
        "organizations_url": "https://api.github.com/users/JeremyRubin/orgs",
        "repos_url": "https://api.github.com/users/JeremyRubin/repos",
        "events_url": "https://api.github.com/users/JeremyRubin/events%7B/privacy%7D",
        "received_events_url": "https://api.github.com/users/JeremyRubin/received_events",
        "type": "User",
        "site_admin": false
      },
      "commit_id": null,
      "commit_url": null,
      "created_at": "2021-07-13T19:22:53Z",
      "updated_at": "2021-07-13T19:22:53Z",
      "author_association": "CONTRIBUTOR",
      "body": "@sipa ^",
      "user": {
        "login": "JeremyRubin",
        "id": 886523,
        "node_id": "MDQ6VXNlcjg4NjUyMw==",
        "avatar_url": "https://avatars.githubusercontent.com/u/886523?v=4",
        "gravatar_id": "",
        "url": "https://api.github.com/users/JeremyRubin",
        "html_url": "https://github.com/JeremyRubin",
        "followers_url": "https://api.github.com/users/JeremyRubin/followers",
        "following_url": "https://api.github.com/users/JeremyRubin/following%7B/other_user%7D",
        "gists_url": "https://api.github.com/users/JeremyRubin/gists%7B/gist_id%7D",
        "starred_url": "https://api.github.com/users/JeremyRubin/starred%7B/owner%7D%7B/repo%7D",
        "subscriptions_url": "https://api.github.com/users/JeremyRubin/subscriptions",
        "organizations_url": "https://api.github.com/users/JeremyRubin/orgs",
        "repos_url": "https://api.github.com/users/JeremyRubin/repos",
        "events_url": "https://api.github.com/users/JeremyRubin/events%7B/privacy%7D",
        "received_events_url": "https://api.github.com/users/JeremyRubin/received_events",
        "type": "User",
        "site_admin": false
      },
      "html_url": "https://github.com/bitcoin/bitcoin/issues/22438#issuecomment-879340279",
      "issue_url": "https://api.github.com/repos/bitcoin/bitcoin/issues/22438"
    },
    {
      "event": "mentioned",
      "id": 5015853434,
      "node_id": "MDE0Ok1lbnRpb25lZEV2ZW50NTAxNTg1MzQzNA==",
      "url": "https://api.github.com/repos/bitcoin/bitcoin/issues/events/5015853434",
      "actor": {
        "login": "sipa",
        "id": 548488,
        "node_id": "MDQ6VXNlcjU0ODQ4OA==",
        "avatar_url": "https://avatars.githubusercontent.com/u/548488?v=4",
        "gravatar_id": "",
        "url": "https://api.github.com/users/sipa",
        "html_url": "https://github.com/sipa",
        "followers_url": "https://api.github.com/users/sipa/followers",
        "following_url": "https://api.github.com/users/sipa/following%7B/other_user%7D",
        "gists_url": "https://api.github.com/users/sipa/gists%7B/gist_id%7D",
        "starred_url": "https://api.github.com/users/sipa/starred%7B/owner%7D%7B/repo%7D",
        "subscriptions_url": "https://api.github.com/users/sipa/subscriptions",
        "organizations_url": "https://api.github.com/users/sipa/orgs",
        "repos_url": "https://api.github.com/users/sipa/repos",
        "events_url": "https://api.github.com/users/sipa/events%7B/privacy%7D",
        "received_events_url": "https://api.github.com/users/sipa/received_events",
        "type": "User",
        "site_admin": false
      },
      "commit_id": null,
      "commit_url": null,
      "created_at": "2021-07-13T19:22:54Z"
    },
    {
      "event": "subscribed",
      "id": 5015853435,
      "node_id": "MDE1OlN1YnNjcmliZWRFdmVudDUwMTU4NTM0MzU=",
      "url": "https://api.github.com/repos/bitcoin/bitcoin/issues/events/5015853435",
      "actor": {
        "login": "sipa",
        "id": 548488,
        "node_id": "MDQ6VXNlcjU0ODQ4OA==",
        "avatar_url": "https://avatars.githubusercontent.com/u/548488?v=4",
        "gravatar_id": "",
        "url": "https://api.github.com/users/sipa",
        "html_url": "https://github.com/sipa",
        "followers_url": "https://api.github.com/users/sipa/followers",
        "following_url": "https://api.github.com/users/sipa/following%7B/other_user%7D",
        "gists_url": "https://api.github.com/users/sipa/gists%7B/gist_id%7D",
        "starred_url": "https://api.github.com/users/sipa/starred%7B/owner%7D%7B/repo%7D",
        "subscriptions_url": "https://api.github.com/users/sipa/subscriptions",
        "organizations_url": "https://api.github.com/users/sipa/orgs",
        "repos_url": "https://api.github.com/users/sipa/repos",
        "events_url": "https://api.github.com/users/sipa/events%7B/privacy%7D",
        "received_events_url": "https://api.github.com/users/sipa/received_events",
        "type": "User",
        "site_admin": false
      },
      "commit_id": null,
      "commit_url": null,
      "created_at": "2021-07-13T19:22:54Z"
    },
    {
      "event": "commented",
      "id": 879342616,
      "node_id": "MDEyOklzc3VlQ29tbWVudDg3OTM0MjYxNg==",
      "url": "https://api.github.com/repos/bitcoin/bitcoin/issues/comments/879342616",
      "actor": {
        "login": "MarcoFalke",
        "id": 6399679,
        "node_id": "MDQ6VXNlcjYzOTk2Nzk=",
        "avatar_url": "https://avatars.githubusercontent.com/u/6399679?v=4",
        "gravatar_id": "",
        "url": "https://api.github.com/users/MarcoFalke",
        "html_url": "https://github.com/MarcoFalke",
        "followers_url": "https://api.github.com/users/MarcoFalke/followers",
        "following_url": "https://api.github.com/users/MarcoFalke/following%7B/other_user%7D",
        "gists_url": "https://api.github.com/users/MarcoFalke/gists%7B/gist_id%7D",
        "starred_url": "https://api.github.com/users/MarcoFalke/starred%7B/owner%7D%7B/repo%7D",
        "subscriptions_url": "https://api.github.com/users/MarcoFalke/subscriptions",
        "organizations_url": "https://api.github.com/users/MarcoFalke/orgs",
        "repos_url": "https://api.github.com/users/MarcoFalke/repos",
        "events_url": "https://api.github.com/users/MarcoFalke/events%7B/privacy%7D",
        "received_events_url": "https://api.github.com/users/MarcoFalke/received_events",
        "type": "User",
        "site_admin": false
      },
      "commit_id": null,
      "commit_url": null,
      "created_at": "2021-07-13T19:27:07Z",
      "updated_at": "2021-07-13T19:27:07Z",
      "author_association": "MEMBER",
      "body": "Should be fine to do as long as you add `LIFETIMEBOUND` where needed. See also https://github.com/bitcoin/bitcoin/pull/19426",
      "user": {
        "login": "MarcoFalke",
        "id": 6399679,
        "node_id": "MDQ6VXNlcjYzOTk2Nzk=",
        "avatar_url": "https://avatars.githubusercontent.com/u/6399679?v=4",
        "gravatar_id": "",
        "url": "https://api.github.com/users/MarcoFalke",
        "html_url": "https://github.com/MarcoFalke",
        "followers_url": "https://api.github.com/users/MarcoFalke/followers",
        "following_url": "https://api.github.com/users/MarcoFalke/following%7B/other_user%7D",
        "gists_url": "https://api.github.com/users/MarcoFalke/gists%7B/gist_id%7D",
        "starred_url": "https://api.github.com/users/MarcoFalke/starred%7B/owner%7D%7B/repo%7D",
        "subscriptions_url": "https://api.github.com/users/MarcoFalke/subscriptions",
        "organizations_url": "https://api.github.com/users/MarcoFalke/orgs",
        "repos_url": "https://api.github.com/users/MarcoFalke/repos",
        "events_url": "https://api.github.com/users/MarcoFalke/events%7B/privacy%7D",
        "received_events_url": "https://api.github.com/users/MarcoFalke/received_events",
        "type": "User",
        "site_admin": false
      },
      "html_url": "https://github.com/bitcoin/bitcoin/issues/22438#issuecomment-879342616",
      "issue_url": "https://api.github.com/repos/bitcoin/bitcoin/issues/22438"
    },
    {
      "event": "cross-referenced",
      "id": null,
      "node_id": null,
      "url": null,
      "actor": {
        "login": "JeremyRubin",
        "id": 886523,
        "node_id": "MDQ6VXNlcjg4NjUyMw==",
        "avatar_url": "https://avatars.githubusercontent.com/u/886523?v=4",
        "gravatar_id": "",
        "url": "https://api.github.com/users/JeremyRubin",
        "html_url": "https://github.com/JeremyRubin",
        "followers_url": "https://api.github.com/users/JeremyRubin/followers",
        "following_url": "https://api.github.com/users/JeremyRubin/following%7B/other_user%7D",
        "gists_url": "https://api.github.com/users/JeremyRubin/gists%7B/gist_id%7D",
        "starred_url": "https://api.github.com/users/JeremyRubin/starred%7B/owner%7D%7B/repo%7D",
        "subscriptions_url": "https://api.github.com/users/JeremyRubin/subscriptions",
        "organizations_url": "https://api.github.com/users/JeremyRubin/orgs",
        "repos_url": "https://api.github.com/users/JeremyRubin/repos",
        "events_url": "https://api.github.com/users/JeremyRubin/events%7B/privacy%7D",
        "received_events_url": "https://api.github.com/users/JeremyRubin/received_events",
        "type": "User",
        "site_admin": false
      },
      "commit_id": null,
      "commit_url": null,
      "created_at": "2021-07-14T02:29:34Z",
      "updated_at": "2021-07-14T02:29:34Z",
      "source": {
        "issue": {
          "id": 943975089,
          "node_id": "MDExOlB1bGxSZXF1ZXN0Njg5NTI3MDIw",
          "url": "https://api.github.com/repos/bitcoin/bitcoin/issues/22440",
          "repository_url": "https://api.github.com/repos/bitcoin/bitcoin",
          "labels_url": "https://api.github.com/repos/bitcoin/bitcoin/issues/22440/labels%7B/name%7D",
          "comments_url": "https://api.github.com/repos/bitcoin/bitcoin/issues/22440/comments",
          "events_url": "https://api.github.com/repos/bitcoin/bitcoin/issues/22440/events",
          "html_url": "https://github.com/bitcoin/bitcoin/pull/22440",
          "number": 22440,
          "state": "closed",
          "state_reason": null,
          "title": "Eliminate Signature Checker/Creator Ambiguity w/ LIFETIMEBOUND References",
          "body": "Previously, the Checkers stored pointers that were ambiguously null or not for the Transaction and the Precomputed Data. This PR makes the interface always require a reference to a transaction and to a PrecomputedData and remove ambiguity.\r\n\r\nThis in turn eliminates some dereferences that were previously not asserted locally, and generally makes the APIs more clear.\r\n\r\nThis doesn't reduce the ability to not precompute data as PrecomputedTransactionData has it's own internal initialization process -- if that is desired, an unitialized PrecomputedTransactionData can be used. This PR does not attempt to distinguish places where an unfilled PrecomputedTransactionData could be used -- for the most part, these are non performance sensitive signing code paths.\r\n\r\nNote that the internal representation for CScriptCheck does not change because there is a need to swap pointers (and not the underlying data). To get rid of the pointers altogether, a reference_wrapper could be used.\r\n\r\nfixes https://github.com/bitcoin/bitcoin/issues/22438",
          "user": {
            "login": "JeremyRubin",
            "id": 886523,
            "node_id": "MDQ6VXNlcjg4NjUyMw==",
            "avatar_url": "https://avatars.githubusercontent.com/u/886523?v=4",
            "gravatar_id": "",
            "url": "https://api.github.com/users/JeremyRubin",
            "html_url": "https://github.com/JeremyRubin",
            "followers_url": "https://api.github.com/users/JeremyRubin/followers",
            "following_url": "https://api.github.com/users/JeremyRubin/following%7B/other_user%7D",
            "gists_url": "https://api.github.com/users/JeremyRubin/gists%7B/gist_id%7D",
            "starred_url": "https://api.github.com/users/JeremyRubin/starred%7B/owner%7D%7B/repo%7D",
            "subscriptions_url": "https://api.github.com/users/JeremyRubin/subscriptions",
            "organizations_url": "https://api.github.com/users/JeremyRubin/orgs",
            "repos_url": "https://api.github.com/users/JeremyRubin/repos",
            "events_url": "https://api.github.com/users/JeremyRubin/events%7B/privacy%7D",
            "received_events_url": "https://api.github.com/users/JeremyRubin/received_events",
            "type": "User",
            "site_admin": false
          },
          "labels": [
            {
              "id": 135961,
              "node_id": "MDU6TGFiZWwxMzU5NjE=",
              "url": "https://api.github.com/repos/bitcoin/bitcoin/labels/Refactoring",
              "name": "Refactoring",
              "color": "E6F6D6",
              "default": false
            },
            {
              "id": 955867938,
              "node_id": "MDU6TGFiZWw5NTU4Njc5Mzg=",
              "url": "https://api.github.com/repos/bitcoin/bitcoin/labels/Needs%20rebase",
              "name": "Needs rebase",
              "description": "",
              "color": "cccccc",
              "default": false
            }
          ],
          "assignees": [],
          "author_association": "CONTRIBUTOR",
          "locked": true,
          "comments": 5,
          "pull_request": {
            "url": "https://api.github.com/repos/bitcoin/bitcoin/pulls/22440",
            "html_url": "https://github.com/bitcoin/bitcoin/pull/22440",
            "diff_url": "https://github.com/bitcoin/bitcoin/pull/22440.diff",
            "patch_url": "https://github.com/bitcoin/bitcoin/pull/22440.patch"
          },
          "closed_at": "2022-05-06T09:32:46Z",
          "created_at": "2021-07-14T02:28:40Z",
          "updated_at": "2023-05-06T10:00:38Z"
        },
        "type": "issue"
      }
    },
    {
      "event": "commented",
      "id": 1119431455,
      "node_id": "IC_kwDOABII585CuSsf",
      "url": "https://api.github.com/repos/bitcoin/bitcoin/issues/comments/1119431455",
      "actor": {
        "login": "MarcoFalke",
        "id": 6399679,
        "node_id": "MDQ6VXNlcjYzOTk2Nzk=",
        "avatar_url": "https://avatars.githubusercontent.com/u/6399679?v=4",
        "gravatar_id": "",
        "url": "https://api.github.com/users/MarcoFalke",
        "html_url": "https://github.com/MarcoFalke",
        "followers_url": "https://api.github.com/users/MarcoFalke/followers",
        "following_url": "https://api.github.com/users/MarcoFalke/following%7B/other_user%7D",
        "gists_url": "https://api.github.com/users/MarcoFalke/gists%7B/gist_id%7D",
        "starred_url": "https://api.github.com/users/MarcoFalke/starred%7B/owner%7D%7B/repo%7D",
        "subscriptions_url": "https://api.github.com/users/MarcoFalke/subscriptions",
        "organizations_url": "https://api.github.com/users/MarcoFalke/orgs",
        "repos_url": "https://api.github.com/users/MarcoFalke/repos",
        "events_url": "https://api.github.com/users/MarcoFalke/events%7B/privacy%7D",
        "received_events_url": "https://api.github.com/users/MarcoFalke/received_events",
        "type": "User",
        "site_admin": false
      },
      "commit_id": null,
      "commit_url": null,
      "created_at": "2022-05-06T09:33:22Z",
      "updated_at": "2022-05-06T09:33:22Z",
      "author_association": "MEMBER",
      "body": "https://github.com/bitcoin/bitcoin/pull/22793 might fix this",
      "user": {
        "login": "MarcoFalke",
        "id": 6399679,
        "node_id": "MDQ6VXNlcjYzOTk2Nzk=",
        "avatar_url": "https://avatars.githubusercontent.com/u/6399679?v=4",
        "gravatar_id": "",
        "url": "https://api.github.com/users/MarcoFalke",
        "html_url": "https://github.com/MarcoFalke",
        "followers_url": "https://api.github.com/users/MarcoFalke/followers",
        "following_url": "https://api.github.com/users/MarcoFalke/following%7B/other_user%7D",
        "gists_url": "https://api.github.com/users/MarcoFalke/gists%7B/gist_id%7D",
        "starred_url": "https://api.github.com/users/MarcoFalke/starred%7B/owner%7D%7B/repo%7D",
        "subscriptions_url": "https://api.github.com/users/MarcoFalke/subscriptions",
        "organizations_url": "https://api.github.com/users/MarcoFalke/orgs",
        "repos_url": "https://api.github.com/users/MarcoFalke/repos",
        "events_url": "https://api.github.com/users/MarcoFalke/events%7B/privacy%7D",
        "received_events_url": "https://api.github.com/users/MarcoFalke/received_events",
        "type": "User",
        "site_admin": false
      },
      "html_url": "https://github.com/bitcoin/bitcoin/issues/22438#issuecomment-1119431455",
      "issue_url": "https://api.github.com/repos/bitcoin/bitcoin/issues/22438"
    },
    {
      "event": "closed",
      "id": 8057924062,
      "node_id": "CE_lADOABII5844QJFPzwAAAAHgSine",
      "url": "https://api.github.com/repos/bitcoin/bitcoin/issues/events/8057924062",
      "actor": {
        "login": "JeremyRubin",
        "id": 886523,
        "node_id": "MDQ6VXNlcjg4NjUyMw==",
        "avatar_url": "https://avatars.githubusercontent.com/u/886523?v=4",
        "gravatar_id": "",
        "url": "https://api.github.com/users/JeremyRubin",
        "html_url": "https://github.com/JeremyRubin",
        "followers_url": "https://api.github.com/users/JeremyRubin/followers",
        "following_url": "https://api.github.com/users/JeremyRubin/following%7B/other_user%7D",
        "gists_url": "https://api.github.com/users/JeremyRubin/gists%7B/gist_id%7D",
        "starred_url": "https://api.github.com/users/JeremyRubin/starred%7B/owner%7D%7B/repo%7D",
        "subscriptions_url": "https://api.github.com/users/JeremyRubin/subscriptions",
        "organizations_url": "https://api.github.com/users/JeremyRubin/orgs",
        "repos_url": "https://api.github.com/users/JeremyRubin/repos",
        "events_url": "https://api.github.com/users/JeremyRubin/events%7B/privacy%7D",
        "received_events_url": "https://api.github.com/users/JeremyRubin/received_events",
        "type": "User",
        "site_admin": false
      },
      "commit_id": null,
      "commit_url": null,
      "created_at": "2022-12-16T16:00:43Z"
    }
  ]
}