{
  "type": "issue",
  "issue": {
    "id": 952779358,
    "node_id": "MDU6SXNzdWU5NTI3NzkzNTg=",
    "url": "https://api.github.com/repos/bitcoin/bitcoin/issues/22554",
    "repository_url": "https://api.github.com/repos/bitcoin/bitcoin",
    "labels_url": "https://api.github.com/repos/bitcoin/bitcoin/issues/22554/labels%7B/name%7D",
    "comments_url": "https://api.github.com/repos/bitcoin/bitcoin/issues/22554/comments",
    "events_url": "https://api.github.com/repos/bitcoin/bitcoin/issues/22554/events",
    "html_url": "https://github.com/bitcoin/bitcoin/issues/22554",
    "number": 22554,
    "state": "closed",
    "state_reason": "completed",
    "title": "False positive collisions could occur because of GetBucketPosition",
    "body": "<!-- This issue tracker is only for technical issues related to Bitcoin Core.\r\n\r\nGeneral bitcoin questions and/or support requests are best directed to the Bitcoin StackExchange at https://bitcoin.stackexchange.com.\r\n\r\nFor reporting security issues, please read instructions at https://bitcoincore.org/en/contact/.\r\n\r\nIf the node is \"stuck\" during sync or giving \"block checksum mismatch\" errors, please ensure your hardware is stable by running memtest and observe CPU temperature with a load-test tool such as linpack before creating an issue! -->\r\n\r\n<!-- Describe the issue -->\r\nIn `CAddrMan::Add_` method if  `pinfo->GetNewBucket(nKey, source, m_asmap)` returns same value(within an instance), `pinfo->GetBucketPosition(nKey, true, nUBucket)` would also return same consecutive values. This could lead to collision when it is not real one. \r\n\r\n**Expected behavior**\r\n\r\n<!--- What behavior did you expect? -->\r\nCheck should be made to confirm if `pinfo` is empty while checking `fInsert`. \r\n\r\n**Actual behavior**\r\n\r\n<!--- What was the actual behavior (provide screenshots if the issue is GUI-related)? -->\r\nSome `addrman_new_collisions` tests failed \r\n**To reproduce**\r\n\r\n<!--- How reliably can you reproduce the issue, what are the steps to do so? -->\r\n\r\n**System information**\r\nUbuntu 20\r\n<!-- What version of Bitcoin Core are you using, where did you get it (website, self-compiled, etc)? -->\r\nMaster\r\n<!-- What type of machine are you observing the error on (OS/CPU and disk type)? -->\r\n500GB, Linux\r\n<!-- GUI-related issue? What is your operating system and its version? If Linux, what is your desktop environment and graphical shell? -->\r\n\r\n<!-- Any extra information that might be useful in the debugging process. -->\r\n<!--- This is normally the contents of a `debug.log` or `config.log` file. Raw text or a link to a pastebin type site are preferred. -->\r\n",
    "user": {
      "login": "janus",
      "id": 6726,
      "node_id": "MDQ6VXNlcjY3MjY=",
      "avatar_url": "https://avatars.githubusercontent.com/u/6726?v=4",
      "gravatar_id": "",
      "url": "https://api.github.com/users/janus",
      "html_url": "https://github.com/janus",
      "followers_url": "https://api.github.com/users/janus/followers",
      "following_url": "https://api.github.com/users/janus/following%7B/other_user%7D",
      "gists_url": "https://api.github.com/users/janus/gists%7B/gist_id%7D",
      "starred_url": "https://api.github.com/users/janus/starred%7B/owner%7D%7B/repo%7D",
      "subscriptions_url": "https://api.github.com/users/janus/subscriptions",
      "organizations_url": "https://api.github.com/users/janus/orgs",
      "repos_url": "https://api.github.com/users/janus/repos",
      "events_url": "https://api.github.com/users/janus/events%7B/privacy%7D",
      "received_events_url": "https://api.github.com/users/janus/received_events",
      "type": "User",
      "site_admin": false
    },
    "labels": [
      {
        "id": 64585,
        "node_id": "MDU6TGFiZWw2NDU4NQ==",
        "url": "https://api.github.com/repos/bitcoin/bitcoin/labels/Bug",
        "name": "Bug",
        "color": "FBBAAB",
        "default": false
      },
      {
        "id": 98298007,
        "node_id": "MDU6TGFiZWw5ODI5ODAwNw==",
        "url": "https://api.github.com/repos/bitcoin/bitcoin/labels/P2P",
        "name": "P2P",
        "color": "006b75",
        "default": false
      }
    ],
    "assignees": [],
    "author_association": "NONE",
    "locked": false,
    "comments": 5,
    "closed_at": "2023-03-10T11:35:01Z",
    "created_at": "2021-07-26T11:02:52Z",
    "updated_at": "2023-03-10T11:35:02Z"
  },
  "events": [
    {
      "event": "labeled",
      "id": 5067681891,
      "node_id": "MDEyOkxhYmVsZWRFdmVudDUwNjc2ODE4OTE=",
      "url": "https://api.github.com/repos/bitcoin/bitcoin/issues/events/5067681891",
      "actor": {
        "login": "janus",
        "id": 6726,
        "node_id": "MDQ6VXNlcjY3MjY=",
        "avatar_url": "https://avatars.githubusercontent.com/u/6726?v=4",
        "gravatar_id": "",
        "url": "https://api.github.com/users/janus",
        "html_url": "https://github.com/janus",
        "followers_url": "https://api.github.com/users/janus/followers",
        "following_url": "https://api.github.com/users/janus/following%7B/other_user%7D",
        "gists_url": "https://api.github.com/users/janus/gists%7B/gist_id%7D",
        "starred_url": "https://api.github.com/users/janus/starred%7B/owner%7D%7B/repo%7D",
        "subscriptions_url": "https://api.github.com/users/janus/subscriptions",
        "organizations_url": "https://api.github.com/users/janus/orgs",
        "repos_url": "https://api.github.com/users/janus/repos",
        "events_url": "https://api.github.com/users/janus/events%7B/privacy%7D",
        "received_events_url": "https://api.github.com/users/janus/received_events",
        "type": "User",
        "site_admin": false
      },
      "commit_id": null,
      "commit_url": null,
      "created_at": "2021-07-26T11:02:52Z",
      "label": {
        "name": "Bug",
        "color": "FBBAAB"
      }
    },
    {
      "event": "commented",
      "id": 886642732,
      "node_id": "IC_kwDOABII58402Rgs",
      "url": "https://api.github.com/repos/bitcoin/bitcoin/issues/comments/886642732",
      "actor": {
        "login": "MarcoFalke",
        "id": 6399679,
        "node_id": "MDQ6VXNlcjYzOTk2Nzk=",
        "avatar_url": "https://avatars.githubusercontent.com/u/6399679?v=4",
        "gravatar_id": "",
        "url": "https://api.github.com/users/MarcoFalke",
        "html_url": "https://github.com/MarcoFalke",
        "followers_url": "https://api.github.com/users/MarcoFalke/followers",
        "following_url": "https://api.github.com/users/MarcoFalke/following%7B/other_user%7D",
        "gists_url": "https://api.github.com/users/MarcoFalke/gists%7B/gist_id%7D",
        "starred_url": "https://api.github.com/users/MarcoFalke/starred%7B/owner%7D%7B/repo%7D",
        "subscriptions_url": "https://api.github.com/users/MarcoFalke/subscriptions",
        "organizations_url": "https://api.github.com/users/MarcoFalke/orgs",
        "repos_url": "https://api.github.com/users/MarcoFalke/repos",
        "events_url": "https://api.github.com/users/MarcoFalke/events%7B/privacy%7D",
        "received_events_url": "https://api.github.com/users/MarcoFalke/received_events",
        "type": "User",
        "site_admin": false
      },
      "commit_id": null,
      "commit_url": null,
      "created_at": "2021-07-26T12:05:57Z",
      "updated_at": "2021-07-26T12:05:57Z",
      "author_association": "MEMBER",
      "body": "> Some addrman_new_collisions tests failed\r\n\r\nDo you have steps to reproduce?",
      "user": {
        "login": "MarcoFalke",
        "id": 6399679,
        "node_id": "MDQ6VXNlcjYzOTk2Nzk=",
        "avatar_url": "https://avatars.githubusercontent.com/u/6399679?v=4",
        "gravatar_id": "",
        "url": "https://api.github.com/users/MarcoFalke",
        "html_url": "https://github.com/MarcoFalke",
        "followers_url": "https://api.github.com/users/MarcoFalke/followers",
        "following_url": "https://api.github.com/users/MarcoFalke/following%7B/other_user%7D",
        "gists_url": "https://api.github.com/users/MarcoFalke/gists%7B/gist_id%7D",
        "starred_url": "https://api.github.com/users/MarcoFalke/starred%7B/owner%7D%7B/repo%7D",
        "subscriptions_url": "https://api.github.com/users/MarcoFalke/subscriptions",
        "organizations_url": "https://api.github.com/users/MarcoFalke/orgs",
        "repos_url": "https://api.github.com/users/MarcoFalke/repos",
        "events_url": "https://api.github.com/users/MarcoFalke/events%7B/privacy%7D",
        "received_events_url": "https://api.github.com/users/MarcoFalke/received_events",
        "type": "User",
        "site_admin": false
      },
      "html_url": "https://github.com/bitcoin/bitcoin/issues/22554#issuecomment-886642732",
      "issue_url": "https://api.github.com/repos/bitcoin/bitcoin/issues/22554"
    },
    {
      "event": "labeled",
      "id": 5067974502,
      "node_id": "MDEyOkxhYmVsZWRFdmVudDUwNjc5NzQ1MDI=",
      "url": "https://api.github.com/repos/bitcoin/bitcoin/issues/events/5067974502",
      "actor": {
        "login": "MarcoFalke",
        "id": 6399679,
        "node_id": "MDQ6VXNlcjYzOTk2Nzk=",
        "avatar_url": "https://avatars.githubusercontent.com/u/6399679?v=4",
        "gravatar_id": "",
        "url": "https://api.github.com/users/MarcoFalke",
        "html_url": "https://github.com/MarcoFalke",
        "followers_url": "https://api.github.com/users/MarcoFalke/followers",
        "following_url": "https://api.github.com/users/MarcoFalke/following%7B/other_user%7D",
        "gists_url": "https://api.github.com/users/MarcoFalke/gists%7B/gist_id%7D",
        "starred_url": "https://api.github.com/users/MarcoFalke/starred%7B/owner%7D%7B/repo%7D",
        "subscriptions_url": "https://api.github.com/users/MarcoFalke/subscriptions",
        "organizations_url": "https://api.github.com/users/MarcoFalke/orgs",
        "repos_url": "https://api.github.com/users/MarcoFalke/repos",
        "events_url": "https://api.github.com/users/MarcoFalke/events%7B/privacy%7D",
        "received_events_url": "https://api.github.com/users/MarcoFalke/received_events",
        "type": "User",
        "site_admin": false
      },
      "commit_id": null,
      "commit_url": null,
      "created_at": "2021-07-26T12:06:03Z",
      "label": {
        "name": "P2P",
        "color": "006b75"
      }
    },
    {
      "event": "commented",
      "id": 886665214,
      "node_id": "IC_kwDOABII58402W_-",
      "url": "https://api.github.com/repos/bitcoin/bitcoin/issues/comments/886665214",
      "actor": {
        "login": "jnewbery",
        "id": 1063656,
        "node_id": "MDQ6VXNlcjEwNjM2NTY=",
        "avatar_url": "https://avatars.githubusercontent.com/u/1063656?v=4",
        "gravatar_id": "",
        "url": "https://api.github.com/users/jnewbery",
        "html_url": "https://github.com/jnewbery",
        "followers_url": "https://api.github.com/users/jnewbery/followers",
        "following_url": "https://api.github.com/users/jnewbery/following%7B/other_user%7D",
        "gists_url": "https://api.github.com/users/jnewbery/gists%7B/gist_id%7D",
        "starred_url": "https://api.github.com/users/jnewbery/starred%7B/owner%7D%7B/repo%7D",
        "subscriptions_url": "https://api.github.com/users/jnewbery/subscriptions",
        "organizations_url": "https://api.github.com/users/jnewbery/orgs",
        "repos_url": "https://api.github.com/users/jnewbery/repos",
        "events_url": "https://api.github.com/users/jnewbery/events%7B/privacy%7D",
        "received_events_url": "https://api.github.com/users/jnewbery/received_events",
        "type": "User",
        "site_admin": false
      },
      "commit_id": null,
      "commit_url": null,
      "created_at": "2021-07-26T12:37:41Z",
      "updated_at": "2021-07-26T12:37:41Z",
      "author_association": "MEMBER",
      "body": "If the same new bucket/position is selected, then we don't try to insert the entry again:\r\n\r\nhttps://github.com/bitcoin/bitcoin/blob/1488f55fa57a1400a57be837b574183f019c7855/src/addrman.cpp#L365-L367\r\n\r\n(`if (vvNew[nUBucket][nUBucketPos] != nId)` ensures that the entry isn't already in that position in the bucket)",
      "user": {
        "login": "jnewbery",
        "id": 1063656,
        "node_id": "MDQ6VXNlcjEwNjM2NTY=",
        "avatar_url": "https://avatars.githubusercontent.com/u/1063656?v=4",
        "gravatar_id": "",
        "url": "https://api.github.com/users/jnewbery",
        "html_url": "https://github.com/jnewbery",
        "followers_url": "https://api.github.com/users/jnewbery/followers",
        "following_url": "https://api.github.com/users/jnewbery/following%7B/other_user%7D",
        "gists_url": "https://api.github.com/users/jnewbery/gists%7B/gist_id%7D",
        "starred_url": "https://api.github.com/users/jnewbery/starred%7B/owner%7D%7B/repo%7D",
        "subscriptions_url": "https://api.github.com/users/jnewbery/subscriptions",
        "organizations_url": "https://api.github.com/users/jnewbery/orgs",
        "repos_url": "https://api.github.com/users/jnewbery/repos",
        "events_url": "https://api.github.com/users/jnewbery/events%7B/privacy%7D",
        "received_events_url": "https://api.github.com/users/jnewbery/received_events",
        "type": "User",
        "site_admin": false
      },
      "html_url": "https://github.com/bitcoin/bitcoin/issues/22554#issuecomment-886665214",
      "issue_url": "https://api.github.com/repos/bitcoin/bitcoin/issues/22554"
    },
    {
      "event": "commented",
      "id": 888208787,
      "node_id": "IC_kwDOABII58408P2T",
      "url": "https://api.github.com/repos/bitcoin/bitcoin/issues/comments/888208787",
      "actor": {
        "login": "janus",
        "id": 6726,
        "node_id": "MDQ6VXNlcjY3MjY=",
        "avatar_url": "https://avatars.githubusercontent.com/u/6726?v=4",
        "gravatar_id": "",
        "url": "https://api.github.com/users/janus",
        "html_url": "https://github.com/janus",
        "followers_url": "https://api.github.com/users/janus/followers",
        "following_url": "https://api.github.com/users/janus/following%7B/other_user%7D",
        "gists_url": "https://api.github.com/users/janus/gists%7B/gist_id%7D",
        "starred_url": "https://api.github.com/users/janus/starred%7B/owner%7D%7B/repo%7D",
        "subscriptions_url": "https://api.github.com/users/janus/subscriptions",
        "organizations_url": "https://api.github.com/users/janus/orgs",
        "repos_url": "https://api.github.com/users/janus/repos",
        "events_url": "https://api.github.com/users/janus/events%7B/privacy%7D",
        "received_events_url": "https://api.github.com/users/janus/received_events",
        "type": "User",
        "site_admin": false
      },
      "commit_id": null,
      "commit_url": null,
      "created_at": "2021-07-28T10:43:23Z",
      "updated_at": "2021-07-28T10:43:23Z",
      "author_association": "NONE",
      "body": "> > Some addrman_new_collisions tests failed\r\n> \r\n> Do you have steps to reproduce?\r\n\r\nI trying to see if I can achieve that. Which function is toString for `uint256`?",
      "user": {
        "login": "janus",
        "id": 6726,
        "node_id": "MDQ6VXNlcjY3MjY=",
        "avatar_url": "https://avatars.githubusercontent.com/u/6726?v=4",
        "gravatar_id": "",
        "url": "https://api.github.com/users/janus",
        "html_url": "https://github.com/janus",
        "followers_url": "https://api.github.com/users/janus/followers",
        "following_url": "https://api.github.com/users/janus/following%7B/other_user%7D",
        "gists_url": "https://api.github.com/users/janus/gists%7B/gist_id%7D",
        "starred_url": "https://api.github.com/users/janus/starred%7B/owner%7D%7B/repo%7D",
        "subscriptions_url": "https://api.github.com/users/janus/subscriptions",
        "organizations_url": "https://api.github.com/users/janus/orgs",
        "repos_url": "https://api.github.com/users/janus/repos",
        "events_url": "https://api.github.com/users/janus/events%7B/privacy%7D",
        "received_events_url": "https://api.github.com/users/janus/received_events",
        "type": "User",
        "site_admin": false
      },
      "html_url": "https://github.com/bitcoin/bitcoin/issues/22554#issuecomment-888208787",
      "issue_url": "https://api.github.com/repos/bitcoin/bitcoin/issues/22554"
    },
    {
      "event": "commented",
      "id": 1463673221,
      "node_id": "IC_kwDOABII585XPeGF",
      "url": "https://api.github.com/repos/bitcoin/bitcoin/issues/comments/1463673221",
      "actor": {
        "login": "willcl-ark",
        "id": 6606587,
        "node_id": "MDQ6VXNlcjY2MDY1ODc=",
        "avatar_url": "https://avatars.githubusercontent.com/u/6606587?v=4",
        "gravatar_id": "",
        "url": "https://api.github.com/users/willcl-ark",
        "html_url": "https://github.com/willcl-ark",
        "followers_url": "https://api.github.com/users/willcl-ark/followers",
        "following_url": "https://api.github.com/users/willcl-ark/following%7B/other_user%7D",
        "gists_url": "https://api.github.com/users/willcl-ark/gists%7B/gist_id%7D",
        "starred_url": "https://api.github.com/users/willcl-ark/starred%7B/owner%7D%7B/repo%7D",
        "subscriptions_url": "https://api.github.com/users/willcl-ark/subscriptions",
        "organizations_url": "https://api.github.com/users/willcl-ark/orgs",
        "repos_url": "https://api.github.com/users/willcl-ark/repos",
        "events_url": "https://api.github.com/users/willcl-ark/events%7B/privacy%7D",
        "received_events_url": "https://api.github.com/users/willcl-ark/received_events",
        "type": "User",
        "site_admin": false
      },
      "commit_id": null,
      "commit_url": null,
      "created_at": "2023-03-10T11:31:58Z",
      "updated_at": "2023-03-10T11:31:58Z",
      "author_association": "CONTRIBUTOR",
      "body": "@janus are you able to reproduce this with the current version of the software? If not perhaps this can be closed.\r\n\r\nReading the codeblock as it stands today, it still appears that the entry will only be added if it does not already exist there:\r\n\r\nhttps://github.com/bitcoin/bitcoin/blob/f7bdcfc83f5753349018be3b5a663c8923d1a5eb/src/addrman.cpp#L605-L627\r\n\r\n> Check should be made to confirm if pinfo is empty while checking fInsert.\r\n\r\nWe will always have `pinfo` at the check, as it's either found and returned by `Find()`, or else is created with `Create()`, so I don't think I understand what this check would do.\r\n\r\nhttps://github.com/bitcoin/bitcoin/blob/f7bdcfc83f5753349018be3b5a663c8923d1a5eb/src/addrman.cpp#L563\r\n\r\nhttps://github.com/bitcoin/bitcoin/blob/f7bdcfc83f5753349018be3b5a663c8923d1a5eb/src/addrman.cpp#L600-L603",
      "user": {
        "login": "willcl-ark",
        "id": 6606587,
        "node_id": "MDQ6VXNlcjY2MDY1ODc=",
        "avatar_url": "https://avatars.githubusercontent.com/u/6606587?v=4",
        "gravatar_id": "",
        "url": "https://api.github.com/users/willcl-ark",
        "html_url": "https://github.com/willcl-ark",
        "followers_url": "https://api.github.com/users/willcl-ark/followers",
        "following_url": "https://api.github.com/users/willcl-ark/following%7B/other_user%7D",
        "gists_url": "https://api.github.com/users/willcl-ark/gists%7B/gist_id%7D",
        "starred_url": "https://api.github.com/users/willcl-ark/starred%7B/owner%7D%7B/repo%7D",
        "subscriptions_url": "https://api.github.com/users/willcl-ark/subscriptions",
        "organizations_url": "https://api.github.com/users/willcl-ark/orgs",
        "repos_url": "https://api.github.com/users/willcl-ark/repos",
        "events_url": "https://api.github.com/users/willcl-ark/events%7B/privacy%7D",
        "received_events_url": "https://api.github.com/users/willcl-ark/received_events",
        "type": "User",
        "site_admin": false
      },
      "html_url": "https://github.com/bitcoin/bitcoin/issues/22554#issuecomment-1463673221",
      "issue_url": "https://api.github.com/repos/bitcoin/bitcoin/issues/22554"
    },
    {
      "event": "mentioned",
      "id": 8717361470,
      "node_id": "MEE_lADOABII5844ykJezwAAAAIHmGE-",
      "url": "https://api.github.com/repos/bitcoin/bitcoin/issues/events/8717361470",
      "actor": {
        "login": "janus",
        "id": 6726,
        "node_id": "MDQ6VXNlcjY3MjY=",
        "avatar_url": "https://avatars.githubusercontent.com/u/6726?v=4",
        "gravatar_id": "",
        "url": "https://api.github.com/users/janus",
        "html_url": "https://github.com/janus",
        "followers_url": "https://api.github.com/users/janus/followers",
        "following_url": "https://api.github.com/users/janus/following%7B/other_user%7D",
        "gists_url": "https://api.github.com/users/janus/gists%7B/gist_id%7D",
        "starred_url": "https://api.github.com/users/janus/starred%7B/owner%7D%7B/repo%7D",
        "subscriptions_url": "https://api.github.com/users/janus/subscriptions",
        "organizations_url": "https://api.github.com/users/janus/orgs",
        "repos_url": "https://api.github.com/users/janus/repos",
        "events_url": "https://api.github.com/users/janus/events%7B/privacy%7D",
        "received_events_url": "https://api.github.com/users/janus/received_events",
        "type": "User",
        "site_admin": false
      },
      "commit_id": null,
      "commit_url": null,
      "created_at": "2023-03-10T11:31:58Z"
    },
    {
      "event": "subscribed",
      "id": 8717361488,
      "node_id": "SE_lADOABII5844ykJezwAAAAIHmGFQ",
      "url": "https://api.github.com/repos/bitcoin/bitcoin/issues/events/8717361488",
      "actor": {
        "login": "janus",
        "id": 6726,
        "node_id": "MDQ6VXNlcjY3MjY=",
        "avatar_url": "https://avatars.githubusercontent.com/u/6726?v=4",
        "gravatar_id": "",
        "url": "https://api.github.com/users/janus",
        "html_url": "https://github.com/janus",
        "followers_url": "https://api.github.com/users/janus/followers",
        "following_url": "https://api.github.com/users/janus/following%7B/other_user%7D",
        "gists_url": "https://api.github.com/users/janus/gists%7B/gist_id%7D",
        "starred_url": "https://api.github.com/users/janus/starred%7B/owner%7D%7B/repo%7D",
        "subscriptions_url": "https://api.github.com/users/janus/subscriptions",
        "organizations_url": "https://api.github.com/users/janus/orgs",
        "repos_url": "https://api.github.com/users/janus/repos",
        "events_url": "https://api.github.com/users/janus/events%7B/privacy%7D",
        "received_events_url": "https://api.github.com/users/janus/received_events",
        "type": "User",
        "site_admin": false
      },
      "commit_id": null,
      "commit_url": null,
      "created_at": "2023-03-10T11:31:58Z"
    },
    {
      "event": "commented",
      "id": 1463676435,
      "node_id": "IC_kwDOABII585XPe4T",
      "url": "https://api.github.com/repos/bitcoin/bitcoin/issues/comments/1463676435",
      "actor": {
        "login": "MarcoFalke",
        "id": 6399679,
        "node_id": "MDQ6VXNlcjYzOTk2Nzk=",
        "avatar_url": "https://avatars.githubusercontent.com/u/6399679?v=4",
        "gravatar_id": "",
        "url": "https://api.github.com/users/MarcoFalke",
        "html_url": "https://github.com/MarcoFalke",
        "followers_url": "https://api.github.com/users/MarcoFalke/followers",
        "following_url": "https://api.github.com/users/MarcoFalke/following%7B/other_user%7D",
        "gists_url": "https://api.github.com/users/MarcoFalke/gists%7B/gist_id%7D",
        "starred_url": "https://api.github.com/users/MarcoFalke/starred%7B/owner%7D%7B/repo%7D",
        "subscriptions_url": "https://api.github.com/users/MarcoFalke/subscriptions",
        "organizations_url": "https://api.github.com/users/MarcoFalke/orgs",
        "repos_url": "https://api.github.com/users/MarcoFalke/repos",
        "events_url": "https://api.github.com/users/MarcoFalke/events%7B/privacy%7D",
        "received_events_url": "https://api.github.com/users/MarcoFalke/received_events",
        "type": "User",
        "site_admin": false
      },
      "commit_id": null,
      "commit_url": null,
      "created_at": "2023-03-10T11:35:01Z",
      "updated_at": "2023-03-10T11:35:01Z",
      "author_association": "MEMBER",
      "body": "Closing for now, but happy to reopen if there is more info provided.",
      "user": {
        "login": "MarcoFalke",
        "id": 6399679,
        "node_id": "MDQ6VXNlcjYzOTk2Nzk=",
        "avatar_url": "https://avatars.githubusercontent.com/u/6399679?v=4",
        "gravatar_id": "",
        "url": "https://api.github.com/users/MarcoFalke",
        "html_url": "https://github.com/MarcoFalke",
        "followers_url": "https://api.github.com/users/MarcoFalke/followers",
        "following_url": "https://api.github.com/users/MarcoFalke/following%7B/other_user%7D",
        "gists_url": "https://api.github.com/users/MarcoFalke/gists%7B/gist_id%7D",
        "starred_url": "https://api.github.com/users/MarcoFalke/starred%7B/owner%7D%7B/repo%7D",
        "subscriptions_url": "https://api.github.com/users/MarcoFalke/subscriptions",
        "organizations_url": "https://api.github.com/users/MarcoFalke/orgs",
        "repos_url": "https://api.github.com/users/MarcoFalke/repos",
        "events_url": "https://api.github.com/users/MarcoFalke/events%7B/privacy%7D",
        "received_events_url": "https://api.github.com/users/MarcoFalke/received_events",
        "type": "User",
        "site_admin": false
      },
      "html_url": "https://github.com/bitcoin/bitcoin/issues/22554#issuecomment-1463676435",
      "issue_url": "https://api.github.com/repos/bitcoin/bitcoin/issues/22554"
    },
    {
      "event": "closed",
      "id": 8717382535,
      "node_id": "CE_lADOABII5844ykJezwAAAAIHmLOH",
      "url": "https://api.github.com/repos/bitcoin/bitcoin/issues/events/8717382535",
      "actor": {
        "login": "MarcoFalke",
        "id": 6399679,
        "node_id": "MDQ6VXNlcjYzOTk2Nzk=",
        "avatar_url": "https://avatars.githubusercontent.com/u/6399679?v=4",
        "gravatar_id": "",
        "url": "https://api.github.com/users/MarcoFalke",
        "html_url": "https://github.com/MarcoFalke",
        "followers_url": "https://api.github.com/users/MarcoFalke/followers",
        "following_url": "https://api.github.com/users/MarcoFalke/following%7B/other_user%7D",
        "gists_url": "https://api.github.com/users/MarcoFalke/gists%7B/gist_id%7D",
        "starred_url": "https://api.github.com/users/MarcoFalke/starred%7B/owner%7D%7B/repo%7D",
        "subscriptions_url": "https://api.github.com/users/MarcoFalke/subscriptions",
        "organizations_url": "https://api.github.com/users/MarcoFalke/orgs",
        "repos_url": "https://api.github.com/users/MarcoFalke/repos",
        "events_url": "https://api.github.com/users/MarcoFalke/events%7B/privacy%7D",
        "received_events_url": "https://api.github.com/users/MarcoFalke/received_events",
        "type": "User",
        "site_admin": false
      },
      "commit_id": null,
      "commit_url": null,
      "created_at": "2023-03-10T11:35:01Z"
    }
  ]
}