{
  "type": "issue",
  "issue": {
    "id": 997227948,
    "node_id": "I_kwDOABII5847cH2s",
    "url": "https://api.github.com/repos/bitcoin/bitcoin/issues/22983",
    "repository_url": "https://api.github.com/repos/bitcoin/bitcoin",
    "labels_url": "https://api.github.com/repos/bitcoin/bitcoin/issues/22983/labels%7B/name%7D",
    "comments_url": "https://api.github.com/repos/bitcoin/bitcoin/issues/22983/comments",
    "events_url": "https://api.github.com/repos/bitcoin/bitcoin/issues/22983/events",
    "html_url": "https://github.com/bitcoin/bitcoin/issues/22983",
    "number": 22983,
    "state": "closed",
    "state_reason": "completed",
    "title": "i2pacceptincoming isn't set default to 0",
    "body": "On Windows, if I put `i2psam=localhost:7656` and `i2pacceptincoming` in `bitcoin.conf` Bitcoin core should run without errors.\r\n\r\nBut `i2pacceptincoming` leads to an error. I have to put `i2pacceptincoming=1`\r\n\r\nAs documented, default value of `i2pacceptincoming` should set to 1 so that `i2pacceptincoming` works alone.",
    "user": {
      "login": "clayop",
      "id": 9971632,
      "node_id": "MDQ6VXNlcjk5NzE2MzI=",
      "avatar_url": "https://avatars.githubusercontent.com/u/9971632?v=4",
      "gravatar_id": "",
      "url": "https://api.github.com/users/clayop",
      "html_url": "https://github.com/clayop",
      "followers_url": "https://api.github.com/users/clayop/followers",
      "following_url": "https://api.github.com/users/clayop/following%7B/other_user%7D",
      "gists_url": "https://api.github.com/users/clayop/gists%7B/gist_id%7D",
      "starred_url": "https://api.github.com/users/clayop/starred%7B/owner%7D%7B/repo%7D",
      "subscriptions_url": "https://api.github.com/users/clayop/subscriptions",
      "organizations_url": "https://api.github.com/users/clayop/orgs",
      "repos_url": "https://api.github.com/users/clayop/repos",
      "events_url": "https://api.github.com/users/clayop/events%7B/privacy%7D",
      "received_events_url": "https://api.github.com/users/clayop/received_events",
      "type": "User",
      "site_admin": false
    },
    "labels": [
      {
        "id": 64585,
        "node_id": "MDU6TGFiZWw2NDU4NQ==",
        "url": "https://api.github.com/repos/bitcoin/bitcoin/labels/Bug",
        "name": "Bug",
        "color": "FBBAAB",
        "default": false
      },
      {
        "id": 98298007,
        "node_id": "MDU6TGFiZWw5ODI5ODAwNw==",
        "url": "https://api.github.com/repos/bitcoin/bitcoin/labels/P2P",
        "name": "P2P",
        "color": "006b75",
        "default": false
      }
    ],
    "assignees": [],
    "author_association": "NONE",
    "locked": false,
    "comments": 5,
    "closed_at": "2022-11-23T09:22:59Z",
    "created_at": "2021-09-15T15:33:49Z",
    "updated_at": "2022-11-23T09:22:59Z"
  },
  "events": [
    {
      "event": "labeled",
      "id": 5306842087,
      "node_id": "LE_lADOABII5847cH2szwAAAAE8T_vn",
      "url": "https://api.github.com/repos/bitcoin/bitcoin/issues/events/5306842087",
      "actor": {
        "login": "clayop",
        "id": 9971632,
        "node_id": "MDQ6VXNlcjk5NzE2MzI=",
        "avatar_url": "https://avatars.githubusercontent.com/u/9971632?v=4",
        "gravatar_id": "",
        "url": "https://api.github.com/users/clayop",
        "html_url": "https://github.com/clayop",
        "followers_url": "https://api.github.com/users/clayop/followers",
        "following_url": "https://api.github.com/users/clayop/following%7B/other_user%7D",
        "gists_url": "https://api.github.com/users/clayop/gists%7B/gist_id%7D",
        "starred_url": "https://api.github.com/users/clayop/starred%7B/owner%7D%7B/repo%7D",
        "subscriptions_url": "https://api.github.com/users/clayop/subscriptions",
        "organizations_url": "https://api.github.com/users/clayop/orgs",
        "repos_url": "https://api.github.com/users/clayop/repos",
        "events_url": "https://api.github.com/users/clayop/events%7B/privacy%7D",
        "received_events_url": "https://api.github.com/users/clayop/received_events",
        "type": "User",
        "site_admin": false
      },
      "commit_id": null,
      "commit_url": null,
      "created_at": "2021-09-15T15:33:49Z",
      "label": {
        "name": "Bug",
        "color": "FBBAAB"
      }
    },
    {
      "event": "commented",
      "id": 920163018,
      "node_id": "IC_kwDOABII58422JLK",
      "url": "https://api.github.com/repos/bitcoin/bitcoin/issues/comments/920163018",
      "actor": {
        "login": "ghost",
        "id": 10137,
        "node_id": "MDQ6VXNlcjEwMTM3",
        "avatar_url": "https://avatars.githubusercontent.com/u/10137?v=4",
        "gravatar_id": "",
        "url": "https://api.github.com/users/ghost",
        "html_url": "https://github.com/ghost",
        "followers_url": "https://api.github.com/users/ghost/followers",
        "following_url": "https://api.github.com/users/ghost/following%7B/other_user%7D",
        "gists_url": "https://api.github.com/users/ghost/gists%7B/gist_id%7D",
        "starred_url": "https://api.github.com/users/ghost/starred%7B/owner%7D%7B/repo%7D",
        "subscriptions_url": "https://api.github.com/users/ghost/subscriptions",
        "organizations_url": "https://api.github.com/users/ghost/orgs",
        "repos_url": "https://api.github.com/users/ghost/repos",
        "events_url": "https://api.github.com/users/ghost/events%7B/privacy%7D",
        "received_events_url": "https://api.github.com/users/ghost/received_events",
        "type": "User",
        "site_admin": false
      },
      "commit_id": null,
      "commit_url": null,
      "created_at": "2021-09-15T16:16:01Z",
      "updated_at": "2021-09-15T16:16:01Z",
      "author_association": "NONE",
      "body": "> On Windows, if I put i2psam=localhost:7656 and i2pacceptincoming in bitcoin.conf Bitcoin core should run without errors.\r\n\r\nYou should use nothing or `i2pacceptincoming=N` where N=0 to disable and N=1 to enable\r\n\r\n> As documented, default value of i2pacceptincoming should set to 1 so that i2pacceptincoming works alone.\r\n\r\nIt is set to 1 by default if you don't use that option in config.\r\n\r\nTry running with these config:\r\n\r\n1. Check default behaviour\r\n```\r\ni2psam=127.0.0.1:7656\r\n```\r\n\r\n2. Disable i2p incoming and only use i2p for outgoing\r\n\r\n```\r\ni2psam=127.0.0.1:7656\r\ni2pacceptincoming=0\r\n```\r\n\r\n\r\nAlso the documentation is correct in [doc/i2p.md](https://github.com/bitcoin/bitcoin/blob/master/doc/i2p.md), maybe there is some misunderstanding.\r\n\r\nhttps://github.com/bitcoin/bitcoin/blob/053a5fc7d912d597cd6dc7376b479420d1eae1c0/src/init.cpp#L439\r\n\r\n\r\n\r\n",
      "user": {
        "login": "ghost",
        "id": 10137,
        "node_id": "MDQ6VXNlcjEwMTM3",
        "avatar_url": "https://avatars.githubusercontent.com/u/10137?v=4",
        "gravatar_id": "",
        "url": "https://api.github.com/users/ghost",
        "html_url": "https://github.com/ghost",
        "followers_url": "https://api.github.com/users/ghost/followers",
        "following_url": "https://api.github.com/users/ghost/following%7B/other_user%7D",
        "gists_url": "https://api.github.com/users/ghost/gists%7B/gist_id%7D",
        "starred_url": "https://api.github.com/users/ghost/starred%7B/owner%7D%7B/repo%7D",
        "subscriptions_url": "https://api.github.com/users/ghost/subscriptions",
        "organizations_url": "https://api.github.com/users/ghost/orgs",
        "repos_url": "https://api.github.com/users/ghost/repos",
        "events_url": "https://api.github.com/users/ghost/events%7B/privacy%7D",
        "received_events_url": "https://api.github.com/users/ghost/received_events",
        "type": "User",
        "site_admin": false
      },
      "html_url": "https://github.com/bitcoin/bitcoin/issues/22983#issuecomment-920163018",
      "issue_url": "https://api.github.com/repos/bitcoin/bitcoin/issues/22983"
    },
    {
      "event": "commented",
      "id": 1208329715,
      "node_id": "IC_kwDOABII585IBaXz",
      "url": "https://api.github.com/repos/bitcoin/bitcoin/issues/comments/1208329715",
      "actor": {
        "login": "fanquake",
        "id": 863730,
        "node_id": "MDQ6VXNlcjg2MzczMA==",
        "avatar_url": "https://avatars.githubusercontent.com/u/863730?v=4",
        "gravatar_id": "",
        "url": "https://api.github.com/users/fanquake",
        "html_url": "https://github.com/fanquake",
        "followers_url": "https://api.github.com/users/fanquake/followers",
        "following_url": "https://api.github.com/users/fanquake/following%7B/other_user%7D",
        "gists_url": "https://api.github.com/users/fanquake/gists%7B/gist_id%7D",
        "starred_url": "https://api.github.com/users/fanquake/starred%7B/owner%7D%7B/repo%7D",
        "subscriptions_url": "https://api.github.com/users/fanquake/subscriptions",
        "organizations_url": "https://api.github.com/users/fanquake/orgs",
        "repos_url": "https://api.github.com/users/fanquake/repos",
        "events_url": "https://api.github.com/users/fanquake/events%7B/privacy%7D",
        "received_events_url": "https://api.github.com/users/fanquake/received_events",
        "type": "User",
        "site_admin": false
      },
      "commit_id": null,
      "commit_url": null,
      "created_at": "2022-08-08T16:16:01Z",
      "updated_at": "2022-08-08T16:16:01Z",
      "author_association": "MEMBER",
      "body": "cc @vasild ",
      "user": {
        "login": "fanquake",
        "id": 863730,
        "node_id": "MDQ6VXNlcjg2MzczMA==",
        "avatar_url": "https://avatars.githubusercontent.com/u/863730?v=4",
        "gravatar_id": "",
        "url": "https://api.github.com/users/fanquake",
        "html_url": "https://github.com/fanquake",
        "followers_url": "https://api.github.com/users/fanquake/followers",
        "following_url": "https://api.github.com/users/fanquake/following%7B/other_user%7D",
        "gists_url": "https://api.github.com/users/fanquake/gists%7B/gist_id%7D",
        "starred_url": "https://api.github.com/users/fanquake/starred%7B/owner%7D%7B/repo%7D",
        "subscriptions_url": "https://api.github.com/users/fanquake/subscriptions",
        "organizations_url": "https://api.github.com/users/fanquake/orgs",
        "repos_url": "https://api.github.com/users/fanquake/repos",
        "events_url": "https://api.github.com/users/fanquake/events%7B/privacy%7D",
        "received_events_url": "https://api.github.com/users/fanquake/received_events",
        "type": "User",
        "site_admin": false
      },
      "html_url": "https://github.com/bitcoin/bitcoin/issues/22983#issuecomment-1208329715",
      "issue_url": "https://api.github.com/repos/bitcoin/bitcoin/issues/22983"
    },
    {
      "event": "mentioned",
      "id": 7148496030,
      "node_id": "MEE_lADOABII5847cH2szwAAAAGqFWSe",
      "url": "https://api.github.com/repos/bitcoin/bitcoin/issues/events/7148496030",
      "actor": {
        "login": "vasild",
        "id": 266751,
        "node_id": "MDQ6VXNlcjI2Njc1MQ==",
        "avatar_url": "https://avatars.githubusercontent.com/u/266751?v=4",
        "gravatar_id": "",
        "url": "https://api.github.com/users/vasild",
        "html_url": "https://github.com/vasild",
        "followers_url": "https://api.github.com/users/vasild/followers",
        "following_url": "https://api.github.com/users/vasild/following%7B/other_user%7D",
        "gists_url": "https://api.github.com/users/vasild/gists%7B/gist_id%7D",
        "starred_url": "https://api.github.com/users/vasild/starred%7B/owner%7D%7B/repo%7D",
        "subscriptions_url": "https://api.github.com/users/vasild/subscriptions",
        "organizations_url": "https://api.github.com/users/vasild/orgs",
        "repos_url": "https://api.github.com/users/vasild/repos",
        "events_url": "https://api.github.com/users/vasild/events%7B/privacy%7D",
        "received_events_url": "https://api.github.com/users/vasild/received_events",
        "type": "User",
        "site_admin": false
      },
      "commit_id": null,
      "commit_url": null,
      "created_at": "2022-08-08T16:16:01Z"
    },
    {
      "event": "subscribed",
      "id": 7148496037,
      "node_id": "SE_lADOABII5847cH2szwAAAAGqFWSl",
      "url": "https://api.github.com/repos/bitcoin/bitcoin/issues/events/7148496037",
      "actor": {
        "login": "vasild",
        "id": 266751,
        "node_id": "MDQ6VXNlcjI2Njc1MQ==",
        "avatar_url": "https://avatars.githubusercontent.com/u/266751?v=4",
        "gravatar_id": "",
        "url": "https://api.github.com/users/vasild",
        "html_url": "https://github.com/vasild",
        "followers_url": "https://api.github.com/users/vasild/followers",
        "following_url": "https://api.github.com/users/vasild/following%7B/other_user%7D",
        "gists_url": "https://api.github.com/users/vasild/gists%7B/gist_id%7D",
        "starred_url": "https://api.github.com/users/vasild/starred%7B/owner%7D%7B/repo%7D",
        "subscriptions_url": "https://api.github.com/users/vasild/subscriptions",
        "organizations_url": "https://api.github.com/users/vasild/orgs",
        "repos_url": "https://api.github.com/users/vasild/repos",
        "events_url": "https://api.github.com/users/vasild/events%7B/privacy%7D",
        "received_events_url": "https://api.github.com/users/vasild/received_events",
        "type": "User",
        "site_admin": false
      },
      "commit_id": null,
      "commit_url": null,
      "created_at": "2022-08-08T16:16:01Z"
    },
    {
      "event": "labeled",
      "id": 7172141918,
      "node_id": "LE_lADOABII5847cH2szwAAAAGrfjNe",
      "url": "https://api.github.com/repos/bitcoin/bitcoin/issues/events/7172141918",
      "actor": {
        "login": "fanquake",
        "id": 863730,
        "node_id": "MDQ6VXNlcjg2MzczMA==",
        "avatar_url": "https://avatars.githubusercontent.com/u/863730?v=4",
        "gravatar_id": "",
        "url": "https://api.github.com/users/fanquake",
        "html_url": "https://github.com/fanquake",
        "followers_url": "https://api.github.com/users/fanquake/followers",
        "following_url": "https://api.github.com/users/fanquake/following%7B/other_user%7D",
        "gists_url": "https://api.github.com/users/fanquake/gists%7B/gist_id%7D",
        "starred_url": "https://api.github.com/users/fanquake/starred%7B/owner%7D%7B/repo%7D",
        "subscriptions_url": "https://api.github.com/users/fanquake/subscriptions",
        "organizations_url": "https://api.github.com/users/fanquake/orgs",
        "repos_url": "https://api.github.com/users/fanquake/repos",
        "events_url": "https://api.github.com/users/fanquake/events%7B/privacy%7D",
        "received_events_url": "https://api.github.com/users/fanquake/received_events",
        "type": "User",
        "site_admin": false
      },
      "commit_id": null,
      "commit_url": null,
      "created_at": "2022-08-11T14:24:43Z",
      "label": {
        "name": "P2P",
        "color": "006b75"
      }
    },
    {
      "event": "commented",
      "id": 1213304656,
      "node_id": "IC_kwDOABII585IUY9Q",
      "url": "https://api.github.com/repos/bitcoin/bitcoin/issues/comments/1213304656",
      "actor": {
        "login": "vasild",
        "id": 266751,
        "node_id": "MDQ6VXNlcjI2Njc1MQ==",
        "avatar_url": "https://avatars.githubusercontent.com/u/266751?v=4",
        "gravatar_id": "",
        "url": "https://api.github.com/users/vasild",
        "html_url": "https://github.com/vasild",
        "followers_url": "https://api.github.com/users/vasild/followers",
        "following_url": "https://api.github.com/users/vasild/following%7B/other_user%7D",
        "gists_url": "https://api.github.com/users/vasild/gists%7B/gist_id%7D",
        "starred_url": "https://api.github.com/users/vasild/starred%7B/owner%7D%7B/repo%7D",
        "subscriptions_url": "https://api.github.com/users/vasild/subscriptions",
        "organizations_url": "https://api.github.com/users/vasild/orgs",
        "repos_url": "https://api.github.com/users/vasild/repos",
        "events_url": "https://api.github.com/users/vasild/events%7B/privacy%7D",
        "received_events_url": "https://api.github.com/users/vasild/received_events",
        "type": "User",
        "site_admin": false
      },
      "commit_id": null,
      "commit_url": null,
      "created_at": "2022-08-12T16:30:50Z",
      "updated_at": "2022-08-12T16:30:50Z",
      "author_association": "CONTRIBUTOR",
      "body": "@clayop, If you put `i2pacceptincoming` in `bitcoin.conf`, you need to put either `i2pacceptincoming=1` or `i2pacceptincoming=0`. Without `=N` this error is produced:\r\n\r\n```sh\r\n./src/bitcoind \r\nError: Error reading configuration file: parse error on line 35: i2pacceptincoming\r\n```\r\n\r\nThat is the same for other options as well, e.g. `logips` or `listen`:\r\n\r\n```sh\r\n./src/bitcoind \r\nError: Error reading configuration file: parse error on line 20: listen\r\n```",
      "user": {
        "login": "vasild",
        "id": 266751,
        "node_id": "MDQ6VXNlcjI2Njc1MQ==",
        "avatar_url": "https://avatars.githubusercontent.com/u/266751?v=4",
        "gravatar_id": "",
        "url": "https://api.github.com/users/vasild",
        "html_url": "https://github.com/vasild",
        "followers_url": "https://api.github.com/users/vasild/followers",
        "following_url": "https://api.github.com/users/vasild/following%7B/other_user%7D",
        "gists_url": "https://api.github.com/users/vasild/gists%7B/gist_id%7D",
        "starred_url": "https://api.github.com/users/vasild/starred%7B/owner%7D%7B/repo%7D",
        "subscriptions_url": "https://api.github.com/users/vasild/subscriptions",
        "organizations_url": "https://api.github.com/users/vasild/orgs",
        "repos_url": "https://api.github.com/users/vasild/repos",
        "events_url": "https://api.github.com/users/vasild/events%7B/privacy%7D",
        "received_events_url": "https://api.github.com/users/vasild/received_events",
        "type": "User",
        "site_admin": false
      },
      "html_url": "https://github.com/bitcoin/bitcoin/issues/22983#issuecomment-1213304656",
      "issue_url": "https://api.github.com/repos/bitcoin/bitcoin/issues/22983"
    },
    {
      "event": "mentioned",
      "id": 7180468154,
      "node_id": "MEE_lADOABII5847cH2szwAAAAGr_T-6",
      "url": "https://api.github.com/repos/bitcoin/bitcoin/issues/events/7180468154",
      "actor": {
        "login": "clayop",
        "id": 9971632,
        "node_id": "MDQ6VXNlcjk5NzE2MzI=",
        "avatar_url": "https://avatars.githubusercontent.com/u/9971632?v=4",
        "gravatar_id": "",
        "url": "https://api.github.com/users/clayop",
        "html_url": "https://github.com/clayop",
        "followers_url": "https://api.github.com/users/clayop/followers",
        "following_url": "https://api.github.com/users/clayop/following%7B/other_user%7D",
        "gists_url": "https://api.github.com/users/clayop/gists%7B/gist_id%7D",
        "starred_url": "https://api.github.com/users/clayop/starred%7B/owner%7D%7B/repo%7D",
        "subscriptions_url": "https://api.github.com/users/clayop/subscriptions",
        "organizations_url": "https://api.github.com/users/clayop/orgs",
        "repos_url": "https://api.github.com/users/clayop/repos",
        "events_url": "https://api.github.com/users/clayop/events%7B/privacy%7D",
        "received_events_url": "https://api.github.com/users/clayop/received_events",
        "type": "User",
        "site_admin": false
      },
      "commit_id": null,
      "commit_url": null,
      "created_at": "2022-08-12T16:30:50Z"
    },
    {
      "event": "subscribed",
      "id": 7180468165,
      "node_id": "SE_lADOABII5847cH2szwAAAAGr_T_F",
      "url": "https://api.github.com/repos/bitcoin/bitcoin/issues/events/7180468165",
      "actor": {
        "login": "clayop",
        "id": 9971632,
        "node_id": "MDQ6VXNlcjk5NzE2MzI=",
        "avatar_url": "https://avatars.githubusercontent.com/u/9971632?v=4",
        "gravatar_id": "",
        "url": "https://api.github.com/users/clayop",
        "html_url": "https://github.com/clayop",
        "followers_url": "https://api.github.com/users/clayop/followers",
        "following_url": "https://api.github.com/users/clayop/following%7B/other_user%7D",
        "gists_url": "https://api.github.com/users/clayop/gists%7B/gist_id%7D",
        "starred_url": "https://api.github.com/users/clayop/starred%7B/owner%7D%7B/repo%7D",
        "subscriptions_url": "https://api.github.com/users/clayop/subscriptions",
        "organizations_url": "https://api.github.com/users/clayop/orgs",
        "repos_url": "https://api.github.com/users/clayop/repos",
        "events_url": "https://api.github.com/users/clayop/events%7B/privacy%7D",
        "received_events_url": "https://api.github.com/users/clayop/received_events",
        "type": "User",
        "site_admin": false
      },
      "commit_id": null,
      "commit_url": null,
      "created_at": "2022-08-12T16:30:50Z"
    },
    {
      "event": "commented",
      "id": 1252684686,
      "node_id": "IC_kwDOABII585KqnOO",
      "url": "https://api.github.com/repos/bitcoin/bitcoin/issues/comments/1252684686",
      "actor": {
        "login": "mzumsande",
        "id": 48763452,
        "node_id": "MDQ6VXNlcjQ4NzYzNDUy",
        "avatar_url": "https://avatars.githubusercontent.com/u/48763452?v=4",
        "gravatar_id": "",
        "url": "https://api.github.com/users/mzumsande",
        "html_url": "https://github.com/mzumsande",
        "followers_url": "https://api.github.com/users/mzumsande/followers",
        "following_url": "https://api.github.com/users/mzumsande/following%7B/other_user%7D",
        "gists_url": "https://api.github.com/users/mzumsande/gists%7B/gist_id%7D",
        "starred_url": "https://api.github.com/users/mzumsande/starred%7B/owner%7D%7B/repo%7D",
        "subscriptions_url": "https://api.github.com/users/mzumsande/subscriptions",
        "organizations_url": "https://api.github.com/users/mzumsande/orgs",
        "repos_url": "https://api.github.com/users/mzumsande/repos",
        "events_url": "https://api.github.com/users/mzumsande/events%7B/privacy%7D",
        "received_events_url": "https://api.github.com/users/mzumsande/received_events",
        "type": "User",
        "site_admin": false
      },
      "commit_id": null,
      "commit_url": null,
      "created_at": "2022-09-20T17:32:56Z",
      "updated_at": "2022-09-20T17:32:56Z",
      "author_association": "CONTRIBUTOR",
      "body": "Seems like there is nothing wrong here (and nothing specific to i2pacceptincoming, all boolean command args work that way), so that this could be closed?",
      "user": {
        "login": "mzumsande",
        "id": 48763452,
        "node_id": "MDQ6VXNlcjQ4NzYzNDUy",
        "avatar_url": "https://avatars.githubusercontent.com/u/48763452?v=4",
        "gravatar_id": "",
        "url": "https://api.github.com/users/mzumsande",
        "html_url": "https://github.com/mzumsande",
        "followers_url": "https://api.github.com/users/mzumsande/followers",
        "following_url": "https://api.github.com/users/mzumsande/following%7B/other_user%7D",
        "gists_url": "https://api.github.com/users/mzumsande/gists%7B/gist_id%7D",
        "starred_url": "https://api.github.com/users/mzumsande/starred%7B/owner%7D%7B/repo%7D",
        "subscriptions_url": "https://api.github.com/users/mzumsande/subscriptions",
        "organizations_url": "https://api.github.com/users/mzumsande/orgs",
        "repos_url": "https://api.github.com/users/mzumsande/repos",
        "events_url": "https://api.github.com/users/mzumsande/events%7B/privacy%7D",
        "received_events_url": "https://api.github.com/users/mzumsande/received_events",
        "type": "User",
        "site_admin": false
      },
      "html_url": "https://github.com/bitcoin/bitcoin/issues/22983#issuecomment-1252684686",
      "issue_url": "https://api.github.com/repos/bitcoin/bitcoin/issues/22983"
    },
    {
      "event": "commented",
      "id": 1324752086,
      "node_id": "IC_kwDOABII585O9hzW",
      "url": "https://api.github.com/repos/bitcoin/bitcoin/issues/comments/1324752086",
      "actor": {
        "login": "vasild",
        "id": 266751,
        "node_id": "MDQ6VXNlcjI2Njc1MQ==",
        "avatar_url": "https://avatars.githubusercontent.com/u/266751?v=4",
        "gravatar_id": "",
        "url": "https://api.github.com/users/vasild",
        "html_url": "https://github.com/vasild",
        "followers_url": "https://api.github.com/users/vasild/followers",
        "following_url": "https://api.github.com/users/vasild/following%7B/other_user%7D",
        "gists_url": "https://api.github.com/users/vasild/gists%7B/gist_id%7D",
        "starred_url": "https://api.github.com/users/vasild/starred%7B/owner%7D%7B/repo%7D",
        "subscriptions_url": "https://api.github.com/users/vasild/subscriptions",
        "organizations_url": "https://api.github.com/users/vasild/orgs",
        "repos_url": "https://api.github.com/users/vasild/repos",
        "events_url": "https://api.github.com/users/vasild/events%7B/privacy%7D",
        "received_events_url": "https://api.github.com/users/vasild/received_events",
        "type": "User",
        "site_admin": false
      },
      "commit_id": null,
      "commit_url": null,
      "created_at": "2022-11-23T09:15:58Z",
      "updated_at": "2022-11-23T09:15:58Z",
      "author_association": "CONTRIBUTOR",
      "body": "I guess this should be closed as \"not a bug\".",
      "user": {
        "login": "vasild",
        "id": 266751,
        "node_id": "MDQ6VXNlcjI2Njc1MQ==",
        "avatar_url": "https://avatars.githubusercontent.com/u/266751?v=4",
        "gravatar_id": "",
        "url": "https://api.github.com/users/vasild",
        "html_url": "https://github.com/vasild",
        "followers_url": "https://api.github.com/users/vasild/followers",
        "following_url": "https://api.github.com/users/vasild/following%7B/other_user%7D",
        "gists_url": "https://api.github.com/users/vasild/gists%7B/gist_id%7D",
        "starred_url": "https://api.github.com/users/vasild/starred%7B/owner%7D%7B/repo%7D",
        "subscriptions_url": "https://api.github.com/users/vasild/subscriptions",
        "organizations_url": "https://api.github.com/users/vasild/orgs",
        "repos_url": "https://api.github.com/users/vasild/repos",
        "events_url": "https://api.github.com/users/vasild/events%7B/privacy%7D",
        "received_events_url": "https://api.github.com/users/vasild/received_events",
        "type": "User",
        "site_admin": false
      },
      "html_url": "https://github.com/bitcoin/bitcoin/issues/22983#issuecomment-1324752086",
      "issue_url": "https://api.github.com/repos/bitcoin/bitcoin/issues/22983"
    },
    {
      "event": "closed",
      "id": 7875183028,
      "node_id": "CE_lADOABII5847cH2szwAAAAHVZcG0",
      "url": "https://api.github.com/repos/bitcoin/bitcoin/issues/events/7875183028",
      "actor": {
        "login": "MarcoFalke",
        "id": 6399679,
        "node_id": "MDQ6VXNlcjYzOTk2Nzk=",
        "avatar_url": "https://avatars.githubusercontent.com/u/6399679?v=4",
        "gravatar_id": "",
        "url": "https://api.github.com/users/MarcoFalke",
        "html_url": "https://github.com/MarcoFalke",
        "followers_url": "https://api.github.com/users/MarcoFalke/followers",
        "following_url": "https://api.github.com/users/MarcoFalke/following%7B/other_user%7D",
        "gists_url": "https://api.github.com/users/MarcoFalke/gists%7B/gist_id%7D",
        "starred_url": "https://api.github.com/users/MarcoFalke/starred%7B/owner%7D%7B/repo%7D",
        "subscriptions_url": "https://api.github.com/users/MarcoFalke/subscriptions",
        "organizations_url": "https://api.github.com/users/MarcoFalke/orgs",
        "repos_url": "https://api.github.com/users/MarcoFalke/repos",
        "events_url": "https://api.github.com/users/MarcoFalke/events%7B/privacy%7D",
        "received_events_url": "https://api.github.com/users/MarcoFalke/received_events",
        "type": "User",
        "site_admin": false
      },
      "commit_id": null,
      "commit_url": null,
      "created_at": "2022-11-23T09:22:59Z"
    }
  ]
}