{
  "type": "issue",
  "issue": {
    "id": 1207111512,
    "node_id": "I_kwDOABII585H8w9Y",
    "url": "https://api.github.com/repos/bitcoin/bitcoin/issues/24907",
    "repository_url": "https://api.github.com/repos/bitcoin/bitcoin",
    "labels_url": "https://api.github.com/repos/bitcoin/bitcoin/issues/24907/labels%7B/name%7D",
    "comments_url": "https://api.github.com/repos/bitcoin/bitcoin/issues/24907/comments",
    "events_url": "https://api.github.com/repos/bitcoin/bitcoin/issues/24907/events",
    "html_url": "https://github.com/bitcoin/bitcoin/issues/24907",
    "number": 24907,
    "state": "open",
    "state_reason": null,
    "title": "RFC: Replacing Boost Process",
    "body": "Boost Process is currently relatively poorly maintained; bugs are remaining unfixed for multiple Boost releases, the code and issue tracking is [confusingly](https://github.com/boostorg/process/pull/243) spread across multiple repositories, see https://github.com/boostorg/process/ and https://github.com/klemens-morgenstern/boost-process), which themselves each have different versions of the code.\r\n\r\nThere's been no recent \"modernization\" of the module, i.e an option use `std::filesystem` over `boost::filesystem`, like other Boost modules, which is why we no-longer support external signing on Windows, see #24065. \r\n\r\nIt's inclusion in our project is also a downside to our Boost consolidation / removal, i.e #24742, as Process's own dependencies (filesystem, system, win-api, + others) pull in even more Boost modules (i.e asio), which in turn pull in further modules..\r\n\r\nIf we are going to continue to use/expand our usage of it, I think we need some sort of plan, addressing the above, rather than leaving it ignored while we start accumulating workarounds, i.e #24523, in our own code to support it, and it's presence potentially blocks other project goals.\r\n\r\nOne potential alternative is https://github.com/arun11299/cpp-subprocess.",
    "user": {
      "login": "fanquake",
      "id": 863730,
      "node_id": "MDQ6VXNlcjg2MzczMA==",
      "avatar_url": "https://avatars.githubusercontent.com/u/863730?v=4",
      "gravatar_id": "",
      "url": "https://api.github.com/users/fanquake",
      "html_url": "https://github.com/fanquake",
      "followers_url": "https://api.github.com/users/fanquake/followers",
      "following_url": "https://api.github.com/users/fanquake/following%7B/other_user%7D",
      "gists_url": "https://api.github.com/users/fanquake/gists%7B/gist_id%7D",
      "starred_url": "https://api.github.com/users/fanquake/starred%7B/owner%7D%7B/repo%7D",
      "subscriptions_url": "https://api.github.com/users/fanquake/subscriptions",
      "organizations_url": "https://api.github.com/users/fanquake/orgs",
      "repos_url": "https://api.github.com/users/fanquake/repos",
      "events_url": "https://api.github.com/users/fanquake/events%7B/privacy%7D",
      "received_events_url": "https://api.github.com/users/fanquake/received_events",
      "type": "User",
      "site_admin": false
    },
    "labels": [
      {
        "id": 64584,
        "node_id": "MDU6TGFiZWw2NDU4NA==",
        "url": "https://api.github.com/repos/bitcoin/bitcoin/labels/Brainstorming",
        "name": "Brainstorming",
        "color": "ebd775",
        "default": false
      }
    ],
    "assignees": [],
    "author_association": "MEMBER",
    "locked": false,
    "comments": 12,
    "created_at": "2022-04-18T14:34:42Z",
    "updated_at": "2023-03-15T16:38:06Z"
  },
  "events": [
    {
      "event": "labeled",
      "id": 6448362608,
      "node_id": "LE_lADOABII585H8w9YzwAAAAGAWjRw",
      "url": "https://api.github.com/repos/bitcoin/bitcoin/issues/events/6448362608",
      "actor": {
        "login": "fanquake",
        "id": 863730,
        "node_id": "MDQ6VXNlcjg2MzczMA==",
        "avatar_url": "https://avatars.githubusercontent.com/u/863730?v=4",
        "gravatar_id": "",
        "url": "https://api.github.com/users/fanquake",
        "html_url": "https://github.com/fanquake",
        "followers_url": "https://api.github.com/users/fanquake/followers",
        "following_url": "https://api.github.com/users/fanquake/following%7B/other_user%7D",
        "gists_url": "https://api.github.com/users/fanquake/gists%7B/gist_id%7D",
        "starred_url": "https://api.github.com/users/fanquake/starred%7B/owner%7D%7B/repo%7D",
        "subscriptions_url": "https://api.github.com/users/fanquake/subscriptions",
        "organizations_url": "https://api.github.com/users/fanquake/orgs",
        "repos_url": "https://api.github.com/users/fanquake/repos",
        "events_url": "https://api.github.com/users/fanquake/events%7B/privacy%7D",
        "received_events_url": "https://api.github.com/users/fanquake/received_events",
        "type": "User",
        "site_admin": false
      },
      "commit_id": null,
      "commit_url": null,
      "created_at": "2022-04-18T14:34:42Z",
      "label": {
        "name": "Brainstorming",
        "color": "ebd775"
      }
    },
    {
      "event": "commented",
      "id": 1101538159,
      "node_id": "IC_kwDOABII585BqCNv",
      "url": "https://api.github.com/repos/bitcoin/bitcoin/issues/comments/1101538159",
      "actor": {
        "login": "prusnak",
        "id": 42201,
        "node_id": "MDQ6VXNlcjQyMjAx",
        "avatar_url": "https://avatars.githubusercontent.com/u/42201?v=4",
        "gravatar_id": "",
        "url": "https://api.github.com/users/prusnak",
        "html_url": "https://github.com/prusnak",
        "followers_url": "https://api.github.com/users/prusnak/followers",
        "following_url": "https://api.github.com/users/prusnak/following%7B/other_user%7D",
        "gists_url": "https://api.github.com/users/prusnak/gists%7B/gist_id%7D",
        "starred_url": "https://api.github.com/users/prusnak/starred%7B/owner%7D%7B/repo%7D",
        "subscriptions_url": "https://api.github.com/users/prusnak/subscriptions",
        "organizations_url": "https://api.github.com/users/prusnak/orgs",
        "repos_url": "https://api.github.com/users/prusnak/repos",
        "events_url": "https://api.github.com/users/prusnak/events%7B/privacy%7D",
        "received_events_url": "https://api.github.com/users/prusnak/received_events",
        "type": "User",
        "site_admin": false
      },
      "commit_id": null,
      "commit_url": null,
      "created_at": "2022-04-18T16:19:32Z",
      "updated_at": "2022-04-18T17:42:06Z",
      "author_association": "CONTRIBUTOR",
      "body": "> One potential alternative is https://github.com/arun11299/cpp-subprocess.\r\n\r\nThe suggested alternative looks quite nice:\r\n* small codebase (~2K LOC)\r\n* header-only template library\r\n* interface similar to Python subprocess module\r\n* no external dependencies\r\n* compatible licence (MIT)\r\n\r\nPinging @Sjors as the only place where we use `boost::process` via `RunCommandParseJSON` is the `ExternalSigner`.",
      "user": {
        "login": "prusnak",
        "id": 42201,
        "node_id": "MDQ6VXNlcjQyMjAx",
        "avatar_url": "https://avatars.githubusercontent.com/u/42201?v=4",
        "gravatar_id": "",
        "url": "https://api.github.com/users/prusnak",
        "html_url": "https://github.com/prusnak",
        "followers_url": "https://api.github.com/users/prusnak/followers",
        "following_url": "https://api.github.com/users/prusnak/following%7B/other_user%7D",
        "gists_url": "https://api.github.com/users/prusnak/gists%7B/gist_id%7D",
        "starred_url": "https://api.github.com/users/prusnak/starred%7B/owner%7D%7B/repo%7D",
        "subscriptions_url": "https://api.github.com/users/prusnak/subscriptions",
        "organizations_url": "https://api.github.com/users/prusnak/orgs",
        "repos_url": "https://api.github.com/users/prusnak/repos",
        "events_url": "https://api.github.com/users/prusnak/events%7B/privacy%7D",
        "received_events_url": "https://api.github.com/users/prusnak/received_events",
        "type": "User",
        "site_admin": false
      },
      "html_url": "https://github.com/bitcoin/bitcoin/issues/24907#issuecomment-1101538159",
      "issue_url": "https://api.github.com/repos/bitcoin/bitcoin/issues/24907"
    },
    {
      "event": "mentioned",
      "id": 6448937114,
      "node_id": "MEE_lADOABII585H8w9YzwAAAAGAYvia",
      "url": "https://api.github.com/repos/bitcoin/bitcoin/issues/events/6448937114",
      "actor": {
        "login": "Sjors",
        "id": 10217,
        "node_id": "MDQ6VXNlcjEwMjE3",
        "avatar_url": "https://avatars.githubusercontent.com/u/10217?v=4",
        "gravatar_id": "",
        "url": "https://api.github.com/users/Sjors",
        "html_url": "https://github.com/Sjors",
        "followers_url": "https://api.github.com/users/Sjors/followers",
        "following_url": "https://api.github.com/users/Sjors/following%7B/other_user%7D",
        "gists_url": "https://api.github.com/users/Sjors/gists%7B/gist_id%7D",
        "starred_url": "https://api.github.com/users/Sjors/starred%7B/owner%7D%7B/repo%7D",
        "subscriptions_url": "https://api.github.com/users/Sjors/subscriptions",
        "organizations_url": "https://api.github.com/users/Sjors/orgs",
        "repos_url": "https://api.github.com/users/Sjors/repos",
        "events_url": "https://api.github.com/users/Sjors/events%7B/privacy%7D",
        "received_events_url": "https://api.github.com/users/Sjors/received_events",
        "type": "User",
        "site_admin": false
      },
      "commit_id": null,
      "commit_url": null,
      "created_at": "2022-04-18T16:19:32Z"
    },
    {
      "event": "subscribed",
      "id": 6448937119,
      "node_id": "SE_lADOABII585H8w9YzwAAAAGAYvif",
      "url": "https://api.github.com/repos/bitcoin/bitcoin/issues/events/6448937119",
      "actor": {
        "login": "Sjors",
        "id": 10217,
        "node_id": "MDQ6VXNlcjEwMjE3",
        "avatar_url": "https://avatars.githubusercontent.com/u/10217?v=4",
        "gravatar_id": "",
        "url": "https://api.github.com/users/Sjors",
        "html_url": "https://github.com/Sjors",
        "followers_url": "https://api.github.com/users/Sjors/followers",
        "following_url": "https://api.github.com/users/Sjors/following%7B/other_user%7D",
        "gists_url": "https://api.github.com/users/Sjors/gists%7B/gist_id%7D",
        "starred_url": "https://api.github.com/users/Sjors/starred%7B/owner%7D%7B/repo%7D",
        "subscriptions_url": "https://api.github.com/users/Sjors/subscriptions",
        "organizations_url": "https://api.github.com/users/Sjors/orgs",
        "repos_url": "https://api.github.com/users/Sjors/repos",
        "events_url": "https://api.github.com/users/Sjors/events%7B/privacy%7D",
        "received_events_url": "https://api.github.com/users/Sjors/received_events",
        "type": "User",
        "site_admin": false
      },
      "commit_id": null,
      "commit_url": null,
      "created_at": "2022-04-18T16:19:32Z"
    },
    {
      "event": "commented",
      "id": 1101564933,
      "node_id": "IC_kwDOABII585BqIwF",
      "url": "https://api.github.com/repos/bitcoin/bitcoin/issues/comments/1101564933",
      "actor": {
        "login": "laanwj",
        "id": 126646,
        "node_id": "MDQ6VXNlcjEyNjY0Ng==",
        "avatar_url": "https://avatars.githubusercontent.com/u/126646?v=4",
        "gravatar_id": "",
        "url": "https://api.github.com/users/laanwj",
        "html_url": "https://github.com/laanwj",
        "followers_url": "https://api.github.com/users/laanwj/followers",
        "following_url": "https://api.github.com/users/laanwj/following%7B/other_user%7D",
        "gists_url": "https://api.github.com/users/laanwj/gists%7B/gist_id%7D",
        "starred_url": "https://api.github.com/users/laanwj/starred%7B/owner%7D%7B/repo%7D",
        "subscriptions_url": "https://api.github.com/users/laanwj/subscriptions",
        "organizations_url": "https://api.github.com/users/laanwj/orgs",
        "repos_url": "https://api.github.com/users/laanwj/repos",
        "events_url": "https://api.github.com/users/laanwj/events%7B/privacy%7D",
        "received_events_url": "https://api.github.com/users/laanwj/received_events",
        "type": "User",
        "site_admin": false
      },
      "commit_id": null,
      "commit_url": null,
      "created_at": "2022-04-18T16:58:14Z",
      "updated_at": "2022-04-18T16:58:14Z",
      "author_association": "MEMBER",
      "body": "> One potential alternative is https://github.com/arun11299/cpp-subprocess.\r\n\r\nConcept ACK\r\nIt looks like modern c++, only depends on the standard library, and the license matches (MIT). \r\nIf it provides the needed functionality it seems like a good idea.\r\n\r\n> Pinging @Sjors as the only place where we use boost::process via RunCommandParseJSON is the ExternalSigner.\r\n\r\nAt the moment, yes. Though ideally we'd use whatever subprocess library we choose for the `*notify` commands as well, to be consistent. ",
      "user": {
        "login": "laanwj",
        "id": 126646,
        "node_id": "MDQ6VXNlcjEyNjY0Ng==",
        "avatar_url": "https://avatars.githubusercontent.com/u/126646?v=4",
        "gravatar_id": "",
        "url": "https://api.github.com/users/laanwj",
        "html_url": "https://github.com/laanwj",
        "followers_url": "https://api.github.com/users/laanwj/followers",
        "following_url": "https://api.github.com/users/laanwj/following%7B/other_user%7D",
        "gists_url": "https://api.github.com/users/laanwj/gists%7B/gist_id%7D",
        "starred_url": "https://api.github.com/users/laanwj/starred%7B/owner%7D%7B/repo%7D",
        "subscriptions_url": "https://api.github.com/users/laanwj/subscriptions",
        "organizations_url": "https://api.github.com/users/laanwj/orgs",
        "repos_url": "https://api.github.com/users/laanwj/repos",
        "events_url": "https://api.github.com/users/laanwj/events%7B/privacy%7D",
        "received_events_url": "https://api.github.com/users/laanwj/received_events",
        "type": "User",
        "site_admin": false
      },
      "html_url": "https://github.com/bitcoin/bitcoin/issues/24907#issuecomment-1101564933",
      "issue_url": "https://api.github.com/repos/bitcoin/bitcoin/issues/24907"
    },
    {
      "event": "mentioned",
      "id": 6449127844,
      "node_id": "MEE_lADOABII585H8w9YzwAAAAGAZeGk",
      "url": "https://api.github.com/repos/bitcoin/bitcoin/issues/events/6449127844",
      "actor": {
        "login": "Sjors",
        "id": 10217,
        "node_id": "MDQ6VXNlcjEwMjE3",
        "avatar_url": "https://avatars.githubusercontent.com/u/10217?v=4",
        "gravatar_id": "",
        "url": "https://api.github.com/users/Sjors",
        "html_url": "https://github.com/Sjors",
        "followers_url": "https://api.github.com/users/Sjors/followers",
        "following_url": "https://api.github.com/users/Sjors/following%7B/other_user%7D",
        "gists_url": "https://api.github.com/users/Sjors/gists%7B/gist_id%7D",
        "starred_url": "https://api.github.com/users/Sjors/starred%7B/owner%7D%7B/repo%7D",
        "subscriptions_url": "https://api.github.com/users/Sjors/subscriptions",
        "organizations_url": "https://api.github.com/users/Sjors/orgs",
        "repos_url": "https://api.github.com/users/Sjors/repos",
        "events_url": "https://api.github.com/users/Sjors/events%7B/privacy%7D",
        "received_events_url": "https://api.github.com/users/Sjors/received_events",
        "type": "User",
        "site_admin": false
      },
      "commit_id": null,
      "commit_url": null,
      "created_at": "2022-04-18T16:58:14Z"
    },
    {
      "event": "subscribed",
      "id": 6449127849,
      "node_id": "SE_lADOABII585H8w9YzwAAAAGAZeGp",
      "url": "https://api.github.com/repos/bitcoin/bitcoin/issues/events/6449127849",
      "actor": {
        "login": "Sjors",
        "id": 10217,
        "node_id": "MDQ6VXNlcjEwMjE3",
        "avatar_url": "https://avatars.githubusercontent.com/u/10217?v=4",
        "gravatar_id": "",
        "url": "https://api.github.com/users/Sjors",
        "html_url": "https://github.com/Sjors",
        "followers_url": "https://api.github.com/users/Sjors/followers",
        "following_url": "https://api.github.com/users/Sjors/following%7B/other_user%7D",
        "gists_url": "https://api.github.com/users/Sjors/gists%7B/gist_id%7D",
        "starred_url": "https://api.github.com/users/Sjors/starred%7B/owner%7D%7B/repo%7D",
        "subscriptions_url": "https://api.github.com/users/Sjors/subscriptions",
        "organizations_url": "https://api.github.com/users/Sjors/orgs",
        "repos_url": "https://api.github.com/users/Sjors/repos",
        "events_url": "https://api.github.com/users/Sjors/events%7B/privacy%7D",
        "received_events_url": "https://api.github.com/users/Sjors/received_events",
        "type": "User",
        "site_admin": false
      },
      "commit_id": null,
      "commit_url": null,
      "created_at": "2022-04-18T16:58:14Z"
    },
    {
      "event": "commented",
      "id": 1101565975,
      "node_id": "IC_kwDOABII585BqJAX",
      "url": "https://api.github.com/repos/bitcoin/bitcoin/issues/comments/1101565975",
      "actor": {
        "login": "Sjors",
        "id": 10217,
        "node_id": "MDQ6VXNlcjEwMjE3",
        "avatar_url": "https://avatars.githubusercontent.com/u/10217?v=4",
        "gravatar_id": "",
        "url": "https://api.github.com/users/Sjors",
        "html_url": "https://github.com/Sjors",
        "followers_url": "https://api.github.com/users/Sjors/followers",
        "following_url": "https://api.github.com/users/Sjors/following%7B/other_user%7D",
        "gists_url": "https://api.github.com/users/Sjors/gists%7B/gist_id%7D",
        "starred_url": "https://api.github.com/users/Sjors/starred%7B/owner%7D%7B/repo%7D",
        "subscriptions_url": "https://api.github.com/users/Sjors/subscriptions",
        "organizations_url": "https://api.github.com/users/Sjors/orgs",
        "repos_url": "https://api.github.com/users/Sjors/repos",
        "events_url": "https://api.github.com/users/Sjors/events%7B/privacy%7D",
        "received_events_url": "https://api.github.com/users/Sjors/received_events",
        "type": "User",
        "site_admin": false
      },
      "commit_id": null,
      "commit_url": null,
      "created_at": "2022-04-18T16:59:47Z",
      "updated_at": "2022-04-18T17:00:40Z",
      "author_association": "MEMBER",
      "body": "The main use case for `RunCommandParseJSON` is making the GUI work with hardware wallets. RPC users could in principle also call HWI manually. So one alternative to look at could be [QT process](https://doc.qt.io/qt-5/qprocess.html). That said, the RPC code also serves to maintain good test coverage, and we wouldn't want to pull a QT dependency into bitcoind. But maybe the QT relevant code can be extracted?\r\n\r\n> Though ideally we'd use whatever subprocess library we choose for the *notify commands as well, to be consistent.\r\n\r\nThere's that too.",
      "user": {
        "login": "Sjors",
        "id": 10217,
        "node_id": "MDQ6VXNlcjEwMjE3",
        "avatar_url": "https://avatars.githubusercontent.com/u/10217?v=4",
        "gravatar_id": "",
        "url": "https://api.github.com/users/Sjors",
        "html_url": "https://github.com/Sjors",
        "followers_url": "https://api.github.com/users/Sjors/followers",
        "following_url": "https://api.github.com/users/Sjors/following%7B/other_user%7D",
        "gists_url": "https://api.github.com/users/Sjors/gists%7B/gist_id%7D",
        "starred_url": "https://api.github.com/users/Sjors/starred%7B/owner%7D%7B/repo%7D",
        "subscriptions_url": "https://api.github.com/users/Sjors/subscriptions",
        "organizations_url": "https://api.github.com/users/Sjors/orgs",
        "repos_url": "https://api.github.com/users/Sjors/repos",
        "events_url": "https://api.github.com/users/Sjors/events%7B/privacy%7D",
        "received_events_url": "https://api.github.com/users/Sjors/received_events",
        "type": "User",
        "site_admin": false
      },
      "html_url": "https://github.com/bitcoin/bitcoin/issues/24907#issuecomment-1101565975",
      "issue_url": "https://api.github.com/repos/bitcoin/bitcoin/issues/24907"
    },
    {
      "event": "commented",
      "id": 1101602969,
      "node_id": "IC_kwDOABII585BqSCZ",
      "url": "https://api.github.com/repos/bitcoin/bitcoin/issues/comments/1101602969",
      "actor": {
        "login": "prusnak",
        "id": 42201,
        "node_id": "MDQ6VXNlcjQyMjAx",
        "avatar_url": "https://avatars.githubusercontent.com/u/42201?v=4",
        "gravatar_id": "",
        "url": "https://api.github.com/users/prusnak",
        "html_url": "https://github.com/prusnak",
        "followers_url": "https://api.github.com/users/prusnak/followers",
        "following_url": "https://api.github.com/users/prusnak/following%7B/other_user%7D",
        "gists_url": "https://api.github.com/users/prusnak/gists%7B/gist_id%7D",
        "starred_url": "https://api.github.com/users/prusnak/starred%7B/owner%7D%7B/repo%7D",
        "subscriptions_url": "https://api.github.com/users/prusnak/subscriptions",
        "organizations_url": "https://api.github.com/users/prusnak/orgs",
        "repos_url": "https://api.github.com/users/prusnak/repos",
        "events_url": "https://api.github.com/users/prusnak/events%7B/privacy%7D",
        "received_events_url": "https://api.github.com/users/prusnak/received_events",
        "type": "User",
        "site_admin": false
      },
      "commit_id": null,
      "commit_url": null,
      "created_at": "2022-04-18T17:48:14Z",
      "updated_at": "2022-04-18T17:48:34Z",
      "author_association": "CONTRIBUTOR",
      "body": "> So one alternative to look at could be [QT process](https://doc.qt.io/qt-5/qprocess.html).\r\n\r\nWe already use QProcess on macOS to workaround for a specific behavior - see https://github.com/bitcoin/bitcoin/pull/24668#issuecomment-1079106029 and subsequent comments for context - and it seemed to me that the sentiment was to get rid of QProcess completely.",
      "user": {
        "login": "prusnak",
        "id": 42201,
        "node_id": "MDQ6VXNlcjQyMjAx",
        "avatar_url": "https://avatars.githubusercontent.com/u/42201?v=4",
        "gravatar_id": "",
        "url": "https://api.github.com/users/prusnak",
        "html_url": "https://github.com/prusnak",
        "followers_url": "https://api.github.com/users/prusnak/followers",
        "following_url": "https://api.github.com/users/prusnak/following%7B/other_user%7D",
        "gists_url": "https://api.github.com/users/prusnak/gists%7B/gist_id%7D",
        "starred_url": "https://api.github.com/users/prusnak/starred%7B/owner%7D%7B/repo%7D",
        "subscriptions_url": "https://api.github.com/users/prusnak/subscriptions",
        "organizations_url": "https://api.github.com/users/prusnak/orgs",
        "repos_url": "https://api.github.com/users/prusnak/repos",
        "events_url": "https://api.github.com/users/prusnak/events%7B/privacy%7D",
        "received_events_url": "https://api.github.com/users/prusnak/received_events",
        "type": "User",
        "site_admin": false
      },
      "html_url": "https://github.com/bitcoin/bitcoin/issues/24907#issuecomment-1101602969",
      "issue_url": "https://api.github.com/repos/bitcoin/bitcoin/issues/24907"
    },
    {
      "event": "commented",
      "id": 1101710246,
      "node_id": "IC_kwDOABII585BqsOm",
      "url": "https://api.github.com/repos/bitcoin/bitcoin/issues/comments/1101710246",
      "actor": {
        "login": "Rspigler",
        "id": 24482484,
        "node_id": "MDQ6VXNlcjI0NDgyNDg0",
        "avatar_url": "https://avatars.githubusercontent.com/u/24482484?v=4",
        "gravatar_id": "",
        "url": "https://api.github.com/users/Rspigler",
        "html_url": "https://github.com/Rspigler",
        "followers_url": "https://api.github.com/users/Rspigler/followers",
        "following_url": "https://api.github.com/users/Rspigler/following%7B/other_user%7D",
        "gists_url": "https://api.github.com/users/Rspigler/gists%7B/gist_id%7D",
        "starred_url": "https://api.github.com/users/Rspigler/starred%7B/owner%7D%7B/repo%7D",
        "subscriptions_url": "https://api.github.com/users/Rspigler/subscriptions",
        "organizations_url": "https://api.github.com/users/Rspigler/orgs",
        "repos_url": "https://api.github.com/users/Rspigler/repos",
        "events_url": "https://api.github.com/users/Rspigler/events%7B/privacy%7D",
        "received_events_url": "https://api.github.com/users/Rspigler/received_events",
        "type": "User",
        "site_admin": false
      },
      "commit_id": null,
      "commit_url": null,
      "created_at": "2022-04-18T19:54:47Z",
      "updated_at": "2022-04-18T19:54:47Z",
      "author_association": "CONTRIBUTOR",
      "body": "Concept ACK.  Further removal of Boost is good, especially if bugs aren't being fixed.",
      "user": {
        "login": "Rspigler",
        "id": 24482484,
        "node_id": "MDQ6VXNlcjI0NDgyNDg0",
        "avatar_url": "https://avatars.githubusercontent.com/u/24482484?v=4",
        "gravatar_id": "",
        "url": "https://api.github.com/users/Rspigler",
        "html_url": "https://github.com/Rspigler",
        "followers_url": "https://api.github.com/users/Rspigler/followers",
        "following_url": "https://api.github.com/users/Rspigler/following%7B/other_user%7D",
        "gists_url": "https://api.github.com/users/Rspigler/gists%7B/gist_id%7D",
        "starred_url": "https://api.github.com/users/Rspigler/starred%7B/owner%7D%7B/repo%7D",
        "subscriptions_url": "https://api.github.com/users/Rspigler/subscriptions",
        "organizations_url": "https://api.github.com/users/Rspigler/orgs",
        "repos_url": "https://api.github.com/users/Rspigler/repos",
        "events_url": "https://api.github.com/users/Rspigler/events%7B/privacy%7D",
        "received_events_url": "https://api.github.com/users/Rspigler/received_events",
        "type": "User",
        "site_admin": false
      },
      "html_url": "https://github.com/bitcoin/bitcoin/issues/24907#issuecomment-1101710246",
      "issue_url": "https://api.github.com/repos/bitcoin/bitcoin/issues/24907"
    },
    {
      "event": "cross-referenced",
      "id": null,
      "node_id": null,
      "url": null,
      "actor": {
        "login": "Sjors",
        "id": 10217,
        "node_id": "MDQ6VXNlcjEwMjE3",
        "avatar_url": "https://avatars.githubusercontent.com/u/10217?v=4",
        "gravatar_id": "",
        "url": "https://api.github.com/users/Sjors",
        "html_url": "https://github.com/Sjors",
        "followers_url": "https://api.github.com/users/Sjors/followers",
        "following_url": "https://api.github.com/users/Sjors/following%7B/other_user%7D",
        "gists_url": "https://api.github.com/users/Sjors/gists%7B/gist_id%7D",
        "starred_url": "https://api.github.com/users/Sjors/starred%7B/owner%7D%7B/repo%7D",
        "subscriptions_url": "https://api.github.com/users/Sjors/subscriptions",
        "organizations_url": "https://api.github.com/users/Sjors/orgs",
        "repos_url": "https://api.github.com/users/Sjors/repos",
        "events_url": "https://api.github.com/users/Sjors/events%7B/privacy%7D",
        "received_events_url": "https://api.github.com/users/Sjors/received_events",
        "type": "User",
        "site_admin": false
      },
      "commit_id": null,
      "commit_url": null,
      "created_at": "2022-04-29T12:23:06Z",
      "updated_at": "2022-04-29T12:23:06Z",
      "source": {
        "issue": {
          "id": 921709648,
          "node_id": "MDU6SXNzdWU5MjE3MDk2NDg=",
          "url": "https://api.github.com/repos/bitcoin/bitcoin/issues/22254",
          "repository_url": "https://api.github.com/repos/bitcoin/bitcoin",
          "labels_url": "https://api.github.com/repos/bitcoin/bitcoin/issues/22254/labels%7B/name%7D",
          "comments_url": "https://api.github.com/repos/bitcoin/bitcoin/issues/22254/comments",
          "events_url": "https://api.github.com/repos/bitcoin/bitcoin/issues/22254/events",
          "html_url": "https://github.com/bitcoin/bitcoin/issues/22254",
          "number": 22254,
          "state": "closed",
          "state_reason": "completed",
          "title": "Boost::ASIO  (used by Boost::Process) uses (falsely?) deprecated std::allocator",
          "body": "Observed by @fanquake in https://github.com/bitcoin/bitcoin/pull/21935#pullrequestreview-683513857\r\n\r\n> (depends build) Boost Process seems to use Boost ASIO, which uses `std::allocator<void>`, which was deprecated in C++17. This leads to a nice stack of warnings, at least on macOS:\r\n> \r\n> ```shell\r\n> bitcoin/depends/x86_64-apple-darwin20.5.0/include/boost/asio/associated_allocator.hpp:78:49: warning: 'allocator<void>' is deprecated [-Wdeprecated-declarations]\r\n> template <typename T, typename Allocator = std::allocator<void> >\r\n>                                                 ^\r\n> /Applications/Xcode.app/Contents/Developer/Platforms/MacOSX.platform/Developer/SDKs/MacOSX.sdk/usr/include/c++/v1/memory:730:28: note: 'allocator<void>' has been explicitly marked deprecated here\r\n> class _LIBCPP_TEMPLATE_VIS _LIBCPP_DEPRECATED_IN_CXX17 allocator<void>\r\n>                            ^\r\n> /Applications/Xcode.app/Contents/Developer/Platforms/MacOSX.platform/Developer/SDKs/MacOSX.sdk/usr/include/c++/v1/__config:1058:39: note: expanded from macro '_LIBCPP_DEPRECATED_IN_CXX17'\r\n> #  define _LIBCPP_DEPRECATED_IN_CXX17 _LIBCPP_DEPRECATED\r\n>                                       ^\r\n> /Applications/Xcode.app/Contents/Developer/Platforms/MacOSX.platform/Developer/SDKs/MacOSX.sdk/usr/include/c++/v1/__config:1035:48: note: expanded from macro '_LIBCPP_DEPRECATED'\r\n> #    define _LIBCPP_DEPRECATED __attribute__ ((deprecated))\r\n> ```\r\n> \r\n> I'm also seeing unused-result warnings (from Boost) when building on my Ubuntu machine:\r\n> \r\n> ```shell\r\n> In file included from /home/ubuntu/bitcoin/depends/x86_64-pc-linux-gnu/include/boost/process/detail/execute_impl.hpp:24,\r\n>                  from /home/ubuntu/bitcoin/depends/x86_64-pc-linux-gnu/include/boost/process/child.hpp:22,\r\n>                  from /home/ubuntu/bitcoin/depends/x86_64-pc-linux-gnu/include/boost/process/async_system.hpp:22,\r\n>                  from /home/ubuntu/bitcoin/depends/x86_64-pc-linux-gnu/include/boost/process.hpp:24,\r\n>                  from util/system.cpp:9:\r\n> /home/ubuntu/bitcoin/depends/x86_64-pc-linux-gnu/include/boost/process/detail/posix/executor.hpp: In member function ‘void boost::process::detail::posix::executor<Sequence>::write_error(const std::error_code&, const char*) [with Sequence = boost::fusion::joint_view<boost::fusion::tuple<boost::process::detail::posix::exe_cmd_init<char> >, boost::fusion::filter_view<const boost::fusion::tuple<const std::__cxx11::basic_string<char, std::char_traits<char>, std::allocator<char> >&, boost::process::detail::posix::pipe_out<1, -1>&, boost::process::detail::posix::pipe_out<2, -1>&, boost::process::detail::posix::pipe_in&>, boost::process::detail::is_initializer<mpl_::arg<-1> > > >]’:\r\n> /home/ubuntu/bitcoin/depends/x86_64-pc-linux-gnu/include/boost/process/detail/posix/executor.hpp:156:16: warning: ignoring return value of ‘ssize_t write(int, const void*, size_t)’ declared with attribute ‘warn_unused_result’ [-Wunused-result]\r\n>   156 |         ::write(_pipe_sink, &len, sizeof(int));\r\n>       |         ~~~~~~~^~~~~~~~~~~~~~~~~~~~~~~~~~~~~~~\r\n> /home/ubuntu/bitcoin/depends/x86_64-pc-linux-gnu/include/boost/process/detail/posix/executor.hpp:159:16: warning: ignoring return value of ‘ssize_t write(int, const void*, size_t)’ declared with attribute ‘warn_unused_result’ [-Wunused-result]\r\n>   159 |         ::write(_pipe_sink, &len, sizeof(int));\r\n>       |         ~~~~~~~^~~~~~~~~~~~~~~~~~~~~~~~~~~~~~~\r\n> /home/ubuntu/bitcoin/depends/x86_64-pc-linux-gnu/include/boost/process/detail/posix/executor.hpp:160:16: warning: ignoring return value of ‘ssize_t write(int, const void*, size_t)’ declared with attribute ‘warn_unused_result’ [-Wunused-result]\r\n>   160 |         ::write(_pipe_sink, msg, len);\r\n>       |         ~~~~~~~^~~~~~~~~~~~~~~~~~~~~~\r\n>   AR       libbitcoin_util.a\r\n> ```\r\n> \r\n\r\nI tried with Boost 1.72 - 1.76 (most recent version on 2021-06-15) but to no avail.\r\n\r\nPossible solutions:\r\n* fix it upstream (using a patch in the mean time):\r\n  * by fixing ASIO, but this has been tried since 2018: https://github.com/boostorg/asio/pull/76\r\n  * by fixing Process to not use Asio perhaps\r\n* refactoring `RunCommandParseJSON` to work without Boost::Process (sadly non trivial, see #15382)\r\n* make llvm not complain: https://bugs.llvm.org/show_bug.cgi?id=50299\r\n\r\nIn addition to annoying warnings, this would require someone with a c++20 compiler to use `--disable-external-signer`.",
          "user": {
            "login": "Sjors",
            "id": 10217,
            "node_id": "MDQ6VXNlcjEwMjE3",
            "avatar_url": "https://avatars.githubusercontent.com/u/10217?v=4",
            "gravatar_id": "",
            "url": "https://api.github.com/users/Sjors",
            "html_url": "https://github.com/Sjors",
            "followers_url": "https://api.github.com/users/Sjors/followers",
            "following_url": "https://api.github.com/users/Sjors/following%7B/other_user%7D",
            "gists_url": "https://api.github.com/users/Sjors/gists%7B/gist_id%7D",
            "starred_url": "https://api.github.com/users/Sjors/starred%7B/owner%7D%7B/repo%7D",
            "subscriptions_url": "https://api.github.com/users/Sjors/subscriptions",
            "organizations_url": "https://api.github.com/users/Sjors/orgs",
            "repos_url": "https://api.github.com/users/Sjors/repos",
            "events_url": "https://api.github.com/users/Sjors/events%7B/privacy%7D",
            "received_events_url": "https://api.github.com/users/Sjors/received_events",
            "type": "User",
            "site_admin": false
          },
          "labels": [
            {
              "id": 64585,
              "node_id": "MDU6TGFiZWw2NDU4NQ==",
              "url": "https://api.github.com/repos/bitcoin/bitcoin/labels/Bug",
              "name": "Bug",
              "color": "FBBAAB",
              "default": false
            }
          ],
          "assignees": [],
          "author_association": "MEMBER",
          "locked": false,
          "comments": 4,
          "closed_at": "2022-08-08T19:40:57Z",
          "created_at": "2021-06-15T19:04:52Z",
          "updated_at": "2022-08-08T19:40:58Z"
        },
        "type": "issue"
      }
    },
    {
      "event": "commented",
      "id": 1116189931,
      "node_id": "IC_kwDOABII585Ch7Tr",
      "url": "https://api.github.com/repos/bitcoin/bitcoin/issues/comments/1116189931",
      "actor": {
        "login": "theStack",
        "id": 91535,
        "node_id": "MDQ6VXNlcjkxNTM1",
        "avatar_url": "https://avatars.githubusercontent.com/u/91535?v=4",
        "gravatar_id": "",
        "url": "https://api.github.com/users/theStack",
        "html_url": "https://github.com/theStack",
        "followers_url": "https://api.github.com/users/theStack/followers",
        "following_url": "https://api.github.com/users/theStack/following%7B/other_user%7D",
        "gists_url": "https://api.github.com/users/theStack/gists%7B/gist_id%7D",
        "starred_url": "https://api.github.com/users/theStack/starred%7B/owner%7D%7B/repo%7D",
        "subscriptions_url": "https://api.github.com/users/theStack/subscriptions",
        "organizations_url": "https://api.github.com/users/theStack/orgs",
        "repos_url": "https://api.github.com/users/theStack/repos",
        "events_url": "https://api.github.com/users/theStack/events%7B/privacy%7D",
        "received_events_url": "https://api.github.com/users/theStack/received_events",
        "type": "User",
        "site_admin": false
      },
      "commit_id": null,
      "commit_url": null,
      "created_at": "2022-05-03T14:49:22Z",
      "updated_at": "2022-05-03T14:49:22Z",
      "author_association": "CONTRIBUTOR",
      "body": "Strong Concept ACK",
      "user": {
        "login": "theStack",
        "id": 91535,
        "node_id": "MDQ6VXNlcjkxNTM1",
        "avatar_url": "https://avatars.githubusercontent.com/u/91535?v=4",
        "gravatar_id": "",
        "url": "https://api.github.com/users/theStack",
        "html_url": "https://github.com/theStack",
        "followers_url": "https://api.github.com/users/theStack/followers",
        "following_url": "https://api.github.com/users/theStack/following%7B/other_user%7D",
        "gists_url": "https://api.github.com/users/theStack/gists%7B/gist_id%7D",
        "starred_url": "https://api.github.com/users/theStack/starred%7B/owner%7D%7B/repo%7D",
        "subscriptions_url": "https://api.github.com/users/theStack/subscriptions",
        "organizations_url": "https://api.github.com/users/theStack/orgs",
        "repos_url": "https://api.github.com/users/theStack/repos",
        "events_url": "https://api.github.com/users/theStack/events%7B/privacy%7D",
        "received_events_url": "https://api.github.com/users/theStack/received_events",
        "type": "User",
        "site_admin": false
      },
      "html_url": "https://github.com/bitcoin/bitcoin/issues/24907#issuecomment-1116189931",
      "issue_url": "https://api.github.com/repos/bitcoin/bitcoin/issues/24907"
    },
    {
      "event": "cross-referenced",
      "id": null,
      "node_id": null,
      "url": null,
      "actor": {
        "login": "Sjors",
        "id": 10217,
        "node_id": "MDQ6VXNlcjEwMjE3",
        "avatar_url": "https://avatars.githubusercontent.com/u/10217?v=4",
        "gravatar_id": "",
        "url": "https://api.github.com/users/Sjors",
        "html_url": "https://github.com/Sjors",
        "followers_url": "https://api.github.com/users/Sjors/followers",
        "following_url": "https://api.github.com/users/Sjors/following%7B/other_user%7D",
        "gists_url": "https://api.github.com/users/Sjors/gists%7B/gist_id%7D",
        "starred_url": "https://api.github.com/users/Sjors/starred%7B/owner%7D%7B/repo%7D",
        "subscriptions_url": "https://api.github.com/users/Sjors/subscriptions",
        "organizations_url": "https://api.github.com/users/Sjors/orgs",
        "repos_url": "https://api.github.com/users/Sjors/repos",
        "events_url": "https://api.github.com/users/Sjors/events%7B/privacy%7D",
        "received_events_url": "https://api.github.com/users/Sjors/received_events",
        "type": "User",
        "site_admin": false
      },
      "commit_id": null,
      "commit_url": null,
      "created_at": "2022-05-12T08:31:17Z",
      "updated_at": "2022-05-12T08:31:17Z",
      "source": {
        "issue": {
          "id": 1233482159,
          "node_id": "PR_kwDOABII5843sd08",
          "url": "https://api.github.com/repos/bitcoin/bitcoin/issues/25111",
          "repository_url": "https://api.github.com/repos/bitcoin/bitcoin",
          "labels_url": "https://api.github.com/repos/bitcoin/bitcoin/issues/25111/labels%7B/name%7D",
          "comments_url": "https://api.github.com/repos/bitcoin/bitcoin/issues/25111/comments",
          "events_url": "https://api.github.com/repos/bitcoin/bitcoin/issues/25111/events",
          "html_url": "https://github.com/bitcoin/bitcoin/pull/25111",
          "number": 25111,
          "state": "closed",
          "state_reason": null,
          "title": "Re-enable external signer support for Windows",
          "body": "`configure` check is modified to actually verify Boost::Process works (without needing extra libs), rather than hardcoding it off for Windows unconditionally.\r\n\r\nFor now, depends does some trivial patching of boost::process to use std::filesystem instead of boost::filesystem, and also deletes boost::filesystem entirely to be sure it doesn't find its way into builds.\r\n\r\nAlso, `BOOST_PROCESS_USE_STD_FS` is defined since it looks like that's the approach upstream boost is planning on (https://github.com/klemens-morgenstern/boost-process/commit/85cbc29726e4f4169036ab0b9b905f7287950334)",
          "user": {
            "login": "luke-jr",
            "id": 1095675,
            "node_id": "MDQ6VXNlcjEwOTU2NzU=",
            "avatar_url": "https://avatars.githubusercontent.com/u/1095675?v=4",
            "gravatar_id": "",
            "url": "https://api.github.com/users/luke-jr",
            "html_url": "https://github.com/luke-jr",
            "followers_url": "https://api.github.com/users/luke-jr/followers",
            "following_url": "https://api.github.com/users/luke-jr/following%7B/other_user%7D",
            "gists_url": "https://api.github.com/users/luke-jr/gists%7B/gist_id%7D",
            "starred_url": "https://api.github.com/users/luke-jr/starred%7B/owner%7D%7B/repo%7D",
            "subscriptions_url": "https://api.github.com/users/luke-jr/subscriptions",
            "organizations_url": "https://api.github.com/users/luke-jr/orgs",
            "repos_url": "https://api.github.com/users/luke-jr/repos",
            "events_url": "https://api.github.com/users/luke-jr/events%7B/privacy%7D",
            "received_events_url": "https://api.github.com/users/luke-jr/received_events",
            "type": "User",
            "site_admin": false
          },
          "labels": [
            {
              "id": 61889416,
              "node_id": "MDU6TGFiZWw2MTg4OTQxNg==",
              "url": "https://api.github.com/repos/bitcoin/bitcoin/labels/Build%20system",
              "name": "Build system",
              "color": "5319e7",
              "default": false
            },
            {
              "id": 241832923,
              "node_id": "MDU6TGFiZWwyNDE4MzI5MjM=",
              "url": "https://api.github.com/repos/bitcoin/bitcoin/labels/Utils/log/libs",
              "name": "Utils/log/libs",
              "description": "",
              "color": "5319e7",
              "default": false
            }
          ],
          "assignees": [],
          "author_association": "MEMBER",
          "locked": true,
          "comments": 6,
          "pull_request": {
            "url": "https://api.github.com/repos/bitcoin/bitcoin/pulls/25111",
            "html_url": "https://github.com/bitcoin/bitcoin/pull/25111",
            "diff_url": "https://github.com/bitcoin/bitcoin/pull/25111.diff",
            "patch_url": "https://github.com/bitcoin/bitcoin/pull/25111.patch"
          },
          "closed_at": "2022-07-26T09:00:41Z",
          "created_at": "2022-05-12T05:57:06Z",
          "updated_at": "2023-07-26T10:16:55Z"
        },
        "type": "issue"
      }
    },
    {
      "event": "cross-referenced",
      "id": null,
      "node_id": null,
      "url": null,
      "actor": {
        "login": "fanquake",
        "id": 863730,
        "node_id": "MDQ6VXNlcjg2MzczMA==",
        "avatar_url": "https://avatars.githubusercontent.com/u/863730?v=4",
        "gravatar_id": "",
        "url": "https://api.github.com/users/fanquake",
        "html_url": "https://github.com/fanquake",
        "followers_url": "https://api.github.com/users/fanquake/followers",
        "following_url": "https://api.github.com/users/fanquake/following%7B/other_user%7D",
        "gists_url": "https://api.github.com/users/fanquake/gists%7B/gist_id%7D",
        "starred_url": "https://api.github.com/users/fanquake/starred%7B/owner%7D%7B/repo%7D",
        "subscriptions_url": "https://api.github.com/users/fanquake/subscriptions",
        "organizations_url": "https://api.github.com/users/fanquake/orgs",
        "repos_url": "https://api.github.com/users/fanquake/repos",
        "events_url": "https://api.github.com/users/fanquake/events%7B/privacy%7D",
        "received_events_url": "https://api.github.com/users/fanquake/received_events",
        "type": "User",
        "site_admin": false
      },
      "commit_id": null,
      "commit_url": null,
      "created_at": "2022-07-27T14:10:42Z",
      "updated_at": "2022-07-27T14:10:42Z",
      "source": {
        "issue": {
          "id": 1316859768,
          "node_id": "PR_kwDOABII5848CqGb",
          "url": "https://api.github.com/repos/bitcoin/bitcoin/issues/25696",
          "repository_url": "https://api.github.com/repos/bitcoin/bitcoin",
          "labels_url": "https://api.github.com/repos/bitcoin/bitcoin/issues/25696/labels%7B/name%7D",
          "comments_url": "https://api.github.com/repos/bitcoin/bitcoin/issues/25696/comments",
          "events_url": "https://api.github.com/repos/bitcoin/bitcoin/issues/25696/events",
          "html_url": "https://github.com/bitcoin/bitcoin/pull/25696",
          "number": 25696,
          "state": "closed",
          "state_reason": null,
          "title": "build: Re-enable external signer on Windows",
          "body": "As https://github.com/boostorg/process/issues/207 has been resolved, it is possible now to re-enable external signer on Windows when cross-compiling.\r\n\r\nGuix build hashes:\r\n```\r\n78f69ea7e0dbc8338981a92c0352220ccd7c2272d8cbff6a3b082a1412a935c5  guix-build-1a0d8e178c7b/output/aarch64-linux-gnu/SHA256SUMS.part\r\nee17456ec818ddf5a175182508966e622573ccb518807cca43a40fa1dceda092  guix-build-1a0d8e178c7b/output/aarch64-linux-gnu/bitcoin-1a0d8e178c7b-aarch64-linux-gnu-debug.tar.gz\r\n5080551bde379c746cc67b10429aef33b9f9e49d2d4e21ee1c3bfd9c1c845d46  guix-build-1a0d8e178c7b/output/aarch64-linux-gnu/bitcoin-1a0d8e178c7b-aarch64-linux-gnu.tar.gz\r\ndfab220ce76a40bf7dcf07aab352a616a91b516503639455fe7e1b137bad3e85  guix-build-1a0d8e178c7b/output/arm-linux-gnueabihf/SHA256SUMS.part\r\n516ceb822571a8bd88fe107dca434ef596b1e4328ccbda1d51e1d482d3050396  guix-build-1a0d8e178c7b/output/arm-linux-gnueabihf/bitcoin-1a0d8e178c7b-arm-linux-gnueabihf-debug.tar.gz\r\n21325380638f817107c203b9a1aedb808d1a4a2b4041493753ca4cbf19aa4f2c  guix-build-1a0d8e178c7b/output/arm-linux-gnueabihf/bitcoin-1a0d8e178c7b-arm-linux-gnueabihf.tar.gz\r\ncf48ed78fcfceaeb3610ccf22326d735a129dcbf9d50b557b3de359169aefdfd  guix-build-1a0d8e178c7b/output/arm64-apple-darwin/SHA256SUMS.part\r\nd4d51e136148bac6a20bb3adb402c499967647736acb420bfdeb71603aba57da  guix-build-1a0d8e178c7b/output/arm64-apple-darwin/bitcoin-1a0d8e178c7b-arm64-apple-darwin-unsigned.dmg\r\n95bb62d24f860e08a392ddb74d5860ccf27e8baa183e6749af877d26a3bd6b0b  guix-build-1a0d8e178c7b/output/arm64-apple-darwin/bitcoin-1a0d8e178c7b-arm64-apple-darwin-unsigned.tar.gz\r\n68da4c92f37bb802df37141af194f47c16da1d84f77a0fbb1016013ae0338502  guix-build-1a0d8e178c7b/output/arm64-apple-darwin/bitcoin-1a0d8e178c7b-arm64-apple-darwin.tar.gz\r\n6704e38c2d3f11321403797598d05f062648fec6f2d76900ba250dab481e29da  guix-build-1a0d8e178c7b/output/dist-archive/bitcoin-1a0d8e178c7b.tar.gz\r\n64b936bc90d1e01fe8f276511edc9bb945dcebe70332aa37d3a786348443b8e7  guix-build-1a0d8e178c7b/output/powerpc64-linux-gnu/SHA256SUMS.part\r\n3d03532e54b6e42498ea240c86b8567e94fd462f56087b869c3d6f09e2dde878  guix-build-1a0d8e178c7b/output/powerpc64-linux-gnu/bitcoin-1a0d8e178c7b-powerpc64-linux-gnu-debug.tar.gz\r\nc5843d79a58b0a864fe723458dab4eee54ad11f4b1f7960975b086eeedc0d541  guix-build-1a0d8e178c7b/output/powerpc64-linux-gnu/bitcoin-1a0d8e178c7b-powerpc64-linux-gnu.tar.gz\r\nf861ff519bd5e3d6d5ce1646ee0a06bcef1288ddb804a4a600e4dbfe5d5be521  guix-build-1a0d8e178c7b/output/powerpc64le-linux-gnu/SHA256SUMS.part\r\n5f477da21980dbcf9696081903dc1ba8a3f79ce3579641d208e69a6f598c8eb9  guix-build-1a0d8e178c7b/output/powerpc64le-linux-gnu/bitcoin-1a0d8e178c7b-powerpc64le-linux-gnu-debug.tar.gz\r\nb3757b11c614136934158acea5139e8abd0c5c9cdfda72ae44db436f21716b33  guix-build-1a0d8e178c7b/output/powerpc64le-linux-gnu/bitcoin-1a0d8e178c7b-powerpc64le-linux-gnu.tar.gz\r\n1c21bdb17fe3436e685e88c62423e630fe2b3c41dd00025a99fd80d97817ac2f  guix-build-1a0d8e178c7b/output/riscv64-linux-gnu/SHA256SUMS.part\r\nf36ae98473f086ae8f0dc66223b5ec407d57dc4d8d45ae284401520ff5c0b273  guix-build-1a0d8e178c7b/output/riscv64-linux-gnu/bitcoin-1a0d8e178c7b-riscv64-linux-gnu-debug.tar.gz\r\n1603e4d0e869eb47a1dc2d26b67772d0016d90f7ba5e50d2009365cc02cb8169  guix-build-1a0d8e178c7b/output/riscv64-linux-gnu/bitcoin-1a0d8e178c7b-riscv64-linux-gnu.tar.gz\r\nf86ef652102f022827b70477bffa0a44008c6300cf62ca7b3595146cf2ed91ba  guix-build-1a0d8e178c7b/output/x86_64-apple-darwin/SHA256SUMS.part\r\nf84d435d8e4709bf29bc7ac7ed8dc6b8af4077cef05e520b468b2896ce10876a  guix-build-1a0d8e178c7b/output/x86_64-apple-darwin/bitcoin-1a0d8e178c7b-x86_64-apple-darwin-unsigned.dmg\r\naf2aab969b7ed7aeea0e02adbcc9e3b438086bf76b6bfc36146c53e05a27bd57  guix-build-1a0d8e178c7b/output/x86_64-apple-darwin/bitcoin-1a0d8e178c7b-x86_64-apple-darwin-unsigned.tar.gz\r\n32a5109ba28ab74ff66238e6a8f8a04e455ebce382a3be287df92a227818fe72  guix-build-1a0d8e178c7b/output/x86_64-apple-darwin/bitcoin-1a0d8e178c7b-x86_64-apple-darwin.tar.gz\r\n377462e9a96f4aba72c915dd5df5159a4301a1fa8ed0ee48faa6c71573de80c3  guix-build-1a0d8e178c7b/output/x86_64-linux-gnu/SHA256SUMS.part\r\na3bf62e828d2350a483b2d16205014f66e8884597b0b72e178042a958c548336  guix-build-1a0d8e178c7b/output/x86_64-linux-gnu/bitcoin-1a0d8e178c7b-x86_64-linux-gnu-debug.tar.gz\r\n66cda980188ea1941a7d66c8b03c447580af33db55abe3bbe3581823ae0534a3  guix-build-1a0d8e178c7b/output/x86_64-linux-gnu/bitcoin-1a0d8e178c7b-x86_64-linux-gnu.tar.gz\r\n2117f0dd9baeb4d585f841592e94c088f4487bf2008b8f281d0c3ceee92ff6cc  guix-build-1a0d8e178c7b/output/x86_64-w64-mingw32/SHA256SUMS.part\r\nd40d5dec3287f467c42232c05d82f7fb538cda34bd2e63ff7e1876f471c3a790  guix-build-1a0d8e178c7b/output/x86_64-w64-mingw32/bitcoin-1a0d8e178c7b-win64-debug.zip\r\n92dcc92765fbc07b1cc8258bfa69280541e1b4553cc41fed18672c2c6931d5c0  guix-build-1a0d8e178c7b/output/x86_64-w64-mingw32/bitcoin-1a0d8e178c7b-win64-setup-unsigned.exe\r\na6dd9b4d29f21d3a18cf64556cb03446ef17bf801eb6ac257b65d27cbd95080f  guix-build-1a0d8e178c7b/output/x86_64-w64-mingw32/bitcoin-1a0d8e178c7b-win64-unsigned.tar.gz\r\na4022e595d955198f73530473ef8e90a708746089ee2dd27de794176873330c1  guix-build-1a0d8e178c7b/output/x86_64-w64-mingw32/bitcoin-1a0d8e178c7b-win64.zip\r\n```",
          "user": {
            "login": "hebasto",
            "id": 32963518,
            "node_id": "MDQ6VXNlcjMyOTYzNTE4",
            "avatar_url": "https://avatars.githubusercontent.com/u/32963518?v=4",
            "gravatar_id": "",
            "url": "https://api.github.com/users/hebasto",
            "html_url": "https://github.com/hebasto",
            "followers_url": "https://api.github.com/users/hebasto/followers",
            "following_url": "https://api.github.com/users/hebasto/following%7B/other_user%7D",
            "gists_url": "https://api.github.com/users/hebasto/gists%7B/gist_id%7D",
            "starred_url": "https://api.github.com/users/hebasto/starred%7B/owner%7D%7B/repo%7D",
            "subscriptions_url": "https://api.github.com/users/hebasto/subscriptions",
            "organizations_url": "https://api.github.com/users/hebasto/orgs",
            "repos_url": "https://api.github.com/users/hebasto/repos",
            "events_url": "https://api.github.com/users/hebasto/events%7B/privacy%7D",
            "received_events_url": "https://api.github.com/users/hebasto/received_events",
            "type": "User",
            "site_admin": false
          },
          "labels": [
            {
              "id": 61889416,
              "node_id": "MDU6TGFiZWw2MTg4OTQxNg==",
              "url": "https://api.github.com/repos/bitcoin/bitcoin/labels/Build%20system",
              "name": "Build system",
              "color": "5319e7",
              "default": false
            }
          ],
          "assignees": [],
          "author_association": "MEMBER",
          "locked": false,
          "comments": 21,
          "pull_request": {
            "url": "https://api.github.com/repos/bitcoin/bitcoin/pulls/25696",
            "html_url": "https://github.com/bitcoin/bitcoin/pull/25696",
            "diff_url": "https://github.com/bitcoin/bitcoin/pull/25696.diff",
            "patch_url": "https://github.com/bitcoin/bitcoin/pull/25696.patch"
          },
          "closed_at": "2023-03-09T02:02:51Z",
          "created_at": "2022-07-25T13:41:12Z",
          "updated_at": "2023-03-09T10:01:57Z"
        },
        "type": "issue"
      }
    },
    {
      "event": "commented",
      "id": 1197992563,
      "node_id": "IC_kwDOABII585HZ-pz",
      "url": "https://api.github.com/repos/bitcoin/bitcoin/issues/comments/1197992563",
      "actor": {
        "login": "hebasto",
        "id": 32963518,
        "node_id": "MDQ6VXNlcjMyOTYzNTE4",
        "avatar_url": "https://avatars.githubusercontent.com/u/32963518?v=4",
        "gravatar_id": "",
        "url": "https://api.github.com/users/hebasto",
        "html_url": "https://github.com/hebasto",
        "followers_url": "https://api.github.com/users/hebasto/followers",
        "following_url": "https://api.github.com/users/hebasto/following%7B/other_user%7D",
        "gists_url": "https://api.github.com/users/hebasto/gists%7B/gist_id%7D",
        "starred_url": "https://api.github.com/users/hebasto/starred%7B/owner%7D%7B/repo%7D",
        "subscriptions_url": "https://api.github.com/users/hebasto/subscriptions",
        "organizations_url": "https://api.github.com/users/hebasto/orgs",
        "repos_url": "https://api.github.com/users/hebasto/repos",
        "events_url": "https://api.github.com/users/hebasto/events%7B/privacy%7D",
        "received_events_url": "https://api.github.com/users/hebasto/received_events",
        "type": "User",
        "site_admin": false
      },
      "commit_id": null,
      "commit_url": null,
      "created_at": "2022-07-28T11:01:19Z",
      "updated_at": "2022-07-28T11:01:19Z",
      "author_association": "MEMBER",
      "body": "> the code and issue tracking is [confusingly](https://github.com/boostorg/process/pull/243) spread across multiple repositories, see https://github.com/boostorg/process/ and https://github.com/klemens-morgenstern/boost-process), which themselves each have different versions of the code\r\n\r\nThis is no longer the case.\r\n\r\nAnd Boost [Process V2](https://www.boost.org/doc/libs/1_80_0_beta1/doc/html/boost_process/v2.html) is coming.",
      "user": {
        "login": "hebasto",
        "id": 32963518,
        "node_id": "MDQ6VXNlcjMyOTYzNTE4",
        "avatar_url": "https://avatars.githubusercontent.com/u/32963518?v=4",
        "gravatar_id": "",
        "url": "https://api.github.com/users/hebasto",
        "html_url": "https://github.com/hebasto",
        "followers_url": "https://api.github.com/users/hebasto/followers",
        "following_url": "https://api.github.com/users/hebasto/following%7B/other_user%7D",
        "gists_url": "https://api.github.com/users/hebasto/gists%7B/gist_id%7D",
        "starred_url": "https://api.github.com/users/hebasto/starred%7B/owner%7D%7B/repo%7D",
        "subscriptions_url": "https://api.github.com/users/hebasto/subscriptions",
        "organizations_url": "https://api.github.com/users/hebasto/orgs",
        "repos_url": "https://api.github.com/users/hebasto/repos",
        "events_url": "https://api.github.com/users/hebasto/events%7B/privacy%7D",
        "received_events_url": "https://api.github.com/users/hebasto/received_events",
        "type": "User",
        "site_admin": false
      },
      "html_url": "https://github.com/bitcoin/bitcoin/issues/24907#issuecomment-1197992563",
      "issue_url": "https://api.github.com/repos/bitcoin/bitcoin/issues/24907"
    },
    {
      "event": "commented",
      "id": 1253761464,
      "node_id": "IC_kwDOABII585KuuG4",
      "url": "https://api.github.com/repos/bitcoin/bitcoin/issues/comments/1253761464",
      "actor": {
        "login": "fanquake",
        "id": 863730,
        "node_id": "MDQ6VXNlcjg2MzczMA==",
        "avatar_url": "https://avatars.githubusercontent.com/u/863730?v=4",
        "gravatar_id": "",
        "url": "https://api.github.com/users/fanquake",
        "html_url": "https://github.com/fanquake",
        "followers_url": "https://api.github.com/users/fanquake/followers",
        "following_url": "https://api.github.com/users/fanquake/following%7B/other_user%7D",
        "gists_url": "https://api.github.com/users/fanquake/gists%7B/gist_id%7D",
        "starred_url": "https://api.github.com/users/fanquake/starred%7B/owner%7D%7B/repo%7D",
        "subscriptions_url": "https://api.github.com/users/fanquake/subscriptions",
        "organizations_url": "https://api.github.com/users/fanquake/orgs",
        "repos_url": "https://api.github.com/users/fanquake/repos",
        "events_url": "https://api.github.com/users/fanquake/events%7B/privacy%7D",
        "received_events_url": "https://api.github.com/users/fanquake/received_events",
        "type": "User",
        "site_admin": false
      },
      "commit_id": null,
      "commit_url": null,
      "created_at": "2022-09-21T14:04:40Z",
      "updated_at": "2022-09-21T14:46:13Z",
      "author_association": "MEMBER",
      "body": "> And Boost [Process V2](https://www.boost.org/doc/libs/1_80_0_beta1/doc/html/boost_process/v2.html) is coming.\r\n\r\nI don't think that's any improvement on the Boost Process front.\r\n\r\nProcess V2 is now fully dependant on Boost ASIO:\r\n> Since asio added pipes in boost 1.78, boost process V2 is fully asio based and uses it's pipes and file-handles for the subprocess.\r\n\r\nThis is another Boost (sub-)dependency we do not want. (I'm aware that process V1 already uses it in some capacity).\r\n\r\n",
      "user": {
        "login": "fanquake",
        "id": 863730,
        "node_id": "MDQ6VXNlcjg2MzczMA==",
        "avatar_url": "https://avatars.githubusercontent.com/u/863730?v=4",
        "gravatar_id": "",
        "url": "https://api.github.com/users/fanquake",
        "html_url": "https://github.com/fanquake",
        "followers_url": "https://api.github.com/users/fanquake/followers",
        "following_url": "https://api.github.com/users/fanquake/following%7B/other_user%7D",
        "gists_url": "https://api.github.com/users/fanquake/gists%7B/gist_id%7D",
        "starred_url": "https://api.github.com/users/fanquake/starred%7B/owner%7D%7B/repo%7D",
        "subscriptions_url": "https://api.github.com/users/fanquake/subscriptions",
        "organizations_url": "https://api.github.com/users/fanquake/orgs",
        "repos_url": "https://api.github.com/users/fanquake/repos",
        "events_url": "https://api.github.com/users/fanquake/events%7B/privacy%7D",
        "received_events_url": "https://api.github.com/users/fanquake/received_events",
        "type": "User",
        "site_admin": false
      },
      "html_url": "https://github.com/bitcoin/bitcoin/issues/24907#issuecomment-1253761464",
      "issue_url": "https://api.github.com/repos/bitcoin/bitcoin/issues/24907"
    },
    {
      "event": "commented",
      "id": 1466087049,
      "node_id": "IC_kwDOABII585XYraJ",
      "url": "https://api.github.com/repos/bitcoin/bitcoin/issues/comments/1466087049",
      "actor": {
        "login": "theStack",
        "id": 91535,
        "node_id": "MDQ6VXNlcjkxNTM1",
        "avatar_url": "https://avatars.githubusercontent.com/u/91535?v=4",
        "gravatar_id": "",
        "url": "https://api.github.com/users/theStack",
        "html_url": "https://github.com/theStack",
        "followers_url": "https://api.github.com/users/theStack/followers",
        "following_url": "https://api.github.com/users/theStack/following%7B/other_user%7D",
        "gists_url": "https://api.github.com/users/theStack/gists%7B/gist_id%7D",
        "starred_url": "https://api.github.com/users/theStack/starred%7B/owner%7D%7B/repo%7D",
        "subscriptions_url": "https://api.github.com/users/theStack/subscriptions",
        "organizations_url": "https://api.github.com/users/theStack/orgs",
        "repos_url": "https://api.github.com/users/theStack/repos",
        "events_url": "https://api.github.com/users/theStack/events%7B/privacy%7D",
        "received_events_url": "https://api.github.com/users/theStack/received_events",
        "type": "User",
        "site_admin": false
      },
      "commit_id": null,
      "commit_url": null,
      "created_at": "2023-03-13T12:51:33Z",
      "updated_at": "2023-03-13T12:51:33Z",
      "author_association": "CONTRIBUTOR",
      "body": "FWIW, I started working on replacing boost::process with cpp-subprocess on the following branch: https://github.com/theStack/bitcoin/tree/nuke_boost_process\r\nCurrently the unit tests (system_tests/run_command) and functional tests (rpc_signer.py, wallet_signer.py) pass on both Linux and OpenBSD, but compiling for Windows via g++-mingw-w64-x86-64-posix fails due to missing headers (`Windows.h`). The changes are not very invasive, most work was probably to change from passing a single string to a list of arguments.\r\n\r\nIf anyone is motivated to continue the work or maybe just want to evaluate if cpp-subprocess is a proper replacement candidate, feel free to take the commits. I'm currently not running any Windows system where I could even test the changes, the best I can do is to cross-compile (which as said above, doesn't even work yet) and run the unit tests via Wine. cpp-subprocess' README.md says:\r\n> Support for Windows is limited at this time. Please report any specific use-cases that fail, and they will be fixed as they are reported.\r\n\r\nso there are likely more changes needed to make everything work as expected.",
      "user": {
        "login": "theStack",
        "id": 91535,
        "node_id": "MDQ6VXNlcjkxNTM1",
        "avatar_url": "https://avatars.githubusercontent.com/u/91535?v=4",
        "gravatar_id": "",
        "url": "https://api.github.com/users/theStack",
        "html_url": "https://github.com/theStack",
        "followers_url": "https://api.github.com/users/theStack/followers",
        "following_url": "https://api.github.com/users/theStack/following%7B/other_user%7D",
        "gists_url": "https://api.github.com/users/theStack/gists%7B/gist_id%7D",
        "starred_url": "https://api.github.com/users/theStack/starred%7B/owner%7D%7B/repo%7D",
        "subscriptions_url": "https://api.github.com/users/theStack/subscriptions",
        "organizations_url": "https://api.github.com/users/theStack/orgs",
        "repos_url": "https://api.github.com/users/theStack/repos",
        "events_url": "https://api.github.com/users/theStack/events%7B/privacy%7D",
        "received_events_url": "https://api.github.com/users/theStack/received_events",
        "type": "User",
        "site_admin": false
      },
      "html_url": "https://github.com/bitcoin/bitcoin/issues/24907#issuecomment-1466087049",
      "issue_url": "https://api.github.com/repos/bitcoin/bitcoin/issues/24907"
    },
    {
      "event": "commented",
      "id": 1469901431,
      "node_id": "IC_kwDOABII585XnOp3",
      "url": "https://api.github.com/repos/bitcoin/bitcoin/issues/comments/1469901431",
      "actor": {
        "login": "willcl-ark",
        "id": 6606587,
        "node_id": "MDQ6VXNlcjY2MDY1ODc=",
        "avatar_url": "https://avatars.githubusercontent.com/u/6606587?v=4",
        "gravatar_id": "",
        "url": "https://api.github.com/users/willcl-ark",
        "html_url": "https://github.com/willcl-ark",
        "followers_url": "https://api.github.com/users/willcl-ark/followers",
        "following_url": "https://api.github.com/users/willcl-ark/following%7B/other_user%7D",
        "gists_url": "https://api.github.com/users/willcl-ark/gists%7B/gist_id%7D",
        "starred_url": "https://api.github.com/users/willcl-ark/starred%7B/owner%7D%7B/repo%7D",
        "subscriptions_url": "https://api.github.com/users/willcl-ark/subscriptions",
        "organizations_url": "https://api.github.com/users/willcl-ark/orgs",
        "repos_url": "https://api.github.com/users/willcl-ark/repos",
        "events_url": "https://api.github.com/users/willcl-ark/events%7B/privacy%7D",
        "received_events_url": "https://api.github.com/users/willcl-ark/received_events",
        "type": "User",
        "site_admin": false
      },
      "commit_id": null,
      "commit_url": null,
      "created_at": "2023-03-15T12:17:22Z",
      "updated_at": "2023-03-15T12:17:22Z",
      "author_association": "CONTRIBUTOR",
      "body": "> FWIW, I started working on replacing boost::process with cpp-subprocess on the following branch: \r\n\r\nDoes cpp-subprocess ok work on OpenBSD?",
      "user": {
        "login": "willcl-ark",
        "id": 6606587,
        "node_id": "MDQ6VXNlcjY2MDY1ODc=",
        "avatar_url": "https://avatars.githubusercontent.com/u/6606587?v=4",
        "gravatar_id": "",
        "url": "https://api.github.com/users/willcl-ark",
        "html_url": "https://github.com/willcl-ark",
        "followers_url": "https://api.github.com/users/willcl-ark/followers",
        "following_url": "https://api.github.com/users/willcl-ark/following%7B/other_user%7D",
        "gists_url": "https://api.github.com/users/willcl-ark/gists%7B/gist_id%7D",
        "starred_url": "https://api.github.com/users/willcl-ark/starred%7B/owner%7D%7B/repo%7D",
        "subscriptions_url": "https://api.github.com/users/willcl-ark/subscriptions",
        "organizations_url": "https://api.github.com/users/willcl-ark/orgs",
        "repos_url": "https://api.github.com/users/willcl-ark/repos",
        "events_url": "https://api.github.com/users/willcl-ark/events%7B/privacy%7D",
        "received_events_url": "https://api.github.com/users/willcl-ark/received_events",
        "type": "User",
        "site_admin": false
      },
      "html_url": "https://github.com/bitcoin/bitcoin/issues/24907#issuecomment-1469901431",
      "issue_url": "https://api.github.com/repos/bitcoin/bitcoin/issues/24907"
    },
    {
      "event": "commented",
      "id": 1469975716,
      "node_id": "IC_kwDOABII585Xngyk",
      "url": "https://api.github.com/repos/bitcoin/bitcoin/issues/comments/1469975716",
      "actor": {
        "login": "theStack",
        "id": 91535,
        "node_id": "MDQ6VXNlcjkxNTM1",
        "avatar_url": "https://avatars.githubusercontent.com/u/91535?v=4",
        "gravatar_id": "",
        "url": "https://api.github.com/users/theStack",
        "html_url": "https://github.com/theStack",
        "followers_url": "https://api.github.com/users/theStack/followers",
        "following_url": "https://api.github.com/users/theStack/following%7B/other_user%7D",
        "gists_url": "https://api.github.com/users/theStack/gists%7B/gist_id%7D",
        "starred_url": "https://api.github.com/users/theStack/starred%7B/owner%7D%7B/repo%7D",
        "subscriptions_url": "https://api.github.com/users/theStack/subscriptions",
        "organizations_url": "https://api.github.com/users/theStack/orgs",
        "repos_url": "https://api.github.com/users/theStack/repos",
        "events_url": "https://api.github.com/users/theStack/events%7B/privacy%7D",
        "received_events_url": "https://api.github.com/users/theStack/received_events",
        "type": "User",
        "site_admin": false
      },
      "commit_id": null,
      "commit_url": null,
      "created_at": "2023-03-15T13:06:20Z",
      "updated_at": "2023-03-15T13:06:20Z",
      "author_association": "CONTRIBUTOR",
      "body": "> > FWIW, I started working on replacing boost::process with cpp-subprocess on the following branch:\r\n> \r\n> Does cpp-subprocess ok work on OpenBSD?\r\n\r\nYes, at least the corresponding unit tests and functional tests pass both on Linux (Ubuntu 22.04.1 LTS, Kernel 5.15.0) and OpenBSD (7.2). Would be nice if someone could test the branch (https://github.com/theStack/bitcoin/tree/nuke_boost_process) on MacOS.",
      "user": {
        "login": "theStack",
        "id": 91535,
        "node_id": "MDQ6VXNlcjkxNTM1",
        "avatar_url": "https://avatars.githubusercontent.com/u/91535?v=4",
        "gravatar_id": "",
        "url": "https://api.github.com/users/theStack",
        "html_url": "https://github.com/theStack",
        "followers_url": "https://api.github.com/users/theStack/followers",
        "following_url": "https://api.github.com/users/theStack/following%7B/other_user%7D",
        "gists_url": "https://api.github.com/users/theStack/gists%7B/gist_id%7D",
        "starred_url": "https://api.github.com/users/theStack/starred%7B/owner%7D%7B/repo%7D",
        "subscriptions_url": "https://api.github.com/users/theStack/subscriptions",
        "organizations_url": "https://api.github.com/users/theStack/orgs",
        "repos_url": "https://api.github.com/users/theStack/repos",
        "events_url": "https://api.github.com/users/theStack/events%7B/privacy%7D",
        "received_events_url": "https://api.github.com/users/theStack/received_events",
        "type": "User",
        "site_admin": false
      },
      "html_url": "https://github.com/bitcoin/bitcoin/issues/24907#issuecomment-1469975716",
      "issue_url": "https://api.github.com/repos/bitcoin/bitcoin/issues/24907"
    },
    {
      "event": "commented",
      "id": 1470373138,
      "node_id": "IC_kwDOABII585XpB0S",
      "url": "https://api.github.com/repos/bitcoin/bitcoin/issues/comments/1470373138",
      "actor": {
        "login": "willcl-ark",
        "id": 6606587,
        "node_id": "MDQ6VXNlcjY2MDY1ODc=",
        "avatar_url": "https://avatars.githubusercontent.com/u/6606587?v=4",
        "gravatar_id": "",
        "url": "https://api.github.com/users/willcl-ark",
        "html_url": "https://github.com/willcl-ark",
        "followers_url": "https://api.github.com/users/willcl-ark/followers",
        "following_url": "https://api.github.com/users/willcl-ark/following%7B/other_user%7D",
        "gists_url": "https://api.github.com/users/willcl-ark/gists%7B/gist_id%7D",
        "starred_url": "https://api.github.com/users/willcl-ark/starred%7B/owner%7D%7B/repo%7D",
        "subscriptions_url": "https://api.github.com/users/willcl-ark/subscriptions",
        "organizations_url": "https://api.github.com/users/willcl-ark/orgs",
        "repos_url": "https://api.github.com/users/willcl-ark/repos",
        "events_url": "https://api.github.com/users/willcl-ark/events%7B/privacy%7D",
        "received_events_url": "https://api.github.com/users/willcl-ark/received_events",
        "type": "User",
        "site_admin": false
      },
      "commit_id": null,
      "commit_url": null,
      "created_at": "2023-03-15T16:38:06Z",
      "updated_at": "2023-03-15T16:38:06Z",
      "author_association": "CONTRIBUTOR",
      "body": "@theStack Just tested on MacOS 13.1 (without BDB and QT) and all functional and unit tests passed ✅",
      "user": {
        "login": "willcl-ark",
        "id": 6606587,
        "node_id": "MDQ6VXNlcjY2MDY1ODc=",
        "avatar_url": "https://avatars.githubusercontent.com/u/6606587?v=4",
        "gravatar_id": "",
        "url": "https://api.github.com/users/willcl-ark",
        "html_url": "https://github.com/willcl-ark",
        "followers_url": "https://api.github.com/users/willcl-ark/followers",
        "following_url": "https://api.github.com/users/willcl-ark/following%7B/other_user%7D",
        "gists_url": "https://api.github.com/users/willcl-ark/gists%7B/gist_id%7D",
        "starred_url": "https://api.github.com/users/willcl-ark/starred%7B/owner%7D%7B/repo%7D",
        "subscriptions_url": "https://api.github.com/users/willcl-ark/subscriptions",
        "organizations_url": "https://api.github.com/users/willcl-ark/orgs",
        "repos_url": "https://api.github.com/users/willcl-ark/repos",
        "events_url": "https://api.github.com/users/willcl-ark/events%7B/privacy%7D",
        "received_events_url": "https://api.github.com/users/willcl-ark/received_events",
        "type": "User",
        "site_admin": false
      },
      "html_url": "https://github.com/bitcoin/bitcoin/issues/24907#issuecomment-1470373138",
      "issue_url": "https://api.github.com/repos/bitcoin/bitcoin/issues/24907"
    },
    {
      "event": "mentioned",
      "id": 8757690919,
      "node_id": "MEE_lADOABII585H8w9YzwAAAAIJ_8In",
      "url": "https://api.github.com/repos/bitcoin/bitcoin/issues/events/8757690919",
      "actor": {
        "login": "theStack",
        "id": 91535,
        "node_id": "MDQ6VXNlcjkxNTM1",
        "avatar_url": "https://avatars.githubusercontent.com/u/91535?v=4",
        "gravatar_id": "",
        "url": "https://api.github.com/users/theStack",
        "html_url": "https://github.com/theStack",
        "followers_url": "https://api.github.com/users/theStack/followers",
        "following_url": "https://api.github.com/users/theStack/following%7B/other_user%7D",
        "gists_url": "https://api.github.com/users/theStack/gists%7B/gist_id%7D",
        "starred_url": "https://api.github.com/users/theStack/starred%7B/owner%7D%7B/repo%7D",
        "subscriptions_url": "https://api.github.com/users/theStack/subscriptions",
        "organizations_url": "https://api.github.com/users/theStack/orgs",
        "repos_url": "https://api.github.com/users/theStack/repos",
        "events_url": "https://api.github.com/users/theStack/events%7B/privacy%7D",
        "received_events_url": "https://api.github.com/users/theStack/received_events",
        "type": "User",
        "site_admin": false
      },
      "commit_id": null,
      "commit_url": null,
      "created_at": "2023-03-15T16:38:07Z"
    },
    {
      "event": "subscribed",
      "id": 8757690951,
      "node_id": "SE_lADOABII585H8w9YzwAAAAIJ_8JH",
      "url": "https://api.github.com/repos/bitcoin/bitcoin/issues/events/8757690951",
      "actor": {
        "login": "theStack",
        "id": 91535,
        "node_id": "MDQ6VXNlcjkxNTM1",
        "avatar_url": "https://avatars.githubusercontent.com/u/91535?v=4",
        "gravatar_id": "",
        "url": "https://api.github.com/users/theStack",
        "html_url": "https://github.com/theStack",
        "followers_url": "https://api.github.com/users/theStack/followers",
        "following_url": "https://api.github.com/users/theStack/following%7B/other_user%7D",
        "gists_url": "https://api.github.com/users/theStack/gists%7B/gist_id%7D",
        "starred_url": "https://api.github.com/users/theStack/starred%7B/owner%7D%7B/repo%7D",
        "subscriptions_url": "https://api.github.com/users/theStack/subscriptions",
        "organizations_url": "https://api.github.com/users/theStack/orgs",
        "repos_url": "https://api.github.com/users/theStack/repos",
        "events_url": "https://api.github.com/users/theStack/events%7B/privacy%7D",
        "received_events_url": "https://api.github.com/users/theStack/received_events",
        "type": "User",
        "site_admin": false
      },
      "commit_id": null,
      "commit_url": null,
      "created_at": "2023-03-15T16:38:07Z"
    }
  ]
}