{
  "type": "issue",
  "issue": {
    "id": 1235330776,
    "node_id": "I_kwDOABII585JoabY",
    "url": "https://api.github.com/repos/bitcoin/bitcoin/issues/25128",
    "repository_url": "https://api.github.com/repos/bitcoin/bitcoin",
    "labels_url": "https://api.github.com/repos/bitcoin/bitcoin/issues/25128/labels%7B/name%7D",
    "comments_url": "https://api.github.com/repos/bitcoin/bitcoin/issues/25128/comments",
    "events_url": "https://api.github.com/repos/bitcoin/bitcoin/issues/25128/events",
    "html_url": "https://github.com/bitcoin/bitcoin/issues/25128",
    "number": 25128,
    "state": "open",
    "state_reason": "reopened",
    "title": "p2p_filter intermittent failure (assert not filter_peer.tx_received)",
    "body": "https://cirrus-ci.com/task/5227425125629952?logs=ci#L3810\r\n\r\n```\r\n test  2022-05-13T10:12:44.237000Z TestFramework (ERROR): Assertion failed \r\n                                   Traceback (most recent call last):\r\n                                     File \"/tmp/cirrus-ci-build/ci/scratch/build/bitcoin-x86_64-pc-linux-gnu/test/functional/test_framework/test_framework.py\", line 133, in main\r\n                                       self.run_test()\r\n                                     File \"/tmp/cirrus-ci-build/ci/scratch/build/bitcoin-x86_64-pc-linux-gnu/test/functional/p2p_filter.py\", line 224, in run_test\r\n                                       self.test_filter(filter_peer)\r\n                                     File \"/tmp/cirrus-ci-build/ci/scratch/build/bitcoin-x86_64-pc-linux-gnu/test/functional/p2p_filter.py\", line 204, in test_filter\r\n                                       assert not filter_peer.tx_received\r\n                                   AssertionError\r\n```\r\n\r\nLooks like a tx from a previous test is received, but I don't see how this could happen:\r\n\r\n```\r\n test  2022-05-13T10:12:44.211000Z TestFramework (INFO): Check that request for filtered blocks is ignored if no filter is set \r\n test  2022-05-13T10:12:44.195000Z TestFramework.p2p (DEBUG): Received message from 127.0.0.1:15536: msg_tx(tx=CTransaction(nVersion=2 vin=[CTxIn(prevout=COutPoint(hash=f42858379b446cd7252015d8e86c6d7efc471f21869c1f205c44fd87bab1e9b2 n=0) scriptSig= nSequence=0)] vout=[CTxOut(nValue=42.99999000 scriptPubKey=51202913b252fe537830f843bfdc5fa7d20ba48639a87c86ff837b92d083c55ad7c1), CTxOut(nValue=7.00000000 scriptPubKey=0014ad24a8b5432802973418b25352d5606492c24e4d)] wit=CTxWitness(CScriptWitness(51,c00000000000000000000000000000000000000000000000000000000000000001)) nLockTime=0))... (msg truncated) ",
    "user": {
      "login": "MarcoFalke",
      "id": 6399679,
      "node_id": "MDQ6VXNlcjYzOTk2Nzk=",
      "avatar_url": "https://avatars.githubusercontent.com/u/6399679?v=4",
      "gravatar_id": "",
      "url": "https://api.github.com/users/MarcoFalke",
      "html_url": "https://github.com/MarcoFalke",
      "followers_url": "https://api.github.com/users/MarcoFalke/followers",
      "following_url": "https://api.github.com/users/MarcoFalke/following%7B/other_user%7D",
      "gists_url": "https://api.github.com/users/MarcoFalke/gists%7B/gist_id%7D",
      "starred_url": "https://api.github.com/users/MarcoFalke/starred%7B/owner%7D%7B/repo%7D",
      "subscriptions_url": "https://api.github.com/users/MarcoFalke/subscriptions",
      "organizations_url": "https://api.github.com/users/MarcoFalke/orgs",
      "repos_url": "https://api.github.com/users/MarcoFalke/repos",
      "events_url": "https://api.github.com/users/MarcoFalke/events%7B/privacy%7D",
      "received_events_url": "https://api.github.com/users/MarcoFalke/received_events",
      "type": "User",
      "site_admin": false
    },
    "labels": [
      {
        "id": 64585,
        "node_id": "MDU6TGFiZWw2NDU4NQ==",
        "url": "https://api.github.com/repos/bitcoin/bitcoin/labels/Bug",
        "name": "Bug",
        "color": "FBBAAB",
        "default": false
      },
      {
        "id": 62963516,
        "node_id": "MDU6TGFiZWw2Mjk2MzUxNg==",
        "url": "https://api.github.com/repos/bitcoin/bitcoin/labels/Tests",
        "name": "Tests",
        "color": "d4c5f9",
        "default": false
      }
    ],
    "assignees": [],
    "author_association": "MEMBER",
    "locked": false,
    "comments": 3,
    "created_at": "2022-05-13T14:38:00Z",
    "updated_at": "2023-01-30T14:12:09Z"
  },
  "events": [
    {
      "event": "labeled",
      "id": 6606309739,
      "node_id": "LE_lADOABII585JoabYzwAAAAGJxElr",
      "url": "https://api.github.com/repos/bitcoin/bitcoin/issues/events/6606309739",
      "actor": {
        "login": "MarcoFalke",
        "id": 6399679,
        "node_id": "MDQ6VXNlcjYzOTk2Nzk=",
        "avatar_url": "https://avatars.githubusercontent.com/u/6399679?v=4",
        "gravatar_id": "",
        "url": "https://api.github.com/users/MarcoFalke",
        "html_url": "https://github.com/MarcoFalke",
        "followers_url": "https://api.github.com/users/MarcoFalke/followers",
        "following_url": "https://api.github.com/users/MarcoFalke/following%7B/other_user%7D",
        "gists_url": "https://api.github.com/users/MarcoFalke/gists%7B/gist_id%7D",
        "starred_url": "https://api.github.com/users/MarcoFalke/starred%7B/owner%7D%7B/repo%7D",
        "subscriptions_url": "https://api.github.com/users/MarcoFalke/subscriptions",
        "organizations_url": "https://api.github.com/users/MarcoFalke/orgs",
        "repos_url": "https://api.github.com/users/MarcoFalke/repos",
        "events_url": "https://api.github.com/users/MarcoFalke/events%7B/privacy%7D",
        "received_events_url": "https://api.github.com/users/MarcoFalke/received_events",
        "type": "User",
        "site_admin": false
      },
      "commit_id": null,
      "commit_url": null,
      "created_at": "2022-05-13T14:38:00Z",
      "label": {
        "name": "Bug",
        "color": "FBBAAB"
      }
    },
    {
      "event": "labeled",
      "id": 6606309743,
      "node_id": "LE_lADOABII585JoabYzwAAAAGJxElv",
      "url": "https://api.github.com/repos/bitcoin/bitcoin/issues/events/6606309743",
      "actor": {
        "login": "MarcoFalke",
        "id": 6399679,
        "node_id": "MDQ6VXNlcjYzOTk2Nzk=",
        "avatar_url": "https://avatars.githubusercontent.com/u/6399679?v=4",
        "gravatar_id": "",
        "url": "https://api.github.com/users/MarcoFalke",
        "html_url": "https://github.com/MarcoFalke",
        "followers_url": "https://api.github.com/users/MarcoFalke/followers",
        "following_url": "https://api.github.com/users/MarcoFalke/following%7B/other_user%7D",
        "gists_url": "https://api.github.com/users/MarcoFalke/gists%7B/gist_id%7D",
        "starred_url": "https://api.github.com/users/MarcoFalke/starred%7B/owner%7D%7B/repo%7D",
        "subscriptions_url": "https://api.github.com/users/MarcoFalke/subscriptions",
        "organizations_url": "https://api.github.com/users/MarcoFalke/orgs",
        "repos_url": "https://api.github.com/users/MarcoFalke/repos",
        "events_url": "https://api.github.com/users/MarcoFalke/events%7B/privacy%7D",
        "received_events_url": "https://api.github.com/users/MarcoFalke/received_events",
        "type": "User",
        "site_admin": false
      },
      "commit_id": null,
      "commit_url": null,
      "created_at": "2022-05-13T14:38:00Z",
      "label": {
        "name": "Tests",
        "color": "d4c5f9"
      }
    },
    {
      "event": "cross-referenced",
      "id": null,
      "node_id": null,
      "url": null,
      "actor": {
        "login": "MarcoFalke",
        "id": 6399679,
        "node_id": "MDQ6VXNlcjYzOTk2Nzk=",
        "avatar_url": "https://avatars.githubusercontent.com/u/6399679?v=4",
        "gravatar_id": "",
        "url": "https://api.github.com/users/MarcoFalke",
        "html_url": "https://github.com/MarcoFalke",
        "followers_url": "https://api.github.com/users/MarcoFalke/followers",
        "following_url": "https://api.github.com/users/MarcoFalke/following%7B/other_user%7D",
        "gists_url": "https://api.github.com/users/MarcoFalke/gists%7B/gist_id%7D",
        "starred_url": "https://api.github.com/users/MarcoFalke/starred%7B/owner%7D%7B/repo%7D",
        "subscriptions_url": "https://api.github.com/users/MarcoFalke/subscriptions",
        "organizations_url": "https://api.github.com/users/MarcoFalke/orgs",
        "repos_url": "https://api.github.com/users/MarcoFalke/repos",
        "events_url": "https://api.github.com/users/MarcoFalke/events%7B/privacy%7D",
        "received_events_url": "https://api.github.com/users/MarcoFalke/received_events",
        "type": "User",
        "site_admin": false
      },
      "commit_id": null,
      "commit_url": null,
      "created_at": "2022-05-13T15:14:27Z",
      "updated_at": "2022-05-13T15:14:27Z",
      "source": {
        "issue": {
          "id": 1234046168,
          "node_id": "I_kwDOABII585JjgzY",
          "url": "https://api.github.com/repos/bitcoin/bitcoin/issues/25116",
          "repository_url": "https://api.github.com/repos/bitcoin/bitcoin",
          "labels_url": "https://api.github.com/repos/bitcoin/bitcoin/issues/25116/labels%7B/name%7D",
          "comments_url": "https://api.github.com/repos/bitcoin/bitcoin/issues/25116/comments",
          "events_url": "https://api.github.com/repos/bitcoin/bitcoin/issues/25116/events",
          "html_url": "https://github.com/bitcoin/bitcoin/issues/25116",
          "number": 25116,
          "state": "closed",
          "state_reason": "completed",
          "title": "Tracking and reporting failures and repeated flakiness of functional tests ",
          "body": "I'm sure anyone who runs the functional tests regularly will experience occasional failures. Often you run those failed tests again and they will pass. Occasionally a functional test will repeatedly fail which is more concerning. It is difficult to assess whether others are experiencing the same flakiness and/or repeated failures and whether it is worth spending time trying to understand and fix the issue. \r\n\r\nIn #25030 @MarcoFalke raised that there are some functional tests that have been flaky for a long time now. \r\n\r\nThis issue is a first attempt to track failures and repeated flakiness contributors experience with particular functional tests. I'm not sure how to organize this. Whether there should be a table of the functional tests that can be regularly updated and edited or whether to just have individual contributors adding comments below on which functional tests they are experiencing failures/flakiness with. \r\n\r\nFor now please comment below if you experience failures/flakiness with a particular functional test and certainly if you spend any time trying to understand why it failed feel free to add thoughts on what you think is causing the problem.\r\n\r\nIdeally this issue would help identify which functional tests to prioritize to fix but we'll see if this is useful or not. If it isn't useful feel free to close.",
          "user": {
            "login": "michaelfolkson",
            "id": 16323900,
            "node_id": "MDQ6VXNlcjE2MzIzOTAw",
            "avatar_url": "https://avatars.githubusercontent.com/u/16323900?v=4",
            "gravatar_id": "",
            "url": "https://api.github.com/users/michaelfolkson",
            "html_url": "https://github.com/michaelfolkson",
            "followers_url": "https://api.github.com/users/michaelfolkson/followers",
            "following_url": "https://api.github.com/users/michaelfolkson/following%7B/other_user%7D",
            "gists_url": "https://api.github.com/users/michaelfolkson/gists%7B/gist_id%7D",
            "starred_url": "https://api.github.com/users/michaelfolkson/starred%7B/owner%7D%7B/repo%7D",
            "subscriptions_url": "https://api.github.com/users/michaelfolkson/subscriptions",
            "organizations_url": "https://api.github.com/users/michaelfolkson/orgs",
            "repos_url": "https://api.github.com/users/michaelfolkson/repos",
            "events_url": "https://api.github.com/users/michaelfolkson/events%7B/privacy%7D",
            "received_events_url": "https://api.github.com/users/michaelfolkson/received_events",
            "type": "User",
            "site_admin": false
          },
          "labels": [
            {
              "id": 64584,
              "node_id": "MDU6TGFiZWw2NDU4NA==",
              "url": "https://api.github.com/repos/bitcoin/bitcoin/labels/Brainstorming",
              "name": "Brainstorming",
              "color": "ebd775",
              "default": false
            },
            {
              "id": 62963516,
              "node_id": "MDU6TGFiZWw2Mjk2MzUxNg==",
              "url": "https://api.github.com/repos/bitcoin/bitcoin/labels/Tests",
              "name": "Tests",
              "color": "d4c5f9",
              "default": false
            }
          ],
          "assignees": [],
          "author_association": "CONTRIBUTOR",
          "locked": true,
          "comments": 9,
          "closed_at": "2022-05-21T07:55:17Z",
          "created_at": "2022-05-12T14:10:55Z",
          "updated_at": "2023-05-21T10:02:44Z"
        },
        "type": "issue"
      }
    },
    {
      "event": "closed",
      "id": 7423022400,
      "node_id": "CE_lADOABII585JoabYzwAAAAG6clVA",
      "url": "https://api.github.com/repos/bitcoin/bitcoin/issues/events/7423022400",
      "actor": {
        "login": "MarcoFalke",
        "id": 6399679,
        "node_id": "MDQ6VXNlcjYzOTk2Nzk=",
        "avatar_url": "https://avatars.githubusercontent.com/u/6399679?v=4",
        "gravatar_id": "",
        "url": "https://api.github.com/users/MarcoFalke",
        "html_url": "https://github.com/MarcoFalke",
        "followers_url": "https://api.github.com/users/MarcoFalke/followers",
        "following_url": "https://api.github.com/users/MarcoFalke/following%7B/other_user%7D",
        "gists_url": "https://api.github.com/users/MarcoFalke/gists%7B/gist_id%7D",
        "starred_url": "https://api.github.com/users/MarcoFalke/starred%7B/owner%7D%7B/repo%7D",
        "subscriptions_url": "https://api.github.com/users/MarcoFalke/subscriptions",
        "organizations_url": "https://api.github.com/users/MarcoFalke/orgs",
        "repos_url": "https://api.github.com/users/MarcoFalke/repos",
        "events_url": "https://api.github.com/users/MarcoFalke/events%7B/privacy%7D",
        "received_events_url": "https://api.github.com/users/MarcoFalke/received_events",
        "type": "User",
        "site_admin": false
      },
      "commit_id": null,
      "commit_url": null,
      "created_at": "2022-09-20T14:43:07Z"
    },
    {
      "event": "reopened",
      "id": 8150248293,
      "node_id": "REE_lADOABII585JoabYzwAAAAHlyutl",
      "url": "https://api.github.com/repos/bitcoin/bitcoin/issues/events/8150248293",
      "actor": {
        "login": "MarcoFalke",
        "id": 6399679,
        "node_id": "MDQ6VXNlcjYzOTk2Nzk=",
        "avatar_url": "https://avatars.githubusercontent.com/u/6399679?v=4",
        "gravatar_id": "",
        "url": "https://api.github.com/users/MarcoFalke",
        "html_url": "https://github.com/MarcoFalke",
        "followers_url": "https://api.github.com/users/MarcoFalke/followers",
        "following_url": "https://api.github.com/users/MarcoFalke/following%7B/other_user%7D",
        "gists_url": "https://api.github.com/users/MarcoFalke/gists%7B/gist_id%7D",
        "starred_url": "https://api.github.com/users/MarcoFalke/starred%7B/owner%7D%7B/repo%7D",
        "subscriptions_url": "https://api.github.com/users/MarcoFalke/subscriptions",
        "organizations_url": "https://api.github.com/users/MarcoFalke/orgs",
        "repos_url": "https://api.github.com/users/MarcoFalke/repos",
        "events_url": "https://api.github.com/users/MarcoFalke/events%7B/privacy%7D",
        "received_events_url": "https://api.github.com/users/MarcoFalke/received_events",
        "type": "User",
        "site_admin": false
      },
      "commit_id": null,
      "commit_url": null,
      "created_at": "2023-01-04T11:23:51Z"
    },
    {
      "event": "commented",
      "id": 1370804534,
      "node_id": "IC_kwDOABII585RtNE2",
      "url": "https://api.github.com/repos/bitcoin/bitcoin/issues/comments/1370804534",
      "actor": {
        "login": "MarcoFalke",
        "id": 6399679,
        "node_id": "MDQ6VXNlcjYzOTk2Nzk=",
        "avatar_url": "https://avatars.githubusercontent.com/u/6399679?v=4",
        "gravatar_id": "",
        "url": "https://api.github.com/users/MarcoFalke",
        "html_url": "https://github.com/MarcoFalke",
        "followers_url": "https://api.github.com/users/MarcoFalke/followers",
        "following_url": "https://api.github.com/users/MarcoFalke/following%7B/other_user%7D",
        "gists_url": "https://api.github.com/users/MarcoFalke/gists%7B/gist_id%7D",
        "starred_url": "https://api.github.com/users/MarcoFalke/starred%7B/owner%7D%7B/repo%7D",
        "subscriptions_url": "https://api.github.com/users/MarcoFalke/subscriptions",
        "organizations_url": "https://api.github.com/users/MarcoFalke/orgs",
        "repos_url": "https://api.github.com/users/MarcoFalke/repos",
        "events_url": "https://api.github.com/users/MarcoFalke/events%7B/privacy%7D",
        "received_events_url": "https://api.github.com/users/MarcoFalke/received_events",
        "type": "User",
        "site_admin": false
      },
      "commit_id": null,
      "commit_url": null,
      "created_at": "2023-01-04T11:25:12Z",
      "updated_at": "2023-01-04T11:25:12Z",
      "author_association": "MEMBER",
      "body": "Reproduced: https://drahtbot.space/temp_scratch/p2p_filter.tar.xz\r\n\r\n\r\n```\r\n test  2022-12-30T09:33:49.167000Z TestFramework (ERROR): Assertion failed \r\n                                   Traceback (most recent call last):\r\n                                     File \"/bitcoin-core/ci/scratch/build/bitcoin-x86_64-pc-linux-gnu/test/functional/test_framework/test_framework.py\", line 134, in main\r\n                                       self.run_test()\r\n                                     File \"/bitcoin-core/ci/scratch/build/bitcoin-x86_64-pc-linux-gnu/test/functional/p2p_filter.py\", line 240, in run_test\r\n                                       self.test_filter(filter_peer_without_nrelay)\r\n                                     File \"/bitcoin-core/ci/scratch/build/bitcoin-x86_64-pc-linux-gnu/test/functional/p2p_filter.py\", line 204, in test_filter\r\n                                       assert not filter_peer.tx_received\r\n                                   AssertionError\r\n",
      "user": {
        "login": "MarcoFalke",
        "id": 6399679,
        "node_id": "MDQ6VXNlcjYzOTk2Nzk=",
        "avatar_url": "https://avatars.githubusercontent.com/u/6399679?v=4",
        "gravatar_id": "",
        "url": "https://api.github.com/users/MarcoFalke",
        "html_url": "https://github.com/MarcoFalke",
        "followers_url": "https://api.github.com/users/MarcoFalke/followers",
        "following_url": "https://api.github.com/users/MarcoFalke/following%7B/other_user%7D",
        "gists_url": "https://api.github.com/users/MarcoFalke/gists%7B/gist_id%7D",
        "starred_url": "https://api.github.com/users/MarcoFalke/starred%7B/owner%7D%7B/repo%7D",
        "subscriptions_url": "https://api.github.com/users/MarcoFalke/subscriptions",
        "organizations_url": "https://api.github.com/users/MarcoFalke/orgs",
        "repos_url": "https://api.github.com/users/MarcoFalke/repos",
        "events_url": "https://api.github.com/users/MarcoFalke/events%7B/privacy%7D",
        "received_events_url": "https://api.github.com/users/MarcoFalke/received_events",
        "type": "User",
        "site_admin": false
      },
      "html_url": "https://github.com/bitcoin/bitcoin/issues/25128#issuecomment-1370804534",
      "issue_url": "https://api.github.com/repos/bitcoin/bitcoin/issues/25128"
    },
    {
      "event": "commented",
      "id": 1370847079,
      "node_id": "IC_kwDOABII585RtXdn",
      "url": "https://api.github.com/repos/bitcoin/bitcoin/issues/comments/1370847079",
      "actor": {
        "login": "MarcoFalke",
        "id": 6399679,
        "node_id": "MDQ6VXNlcjYzOTk2Nzk=",
        "avatar_url": "https://avatars.githubusercontent.com/u/6399679?v=4",
        "gravatar_id": "",
        "url": "https://api.github.com/users/MarcoFalke",
        "html_url": "https://github.com/MarcoFalke",
        "followers_url": "https://api.github.com/users/MarcoFalke/followers",
        "following_url": "https://api.github.com/users/MarcoFalke/following%7B/other_user%7D",
        "gists_url": "https://api.github.com/users/MarcoFalke/gists%7B/gist_id%7D",
        "starred_url": "https://api.github.com/users/MarcoFalke/starred%7B/owner%7D%7B/repo%7D",
        "subscriptions_url": "https://api.github.com/users/MarcoFalke/subscriptions",
        "organizations_url": "https://api.github.com/users/MarcoFalke/orgs",
        "repos_url": "https://api.github.com/users/MarcoFalke/repos",
        "events_url": "https://api.github.com/users/MarcoFalke/events%7B/privacy%7D",
        "received_events_url": "https://api.github.com/users/MarcoFalke/received_events",
        "type": "User",
        "site_admin": false
      },
      "commit_id": null,
      "commit_url": null,
      "created_at": "2023-01-04T12:06:18Z",
      "updated_at": "2023-01-04T12:06:18Z",
      "author_association": "MEMBER",
      "body": "I still don't understand how this can happen.\r\n\r\non_message takes the p2p_lock to update last_message and call on_msgtype under the same lock:\r\n\r\nhttps://github.com/bitcoin/bitcoin/blob/2ec97825e70882262ee2b7d53dc1def788a60162/test/functional/test_framework/p2p.py#L377-L390\r\n\r\nThe wait should also take the p2p_lock internally: https://github.com/bitcoin/bitcoin/blob/2ec97825e70882262ee2b7d53dc1def788a60162/test/functional/p2p_filter.py#L194\r\n\r\nThe tx_received property is also guarded by the p2p_lock: https://github.com/bitcoin/bitcoin/blob/2ec97825e70882262ee2b7d53dc1def788a60162/test/functional/p2p_filter.py#L69-L80\r\n\r\nAs I fail to see how the lock is release in between, tx_received and last_message *should* be updated in one go. So the wait *should* only succeed if tx_received was also updated.\r\n\r\nHowever, from the log it looks like the p2p_lock was intermittently released in the on_message function??\r\n\r\n```\r\n test  2022-12-30T09:33:48.464000Z TestFramework (INFO): Check that request for filtered blocks is ignored if no filter is set \r\n test  2022-12-30T09:33:48.288000Z TestFramework.p2p (DEBUG): Received message from 127.0.0.1:12488: msg_tx(tx=CTransaction(nVersion=2 vin=[CTxIn(prevout=COutPoint(hash=17576cfafe2ea026d9ab00f6082fe7cc81caf31f5060a1872693f5bf73bf6b11 n=0) scriptSig= nSequence=0)] vout=[CTxOut(nValue=42.99999000 scriptPubKey=51202913b252fe537830f843bfdc5fa7d20ba48639a87c86ff837b92d083c55ad7c1), CTxOut(nValue=7.00000000 scriptPubKey=512009f79ded0947576f92dc6be2a39c6e083bf6d239574d9b0d47226c1813d52539)] wit=CTxWitness(CScriptWitness(51,c00000000000000000000000000000000000000000000000000000000000000001)) nLockTime=... (msg truncated) \r\n",
      "user": {
        "login": "MarcoFalke",
        "id": 6399679,
        "node_id": "MDQ6VXNlcjYzOTk2Nzk=",
        "avatar_url": "https://avatars.githubusercontent.com/u/6399679?v=4",
        "gravatar_id": "",
        "url": "https://api.github.com/users/MarcoFalke",
        "html_url": "https://github.com/MarcoFalke",
        "followers_url": "https://api.github.com/users/MarcoFalke/followers",
        "following_url": "https://api.github.com/users/MarcoFalke/following%7B/other_user%7D",
        "gists_url": "https://api.github.com/users/MarcoFalke/gists%7B/gist_id%7D",
        "starred_url": "https://api.github.com/users/MarcoFalke/starred%7B/owner%7D%7B/repo%7D",
        "subscriptions_url": "https://api.github.com/users/MarcoFalke/subscriptions",
        "organizations_url": "https://api.github.com/users/MarcoFalke/orgs",
        "repos_url": "https://api.github.com/users/MarcoFalke/repos",
        "events_url": "https://api.github.com/users/MarcoFalke/events%7B/privacy%7D",
        "received_events_url": "https://api.github.com/users/MarcoFalke/received_events",
        "type": "User",
        "site_admin": false
      },
      "html_url": "https://github.com/bitcoin/bitcoin/issues/25128#issuecomment-1370847079",
      "issue_url": "https://api.github.com/repos/bitcoin/bitcoin/issues/25128"
    },
    {
      "event": "commented",
      "id": 1408694762,
      "node_id": "IC_kwDOABII585T9vnq",
      "url": "https://api.github.com/repos/bitcoin/bitcoin/issues/comments/1408694762",
      "actor": {
        "login": "MarcoFalke",
        "id": 6399679,
        "node_id": "MDQ6VXNlcjYzOTk2Nzk=",
        "avatar_url": "https://avatars.githubusercontent.com/u/6399679?v=4",
        "gravatar_id": "",
        "url": "https://api.github.com/users/MarcoFalke",
        "html_url": "https://github.com/MarcoFalke",
        "followers_url": "https://api.github.com/users/MarcoFalke/followers",
        "following_url": "https://api.github.com/users/MarcoFalke/following%7B/other_user%7D",
        "gists_url": "https://api.github.com/users/MarcoFalke/gists%7B/gist_id%7D",
        "starred_url": "https://api.github.com/users/MarcoFalke/starred%7B/owner%7D%7B/repo%7D",
        "subscriptions_url": "https://api.github.com/users/MarcoFalke/subscriptions",
        "organizations_url": "https://api.github.com/users/MarcoFalke/orgs",
        "repos_url": "https://api.github.com/users/MarcoFalke/repos",
        "events_url": "https://api.github.com/users/MarcoFalke/events%7B/privacy%7D",
        "received_events_url": "https://api.github.com/users/MarcoFalke/received_events",
        "type": "User",
        "site_admin": false
      },
      "commit_id": null,
      "commit_url": null,
      "created_at": "2023-01-30T14:12:08Z",
      "updated_at": "2023-01-30T14:12:08Z",
      "author_association": "MEMBER",
      "body": "https://cirrus-ci.com/task/6016550344327168?logs=ci#L4478",
      "user": {
        "login": "MarcoFalke",
        "id": 6399679,
        "node_id": "MDQ6VXNlcjYzOTk2Nzk=",
        "avatar_url": "https://avatars.githubusercontent.com/u/6399679?v=4",
        "gravatar_id": "",
        "url": "https://api.github.com/users/MarcoFalke",
        "html_url": "https://github.com/MarcoFalke",
        "followers_url": "https://api.github.com/users/MarcoFalke/followers",
        "following_url": "https://api.github.com/users/MarcoFalke/following%7B/other_user%7D",
        "gists_url": "https://api.github.com/users/MarcoFalke/gists%7B/gist_id%7D",
        "starred_url": "https://api.github.com/users/MarcoFalke/starred%7B/owner%7D%7B/repo%7D",
        "subscriptions_url": "https://api.github.com/users/MarcoFalke/subscriptions",
        "organizations_url": "https://api.github.com/users/MarcoFalke/orgs",
        "repos_url": "https://api.github.com/users/MarcoFalke/repos",
        "events_url": "https://api.github.com/users/MarcoFalke/events%7B/privacy%7D",
        "received_events_url": "https://api.github.com/users/MarcoFalke/received_events",
        "type": "User",
        "site_admin": false
      },
      "html_url": "https://github.com/bitcoin/bitcoin/issues/25128#issuecomment-1408694762",
      "issue_url": "https://api.github.com/repos/bitcoin/bitcoin/issues/25128"
    }
  ]
}