{
  "type": "issue",
  "issue": {
    "id": 1376219389,
    "node_id": "I_kwDOABII585SB3D9",
    "url": "https://api.github.com/repos/bitcoin/bitcoin/issues/26112",
    "repository_url": "https://api.github.com/repos/bitcoin/bitcoin",
    "labels_url": "https://api.github.com/repos/bitcoin/bitcoin/issues/26112/labels%7B/name%7D",
    "comments_url": "https://api.github.com/repos/bitcoin/bitcoin/issues/26112/comments",
    "events_url": "https://api.github.com/repos/bitcoin/bitcoin/issues/26112/events",
    "html_url": "https://github.com/bitcoin/bitcoin/issues/26112",
    "number": 26112,
    "state": "closed",
    "state_reason": "completed",
    "title": "Running out of disk space can leave bitcoin in a desynced state",
    "body": "I noticed my node was not syncing, and through some debugging on #bitcoin-core-dev it seems like it was caused by running out of disk space which left the node in a desynced state, with the valid chain marked as invalid.\r\n\r\nAfter freeing up some space and doing `reconsiderblock` it fixed it.\r\n\r\nComments from @sipa:\r\n\r\n> Ugh. That is bad. Out of disk space should not result in database corruption.\r\n\r\n> Database errors propagating up and being interpreted as (permanent) block invalidity was one of the contributing factors to the BDB/LevelDB fork in the 0.7/0.8 transition. \r\n\r\nlogs:\r\n```\r\n2022-09-05T00:28:55Z UpdateTip: new best=000000000000000000087e337539b369b19570a88c493725020266387d22dac0 height=752167 version=0x2ce8e004 log2_work=93.70770\r\n7 tx=761139817 date='2022-09-01T15:00:06Z' progress=0.998887 cache=146.8MiB(1101860txo)\r\n2022-09-05T00:28:55Z Fatal LevelDB error: IO error: /home/jb55/.bitcoin/chainstate/2963623.ldb: No space left on device\r\n2022-09-05T00:28:55Z You can use -debug=leveldb to get more complete diagnostic messages\r\n2022-09-05T00:28:55Z *** System error while flushing: Fatal LevelDB error: IO error: /home/jb55/.bitcoin/chainstate/2963623.ldb: No space left on device\r\n2022-09-05T00:28:55Z Error: A fatal internal error occurred, see debug.log for details\r\n2022-09-05T00:28:56Z ERROR: ProcessNewBlock: ActivateBestChain failed (System error while flushing: Fatal LevelDB error: IO error: /home/jb55/.bitcoin/chains\r\ntate/2963623.ldb: No space left on device)\r\n2022-09-05T00:28:56Z ERROR: ConnectBlock: Consensus::CheckTxInputs: 221fa678c5c9953d6cd17e584f05c12ab10ba0f2fc8e8131e266f3f0e9819848, bad-txns-inputs-missing\r\norspent, CheckTxInputs: inputs missing/spent\r\n2022-09-05T00:28:56Z InvalidChainFound: invalid block=000000000000000000079ba062298aa7cef1888f870c23e303a361c19b097ff8  height=752168  log2_work=93.707719  date=2022-09-01T15:13:42Z\r\n2022-09-05T00:28:56Z InvalidChainFound:  current best=000000000000000000087e337539b369b19570a88c493725020266387d22dac0  height=752167  log2_work=93.707707  date=2022-09-01T15:00:06Z\r\n2022-09-05T00:28:56Z ERROR: ConnectTip: ConnectBlock 000000000000000000079ba062298aa7cef1888f870c23e303a361c19b097ff8 failed, bad-txns-inputs-missingorspent, CheckTxInputs: inputs missing/spent\r\n2022-09-05T00:28:56Z InvalidChainFound: invalid block=000000000000000000079ba062298aa7cef1888f870c23e303a361c19b097ff8  height=752168  log2_work=93.707719  date=2022-09-01T15:13:42Z\r\n2022-09-05T00:28:56Z InvalidChainFound:  current best=000000000000000000087e337539b369b19570a88c493725020266387d22dac0  height=752167  log2_work=93.707707  date=2022-09-01T15:00:06Z\r\n```\r\n",
    "user": {
      "login": "jb55",
      "id": 45598,
      "node_id": "MDQ6VXNlcjQ1NTk4",
      "avatar_url": "https://avatars.githubusercontent.com/u/45598?v=4",
      "gravatar_id": "",
      "url": "https://api.github.com/users/jb55",
      "html_url": "https://github.com/jb55",
      "followers_url": "https://api.github.com/users/jb55/followers",
      "following_url": "https://api.github.com/users/jb55/following%7B/other_user%7D",
      "gists_url": "https://api.github.com/users/jb55/gists%7B/gist_id%7D",
      "starred_url": "https://api.github.com/users/jb55/starred%7B/owner%7D%7B/repo%7D",
      "subscriptions_url": "https://api.github.com/users/jb55/subscriptions",
      "organizations_url": "https://api.github.com/users/jb55/orgs",
      "repos_url": "https://api.github.com/users/jb55/repos",
      "events_url": "https://api.github.com/users/jb55/events%7B/privacy%7D",
      "received_events_url": "https://api.github.com/users/jb55/received_events",
      "type": "User",
      "site_admin": false
    },
    "labels": [
      {
        "id": 64585,
        "node_id": "MDU6TGFiZWw2NDU4NQ==",
        "url": "https://api.github.com/repos/bitcoin/bitcoin/labels/Bug",
        "name": "Bug",
        "color": "FBBAAB",
        "default": false
      },
      {
        "id": 97470796,
        "node_id": "MDU6TGFiZWw5NzQ3MDc5Ng==",
        "url": "https://api.github.com/repos/bitcoin/bitcoin/labels/UTXO%20Db%20and%20Indexes",
        "name": "UTXO Db and Indexes",
        "color": "fbca04",
        "default": false
      }
    ],
    "assignees": [],
    "author_association": "CONTRIBUTOR",
    "locked": false,
    "comments": 5,
    "closed_at": "2023-10-09T18:52:21Z",
    "created_at": "2022-09-16T17:27:26Z",
    "updated_at": "2023-10-11T04:32:13Z"
  },
  "events": [
    {
      "event": "labeled",
      "id": 7404877337,
      "node_id": "LE_lADOABII585SB3D9zwAAAAG5XXYZ",
      "url": "https://api.github.com/repos/bitcoin/bitcoin/issues/events/7404877337",
      "actor": {
        "login": "jb55",
        "id": 45598,
        "node_id": "MDQ6VXNlcjQ1NTk4",
        "avatar_url": "https://avatars.githubusercontent.com/u/45598?v=4",
        "gravatar_id": "",
        "url": "https://api.github.com/users/jb55",
        "html_url": "https://github.com/jb55",
        "followers_url": "https://api.github.com/users/jb55/followers",
        "following_url": "https://api.github.com/users/jb55/following%7B/other_user%7D",
        "gists_url": "https://api.github.com/users/jb55/gists%7B/gist_id%7D",
        "starred_url": "https://api.github.com/users/jb55/starred%7B/owner%7D%7B/repo%7D",
        "subscriptions_url": "https://api.github.com/users/jb55/subscriptions",
        "organizations_url": "https://api.github.com/users/jb55/orgs",
        "repos_url": "https://api.github.com/users/jb55/repos",
        "events_url": "https://api.github.com/users/jb55/events%7B/privacy%7D",
        "received_events_url": "https://api.github.com/users/jb55/received_events",
        "type": "User",
        "site_admin": false
      },
      "commit_id": null,
      "commit_url": null,
      "created_at": "2022-09-16T17:27:26Z",
      "label": {
        "name": "Bug",
        "color": "FBBAAB"
      }
    },
    {
      "event": "mentioned",
      "id": 7404877348,
      "node_id": "MEE_lADOABII585SB3D9zwAAAAG5XXYk",
      "url": "https://api.github.com/repos/bitcoin/bitcoin/issues/events/7404877348",
      "actor": {
        "login": "sipa",
        "id": 548488,
        "node_id": "MDQ6VXNlcjU0ODQ4OA==",
        "avatar_url": "https://avatars.githubusercontent.com/u/548488?v=4",
        "gravatar_id": "",
        "url": "https://api.github.com/users/sipa",
        "html_url": "https://github.com/sipa",
        "followers_url": "https://api.github.com/users/sipa/followers",
        "following_url": "https://api.github.com/users/sipa/following%7B/other_user%7D",
        "gists_url": "https://api.github.com/users/sipa/gists%7B/gist_id%7D",
        "starred_url": "https://api.github.com/users/sipa/starred%7B/owner%7D%7B/repo%7D",
        "subscriptions_url": "https://api.github.com/users/sipa/subscriptions",
        "organizations_url": "https://api.github.com/users/sipa/orgs",
        "repos_url": "https://api.github.com/users/sipa/repos",
        "events_url": "https://api.github.com/users/sipa/events%7B/privacy%7D",
        "received_events_url": "https://api.github.com/users/sipa/received_events",
        "type": "User",
        "site_admin": false
      },
      "commit_id": null,
      "commit_url": null,
      "created_at": "2022-09-16T17:27:26Z"
    },
    {
      "event": "subscribed",
      "id": 7404877355,
      "node_id": "SE_lADOABII585SB3D9zwAAAAG5XXYr",
      "url": "https://api.github.com/repos/bitcoin/bitcoin/issues/events/7404877355",
      "actor": {
        "login": "sipa",
        "id": 548488,
        "node_id": "MDQ6VXNlcjU0ODQ4OA==",
        "avatar_url": "https://avatars.githubusercontent.com/u/548488?v=4",
        "gravatar_id": "",
        "url": "https://api.github.com/users/sipa",
        "html_url": "https://github.com/sipa",
        "followers_url": "https://api.github.com/users/sipa/followers",
        "following_url": "https://api.github.com/users/sipa/following%7B/other_user%7D",
        "gists_url": "https://api.github.com/users/sipa/gists%7B/gist_id%7D",
        "starred_url": "https://api.github.com/users/sipa/starred%7B/owner%7D%7B/repo%7D",
        "subscriptions_url": "https://api.github.com/users/sipa/subscriptions",
        "organizations_url": "https://api.github.com/users/sipa/orgs",
        "repos_url": "https://api.github.com/users/sipa/repos",
        "events_url": "https://api.github.com/users/sipa/events%7B/privacy%7D",
        "received_events_url": "https://api.github.com/users/sipa/received_events",
        "type": "User",
        "site_admin": false
      },
      "commit_id": null,
      "commit_url": null,
      "created_at": "2022-09-16T17:27:26Z"
    },
    {
      "event": "milestoned",
      "id": 7404890174,
      "node_id": "MIE_lADOABII585SB3D9zwAAAAG5Xag-",
      "url": "https://api.github.com/repos/bitcoin/bitcoin/issues/events/7404890174",
      "actor": {
        "login": "fanquake",
        "id": 863730,
        "node_id": "MDQ6VXNlcjg2MzczMA==",
        "avatar_url": "https://avatars.githubusercontent.com/u/863730?v=4",
        "gravatar_id": "",
        "url": "https://api.github.com/users/fanquake",
        "html_url": "https://github.com/fanquake",
        "followers_url": "https://api.github.com/users/fanquake/followers",
        "following_url": "https://api.github.com/users/fanquake/following%7B/other_user%7D",
        "gists_url": "https://api.github.com/users/fanquake/gists%7B/gist_id%7D",
        "starred_url": "https://api.github.com/users/fanquake/starred%7B/owner%7D%7B/repo%7D",
        "subscriptions_url": "https://api.github.com/users/fanquake/subscriptions",
        "organizations_url": "https://api.github.com/users/fanquake/orgs",
        "repos_url": "https://api.github.com/users/fanquake/repos",
        "events_url": "https://api.github.com/users/fanquake/events%7B/privacy%7D",
        "received_events_url": "https://api.github.com/users/fanquake/received_events",
        "type": "User",
        "site_admin": false
      },
      "commit_id": null,
      "commit_url": null,
      "created_at": "2022-09-16T17:29:49Z",
      "milestone": {
        "title": "24.0"
      }
    },
    {
      "event": "commented",
      "id": 1249641810,
      "node_id": "IC_kwDOABII585KfAVS",
      "url": "https://api.github.com/repos/bitcoin/bitcoin/issues/comments/1249641810",
      "actor": {
        "login": "sipa",
        "id": 548488,
        "node_id": "MDQ6VXNlcjU0ODQ4OA==",
        "avatar_url": "https://avatars.githubusercontent.com/u/548488?v=4",
        "gravatar_id": "",
        "url": "https://api.github.com/users/sipa",
        "html_url": "https://github.com/sipa",
        "followers_url": "https://api.github.com/users/sipa/followers",
        "following_url": "https://api.github.com/users/sipa/following%7B/other_user%7D",
        "gists_url": "https://api.github.com/users/sipa/gists%7B/gist_id%7D",
        "starred_url": "https://api.github.com/users/sipa/starred%7B/owner%7D%7B/repo%7D",
        "subscriptions_url": "https://api.github.com/users/sipa/subscriptions",
        "organizations_url": "https://api.github.com/users/sipa/orgs",
        "repos_url": "https://api.github.com/users/sipa/repos",
        "events_url": "https://api.github.com/users/sipa/events%7B/privacy%7D",
        "received_events_url": "https://api.github.com/users/sipa/received_events",
        "type": "User",
        "site_admin": false
      },
      "commit_id": null,
      "commit_url": null,
      "created_at": "2022-09-16T17:50:50Z",
      "updated_at": "2022-09-16T17:50:50Z",
      "author_association": "MEMBER",
      "body": "So it appears that this was triggered by LevelDB failing to write to disk.\r\n\r\nSome questions:\r\n* Why didn't our own disk space check detect this long before it happened? @jb55 was anything else quickly filling your disk at the same time, which could cause our own check to not being frequent enough?\r\n* Did Bitcoin Core shut down after this happened?\r\n\r\nBased on your comments on IRC, it seems that normal restarting didn't fix the problem. So that suggests that while there was some LevelDB error... Bitcoin Core still managed to (incorrectly) write to disk that the block was invalid. It shouldn't conclude that in the first place, but it's somewhat strange that even after a system error it still managed to actually commit that to disk.",
      "user": {
        "login": "sipa",
        "id": 548488,
        "node_id": "MDQ6VXNlcjU0ODQ4OA==",
        "avatar_url": "https://avatars.githubusercontent.com/u/548488?v=4",
        "gravatar_id": "",
        "url": "https://api.github.com/users/sipa",
        "html_url": "https://github.com/sipa",
        "followers_url": "https://api.github.com/users/sipa/followers",
        "following_url": "https://api.github.com/users/sipa/following%7B/other_user%7D",
        "gists_url": "https://api.github.com/users/sipa/gists%7B/gist_id%7D",
        "starred_url": "https://api.github.com/users/sipa/starred%7B/owner%7D%7B/repo%7D",
        "subscriptions_url": "https://api.github.com/users/sipa/subscriptions",
        "organizations_url": "https://api.github.com/users/sipa/orgs",
        "repos_url": "https://api.github.com/users/sipa/repos",
        "events_url": "https://api.github.com/users/sipa/events%7B/privacy%7D",
        "received_events_url": "https://api.github.com/users/sipa/received_events",
        "type": "User",
        "site_admin": false
      },
      "html_url": "https://github.com/bitcoin/bitcoin/issues/26112#issuecomment-1249641810",
      "issue_url": "https://api.github.com/repos/bitcoin/bitcoin/issues/26112"
    },
    {
      "event": "mentioned",
      "id": 7405053639,
      "node_id": "MEE_lADOABII585SB3D9zwAAAAG5YCbH",
      "url": "https://api.github.com/repos/bitcoin/bitcoin/issues/events/7405053639",
      "actor": {
        "login": "jb55",
        "id": 45598,
        "node_id": "MDQ6VXNlcjQ1NTk4",
        "avatar_url": "https://avatars.githubusercontent.com/u/45598?v=4",
        "gravatar_id": "",
        "url": "https://api.github.com/users/jb55",
        "html_url": "https://github.com/jb55",
        "followers_url": "https://api.github.com/users/jb55/followers",
        "following_url": "https://api.github.com/users/jb55/following%7B/other_user%7D",
        "gists_url": "https://api.github.com/users/jb55/gists%7B/gist_id%7D",
        "starred_url": "https://api.github.com/users/jb55/starred%7B/owner%7D%7B/repo%7D",
        "subscriptions_url": "https://api.github.com/users/jb55/subscriptions",
        "organizations_url": "https://api.github.com/users/jb55/orgs",
        "repos_url": "https://api.github.com/users/jb55/repos",
        "events_url": "https://api.github.com/users/jb55/events%7B/privacy%7D",
        "received_events_url": "https://api.github.com/users/jb55/received_events",
        "type": "User",
        "site_admin": false
      },
      "commit_id": null,
      "commit_url": null,
      "created_at": "2022-09-16T17:50:50Z"
    },
    {
      "event": "subscribed",
      "id": 7405053647,
      "node_id": "SE_lADOABII585SB3D9zwAAAAG5YCbP",
      "url": "https://api.github.com/repos/bitcoin/bitcoin/issues/events/7405053647",
      "actor": {
        "login": "jb55",
        "id": 45598,
        "node_id": "MDQ6VXNlcjQ1NTk4",
        "avatar_url": "https://avatars.githubusercontent.com/u/45598?v=4",
        "gravatar_id": "",
        "url": "https://api.github.com/users/jb55",
        "html_url": "https://github.com/jb55",
        "followers_url": "https://api.github.com/users/jb55/followers",
        "following_url": "https://api.github.com/users/jb55/following%7B/other_user%7D",
        "gists_url": "https://api.github.com/users/jb55/gists%7B/gist_id%7D",
        "starred_url": "https://api.github.com/users/jb55/starred%7B/owner%7D%7B/repo%7D",
        "subscriptions_url": "https://api.github.com/users/jb55/subscriptions",
        "organizations_url": "https://api.github.com/users/jb55/orgs",
        "repos_url": "https://api.github.com/users/jb55/repos",
        "events_url": "https://api.github.com/users/jb55/events%7B/privacy%7D",
        "received_events_url": "https://api.github.com/users/jb55/received_events",
        "type": "User",
        "site_admin": false
      },
      "commit_id": null,
      "commit_url": null,
      "created_at": "2022-09-16T17:50:50Z"
    },
    {
      "event": "commented",
      "id": 1249647168,
      "node_id": "IC_kwDOABII585KfBpA",
      "url": "https://api.github.com/repos/bitcoin/bitcoin/issues/comments/1249647168",
      "actor": {
        "login": "jb55",
        "id": 45598,
        "node_id": "MDQ6VXNlcjQ1NTk4",
        "avatar_url": "https://avatars.githubusercontent.com/u/45598?v=4",
        "gravatar_id": "",
        "url": "https://api.github.com/users/jb55",
        "html_url": "https://github.com/jb55",
        "followers_url": "https://api.github.com/users/jb55/followers",
        "following_url": "https://api.github.com/users/jb55/following%7B/other_user%7D",
        "gists_url": "https://api.github.com/users/jb55/gists%7B/gist_id%7D",
        "starred_url": "https://api.github.com/users/jb55/starred%7B/owner%7D%7B/repo%7D",
        "subscriptions_url": "https://api.github.com/users/jb55/subscriptions",
        "organizations_url": "https://api.github.com/users/jb55/orgs",
        "repos_url": "https://api.github.com/users/jb55/repos",
        "events_url": "https://api.github.com/users/jb55/events%7B/privacy%7D",
        "received_events_url": "https://api.github.com/users/jb55/received_events",
        "type": "User",
        "site_admin": false
      },
      "commit_id": null,
      "commit_url": null,
      "created_at": "2022-09-16T17:56:11Z",
      "updated_at": "2022-09-16T17:56:11Z",
      "author_association": "CONTRIBUTOR",
      "body": "> Why didn't our own disk space check detect this long before it happened? @jb55 was anything else quickly filling your disk at the same time, which could cause our own check to not being frequent enough?\r\n\r\nyes this is very possible, I run nixos and frequently use nix-shell, etc which downloads things and fills up my disk pretty quickly.\r\n\r\n> Did Bitcoin Core shut down after this happened?\r\n\r\nyes, here's the full log:\r\n\r\n```\r\n2022-09-05T00:28:55Z UpdateTip: new best=000000000000000000087e337539b369b19570a88c493725020266387d22dac0 height=752167 version=0x2ce8e004 log2_work=93.70770\r\n7 tx=761139817 date='2022-09-01T15:00:06Z' progress=0.998887 cache=146.8MiB(1101860txo)\r\n2022-09-05T00:28:55Z Fatal LevelDB error: IO error: /home/jb55/.bitcoin/chainstate/2963623.ldb: No space left on device\r\n2022-09-05T00:28:55Z You can use -debug=leveldb to get more complete diagnostic messages\r\n2022-09-05T00:28:55Z *** System error while flushing: Fatal LevelDB error: IO error: /home/jb55/.bitcoin/chainstate/2963623.ldb: No space left on device\r\n2022-09-05T00:28:55Z Error: A fatal internal error occurred, see debug.log for details\r\n2022-09-05T00:28:56Z ERROR: ProcessNewBlock: ActivateBestChain failed (System error while flushing: Fatal LevelDB error: IO error: /home/jb55/.bitcoin/chains\r\ntate/2963623.ldb: No space left on device)\r\n2022-09-05T00:28:56Z ERROR: ConnectBlock: Consensus::CheckTxInputs: 221fa678c5c9953d6cd17e584f05c12ab10ba0f2fc8e8131e266f3f0e9819848, bad-txns-inputs-missing\r\norspent, CheckTxInputs: inputs missing/spent\r\n2022-09-05T00:28:56Z InvalidChainFound: invalid block=000000000000000000079ba062298aa7cef1888f870c23e303a361c19b097ff8  height=752168  log2_work=93.707719  date=2022-09-01T15:13:42Z\r\n2022-09-05T00:28:56Z InvalidChainFound:  current best=000000000000000000087e337539b369b19570a88c493725020266387d22dac0  height=752167  log2_work=93.707707  date=2022-09-01T15:00:06Z\r\n2022-09-05T00:28:56Z ERROR: ConnectTip: ConnectBlock 000000000000000000079ba062298aa7cef1888f870c23e303a361c19b097ff8 failed, bad-txns-inputs-missingorspent, CheckTxInputs: inputs missing/spent\r\n2022-09-05T00:28:56Z InvalidChainFound: invalid block=000000000000000000079ba062298aa7cef1888f870c23e303a361c19b097ff8  height=752168  log2_work=93.707719  date=2022-09-01T15:13:42Z\r\norspent, CheckTxInputs: inputs missing/spent\r\n2022-09-05T00:28:57Z ERROR: ProcessNewBlock: ActivateBestChain failed (System error while flushing: Fatal LevelDB error: IO error: /home/jb55/.bitcoin/chainstate/2963623.ldb: No space left on device)\r\n2022-09-05T00:28:57Z msghand thread exit\r\n2022-09-05T00:28:57Z DumpAnchors: Flush 0 outbound block-relay-only peer addresses to anchors.dat started\r\n CheckTxInputs: inputs missing/spent\r\n2022-09-05T00:28:56Z InvalidChainFound: invalid block=000000000000000000079ba062298aa7cef1888f870c23e303a361c19b097ff8  height=752168  log2_work=93.707719  date=2022-09-01T15:13:42Z\r\n2022-09-05T00:28:56Z InvalidChainFound:  current best=000000000000000000087e337539b369b19570a88c493725020266387d22dac0  height=752167  log2_work=93.707707  date=2022-09-01T15:00:06Z\r\n2022-09-05T00:28:57Z tor: Thread interrupt\r\n2022-09-05T00:28:57Z torcontrol thread exit\r\n2022-09-05T00:28:57Z opencon thread exit\r\n2022-09-05T00:28:57Z addcon thread exit\r\n2022-09-05T00:28:57Z Shutdown: In progress...\r\n2022-09-05T00:28:57Z net thread exit\r\n2022-09-05T00:28:57Z Fatal LevelDB error: IO error: /home/jb55/.bitcoin/chainstate/2963623.ldb: No space left on device\r\n2022-09-05T00:28:57Z You can use -debug=leveldb to get more complete diagnostic messages\r\n2022-09-05T00:28:57Z *** System error while flushing: Fatal LevelDB error: IO error: /home/jb55/.bitcoin/chainstate/2963623.ldb: No space left on device\r\n2022-09-05T00:28:57Z Error: A fatal internal error occurred, see debug.log for details\r\n2022-09-05T00:28:57Z ERROR: ProcessNewBlock: ActivateBestChain failed (System error while flushing: Fatal LevelDB error: IO error: /home/jb55/.bitcoin/chains\r\ntate/2963623.ldb: No space left on device)\r\n2022-09-05T00:28:57Z msghand thread exit\r\n2022-09-05T00:28:57Z DumpAnchors: Flush 0 outbound block-relay-only peer addresses to anchors.dat started\r\n2022-09-05T00:28:57Z DumpAnchors: Flush 0 outbound block-relay-only peer addresses to anchors.dat completed (0.00s)\r\n2022-09-05T00:28:57Z scheduler thread exit\r\n2022-09-05T00:28:57Z Writing 0 unbroadcast transactions to disk.\r\n2022-09-05T00:28:57Z Dumped mempool: 0.001682s to copy, 0.015307s to dump\r\n2022-09-05T00:28:57Z Fatal LevelDB error: IO error: /home/jb55/.bitcoin/chainstate/2963623.ldb: No space left on device\r\n2022-09-05T00:28:57Z You can use -debug=leveldb to get more complete diagnostic messages\r\n2022-09-05T00:28:57Z *** System error while flushing: Fatal LevelDB error: IO error: /home/jb55/.bitcoin/chainstate/2963623.ldb: No space left on device\r\n2022-09-05T00:28:57Z Error: A fatal internal error occurred, see debug.log for details\r\n2022-09-05T00:28:57Z ForceFlushStateToDisk: failed to flush state (System error while flushing: Fatal LevelDB error: IO error: /home/jb55/.bitcoin/chainstate/2963623.ldb: No space left on device)\r\n2022-09-05T00:28:57Z Fatal LevelDB error: IO error: /home/jb55/.bitcoin/chainstate/2963623.ldb: No space left on device\r\n2022-09-05T00:28:57Z You can use -debug=leveldb to get more complete diagnostic messages\r\n2022-09-05T00:28:57Z *** System error while flushing: Fatal LevelDB error: IO error: /home/jb55/.bitcoin/chainstate/2963623.ldb: No space left on device\r\n2022-09-05T00:28:57Z Error: A fatal internal error occurred, see debug.log for details\r\n2022-09-05T00:28:57Z ForceFlushStateToDisk: failed to flush state (System error while flushing: Fatal LevelDB error: IO error: /home/jb55/.bitcoin/chainstate/2963623.ldb: No space left on device)\r\n2022-09-05T00:28:57Z [personal] Releasing wallet\r\n2022-09-05T00:28:57Z [old-wallet] Releasing wallet\r\n2022-09-05T00:28:58Z Shutdown: done\r\n```\r\n",
      "user": {
        "login": "jb55",
        "id": 45598,
        "node_id": "MDQ6VXNlcjQ1NTk4",
        "avatar_url": "https://avatars.githubusercontent.com/u/45598?v=4",
        "gravatar_id": "",
        "url": "https://api.github.com/users/jb55",
        "html_url": "https://github.com/jb55",
        "followers_url": "https://api.github.com/users/jb55/followers",
        "following_url": "https://api.github.com/users/jb55/following%7B/other_user%7D",
        "gists_url": "https://api.github.com/users/jb55/gists%7B/gist_id%7D",
        "starred_url": "https://api.github.com/users/jb55/starred%7B/owner%7D%7B/repo%7D",
        "subscriptions_url": "https://api.github.com/users/jb55/subscriptions",
        "organizations_url": "https://api.github.com/users/jb55/orgs",
        "repos_url": "https://api.github.com/users/jb55/repos",
        "events_url": "https://api.github.com/users/jb55/events%7B/privacy%7D",
        "received_events_url": "https://api.github.com/users/jb55/received_events",
        "type": "User",
        "site_admin": false
      },
      "html_url": "https://github.com/bitcoin/bitcoin/issues/26112#issuecomment-1249647168",
      "issue_url": "https://api.github.com/repos/bitcoin/bitcoin/issues/26112"
    },
    {
      "event": "mentioned",
      "id": 7405091867,
      "node_id": "MEE_lADOABII585SB3D9zwAAAAG5YLwb",
      "url": "https://api.github.com/repos/bitcoin/bitcoin/issues/events/7405091867",
      "actor": {
        "login": "jb55",
        "id": 45598,
        "node_id": "MDQ6VXNlcjQ1NTk4",
        "avatar_url": "https://avatars.githubusercontent.com/u/45598?v=4",
        "gravatar_id": "",
        "url": "https://api.github.com/users/jb55",
        "html_url": "https://github.com/jb55",
        "followers_url": "https://api.github.com/users/jb55/followers",
        "following_url": "https://api.github.com/users/jb55/following%7B/other_user%7D",
        "gists_url": "https://api.github.com/users/jb55/gists%7B/gist_id%7D",
        "starred_url": "https://api.github.com/users/jb55/starred%7B/owner%7D%7B/repo%7D",
        "subscriptions_url": "https://api.github.com/users/jb55/subscriptions",
        "organizations_url": "https://api.github.com/users/jb55/orgs",
        "repos_url": "https://api.github.com/users/jb55/repos",
        "events_url": "https://api.github.com/users/jb55/events%7B/privacy%7D",
        "received_events_url": "https://api.github.com/users/jb55/received_events",
        "type": "User",
        "site_admin": false
      },
      "commit_id": null,
      "commit_url": null,
      "created_at": "2022-09-16T17:56:11Z"
    },
    {
      "event": "subscribed",
      "id": 7405091871,
      "node_id": "SE_lADOABII585SB3D9zwAAAAG5YLwf",
      "url": "https://api.github.com/repos/bitcoin/bitcoin/issues/events/7405091871",
      "actor": {
        "login": "jb55",
        "id": 45598,
        "node_id": "MDQ6VXNlcjQ1NTk4",
        "avatar_url": "https://avatars.githubusercontent.com/u/45598?v=4",
        "gravatar_id": "",
        "url": "https://api.github.com/users/jb55",
        "html_url": "https://github.com/jb55",
        "followers_url": "https://api.github.com/users/jb55/followers",
        "following_url": "https://api.github.com/users/jb55/following%7B/other_user%7D",
        "gists_url": "https://api.github.com/users/jb55/gists%7B/gist_id%7D",
        "starred_url": "https://api.github.com/users/jb55/starred%7B/owner%7D%7B/repo%7D",
        "subscriptions_url": "https://api.github.com/users/jb55/subscriptions",
        "organizations_url": "https://api.github.com/users/jb55/orgs",
        "repos_url": "https://api.github.com/users/jb55/repos",
        "events_url": "https://api.github.com/users/jb55/events%7B/privacy%7D",
        "received_events_url": "https://api.github.com/users/jb55/received_events",
        "type": "User",
        "site_admin": false
      },
      "commit_id": null,
      "commit_url": null,
      "created_at": "2022-09-16T17:56:11Z"
    },
    {
      "event": "commented",
      "id": 1249683401,
      "node_id": "IC_kwDOABII585KfKfJ",
      "url": "https://api.github.com/repos/bitcoin/bitcoin/issues/comments/1249683401",
      "actor": {
        "login": "sipa",
        "id": 548488,
        "node_id": "MDQ6VXNlcjU0ODQ4OA==",
        "avatar_url": "https://avatars.githubusercontent.com/u/548488?v=4",
        "gravatar_id": "",
        "url": "https://api.github.com/users/sipa",
        "html_url": "https://github.com/sipa",
        "followers_url": "https://api.github.com/users/sipa/followers",
        "following_url": "https://api.github.com/users/sipa/following%7B/other_user%7D",
        "gists_url": "https://api.github.com/users/sipa/gists%7B/gist_id%7D",
        "starred_url": "https://api.github.com/users/sipa/starred%7B/owner%7D%7B/repo%7D",
        "subscriptions_url": "https://api.github.com/users/sipa/subscriptions",
        "organizations_url": "https://api.github.com/users/sipa/orgs",
        "repos_url": "https://api.github.com/users/sipa/repos",
        "events_url": "https://api.github.com/users/sipa/events%7B/privacy%7D",
        "received_events_url": "https://api.github.com/users/sipa/received_events",
        "type": "User",
        "site_admin": false
      },
      "commit_id": null,
      "commit_url": null,
      "created_at": "2022-09-16T18:34:20Z",
      "updated_at": "2022-09-16T18:34:20Z",
      "author_association": "MEMBER",
      "body": "A guess about what might be happening:\r\n\r\n`CCoinsViewErrorCatcher`, the wrapper class used around `CCoinsViewDB` that's supposed to detect these problems and forcefully exit the application, has an override for `GetCoins`. But in `CheckTxInputs`, `HaveInputs` is first invoked, which on its turn calls `HaveCoin`. `HaveCoin` is implemented in `CCoinsViewDB`, but not in `CCoinsViewErrorCatcher`, and thus the disk read exception escapes.\r\n\r\nA solution may be to just add an override for `HaveCoin` in `CCoinsViewErrorCatcher`.",
      "user": {
        "login": "sipa",
        "id": 548488,
        "node_id": "MDQ6VXNlcjU0ODQ4OA==",
        "avatar_url": "https://avatars.githubusercontent.com/u/548488?v=4",
        "gravatar_id": "",
        "url": "https://api.github.com/users/sipa",
        "html_url": "https://github.com/sipa",
        "followers_url": "https://api.github.com/users/sipa/followers",
        "following_url": "https://api.github.com/users/sipa/following%7B/other_user%7D",
        "gists_url": "https://api.github.com/users/sipa/gists%7B/gist_id%7D",
        "starred_url": "https://api.github.com/users/sipa/starred%7B/owner%7D%7B/repo%7D",
        "subscriptions_url": "https://api.github.com/users/sipa/subscriptions",
        "organizations_url": "https://api.github.com/users/sipa/orgs",
        "repos_url": "https://api.github.com/users/sipa/repos",
        "events_url": "https://api.github.com/users/sipa/events%7B/privacy%7D",
        "received_events_url": "https://api.github.com/users/sipa/received_events",
        "type": "User",
        "site_admin": false
      },
      "html_url": "https://github.com/bitcoin/bitcoin/issues/26112#issuecomment-1249683401",
      "issue_url": "https://api.github.com/repos/bitcoin/bitcoin/issues/26112"
    },
    {
      "event": "comment_deleted",
      "id": 7541988064,
      "node_id": "CDE_lADOABII585SB3D9zwAAAAHBiZrg",
      "url": "https://api.github.com/repos/bitcoin/bitcoin/issues/events/7541988064",
      "actor": {
        "login": "bitcoin",
        "id": 528860,
        "node_id": "MDEyOk9yZ2FuaXphdGlvbjUyODg2MA==",
        "avatar_url": "https://avatars.githubusercontent.com/u/528860?v=4",
        "gravatar_id": "",
        "url": "https://api.github.com/users/bitcoin",
        "html_url": "https://github.com/bitcoin",
        "followers_url": "https://api.github.com/users/bitcoin/followers",
        "following_url": "https://api.github.com/users/bitcoin/following%7B/other_user%7D",
        "gists_url": "https://api.github.com/users/bitcoin/gists%7B/gist_id%7D",
        "starred_url": "https://api.github.com/users/bitcoin/starred%7B/owner%7D%7B/repo%7D",
        "subscriptions_url": "https://api.github.com/users/bitcoin/subscriptions",
        "organizations_url": "https://api.github.com/users/bitcoin/orgs",
        "repos_url": "https://api.github.com/users/bitcoin/repos",
        "events_url": "https://api.github.com/users/bitcoin/events%7B/privacy%7D",
        "received_events_url": "https://api.github.com/users/bitcoin/received_events",
        "type": "Organization",
        "site_admin": false
      },
      "commit_id": null,
      "commit_url": null,
      "created_at": "2022-10-07T09:25:56Z"
    },
    {
      "event": "demilestoned",
      "id": 7604240166,
      "node_id": "DEME_lADOABII585SB3D9zwAAAAHFP38m",
      "url": "https://api.github.com/repos/bitcoin/bitcoin/issues/events/7604240166",
      "actor": {
        "login": "maflcko",
        "id": 6399679,
        "node_id": "MDQ6VXNlcjYzOTk2Nzk=",
        "avatar_url": "https://avatars.githubusercontent.com/u/6399679?v=4",
        "gravatar_id": "",
        "url": "https://api.github.com/users/maflcko",
        "html_url": "https://github.com/maflcko",
        "followers_url": "https://api.github.com/users/maflcko/followers",
        "following_url": "https://api.github.com/users/maflcko/following%7B/other_user%7D",
        "gists_url": "https://api.github.com/users/maflcko/gists%7B/gist_id%7D",
        "starred_url": "https://api.github.com/users/maflcko/starred%7B/owner%7D%7B/repo%7D",
        "subscriptions_url": "https://api.github.com/users/maflcko/subscriptions",
        "organizations_url": "https://api.github.com/users/maflcko/orgs",
        "repos_url": "https://api.github.com/users/maflcko/repos",
        "events_url": "https://api.github.com/users/maflcko/events%7B/privacy%7D",
        "received_events_url": "https://api.github.com/users/maflcko/received_events",
        "type": "User",
        "site_admin": false
      },
      "commit_id": null,
      "commit_url": null,
      "created_at": "2022-10-17T17:08:06Z",
      "milestone": {
        "title": "24.0"
      }
    },
    {
      "event": "labeled",
      "id": 7604241504,
      "node_id": "LE_lADOABII585SB3D9zwAAAAHFP4Rg",
      "url": "https://api.github.com/repos/bitcoin/bitcoin/issues/events/7604241504",
      "actor": {
        "login": "maflcko",
        "id": 6399679,
        "node_id": "MDQ6VXNlcjYzOTk2Nzk=",
        "avatar_url": "https://avatars.githubusercontent.com/u/6399679?v=4",
        "gravatar_id": "",
        "url": "https://api.github.com/users/maflcko",
        "html_url": "https://github.com/maflcko",
        "followers_url": "https://api.github.com/users/maflcko/followers",
        "following_url": "https://api.github.com/users/maflcko/following%7B/other_user%7D",
        "gists_url": "https://api.github.com/users/maflcko/gists%7B/gist_id%7D",
        "starred_url": "https://api.github.com/users/maflcko/starred%7B/owner%7D%7B/repo%7D",
        "subscriptions_url": "https://api.github.com/users/maflcko/subscriptions",
        "organizations_url": "https://api.github.com/users/maflcko/orgs",
        "repos_url": "https://api.github.com/users/maflcko/repos",
        "events_url": "https://api.github.com/users/maflcko/events%7B/privacy%7D",
        "received_events_url": "https://api.github.com/users/maflcko/received_events",
        "type": "User",
        "site_admin": false
      },
      "commit_id": null,
      "commit_url": null,
      "created_at": "2022-10-17T17:08:18Z",
      "label": {
        "name": "UTXO Db and Indexes",
        "color": "fbca04"
      }
    },
    {
      "event": "commented",
      "id": 1281185512,
      "node_id": "IC_kwDOABII585MXVbo",
      "url": "https://api.github.com/repos/bitcoin/bitcoin/issues/comments/1281185512",
      "actor": {
        "login": "maflcko",
        "id": 6399679,
        "node_id": "MDQ6VXNlcjYzOTk2Nzk=",
        "avatar_url": "https://avatars.githubusercontent.com/u/6399679?v=4",
        "gravatar_id": "",
        "url": "https://api.github.com/users/maflcko",
        "html_url": "https://github.com/maflcko",
        "followers_url": "https://api.github.com/users/maflcko/followers",
        "following_url": "https://api.github.com/users/maflcko/following%7B/other_user%7D",
        "gists_url": "https://api.github.com/users/maflcko/gists%7B/gist_id%7D",
        "starred_url": "https://api.github.com/users/maflcko/starred%7B/owner%7D%7B/repo%7D",
        "subscriptions_url": "https://api.github.com/users/maflcko/subscriptions",
        "organizations_url": "https://api.github.com/users/maflcko/orgs",
        "repos_url": "https://api.github.com/users/maflcko/repos",
        "events_url": "https://api.github.com/users/maflcko/events%7B/privacy%7D",
        "received_events_url": "https://api.github.com/users/maflcko/received_events",
        "type": "User",
        "site_admin": false
      },
      "commit_id": null,
      "commit_url": null,
      "created_at": "2022-10-17T17:09:09Z",
      "updated_at": "2022-10-17T17:09:09Z",
      "author_association": "MEMBER",
      "body": "Removed from the milestone, as this is not a regression, nor a fix is available right now.",
      "user": {
        "login": "maflcko",
        "id": 6399679,
        "node_id": "MDQ6VXNlcjYzOTk2Nzk=",
        "avatar_url": "https://avatars.githubusercontent.com/u/6399679?v=4",
        "gravatar_id": "",
        "url": "https://api.github.com/users/maflcko",
        "html_url": "https://github.com/maflcko",
        "followers_url": "https://api.github.com/users/maflcko/followers",
        "following_url": "https://api.github.com/users/maflcko/following%7B/other_user%7D",
        "gists_url": "https://api.github.com/users/maflcko/gists%7B/gist_id%7D",
        "starred_url": "https://api.github.com/users/maflcko/starred%7B/owner%7D%7B/repo%7D",
        "subscriptions_url": "https://api.github.com/users/maflcko/subscriptions",
        "organizations_url": "https://api.github.com/users/maflcko/orgs",
        "repos_url": "https://api.github.com/users/maflcko/repos",
        "events_url": "https://api.github.com/users/maflcko/events%7B/privacy%7D",
        "received_events_url": "https://api.github.com/users/maflcko/received_events",
        "type": "User",
        "site_admin": false
      },
      "html_url": "https://github.com/bitcoin/bitcoin/issues/26112#issuecomment-1281185512",
      "issue_url": "https://api.github.com/repos/bitcoin/bitcoin/issues/26112"
    },
    {
      "event": "cross-referenced",
      "id": null,
      "node_id": null,
      "url": null,
      "actor": {
        "login": "aureleoules",
        "id": 22493292,
        "node_id": "MDQ6VXNlcjIyNDkzMjky",
        "avatar_url": "https://avatars.githubusercontent.com/u/22493292?v=4",
        "gravatar_id": "",
        "url": "https://api.github.com/users/aureleoules",
        "html_url": "https://github.com/aureleoules",
        "followers_url": "https://api.github.com/users/aureleoules/followers",
        "following_url": "https://api.github.com/users/aureleoules/following%7B/other_user%7D",
        "gists_url": "https://api.github.com/users/aureleoules/gists%7B/gist_id%7D",
        "starred_url": "https://api.github.com/users/aureleoules/starred%7B/owner%7D%7B/repo%7D",
        "subscriptions_url": "https://api.github.com/users/aureleoules/subscriptions",
        "organizations_url": "https://api.github.com/users/aureleoules/orgs",
        "repos_url": "https://api.github.com/users/aureleoules/repos",
        "events_url": "https://api.github.com/users/aureleoules/events%7B/privacy%7D",
        "received_events_url": "https://api.github.com/users/aureleoules/received_events",
        "type": "User",
        "site_admin": false
      },
      "commit_id": null,
      "commit_url": null,
      "created_at": "2022-10-18T09:29:32Z",
      "updated_at": "2022-10-18T09:29:32Z",
      "source": {
        "issue": {
          "id": 1412882138,
          "node_id": "PR_kwDOABII585A_5y8",
          "url": "https://api.github.com/repos/bitcoin/bitcoin/issues/26331",
          "repository_url": "https://api.github.com/repos/bitcoin/bitcoin",
          "labels_url": "https://api.github.com/repos/bitcoin/bitcoin/issues/26331/labels%7B/name%7D",
          "comments_url": "https://api.github.com/repos/bitcoin/bitcoin/issues/26331/comments",
          "events_url": "https://api.github.com/repos/bitcoin/bitcoin/issues/26331/events",
          "html_url": "https://github.com/bitcoin/bitcoin/pull/26331",
          "number": 26331,
          "state": "closed",
          "state_reason": null,
          "title": "Implement `CCoinsViewErrorCatcher::HaveCoin` and check disk space periodically",
          "body": "Attempt to fix #26112.\r\n\r\nAs suggested by sipa in https://github.com/bitcoin/bitcoin/issues/26112#issuecomment-1249683401:\r\n> CCoinsViewErrorCatcher, the wrapper class used around CCoinsViewDB that's supposed to detect these problems and forcefully exit the application, has an override for GetCoins. But in CheckTxInputs, HaveInputs is first invoked, which on its turn calls HaveCoin. HaveCoin is implemented in CCoinsViewDB, but not in CCoinsViewErrorCatcher, and thus the disk read exception escapes.\r\n> A solution may be to just add an override for HaveCoin in CCoinsViewErrorCatcher.\r\n\r\nI implemented `CCoinsViewErrorCatcher::HaveCoin` and also added a periodic disk space check that shutdowns the node if there is not enough space left on disk, the minimum here is 50MB.\r\n\r\nFor reviewers, it's possible to saturate disk space to test the PR by creating large files with `fallocate -l 50G test.bin`",
          "user": {
            "login": "aureleoules",
            "id": 22493292,
            "node_id": "MDQ6VXNlcjIyNDkzMjky",
            "avatar_url": "https://avatars.githubusercontent.com/u/22493292?v=4",
            "gravatar_id": "",
            "url": "https://api.github.com/users/aureleoules",
            "html_url": "https://github.com/aureleoules",
            "followers_url": "https://api.github.com/users/aureleoules/followers",
            "following_url": "https://api.github.com/users/aureleoules/following%7B/other_user%7D",
            "gists_url": "https://api.github.com/users/aureleoules/gists%7B/gist_id%7D",
            "starred_url": "https://api.github.com/users/aureleoules/starred%7B/owner%7D%7B/repo%7D",
            "subscriptions_url": "https://api.github.com/users/aureleoules/subscriptions",
            "organizations_url": "https://api.github.com/users/aureleoules/orgs",
            "repos_url": "https://api.github.com/users/aureleoules/repos",
            "events_url": "https://api.github.com/users/aureleoules/events%7B/privacy%7D",
            "received_events_url": "https://api.github.com/users/aureleoules/received_events",
            "type": "User",
            "site_admin": false
          },
          "labels": [],
          "assignees": [],
          "author_association": "MEMBER",
          "milestone": {
            "url": "https://api.github.com/repos/bitcoin/bitcoin/milestones/60",
            "html_url": "https://github.com/bitcoin/bitcoin/milestone/60",
            "labels_url": "https://api.github.com/repos/bitcoin/bitcoin/milestones/60/labels",
            "id": 9286970,
            "node_id": "MI_kwDOABII584AjbU6",
            "number": 60,
            "state": "open",
            "title": "26.0",
            "description": "",
            "creator": {
              "login": "fanquake",
              "id": 863730,
              "node_id": "MDQ6VXNlcjg2MzczMA==",
              "avatar_url": "https://avatars.githubusercontent.com/u/863730?v=4",
              "gravatar_id": "",
              "url": "https://api.github.com/users/fanquake",
              "html_url": "https://github.com/fanquake",
              "followers_url": "https://api.github.com/users/fanquake/followers",
              "following_url": "https://api.github.com/users/fanquake/following%7B/other_user%7D",
              "gists_url": "https://api.github.com/users/fanquake/gists%7B/gist_id%7D",
              "starred_url": "https://api.github.com/users/fanquake/starred%7B/owner%7D%7B/repo%7D",
              "subscriptions_url": "https://api.github.com/users/fanquake/subscriptions",
              "organizations_url": "https://api.github.com/users/fanquake/orgs",
              "repos_url": "https://api.github.com/users/fanquake/repos",
              "events_url": "https://api.github.com/users/fanquake/events%7B/privacy%7D",
              "received_events_url": "https://api.github.com/users/fanquake/received_events",
              "type": "User",
              "site_admin": false
            },
            "open_issues": 9,
            "closed_issues": 73,
            "created_at": "2023-04-15T11:36:05Z",
            "updated_at": "2023-10-10T16:34:41Z"
          },
          "locked": false,
          "comments": 3,
          "pull_request": {
            "url": "https://api.github.com/repos/bitcoin/bitcoin/pulls/26331",
            "html_url": "https://github.com/bitcoin/bitcoin/pull/26331",
            "diff_url": "https://github.com/bitcoin/bitcoin/pull/26331.diff",
            "patch_url": "https://github.com/bitcoin/bitcoin/pull/26331.patch"
          },
          "closed_at": "2023-10-09T18:52:24Z",
          "created_at": "2022-10-18T09:29:31Z",
          "updated_at": "2023-10-09T18:52:24Z"
        },
        "type": "issue"
      }
    },
    {
      "event": "referenced",
      "id": 10594544787,
      "node_id": "REFE_lADOABII585SB3D9zwAAAAJ3e-yT",
      "url": "https://api.github.com/repos/bitcoin/bitcoin/issues/events/10594544787",
      "actor": {
        "login": "achow101",
        "id": 3782274,
        "node_id": "MDQ6VXNlcjM3ODIyNzQ=",
        "avatar_url": "https://avatars.githubusercontent.com/u/3782274?v=4",
        "gravatar_id": "",
        "url": "https://api.github.com/users/achow101",
        "html_url": "https://github.com/achow101",
        "followers_url": "https://api.github.com/users/achow101/followers",
        "following_url": "https://api.github.com/users/achow101/following%7B/other_user%7D",
        "gists_url": "https://api.github.com/users/achow101/gists%7B/gist_id%7D",
        "starred_url": "https://api.github.com/users/achow101/starred%7B/owner%7D%7B/repo%7D",
        "subscriptions_url": "https://api.github.com/users/achow101/subscriptions",
        "organizations_url": "https://api.github.com/users/achow101/orgs",
        "repos_url": "https://api.github.com/users/achow101/repos",
        "events_url": "https://api.github.com/users/achow101/events%7B/privacy%7D",
        "received_events_url": "https://api.github.com/users/achow101/received_events",
        "type": "User",
        "site_admin": false
      },
      "commit_id": "04265ba9378efbd4c35b33390b1e5cf246d420a9",
      "commit_url": "https://api.github.com/repos/bitcoin-core/gui/commits/04265ba9378efbd4c35b33390b1e5cf246d420a9",
      "created_at": "2023-10-09T18:52:21Z"
    },
    {
      "event": "closed",
      "id": 10594544890,
      "node_id": "CE_lADOABII585SB3D9zwAAAAJ3e-z6",
      "url": "https://api.github.com/repos/bitcoin/bitcoin/issues/events/10594544890",
      "actor": {
        "login": "achow101",
        "id": 3782274,
        "node_id": "MDQ6VXNlcjM3ODIyNzQ=",
        "avatar_url": "https://avatars.githubusercontent.com/u/3782274?v=4",
        "gravatar_id": "",
        "url": "https://api.github.com/users/achow101",
        "html_url": "https://github.com/achow101",
        "followers_url": "https://api.github.com/users/achow101/followers",
        "following_url": "https://api.github.com/users/achow101/following%7B/other_user%7D",
        "gists_url": "https://api.github.com/users/achow101/gists%7B/gist_id%7D",
        "starred_url": "https://api.github.com/users/achow101/starred%7B/owner%7D%7B/repo%7D",
        "subscriptions_url": "https://api.github.com/users/achow101/subscriptions",
        "organizations_url": "https://api.github.com/users/achow101/orgs",
        "repos_url": "https://api.github.com/users/achow101/repos",
        "events_url": "https://api.github.com/users/achow101/events%7B/privacy%7D",
        "received_events_url": "https://api.github.com/users/achow101/received_events",
        "type": "User",
        "site_admin": false
      },
      "commit_id": "04265ba9378efbd4c35b33390b1e5cf246d420a9",
      "commit_url": "https://api.github.com/repos/bitcoin/bitcoin/commits/04265ba9378efbd4c35b33390b1e5cf246d420a9",
      "created_at": "2023-10-09T18:52:22Z"
    },
    {
      "event": "commented",
      "id": 1756768649,
      "node_id": "IC_kwDOABII585otimJ",
      "url": "https://api.github.com/repos/bitcoin/bitcoin/issues/comments/1756768649",
      "actor": {
        "login": "jb55",
        "id": 45598,
        "node_id": "MDQ6VXNlcjQ1NTk4",
        "avatar_url": "https://avatars.githubusercontent.com/u/45598?v=4",
        "gravatar_id": "",
        "url": "https://api.github.com/users/jb55",
        "html_url": "https://github.com/jb55",
        "followers_url": "https://api.github.com/users/jb55/followers",
        "following_url": "https://api.github.com/users/jb55/following%7B/other_user%7D",
        "gists_url": "https://api.github.com/users/jb55/gists%7B/gist_id%7D",
        "starred_url": "https://api.github.com/users/jb55/starred%7B/owner%7D%7B/repo%7D",
        "subscriptions_url": "https://api.github.com/users/jb55/subscriptions",
        "organizations_url": "https://api.github.com/users/jb55/orgs",
        "repos_url": "https://api.github.com/users/jb55/repos",
        "events_url": "https://api.github.com/users/jb55/events%7B/privacy%7D",
        "received_events_url": "https://api.github.com/users/jb55/received_events",
        "type": "User",
        "site_admin": false
      },
      "commit_id": null,
      "commit_url": null,
      "created_at": "2023-10-11T04:32:13Z",
      "updated_at": "2023-10-11T04:32:13Z",
      "author_association": "CONTRIBUTOR",
      "body": "awesome, thanks @aureleoules !",
      "user": {
        "login": "jb55",
        "id": 45598,
        "node_id": "MDQ6VXNlcjQ1NTk4",
        "avatar_url": "https://avatars.githubusercontent.com/u/45598?v=4",
        "gravatar_id": "",
        "url": "https://api.github.com/users/jb55",
        "html_url": "https://github.com/jb55",
        "followers_url": "https://api.github.com/users/jb55/followers",
        "following_url": "https://api.github.com/users/jb55/following%7B/other_user%7D",
        "gists_url": "https://api.github.com/users/jb55/gists%7B/gist_id%7D",
        "starred_url": "https://api.github.com/users/jb55/starred%7B/owner%7D%7B/repo%7D",
        "subscriptions_url": "https://api.github.com/users/jb55/subscriptions",
        "organizations_url": "https://api.github.com/users/jb55/orgs",
        "repos_url": "https://api.github.com/users/jb55/repos",
        "events_url": "https://api.github.com/users/jb55/events%7B/privacy%7D",
        "received_events_url": "https://api.github.com/users/jb55/received_events",
        "type": "User",
        "site_admin": false
      },
      "html_url": "https://github.com/bitcoin/bitcoin/issues/26112#issuecomment-1756768649",
      "issue_url": "https://api.github.com/repos/bitcoin/bitcoin/issues/26112"
    },
    {
      "event": "mentioned",
      "id": 10612889059,
      "node_id": "MEE_lADOABII585SB3D9zwAAAAJ4k9Xj",
      "url": "https://api.github.com/repos/bitcoin/bitcoin/issues/events/10612889059",
      "actor": {
        "login": "aureleoules",
        "id": 22493292,
        "node_id": "MDQ6VXNlcjIyNDkzMjky",
        "avatar_url": "https://avatars.githubusercontent.com/u/22493292?v=4",
        "gravatar_id": "",
        "url": "https://api.github.com/users/aureleoules",
        "html_url": "https://github.com/aureleoules",
        "followers_url": "https://api.github.com/users/aureleoules/followers",
        "following_url": "https://api.github.com/users/aureleoules/following%7B/other_user%7D",
        "gists_url": "https://api.github.com/users/aureleoules/gists%7B/gist_id%7D",
        "starred_url": "https://api.github.com/users/aureleoules/starred%7B/owner%7D%7B/repo%7D",
        "subscriptions_url": "https://api.github.com/users/aureleoules/subscriptions",
        "organizations_url": "https://api.github.com/users/aureleoules/orgs",
        "repos_url": "https://api.github.com/users/aureleoules/repos",
        "events_url": "https://api.github.com/users/aureleoules/events%7B/privacy%7D",
        "received_events_url": "https://api.github.com/users/aureleoules/received_events",
        "type": "User",
        "site_admin": false
      },
      "commit_id": null,
      "commit_url": null,
      "created_at": "2023-10-11T04:32:14Z"
    },
    {
      "event": "subscribed",
      "id": 10612889076,
      "node_id": "SE_lADOABII585SB3D9zwAAAAJ4k9X0",
      "url": "https://api.github.com/repos/bitcoin/bitcoin/issues/events/10612889076",
      "actor": {
        "login": "aureleoules",
        "id": 22493292,
        "node_id": "MDQ6VXNlcjIyNDkzMjky",
        "avatar_url": "https://avatars.githubusercontent.com/u/22493292?v=4",
        "gravatar_id": "",
        "url": "https://api.github.com/users/aureleoules",
        "html_url": "https://github.com/aureleoules",
        "followers_url": "https://api.github.com/users/aureleoules/followers",
        "following_url": "https://api.github.com/users/aureleoules/following%7B/other_user%7D",
        "gists_url": "https://api.github.com/users/aureleoules/gists%7B/gist_id%7D",
        "starred_url": "https://api.github.com/users/aureleoules/starred%7B/owner%7D%7B/repo%7D",
        "subscriptions_url": "https://api.github.com/users/aureleoules/subscriptions",
        "organizations_url": "https://api.github.com/users/aureleoules/orgs",
        "repos_url": "https://api.github.com/users/aureleoules/repos",
        "events_url": "https://api.github.com/users/aureleoules/events%7B/privacy%7D",
        "received_events_url": "https://api.github.com/users/aureleoules/received_events",
        "type": "User",
        "site_admin": false
      },
      "commit_id": null,
      "commit_url": null,
      "created_at": "2023-10-11T04:32:14Z"
    }
  ]
}