{
  "type": "issue",
  "issue": {
    "id": 1462649491,
    "node_id": "I_kwDOABII585XLkKT",
    "url": "https://api.github.com/repos/bitcoin/bitcoin/issues/26563",
    "repository_url": "https://api.github.com/repos/bitcoin/bitcoin",
    "labels_url": "https://api.github.com/repos/bitcoin/bitcoin/issues/26563/labels%7B/name%7D",
    "comments_url": "https://api.github.com/repos/bitcoin/bitcoin/issues/26563/comments",
    "events_url": "https://api.github.com/repos/bitcoin/bitcoin/issues/26563/events",
    "html_url": "https://github.com/bitcoin/bitcoin/issues/26563",
    "number": 26563,
    "state": "closed",
    "state_reason": "completed",
    "title": "builder-keys: unable to find A2FD494D0021AA9B4FA58F759102B7AE654A4A5A",
    "body": "https://github.com/bitcoin/bitcoin/blob/38d06e1561013f4ca845fd5ba6ffcc64de67f9c0/contrib/builder-keys/keys.txt#L25\r\n\r\nhttps://github.com/bitcoin/bitcoin/commit/2b4cfb44bd75d6e51eb9e7ca692b2fa32250ad04#diff-0538084c53da5acd80bd796d75b10246d7346231643b3f4b1e136204bc829f56R21\r\n\r\nPlease post which key server this is available on.\r\n\r\ncc: @IlyasRidhuan ",
    "user": {
      "login": "RandyMcMillan",
      "id": 152159,
      "node_id": "MDQ6VXNlcjE1MjE1OQ==",
      "avatar_url": "https://avatars.githubusercontent.com/u/152159?v=4",
      "gravatar_id": "",
      "url": "https://api.github.com/users/RandyMcMillan",
      "html_url": "https://github.com/RandyMcMillan",
      "followers_url": "https://api.github.com/users/RandyMcMillan/followers",
      "following_url": "https://api.github.com/users/RandyMcMillan/following%7B/other_user%7D",
      "gists_url": "https://api.github.com/users/RandyMcMillan/gists%7B/gist_id%7D",
      "starred_url": "https://api.github.com/users/RandyMcMillan/starred%7B/owner%7D%7B/repo%7D",
      "subscriptions_url": "https://api.github.com/users/RandyMcMillan/subscriptions",
      "organizations_url": "https://api.github.com/users/RandyMcMillan/orgs",
      "repos_url": "https://api.github.com/users/RandyMcMillan/repos",
      "events_url": "https://api.github.com/users/RandyMcMillan/events%7B/privacy%7D",
      "received_events_url": "https://api.github.com/users/RandyMcMillan/received_events",
      "type": "User",
      "site_admin": false
    },
    "labels": [],
    "assignees": [],
    "author_association": "CONTRIBUTOR",
    "locked": false,
    "comments": 2,
    "closed_at": "2022-11-24T07:27:20Z",
    "created_at": "2022-11-24T02:07:47Z",
    "updated_at": "2022-11-24T07:27:20Z"
  },
  "events": [
    {
      "event": "mentioned",
      "id": 7881975217,
      "node_id": "MEE_lADOABII585XLkKTzwAAAAHVzWWx",
      "url": "https://api.github.com/repos/bitcoin/bitcoin/issues/events/7881975217",
      "actor": {
        "login": "IlyasRidhuan",
        "id": 9293647,
        "node_id": "MDQ6VXNlcjkyOTM2NDc=",
        "avatar_url": "https://avatars.githubusercontent.com/u/9293647?v=4",
        "gravatar_id": "",
        "url": "https://api.github.com/users/IlyasRidhuan",
        "html_url": "https://github.com/IlyasRidhuan",
        "followers_url": "https://api.github.com/users/IlyasRidhuan/followers",
        "following_url": "https://api.github.com/users/IlyasRidhuan/following%7B/other_user%7D",
        "gists_url": "https://api.github.com/users/IlyasRidhuan/gists%7B/gist_id%7D",
        "starred_url": "https://api.github.com/users/IlyasRidhuan/starred%7B/owner%7D%7B/repo%7D",
        "subscriptions_url": "https://api.github.com/users/IlyasRidhuan/subscriptions",
        "organizations_url": "https://api.github.com/users/IlyasRidhuan/orgs",
        "repos_url": "https://api.github.com/users/IlyasRidhuan/repos",
        "events_url": "https://api.github.com/users/IlyasRidhuan/events%7B/privacy%7D",
        "received_events_url": "https://api.github.com/users/IlyasRidhuan/received_events",
        "type": "User",
        "site_admin": false
      },
      "commit_id": null,
      "commit_url": null,
      "created_at": "2022-11-24T02:07:47Z"
    },
    {
      "event": "subscribed",
      "id": 7881975221,
      "node_id": "SE_lADOABII585XLkKTzwAAAAHVzWW1",
      "url": "https://api.github.com/repos/bitcoin/bitcoin/issues/events/7881975221",
      "actor": {
        "login": "IlyasRidhuan",
        "id": 9293647,
        "node_id": "MDQ6VXNlcjkyOTM2NDc=",
        "avatar_url": "https://avatars.githubusercontent.com/u/9293647?v=4",
        "gravatar_id": "",
        "url": "https://api.github.com/users/IlyasRidhuan",
        "html_url": "https://github.com/IlyasRidhuan",
        "followers_url": "https://api.github.com/users/IlyasRidhuan/followers",
        "following_url": "https://api.github.com/users/IlyasRidhuan/following%7B/other_user%7D",
        "gists_url": "https://api.github.com/users/IlyasRidhuan/gists%7B/gist_id%7D",
        "starred_url": "https://api.github.com/users/IlyasRidhuan/starred%7B/owner%7D%7B/repo%7D",
        "subscriptions_url": "https://api.github.com/users/IlyasRidhuan/subscriptions",
        "organizations_url": "https://api.github.com/users/IlyasRidhuan/orgs",
        "repos_url": "https://api.github.com/users/IlyasRidhuan/repos",
        "events_url": "https://api.github.com/users/IlyasRidhuan/events%7B/privacy%7D",
        "received_events_url": "https://api.github.com/users/IlyasRidhuan/received_events",
        "type": "User",
        "site_admin": false
      },
      "commit_id": null,
      "commit_url": null,
      "created_at": "2022-11-24T02:07:47Z"
    },
    {
      "event": "commented",
      "id": 1325871014,
      "node_id": "IC_kwDOABII585PBy-m",
      "url": "https://api.github.com/repos/bitcoin/bitcoin/issues/comments/1325871014",
      "actor": {
        "login": "RandyMcMillan",
        "id": 152159,
        "node_id": "MDQ6VXNlcjE1MjE1OQ==",
        "avatar_url": "https://avatars.githubusercontent.com/u/152159?v=4",
        "gravatar_id": "",
        "url": "https://api.github.com/users/RandyMcMillan",
        "html_url": "https://github.com/RandyMcMillan",
        "followers_url": "https://api.github.com/users/RandyMcMillan/followers",
        "following_url": "https://api.github.com/users/RandyMcMillan/following%7B/other_user%7D",
        "gists_url": "https://api.github.com/users/RandyMcMillan/gists%7B/gist_id%7D",
        "starred_url": "https://api.github.com/users/RandyMcMillan/starred%7B/owner%7D%7B/repo%7D",
        "subscriptions_url": "https://api.github.com/users/RandyMcMillan/subscriptions",
        "organizations_url": "https://api.github.com/users/RandyMcMillan/orgs",
        "repos_url": "https://api.github.com/users/RandyMcMillan/repos",
        "events_url": "https://api.github.com/users/RandyMcMillan/events%7B/privacy%7D",
        "received_events_url": "https://api.github.com/users/RandyMcMillan/received_events",
        "type": "User",
        "site_admin": false
      },
      "commit_id": null,
      "commit_url": null,
      "created_at": "2022-11-24T02:33:27Z",
      "updated_at": "2022-11-24T02:33:48Z",
      "author_association": "CONTRIBUTOR",
      "body": "PR: https://github.com/bitcoin/bitcoin/pull/26565\r\n\r\n",
      "user": {
        "login": "RandyMcMillan",
        "id": 152159,
        "node_id": "MDQ6VXNlcjE1MjE1OQ==",
        "avatar_url": "https://avatars.githubusercontent.com/u/152159?v=4",
        "gravatar_id": "",
        "url": "https://api.github.com/users/RandyMcMillan",
        "html_url": "https://github.com/RandyMcMillan",
        "followers_url": "https://api.github.com/users/RandyMcMillan/followers",
        "following_url": "https://api.github.com/users/RandyMcMillan/following%7B/other_user%7D",
        "gists_url": "https://api.github.com/users/RandyMcMillan/gists%7B/gist_id%7D",
        "starred_url": "https://api.github.com/users/RandyMcMillan/starred%7B/owner%7D%7B/repo%7D",
        "subscriptions_url": "https://api.github.com/users/RandyMcMillan/subscriptions",
        "organizations_url": "https://api.github.com/users/RandyMcMillan/orgs",
        "repos_url": "https://api.github.com/users/RandyMcMillan/repos",
        "events_url": "https://api.github.com/users/RandyMcMillan/events%7B/privacy%7D",
        "received_events_url": "https://api.github.com/users/RandyMcMillan/received_events",
        "type": "User",
        "site_admin": false
      },
      "html_url": "https://github.com/bitcoin/bitcoin/issues/26563#issuecomment-1325871014",
      "issue_url": "https://api.github.com/repos/bitcoin/bitcoin/issues/26563"
    },
    {
      "event": "commented",
      "id": 1326054885,
      "node_id": "IC_kwDOABII585PCf3l",
      "url": "https://api.github.com/repos/bitcoin/bitcoin/issues/comments/1326054885",
      "actor": {
        "login": "MarcoFalke",
        "id": 6399679,
        "node_id": "MDQ6VXNlcjYzOTk2Nzk=",
        "avatar_url": "https://avatars.githubusercontent.com/u/6399679?v=4",
        "gravatar_id": "",
        "url": "https://api.github.com/users/MarcoFalke",
        "html_url": "https://github.com/MarcoFalke",
        "followers_url": "https://api.github.com/users/MarcoFalke/followers",
        "following_url": "https://api.github.com/users/MarcoFalke/following%7B/other_user%7D",
        "gists_url": "https://api.github.com/users/MarcoFalke/gists%7B/gist_id%7D",
        "starred_url": "https://api.github.com/users/MarcoFalke/starred%7B/owner%7D%7B/repo%7D",
        "subscriptions_url": "https://api.github.com/users/MarcoFalke/subscriptions",
        "organizations_url": "https://api.github.com/users/MarcoFalke/orgs",
        "repos_url": "https://api.github.com/users/MarcoFalke/repos",
        "events_url": "https://api.github.com/users/MarcoFalke/events%7B/privacy%7D",
        "received_events_url": "https://api.github.com/users/MarcoFalke/received_events",
        "type": "User",
        "site_admin": false
      },
      "commit_id": null,
      "commit_url": null,
      "created_at": "2022-11-24T07:27:20Z",
      "updated_at": "2022-11-24T07:27:20Z",
      "author_association": "MEMBER",
      "body": "Closing for now. Let's continue discussion in the pull request.",
      "user": {
        "login": "MarcoFalke",
        "id": 6399679,
        "node_id": "MDQ6VXNlcjYzOTk2Nzk=",
        "avatar_url": "https://avatars.githubusercontent.com/u/6399679?v=4",
        "gravatar_id": "",
        "url": "https://api.github.com/users/MarcoFalke",
        "html_url": "https://github.com/MarcoFalke",
        "followers_url": "https://api.github.com/users/MarcoFalke/followers",
        "following_url": "https://api.github.com/users/MarcoFalke/following%7B/other_user%7D",
        "gists_url": "https://api.github.com/users/MarcoFalke/gists%7B/gist_id%7D",
        "starred_url": "https://api.github.com/users/MarcoFalke/starred%7B/owner%7D%7B/repo%7D",
        "subscriptions_url": "https://api.github.com/users/MarcoFalke/subscriptions",
        "organizations_url": "https://api.github.com/users/MarcoFalke/orgs",
        "repos_url": "https://api.github.com/users/MarcoFalke/repos",
        "events_url": "https://api.github.com/users/MarcoFalke/events%7B/privacy%7D",
        "received_events_url": "https://api.github.com/users/MarcoFalke/received_events",
        "type": "User",
        "site_admin": false
      },
      "html_url": "https://github.com/bitcoin/bitcoin/issues/26563#issuecomment-1326054885",
      "issue_url": "https://api.github.com/repos/bitcoin/bitcoin/issues/26563"
    },
    {
      "event": "closed",
      "id": 7883232181,
      "node_id": "CE_lADOABII585XLkKTzwAAAAHV4JO1",
      "url": "https://api.github.com/repos/bitcoin/bitcoin/issues/events/7883232181",
      "actor": {
        "login": "MarcoFalke",
        "id": 6399679,
        "node_id": "MDQ6VXNlcjYzOTk2Nzk=",
        "avatar_url": "https://avatars.githubusercontent.com/u/6399679?v=4",
        "gravatar_id": "",
        "url": "https://api.github.com/users/MarcoFalke",
        "html_url": "https://github.com/MarcoFalke",
        "followers_url": "https://api.github.com/users/MarcoFalke/followers",
        "following_url": "https://api.github.com/users/MarcoFalke/following%7B/other_user%7D",
        "gists_url": "https://api.github.com/users/MarcoFalke/gists%7B/gist_id%7D",
        "starred_url": "https://api.github.com/users/MarcoFalke/starred%7B/owner%7D%7B/repo%7D",
        "subscriptions_url": "https://api.github.com/users/MarcoFalke/subscriptions",
        "organizations_url": "https://api.github.com/users/MarcoFalke/orgs",
        "repos_url": "https://api.github.com/users/MarcoFalke/repos",
        "events_url": "https://api.github.com/users/MarcoFalke/events%7B/privacy%7D",
        "received_events_url": "https://api.github.com/users/MarcoFalke/received_events",
        "type": "User",
        "site_admin": false
      },
      "commit_id": null,
      "commit_url": null,
      "created_at": "2022-11-24T07:27:20Z"
    },
    {
      "event": "cross-referenced",
      "id": null,
      "node_id": null,
      "url": null,
      "actor": {
        "login": "fanquake",
        "id": 863730,
        "node_id": "MDQ6VXNlcjg2MzczMA==",
        "avatar_url": "https://avatars.githubusercontent.com/u/863730?v=4",
        "gravatar_id": "",
        "url": "https://api.github.com/users/fanquake",
        "html_url": "https://github.com/fanquake",
        "followers_url": "https://api.github.com/users/fanquake/followers",
        "following_url": "https://api.github.com/users/fanquake/following%7B/other_user%7D",
        "gists_url": "https://api.github.com/users/fanquake/gists%7B/gist_id%7D",
        "starred_url": "https://api.github.com/users/fanquake/starred%7B/owner%7D%7B/repo%7D",
        "subscriptions_url": "https://api.github.com/users/fanquake/subscriptions",
        "organizations_url": "https://api.github.com/users/fanquake/orgs",
        "repos_url": "https://api.github.com/users/fanquake/repos",
        "events_url": "https://api.github.com/users/fanquake/events%7B/privacy%7D",
        "received_events_url": "https://api.github.com/users/fanquake/received_events",
        "type": "User",
        "site_admin": false
      },
      "commit_id": null,
      "commit_url": null,
      "created_at": "2022-11-29T12:19:43Z",
      "updated_at": "2022-11-29T12:19:43Z",
      "source": {
        "issue": {
          "id": 1467970553,
          "node_id": "PR_kwDOABII585D4hO8",
          "url": "https://api.github.com/repos/bitcoin/bitcoin/issues/26598",
          "repository_url": "https://api.github.com/repos/bitcoin/bitcoin",
          "labels_url": "https://api.github.com/repos/bitcoin/bitcoin/issues/26598/labels%7B/name%7D",
          "comments_url": "https://api.github.com/repos/bitcoin/bitcoin/issues/26598/comments",
          "events_url": "https://api.github.com/repos/bitcoin/bitcoin/issues/26598/events",
          "html_url": "https://github.com/bitcoin/bitcoin/pull/26598",
          "number": 26598,
          "state": "closed",
          "state_reason": null,
          "title": "contrib: remove builder keys",
          "body": "This has been superseded by adding a builder-keys/ directory in\r\nguix.sigs, where the presence of keys, and validity of signatures\r\nis checked. Preventing issues like missing keys or invalid signatures.\r\n\r\nNew (or exisiting) Guix builders can add their key in the next PR\r\nthey open adding attestations.\r\n\r\nRelated to issues like #26566, #26563.\r\n\r\nAlso follows up with the comment here: https://github.com/bitcoin/bitcoin/pull/26565#issuecomment-1326053939.\r\n",
          "user": {
            "login": "fanquake",
            "id": 863730,
            "node_id": "MDQ6VXNlcjg2MzczMA==",
            "avatar_url": "https://avatars.githubusercontent.com/u/863730?v=4",
            "gravatar_id": "",
            "url": "https://api.github.com/users/fanquake",
            "html_url": "https://github.com/fanquake",
            "followers_url": "https://api.github.com/users/fanquake/followers",
            "following_url": "https://api.github.com/users/fanquake/following%7B/other_user%7D",
            "gists_url": "https://api.github.com/users/fanquake/gists%7B/gist_id%7D",
            "starred_url": "https://api.github.com/users/fanquake/starred%7B/owner%7D%7B/repo%7D",
            "subscriptions_url": "https://api.github.com/users/fanquake/subscriptions",
            "organizations_url": "https://api.github.com/users/fanquake/orgs",
            "repos_url": "https://api.github.com/users/fanquake/repos",
            "events_url": "https://api.github.com/users/fanquake/events%7B/privacy%7D",
            "received_events_url": "https://api.github.com/users/fanquake/received_events",
            "type": "User",
            "site_admin": false
          },
          "labels": [
            {
              "id": 231994551,
              "node_id": "MDU6TGFiZWwyMzE5OTQ1NTE=",
              "url": "https://api.github.com/repos/bitcoin/bitcoin/labels/Scripts%20and%20tools",
              "name": "Scripts and tools",
              "color": "ffffee",
              "default": false
            },
            {
              "id": 955867938,
              "node_id": "MDU6TGFiZWw5NTU4Njc5Mzg=",
              "url": "https://api.github.com/repos/bitcoin/bitcoin/labels/Needs%20rebase",
              "name": "Needs rebase",
              "description": "",
              "color": "cccccc",
              "default": false
            }
          ],
          "assignees": [],
          "author_association": "MEMBER",
          "locked": false,
          "comments": 24,
          "pull_request": {
            "url": "https://api.github.com/repos/bitcoin/bitcoin/pulls/26598",
            "html_url": "https://github.com/bitcoin/bitcoin/pull/26598",
            "diff_url": "https://github.com/bitcoin/bitcoin/pull/26598.diff",
            "patch_url": "https://github.com/bitcoin/bitcoin/pull/26598.patch"
          },
          "closed_at": "2023-01-05T08:43:35Z",
          "created_at": "2022-11-29T12:19:42Z",
          "updated_at": "2023-01-05T09:03:30Z"
        },
        "type": "issue"
      }
    },
    {
      "event": "referenced",
      "id": 8157962124,
      "node_id": "REFE_lADOABII585XLkKTzwAAAAHmQJ-M",
      "url": "https://api.github.com/repos/bitcoin/bitcoin/issues/events/8157962124",
      "actor": {
        "login": "MarcoFalke",
        "id": 6399679,
        "node_id": "MDQ6VXNlcjYzOTk2Nzk=",
        "avatar_url": "https://avatars.githubusercontent.com/u/6399679?v=4",
        "gravatar_id": "",
        "url": "https://api.github.com/users/MarcoFalke",
        "html_url": "https://github.com/MarcoFalke",
        "followers_url": "https://api.github.com/users/MarcoFalke/followers",
        "following_url": "https://api.github.com/users/MarcoFalke/following%7B/other_user%7D",
        "gists_url": "https://api.github.com/users/MarcoFalke/gists%7B/gist_id%7D",
        "starred_url": "https://api.github.com/users/MarcoFalke/starred%7B/owner%7D%7B/repo%7D",
        "subscriptions_url": "https://api.github.com/users/MarcoFalke/subscriptions",
        "organizations_url": "https://api.github.com/users/MarcoFalke/orgs",
        "repos_url": "https://api.github.com/users/MarcoFalke/repos",
        "events_url": "https://api.github.com/users/MarcoFalke/events%7B/privacy%7D",
        "received_events_url": "https://api.github.com/users/MarcoFalke/received_events",
        "type": "User",
        "site_admin": false
      },
      "commit_id": "296e88225096125b08665b97715c5b8ebb1d28ec",
      "commit_url": "https://api.github.com/repos/bitcoin/bitcoin/commits/296e88225096125b08665b97715c5b8ebb1d28ec",
      "created_at": "2023-01-05T08:20:46Z"
    }
  ]
}