{
  "type": "issue",
  "issue": {
    "id": 1526061092,
    "node_id": "I_kwDOABII585a9dgk",
    "url": "https://api.github.com/repos/bitcoin/bitcoin/issues/26860",
    "repository_url": "https://api.github.com/repos/bitcoin/bitcoin",
    "labels_url": "https://api.github.com/repos/bitcoin/bitcoin/issues/26860/labels%7B/name%7D",
    "comments_url": "https://api.github.com/repos/bitcoin/bitcoin/issues/26860/comments",
    "events_url": "https://api.github.com/repos/bitcoin/bitcoin/issues/26860/events",
    "html_url": "https://github.com/bitcoin/bitcoin/issues/26860",
    "number": 26860,
    "state": "closed",
    "state_reason": "completed",
    "title": "contrib/install_db4.sh script fails on OpenBSD 7.2 (RPi 3) (error: Unable to find a mutex implementation)",
    "body": "When trying to compile Bitcoin Core with legacy wallet on OpenBSD 7.2 stable running on RPI3, the process fails while running\r\n\r\ninstall_db4.sh script\r\n\r\nchecking for getopt optreset variable... yes\r\nchecking for mutexes... UNIX/fcntl\r\nconfigure: WARNING: NO SHARED LATCH IMPLEMENTATION FOUND FOR THIS PLATFORM.\r\nconfigure: error: Unable to find a mutex implementation",
    "user": {
      "login": "m-kubik",
      "id": 83694689,
      "node_id": "MDQ6VXNlcjgzNjk0Njg5",
      "avatar_url": "https://avatars.githubusercontent.com/u/83694689?v=4",
      "gravatar_id": "",
      "url": "https://api.github.com/users/m-kubik",
      "html_url": "https://github.com/m-kubik",
      "followers_url": "https://api.github.com/users/m-kubik/followers",
      "following_url": "https://api.github.com/users/m-kubik/following%7B/other_user%7D",
      "gists_url": "https://api.github.com/users/m-kubik/gists%7B/gist_id%7D",
      "starred_url": "https://api.github.com/users/m-kubik/starred%7B/owner%7D%7B/repo%7D",
      "subscriptions_url": "https://api.github.com/users/m-kubik/subscriptions",
      "organizations_url": "https://api.github.com/users/m-kubik/orgs",
      "repos_url": "https://api.github.com/users/m-kubik/repos",
      "events_url": "https://api.github.com/users/m-kubik/events%7B/privacy%7D",
      "received_events_url": "https://api.github.com/users/m-kubik/received_events",
      "type": "User",
      "site_admin": false
    },
    "labels": [
      {
        "id": 64585,
        "node_id": "MDU6TGFiZWw2NDU4NQ==",
        "url": "https://api.github.com/repos/bitcoin/bitcoin/labels/Bug",
        "name": "Bug",
        "color": "FBBAAB",
        "default": false
      },
      {
        "id": 61889416,
        "node_id": "MDU6TGFiZWw2MTg4OTQxNg==",
        "url": "https://api.github.com/repos/bitcoin/bitcoin/labels/Build%20system",
        "name": "Build system",
        "color": "5319e7",
        "default": false
      }
    ],
    "assignees": [],
    "author_association": "NONE",
    "locked": false,
    "comments": 11,
    "closed_at": "2023-03-23T08:39:29Z",
    "created_at": "2023-01-09T18:01:32Z",
    "updated_at": "2023-03-23T08:39:30Z"
  },
  "events": [
    {
      "event": "labeled",
      "id": 8184390207,
      "node_id": "LE_lADOABII585a9dgkzwAAAAHn0-I_",
      "url": "https://api.github.com/repos/bitcoin/bitcoin/issues/events/8184390207",
      "actor": {
        "login": "m-kubik",
        "id": 83694689,
        "node_id": "MDQ6VXNlcjgzNjk0Njg5",
        "avatar_url": "https://avatars.githubusercontent.com/u/83694689?v=4",
        "gravatar_id": "",
        "url": "https://api.github.com/users/m-kubik",
        "html_url": "https://github.com/m-kubik",
        "followers_url": "https://api.github.com/users/m-kubik/followers",
        "following_url": "https://api.github.com/users/m-kubik/following%7B/other_user%7D",
        "gists_url": "https://api.github.com/users/m-kubik/gists%7B/gist_id%7D",
        "starred_url": "https://api.github.com/users/m-kubik/starred%7B/owner%7D%7B/repo%7D",
        "subscriptions_url": "https://api.github.com/users/m-kubik/subscriptions",
        "organizations_url": "https://api.github.com/users/m-kubik/orgs",
        "repos_url": "https://api.github.com/users/m-kubik/repos",
        "events_url": "https://api.github.com/users/m-kubik/events%7B/privacy%7D",
        "received_events_url": "https://api.github.com/users/m-kubik/received_events",
        "type": "User",
        "site_admin": false
      },
      "commit_id": null,
      "commit_url": null,
      "created_at": "2023-01-09T18:01:32Z",
      "label": {
        "name": "Bug",
        "color": "FBBAAB"
      }
    },
    {
      "event": "commented",
      "id": 1376209918,
      "node_id": "IC_kwDOABII585SB0v-",
      "url": "https://api.github.com/repos/bitcoin/bitcoin/issues/comments/1376209918",
      "actor": {
        "login": "jonatack",
        "id": 2415484,
        "node_id": "MDQ6VXNlcjI0MTU0ODQ=",
        "avatar_url": "https://avatars.githubusercontent.com/u/2415484?v=4",
        "gravatar_id": "",
        "url": "https://api.github.com/users/jonatack",
        "html_url": "https://github.com/jonatack",
        "followers_url": "https://api.github.com/users/jonatack/followers",
        "following_url": "https://api.github.com/users/jonatack/following%7B/other_user%7D",
        "gists_url": "https://api.github.com/users/jonatack/gists%7B/gist_id%7D",
        "starred_url": "https://api.github.com/users/jonatack/starred%7B/owner%7D%7B/repo%7D",
        "subscriptions_url": "https://api.github.com/users/jonatack/subscriptions",
        "organizations_url": "https://api.github.com/users/jonatack/orgs",
        "repos_url": "https://api.github.com/users/jonatack/repos",
        "events_url": "https://api.github.com/users/jonatack/events%7B/privacy%7D",
        "received_events_url": "https://api.github.com/users/jonatack/received_events",
        "type": "User",
        "site_admin": false
      },
      "commit_id": null,
      "commit_url": null,
      "created_at": "2023-01-09T19:56:44Z",
      "updated_at": "2023-01-09T19:56:44Z",
      "author_association": "CONTRIBUTOR",
      "body": "The `install_db4.sh` script looks like it may be removed in the near future, see https://github.com/bitcoin/bitcoin/pull/26772#issuecomment-1367953224 and particularly #26834 that also describes a workaround in its description that might resolve your issue.\r\n\r\nOther potential workarounds might be:\r\n- pass the `--with-incompatible-bdb` flag in your configure to use more recent versions of BDB\r\n- `brew install berkeley-db@4` to install BDB 4.8.30 on macOS (for any macOS users reading this)\r\n- upgrade your legacy wallets to descriptor wallets as described in https://github.com/bitcoin/bitcoin/blob/master/doc/managing-wallets.md#migrating-legacy-wallets-to-descriptor-wallets",
      "user": {
        "login": "jonatack",
        "id": 2415484,
        "node_id": "MDQ6VXNlcjI0MTU0ODQ=",
        "avatar_url": "https://avatars.githubusercontent.com/u/2415484?v=4",
        "gravatar_id": "",
        "url": "https://api.github.com/users/jonatack",
        "html_url": "https://github.com/jonatack",
        "followers_url": "https://api.github.com/users/jonatack/followers",
        "following_url": "https://api.github.com/users/jonatack/following%7B/other_user%7D",
        "gists_url": "https://api.github.com/users/jonatack/gists%7B/gist_id%7D",
        "starred_url": "https://api.github.com/users/jonatack/starred%7B/owner%7D%7B/repo%7D",
        "subscriptions_url": "https://api.github.com/users/jonatack/subscriptions",
        "organizations_url": "https://api.github.com/users/jonatack/orgs",
        "repos_url": "https://api.github.com/users/jonatack/repos",
        "events_url": "https://api.github.com/users/jonatack/events%7B/privacy%7D",
        "received_events_url": "https://api.github.com/users/jonatack/received_events",
        "type": "User",
        "site_admin": false
      },
      "html_url": "https://github.com/bitcoin/bitcoin/issues/26860#issuecomment-1376209918",
      "issue_url": "https://api.github.com/repos/bitcoin/bitcoin/issues/26860"
    },
    {
      "event": "commented",
      "id": 1379146076,
      "node_id": "IC_kwDOABII585SNBlc",
      "url": "https://api.github.com/repos/bitcoin/bitcoin/issues/comments/1379146076",
      "actor": {
        "login": "fanquake",
        "id": 863730,
        "node_id": "MDQ6VXNlcjg2MzczMA==",
        "avatar_url": "https://avatars.githubusercontent.com/u/863730?v=4",
        "gravatar_id": "",
        "url": "https://api.github.com/users/fanquake",
        "html_url": "https://github.com/fanquake",
        "followers_url": "https://api.github.com/users/fanquake/followers",
        "following_url": "https://api.github.com/users/fanquake/following%7B/other_user%7D",
        "gists_url": "https://api.github.com/users/fanquake/gists%7B/gist_id%7D",
        "starred_url": "https://api.github.com/users/fanquake/starred%7B/owner%7D%7B/repo%7D",
        "subscriptions_url": "https://api.github.com/users/fanquake/subscriptions",
        "organizations_url": "https://api.github.com/users/fanquake/orgs",
        "repos_url": "https://api.github.com/users/fanquake/repos",
        "events_url": "https://api.github.com/users/fanquake/events%7B/privacy%7D",
        "received_events_url": "https://api.github.com/users/fanquake/received_events",
        "type": "User",
        "site_admin": false
      },
      "commit_id": null,
      "commit_url": null,
      "created_at": "2023-01-11T16:49:51Z",
      "updated_at": "2023-01-11T16:49:51Z",
      "author_association": "MEMBER",
      "body": "> configure: WARNING: NO SHARED LATCH IMPLEMENTATION FOUND FOR THIS PLATFORM.\r\n\r\nYou can likely workaround this using: `CFLAGS=-Wno-error=implicit-function-declaration ./install_db4.sh`.",
      "user": {
        "login": "fanquake",
        "id": 863730,
        "node_id": "MDQ6VXNlcjg2MzczMA==",
        "avatar_url": "https://avatars.githubusercontent.com/u/863730?v=4",
        "gravatar_id": "",
        "url": "https://api.github.com/users/fanquake",
        "html_url": "https://github.com/fanquake",
        "followers_url": "https://api.github.com/users/fanquake/followers",
        "following_url": "https://api.github.com/users/fanquake/following%7B/other_user%7D",
        "gists_url": "https://api.github.com/users/fanquake/gists%7B/gist_id%7D",
        "starred_url": "https://api.github.com/users/fanquake/starred%7B/owner%7D%7B/repo%7D",
        "subscriptions_url": "https://api.github.com/users/fanquake/subscriptions",
        "organizations_url": "https://api.github.com/users/fanquake/orgs",
        "repos_url": "https://api.github.com/users/fanquake/repos",
        "events_url": "https://api.github.com/users/fanquake/events%7B/privacy%7D",
        "received_events_url": "https://api.github.com/users/fanquake/received_events",
        "type": "User",
        "site_admin": false
      },
      "html_url": "https://github.com/bitcoin/bitcoin/issues/26860#issuecomment-1379146076",
      "issue_url": "https://api.github.com/repos/bitcoin/bitcoin/issues/26860"
    },
    {
      "event": "commented",
      "id": 1379296665,
      "node_id": "IC_kwDOABII585SNmWZ",
      "url": "https://api.github.com/repos/bitcoin/bitcoin/issues/comments/1379296665",
      "actor": {
        "login": "m-kubik",
        "id": 83694689,
        "node_id": "MDQ6VXNlcjgzNjk0Njg5",
        "avatar_url": "https://avatars.githubusercontent.com/u/83694689?v=4",
        "gravatar_id": "",
        "url": "https://api.github.com/users/m-kubik",
        "html_url": "https://github.com/m-kubik",
        "followers_url": "https://api.github.com/users/m-kubik/followers",
        "following_url": "https://api.github.com/users/m-kubik/following%7B/other_user%7D",
        "gists_url": "https://api.github.com/users/m-kubik/gists%7B/gist_id%7D",
        "starred_url": "https://api.github.com/users/m-kubik/starred%7B/owner%7D%7B/repo%7D",
        "subscriptions_url": "https://api.github.com/users/m-kubik/subscriptions",
        "organizations_url": "https://api.github.com/users/m-kubik/orgs",
        "repos_url": "https://api.github.com/users/m-kubik/repos",
        "events_url": "https://api.github.com/users/m-kubik/events%7B/privacy%7D",
        "received_events_url": "https://api.github.com/users/m-kubik/received_events",
        "type": "User",
        "site_admin": false
      },
      "commit_id": null,
      "commit_url": null,
      "created_at": "2023-01-11T18:14:50Z",
      "updated_at": "2023-01-11T18:14:50Z",
      "author_association": "NONE",
      "body": "> > configure: WARNING: NO SHARED LATCH IMPLEMENTATION FOUND FOR THIS PLATFORM.\r\n> \r\n> You can likely workaround this using: `CFLAGS=-Wno-error=implicit-function-declaration ./install_db4.sh`.\r\n\r\nthank you, unfortunately it does not help",
      "user": {
        "login": "m-kubik",
        "id": 83694689,
        "node_id": "MDQ6VXNlcjgzNjk0Njg5",
        "avatar_url": "https://avatars.githubusercontent.com/u/83694689?v=4",
        "gravatar_id": "",
        "url": "https://api.github.com/users/m-kubik",
        "html_url": "https://github.com/m-kubik",
        "followers_url": "https://api.github.com/users/m-kubik/followers",
        "following_url": "https://api.github.com/users/m-kubik/following%7B/other_user%7D",
        "gists_url": "https://api.github.com/users/m-kubik/gists%7B/gist_id%7D",
        "starred_url": "https://api.github.com/users/m-kubik/starred%7B/owner%7D%7B/repo%7D",
        "subscriptions_url": "https://api.github.com/users/m-kubik/subscriptions",
        "organizations_url": "https://api.github.com/users/m-kubik/orgs",
        "repos_url": "https://api.github.com/users/m-kubik/repos",
        "events_url": "https://api.github.com/users/m-kubik/events%7B/privacy%7D",
        "received_events_url": "https://api.github.com/users/m-kubik/received_events",
        "type": "User",
        "site_admin": false
      },
      "html_url": "https://github.com/bitcoin/bitcoin/issues/26860#issuecomment-1379296665",
      "issue_url": "https://api.github.com/repos/bitcoin/bitcoin/issues/26860"
    },
    {
      "event": "commented",
      "id": 1379298080,
      "node_id": "IC_kwDOABII585SNmsg",
      "url": "https://api.github.com/repos/bitcoin/bitcoin/issues/comments/1379298080",
      "actor": {
        "login": "m-kubik",
        "id": 83694689,
        "node_id": "MDQ6VXNlcjgzNjk0Njg5",
        "avatar_url": "https://avatars.githubusercontent.com/u/83694689?v=4",
        "gravatar_id": "",
        "url": "https://api.github.com/users/m-kubik",
        "html_url": "https://github.com/m-kubik",
        "followers_url": "https://api.github.com/users/m-kubik/followers",
        "following_url": "https://api.github.com/users/m-kubik/following%7B/other_user%7D",
        "gists_url": "https://api.github.com/users/m-kubik/gists%7B/gist_id%7D",
        "starred_url": "https://api.github.com/users/m-kubik/starred%7B/owner%7D%7B/repo%7D",
        "subscriptions_url": "https://api.github.com/users/m-kubik/subscriptions",
        "organizations_url": "https://api.github.com/users/m-kubik/orgs",
        "repos_url": "https://api.github.com/users/m-kubik/repos",
        "events_url": "https://api.github.com/users/m-kubik/events%7B/privacy%7D",
        "received_events_url": "https://api.github.com/users/m-kubik/received_events",
        "type": "User",
        "site_admin": false
      },
      "commit_id": null,
      "commit_url": null,
      "created_at": "2023-01-11T18:15:57Z",
      "updated_at": "2023-01-11T18:15:57Z",
      "author_association": "NONE",
      "body": "> The `install_db4.sh` script looks like it may be removed in the near future, see [#26772 (comment)](https://github.com/bitcoin/bitcoin/pull/26772#issuecomment-1367953224) and particularly #26834 that also describes a workaround in its description that might resolve your issue.\r\n> \r\n> Other potential workarounds might be:\r\n> \r\n> * pass the `--with-incompatible-bdb` flag in your configure to use more recent versions of BDB\r\n> * `brew install berkeley-db@4` to install BDB 4.8.30 on macOS (for any macOS users reading this)\r\n> * upgrade your legacy wallets to descriptor wallets as described in https://github.com/bitcoin/bitcoin/blob/master/doc/managing-wallets.md#migrating-legacy-wallets-to-descriptor-wallets\r\n\r\ni was not able to go even with newer db4 version. I don't think I can go with descriptor wallet, as Electrum Personal Server does not support it",
      "user": {
        "login": "m-kubik",
        "id": 83694689,
        "node_id": "MDQ6VXNlcjgzNjk0Njg5",
        "avatar_url": "https://avatars.githubusercontent.com/u/83694689?v=4",
        "gravatar_id": "",
        "url": "https://api.github.com/users/m-kubik",
        "html_url": "https://github.com/m-kubik",
        "followers_url": "https://api.github.com/users/m-kubik/followers",
        "following_url": "https://api.github.com/users/m-kubik/following%7B/other_user%7D",
        "gists_url": "https://api.github.com/users/m-kubik/gists%7B/gist_id%7D",
        "starred_url": "https://api.github.com/users/m-kubik/starred%7B/owner%7D%7B/repo%7D",
        "subscriptions_url": "https://api.github.com/users/m-kubik/subscriptions",
        "organizations_url": "https://api.github.com/users/m-kubik/orgs",
        "repos_url": "https://api.github.com/users/m-kubik/repos",
        "events_url": "https://api.github.com/users/m-kubik/events%7B/privacy%7D",
        "received_events_url": "https://api.github.com/users/m-kubik/received_events",
        "type": "User",
        "site_admin": false
      },
      "html_url": "https://github.com/bitcoin/bitcoin/issues/26860#issuecomment-1379298080",
      "issue_url": "https://api.github.com/repos/bitcoin/bitcoin/issues/26860"
    },
    {
      "event": "commented",
      "id": 1380050153,
      "node_id": "IC_kwDOABII585SQeTp",
      "url": "https://api.github.com/repos/bitcoin/bitcoin/issues/comments/1380050153",
      "actor": {
        "login": "fanquake",
        "id": 863730,
        "node_id": "MDQ6VXNlcjg2MzczMA==",
        "avatar_url": "https://avatars.githubusercontent.com/u/863730?v=4",
        "gravatar_id": "",
        "url": "https://api.github.com/users/fanquake",
        "html_url": "https://github.com/fanquake",
        "followers_url": "https://api.github.com/users/fanquake/followers",
        "following_url": "https://api.github.com/users/fanquake/following%7B/other_user%7D",
        "gists_url": "https://api.github.com/users/fanquake/gists%7B/gist_id%7D",
        "starred_url": "https://api.github.com/users/fanquake/starred%7B/owner%7D%7B/repo%7D",
        "subscriptions_url": "https://api.github.com/users/fanquake/subscriptions",
        "organizations_url": "https://api.github.com/users/fanquake/orgs",
        "repos_url": "https://api.github.com/users/fanquake/repos",
        "events_url": "https://api.github.com/users/fanquake/events%7B/privacy%7D",
        "received_events_url": "https://api.github.com/users/fanquake/received_events",
        "type": "User",
        "site_admin": false
      },
      "commit_id": null,
      "commit_url": null,
      "created_at": "2023-01-12T09:38:01Z",
      "updated_at": "2023-01-12T09:38:01Z",
      "author_association": "MEMBER",
      "body": "> thank you, unfortunately it does not help\r\n\r\nIn that case, you'll have to provide the config.log that contains the details of what is failing.",
      "user": {
        "login": "fanquake",
        "id": 863730,
        "node_id": "MDQ6VXNlcjg2MzczMA==",
        "avatar_url": "https://avatars.githubusercontent.com/u/863730?v=4",
        "gravatar_id": "",
        "url": "https://api.github.com/users/fanquake",
        "html_url": "https://github.com/fanquake",
        "followers_url": "https://api.github.com/users/fanquake/followers",
        "following_url": "https://api.github.com/users/fanquake/following%7B/other_user%7D",
        "gists_url": "https://api.github.com/users/fanquake/gists%7B/gist_id%7D",
        "starred_url": "https://api.github.com/users/fanquake/starred%7B/owner%7D%7B/repo%7D",
        "subscriptions_url": "https://api.github.com/users/fanquake/subscriptions",
        "organizations_url": "https://api.github.com/users/fanquake/orgs",
        "repos_url": "https://api.github.com/users/fanquake/repos",
        "events_url": "https://api.github.com/users/fanquake/events%7B/privacy%7D",
        "received_events_url": "https://api.github.com/users/fanquake/received_events",
        "type": "User",
        "site_admin": false
      },
      "html_url": "https://github.com/bitcoin/bitcoin/issues/26860#issuecomment-1380050153",
      "issue_url": "https://api.github.com/repos/bitcoin/bitcoin/issues/26860"
    },
    {
      "event": "commented",
      "id": 1403951659,
      "node_id": "IC_kwDOABII585Trpor",
      "url": "https://api.github.com/repos/bitcoin/bitcoin/issues/comments/1403951659",
      "actor": {
        "login": "m-kubik",
        "id": 83694689,
        "node_id": "MDQ6VXNlcjgzNjk0Njg5",
        "avatar_url": "https://avatars.githubusercontent.com/u/83694689?v=4",
        "gravatar_id": "",
        "url": "https://api.github.com/users/m-kubik",
        "html_url": "https://github.com/m-kubik",
        "followers_url": "https://api.github.com/users/m-kubik/followers",
        "following_url": "https://api.github.com/users/m-kubik/following%7B/other_user%7D",
        "gists_url": "https://api.github.com/users/m-kubik/gists%7B/gist_id%7D",
        "starred_url": "https://api.github.com/users/m-kubik/starred%7B/owner%7D%7B/repo%7D",
        "subscriptions_url": "https://api.github.com/users/m-kubik/subscriptions",
        "organizations_url": "https://api.github.com/users/m-kubik/orgs",
        "repos_url": "https://api.github.com/users/m-kubik/repos",
        "events_url": "https://api.github.com/users/m-kubik/events%7B/privacy%7D",
        "received_events_url": "https://api.github.com/users/m-kubik/received_events",
        "type": "User",
        "site_admin": false
      },
      "commit_id": null,
      "commit_url": null,
      "created_at": "2023-01-25T17:09:53Z",
      "updated_at": "2023-01-25T17:09:53Z",
      "author_association": "NONE",
      "body": "> \r\n\r\nHello, sorry for delay with this one, I was out for few days.\r\nAttaching the config.log\r\n[config.log](https://github.com/bitcoin/bitcoin/files/10501709/config.log)\r\n",
      "user": {
        "login": "m-kubik",
        "id": 83694689,
        "node_id": "MDQ6VXNlcjgzNjk0Njg5",
        "avatar_url": "https://avatars.githubusercontent.com/u/83694689?v=4",
        "gravatar_id": "",
        "url": "https://api.github.com/users/m-kubik",
        "html_url": "https://github.com/m-kubik",
        "followers_url": "https://api.github.com/users/m-kubik/followers",
        "following_url": "https://api.github.com/users/m-kubik/following%7B/other_user%7D",
        "gists_url": "https://api.github.com/users/m-kubik/gists%7B/gist_id%7D",
        "starred_url": "https://api.github.com/users/m-kubik/starred%7B/owner%7D%7B/repo%7D",
        "subscriptions_url": "https://api.github.com/users/m-kubik/subscriptions",
        "organizations_url": "https://api.github.com/users/m-kubik/orgs",
        "repos_url": "https://api.github.com/users/m-kubik/repos",
        "events_url": "https://api.github.com/users/m-kubik/events%7B/privacy%7D",
        "received_events_url": "https://api.github.com/users/m-kubik/received_events",
        "type": "User",
        "site_admin": false
      },
      "html_url": "https://github.com/bitcoin/bitcoin/issues/26860#issuecomment-1403951659",
      "issue_url": "https://api.github.com/repos/bitcoin/bitcoin/issues/26860"
    },
    {
      "event": "commented",
      "id": 1403959854,
      "node_id": "IC_kwDOABII585Trrou",
      "url": "https://api.github.com/repos/bitcoin/bitcoin/issues/comments/1403959854",
      "actor": {
        "login": "fanquake",
        "id": 863730,
        "node_id": "MDQ6VXNlcjg2MzczMA==",
        "avatar_url": "https://avatars.githubusercontent.com/u/863730?v=4",
        "gravatar_id": "",
        "url": "https://api.github.com/users/fanquake",
        "html_url": "https://github.com/fanquake",
        "followers_url": "https://api.github.com/users/fanquake/followers",
        "following_url": "https://api.github.com/users/fanquake/following%7B/other_user%7D",
        "gists_url": "https://api.github.com/users/fanquake/gists%7B/gist_id%7D",
        "starred_url": "https://api.github.com/users/fanquake/starred%7B/owner%7D%7B/repo%7D",
        "subscriptions_url": "https://api.github.com/users/fanquake/subscriptions",
        "organizations_url": "https://api.github.com/users/fanquake/orgs",
        "repos_url": "https://api.github.com/users/fanquake/repos",
        "events_url": "https://api.github.com/users/fanquake/events%7B/privacy%7D",
        "received_events_url": "https://api.github.com/users/fanquake/received_events",
        "type": "User",
        "site_admin": false
      },
      "commit_id": null,
      "commit_url": null,
      "created_at": "2023-01-25T17:15:56Z",
      "updated_at": "2023-01-25T17:15:56Z",
      "author_association": "MEMBER",
      "body": "> Attaching the config.log\r\n> configure:19488: cc -o conftest -O3    conftest.c  >&5\r\nconftest.c:50:2: warning: implicit declaration of function '_spin_lock_try' is invalid in C99 [-Wimplicit-function-declaration]\r\n        _spin_lock_try(&x);\r\n        ^\r\nconftest.c:51:2: warning: implicit declaration of function '_spin_unlock' is invalid in C99 [-Wimplicit-function-declaration]\r\n        _spin_unlock(&x);\r\n        ^\r\n\r\nAre you sure that this\r\n[> You can likely workaround this using: CFLAGS=-Wno-error=implicit-function-declaration ./install_db4.sh.](https://github.com/bitcoin/bitcoin/issues/26860#issuecomment-1379146076)\r\n\r\ndoesn't work? Passing `-Wno-error=implicit-function-declaration` will prevent the configure check from failing as it is in your log.",
      "user": {
        "login": "fanquake",
        "id": 863730,
        "node_id": "MDQ6VXNlcjg2MzczMA==",
        "avatar_url": "https://avatars.githubusercontent.com/u/863730?v=4",
        "gravatar_id": "",
        "url": "https://api.github.com/users/fanquake",
        "html_url": "https://github.com/fanquake",
        "followers_url": "https://api.github.com/users/fanquake/followers",
        "following_url": "https://api.github.com/users/fanquake/following%7B/other_user%7D",
        "gists_url": "https://api.github.com/users/fanquake/gists%7B/gist_id%7D",
        "starred_url": "https://api.github.com/users/fanquake/starred%7B/owner%7D%7B/repo%7D",
        "subscriptions_url": "https://api.github.com/users/fanquake/subscriptions",
        "organizations_url": "https://api.github.com/users/fanquake/orgs",
        "repos_url": "https://api.github.com/users/fanquake/repos",
        "events_url": "https://api.github.com/users/fanquake/events%7B/privacy%7D",
        "received_events_url": "https://api.github.com/users/fanquake/received_events",
        "type": "User",
        "site_admin": false
      },
      "html_url": "https://github.com/bitcoin/bitcoin/issues/26860#issuecomment-1403959854",
      "issue_url": "https://api.github.com/repos/bitcoin/bitcoin/issues/26860"
    },
    {
      "event": "commented",
      "id": 1403980209,
      "node_id": "IC_kwDOABII585Trwmx",
      "url": "https://api.github.com/repos/bitcoin/bitcoin/issues/comments/1403980209",
      "actor": {
        "login": "m-kubik",
        "id": 83694689,
        "node_id": "MDQ6VXNlcjgzNjk0Njg5",
        "avatar_url": "https://avatars.githubusercontent.com/u/83694689?v=4",
        "gravatar_id": "",
        "url": "https://api.github.com/users/m-kubik",
        "html_url": "https://github.com/m-kubik",
        "followers_url": "https://api.github.com/users/m-kubik/followers",
        "following_url": "https://api.github.com/users/m-kubik/following%7B/other_user%7D",
        "gists_url": "https://api.github.com/users/m-kubik/gists%7B/gist_id%7D",
        "starred_url": "https://api.github.com/users/m-kubik/starred%7B/owner%7D%7B/repo%7D",
        "subscriptions_url": "https://api.github.com/users/m-kubik/subscriptions",
        "organizations_url": "https://api.github.com/users/m-kubik/orgs",
        "repos_url": "https://api.github.com/users/m-kubik/repos",
        "events_url": "https://api.github.com/users/m-kubik/events%7B/privacy%7D",
        "received_events_url": "https://api.github.com/users/m-kubik/received_events",
        "type": "User",
        "site_admin": false
      },
      "commit_id": null,
      "commit_url": null,
      "created_at": "2023-01-25T17:28:16Z",
      "updated_at": "2023-01-25T17:28:16Z",
      "author_association": "NONE",
      "body": "> > Attaching the config.log\r\n> > configure:19488: cc -o conftest -O3    conftest.c  >&5\r\n> > conftest.c:50:2: warning: implicit declaration of function '_spin_lock_try' is invalid in C99 [-Wimplicit-function-declaration]\r\n> > _spin_lock_try(&x);\r\n> > ^\r\n> > conftest.c:51:2: warning: implicit declaration of function '_spin_unlock' is invalid in C99 [-Wimplicit-function-declaration]\r\n> > _spin_unlock(&x);\r\n> > ^\r\n> \r\n> Are you sure that this [> You can likely workaround this using: CFLAGS=-Wno-error=implicit-function-declaration ./install_db4.sh.](https://github.com/bitcoin/bitcoin/issues/26860#issuecomment-1379146076)\r\n> \r\n> doesn't work? Passing `-Wno-error=implicit-function-declaration` will prevent the configure check from failing as it is in your log.\r\n\r\nwell, hopefully I'm not doing it incorrectly. Just run again with these flags having same error. In the config.log I see some errors around it. Attaching\r\n[config.log](https://github.com/bitcoin/bitcoin/files/10501889/config.log)\r\n",
      "user": {
        "login": "m-kubik",
        "id": 83694689,
        "node_id": "MDQ6VXNlcjgzNjk0Njg5",
        "avatar_url": "https://avatars.githubusercontent.com/u/83694689?v=4",
        "gravatar_id": "",
        "url": "https://api.github.com/users/m-kubik",
        "html_url": "https://github.com/m-kubik",
        "followers_url": "https://api.github.com/users/m-kubik/followers",
        "following_url": "https://api.github.com/users/m-kubik/following%7B/other_user%7D",
        "gists_url": "https://api.github.com/users/m-kubik/gists%7B/gist_id%7D",
        "starred_url": "https://api.github.com/users/m-kubik/starred%7B/owner%7D%7B/repo%7D",
        "subscriptions_url": "https://api.github.com/users/m-kubik/subscriptions",
        "organizations_url": "https://api.github.com/users/m-kubik/orgs",
        "repos_url": "https://api.github.com/users/m-kubik/repos",
        "events_url": "https://api.github.com/users/m-kubik/events%7B/privacy%7D",
        "received_events_url": "https://api.github.com/users/m-kubik/received_events",
        "type": "User",
        "site_admin": false
      },
      "html_url": "https://github.com/bitcoin/bitcoin/issues/26860#issuecomment-1403980209",
      "issue_url": "https://api.github.com/repos/bitcoin/bitcoin/issues/26860"
    },
    {
      "event": "commented",
      "id": 1443978351,
      "node_id": "IC_kwDOABII585WEVxv",
      "url": "https://api.github.com/repos/bitcoin/bitcoin/issues/comments/1443978351",
      "actor": {
        "login": "fanquake",
        "id": 863730,
        "node_id": "MDQ6VXNlcjg2MzczMA==",
        "avatar_url": "https://avatars.githubusercontent.com/u/863730?v=4",
        "gravatar_id": "",
        "url": "https://api.github.com/users/fanquake",
        "html_url": "https://github.com/fanquake",
        "followers_url": "https://api.github.com/users/fanquake/followers",
        "following_url": "https://api.github.com/users/fanquake/following%7B/other_user%7D",
        "gists_url": "https://api.github.com/users/fanquake/gists%7B/gist_id%7D",
        "starred_url": "https://api.github.com/users/fanquake/starred%7B/owner%7D%7B/repo%7D",
        "subscriptions_url": "https://api.github.com/users/fanquake/subscriptions",
        "organizations_url": "https://api.github.com/users/fanquake/orgs",
        "repos_url": "https://api.github.com/users/fanquake/repos",
        "events_url": "https://api.github.com/users/fanquake/events%7B/privacy%7D",
        "received_events_url": "https://api.github.com/users/fanquake/received_events",
        "type": "User",
        "site_admin": false
      },
      "commit_id": null,
      "commit_url": null,
      "created_at": "2023-02-24T16:38:07Z",
      "updated_at": "2023-02-24T16:38:07Z",
      "author_association": "MEMBER",
      "body": "@m-kubik were you compiling the master branch? We have since removed this script, in favour of using depends. You can see the updated OpenBSD build instructions here: https://github.com/bitcoin/bitcoin/blob/master/doc/build-openbsd.md.",
      "user": {
        "login": "fanquake",
        "id": 863730,
        "node_id": "MDQ6VXNlcjg2MzczMA==",
        "avatar_url": "https://avatars.githubusercontent.com/u/863730?v=4",
        "gravatar_id": "",
        "url": "https://api.github.com/users/fanquake",
        "html_url": "https://github.com/fanquake",
        "followers_url": "https://api.github.com/users/fanquake/followers",
        "following_url": "https://api.github.com/users/fanquake/following%7B/other_user%7D",
        "gists_url": "https://api.github.com/users/fanquake/gists%7B/gist_id%7D",
        "starred_url": "https://api.github.com/users/fanquake/starred%7B/owner%7D%7B/repo%7D",
        "subscriptions_url": "https://api.github.com/users/fanquake/subscriptions",
        "organizations_url": "https://api.github.com/users/fanquake/orgs",
        "repos_url": "https://api.github.com/users/fanquake/repos",
        "events_url": "https://api.github.com/users/fanquake/events%7B/privacy%7D",
        "received_events_url": "https://api.github.com/users/fanquake/received_events",
        "type": "User",
        "site_admin": false
      },
      "html_url": "https://github.com/bitcoin/bitcoin/issues/26860#issuecomment-1443978351",
      "issue_url": "https://api.github.com/repos/bitcoin/bitcoin/issues/26860"
    },
    {
      "event": "mentioned",
      "id": 8603740236,
      "node_id": "MEE_lADOABII585a9dgkzwAAAAIA0qhM",
      "url": "https://api.github.com/repos/bitcoin/bitcoin/issues/events/8603740236",
      "actor": {
        "login": "m-kubik",
        "id": 83694689,
        "node_id": "MDQ6VXNlcjgzNjk0Njg5",
        "avatar_url": "https://avatars.githubusercontent.com/u/83694689?v=4",
        "gravatar_id": "",
        "url": "https://api.github.com/users/m-kubik",
        "html_url": "https://github.com/m-kubik",
        "followers_url": "https://api.github.com/users/m-kubik/followers",
        "following_url": "https://api.github.com/users/m-kubik/following%7B/other_user%7D",
        "gists_url": "https://api.github.com/users/m-kubik/gists%7B/gist_id%7D",
        "starred_url": "https://api.github.com/users/m-kubik/starred%7B/owner%7D%7B/repo%7D",
        "subscriptions_url": "https://api.github.com/users/m-kubik/subscriptions",
        "organizations_url": "https://api.github.com/users/m-kubik/orgs",
        "repos_url": "https://api.github.com/users/m-kubik/repos",
        "events_url": "https://api.github.com/users/m-kubik/events%7B/privacy%7D",
        "received_events_url": "https://api.github.com/users/m-kubik/received_events",
        "type": "User",
        "site_admin": false
      },
      "commit_id": null,
      "commit_url": null,
      "created_at": "2023-02-24T16:38:07Z"
    },
    {
      "event": "subscribed",
      "id": 8603740264,
      "node_id": "SE_lADOABII585a9dgkzwAAAAIA0qho",
      "url": "https://api.github.com/repos/bitcoin/bitcoin/issues/events/8603740264",
      "actor": {
        "login": "m-kubik",
        "id": 83694689,
        "node_id": "MDQ6VXNlcjgzNjk0Njg5",
        "avatar_url": "https://avatars.githubusercontent.com/u/83694689?v=4",
        "gravatar_id": "",
        "url": "https://api.github.com/users/m-kubik",
        "html_url": "https://github.com/m-kubik",
        "followers_url": "https://api.github.com/users/m-kubik/followers",
        "following_url": "https://api.github.com/users/m-kubik/following%7B/other_user%7D",
        "gists_url": "https://api.github.com/users/m-kubik/gists%7B/gist_id%7D",
        "starred_url": "https://api.github.com/users/m-kubik/starred%7B/owner%7D%7B/repo%7D",
        "subscriptions_url": "https://api.github.com/users/m-kubik/subscriptions",
        "organizations_url": "https://api.github.com/users/m-kubik/orgs",
        "repos_url": "https://api.github.com/users/m-kubik/repos",
        "events_url": "https://api.github.com/users/m-kubik/events%7B/privacy%7D",
        "received_events_url": "https://api.github.com/users/m-kubik/received_events",
        "type": "User",
        "site_admin": false
      },
      "commit_id": null,
      "commit_url": null,
      "created_at": "2023-02-24T16:38:08Z"
    },
    {
      "event": "commented",
      "id": 1480275742,
      "node_id": "IC_kwDOABII585YOzce",
      "url": "https://api.github.com/repos/bitcoin/bitcoin/issues/comments/1480275742",
      "actor": {
        "login": "willcl-ark",
        "id": 6606587,
        "node_id": "MDQ6VXNlcjY2MDY1ODc=",
        "avatar_url": "https://avatars.githubusercontent.com/u/6606587?v=4",
        "gravatar_id": "",
        "url": "https://api.github.com/users/willcl-ark",
        "html_url": "https://github.com/willcl-ark",
        "followers_url": "https://api.github.com/users/willcl-ark/followers",
        "following_url": "https://api.github.com/users/willcl-ark/following%7B/other_user%7D",
        "gists_url": "https://api.github.com/users/willcl-ark/gists%7B/gist_id%7D",
        "starred_url": "https://api.github.com/users/willcl-ark/starred%7B/owner%7D%7B/repo%7D",
        "subscriptions_url": "https://api.github.com/users/willcl-ark/subscriptions",
        "organizations_url": "https://api.github.com/users/willcl-ark/orgs",
        "repos_url": "https://api.github.com/users/willcl-ark/repos",
        "events_url": "https://api.github.com/users/willcl-ark/events%7B/privacy%7D",
        "received_events_url": "https://api.github.com/users/willcl-ark/received_events",
        "type": "User",
        "site_admin": false
      },
      "commit_id": null,
      "commit_url": null,
      "created_at": "2023-03-22T21:20:08Z",
      "updated_at": "2023-03-22T21:20:08Z",
      "author_association": "CONTRIBUTOR",
      "body": "@m-kubik were you able to get this working with depends? If so I think we can probably close this issue.",
      "user": {
        "login": "willcl-ark",
        "id": 6606587,
        "node_id": "MDQ6VXNlcjY2MDY1ODc=",
        "avatar_url": "https://avatars.githubusercontent.com/u/6606587?v=4",
        "gravatar_id": "",
        "url": "https://api.github.com/users/willcl-ark",
        "html_url": "https://github.com/willcl-ark",
        "followers_url": "https://api.github.com/users/willcl-ark/followers",
        "following_url": "https://api.github.com/users/willcl-ark/following%7B/other_user%7D",
        "gists_url": "https://api.github.com/users/willcl-ark/gists%7B/gist_id%7D",
        "starred_url": "https://api.github.com/users/willcl-ark/starred%7B/owner%7D%7B/repo%7D",
        "subscriptions_url": "https://api.github.com/users/willcl-ark/subscriptions",
        "organizations_url": "https://api.github.com/users/willcl-ark/orgs",
        "repos_url": "https://api.github.com/users/willcl-ark/repos",
        "events_url": "https://api.github.com/users/willcl-ark/events%7B/privacy%7D",
        "received_events_url": "https://api.github.com/users/willcl-ark/received_events",
        "type": "User",
        "site_admin": false
      },
      "html_url": "https://github.com/bitcoin/bitcoin/issues/26860#issuecomment-1480275742",
      "issue_url": "https://api.github.com/repos/bitcoin/bitcoin/issues/26860"
    },
    {
      "event": "mentioned",
      "id": 8821328051,
      "node_id": "MEE_lADOABII585a9dgkzwAAAAINysiz",
      "url": "https://api.github.com/repos/bitcoin/bitcoin/issues/events/8821328051",
      "actor": {
        "login": "m-kubik",
        "id": 83694689,
        "node_id": "MDQ6VXNlcjgzNjk0Njg5",
        "avatar_url": "https://avatars.githubusercontent.com/u/83694689?v=4",
        "gravatar_id": "",
        "url": "https://api.github.com/users/m-kubik",
        "html_url": "https://github.com/m-kubik",
        "followers_url": "https://api.github.com/users/m-kubik/followers",
        "following_url": "https://api.github.com/users/m-kubik/following%7B/other_user%7D",
        "gists_url": "https://api.github.com/users/m-kubik/gists%7B/gist_id%7D",
        "starred_url": "https://api.github.com/users/m-kubik/starred%7B/owner%7D%7B/repo%7D",
        "subscriptions_url": "https://api.github.com/users/m-kubik/subscriptions",
        "organizations_url": "https://api.github.com/users/m-kubik/orgs",
        "repos_url": "https://api.github.com/users/m-kubik/repos",
        "events_url": "https://api.github.com/users/m-kubik/events%7B/privacy%7D",
        "received_events_url": "https://api.github.com/users/m-kubik/received_events",
        "type": "User",
        "site_admin": false
      },
      "commit_id": null,
      "commit_url": null,
      "created_at": "2023-03-22T21:20:08Z"
    },
    {
      "event": "subscribed",
      "id": 8821328065,
      "node_id": "SE_lADOABII585a9dgkzwAAAAINysjB",
      "url": "https://api.github.com/repos/bitcoin/bitcoin/issues/events/8821328065",
      "actor": {
        "login": "m-kubik",
        "id": 83694689,
        "node_id": "MDQ6VXNlcjgzNjk0Njg5",
        "avatar_url": "https://avatars.githubusercontent.com/u/83694689?v=4",
        "gravatar_id": "",
        "url": "https://api.github.com/users/m-kubik",
        "html_url": "https://github.com/m-kubik",
        "followers_url": "https://api.github.com/users/m-kubik/followers",
        "following_url": "https://api.github.com/users/m-kubik/following%7B/other_user%7D",
        "gists_url": "https://api.github.com/users/m-kubik/gists%7B/gist_id%7D",
        "starred_url": "https://api.github.com/users/m-kubik/starred%7B/owner%7D%7B/repo%7D",
        "subscriptions_url": "https://api.github.com/users/m-kubik/subscriptions",
        "organizations_url": "https://api.github.com/users/m-kubik/orgs",
        "repos_url": "https://api.github.com/users/m-kubik/repos",
        "events_url": "https://api.github.com/users/m-kubik/events%7B/privacy%7D",
        "received_events_url": "https://api.github.com/users/m-kubik/received_events",
        "type": "User",
        "site_admin": false
      },
      "commit_id": null,
      "commit_url": null,
      "created_at": "2023-03-22T21:20:08Z"
    },
    {
      "event": "labeled",
      "id": 8824673571,
      "node_id": "LE_lADOABII585a9dgkzwAAAAIN_dUj",
      "url": "https://api.github.com/repos/bitcoin/bitcoin/issues/events/8824673571",
      "actor": {
        "login": "MarcoFalke",
        "id": 6399679,
        "node_id": "MDQ6VXNlcjYzOTk2Nzk=",
        "avatar_url": "https://avatars.githubusercontent.com/u/6399679?v=4",
        "gravatar_id": "",
        "url": "https://api.github.com/users/MarcoFalke",
        "html_url": "https://github.com/MarcoFalke",
        "followers_url": "https://api.github.com/users/MarcoFalke/followers",
        "following_url": "https://api.github.com/users/MarcoFalke/following%7B/other_user%7D",
        "gists_url": "https://api.github.com/users/MarcoFalke/gists%7B/gist_id%7D",
        "starred_url": "https://api.github.com/users/MarcoFalke/starred%7B/owner%7D%7B/repo%7D",
        "subscriptions_url": "https://api.github.com/users/MarcoFalke/subscriptions",
        "organizations_url": "https://api.github.com/users/MarcoFalke/orgs",
        "repos_url": "https://api.github.com/users/MarcoFalke/repos",
        "events_url": "https://api.github.com/users/MarcoFalke/events%7B/privacy%7D",
        "received_events_url": "https://api.github.com/users/MarcoFalke/received_events",
        "type": "User",
        "site_admin": false
      },
      "commit_id": null,
      "commit_url": null,
      "created_at": "2023-03-23T08:38:48Z",
      "label": {
        "name": "Build system",
        "color": "5319e7"
      }
    },
    {
      "event": "commented",
      "id": 1480787053,
      "node_id": "IC_kwDOABII585YQwRt",
      "url": "https://api.github.com/repos/bitcoin/bitcoin/issues/comments/1480787053",
      "actor": {
        "login": "MarcoFalke",
        "id": 6399679,
        "node_id": "MDQ6VXNlcjYzOTk2Nzk=",
        "avatar_url": "https://avatars.githubusercontent.com/u/6399679?v=4",
        "gravatar_id": "",
        "url": "https://api.github.com/users/MarcoFalke",
        "html_url": "https://github.com/MarcoFalke",
        "followers_url": "https://api.github.com/users/MarcoFalke/followers",
        "following_url": "https://api.github.com/users/MarcoFalke/following%7B/other_user%7D",
        "gists_url": "https://api.github.com/users/MarcoFalke/gists%7B/gist_id%7D",
        "starred_url": "https://api.github.com/users/MarcoFalke/starred%7B/owner%7D%7B/repo%7D",
        "subscriptions_url": "https://api.github.com/users/MarcoFalke/subscriptions",
        "organizations_url": "https://api.github.com/users/MarcoFalke/orgs",
        "repos_url": "https://api.github.com/users/MarcoFalke/repos",
        "events_url": "https://api.github.com/users/MarcoFalke/events%7B/privacy%7D",
        "received_events_url": "https://api.github.com/users/MarcoFalke/received_events",
        "type": "User",
        "site_admin": false
      },
      "commit_id": null,
      "commit_url": null,
      "created_at": "2023-03-23T08:39:29Z",
      "updated_at": "2023-03-23T08:39:29Z",
      "author_association": "MEMBER",
      "body": "Closing for now. Let us know if this is still an issue and should be reopened.",
      "user": {
        "login": "MarcoFalke",
        "id": 6399679,
        "node_id": "MDQ6VXNlcjYzOTk2Nzk=",
        "avatar_url": "https://avatars.githubusercontent.com/u/6399679?v=4",
        "gravatar_id": "",
        "url": "https://api.github.com/users/MarcoFalke",
        "html_url": "https://github.com/MarcoFalke",
        "followers_url": "https://api.github.com/users/MarcoFalke/followers",
        "following_url": "https://api.github.com/users/MarcoFalke/following%7B/other_user%7D",
        "gists_url": "https://api.github.com/users/MarcoFalke/gists%7B/gist_id%7D",
        "starred_url": "https://api.github.com/users/MarcoFalke/starred%7B/owner%7D%7B/repo%7D",
        "subscriptions_url": "https://api.github.com/users/MarcoFalke/subscriptions",
        "organizations_url": "https://api.github.com/users/MarcoFalke/orgs",
        "repos_url": "https://api.github.com/users/MarcoFalke/repos",
        "events_url": "https://api.github.com/users/MarcoFalke/events%7B/privacy%7D",
        "received_events_url": "https://api.github.com/users/MarcoFalke/received_events",
        "type": "User",
        "site_admin": false
      },
      "html_url": "https://github.com/bitcoin/bitcoin/issues/26860#issuecomment-1480787053",
      "issue_url": "https://api.github.com/repos/bitcoin/bitcoin/issues/26860"
    },
    {
      "event": "closed",
      "id": 8824679308,
      "node_id": "CE_lADOABII585a9dgkzwAAAAIN_euM",
      "url": "https://api.github.com/repos/bitcoin/bitcoin/issues/events/8824679308",
      "actor": {
        "login": "MarcoFalke",
        "id": 6399679,
        "node_id": "MDQ6VXNlcjYzOTk2Nzk=",
        "avatar_url": "https://avatars.githubusercontent.com/u/6399679?v=4",
        "gravatar_id": "",
        "url": "https://api.github.com/users/MarcoFalke",
        "html_url": "https://github.com/MarcoFalke",
        "followers_url": "https://api.github.com/users/MarcoFalke/followers",
        "following_url": "https://api.github.com/users/MarcoFalke/following%7B/other_user%7D",
        "gists_url": "https://api.github.com/users/MarcoFalke/gists%7B/gist_id%7D",
        "starred_url": "https://api.github.com/users/MarcoFalke/starred%7B/owner%7D%7B/repo%7D",
        "subscriptions_url": "https://api.github.com/users/MarcoFalke/subscriptions",
        "organizations_url": "https://api.github.com/users/MarcoFalke/orgs",
        "repos_url": "https://api.github.com/users/MarcoFalke/repos",
        "events_url": "https://api.github.com/users/MarcoFalke/events%7B/privacy%7D",
        "received_events_url": "https://api.github.com/users/MarcoFalke/received_events",
        "type": "User",
        "site_admin": false
      },
      "commit_id": null,
      "commit_url": null,
      "created_at": "2023-03-23T08:39:29Z"
    }
  ]
}