{
  "type": "issue",
  "issue": {
    "id": 1563186477,
    "node_id": "I_kwDOABII585dLFUt",
    "url": "https://api.github.com/repos/bitcoin/bitcoin/issues/27001",
    "repository_url": "https://api.github.com/repos/bitcoin/bitcoin",
    "labels_url": "https://api.github.com/repos/bitcoin/bitcoin/issues/27001/labels%7B/name%7D",
    "comments_url": "https://api.github.com/repos/bitcoin/bitcoin/issues/27001/comments",
    "events_url": "https://api.github.com/repos/bitcoin/bitcoin/issues/27001/events",
    "html_url": "https://github.com/bitcoin/bitcoin/issues/27001",
    "number": 27001,
    "state": "closed",
    "state_reason": "completed",
    "title": "MSan CI failure in psbt_wallet_tests and feebumper_tests",
    "body": "\"SUMMARY: MemorySanitizer: use-of-uninitialized-value (/tmp/cirrus-ci-build/ci/scratch/build/bitcoin-x86_64-pc-linux-gnu/src/test/test_bitcoin+0x319da5b) in sqlite3Strlen30\"\r\n\r\nhttps://cirrus-ci.com/task/5119169004306432?logs=ci#L3638\r\nand\r\nhttps://cirrus-ci.com/task/5119169004306432?logs=ci#L3762\r\n",
    "user": {
      "login": "jonatack",
      "id": 2415484,
      "node_id": "MDQ6VXNlcjI0MTU0ODQ=",
      "avatar_url": "https://avatars.githubusercontent.com/u/2415484?v=4",
      "gravatar_id": "",
      "url": "https://api.github.com/users/jonatack",
      "html_url": "https://github.com/jonatack",
      "followers_url": "https://api.github.com/users/jonatack/followers",
      "following_url": "https://api.github.com/users/jonatack/following%7B/other_user%7D",
      "gists_url": "https://api.github.com/users/jonatack/gists%7B/gist_id%7D",
      "starred_url": "https://api.github.com/users/jonatack/starred%7B/owner%7D%7B/repo%7D",
      "subscriptions_url": "https://api.github.com/users/jonatack/subscriptions",
      "organizations_url": "https://api.github.com/users/jonatack/orgs",
      "repos_url": "https://api.github.com/users/jonatack/repos",
      "events_url": "https://api.github.com/users/jonatack/events%7B/privacy%7D",
      "received_events_url": "https://api.github.com/users/jonatack/received_events",
      "type": "User",
      "site_admin": false
    },
    "labels": [],
    "assignees": [],
    "author_association": "CONTRIBUTOR",
    "locked": false,
    "comments": 4,
    "closed_at": "2023-01-30T22:26:45Z",
    "created_at": "2023-01-30T20:55:05Z",
    "updated_at": "2023-06-25T00:24:06Z"
  },
  "events": [
    {
      "event": "labeled",
      "id": 8392410278,
      "node_id": "LE_lADOABII585dLFUtzwAAAAH0OgSm",
      "url": "https://api.github.com/repos/bitcoin/bitcoin/issues/events/8392410278",
      "actor": {
        "login": "jonatack",
        "id": 2415484,
        "node_id": "MDQ6VXNlcjI0MTU0ODQ=",
        "avatar_url": "https://avatars.githubusercontent.com/u/2415484?v=4",
        "gravatar_id": "",
        "url": "https://api.github.com/users/jonatack",
        "html_url": "https://github.com/jonatack",
        "followers_url": "https://api.github.com/users/jonatack/followers",
        "following_url": "https://api.github.com/users/jonatack/following%7B/other_user%7D",
        "gists_url": "https://api.github.com/users/jonatack/gists%7B/gist_id%7D",
        "starred_url": "https://api.github.com/users/jonatack/starred%7B/owner%7D%7B/repo%7D",
        "subscriptions_url": "https://api.github.com/users/jonatack/subscriptions",
        "organizations_url": "https://api.github.com/users/jonatack/orgs",
        "repos_url": "https://api.github.com/users/jonatack/repos",
        "events_url": "https://api.github.com/users/jonatack/events%7B/privacy%7D",
        "received_events_url": "https://api.github.com/users/jonatack/received_events",
        "type": "User",
        "site_admin": false
      },
      "commit_id": null,
      "commit_url": null,
      "created_at": "2023-01-30T20:55:05Z",
      "label": {
        "name": "Bug",
        "color": "FBBAAB"
      }
    },
    {
      "event": "commented",
      "id": 1409320406,
      "node_id": "IC_kwDOABII585UAIXW",
      "url": "https://api.github.com/repos/bitcoin/bitcoin/issues/comments/1409320406",
      "actor": {
        "login": "fanquake",
        "id": 863730,
        "node_id": "MDQ6VXNlcjg2MzczMA==",
        "avatar_url": "https://avatars.githubusercontent.com/u/863730?v=4",
        "gravatar_id": "",
        "url": "https://api.github.com/users/fanquake",
        "html_url": "https://github.com/fanquake",
        "followers_url": "https://api.github.com/users/fanquake/followers",
        "following_url": "https://api.github.com/users/fanquake/following%7B/other_user%7D",
        "gists_url": "https://api.github.com/users/fanquake/gists%7B/gist_id%7D",
        "starred_url": "https://api.github.com/users/fanquake/starred%7B/owner%7D%7B/repo%7D",
        "subscriptions_url": "https://api.github.com/users/fanquake/subscriptions",
        "organizations_url": "https://api.github.com/users/fanquake/orgs",
        "repos_url": "https://api.github.com/users/fanquake/repos",
        "events_url": "https://api.github.com/users/fanquake/events%7B/privacy%7D",
        "received_events_url": "https://api.github.com/users/fanquake/received_events",
        "type": "User",
        "site_admin": false
      },
      "commit_id": null,
      "commit_url": null,
      "created_at": "2023-01-30T20:56:23Z",
      "updated_at": "2023-01-30T20:56:23Z",
      "author_association": "MEMBER",
      "body": "This is fixed in #26998",
      "user": {
        "login": "fanquake",
        "id": 863730,
        "node_id": "MDQ6VXNlcjg2MzczMA==",
        "avatar_url": "https://avatars.githubusercontent.com/u/863730?v=4",
        "gravatar_id": "",
        "url": "https://api.github.com/users/fanquake",
        "html_url": "https://github.com/fanquake",
        "followers_url": "https://api.github.com/users/fanquake/followers",
        "following_url": "https://api.github.com/users/fanquake/following%7B/other_user%7D",
        "gists_url": "https://api.github.com/users/fanquake/gists%7B/gist_id%7D",
        "starred_url": "https://api.github.com/users/fanquake/starred%7B/owner%7D%7B/repo%7D",
        "subscriptions_url": "https://api.github.com/users/fanquake/subscriptions",
        "organizations_url": "https://api.github.com/users/fanquake/orgs",
        "repos_url": "https://api.github.com/users/fanquake/repos",
        "events_url": "https://api.github.com/users/fanquake/events%7B/privacy%7D",
        "received_events_url": "https://api.github.com/users/fanquake/received_events",
        "type": "User",
        "site_admin": false
      },
      "html_url": "https://github.com/bitcoin/bitcoin/issues/27001#issuecomment-1409320406",
      "issue_url": "https://api.github.com/repos/bitcoin/bitcoin/issues/27001"
    },
    {
      "event": "commented",
      "id": 1409320581,
      "node_id": "IC_kwDOABII585UAIaF",
      "url": "https://api.github.com/repos/bitcoin/bitcoin/issues/comments/1409320581",
      "actor": {
        "login": "jonatack",
        "id": 2415484,
        "node_id": "MDQ6VXNlcjI0MTU0ODQ=",
        "avatar_url": "https://avatars.githubusercontent.com/u/2415484?v=4",
        "gravatar_id": "",
        "url": "https://api.github.com/users/jonatack",
        "html_url": "https://github.com/jonatack",
        "followers_url": "https://api.github.com/users/jonatack/followers",
        "following_url": "https://api.github.com/users/jonatack/following%7B/other_user%7D",
        "gists_url": "https://api.github.com/users/jonatack/gists%7B/gist_id%7D",
        "starred_url": "https://api.github.com/users/jonatack/starred%7B/owner%7D%7B/repo%7D",
        "subscriptions_url": "https://api.github.com/users/jonatack/subscriptions",
        "organizations_url": "https://api.github.com/users/jonatack/orgs",
        "repos_url": "https://api.github.com/users/jonatack/repos",
        "events_url": "https://api.github.com/users/jonatack/events%7B/privacy%7D",
        "received_events_url": "https://api.github.com/users/jonatack/received_events",
        "type": "User",
        "site_admin": false
      },
      "commit_id": null,
      "commit_url": null,
      "created_at": "2023-01-30T20:56:35Z",
      "updated_at": "2023-01-30T20:57:42Z",
      "author_association": "CONTRIBUTOR",
      "body": "also https://cirrus-ci.com/task/6734922547724288?logs=ci#L3639, so seen in more than one pull today.",
      "user": {
        "login": "jonatack",
        "id": 2415484,
        "node_id": "MDQ6VXNlcjI0MTU0ODQ=",
        "avatar_url": "https://avatars.githubusercontent.com/u/2415484?v=4",
        "gravatar_id": "",
        "url": "https://api.github.com/users/jonatack",
        "html_url": "https://github.com/jonatack",
        "followers_url": "https://api.github.com/users/jonatack/followers",
        "following_url": "https://api.github.com/users/jonatack/following%7B/other_user%7D",
        "gists_url": "https://api.github.com/users/jonatack/gists%7B/gist_id%7D",
        "starred_url": "https://api.github.com/users/jonatack/starred%7B/owner%7D%7B/repo%7D",
        "subscriptions_url": "https://api.github.com/users/jonatack/subscriptions",
        "organizations_url": "https://api.github.com/users/jonatack/orgs",
        "repos_url": "https://api.github.com/users/jonatack/repos",
        "events_url": "https://api.github.com/users/jonatack/events%7B/privacy%7D",
        "received_events_url": "https://api.github.com/users/jonatack/received_events",
        "type": "User",
        "site_admin": false
      },
      "html_url": "https://github.com/bitcoin/bitcoin/issues/27001#issuecomment-1409320581",
      "issue_url": "https://api.github.com/repos/bitcoin/bitcoin/issues/27001"
    },
    {
      "event": "unlabeled",
      "id": 8392421098,
      "node_id": "UNLE_lADOABII585dLFUtzwAAAAH0Oi7q",
      "url": "https://api.github.com/repos/bitcoin/bitcoin/issues/events/8392421098",
      "actor": {
        "login": "fanquake",
        "id": 863730,
        "node_id": "MDQ6VXNlcjg2MzczMA==",
        "avatar_url": "https://avatars.githubusercontent.com/u/863730?v=4",
        "gravatar_id": "",
        "url": "https://api.github.com/users/fanquake",
        "html_url": "https://github.com/fanquake",
        "followers_url": "https://api.github.com/users/fanquake/followers",
        "following_url": "https://api.github.com/users/fanquake/following%7B/other_user%7D",
        "gists_url": "https://api.github.com/users/fanquake/gists%7B/gist_id%7D",
        "starred_url": "https://api.github.com/users/fanquake/starred%7B/owner%7D%7B/repo%7D",
        "subscriptions_url": "https://api.github.com/users/fanquake/subscriptions",
        "organizations_url": "https://api.github.com/users/fanquake/orgs",
        "repos_url": "https://api.github.com/users/fanquake/repos",
        "events_url": "https://api.github.com/users/fanquake/events%7B/privacy%7D",
        "received_events_url": "https://api.github.com/users/fanquake/received_events",
        "type": "User",
        "site_admin": false
      },
      "commit_id": null,
      "commit_url": null,
      "created_at": "2023-01-30T20:56:38Z",
      "label": {
        "name": "Bug",
        "color": "FBBAAB"
      }
    },
    {
      "event": "commented",
      "id": 1409320977,
      "node_id": "IC_kwDOABII585UAIgR",
      "url": "https://api.github.com/repos/bitcoin/bitcoin/issues/comments/1409320977",
      "actor": {
        "login": "jonatack",
        "id": 2415484,
        "node_id": "MDQ6VXNlcjI0MTU0ODQ=",
        "avatar_url": "https://avatars.githubusercontent.com/u/2415484?v=4",
        "gravatar_id": "",
        "url": "https://api.github.com/users/jonatack",
        "html_url": "https://github.com/jonatack",
        "followers_url": "https://api.github.com/users/jonatack/followers",
        "following_url": "https://api.github.com/users/jonatack/following%7B/other_user%7D",
        "gists_url": "https://api.github.com/users/jonatack/gists%7B/gist_id%7D",
        "starred_url": "https://api.github.com/users/jonatack/starred%7B/owner%7D%7B/repo%7D",
        "subscriptions_url": "https://api.github.com/users/jonatack/subscriptions",
        "organizations_url": "https://api.github.com/users/jonatack/orgs",
        "repos_url": "https://api.github.com/users/jonatack/repos",
        "events_url": "https://api.github.com/users/jonatack/events%7B/privacy%7D",
        "received_events_url": "https://api.github.com/users/jonatack/received_events",
        "type": "User",
        "site_admin": false
      },
      "commit_id": null,
      "commit_url": null,
      "created_at": "2023-01-30T20:57:00Z",
      "updated_at": "2023-01-30T20:57:00Z",
      "author_association": "CONTRIBUTOR",
      "body": "> This is fixed in #26998\r\n\r\nThanks!",
      "user": {
        "login": "jonatack",
        "id": 2415484,
        "node_id": "MDQ6VXNlcjI0MTU0ODQ=",
        "avatar_url": "https://avatars.githubusercontent.com/u/2415484?v=4",
        "gravatar_id": "",
        "url": "https://api.github.com/users/jonatack",
        "html_url": "https://github.com/jonatack",
        "followers_url": "https://api.github.com/users/jonatack/followers",
        "following_url": "https://api.github.com/users/jonatack/following%7B/other_user%7D",
        "gists_url": "https://api.github.com/users/jonatack/gists%7B/gist_id%7D",
        "starred_url": "https://api.github.com/users/jonatack/starred%7B/owner%7D%7B/repo%7D",
        "subscriptions_url": "https://api.github.com/users/jonatack/subscriptions",
        "organizations_url": "https://api.github.com/users/jonatack/orgs",
        "repos_url": "https://api.github.com/users/jonatack/repos",
        "events_url": "https://api.github.com/users/jonatack/events%7B/privacy%7D",
        "received_events_url": "https://api.github.com/users/jonatack/received_events",
        "type": "User",
        "site_admin": false
      },
      "html_url": "https://github.com/bitcoin/bitcoin/issues/27001#issuecomment-1409320977",
      "issue_url": "https://api.github.com/repos/bitcoin/bitcoin/issues/27001"
    },
    {
      "event": "cross-referenced",
      "id": null,
      "node_id": null,
      "url": null,
      "actor": {
        "login": "jonatack",
        "id": 2415484,
        "node_id": "MDQ6VXNlcjI0MTU0ODQ=",
        "avatar_url": "https://avatars.githubusercontent.com/u/2415484?v=4",
        "gravatar_id": "",
        "url": "https://api.github.com/users/jonatack",
        "html_url": "https://github.com/jonatack",
        "followers_url": "https://api.github.com/users/jonatack/followers",
        "following_url": "https://api.github.com/users/jonatack/following%7B/other_user%7D",
        "gists_url": "https://api.github.com/users/jonatack/gists%7B/gist_id%7D",
        "starred_url": "https://api.github.com/users/jonatack/starred%7B/owner%7D%7B/repo%7D",
        "subscriptions_url": "https://api.github.com/users/jonatack/subscriptions",
        "organizations_url": "https://api.github.com/users/jonatack/orgs",
        "repos_url": "https://api.github.com/users/jonatack/repos",
        "events_url": "https://api.github.com/users/jonatack/events%7B/privacy%7D",
        "received_events_url": "https://api.github.com/users/jonatack/received_events",
        "type": "User",
        "site_admin": false
      },
      "commit_id": null,
      "commit_url": null,
      "created_at": "2023-01-30T20:58:30Z",
      "updated_at": "2023-01-30T20:58:30Z",
      "source": {
        "issue": {
          "id": 1267157159,
          "node_id": "PR_kwDOABII5845cksp",
          "url": "https://api.github.com/repos/bitcoin/bitcoin/issues/25325",
          "repository_url": "https://api.github.com/repos/bitcoin/bitcoin",
          "labels_url": "https://api.github.com/repos/bitcoin/bitcoin/issues/25325/labels%7B/name%7D",
          "comments_url": "https://api.github.com/repos/bitcoin/bitcoin/issues/25325/comments",
          "events_url": "https://api.github.com/repos/bitcoin/bitcoin/issues/25325/events",
          "html_url": "https://github.com/bitcoin/bitcoin/pull/25325",
          "number": 25325,
          "state": "closed",
          "state_reason": null,
          "title": "Add pool based memory resource",
          "body": "A memory resource similar to `std::pmr::unsynchronized_pool_resource`, but optimized for node-based containers. The goal is to be able to cache more coins with the same memory usage, and allocate/deallocate faster.\r\n\r\nThis is a reimplementation of #22702. The goal was to implement it in a way that is simpler to review & test\r\n\r\n* There is now a generic `PoolResource` for allocating/deallocating memory. This has practically the same API as `std::pmr::memory_resource`. (Unfortunately I cannot use std::pmr because libc++ simply doesn't implement that API).\r\n* Thanks to sipa there is now a fuzzer for PoolResource! On a fast machine I ran it for ~770 million executions without finding any issue.\r\n\r\n* The estimation of the correct node size is now gone, PoolResource now has multiple pools and just needs to be created large enough to have space for the unordered_map nodes.\r\n\r\nI ran benchmarks with #22702, mergebase, and this PR. Frequency locked Intel i7-8700, clang++ 13.0.1 to reindex up to block 690000.\r\n\r\n```sh\r\nbitcoind -dbcache=5000 -assumevalid=00000000000000000002a23d6df20eecec15b21d32c75833cce28f113de888b7 -reindex-chainstate -printtoconsole=0 -stopatheight=690000\r\n```\r\n\r\nThe performance is practically identical with #22702, just 0.4% slower. It's ~21% faster than master:\r\n\r\n![Progress in Million Transactions over Time(2)](https://user-images.githubusercontent.com/14386/173288685-91952ade-f304-4825-8bfb-0725a71ca17b.png)\r\n\r\n![Size of Cache in MiB over Time](https://user-images.githubusercontent.com/14386/173291421-e6b410be-ac77-479b-ad24-5fafcebf81eb.png)\r\nNote that on cache drops mergebase's memory doesnt go so far down because it does not free the `CCoinsMap` bucket array.\r\n\r\n![Size of Cache in Million tx over Time(1)](https://user-images.githubusercontent.com/14386/173288703-a80c9c9e-93c8-4a16-9df8-610c89c61cc4.png)\r\n",
          "user": {
            "login": "martinus",
            "id": 14386,
            "node_id": "MDQ6VXNlcjE0Mzg2",
            "avatar_url": "https://avatars.githubusercontent.com/u/14386?v=4",
            "gravatar_id": "",
            "url": "https://api.github.com/users/martinus",
            "html_url": "https://github.com/martinus",
            "followers_url": "https://api.github.com/users/martinus/followers",
            "following_url": "https://api.github.com/users/martinus/following%7B/other_user%7D",
            "gists_url": "https://api.github.com/users/martinus/gists%7B/gist_id%7D",
            "starred_url": "https://api.github.com/users/martinus/starred%7B/owner%7D%7B/repo%7D",
            "subscriptions_url": "https://api.github.com/users/martinus/subscriptions",
            "organizations_url": "https://api.github.com/users/martinus/orgs",
            "repos_url": "https://api.github.com/users/martinus/repos",
            "events_url": "https://api.github.com/users/martinus/events%7B/privacy%7D",
            "received_events_url": "https://api.github.com/users/martinus/received_events",
            "type": "User",
            "site_admin": false
          },
          "labels": [
            {
              "id": 97470796,
              "node_id": "MDU6TGFiZWw5NzQ3MDc5Ng==",
              "url": "https://api.github.com/repos/bitcoin/bitcoin/labels/UTXO%20Db%20and%20Indexes",
              "name": "UTXO Db and Indexes",
              "color": "fbca04",
              "default": false
            }
          ],
          "assignees": [],
          "author_association": "CONTRIBUTOR",
          "locked": false,
          "comments": 37,
          "pull_request": {
            "url": "https://api.github.com/repos/bitcoin/bitcoin/pulls/25325",
            "html_url": "https://github.com/bitcoin/bitcoin/pull/25325",
            "diff_url": "https://github.com/bitcoin/bitcoin/pull/25325.diff",
            "patch_url": "https://github.com/bitcoin/bitcoin/pull/25325.patch"
          },
          "closed_at": "2023-04-20T20:20:32Z",
          "created_at": "2022-06-10T07:16:06Z",
          "updated_at": "2023-04-21T04:12:56Z"
        },
        "type": "issue"
      }
    },
    {
      "event": "cross-referenced",
      "id": null,
      "node_id": null,
      "url": null,
      "actor": {
        "login": "jonatack",
        "id": 2415484,
        "node_id": "MDQ6VXNlcjI0MTU0ODQ=",
        "avatar_url": "https://avatars.githubusercontent.com/u/2415484?v=4",
        "gravatar_id": "",
        "url": "https://api.github.com/users/jonatack",
        "html_url": "https://github.com/jonatack",
        "followers_url": "https://api.github.com/users/jonatack/followers",
        "following_url": "https://api.github.com/users/jonatack/following%7B/other_user%7D",
        "gists_url": "https://api.github.com/users/jonatack/gists%7B/gist_id%7D",
        "starred_url": "https://api.github.com/users/jonatack/starred%7B/owner%7D%7B/repo%7D",
        "subscriptions_url": "https://api.github.com/users/jonatack/subscriptions",
        "organizations_url": "https://api.github.com/users/jonatack/orgs",
        "repos_url": "https://api.github.com/users/jonatack/repos",
        "events_url": "https://api.github.com/users/jonatack/events%7B/privacy%7D",
        "received_events_url": "https://api.github.com/users/jonatack/received_events",
        "type": "User",
        "site_admin": false
      },
      "commit_id": null,
      "commit_url": null,
      "created_at": "2023-01-30T21:01:14Z",
      "updated_at": "2023-01-30T21:01:14Z",
      "source": {
        "issue": {
          "id": 1562874006,
          "node_id": "PR_kwDOABII585I1nwv",
          "url": "https://api.github.com/repos/bitcoin/bitcoin/issues/26999",
          "repository_url": "https://api.github.com/repos/bitcoin/bitcoin",
          "labels_url": "https://api.github.com/repos/bitcoin/bitcoin/issues/26999/labels%7B/name%7D",
          "comments_url": "https://api.github.com/repos/bitcoin/bitcoin/issues/26999/comments",
          "events_url": "https://api.github.com/repos/bitcoin/bitcoin/issues/26999/events",
          "html_url": "https://github.com/bitcoin/bitcoin/pull/26999",
          "number": 26999,
          "state": "closed",
          "state_reason": null,
          "title": "A few follow-ups to #17487 (coins write without cache drop)",
          "body": "This addresses a few nits left open in #17487.",
          "user": {
            "login": "sipa",
            "id": 548488,
            "node_id": "MDQ6VXNlcjU0ODQ4OA==",
            "avatar_url": "https://avatars.githubusercontent.com/u/548488?v=4",
            "gravatar_id": "",
            "url": "https://api.github.com/users/sipa",
            "html_url": "https://github.com/sipa",
            "followers_url": "https://api.github.com/users/sipa/followers",
            "following_url": "https://api.github.com/users/sipa/following%7B/other_user%7D",
            "gists_url": "https://api.github.com/users/sipa/gists%7B/gist_id%7D",
            "starred_url": "https://api.github.com/users/sipa/starred%7B/owner%7D%7B/repo%7D",
            "subscriptions_url": "https://api.github.com/users/sipa/subscriptions",
            "organizations_url": "https://api.github.com/users/sipa/orgs",
            "repos_url": "https://api.github.com/users/sipa/repos",
            "events_url": "https://api.github.com/users/sipa/events%7B/privacy%7D",
            "received_events_url": "https://api.github.com/users/sipa/received_events",
            "type": "User",
            "site_admin": false
          },
          "labels": [],
          "assignees": [],
          "author_association": "MEMBER",
          "locked": false,
          "comments": 6,
          "pull_request": {
            "url": "https://api.github.com/repos/bitcoin/bitcoin/pulls/26999",
            "html_url": "https://github.com/bitcoin/bitcoin/pull/26999",
            "diff_url": "https://github.com/bitcoin/bitcoin/pull/26999.diff",
            "patch_url": "https://github.com/bitcoin/bitcoin/pull/26999.patch"
          },
          "closed_at": "2023-01-30T22:17:06Z",
          "created_at": "2023-01-30T17:34:25Z",
          "updated_at": "2023-01-30T22:17:06Z"
        },
        "type": "issue"
      }
    },
    {
      "event": "closed",
      "id": 8393126570,
      "node_id": "CE_lADOABII585dLFUtzwAAAAH0RPKq",
      "url": "https://api.github.com/repos/bitcoin/bitcoin/issues/events/8393126570",
      "actor": {
        "login": "achow101",
        "id": 3782274,
        "node_id": "MDQ6VXNlcjM3ODIyNzQ=",
        "avatar_url": "https://avatars.githubusercontent.com/u/3782274?v=4",
        "gravatar_id": "",
        "url": "https://api.github.com/users/achow101",
        "html_url": "https://github.com/achow101",
        "followers_url": "https://api.github.com/users/achow101/followers",
        "following_url": "https://api.github.com/users/achow101/following%7B/other_user%7D",
        "gists_url": "https://api.github.com/users/achow101/gists%7B/gist_id%7D",
        "starred_url": "https://api.github.com/users/achow101/starred%7B/owner%7D%7B/repo%7D",
        "subscriptions_url": "https://api.github.com/users/achow101/subscriptions",
        "organizations_url": "https://api.github.com/users/achow101/orgs",
        "repos_url": "https://api.github.com/users/achow101/repos",
        "events_url": "https://api.github.com/users/achow101/events%7B/privacy%7D",
        "received_events_url": "https://api.github.com/users/achow101/received_events",
        "type": "User",
        "site_admin": false
      },
      "commit_id": null,
      "commit_url": null,
      "created_at": "2023-01-30T22:26:45Z"
    },
    {
      "event": "commented",
      "id": 1605791170,
      "node_id": "IC_kwDOABII585ftm3C",
      "url": "https://api.github.com/repos/bitcoin/bitcoin/issues/comments/1605791170",
      "actor": {
        "login": "pinheadmz",
        "id": 2084648,
        "node_id": "MDQ6VXNlcjIwODQ2NDg=",
        "avatar_url": "https://avatars.githubusercontent.com/u/2084648?v=4",
        "gravatar_id": "",
        "url": "https://api.github.com/users/pinheadmz",
        "html_url": "https://github.com/pinheadmz",
        "followers_url": "https://api.github.com/users/pinheadmz/followers",
        "following_url": "https://api.github.com/users/pinheadmz/following%7B/other_user%7D",
        "gists_url": "https://api.github.com/users/pinheadmz/gists%7B/gist_id%7D",
        "starred_url": "https://api.github.com/users/pinheadmz/starred%7B/owner%7D%7B/repo%7D",
        "subscriptions_url": "https://api.github.com/users/pinheadmz/subscriptions",
        "organizations_url": "https://api.github.com/users/pinheadmz/orgs",
        "repos_url": "https://api.github.com/users/pinheadmz/repos",
        "events_url": "https://api.github.com/users/pinheadmz/events%7B/privacy%7D",
        "received_events_url": "https://api.github.com/users/pinheadmz/received_events",
        "type": "User",
        "site_admin": false
      },
      "commit_id": null,
      "commit_url": null,
      "created_at": "2023-06-25T00:24:05Z",
      "updated_at": "2023-06-25T00:24:05Z",
      "author_association": "MEMBER",
      "body": "Testing webhooks don't mind me",
      "user": {
        "login": "pinheadmz",
        "id": 2084648,
        "node_id": "MDQ6VXNlcjIwODQ2NDg=",
        "avatar_url": "https://avatars.githubusercontent.com/u/2084648?v=4",
        "gravatar_id": "",
        "url": "https://api.github.com/users/pinheadmz",
        "html_url": "https://github.com/pinheadmz",
        "followers_url": "https://api.github.com/users/pinheadmz/followers",
        "following_url": "https://api.github.com/users/pinheadmz/following%7B/other_user%7D",
        "gists_url": "https://api.github.com/users/pinheadmz/gists%7B/gist_id%7D",
        "starred_url": "https://api.github.com/users/pinheadmz/starred%7B/owner%7D%7B/repo%7D",
        "subscriptions_url": "https://api.github.com/users/pinheadmz/subscriptions",
        "organizations_url": "https://api.github.com/users/pinheadmz/orgs",
        "repos_url": "https://api.github.com/users/pinheadmz/repos",
        "events_url": "https://api.github.com/users/pinheadmz/events%7B/privacy%7D",
        "received_events_url": "https://api.github.com/users/pinheadmz/received_events",
        "type": "User",
        "site_admin": false
      },
      "html_url": "https://github.com/bitcoin/bitcoin/issues/27001#issuecomment-1605791170",
      "issue_url": "https://api.github.com/repos/bitcoin/bitcoin/issues/27001"
    },
    {
      "event": "unsubscribed",
      "id": 9630830425,
      "node_id": "UE_lADOABII585dLFUtzwAAAAI-Cs9Z",
      "url": "https://api.github.com/repos/bitcoin/bitcoin/issues/events/9630830425",
      "actor": {
        "login": "joostjager",
        "id": 4638168,
        "node_id": "MDQ6VXNlcjQ2MzgxNjg=",
        "avatar_url": "https://avatars.githubusercontent.com/u/4638168?v=4",
        "gravatar_id": "",
        "url": "https://api.github.com/users/joostjager",
        "html_url": "https://github.com/joostjager",
        "followers_url": "https://api.github.com/users/joostjager/followers",
        "following_url": "https://api.github.com/users/joostjager/following%7B/other_user%7D",
        "gists_url": "https://api.github.com/users/joostjager/gists%7B/gist_id%7D",
        "starred_url": "https://api.github.com/users/joostjager/starred%7B/owner%7D%7B/repo%7D",
        "subscriptions_url": "https://api.github.com/users/joostjager/subscriptions",
        "organizations_url": "https://api.github.com/users/joostjager/orgs",
        "repos_url": "https://api.github.com/users/joostjager/repos",
        "events_url": "https://api.github.com/users/joostjager/events%7B/privacy%7D",
        "received_events_url": "https://api.github.com/users/joostjager/received_events",
        "type": "User",
        "site_admin": false
      },
      "commit_id": null,
      "commit_url": null,
      "created_at": "2023-06-25T20:37:47Z"
    }
  ]
}