{
  "type": "issue",
  "issue": {
    "id": 1567546971,
    "node_id": "I_kwDOABII585dbt5b",
    "url": "https://api.github.com/repos/bitcoin/bitcoin/issues/27024",
    "repository_url": "https://api.github.com/repos/bitcoin/bitcoin",
    "labels_url": "https://api.github.com/repos/bitcoin/bitcoin/issues/27024/labels%7B/name%7D",
    "comments_url": "https://api.github.com/repos/bitcoin/bitcoin/issues/27024/comments",
    "events_url": "https://api.github.com/repos/bitcoin/bitcoin/issues/27024/events",
    "html_url": "https://github.com/bitcoin/bitcoin/issues/27024",
    "number": 27024,
    "state": "closed",
    "state_reason": "completed",
    "title": "changing the path of the .bitcoin folder",
    "body": "hi, could someone please advise me how to change the path to the .bitcoin folder or what command to enter when running ./bitcoind to create a name other than .bitcoin",
    "user": {
      "login": "david739",
      "id": 46352851,
      "node_id": "MDQ6VXNlcjQ2MzUyODUx",
      "avatar_url": "https://avatars.githubusercontent.com/u/46352851?v=4",
      "gravatar_id": "",
      "url": "https://api.github.com/users/david739",
      "html_url": "https://github.com/david739",
      "followers_url": "https://api.github.com/users/david739/followers",
      "following_url": "https://api.github.com/users/david739/following%7B/other_user%7D",
      "gists_url": "https://api.github.com/users/david739/gists%7B/gist_id%7D",
      "starred_url": "https://api.github.com/users/david739/starred%7B/owner%7D%7B/repo%7D",
      "subscriptions_url": "https://api.github.com/users/david739/subscriptions",
      "organizations_url": "https://api.github.com/users/david739/orgs",
      "repos_url": "https://api.github.com/users/david739/repos",
      "events_url": "https://api.github.com/users/david739/events%7B/privacy%7D",
      "received_events_url": "https://api.github.com/users/david739/received_events",
      "type": "User",
      "site_admin": false
    },
    "labels": [
      {
        "id": 148216,
        "node_id": "MDU6TGFiZWwxNDgyMTY=",
        "url": "https://api.github.com/repos/bitcoin/bitcoin/labels/Docs",
        "name": "Docs",
        "color": "02d7e1",
        "default": false
      },
      {
        "id": 477890092,
        "node_id": "MDU6TGFiZWw0Nzc4OTAwOTI=",
        "url": "https://api.github.com/repos/bitcoin/bitcoin/labels/Questions%20and%20Help",
        "name": "Questions and Help",
        "color": "006688",
        "default": false
      }
    ],
    "assignees": [],
    "author_association": "NONE",
    "locked": false,
    "comments": 13,
    "closed_at": "2023-02-02T09:04:11Z",
    "created_at": "2023-02-02T08:17:41Z",
    "updated_at": "2023-02-02T09:48:03Z"
  },
  "events": [
    {
      "event": "commented",
      "id": 1413322596,
      "node_id": "IC_kwDOABII585UPZdk",
      "url": "https://api.github.com/repos/bitcoin/bitcoin/issues/comments/1413322596",
      "actor": {
        "login": "MarcoFalke",
        "id": 6399679,
        "node_id": "MDQ6VXNlcjYzOTk2Nzk=",
        "avatar_url": "https://avatars.githubusercontent.com/u/6399679?v=4",
        "gravatar_id": "",
        "url": "https://api.github.com/users/MarcoFalke",
        "html_url": "https://github.com/MarcoFalke",
        "followers_url": "https://api.github.com/users/MarcoFalke/followers",
        "following_url": "https://api.github.com/users/MarcoFalke/following%7B/other_user%7D",
        "gists_url": "https://api.github.com/users/MarcoFalke/gists%7B/gist_id%7D",
        "starred_url": "https://api.github.com/users/MarcoFalke/starred%7B/owner%7D%7B/repo%7D",
        "subscriptions_url": "https://api.github.com/users/MarcoFalke/subscriptions",
        "organizations_url": "https://api.github.com/users/MarcoFalke/orgs",
        "repos_url": "https://api.github.com/users/MarcoFalke/repos",
        "events_url": "https://api.github.com/users/MarcoFalke/events%7B/privacy%7D",
        "received_events_url": "https://api.github.com/users/MarcoFalke/received_events",
        "type": "User",
        "site_admin": false
      },
      "commit_id": null,
      "commit_url": null,
      "created_at": "2023-02-02T08:21:24Z",
      "updated_at": "2023-02-02T08:21:24Z",
      "author_association": "MEMBER",
      "body": "You can use `./bitcoind -help` and look for the `-datadir` setting.",
      "user": {
        "login": "MarcoFalke",
        "id": 6399679,
        "node_id": "MDQ6VXNlcjYzOTk2Nzk=",
        "avatar_url": "https://avatars.githubusercontent.com/u/6399679?v=4",
        "gravatar_id": "",
        "url": "https://api.github.com/users/MarcoFalke",
        "html_url": "https://github.com/MarcoFalke",
        "followers_url": "https://api.github.com/users/MarcoFalke/followers",
        "following_url": "https://api.github.com/users/MarcoFalke/following%7B/other_user%7D",
        "gists_url": "https://api.github.com/users/MarcoFalke/gists%7B/gist_id%7D",
        "starred_url": "https://api.github.com/users/MarcoFalke/starred%7B/owner%7D%7B/repo%7D",
        "subscriptions_url": "https://api.github.com/users/MarcoFalke/subscriptions",
        "organizations_url": "https://api.github.com/users/MarcoFalke/orgs",
        "repos_url": "https://api.github.com/users/MarcoFalke/repos",
        "events_url": "https://api.github.com/users/MarcoFalke/events%7B/privacy%7D",
        "received_events_url": "https://api.github.com/users/MarcoFalke/received_events",
        "type": "User",
        "site_admin": false
      },
      "html_url": "https://github.com/bitcoin/bitcoin/issues/27024#issuecomment-1413322596",
      "issue_url": "https://api.github.com/repos/bitcoin/bitcoin/issues/27024"
    },
    {
      "event": "commented",
      "id": 1413324293,
      "node_id": "IC_kwDOABII585UPZ4F",
      "url": "https://api.github.com/repos/bitcoin/bitcoin/issues/comments/1413324293",
      "actor": {
        "login": "MarcoFalke",
        "id": 6399679,
        "node_id": "MDQ6VXNlcjYzOTk2Nzk=",
        "avatar_url": "https://avatars.githubusercontent.com/u/6399679?v=4",
        "gravatar_id": "",
        "url": "https://api.github.com/users/MarcoFalke",
        "html_url": "https://github.com/MarcoFalke",
        "followers_url": "https://api.github.com/users/MarcoFalke/followers",
        "following_url": "https://api.github.com/users/MarcoFalke/following%7B/other_user%7D",
        "gists_url": "https://api.github.com/users/MarcoFalke/gists%7B/gist_id%7D",
        "starred_url": "https://api.github.com/users/MarcoFalke/starred%7B/owner%7D%7B/repo%7D",
        "subscriptions_url": "https://api.github.com/users/MarcoFalke/subscriptions",
        "organizations_url": "https://api.github.com/users/MarcoFalke/orgs",
        "repos_url": "https://api.github.com/users/MarcoFalke/repos",
        "events_url": "https://api.github.com/users/MarcoFalke/events%7B/privacy%7D",
        "received_events_url": "https://api.github.com/users/MarcoFalke/received_events",
        "type": "User",
        "site_admin": false
      },
      "commit_id": null,
      "commit_url": null,
      "created_at": "2023-02-02T08:22:48Z",
      "updated_at": "2023-02-02T08:22:48Z",
      "author_association": "MEMBER",
      "body": "I see it doesn't show the default in the `-help`.\r\n\r\nThis is documented here: https://github.com/bitcoin/bitcoin/blob/master/doc/files.md#data-directory-location",
      "user": {
        "login": "MarcoFalke",
        "id": 6399679,
        "node_id": "MDQ6VXNlcjYzOTk2Nzk=",
        "avatar_url": "https://avatars.githubusercontent.com/u/6399679?v=4",
        "gravatar_id": "",
        "url": "https://api.github.com/users/MarcoFalke",
        "html_url": "https://github.com/MarcoFalke",
        "followers_url": "https://api.github.com/users/MarcoFalke/followers",
        "following_url": "https://api.github.com/users/MarcoFalke/following%7B/other_user%7D",
        "gists_url": "https://api.github.com/users/MarcoFalke/gists%7B/gist_id%7D",
        "starred_url": "https://api.github.com/users/MarcoFalke/starred%7B/owner%7D%7B/repo%7D",
        "subscriptions_url": "https://api.github.com/users/MarcoFalke/subscriptions",
        "organizations_url": "https://api.github.com/users/MarcoFalke/orgs",
        "repos_url": "https://api.github.com/users/MarcoFalke/repos",
        "events_url": "https://api.github.com/users/MarcoFalke/events%7B/privacy%7D",
        "received_events_url": "https://api.github.com/users/MarcoFalke/received_events",
        "type": "User",
        "site_admin": false
      },
      "html_url": "https://github.com/bitcoin/bitcoin/issues/27024#issuecomment-1413324293",
      "issue_url": "https://api.github.com/repos/bitcoin/bitcoin/issues/27024"
    },
    {
      "event": "labeled",
      "id": 8418323599,
      "node_id": "LE_lADOABII585dbt5bzwAAAAH1xWyP",
      "url": "https://api.github.com/repos/bitcoin/bitcoin/issues/events/8418323599",
      "actor": {
        "login": "MarcoFalke",
        "id": 6399679,
        "node_id": "MDQ6VXNlcjYzOTk2Nzk=",
        "avatar_url": "https://avatars.githubusercontent.com/u/6399679?v=4",
        "gravatar_id": "",
        "url": "https://api.github.com/users/MarcoFalke",
        "html_url": "https://github.com/MarcoFalke",
        "followers_url": "https://api.github.com/users/MarcoFalke/followers",
        "following_url": "https://api.github.com/users/MarcoFalke/following%7B/other_user%7D",
        "gists_url": "https://api.github.com/users/MarcoFalke/gists%7B/gist_id%7D",
        "starred_url": "https://api.github.com/users/MarcoFalke/starred%7B/owner%7D%7B/repo%7D",
        "subscriptions_url": "https://api.github.com/users/MarcoFalke/subscriptions",
        "organizations_url": "https://api.github.com/users/MarcoFalke/orgs",
        "repos_url": "https://api.github.com/users/MarcoFalke/repos",
        "events_url": "https://api.github.com/users/MarcoFalke/events%7B/privacy%7D",
        "received_events_url": "https://api.github.com/users/MarcoFalke/received_events",
        "type": "User",
        "site_admin": false
      },
      "commit_id": null,
      "commit_url": null,
      "created_at": "2023-02-02T08:23:04Z",
      "label": {
        "name": "Questions and Help",
        "color": "006688"
      }
    },
    {
      "event": "commented",
      "id": 1413346276,
      "node_id": "IC_kwDOABII585UPfPk",
      "url": "https://api.github.com/repos/bitcoin/bitcoin/issues/comments/1413346276",
      "actor": {
        "login": "david739",
        "id": 46352851,
        "node_id": "MDQ6VXNlcjQ2MzUyODUx",
        "avatar_url": "https://avatars.githubusercontent.com/u/46352851?v=4",
        "gravatar_id": "",
        "url": "https://api.github.com/users/david739",
        "html_url": "https://github.com/david739",
        "followers_url": "https://api.github.com/users/david739/followers",
        "following_url": "https://api.github.com/users/david739/following%7B/other_user%7D",
        "gists_url": "https://api.github.com/users/david739/gists%7B/gist_id%7D",
        "starred_url": "https://api.github.com/users/david739/starred%7B/owner%7D%7B/repo%7D",
        "subscriptions_url": "https://api.github.com/users/david739/subscriptions",
        "organizations_url": "https://api.github.com/users/david739/orgs",
        "repos_url": "https://api.github.com/users/david739/repos",
        "events_url": "https://api.github.com/users/david739/events%7B/privacy%7D",
        "received_events_url": "https://api.github.com/users/david739/received_events",
        "type": "User",
        "site_admin": false
      },
      "commit_id": null,
      "commit_url": null,
      "created_at": "2023-02-02T08:42:13Z",
      "updated_at": "2023-02-02T08:44:49Z",
      "author_association": "NONE",
      "body": "hi i entered this command and it doesn't work i'm wrong\r\n`./bitcoind -datadir=<btc>`\r\nbash: syntax error near unexpected token `newline'\r\n./bitcoind -datadir=btc\r\nError: Specified data directory \"btc\" does not exist.\r\n\r\n",
      "user": {
        "login": "david739",
        "id": 46352851,
        "node_id": "MDQ6VXNlcjQ2MzUyODUx",
        "avatar_url": "https://avatars.githubusercontent.com/u/46352851?v=4",
        "gravatar_id": "",
        "url": "https://api.github.com/users/david739",
        "html_url": "https://github.com/david739",
        "followers_url": "https://api.github.com/users/david739/followers",
        "following_url": "https://api.github.com/users/david739/following%7B/other_user%7D",
        "gists_url": "https://api.github.com/users/david739/gists%7B/gist_id%7D",
        "starred_url": "https://api.github.com/users/david739/starred%7B/owner%7D%7B/repo%7D",
        "subscriptions_url": "https://api.github.com/users/david739/subscriptions",
        "organizations_url": "https://api.github.com/users/david739/orgs",
        "repos_url": "https://api.github.com/users/david739/repos",
        "events_url": "https://api.github.com/users/david739/events%7B/privacy%7D",
        "received_events_url": "https://api.github.com/users/david739/received_events",
        "type": "User",
        "site_admin": false
      },
      "html_url": "https://github.com/bitcoin/bitcoin/issues/27024#issuecomment-1413346276",
      "issue_url": "https://api.github.com/repos/bitcoin/bitcoin/issues/27024"
    },
    {
      "event": "commented",
      "id": 1413349529,
      "node_id": "IC_kwDOABII585UPgCZ",
      "url": "https://api.github.com/repos/bitcoin/bitcoin/issues/comments/1413349529",
      "actor": {
        "login": "MarcoFalke",
        "id": 6399679,
        "node_id": "MDQ6VXNlcjYzOTk2Nzk=",
        "avatar_url": "https://avatars.githubusercontent.com/u/6399679?v=4",
        "gravatar_id": "",
        "url": "https://api.github.com/users/MarcoFalke",
        "html_url": "https://github.com/MarcoFalke",
        "followers_url": "https://api.github.com/users/MarcoFalke/followers",
        "following_url": "https://api.github.com/users/MarcoFalke/following%7B/other_user%7D",
        "gists_url": "https://api.github.com/users/MarcoFalke/gists%7B/gist_id%7D",
        "starred_url": "https://api.github.com/users/MarcoFalke/starred%7B/owner%7D%7B/repo%7D",
        "subscriptions_url": "https://api.github.com/users/MarcoFalke/subscriptions",
        "organizations_url": "https://api.github.com/users/MarcoFalke/orgs",
        "repos_url": "https://api.github.com/users/MarcoFalke/repos",
        "events_url": "https://api.github.com/users/MarcoFalke/events%7B/privacy%7D",
        "received_events_url": "https://api.github.com/users/MarcoFalke/received_events",
        "type": "User",
        "site_admin": false
      },
      "commit_id": null,
      "commit_url": null,
      "created_at": "2023-02-02T08:45:09Z",
      "updated_at": "2023-02-02T08:45:09Z",
      "author_association": "MEMBER",
      "body": "Ok, this is also not mentioned in the help, but my recommendation would be to use absolute paths.\r\n\r\nAlso, not mentioned in the doc, but the datadir may need to exist if the returned error is that it does not exist.",
      "user": {
        "login": "MarcoFalke",
        "id": 6399679,
        "node_id": "MDQ6VXNlcjYzOTk2Nzk=",
        "avatar_url": "https://avatars.githubusercontent.com/u/6399679?v=4",
        "gravatar_id": "",
        "url": "https://api.github.com/users/MarcoFalke",
        "html_url": "https://github.com/MarcoFalke",
        "followers_url": "https://api.github.com/users/MarcoFalke/followers",
        "following_url": "https://api.github.com/users/MarcoFalke/following%7B/other_user%7D",
        "gists_url": "https://api.github.com/users/MarcoFalke/gists%7B/gist_id%7D",
        "starred_url": "https://api.github.com/users/MarcoFalke/starred%7B/owner%7D%7B/repo%7D",
        "subscriptions_url": "https://api.github.com/users/MarcoFalke/subscriptions",
        "organizations_url": "https://api.github.com/users/MarcoFalke/orgs",
        "repos_url": "https://api.github.com/users/MarcoFalke/repos",
        "events_url": "https://api.github.com/users/MarcoFalke/events%7B/privacy%7D",
        "received_events_url": "https://api.github.com/users/MarcoFalke/received_events",
        "type": "User",
        "site_admin": false
      },
      "html_url": "https://github.com/bitcoin/bitcoin/issues/27024#issuecomment-1413349529",
      "issue_url": "https://api.github.com/repos/bitcoin/bitcoin/issues/27024"
    },
    {
      "event": "labeled",
      "id": 8418501004,
      "node_id": "LE_lADOABII585dbt5bzwAAAAH1yCGM",
      "url": "https://api.github.com/repos/bitcoin/bitcoin/issues/events/8418501004",
      "actor": {
        "login": "MarcoFalke",
        "id": 6399679,
        "node_id": "MDQ6VXNlcjYzOTk2Nzk=",
        "avatar_url": "https://avatars.githubusercontent.com/u/6399679?v=4",
        "gravatar_id": "",
        "url": "https://api.github.com/users/MarcoFalke",
        "html_url": "https://github.com/MarcoFalke",
        "followers_url": "https://api.github.com/users/MarcoFalke/followers",
        "following_url": "https://api.github.com/users/MarcoFalke/following%7B/other_user%7D",
        "gists_url": "https://api.github.com/users/MarcoFalke/gists%7B/gist_id%7D",
        "starred_url": "https://api.github.com/users/MarcoFalke/starred%7B/owner%7D%7B/repo%7D",
        "subscriptions_url": "https://api.github.com/users/MarcoFalke/subscriptions",
        "organizations_url": "https://api.github.com/users/MarcoFalke/orgs",
        "repos_url": "https://api.github.com/users/MarcoFalke/repos",
        "events_url": "https://api.github.com/users/MarcoFalke/events%7B/privacy%7D",
        "received_events_url": "https://api.github.com/users/MarcoFalke/received_events",
        "type": "User",
        "site_admin": false
      },
      "commit_id": null,
      "commit_url": null,
      "created_at": "2023-02-02T08:45:33Z",
      "label": {
        "name": "Docs",
        "color": "02d7e1"
      }
    },
    {
      "event": "commented",
      "id": 1413352094,
      "node_id": "IC_kwDOABII585UPgqe",
      "url": "https://api.github.com/repos/bitcoin/bitcoin/issues/comments/1413352094",
      "actor": {
        "login": "david739",
        "id": 46352851,
        "node_id": "MDQ6VXNlcjQ2MzUyODUx",
        "avatar_url": "https://avatars.githubusercontent.com/u/46352851?v=4",
        "gravatar_id": "",
        "url": "https://api.github.com/users/david739",
        "html_url": "https://github.com/david739",
        "followers_url": "https://api.github.com/users/david739/followers",
        "following_url": "https://api.github.com/users/david739/following%7B/other_user%7D",
        "gists_url": "https://api.github.com/users/david739/gists%7B/gist_id%7D",
        "starred_url": "https://api.github.com/users/david739/starred%7B/owner%7D%7B/repo%7D",
        "subscriptions_url": "https://api.github.com/users/david739/subscriptions",
        "organizations_url": "https://api.github.com/users/david739/orgs",
        "repos_url": "https://api.github.com/users/david739/repos",
        "events_url": "https://api.github.com/users/david739/events%7B/privacy%7D",
        "received_events_url": "https://api.github.com/users/david739/received_events",
        "type": "User",
        "site_admin": false
      },
      "commit_id": null,
      "commit_url": null,
      "created_at": "2023-02-02T08:47:40Z",
      "updated_at": "2023-02-02T08:47:40Z",
      "author_association": "NONE",
      "body": "ok, what should I enter for the command, please, the file exists, I rewrote .bitcoin to btc",
      "user": {
        "login": "david739",
        "id": 46352851,
        "node_id": "MDQ6VXNlcjQ2MzUyODUx",
        "avatar_url": "https://avatars.githubusercontent.com/u/46352851?v=4",
        "gravatar_id": "",
        "url": "https://api.github.com/users/david739",
        "html_url": "https://github.com/david739",
        "followers_url": "https://api.github.com/users/david739/followers",
        "following_url": "https://api.github.com/users/david739/following%7B/other_user%7D",
        "gists_url": "https://api.github.com/users/david739/gists%7B/gist_id%7D",
        "starred_url": "https://api.github.com/users/david739/starred%7B/owner%7D%7B/repo%7D",
        "subscriptions_url": "https://api.github.com/users/david739/subscriptions",
        "organizations_url": "https://api.github.com/users/david739/orgs",
        "repos_url": "https://api.github.com/users/david739/repos",
        "events_url": "https://api.github.com/users/david739/events%7B/privacy%7D",
        "received_events_url": "https://api.github.com/users/david739/received_events",
        "type": "User",
        "site_admin": false
      },
      "html_url": "https://github.com/bitcoin/bitcoin/issues/27024#issuecomment-1413352094",
      "issue_url": "https://api.github.com/repos/bitcoin/bitcoin/issues/27024"
    },
    {
      "event": "commented",
      "id": 1413363281,
      "node_id": "IC_kwDOABII585UPjZR",
      "url": "https://api.github.com/repos/bitcoin/bitcoin/issues/comments/1413363281",
      "actor": {
        "login": "willcl-ark",
        "id": 6606587,
        "node_id": "MDQ6VXNlcjY2MDY1ODc=",
        "avatar_url": "https://avatars.githubusercontent.com/u/6606587?v=4",
        "gravatar_id": "",
        "url": "https://api.github.com/users/willcl-ark",
        "html_url": "https://github.com/willcl-ark",
        "followers_url": "https://api.github.com/users/willcl-ark/followers",
        "following_url": "https://api.github.com/users/willcl-ark/following%7B/other_user%7D",
        "gists_url": "https://api.github.com/users/willcl-ark/gists%7B/gist_id%7D",
        "starred_url": "https://api.github.com/users/willcl-ark/starred%7B/owner%7D%7B/repo%7D",
        "subscriptions_url": "https://api.github.com/users/willcl-ark/subscriptions",
        "organizations_url": "https://api.github.com/users/willcl-ark/orgs",
        "repos_url": "https://api.github.com/users/willcl-ark/repos",
        "events_url": "https://api.github.com/users/willcl-ark/events%7B/privacy%7D",
        "received_events_url": "https://api.github.com/users/willcl-ark/received_events",
        "type": "User",
        "site_admin": false
      },
      "commit_id": null,
      "commit_url": null,
      "created_at": "2023-02-02T08:57:09Z",
      "updated_at": "2023-02-02T08:57:09Z",
      "author_association": "CONTRIBUTOR",
      "body": "Use the full path to the directory. If you renamed `bitcoin` to `btc` in its original location then this would mean (from the link Marco sent) on Linux using:\r\n\r\n`bitcoind -datadir=$HOME/btc`\r\n\r\nAdapt to fit if you changed the default path, or are on Windows or MacOS.",
      "user": {
        "login": "willcl-ark",
        "id": 6606587,
        "node_id": "MDQ6VXNlcjY2MDY1ODc=",
        "avatar_url": "https://avatars.githubusercontent.com/u/6606587?v=4",
        "gravatar_id": "",
        "url": "https://api.github.com/users/willcl-ark",
        "html_url": "https://github.com/willcl-ark",
        "followers_url": "https://api.github.com/users/willcl-ark/followers",
        "following_url": "https://api.github.com/users/willcl-ark/following%7B/other_user%7D",
        "gists_url": "https://api.github.com/users/willcl-ark/gists%7B/gist_id%7D",
        "starred_url": "https://api.github.com/users/willcl-ark/starred%7B/owner%7D%7B/repo%7D",
        "subscriptions_url": "https://api.github.com/users/willcl-ark/subscriptions",
        "organizations_url": "https://api.github.com/users/willcl-ark/orgs",
        "repos_url": "https://api.github.com/users/willcl-ark/repos",
        "events_url": "https://api.github.com/users/willcl-ark/events%7B/privacy%7D",
        "received_events_url": "https://api.github.com/users/willcl-ark/received_events",
        "type": "User",
        "site_admin": false
      },
      "html_url": "https://github.com/bitcoin/bitcoin/issues/27024#issuecomment-1413363281",
      "issue_url": "https://api.github.com/repos/bitcoin/bitcoin/issues/27024"
    },
    {
      "event": "commented",
      "id": 1413367126,
      "node_id": "IC_kwDOABII585UPkVW",
      "url": "https://api.github.com/repos/bitcoin/bitcoin/issues/comments/1413367126",
      "actor": {
        "login": "david739",
        "id": 46352851,
        "node_id": "MDQ6VXNlcjQ2MzUyODUx",
        "avatar_url": "https://avatars.githubusercontent.com/u/46352851?v=4",
        "gravatar_id": "",
        "url": "https://api.github.com/users/david739",
        "html_url": "https://github.com/david739",
        "followers_url": "https://api.github.com/users/david739/followers",
        "following_url": "https://api.github.com/users/david739/following%7B/other_user%7D",
        "gists_url": "https://api.github.com/users/david739/gists%7B/gist_id%7D",
        "starred_url": "https://api.github.com/users/david739/starred%7B/owner%7D%7B/repo%7D",
        "subscriptions_url": "https://api.github.com/users/david739/subscriptions",
        "organizations_url": "https://api.github.com/users/david739/orgs",
        "repos_url": "https://api.github.com/users/david739/repos",
        "events_url": "https://api.github.com/users/david739/events%7B/privacy%7D",
        "received_events_url": "https://api.github.com/users/david739/received_events",
        "type": "User",
        "site_admin": false
      },
      "commit_id": null,
      "commit_url": null,
      "created_at": "2023-02-02T08:59:48Z",
      "updated_at": "2023-02-02T08:59:48Z",
      "author_association": "NONE",
      "body": "hi thank you it works",
      "user": {
        "login": "david739",
        "id": 46352851,
        "node_id": "MDQ6VXNlcjQ2MzUyODUx",
        "avatar_url": "https://avatars.githubusercontent.com/u/46352851?v=4",
        "gravatar_id": "",
        "url": "https://api.github.com/users/david739",
        "html_url": "https://github.com/david739",
        "followers_url": "https://api.github.com/users/david739/followers",
        "following_url": "https://api.github.com/users/david739/following%7B/other_user%7D",
        "gists_url": "https://api.github.com/users/david739/gists%7B/gist_id%7D",
        "starred_url": "https://api.github.com/users/david739/starred%7B/owner%7D%7B/repo%7D",
        "subscriptions_url": "https://api.github.com/users/david739/subscriptions",
        "organizations_url": "https://api.github.com/users/david739/orgs",
        "repos_url": "https://api.github.com/users/david739/repos",
        "events_url": "https://api.github.com/users/david739/events%7B/privacy%7D",
        "received_events_url": "https://api.github.com/users/david739/received_events",
        "type": "User",
        "site_admin": false
      },
      "html_url": "https://github.com/bitcoin/bitcoin/issues/27024#issuecomment-1413367126",
      "issue_url": "https://api.github.com/repos/bitcoin/bitcoin/issues/27024"
    },
    {
      "event": "commented",
      "id": 1413367886,
      "node_id": "IC_kwDOABII585UPkhO",
      "url": "https://api.github.com/repos/bitcoin/bitcoin/issues/comments/1413367886",
      "actor": {
        "login": "willcl-ark",
        "id": 6606587,
        "node_id": "MDQ6VXNlcjY2MDY1ODc=",
        "avatar_url": "https://avatars.githubusercontent.com/u/6606587?v=4",
        "gravatar_id": "",
        "url": "https://api.github.com/users/willcl-ark",
        "html_url": "https://github.com/willcl-ark",
        "followers_url": "https://api.github.com/users/willcl-ark/followers",
        "following_url": "https://api.github.com/users/willcl-ark/following%7B/other_user%7D",
        "gists_url": "https://api.github.com/users/willcl-ark/gists%7B/gist_id%7D",
        "starred_url": "https://api.github.com/users/willcl-ark/starred%7B/owner%7D%7B/repo%7D",
        "subscriptions_url": "https://api.github.com/users/willcl-ark/subscriptions",
        "organizations_url": "https://api.github.com/users/willcl-ark/orgs",
        "repos_url": "https://api.github.com/users/willcl-ark/repos",
        "events_url": "https://api.github.com/users/willcl-ark/events%7B/privacy%7D",
        "received_events_url": "https://api.github.com/users/willcl-ark/received_events",
        "type": "User",
        "site_admin": false
      },
      "commit_id": null,
      "commit_url": null,
      "created_at": "2023-02-02T09:00:20Z",
      "updated_at": "2023-02-02T09:00:20Z",
      "author_association": "CONTRIBUTOR",
      "body": "> Ok, this is also not mentioned in the help, but my recommendation would be to use absolute paths.\r\n\r\n@MarcoFalke It's not mentioned directly in the help, but it does have a flag in the log:\r\n\r\n`2023-02-02T08:58:00.640325Z Warning: relative datadir option '.bitcoin' specified, which will be interpreted relative to the current working directory '/home/will'. This is fragile, because if bitcoin is started in the future from a different location, it will be unable to locate the current data files. There could also be data loss if bitcoin is started while in a temporary directory.`\r\n\r\nDo you think it's worth adding a note to the help too, or is this enough?",
      "user": {
        "login": "willcl-ark",
        "id": 6606587,
        "node_id": "MDQ6VXNlcjY2MDY1ODc=",
        "avatar_url": "https://avatars.githubusercontent.com/u/6606587?v=4",
        "gravatar_id": "",
        "url": "https://api.github.com/users/willcl-ark",
        "html_url": "https://github.com/willcl-ark",
        "followers_url": "https://api.github.com/users/willcl-ark/followers",
        "following_url": "https://api.github.com/users/willcl-ark/following%7B/other_user%7D",
        "gists_url": "https://api.github.com/users/willcl-ark/gists%7B/gist_id%7D",
        "starred_url": "https://api.github.com/users/willcl-ark/starred%7B/owner%7D%7B/repo%7D",
        "subscriptions_url": "https://api.github.com/users/willcl-ark/subscriptions",
        "organizations_url": "https://api.github.com/users/willcl-ark/orgs",
        "repos_url": "https://api.github.com/users/willcl-ark/repos",
        "events_url": "https://api.github.com/users/willcl-ark/events%7B/privacy%7D",
        "received_events_url": "https://api.github.com/users/willcl-ark/received_events",
        "type": "User",
        "site_admin": false
      },
      "html_url": "https://github.com/bitcoin/bitcoin/issues/27024#issuecomment-1413367886",
      "issue_url": "https://api.github.com/repos/bitcoin/bitcoin/issues/27024"
    },
    {
      "event": "mentioned",
      "id": 8418628165,
      "node_id": "MEE_lADOABII585dbt5bzwAAAAH1yhJF",
      "url": "https://api.github.com/repos/bitcoin/bitcoin/issues/events/8418628165",
      "actor": {
        "login": "MarcoFalke",
        "id": 6399679,
        "node_id": "MDQ6VXNlcjYzOTk2Nzk=",
        "avatar_url": "https://avatars.githubusercontent.com/u/6399679?v=4",
        "gravatar_id": "",
        "url": "https://api.github.com/users/MarcoFalke",
        "html_url": "https://github.com/MarcoFalke",
        "followers_url": "https://api.github.com/users/MarcoFalke/followers",
        "following_url": "https://api.github.com/users/MarcoFalke/following%7B/other_user%7D",
        "gists_url": "https://api.github.com/users/MarcoFalke/gists%7B/gist_id%7D",
        "starred_url": "https://api.github.com/users/MarcoFalke/starred%7B/owner%7D%7B/repo%7D",
        "subscriptions_url": "https://api.github.com/users/MarcoFalke/subscriptions",
        "organizations_url": "https://api.github.com/users/MarcoFalke/orgs",
        "repos_url": "https://api.github.com/users/MarcoFalke/repos",
        "events_url": "https://api.github.com/users/MarcoFalke/events%7B/privacy%7D",
        "received_events_url": "https://api.github.com/users/MarcoFalke/received_events",
        "type": "User",
        "site_admin": false
      },
      "commit_id": null,
      "commit_url": null,
      "created_at": "2023-02-02T09:00:20Z"
    },
    {
      "event": "subscribed",
      "id": 8418628190,
      "node_id": "SE_lADOABII585dbt5bzwAAAAH1yhJe",
      "url": "https://api.github.com/repos/bitcoin/bitcoin/issues/events/8418628190",
      "actor": {
        "login": "MarcoFalke",
        "id": 6399679,
        "node_id": "MDQ6VXNlcjYzOTk2Nzk=",
        "avatar_url": "https://avatars.githubusercontent.com/u/6399679?v=4",
        "gravatar_id": "",
        "url": "https://api.github.com/users/MarcoFalke",
        "html_url": "https://github.com/MarcoFalke",
        "followers_url": "https://api.github.com/users/MarcoFalke/followers",
        "following_url": "https://api.github.com/users/MarcoFalke/following%7B/other_user%7D",
        "gists_url": "https://api.github.com/users/MarcoFalke/gists%7B/gist_id%7D",
        "starred_url": "https://api.github.com/users/MarcoFalke/starred%7B/owner%7D%7B/repo%7D",
        "subscriptions_url": "https://api.github.com/users/MarcoFalke/subscriptions",
        "organizations_url": "https://api.github.com/users/MarcoFalke/orgs",
        "repos_url": "https://api.github.com/users/MarcoFalke/repos",
        "events_url": "https://api.github.com/users/MarcoFalke/events%7B/privacy%7D",
        "received_events_url": "https://api.github.com/users/MarcoFalke/received_events",
        "type": "User",
        "site_admin": false
      },
      "commit_id": null,
      "commit_url": null,
      "created_at": "2023-02-02T09:00:21Z"
    },
    {
      "event": "commented",
      "id": 1413368533,
      "node_id": "IC_kwDOABII585UPkrV",
      "url": "https://api.github.com/repos/bitcoin/bitcoin/issues/comments/1413368533",
      "actor": {
        "login": "willcl-ark",
        "id": 6606587,
        "node_id": "MDQ6VXNlcjY2MDY1ODc=",
        "avatar_url": "https://avatars.githubusercontent.com/u/6606587?v=4",
        "gravatar_id": "",
        "url": "https://api.github.com/users/willcl-ark",
        "html_url": "https://github.com/willcl-ark",
        "followers_url": "https://api.github.com/users/willcl-ark/followers",
        "following_url": "https://api.github.com/users/willcl-ark/following%7B/other_user%7D",
        "gists_url": "https://api.github.com/users/willcl-ark/gists%7B/gist_id%7D",
        "starred_url": "https://api.github.com/users/willcl-ark/starred%7B/owner%7D%7B/repo%7D",
        "subscriptions_url": "https://api.github.com/users/willcl-ark/subscriptions",
        "organizations_url": "https://api.github.com/users/willcl-ark/orgs",
        "repos_url": "https://api.github.com/users/willcl-ark/repos",
        "events_url": "https://api.github.com/users/willcl-ark/events%7B/privacy%7D",
        "received_events_url": "https://api.github.com/users/willcl-ark/received_events",
        "type": "User",
        "site_admin": false
      },
      "commit_id": null,
      "commit_url": null,
      "created_at": "2023-02-02T09:00:44Z",
      "updated_at": "2023-02-02T09:00:44Z",
      "author_association": "CONTRIBUTOR",
      "body": "Great @david739 . Please feel free to close the issue if you're happy with it.",
      "user": {
        "login": "willcl-ark",
        "id": 6606587,
        "node_id": "MDQ6VXNlcjY2MDY1ODc=",
        "avatar_url": "https://avatars.githubusercontent.com/u/6606587?v=4",
        "gravatar_id": "",
        "url": "https://api.github.com/users/willcl-ark",
        "html_url": "https://github.com/willcl-ark",
        "followers_url": "https://api.github.com/users/willcl-ark/followers",
        "following_url": "https://api.github.com/users/willcl-ark/following%7B/other_user%7D",
        "gists_url": "https://api.github.com/users/willcl-ark/gists%7B/gist_id%7D",
        "starred_url": "https://api.github.com/users/willcl-ark/starred%7B/owner%7D%7B/repo%7D",
        "subscriptions_url": "https://api.github.com/users/willcl-ark/subscriptions",
        "organizations_url": "https://api.github.com/users/willcl-ark/orgs",
        "repos_url": "https://api.github.com/users/willcl-ark/repos",
        "events_url": "https://api.github.com/users/willcl-ark/events%7B/privacy%7D",
        "received_events_url": "https://api.github.com/users/willcl-ark/received_events",
        "type": "User",
        "site_admin": false
      },
      "html_url": "https://github.com/bitcoin/bitcoin/issues/27024#issuecomment-1413368533",
      "issue_url": "https://api.github.com/repos/bitcoin/bitcoin/issues/27024"
    },
    {
      "event": "mentioned",
      "id": 8418632196,
      "node_id": "MEE_lADOABII585dbt5bzwAAAAH1yiIE",
      "url": "https://api.github.com/repos/bitcoin/bitcoin/issues/events/8418632196",
      "actor": {
        "login": "david739",
        "id": 46352851,
        "node_id": "MDQ6VXNlcjQ2MzUyODUx",
        "avatar_url": "https://avatars.githubusercontent.com/u/46352851?v=4",
        "gravatar_id": "",
        "url": "https://api.github.com/users/david739",
        "html_url": "https://github.com/david739",
        "followers_url": "https://api.github.com/users/david739/followers",
        "following_url": "https://api.github.com/users/david739/following%7B/other_user%7D",
        "gists_url": "https://api.github.com/users/david739/gists%7B/gist_id%7D",
        "starred_url": "https://api.github.com/users/david739/starred%7B/owner%7D%7B/repo%7D",
        "subscriptions_url": "https://api.github.com/users/david739/subscriptions",
        "organizations_url": "https://api.github.com/users/david739/orgs",
        "repos_url": "https://api.github.com/users/david739/repos",
        "events_url": "https://api.github.com/users/david739/events%7B/privacy%7D",
        "received_events_url": "https://api.github.com/users/david739/received_events",
        "type": "User",
        "site_admin": false
      },
      "commit_id": null,
      "commit_url": null,
      "created_at": "2023-02-02T09:00:45Z"
    },
    {
      "event": "subscribed",
      "id": 8418632216,
      "node_id": "SE_lADOABII585dbt5bzwAAAAH1yiIY",
      "url": "https://api.github.com/repos/bitcoin/bitcoin/issues/events/8418632216",
      "actor": {
        "login": "david739",
        "id": 46352851,
        "node_id": "MDQ6VXNlcjQ2MzUyODUx",
        "avatar_url": "https://avatars.githubusercontent.com/u/46352851?v=4",
        "gravatar_id": "",
        "url": "https://api.github.com/users/david739",
        "html_url": "https://github.com/david739",
        "followers_url": "https://api.github.com/users/david739/followers",
        "following_url": "https://api.github.com/users/david739/following%7B/other_user%7D",
        "gists_url": "https://api.github.com/users/david739/gists%7B/gist_id%7D",
        "starred_url": "https://api.github.com/users/david739/starred%7B/owner%7D%7B/repo%7D",
        "subscriptions_url": "https://api.github.com/users/david739/subscriptions",
        "organizations_url": "https://api.github.com/users/david739/orgs",
        "repos_url": "https://api.github.com/users/david739/repos",
        "events_url": "https://api.github.com/users/david739/events%7B/privacy%7D",
        "received_events_url": "https://api.github.com/users/david739/received_events",
        "type": "User",
        "site_admin": false
      },
      "commit_id": null,
      "commit_url": null,
      "created_at": "2023-02-02T09:00:45Z"
    },
    {
      "event": "commented",
      "id": 1413370315,
      "node_id": "IC_kwDOABII585UPlHL",
      "url": "https://api.github.com/repos/bitcoin/bitcoin/issues/comments/1413370315",
      "actor": {
        "login": "kristapsk",
        "id": 4500994,
        "node_id": "MDQ6VXNlcjQ1MDA5OTQ=",
        "avatar_url": "https://avatars.githubusercontent.com/u/4500994?v=4",
        "gravatar_id": "",
        "url": "https://api.github.com/users/kristapsk",
        "html_url": "https://github.com/kristapsk",
        "followers_url": "https://api.github.com/users/kristapsk/followers",
        "following_url": "https://api.github.com/users/kristapsk/following%7B/other_user%7D",
        "gists_url": "https://api.github.com/users/kristapsk/gists%7B/gist_id%7D",
        "starred_url": "https://api.github.com/users/kristapsk/starred%7B/owner%7D%7B/repo%7D",
        "subscriptions_url": "https://api.github.com/users/kristapsk/subscriptions",
        "organizations_url": "https://api.github.com/users/kristapsk/orgs",
        "repos_url": "https://api.github.com/users/kristapsk/repos",
        "events_url": "https://api.github.com/users/kristapsk/events%7B/privacy%7D",
        "received_events_url": "https://api.github.com/users/kristapsk/received_events",
        "type": "User",
        "site_admin": false
      },
      "commit_id": null,
      "commit_url": null,
      "created_at": "2023-02-02T09:01:53Z",
      "updated_at": "2023-02-02T09:01:53Z",
      "author_association": "CONTRIBUTOR",
      "body": "> Ok, this is also not mentioned in the help, but my recommendation would be to use absolute paths.\r\n> \r\n> Also, not mentioned in the doc, but the datadir may need to exist if the returned error is that it does not exist.\r\n\r\nShould we improve docs / help?",
      "user": {
        "login": "kristapsk",
        "id": 4500994,
        "node_id": "MDQ6VXNlcjQ1MDA5OTQ=",
        "avatar_url": "https://avatars.githubusercontent.com/u/4500994?v=4",
        "gravatar_id": "",
        "url": "https://api.github.com/users/kristapsk",
        "html_url": "https://github.com/kristapsk",
        "followers_url": "https://api.github.com/users/kristapsk/followers",
        "following_url": "https://api.github.com/users/kristapsk/following%7B/other_user%7D",
        "gists_url": "https://api.github.com/users/kristapsk/gists%7B/gist_id%7D",
        "starred_url": "https://api.github.com/users/kristapsk/starred%7B/owner%7D%7B/repo%7D",
        "subscriptions_url": "https://api.github.com/users/kristapsk/subscriptions",
        "organizations_url": "https://api.github.com/users/kristapsk/orgs",
        "repos_url": "https://api.github.com/users/kristapsk/repos",
        "events_url": "https://api.github.com/users/kristapsk/events%7B/privacy%7D",
        "received_events_url": "https://api.github.com/users/kristapsk/received_events",
        "type": "User",
        "site_admin": false
      },
      "html_url": "https://github.com/bitcoin/bitcoin/issues/27024#issuecomment-1413370315",
      "issue_url": "https://api.github.com/repos/bitcoin/bitcoin/issues/27024"
    },
    {
      "event": "commented",
      "id": 1413373634,
      "node_id": "IC_kwDOABII585UPl7C",
      "url": "https://api.github.com/repos/bitcoin/bitcoin/issues/comments/1413373634",
      "actor": {
        "login": "david739",
        "id": 46352851,
        "node_id": "MDQ6VXNlcjQ2MzUyODUx",
        "avatar_url": "https://avatars.githubusercontent.com/u/46352851?v=4",
        "gravatar_id": "",
        "url": "https://api.github.com/users/david739",
        "html_url": "https://github.com/david739",
        "followers_url": "https://api.github.com/users/david739/followers",
        "following_url": "https://api.github.com/users/david739/following%7B/other_user%7D",
        "gists_url": "https://api.github.com/users/david739/gists%7B/gist_id%7D",
        "starred_url": "https://api.github.com/users/david739/starred%7B/owner%7D%7B/repo%7D",
        "subscriptions_url": "https://api.github.com/users/david739/subscriptions",
        "organizations_url": "https://api.github.com/users/david739/orgs",
        "repos_url": "https://api.github.com/users/david739/repos",
        "events_url": "https://api.github.com/users/david739/events%7B/privacy%7D",
        "received_events_url": "https://api.github.com/users/david739/received_events",
        "type": "User",
        "site_admin": false
      },
      "commit_id": null,
      "commit_url": null,
      "created_at": "2023-02-02T09:04:03Z",
      "updated_at": "2023-02-02T09:04:03Z",
      "author_association": "NONE",
      "body": "1 more thanks guys I've been struggling with this quite a bit",
      "user": {
        "login": "david739",
        "id": 46352851,
        "node_id": "MDQ6VXNlcjQ2MzUyODUx",
        "avatar_url": "https://avatars.githubusercontent.com/u/46352851?v=4",
        "gravatar_id": "",
        "url": "https://api.github.com/users/david739",
        "html_url": "https://github.com/david739",
        "followers_url": "https://api.github.com/users/david739/followers",
        "following_url": "https://api.github.com/users/david739/following%7B/other_user%7D",
        "gists_url": "https://api.github.com/users/david739/gists%7B/gist_id%7D",
        "starred_url": "https://api.github.com/users/david739/starred%7B/owner%7D%7B/repo%7D",
        "subscriptions_url": "https://api.github.com/users/david739/subscriptions",
        "organizations_url": "https://api.github.com/users/david739/orgs",
        "repos_url": "https://api.github.com/users/david739/repos",
        "events_url": "https://api.github.com/users/david739/events%7B/privacy%7D",
        "received_events_url": "https://api.github.com/users/david739/received_events",
        "type": "User",
        "site_admin": false
      },
      "html_url": "https://github.com/bitcoin/bitcoin/issues/27024#issuecomment-1413373634",
      "issue_url": "https://api.github.com/repos/bitcoin/bitcoin/issues/27024"
    },
    {
      "event": "closed",
      "id": 8418667100,
      "node_id": "CE_lADOABII585dbt5bzwAAAAH1yqpc",
      "url": "https://api.github.com/repos/bitcoin/bitcoin/issues/events/8418667100",
      "actor": {
        "login": "david739",
        "id": 46352851,
        "node_id": "MDQ6VXNlcjQ2MzUyODUx",
        "avatar_url": "https://avatars.githubusercontent.com/u/46352851?v=4",
        "gravatar_id": "",
        "url": "https://api.github.com/users/david739",
        "html_url": "https://github.com/david739",
        "followers_url": "https://api.github.com/users/david739/followers",
        "following_url": "https://api.github.com/users/david739/following%7B/other_user%7D",
        "gists_url": "https://api.github.com/users/david739/gists%7B/gist_id%7D",
        "starred_url": "https://api.github.com/users/david739/starred%7B/owner%7D%7B/repo%7D",
        "subscriptions_url": "https://api.github.com/users/david739/subscriptions",
        "organizations_url": "https://api.github.com/users/david739/orgs",
        "repos_url": "https://api.github.com/users/david739/repos",
        "events_url": "https://api.github.com/users/david739/events%7B/privacy%7D",
        "received_events_url": "https://api.github.com/users/david739/received_events",
        "type": "User",
        "site_admin": false
      },
      "commit_id": null,
      "commit_url": null,
      "created_at": "2023-02-02T09:04:11Z"
    },
    {
      "event": "commented",
      "id": 1413380593,
      "node_id": "IC_kwDOABII585UPnnx",
      "url": "https://api.github.com/repos/bitcoin/bitcoin/issues/comments/1413380593",
      "actor": {
        "login": "MarcoFalke",
        "id": 6399679,
        "node_id": "MDQ6VXNlcjYzOTk2Nzk=",
        "avatar_url": "https://avatars.githubusercontent.com/u/6399679?v=4",
        "gravatar_id": "",
        "url": "https://api.github.com/users/MarcoFalke",
        "html_url": "https://github.com/MarcoFalke",
        "followers_url": "https://api.github.com/users/MarcoFalke/followers",
        "following_url": "https://api.github.com/users/MarcoFalke/following%7B/other_user%7D",
        "gists_url": "https://api.github.com/users/MarcoFalke/gists%7B/gist_id%7D",
        "starred_url": "https://api.github.com/users/MarcoFalke/starred%7B/owner%7D%7B/repo%7D",
        "subscriptions_url": "https://api.github.com/users/MarcoFalke/subscriptions",
        "organizations_url": "https://api.github.com/users/MarcoFalke/orgs",
        "repos_url": "https://api.github.com/users/MarcoFalke/repos",
        "events_url": "https://api.github.com/users/MarcoFalke/events%7B/privacy%7D",
        "received_events_url": "https://api.github.com/users/MarcoFalke/received_events",
        "type": "User",
        "site_admin": false
      },
      "commit_id": null,
      "commit_url": null,
      "created_at": "2023-02-02T09:08:41Z",
      "updated_at": "2023-02-02T09:08:41Z",
      "author_association": "MEMBER",
      "body": "> flag in the log: 2023-02-02T08:58:00.640325Z Warning:\r\n\r\n\r\nShouldn't this at least be an InitWarning? I mean, who reads the log, especially gui users?",
      "user": {
        "login": "MarcoFalke",
        "id": 6399679,
        "node_id": "MDQ6VXNlcjYzOTk2Nzk=",
        "avatar_url": "https://avatars.githubusercontent.com/u/6399679?v=4",
        "gravatar_id": "",
        "url": "https://api.github.com/users/MarcoFalke",
        "html_url": "https://github.com/MarcoFalke",
        "followers_url": "https://api.github.com/users/MarcoFalke/followers",
        "following_url": "https://api.github.com/users/MarcoFalke/following%7B/other_user%7D",
        "gists_url": "https://api.github.com/users/MarcoFalke/gists%7B/gist_id%7D",
        "starred_url": "https://api.github.com/users/MarcoFalke/starred%7B/owner%7D%7B/repo%7D",
        "subscriptions_url": "https://api.github.com/users/MarcoFalke/subscriptions",
        "organizations_url": "https://api.github.com/users/MarcoFalke/orgs",
        "repos_url": "https://api.github.com/users/MarcoFalke/repos",
        "events_url": "https://api.github.com/users/MarcoFalke/events%7B/privacy%7D",
        "received_events_url": "https://api.github.com/users/MarcoFalke/received_events",
        "type": "User",
        "site_admin": false
      },
      "html_url": "https://github.com/bitcoin/bitcoin/issues/27024#issuecomment-1413380593",
      "issue_url": "https://api.github.com/repos/bitcoin/bitcoin/issues/27024"
    },
    {
      "event": "commented",
      "id": 1413437958,
      "node_id": "IC_kwDOABII585UP1oG",
      "url": "https://api.github.com/repos/bitcoin/bitcoin/issues/comments/1413437958",
      "actor": {
        "login": "willcl-ark",
        "id": 6606587,
        "node_id": "MDQ6VXNlcjY2MDY1ODc=",
        "avatar_url": "https://avatars.githubusercontent.com/u/6606587?v=4",
        "gravatar_id": "",
        "url": "https://api.github.com/users/willcl-ark",
        "html_url": "https://github.com/willcl-ark",
        "followers_url": "https://api.github.com/users/willcl-ark/followers",
        "following_url": "https://api.github.com/users/willcl-ark/following%7B/other_user%7D",
        "gists_url": "https://api.github.com/users/willcl-ark/gists%7B/gist_id%7D",
        "starred_url": "https://api.github.com/users/willcl-ark/starred%7B/owner%7D%7B/repo%7D",
        "subscriptions_url": "https://api.github.com/users/willcl-ark/subscriptions",
        "organizations_url": "https://api.github.com/users/willcl-ark/orgs",
        "repos_url": "https://api.github.com/users/willcl-ark/repos",
        "events_url": "https://api.github.com/users/willcl-ark/events%7B/privacy%7D",
        "received_events_url": "https://api.github.com/users/willcl-ark/received_events",
        "type": "User",
        "site_admin": false
      },
      "commit_id": null,
      "commit_url": null,
      "created_at": "2023-02-02T09:48:03Z",
      "updated_at": "2023-02-02T09:48:03Z",
      "author_association": "CONTRIBUTOR",
      "body": "@MarcoFalke yep that's definitely nicer on the QT side! For bitcoind it also prints a nice warning, unless you also add the `-daemon` option, in which case all is supressed to the log file again...\r\n\r\nDo you think it would it be acceptable to move the warning into appinit parameter interaction like so to have the warning surface before daemonisation?:\r\n\r\n```diff\r\ndiff --git a/src/init.cpp b/src/init.cpp\r\nindex 5b486854e..87b46b00f 100644\r\n--- a/src/init.cpp\r\n+++ b/src/init.cpp\r\n@@ -436,7 +436,7 @@ void SetupServerArgs(ArgsManager& argsman)\r\n     argsman.AddArg(\"-blocksonly\", strprintf(\"Whether to reject transactions from network peers. Automatic broadcast and rebroadcast of any transactions from inbound peers is disabled, unless the peer has the 'forcerelay' permission. RPC transactions are not affected. (default: %u)\", DEFAULT_BLOCKSONLY), ArgsManager::ALLOW_ANY, OptionsCategory::OPTIONS);\r\n     argsman.AddArg(\"-coinstatsindex\", strprintf(\"Maintain coinstats index used by the gettxoutsetinfo RPC (default: %u)\", DEFAULT_COINSTATSINDEX), ArgsManager::ALLOW_ANY, OptionsCategory::OPTIONS);\r\n     argsman.AddArg(\"-conf=<file>\", strprintf(\"Specify path to read-only configuration file. Relative paths will be prefixed by datadir location (only useable from command line, not configuration file) (default: %s)\", BITCOIN_CONF_FILENAME), ArgsManager::ALLOW_ANY, OptionsCategory::OPTIONS);\r\n-    argsman.AddArg(\"-datadir=<dir>\", \"Specify data directory\", ArgsManager::ALLOW_ANY, OptionsCategory::OPTIONS);\r\n+    argsman.AddArg(\"-datadir=<dir>\", \"Specify data directory using an absolute path.\", ArgsManager::ALLOW_ANY, OptionsCategory::OPTIONS);\r\n     argsman.AddArg(\"-dbbatchsize\", strprintf(\"Maximum database write batch size in bytes (default: %u)\", nDefaultDbBatchSize), ArgsManager::ALLOW_ANY | ArgsManager::DEBUG_ONLY, OptionsCategory::OPTIONS);\r\n     argsman.AddArg(\"-dbcache=<n>\", strprintf(\"Maximum database cache size <n> MiB (%d to %d, default: %d). In addition, unused mempool memory is shared for this cache (see -maxmempool).\", nMinDbCache, nMaxDbCache, nDefaultDbCache), ArgsManager::ALLOW_ANY, OptionsCategory::OPTIONS);\r\n     argsman.AddArg(\"-includeconf=<file>\", \"Specify additional configuration file, relative to the -datadir path (only useable from configuration file, not command line)\", ArgsManager::ALLOW_ANY, OptionsCategory::OPTIONS);\r\n@@ -876,6 +876,15 @@ bool AppInitParameterInteraction(const ArgsManager& args, bool use_syscall_sandb\r\n         InitWarning(warnings);\r\n     }\r\n \r\n+    // Warn about relative -datadir path.\r\n+    if (args.IsArgSet(\"-datadir\") && !args.GetPathArg(\"-datadir\").is_absolute()) {\r\n+        InitWarning(strprintf(_(\"Warning: relative datadir option '%s' specified, which will be interpreted relative to the \" /* Continued */\r\n+                  \"current working directory '%s'. This is fragile, because if bitcoin is started in the future \"\r\n+                  \"from a different location, it will be unable to locate the current data files. There could \"\r\n+                  \"also be data loss if bitcoin is started while in a temporary directory.\\n\"),\r\n+                  args.GetArg(\"-datadir\", \"\"), fs::PathToString(fs::current_path())));\r\n+    }\r\n+\r\n     if (!fs::is_directory(gArgs.GetBlocksDirPath())) {\r\n         return InitError(strprintf(_(\"Specified blocks directory \\\"%s\\\" does not exist.\"), args.GetArg(\"-blocksdir\", \"\")));\r\n     }\r\n@@ -1131,15 +1140,6 @@ bool AppInitMain(NodeContext& node, interfaces::BlockAndHeaderTipInfo* tip_info)\r\n \r\n     LogPrintf(\"Using at most %i automatic connections (%i file descriptors available)\\n\", nMaxConnections, nFD);\r\n \r\n-    // Warn about relative -datadir path.\r\n-    if (args.IsArgSet(\"-datadir\") && !args.GetPathArg(\"-datadir\").is_absolute()) {\r\n-        LogPrintf(\"Warning: relative datadir option '%s' specified, which will be interpreted relative to the \" /* Continued */\r\n-                  \"current working directory '%s'. This is fragile, because if bitcoin is started in the future \"\r\n-                  \"from a different location, it will be unable to locate the current data files. There could \"\r\n-                  \"also be data loss if bitcoin is started while in a temporary directory.\\n\",\r\n-                  args.GetArg(\"-datadir\", \"\"), fs::PathToString(fs::current_path()));\r\n-    }\r\n-\r\n     ValidationCacheSizes validation_cache_sizes{};\r\n     ApplyArgsManOptions(args, validation_cache_sizes);\r\n     if (!InitSignatureCache(validation_cache_sizes.signature_cache_bytes)\r\n```\r\n\r\nThis will then startup `bitcoind` like:\r\n\r\n```log\r\nwill@ubuntu in ~\r\n₿ /home/will/src/bitcoin/src/bitcoind -regtest -datadir=btc -daemon\r\nWarning: Warning: relative datadir option 'btc' specified, which will be interpreted relative to the current working directory '/home/will'. This is fragile, because if bitcoin is started in the future from a different location, it will be unable to locate the current data files. There could also be data loss if bitcoin is started while in a temporary directory.\r\n\r\nBitcoin Core starting\r\n\r\n```",
      "user": {
        "login": "willcl-ark",
        "id": 6606587,
        "node_id": "MDQ6VXNlcjY2MDY1ODc=",
        "avatar_url": "https://avatars.githubusercontent.com/u/6606587?v=4",
        "gravatar_id": "",
        "url": "https://api.github.com/users/willcl-ark",
        "html_url": "https://github.com/willcl-ark",
        "followers_url": "https://api.github.com/users/willcl-ark/followers",
        "following_url": "https://api.github.com/users/willcl-ark/following%7B/other_user%7D",
        "gists_url": "https://api.github.com/users/willcl-ark/gists%7B/gist_id%7D",
        "starred_url": "https://api.github.com/users/willcl-ark/starred%7B/owner%7D%7B/repo%7D",
        "subscriptions_url": "https://api.github.com/users/willcl-ark/subscriptions",
        "organizations_url": "https://api.github.com/users/willcl-ark/orgs",
        "repos_url": "https://api.github.com/users/willcl-ark/repos",
        "events_url": "https://api.github.com/users/willcl-ark/events%7B/privacy%7D",
        "received_events_url": "https://api.github.com/users/willcl-ark/received_events",
        "type": "User",
        "site_admin": false
      },
      "html_url": "https://github.com/bitcoin/bitcoin/issues/27024#issuecomment-1413437958",
      "issue_url": "https://api.github.com/repos/bitcoin/bitcoin/issues/27024"
    },
    {
      "event": "mentioned",
      "id": 8419117769,
      "node_id": "MEE_lADOABII585dbt5bzwAAAAH10YrJ",
      "url": "https://api.github.com/repos/bitcoin/bitcoin/issues/events/8419117769",
      "actor": {
        "login": "MarcoFalke",
        "id": 6399679,
        "node_id": "MDQ6VXNlcjYzOTk2Nzk=",
        "avatar_url": "https://avatars.githubusercontent.com/u/6399679?v=4",
        "gravatar_id": "",
        "url": "https://api.github.com/users/MarcoFalke",
        "html_url": "https://github.com/MarcoFalke",
        "followers_url": "https://api.github.com/users/MarcoFalke/followers",
        "following_url": "https://api.github.com/users/MarcoFalke/following%7B/other_user%7D",
        "gists_url": "https://api.github.com/users/MarcoFalke/gists%7B/gist_id%7D",
        "starred_url": "https://api.github.com/users/MarcoFalke/starred%7B/owner%7D%7B/repo%7D",
        "subscriptions_url": "https://api.github.com/users/MarcoFalke/subscriptions",
        "organizations_url": "https://api.github.com/users/MarcoFalke/orgs",
        "repos_url": "https://api.github.com/users/MarcoFalke/repos",
        "events_url": "https://api.github.com/users/MarcoFalke/events%7B/privacy%7D",
        "received_events_url": "https://api.github.com/users/MarcoFalke/received_events",
        "type": "User",
        "site_admin": false
      },
      "commit_id": null,
      "commit_url": null,
      "created_at": "2023-02-02T09:48:03Z"
    },
    {
      "event": "subscribed",
      "id": 8419117787,
      "node_id": "SE_lADOABII585dbt5bzwAAAAH10Yrb",
      "url": "https://api.github.com/repos/bitcoin/bitcoin/issues/events/8419117787",
      "actor": {
        "login": "MarcoFalke",
        "id": 6399679,
        "node_id": "MDQ6VXNlcjYzOTk2Nzk=",
        "avatar_url": "https://avatars.githubusercontent.com/u/6399679?v=4",
        "gravatar_id": "",
        "url": "https://api.github.com/users/MarcoFalke",
        "html_url": "https://github.com/MarcoFalke",
        "followers_url": "https://api.github.com/users/MarcoFalke/followers",
        "following_url": "https://api.github.com/users/MarcoFalke/following%7B/other_user%7D",
        "gists_url": "https://api.github.com/users/MarcoFalke/gists%7B/gist_id%7D",
        "starred_url": "https://api.github.com/users/MarcoFalke/starred%7B/owner%7D%7B/repo%7D",
        "subscriptions_url": "https://api.github.com/users/MarcoFalke/subscriptions",
        "organizations_url": "https://api.github.com/users/MarcoFalke/orgs",
        "repos_url": "https://api.github.com/users/MarcoFalke/repos",
        "events_url": "https://api.github.com/users/MarcoFalke/events%7B/privacy%7D",
        "received_events_url": "https://api.github.com/users/MarcoFalke/received_events",
        "type": "User",
        "site_admin": false
      },
      "commit_id": null,
      "commit_url": null,
      "created_at": "2023-02-02T09:48:03Z"
    }
  ]
}