{
  "type": "issue",
  "issue": {
    "id": 1613806310,
    "node_id": "I_kwDOABII585gMLrm",
    "url": "https://api.github.com/repos/bitcoin/bitcoin/issues/27222",
    "repository_url": "https://api.github.com/repos/bitcoin/bitcoin",
    "labels_url": "https://api.github.com/repos/bitcoin/bitcoin/issues/27222/labels%7B/name%7D",
    "comments_url": "https://api.github.com/repos/bitcoin/bitcoin/issues/27222/comments",
    "events_url": "https://api.github.com/repos/bitcoin/bitcoin/issues/27222/events",
    "html_url": "https://github.com/bitcoin/bitcoin/issues/27222",
    "number": 27222,
    "state": "open",
    "state_reason": "reopened",
    "title": "test: use-of-uninitialized-value in sqlite3Strlen30",
    "body": "https://cirrus-ci.com/task/5021971277152256?logs=ci#L3656\r\n\r\n```\r\nwallet/test/feebumper_tests.cpp(18): Entering test suite \"feebumper_tests\"\r\nwallet/test/feebumper_tests.cpp(42): Entering test case \"external_max_weight_test\"\r\n2023-01-30T17:19:34Z Seed: Setting random seed for current tests to RANDOM_CTX_SEED=231d587d0169ecab6befbed75f49c95aa84567b2750479dca13bd7471f2627e2\r\n2023-01-30T17:19:34.255341Z [test] [init/common.cpp:149] [LogPackageVersion] Bitcoin Core version v24.99.0-a55717c914f8 (release build)\r\n2023-01-30T17:19:34.256134Z [test] [kernel/context.cpp:21] [Context] Using the 'x86_shani(1way,2way)' SHA256 implementation\r\n2023-01-30T17:19:34.256224Z [test] [random.cpp:100] [ReportHardwareRand] Using RdSeed as an additional entropy source\r\n2023-01-30T17:19:34.256309Z [test] [random.cpp:103] [ReportHardwareRand] Using RdRand as an additional entropy source\r\n2023-01-30T17:19:34.297599Z [test] [script/sigcache.cpp:103] [InitSignatureCache] Using 16 MiB out of 16 MiB requested for signature cache, able to store 524288 elements\r\n2023-01-30T17:19:34.335885Z [test] [validation.cpp:1703] [InitScriptExecutionCache] Using 16 MiB out of 16 MiB requested for script execution cache, able to store 524288 elements\r\n2023-01-30T17:19:34.336763Z [scheduler] [util/thread.cpp:20] [TraceThread] scheduler thread start\r\n2023-01-30T17:19:34.348812Z [test] [policy/fees.cpp:551] [CBlockPolicyEstimator] Failed to read fee estimates from /tmp/test_common_Bitcoin Core/667f5e5269ae84d88253c4870a102977a9eaf2d3f0a9c8b5c3572b5cd1a8be09/fee_estimates.dat. Continue anyway.\r\n2023-01-30T17:19:34.350079Z [test] [dbwrapper.cpp:158] [CDBWrapper] Opened LevelDB successfully\r\n2023-01-30T17:19:34.350259Z [test] [dbwrapper.cpp:183] [CDBWrapper] Using obfuscation key for /tmp/test_common_Bitcoin Core/667f5e5269ae84d88253c4870a102977a9eaf2d3f0a9c8b5c3572b5cd1a8be09/blocks/index: 0000000000000000\r\n2023-01-30T17:19:34.387116Z [test] [node/chainstate.cpp:39] [LoadChainstate] Assuming ancestors of block 00000000000000000009c97098b5295f7e5f183ac811fb5d1534040adb93cabd have valid signatures.\r\n2023-01-30T17:19:34.387228Z [test] [node/chainstate.cpp:43] [LoadChainstate] Setting nMinimumChainWork=00000000000000000000000000000000000000003404ba0801921119f903495e\r\n2023-01-30T17:19:34.387838Z [test] [dbwrapper.cpp:158] [CDBWrapper] Opened LevelDB successfully\r\n2023-01-30T17:19:34.387983Z [test] [dbwrapper.cpp:183] [CDBWrapper] Using obfuscation key for /tmp/test_common_Bitcoin Core/667f5e5269ae84d88253c4870a102977a9eaf2d3f0a9c8b5c3572b5cd1a8be09/blocks/index: 0000000000000000\r\n2023-01-30T17:19:34.388195Z [test] [node/blockstorage.cpp:331] [LoadBlockIndexDB] LoadBlockIndexDB: last block file = 0\r\n2023-01-30T17:19:34.388375Z [test] [node/blockstorage.cpp:335] [LoadBlockIndexDB] LoadBlockIndexDB: last block file info: CBlockFileInfo(blocks=0, size=0, heights=0...0, time=1970-01-01...1970-01-01)\r\n2023-01-30T17:19:34.388445Z [test] [node/blockstorage.cpp:346] [LoadBlockIndexDB] Checking all blk files are present...\r\n2023-01-30T17:19:34.388544Z [test] [validation.cpp:4377] [LoadBlockIndex] Initializing databases...\r\n2023-01-30T17:19:34.388814Z [test] [flatfile.cpp:69] [Allocate] [validation] Pre-allocating up to position 0x1000000 in blk00000.dat\r\n2023-01-30T17:19:34.389198Z [test] [node/chainstate.cpp:119] [LoadChainstate] Initializing chainstate Chainstate [ibd] @ height -1 (null)\r\n2023-01-30T17:19:34.389620Z [test] [dbwrapper.cpp:158] [CDBWrapper] Opened LevelDB successfully\r\n2023-01-30T17:19:34.389839Z [test] [dbwrapper.cpp:180] [CDBWrapper] Wrote new obfuscate key for /tmp/test_common_Bitcoin Core/667f5e5269ae84d88253c4870a102977a9eaf2d3f0a9c8b5c3572b5cd1a8be09/chainstate: 3ed985f8e1400ea3\r\n2023-01-30T17:19:34.389922Z [test] [dbwrapper.cpp:183] [CDBWrapper] Using obfuscation key for /tmp/test_common_Bitcoin Core/667f5e5269ae84d88253c4870a102977a9eaf2d3f0a9c8b5c3572b5cd1a8be09/chainstate: 3ed985f8e1400ea3\r\n2023-01-30T17:19:34.390169Z [test] [validation.cpp:5261] [MaybeRebalanceCaches] [snapshot] allocating all cache to the IBD chainstate\r\n2023-01-30T17:19:34.390283Z [test] [validation.cpp:4804] [ResizeCoinsCaches] [Chainstate [ibd] @ height -1 (null)] resized coinsdb cache to 8.0 MiB\r\n2023-01-30T17:19:34.390367Z [test] [validation.cpp:4806] [ResizeCoinsCaches] [Chainstate [ibd] @ height -1 (null)] resized coinsUninitialized bytes in __interceptor_strlen at offset 9 inside [0x72e00000b928, 10)\r\n==44458==WARNING: MemorySanitizer: use-of-uninitialized-value\r\n    #0 0x315b55b in sqlite3Strlen30 (/tmp/cirrus-ci-build/ci/scratch/build/bitcoin-x86_64-pc-linux-gnu/src/test/test_bitcoin+0x315b55b)\r\n    #1 0x318f7c0 in sqlite3VdbeExec (/tmp/cirrus-ci-build/ci/scratch/build/bitcoin-x86_64-pc-linux-gnu/src/test/test_bitcoin+0x318f7c0)\r\n    #2 0x3162363 in sqlite3Step (/tmp/cirrus-ci-build/ci/scratch/build/bitcoin-x86_64-pc-linux-gnu/src/test/test_bitcoin+0x3162363)\r\n    #3 0x315d941 in sqlite3_step (/tmp/cirrus-ci-build/ci/scratch/build/bitcoin-x86_64-pc-linux-gnu/src/test/test_bitcoin+0x315d941)\r\n    #4 0x3166cae in sqlite3_exec (/tmp/cirrus-ci-build/ci/scratch/build/bitcoin-x86_64-pc-linux-gnu/src/test/test_bitcoin+0x3166cae)\r\n    #5 0x1e00359 in wallet::SetPragma(sqlite3*, std::__1::basic_string<char, std::__1::char_traits<char>, std::__1::allocator<char> > const&, std::__1::basic_string<char, std::__1::char_traits<char>, std::__1::allocator<char> > const&, std::__1::basic_string<char, std::__1::char_traits<char>, std::__1::allocator<char> > const&) src/wallet/sqlite.cpp:80:15\r\n    #6 0x1dfe633 in wallet::SQLiteDatabase::Open() src/wallet/sqlite.cpp:243:5\r\n    #7 0x1df9e28 in wallet::SQLiteDatabase::SQLiteDatabase(fs::path const&, fs::path const&, wallet::DatabaseOptions const&, bool) src/wallet/sqlite.cpp:113:9\r\n    #8 0x1da4a7a in std::__1::__unique_if<wallet::SQLiteDatabase>::__unique_single std::__1::make_unique<wallet::SQLiteDatabase, char const (&) [9], char const (&) [1], wallet::DatabaseOptions&, bool>(char const (&) [9], char const (&) [1], wallet::DatabaseOptions&, bool&&) /tmp/cirrus-ci-build/ci/scratch/msan/build/include/c++/v1/memory:2068:32\r\n    #9 0x1d92590 in wallet::CreateMockWalletDatabase(wallet::DatabaseOptions&) src/wallet/walletdb.cpp:1258:16\r\n    #10 0x1d926db in wallet::CreateMockWalletDatabase() src/wallet/walletdb.cpp:1272:12\r\n    #11 0x732bfb in wallet::WalletTestingSetup::WalletTestingSetup(std::__1::basic_string<char, std::__1::char_traits<char>, std::__1::allocator<char> > const&) src/wallet/test/wallet_test_fixture.cpp:13:48\r\n    #12 0x174bc8d in wallet::feebumper::feebumper_tests::external_max_weight_test::external_max_weight_test() src/wallet/test/feebumper_tests.cpp:42:1\r\n    #13 0x1748fd1 in wallet::feebumper::feebumper_tests::external_max_weight_test_invoker() src/wallet/test/feebumper_tests.cpp:42:1\r\n    #14 0x81f5b3 in boost::detail::function::void_function_invoker0<void (*)(), void>::invoke(boost::detail::function::function_buffer&) /tmp/cirrus-ci-build/depends/x86_64-pc-linux-gnu/include/boost/function/function_template.hpp:117:11\r\n    #15 0x61e625 in boost::function0<void>::operator()() const /tmp/cirrus-ci-build/depends/x86_64-pc-linux-gnu/include/boost/function/function_template.hpp:763:14\r\n    #16 0x70a977 in boost::detail::forward::operator()() /tmp/cirrus-ci-build/depends/x86_64-pc-linux-gnu/include/boost/test/impl/execution_monitor.ipp:1388:32\r\n    #17 0x70a476 in boost::detail::function::function_obj_invoker0<boost::detail::forward, int>::invoke(boost::detail::function::function_buffer&) /tmp/cirrus-ci-build/depends/x86_64-pc-linux-gnu/include/boost/function/function_template.hpp:137:18\r\n    #18 0x7001ed in boost::function0<int>::operator()() const /tmp/cirrus-ci-build/depends/x86_64-pc-linux-gnu/include/boost/function/function_template.hpp:763:14\r\n    #19 0x5c7eb3 in int boost::detail::do_invoke<boost::shared_ptr<boost::detail::translator_holder_base>, boost::function<int ()> >(boost::shared_ptr<boost::detail::translator_holder_base> const&, boost::function<int ()> const&) /tmp/cirrus-ci-build/depends/x86_64-pc-linux-gnu/include/boost/test/impl/execution_monitor.ipp:301:30\r\n    #20 0x54f83a in boost::execution_monitor::catch_signals(boost::function<int ()> const&) /tmp/cirrus-ci-build/depends/x86_64-pc-linux-gnu/include/boost/test/impl/execution_monitor.ipp:903:16\r\n    #21 0x54fbb6 in boost::execution_monitor::execute(boost::function<int ()> const&) /tmp/cirrus-ci-build/depends/x86_64-pc-linux-gnu/include/boost/test/impl/execution_monitor.ipp:1301:16\r\n    #22 0x545958 in boost::execution_monitor::vexecute(boost::function<void ()> const&) /tmp/cirrus-ci-build/depends/x86_64-pc-linux-gnu/include/boost/test/impl/execution_monitor.ipp:1397:5\r\n    #23 0x54a3e3 in boost::unit_test::unit_test_monitor_t::execute_and_translate(boost::function<void ()> const&, unsigned long) /tmp/cirrus-ci-build/depends/x86_64-pc-linux-gnu/include/boost/test/impl/unit_test_monitor.ipp:49:9\r\n    #24 0x5c4458 in boost::unit_test::framework::state::execute_test_tree(unsigned long, unsigned long, boost::unit_test::framework::state::random_generator_helper const*) /tmp/cirrus-ci-build/depends/x86_64-pc-linux-gnu/include/boost/test/impl/framework.ipp:815:44\r\n    #25 0x5c2b35 in boost::unit_test::framework::state::execute_test_tree(unsigned long, unsigned long, boost::unit_test::framework::state::random_generator_helper const*) /tmp/cirrus-ci-build/depends/x86_64-pc-linux-gnu/include/boost/test/impl/framework.ipp:784:58\r\n    #26 0x5c2b35 in boost::unit_test::framework::state::execute_test_tree(unsigned long, unsigned long, boost::unit_test::framework::state::random_generator_helper const*) /tmp/cirrus-ci-build/depends/x86_64-pc-linux-gnu/include/boost/test/impl/framework.ipp:784:58\r\n    #27 0x5489c7 in boost::unit_test::framework::run(unsigned long, bool) /tmp/cirrus-ci-build/depends/x86_64-pc-linux-gnu/include/boost/test/impl/framework.ipp:1722:29\r\n    #28 0x56f817 in boost::unit_test::unit_test_main(boost::unit_test::test_suite* (*)(int, char**), int, char**) /tmp/cirrus-ci-build/depends/x86_64-pc-linux-gnu/include/boost/test/impl/unit_test_main.ipp:250:9\r\n    #29 0x57012e in main /tmp/cirrus-ci-build/depends/x86_64-pc-linux-gnu/include/boost/test/impl/unit_test_main.ipp:306:12\r\n    #30 0x7f356f937082 in __libc_start_main (/lib/x86_64-linux-gnu/libc.so.6+0x24082)\r\n    #31 0x4b0a3d in _start (/tmp/cirrus-ci-build/ci/scratch/build/bitcoin-x86_64-pc-linux-gnu/src/test/test_bitcoin+0x4b0a3d)\r\n  Uninitialized value was created by a heap allocation\r\n    #0 0x4bcf1d in malloc (/tmp/cirrus-ci-build/ci/scratch/build/bitcoin-x86_64-pc-linux-gnu/src/test/test_bitcoin+0x4bcf1d)\r\n    #1 0x3221608 in sqlite3MemMalloc (/tmp/cirrus-ci-build/ci/scratch/build/bitcoin-x86_64-pc-linux-gnu/src/test/test_bitcoin+0x3221608)\r\n    #2 0x3157ff9 in sqlite3Malloc (/tmp/cirrus-ci-build/ci/scratch/build/bitcoin-x86_64-pc-linux-gnu/src/test/test_bitcoin+0x3157ff9)\r\n    #3 0x316b474 in setupLookaside (/tmp/cirrus-ci-build/ci/scratch/build/bitcoin-x86_64-pc-linux-gnu/src/test/test_bitcoin+0x316b474)\r\n    #4 0x316d95b in openDatabase (/tmp/cirrus-ci-build/ci/scratch/build/bitcoin-x86_64-pc-linux-gnu/src/test/test_bitcoin+0x316d95b)\r\n    #5 0x316da1a in sqlite3_open_v2 (/tmp/cirrus-ci-build/ci/scratch/build/bitcoin-x86_64-pc-linux-gnu/src/test/test_bitcoin+0x316da1a)\r\n    #6 0x1dfe3db in wallet::SQLiteDatabase::Open() src/wallet/sqlite.cpp:227:19\r\n    #7 0x1df9e28 in wallet::SQLiteDatabase::SQLiteDatabase(fs::path const&, fs::path const&, wallet::DatabaseOptions const&, bool) src/wallet/sqlite.cpp:113:9\r\n    #8 0x1da4a7a in std::__1::__unique_if<wallet::SQLiteDatabase>::__unique_single std::__1::make_unique<wallet::SQLiteDatabase, char const (&) [9], char const (&) [1], wallet::DatabaseOptions&, bool>(char const (&) [9], char const (&) [1], wallet::DatabaseOptions&, bool&&) /tmp/cirrus-ci-build/ci/scratch/msan/build/include/c++/v1/memory:2068:32\r\n    #9 0x1d92590 in wallet::CreateMockWalletDatabase(wallet::DatabaseOptions&) src/wallet/walletdb.cpp:1258:16\r\n    #10 0x1d926db in wallet::CreateMockWalletDatabase() src/wallet/walletdb.cpp:1272:12\r\n    #11 0x732bfb in wallet::WalletTestingSetup::WalletTestingSetup(std::__1::basic_string<char, std::__1::char_traits<char>, std::__1::allocator<char> > const&) src/wallet/test/wallet_test_fixture.cpp:13:48\r\n    #12 0x174bc8d in wallet::feebumper::feebumper_tests::external_max_weight_test::external_max_weight_test() src/wallet/test/feebumper_tests.cpp:42:1\r\n    #13 0x1748fd1 in wallet::feebumper::feebumper_tests::external_max_weight_test_invoker() src/wallet/test/feebumper_tests.cpp:42:1\r\n    #14 0x81f5b3 in boost::detail::function::void_function_invoker0<void (*)(), void>::invoke(boost::detail::function::function_buffer&) /tmp/cirrus-ci-build/depends/x86_64-pc-linux-gnu/include/boost/function/function_template.hpp:117:11\r\n    #15 0x61e625 in boost::function0<void>::operator()() const /tmp/cirrus-ci-build/depends/x86_64-pc-linux-gnu/include/boost/function/function_template.hpp:763:14\r\n    #16 0x70a977 in boost::detail::forward::operator()() /tmp/cirrus-ci-build/depends/x86_64-pc-linux-gnu/include/boost/test/impl/execution_monitor.ipp:1388:32\r\n    #17 0x70a476 in boost::detail::function::function_obj_invoker0<boost::detail::forward, int>::invoke(boost::detail::function::function_buffer&) /tmp/cirrus-ci-build/depends/x86_64-pc-linux-gnu/include/boost/function/function_template.hpp:137:18\r\n    #18 0x7001ed in boost::function0<int>::operator()() const /tmp/cirrus-ci-build/depends/x86_64-pc-linux-gnu/include/boost/function/function_template.hpp:763:14\r\n    #19 0x5c7eb3 in int boost::detail::do_invoke<boost::shared_ptr<boost::detail::translator_holder_base>, boost::function<int ()> >(boost::shared_ptr<boost::detail::translator_holder_base> const&, boost::function<int ()> const&) /tmp/cirrus-ci-build/depends/x86_64-pc-linux-gnu/include/boost/test/impl/execution_monitor.ipp:301:30\r\nSUMMARY: MemorySanitizer: use-of-uninitialized-value (/tmp/cirrus-ci-build/ci/scratch/build/bitcoin-x86_64-pc-linux-gnu/src/test/test_bitcoin+0x315b55b) in sqlite3Strlen30\r\nExiting\r\nmake[3]: *** [Makefile:21498: wallet/test/feebumper_tests.cpp.test] Error 1",
    "user": {
      "login": "MarcoFalke",
      "id": 6399679,
      "node_id": "MDQ6VXNlcjYzOTk2Nzk=",
      "avatar_url": "https://avatars.githubusercontent.com/u/6399679?v=4",
      "gravatar_id": "",
      "url": "https://api.github.com/users/MarcoFalke",
      "html_url": "https://github.com/MarcoFalke",
      "followers_url": "https://api.github.com/users/MarcoFalke/followers",
      "following_url": "https://api.github.com/users/MarcoFalke/following%7B/other_user%7D",
      "gists_url": "https://api.github.com/users/MarcoFalke/gists%7B/gist_id%7D",
      "starred_url": "https://api.github.com/users/MarcoFalke/starred%7B/owner%7D%7B/repo%7D",
      "subscriptions_url": "https://api.github.com/users/MarcoFalke/subscriptions",
      "organizations_url": "https://api.github.com/users/MarcoFalke/orgs",
      "repos_url": "https://api.github.com/users/MarcoFalke/repos",
      "events_url": "https://api.github.com/users/MarcoFalke/events%7B/privacy%7D",
      "received_events_url": "https://api.github.com/users/MarcoFalke/received_events",
      "type": "User",
      "site_admin": false
    },
    "labels": [
      {
        "id": 64585,
        "node_id": "MDU6TGFiZWw2NDU4NQ==",
        "url": "https://api.github.com/repos/bitcoin/bitcoin/labels/Bug",
        "name": "Bug",
        "color": "FBBAAB",
        "default": false
      }
    ],
    "assignees": [],
    "author_association": "MEMBER",
    "locked": false,
    "comments": 10,
    "created_at": "2023-03-07T16:33:54Z",
    "updated_at": "2023-06-21T08:58:15Z"
  },
  "events": [
    {
      "event": "labeled",
      "id": 8687953295,
      "node_id": "LE_lADOABII585gMLrmzwAAAAIF16WP",
      "url": "https://api.github.com/repos/bitcoin/bitcoin/issues/events/8687953295",
      "actor": {
        "login": "MarcoFalke",
        "id": 6399679,
        "node_id": "MDQ6VXNlcjYzOTk2Nzk=",
        "avatar_url": "https://avatars.githubusercontent.com/u/6399679?v=4",
        "gravatar_id": "",
        "url": "https://api.github.com/users/MarcoFalke",
        "html_url": "https://github.com/MarcoFalke",
        "followers_url": "https://api.github.com/users/MarcoFalke/followers",
        "following_url": "https://api.github.com/users/MarcoFalke/following%7B/other_user%7D",
        "gists_url": "https://api.github.com/users/MarcoFalke/gists%7B/gist_id%7D",
        "starred_url": "https://api.github.com/users/MarcoFalke/starred%7B/owner%7D%7B/repo%7D",
        "subscriptions_url": "https://api.github.com/users/MarcoFalke/subscriptions",
        "organizations_url": "https://api.github.com/users/MarcoFalke/orgs",
        "repos_url": "https://api.github.com/users/MarcoFalke/repos",
        "events_url": "https://api.github.com/users/MarcoFalke/events%7B/privacy%7D",
        "received_events_url": "https://api.github.com/users/MarcoFalke/received_events",
        "type": "User",
        "site_admin": false
      },
      "commit_id": null,
      "commit_url": null,
      "created_at": "2023-03-07T16:33:54Z",
      "label": {
        "name": "Bug",
        "color": "FBBAAB"
      }
    },
    {
      "event": "commented",
      "id": 1458484442,
      "node_id": "IC_kwDOABII585W7rTa",
      "url": "https://api.github.com/repos/bitcoin/bitcoin/issues/comments/1458484442",
      "actor": {
        "login": "MarcoFalke",
        "id": 6399679,
        "node_id": "MDQ6VXNlcjYzOTk2Nzk=",
        "avatar_url": "https://avatars.githubusercontent.com/u/6399679?v=4",
        "gravatar_id": "",
        "url": "https://api.github.com/users/MarcoFalke",
        "html_url": "https://github.com/MarcoFalke",
        "followers_url": "https://api.github.com/users/MarcoFalke/followers",
        "following_url": "https://api.github.com/users/MarcoFalke/following%7B/other_user%7D",
        "gists_url": "https://api.github.com/users/MarcoFalke/gists%7B/gist_id%7D",
        "starred_url": "https://api.github.com/users/MarcoFalke/starred%7B/owner%7D%7B/repo%7D",
        "subscriptions_url": "https://api.github.com/users/MarcoFalke/subscriptions",
        "organizations_url": "https://api.github.com/users/MarcoFalke/orgs",
        "repos_url": "https://api.github.com/users/MarcoFalke/repos",
        "events_url": "https://api.github.com/users/MarcoFalke/events%7B/privacy%7D",
        "received_events_url": "https://api.github.com/users/MarcoFalke/received_events",
        "type": "User",
        "site_admin": false
      },
      "commit_id": null,
      "commit_url": null,
      "created_at": "2023-03-07T16:39:41Z",
      "updated_at": "2023-03-07T16:39:41Z",
      "author_association": "MEMBER",
      "body": "For reference, the path seems to be `\"\"` (empty string), but that shouldn't be an issue?",
      "user": {
        "login": "MarcoFalke",
        "id": 6399679,
        "node_id": "MDQ6VXNlcjYzOTk2Nzk=",
        "avatar_url": "https://avatars.githubusercontent.com/u/6399679?v=4",
        "gravatar_id": "",
        "url": "https://api.github.com/users/MarcoFalke",
        "html_url": "https://github.com/MarcoFalke",
        "followers_url": "https://api.github.com/users/MarcoFalke/followers",
        "following_url": "https://api.github.com/users/MarcoFalke/following%7B/other_user%7D",
        "gists_url": "https://api.github.com/users/MarcoFalke/gists%7B/gist_id%7D",
        "starred_url": "https://api.github.com/users/MarcoFalke/starred%7B/owner%7D%7B/repo%7D",
        "subscriptions_url": "https://api.github.com/users/MarcoFalke/subscriptions",
        "organizations_url": "https://api.github.com/users/MarcoFalke/orgs",
        "repos_url": "https://api.github.com/users/MarcoFalke/repos",
        "events_url": "https://api.github.com/users/MarcoFalke/events%7B/privacy%7D",
        "received_events_url": "https://api.github.com/users/MarcoFalke/received_events",
        "type": "User",
        "site_admin": false
      },
      "html_url": "https://github.com/bitcoin/bitcoin/issues/27222#issuecomment-1458484442",
      "issue_url": "https://api.github.com/repos/bitcoin/bitcoin/issues/27222"
    },
    {
      "event": "commented",
      "id": 1472533007,
      "node_id": "IC_kwDOABII585XxRIP",
      "url": "https://api.github.com/repos/bitcoin/bitcoin/issues/comments/1472533007",
      "actor": {
        "login": "mohamedawnallah",
        "id": 69568555,
        "node_id": "MDQ6VXNlcjY5NTY4NTU1",
        "avatar_url": "https://avatars.githubusercontent.com/u/69568555?v=4",
        "gravatar_id": "",
        "url": "https://api.github.com/users/mohamedawnallah",
        "html_url": "https://github.com/mohamedawnallah",
        "followers_url": "https://api.github.com/users/mohamedawnallah/followers",
        "following_url": "https://api.github.com/users/mohamedawnallah/following%7B/other_user%7D",
        "gists_url": "https://api.github.com/users/mohamedawnallah/gists%7B/gist_id%7D",
        "starred_url": "https://api.github.com/users/mohamedawnallah/starred%7B/owner%7D%7B/repo%7D",
        "subscriptions_url": "https://api.github.com/users/mohamedawnallah/subscriptions",
        "organizations_url": "https://api.github.com/users/mohamedawnallah/orgs",
        "repos_url": "https://api.github.com/users/mohamedawnallah/repos",
        "events_url": "https://api.github.com/users/mohamedawnallah/events%7B/privacy%7D",
        "received_events_url": "https://api.github.com/users/mohamedawnallah/received_events",
        "type": "User",
        "site_admin": false
      },
      "commit_id": null,
      "commit_url": null,
      "created_at": "2023-03-16T18:32:29Z",
      "updated_at": "2023-03-16T18:32:29Z",
      "author_association": "NONE",
      "body": "Hi @MarcoFalke, I'd like to work on this issue. Could you please let me know where I should start ?",
      "user": {
        "login": "mohamedawnallah",
        "id": 69568555,
        "node_id": "MDQ6VXNlcjY5NTY4NTU1",
        "avatar_url": "https://avatars.githubusercontent.com/u/69568555?v=4",
        "gravatar_id": "",
        "url": "https://api.github.com/users/mohamedawnallah",
        "html_url": "https://github.com/mohamedawnallah",
        "followers_url": "https://api.github.com/users/mohamedawnallah/followers",
        "following_url": "https://api.github.com/users/mohamedawnallah/following%7B/other_user%7D",
        "gists_url": "https://api.github.com/users/mohamedawnallah/gists%7B/gist_id%7D",
        "starred_url": "https://api.github.com/users/mohamedawnallah/starred%7B/owner%7D%7B/repo%7D",
        "subscriptions_url": "https://api.github.com/users/mohamedawnallah/subscriptions",
        "organizations_url": "https://api.github.com/users/mohamedawnallah/orgs",
        "repos_url": "https://api.github.com/users/mohamedawnallah/repos",
        "events_url": "https://api.github.com/users/mohamedawnallah/events%7B/privacy%7D",
        "received_events_url": "https://api.github.com/users/mohamedawnallah/received_events",
        "type": "User",
        "site_admin": false
      },
      "html_url": "https://github.com/bitcoin/bitcoin/issues/27222#issuecomment-1472533007",
      "issue_url": "https://api.github.com/repos/bitcoin/bitcoin/issues/27222"
    },
    {
      "event": "mentioned",
      "id": 8770824453,
      "node_id": "MEE_lADOABII585gMLrmzwAAAAIKyCkF",
      "url": "https://api.github.com/repos/bitcoin/bitcoin/issues/events/8770824453",
      "actor": {
        "login": "MarcoFalke",
        "id": 6399679,
        "node_id": "MDQ6VXNlcjYzOTk2Nzk=",
        "avatar_url": "https://avatars.githubusercontent.com/u/6399679?v=4",
        "gravatar_id": "",
        "url": "https://api.github.com/users/MarcoFalke",
        "html_url": "https://github.com/MarcoFalke",
        "followers_url": "https://api.github.com/users/MarcoFalke/followers",
        "following_url": "https://api.github.com/users/MarcoFalke/following%7B/other_user%7D",
        "gists_url": "https://api.github.com/users/MarcoFalke/gists%7B/gist_id%7D",
        "starred_url": "https://api.github.com/users/MarcoFalke/starred%7B/owner%7D%7B/repo%7D",
        "subscriptions_url": "https://api.github.com/users/MarcoFalke/subscriptions",
        "organizations_url": "https://api.github.com/users/MarcoFalke/orgs",
        "repos_url": "https://api.github.com/users/MarcoFalke/repos",
        "events_url": "https://api.github.com/users/MarcoFalke/events%7B/privacy%7D",
        "received_events_url": "https://api.github.com/users/MarcoFalke/received_events",
        "type": "User",
        "site_admin": false
      },
      "commit_id": null,
      "commit_url": null,
      "created_at": "2023-03-16T18:32:29Z"
    },
    {
      "event": "subscribed",
      "id": 8770824463,
      "node_id": "SE_lADOABII585gMLrmzwAAAAIKyCkP",
      "url": "https://api.github.com/repos/bitcoin/bitcoin/issues/events/8770824463",
      "actor": {
        "login": "MarcoFalke",
        "id": 6399679,
        "node_id": "MDQ6VXNlcjYzOTk2Nzk=",
        "avatar_url": "https://avatars.githubusercontent.com/u/6399679?v=4",
        "gravatar_id": "",
        "url": "https://api.github.com/users/MarcoFalke",
        "html_url": "https://github.com/MarcoFalke",
        "followers_url": "https://api.github.com/users/MarcoFalke/followers",
        "following_url": "https://api.github.com/users/MarcoFalke/following%7B/other_user%7D",
        "gists_url": "https://api.github.com/users/MarcoFalke/gists%7B/gist_id%7D",
        "starred_url": "https://api.github.com/users/MarcoFalke/starred%7B/owner%7D%7B/repo%7D",
        "subscriptions_url": "https://api.github.com/users/MarcoFalke/subscriptions",
        "organizations_url": "https://api.github.com/users/MarcoFalke/orgs",
        "repos_url": "https://api.github.com/users/MarcoFalke/repos",
        "events_url": "https://api.github.com/users/MarcoFalke/events%7B/privacy%7D",
        "received_events_url": "https://api.github.com/users/MarcoFalke/received_events",
        "type": "User",
        "site_admin": false
      },
      "commit_id": null,
      "commit_url": null,
      "created_at": "2023-03-16T18:32:29Z"
    },
    {
      "event": "commented",
      "id": 1472581735,
      "node_id": "IC_kwDOABII585XxdBn",
      "url": "https://api.github.com/repos/bitcoin/bitcoin/issues/comments/1472581735",
      "actor": {
        "login": "MarcoFalke",
        "id": 6399679,
        "node_id": "MDQ6VXNlcjYzOTk2Nzk=",
        "avatar_url": "https://avatars.githubusercontent.com/u/6399679?v=4",
        "gravatar_id": "",
        "url": "https://api.github.com/users/MarcoFalke",
        "html_url": "https://github.com/MarcoFalke",
        "followers_url": "https://api.github.com/users/MarcoFalke/followers",
        "following_url": "https://api.github.com/users/MarcoFalke/following%7B/other_user%7D",
        "gists_url": "https://api.github.com/users/MarcoFalke/gists%7B/gist_id%7D",
        "starred_url": "https://api.github.com/users/MarcoFalke/starred%7B/owner%7D%7B/repo%7D",
        "subscriptions_url": "https://api.github.com/users/MarcoFalke/subscriptions",
        "organizations_url": "https://api.github.com/users/MarcoFalke/orgs",
        "repos_url": "https://api.github.com/users/MarcoFalke/repos",
        "events_url": "https://api.github.com/users/MarcoFalke/events%7B/privacy%7D",
        "received_events_url": "https://api.github.com/users/MarcoFalke/received_events",
        "type": "User",
        "site_admin": false
      },
      "commit_id": null,
      "commit_url": null,
      "created_at": "2023-03-16T18:56:19Z",
      "updated_at": "2023-03-16T18:56:19Z",
      "author_association": "MEMBER",
      "body": "I am not sure. This was an intermittent issue, so it may be:\r\n\r\n* A bug/race in our code\r\n* A bug/race in sqlite\r\n* A bug/race in msan\r\n* A bug/race in the CI env\r\n* A bug/race somewhere else\r\n* A cosmic ray",
      "user": {
        "login": "MarcoFalke",
        "id": 6399679,
        "node_id": "MDQ6VXNlcjYzOTk2Nzk=",
        "avatar_url": "https://avatars.githubusercontent.com/u/6399679?v=4",
        "gravatar_id": "",
        "url": "https://api.github.com/users/MarcoFalke",
        "html_url": "https://github.com/MarcoFalke",
        "followers_url": "https://api.github.com/users/MarcoFalke/followers",
        "following_url": "https://api.github.com/users/MarcoFalke/following%7B/other_user%7D",
        "gists_url": "https://api.github.com/users/MarcoFalke/gists%7B/gist_id%7D",
        "starred_url": "https://api.github.com/users/MarcoFalke/starred%7B/owner%7D%7B/repo%7D",
        "subscriptions_url": "https://api.github.com/users/MarcoFalke/subscriptions",
        "organizations_url": "https://api.github.com/users/MarcoFalke/orgs",
        "repos_url": "https://api.github.com/users/MarcoFalke/repos",
        "events_url": "https://api.github.com/users/MarcoFalke/events%7B/privacy%7D",
        "received_events_url": "https://api.github.com/users/MarcoFalke/received_events",
        "type": "User",
        "site_admin": false
      },
      "html_url": "https://github.com/bitcoin/bitcoin/issues/27222#issuecomment-1472581735",
      "issue_url": "https://api.github.com/repos/bitcoin/bitcoin/issues/27222"
    },
    {
      "event": "closed",
      "id": 8925148989,
      "node_id": "CE_lADOABII585gMLrmzwAAAAIT-vc9",
      "url": "https://api.github.com/repos/bitcoin/bitcoin/issues/events/8925148989",
      "actor": {
        "login": "MarcoFalke",
        "id": 6399679,
        "node_id": "MDQ6VXNlcjYzOTk2Nzk=",
        "avatar_url": "https://avatars.githubusercontent.com/u/6399679?v=4",
        "gravatar_id": "",
        "url": "https://api.github.com/users/MarcoFalke",
        "html_url": "https://github.com/MarcoFalke",
        "followers_url": "https://api.github.com/users/MarcoFalke/followers",
        "following_url": "https://api.github.com/users/MarcoFalke/following%7B/other_user%7D",
        "gists_url": "https://api.github.com/users/MarcoFalke/gists%7B/gist_id%7D",
        "starred_url": "https://api.github.com/users/MarcoFalke/starred%7B/owner%7D%7B/repo%7D",
        "subscriptions_url": "https://api.github.com/users/MarcoFalke/subscriptions",
        "organizations_url": "https://api.github.com/users/MarcoFalke/orgs",
        "repos_url": "https://api.github.com/users/MarcoFalke/repos",
        "events_url": "https://api.github.com/users/MarcoFalke/events%7B/privacy%7D",
        "received_events_url": "https://api.github.com/users/MarcoFalke/received_events",
        "type": "User",
        "site_admin": false
      },
      "commit_id": null,
      "commit_url": null,
      "created_at": "2023-04-04T14:19:16Z"
    },
    {
      "event": "cross-referenced",
      "id": null,
      "node_id": null,
      "url": null,
      "actor": {
        "login": "fanquake",
        "id": 863730,
        "node_id": "MDQ6VXNlcjg2MzczMA==",
        "avatar_url": "https://avatars.githubusercontent.com/u/863730?v=4",
        "gravatar_id": "",
        "url": "https://api.github.com/users/fanquake",
        "html_url": "https://github.com/fanquake",
        "followers_url": "https://api.github.com/users/fanquake/followers",
        "following_url": "https://api.github.com/users/fanquake/following%7B/other_user%7D",
        "gists_url": "https://api.github.com/users/fanquake/gists%7B/gist_id%7D",
        "starred_url": "https://api.github.com/users/fanquake/starred%7B/owner%7D%7B/repo%7D",
        "subscriptions_url": "https://api.github.com/users/fanquake/subscriptions",
        "organizations_url": "https://api.github.com/users/fanquake/orgs",
        "repos_url": "https://api.github.com/users/fanquake/repos",
        "events_url": "https://api.github.com/users/fanquake/events%7B/privacy%7D",
        "received_events_url": "https://api.github.com/users/fanquake/received_events",
        "type": "User",
        "site_admin": false
      },
      "commit_id": null,
      "commit_url": null,
      "created_at": "2023-04-19T15:05:38Z",
      "updated_at": "2023-04-19T15:05:38Z",
      "source": {
        "issue": {
          "id": 1662751084,
          "node_id": "PR_kwDOABII585OCcX0",
          "url": "https://api.github.com/repos/bitcoin/bitcoin/issues/27448",
          "repository_url": "https://api.github.com/repos/bitcoin/bitcoin",
          "labels_url": "https://api.github.com/repos/bitcoin/bitcoin/issues/27448/labels%7B/name%7D",
          "comments_url": "https://api.github.com/repos/bitcoin/bitcoin/issues/27448/comments",
          "events_url": "https://api.github.com/repos/bitcoin/bitcoin/issues/27448/events",
          "html_url": "https://github.com/bitcoin/bitcoin/pull/27448",
          "number": 27448,
          "state": "closed",
          "state_reason": null,
          "title": "ci: build libc++ in DEBUG mode in MSAN jobs",
          "body": "Followup to #27447.\r\n\r\nSee https://releases.llvm.org/16.0.0/projects/libcxx/docs/DesignDocs/DebugMode.html:\r\n> Libc++ provides a debug mode that enables special debugging checks meant to detect incorrect usage of the standard library. These checks are disabled by default, but they can be enabled by vendors when building the library by using LIBCXX_ENABLE_DEBUG_MODE.",
          "user": {
            "login": "fanquake",
            "id": 863730,
            "node_id": "MDQ6VXNlcjg2MzczMA==",
            "avatar_url": "https://avatars.githubusercontent.com/u/863730?v=4",
            "gravatar_id": "",
            "url": "https://api.github.com/users/fanquake",
            "html_url": "https://github.com/fanquake",
            "followers_url": "https://api.github.com/users/fanquake/followers",
            "following_url": "https://api.github.com/users/fanquake/following%7B/other_user%7D",
            "gists_url": "https://api.github.com/users/fanquake/gists%7B/gist_id%7D",
            "starred_url": "https://api.github.com/users/fanquake/starred%7B/owner%7D%7B/repo%7D",
            "subscriptions_url": "https://api.github.com/users/fanquake/subscriptions",
            "organizations_url": "https://api.github.com/users/fanquake/orgs",
            "repos_url": "https://api.github.com/users/fanquake/repos",
            "events_url": "https://api.github.com/users/fanquake/events%7B/privacy%7D",
            "received_events_url": "https://api.github.com/users/fanquake/received_events",
            "type": "User",
            "site_admin": false
          },
          "labels": [
            {
              "id": 62963516,
              "node_id": "MDU6TGFiZWw2Mjk2MzUxNg==",
              "url": "https://api.github.com/repos/bitcoin/bitcoin/labels/Tests",
              "name": "Tests",
              "color": "d4c5f9",
              "default": false
            }
          ],
          "assignees": [],
          "author_association": "MEMBER",
          "locked": false,
          "comments": 5,
          "pull_request": {
            "url": "https://api.github.com/repos/bitcoin/bitcoin/pulls/27448",
            "html_url": "https://github.com/bitcoin/bitcoin/pull/27448",
            "diff_url": "https://github.com/bitcoin/bitcoin/pull/27448.diff",
            "patch_url": "https://github.com/bitcoin/bitcoin/pull/27448.patch"
          },
          "closed_at": "2023-04-19T17:18:50Z",
          "created_at": "2023-04-11T15:28:23Z",
          "updated_at": "2023-04-19T17:41:58Z"
        },
        "type": "issue"
      }
    },
    {
      "event": "commented",
      "id": 1514903784,
      "node_id": "IC_kwDOABII585aS5jo",
      "url": "https://api.github.com/repos/bitcoin/bitcoin/issues/comments/1514903784",
      "actor": {
        "login": "fanquake",
        "id": 863730,
        "node_id": "MDQ6VXNlcjg2MzczMA==",
        "avatar_url": "https://avatars.githubusercontent.com/u/863730?v=4",
        "gravatar_id": "",
        "url": "https://api.github.com/users/fanquake",
        "html_url": "https://github.com/fanquake",
        "followers_url": "https://api.github.com/users/fanquake/followers",
        "following_url": "https://api.github.com/users/fanquake/following%7B/other_user%7D",
        "gists_url": "https://api.github.com/users/fanquake/gists%7B/gist_id%7D",
        "starred_url": "https://api.github.com/users/fanquake/starred%7B/owner%7D%7B/repo%7D",
        "subscriptions_url": "https://api.github.com/users/fanquake/subscriptions",
        "organizations_url": "https://api.github.com/users/fanquake/orgs",
        "repos_url": "https://api.github.com/users/fanquake/repos",
        "events_url": "https://api.github.com/users/fanquake/events%7B/privacy%7D",
        "received_events_url": "https://api.github.com/users/fanquake/received_events",
        "type": "User",
        "site_admin": false
      },
      "commit_id": null,
      "commit_url": null,
      "created_at": "2023-04-19T15:06:27Z",
      "updated_at": "2023-04-19T15:06:27Z",
      "author_association": "MEMBER",
      "body": "See #27448. I've reproduced this (locally).",
      "user": {
        "login": "fanquake",
        "id": 863730,
        "node_id": "MDQ6VXNlcjg2MzczMA==",
        "avatar_url": "https://avatars.githubusercontent.com/u/863730?v=4",
        "gravatar_id": "",
        "url": "https://api.github.com/users/fanquake",
        "html_url": "https://github.com/fanquake",
        "followers_url": "https://api.github.com/users/fanquake/followers",
        "following_url": "https://api.github.com/users/fanquake/following%7B/other_user%7D",
        "gists_url": "https://api.github.com/users/fanquake/gists%7B/gist_id%7D",
        "starred_url": "https://api.github.com/users/fanquake/starred%7B/owner%7D%7B/repo%7D",
        "subscriptions_url": "https://api.github.com/users/fanquake/subscriptions",
        "organizations_url": "https://api.github.com/users/fanquake/orgs",
        "repos_url": "https://api.github.com/users/fanquake/repos",
        "events_url": "https://api.github.com/users/fanquake/events%7B/privacy%7D",
        "received_events_url": "https://api.github.com/users/fanquake/received_events",
        "type": "User",
        "site_admin": false
      },
      "html_url": "https://github.com/bitcoin/bitcoin/issues/27222#issuecomment-1514903784",
      "issue_url": "https://api.github.com/repos/bitcoin/bitcoin/issues/27222"
    },
    {
      "event": "reopened",
      "id": 9047884220,
      "node_id": "REE_lADOABII585gMLrmzwAAAAIbS8G8",
      "url": "https://api.github.com/repos/bitcoin/bitcoin/issues/events/9047884220",
      "actor": {
        "login": "MarcoFalke",
        "id": 6399679,
        "node_id": "MDQ6VXNlcjYzOTk2Nzk=",
        "avatar_url": "https://avatars.githubusercontent.com/u/6399679?v=4",
        "gravatar_id": "",
        "url": "https://api.github.com/users/MarcoFalke",
        "html_url": "https://github.com/MarcoFalke",
        "followers_url": "https://api.github.com/users/MarcoFalke/followers",
        "following_url": "https://api.github.com/users/MarcoFalke/following%7B/other_user%7D",
        "gists_url": "https://api.github.com/users/MarcoFalke/gists%7B/gist_id%7D",
        "starred_url": "https://api.github.com/users/MarcoFalke/starred%7B/owner%7D%7B/repo%7D",
        "subscriptions_url": "https://api.github.com/users/MarcoFalke/subscriptions",
        "organizations_url": "https://api.github.com/users/MarcoFalke/orgs",
        "repos_url": "https://api.github.com/users/MarcoFalke/repos",
        "events_url": "https://api.github.com/users/MarcoFalke/events%7B/privacy%7D",
        "received_events_url": "https://api.github.com/users/MarcoFalke/received_events",
        "type": "User",
        "site_admin": false
      },
      "commit_id": null,
      "commit_url": null,
      "created_at": "2023-04-19T15:13:36Z"
    },
    {
      "event": "commented",
      "id": 1515129711,
      "node_id": "IC_kwDOABII585aTwtv",
      "url": "https://api.github.com/repos/bitcoin/bitcoin/issues/comments/1515129711",
      "actor": {
        "login": "fanquake",
        "id": 863730,
        "node_id": "MDQ6VXNlcjg2MzczMA==",
        "avatar_url": "https://avatars.githubusercontent.com/u/863730?v=4",
        "gravatar_id": "",
        "url": "https://api.github.com/users/fanquake",
        "html_url": "https://github.com/fanquake",
        "followers_url": "https://api.github.com/users/fanquake/followers",
        "following_url": "https://api.github.com/users/fanquake/following%7B/other_user%7D",
        "gists_url": "https://api.github.com/users/fanquake/gists%7B/gist_id%7D",
        "starred_url": "https://api.github.com/users/fanquake/starred%7B/owner%7D%7B/repo%7D",
        "subscriptions_url": "https://api.github.com/users/fanquake/subscriptions",
        "organizations_url": "https://api.github.com/users/fanquake/orgs",
        "repos_url": "https://api.github.com/users/fanquake/repos",
        "events_url": "https://api.github.com/users/fanquake/events%7B/privacy%7D",
        "received_events_url": "https://api.github.com/users/fanquake/received_events",
        "type": "User",
        "site_admin": false
      },
      "commit_id": null,
      "commit_url": null,
      "created_at": "2023-04-19T17:45:26Z",
      "updated_at": "2023-04-19T17:45:26Z",
      "author_association": "MEMBER",
      "body": "See #27495, which should reproduce this, and a similar issue on aarch64:\r\n```bash\r\n2023-04-19T14:57:40.859244Z [test] [validation.cpp:2834] [ConnectTip] [bench]   - Load block from disk: 0.33ms [0.00s (infms/blk)]\r\n2023-04-19T14:57:40.859773Z [test] [validationinterface.cpp:25Uninitialized bytes in __interceptor_strcmp at offset 0 inside [0xe01000000e0c, 1)\r\n==37748==WARNING: MemorySanitizer: use-of-uninitialized-value\r\n    #0 0xaaaab8a82008 in sqlite3BtreeOpen /home/fedora/ci_scratch/depends/work/build/aarch64-unknown-linux-gnu/sqlite/3380500-b73e7dadeab/sqlite3.c:68556:37\r\n    #1 0xaaaab8a71ddc in openDatabase /home/fedora/ci_scratch/depends/work/build/aarch64-unknown-linux-gnu/sqlite/3380500-b73e7dadeab/sqlite3.c:171911:8\r\n    #2 0xaaaab8a721e4 in sqlite3_open_v2 /home/fedora/ci_scratch/depends/work/build/aarch64-unknown-linux-gnu/sqlite/3380500-b73e7dadeab/sqlite3.c:172034:10\r\n    #3 0xaaaab7c216c8 in wallet::SQLiteDatabase::Open() src/wallet/sqlite.cpp:229:19\r\n    #4 0xaaaab7c1c39c in wallet::SQLiteDatabase::SQLiteDatabase(fs::path const&, fs::path const&, wallet::DatabaseOptions const&, bool) src/wallet/sqlite.cpp:113:9\r\n    #5 0xaaaab7bd1304 in std::__1::__unique_if<wallet::SQLiteDatabase>::__unique_single std::__1::make_unique[abi:v160001]<wallet::SQLiteDatabase, char const (&) [9], char const (&) [1], wallet::DatabaseOptions&, bool>(char const (&) [9], char const (&) [1], wallet::DatabaseOptions&, bool&&) /home/fedora/ci_scratch/ci/scratch/msan/build/include/c++/v1/__memory/unique_ptr.h:686:30\r\n    #6 0xaaaab7bcaab4 in wallet::CreateMockWalletDatabase(wallet::DatabaseOptions&) src/wallet/walletdb.cpp:1264:16\r\n    #7 0xaaaab7bcaab4 in wallet::CreateMockWalletDatabase() src/wallet/walletdb.cpp:1278:12\r\n    #8 0xaaaab6789c44 in wallet::WalletTestingSetup::WalletTestingSetup(std::__1::basic_string<char, std::__1::char_traits<char>, std::__1::allocator<char>> const&) src/wallet/test/wallet_test_fixture.cpp:13:40\r\n    #9 0xaaaab77ba048 in wallet::wallet_tests::ComputeTimeSmart::ComputeTimeSmart() src/wallet/test/wallet_tests.cpp:407:1\r\n    #10 0xaaaab77ba048 in wallet::wallet_tests::ComputeTimeSmart_invoker() src/wallet/test/wallet_tests.cpp:407:1\r\n    #11 0xaaaab6852558 in boost::detail::function::void_function_invoker0<void (*)(), void>::invoke(boost::detail::function::function_buffer&) /home/fedora/ci_scratch/depends/aarch64-unknown-linux-gnu/include/boost/function/function_template.hpp:117:11\r\n    #12 0xaaaab677be68 in boost::function0<void>::operator()() const /home/fedora/ci_scratch/depends/aarch64-unknown-linux-gnu/include/boost/function/function_template.hpp:763:14\r\n    #13 0xaaaab677be68 in boost::detail::forward::operator()() /home/fedora/ci_scratch/depends/aarch64-unknown-linux-gnu/include/boost/test/impl/execution_monitor.ipp:1388:32\r\n    #14 0xaaaab677be68 in boost::detail::function::function_obj_invoker0<boost::detail::forward, int>::invoke(boost::detail::function::function_buffer&) /home/fedora/ci_scratch/depends/aarch64-unknown-linux-gnu/include/boost/function/function_template.hpp:137:18\r\n    #15 0xaaaab6685144 in boost::function0<int>::operator()() const /home/fedora/ci_scratch/depends/aarch64-unknown-linux-gnu/include/boost/function/function_template.hpp:763:14\r\n    #16 0xaaaab6685144 in int boost::detail::do_invoke<boost::shared_ptr<boost::detail::translator_holder_base>, boost::function<int ()>>(boost::shared_ptr<boost::detail::translator_holder_base> const&, boost::function<int ()> const&) /home/fedora/ci_scratch/depends/aarch64-unknown-linux-gnu/include/boost/test/impl/execution_monitor.ipp:301:30\r\n    #17 0xaaaab6685144 in boost::execution_monitor::catch_signals(boost::function<int ()> const&) /home/fedora/ci_scratch/depends/aarch64-unknown-linux-gnu/include/boost/test/impl/execution_monitor.ipp:903:16\r\n    #18 0xaaaab66856c8 in boost::execution_monitor::execute(boost::function<int ()> const&) /home/fedora/ci_scratch/depends/aarch64-unknown-linux-gnu/include/boost/test/impl/execution_monitor.ipp:1301:16\r\n    #19 0xaaaab667dcc0 in boost::execution_monitor::vexecute(boost::function<void ()> const&) /home/fedora/ci_scratch/depends/aarch64-unknown-linux-gnu/include/boost/test/impl/execution_monitor.ipp:1397:5\r\n    #20 0xaaaab667dcc0 in boost::unit_test::unit_test_monitor_t::execute_and_translate(boost::function<void ()> const&, unsigned long) /home/fedora/ci_scratch/depends/aarch64-unknown-linux-gnu/include/boost/test/impl/unit_test_monitor.ipp:49:9\r\n    #21 0xaaaab66e2808 in boost::unit_test::framework::state::execute_test_tree(unsigned long, unsigned long, boost::unit_test::framework::state::random_generator_helper const*) /home/fedora/ci_scratch/depends/aarch64-unknown-linux-gnu/include/boost/test/impl/framework.ipp:815:44\r\n    #22 0xaaaab66e2218 in boost::unit_test::framework::state::execute_test_tree(unsigned long, unsigned long, boost::unit_test::framework::state::random_generator_helper const*) /home/fedora/ci_scratch/depends/aarch64-unknown-linux-gnu/include/boost/test/impl/framework.ipp:784:58\r\n    #23 0xaaaab66e2218 in boost::unit_test::framework::state::execute_test_tree(unsigned long, unsigned long, boost::unit_test::framework::state::random_generator_helper const*) /home/fedora/ci_scratch/depends/aarch64-unknown-linux-gnu/include/boost/test/impl/framework.ipp:784:58\r\n    #24 0xaaaab667ae10 in boost::unit_test::framework::run(unsigned long, bool) /home/fedora/ci_scratch/depends/aarch64-unknown-linux-gnu/include/boost/test/impl/framework.ipp:1722:29\r\n    #25 0xaaaab66aadb4 in boost::unit_test::unit_test_main(boost::unit_test::test_suite* (*)(int, char**), int, char**) /home/fedora/ci_scratch/depends/aarch64-unknown-linux-gnu/include/boost/test/impl/unit_test_main.ipp:250:9\r\n    #26 0xaaaab66abb98 in main /home/fedora/ci_scratch/depends/aarch64-unknown-linux-gnu/include/boost/test/impl/unit_test_main.ipp:306:12\r\n    #27 0xffff91066dbc  (/lib/aarch64-linux-gnu/libc.so.6+0x26dbc) (BuildId: 9efe43e32e614cad22a180ef036eea6154eafdc2)\r\n    #28 0xffff91066e94 in __libc_start_main (/lib/aarch64-linux-gnu/libc.so.6+0x26e94) (BuildId: 9efe43e32e614cad22a180ef036eea6154eafdc2)\r\n    #29 0xaaaab65cd6ec in _start (/home/fedora/ci_scratch/ci/scratch/build/bitcoin-aarch64-unknown-linux-gnu/src/test/test_bitcoin+0x15d6ec) (BuildId: 78bb98243eb0da25c31e795ae10bd1ff4597c7e4)\r\n\r\n  Uninitialized value was created by a heap allocation\r\n    #0 0xaaaab65ffd14 in malloc (/home/fedora/ci_scratch/ci/scratch/build/bitcoin-aarch64-unknown-linux-gnu/src/test/test_bitcoin+0x18fd14) (BuildId: 78bb98243eb0da25c31e795ae10bd1ff4597c7e4)\r\n    #1 0xaaaab8bb18d4 in sqlite3MemMalloc /home/fedora/ci_scratch/depends/work/build/aarch64-unknown-linux-gnu/sqlite/3380500-b73e7dadeab/sqlite3.c:25163:7\r\n    #2 0xaaaab8a77948 in mallocWithAlarm /home/fedora/ci_scratch/depends/work/build/aarch64-unknown-linux-gnu/sqlite/3380500-b73e7dadeab/sqlite3.c:28846:7\r\n    #3 0xaaaab8a508bc in sqlite3Malloc /home/fedora/ci_scratch/depends/work/build/aarch64-unknown-linux-gnu/sqlite/3380500-b73e7dadeab/sqlite3.c:28876:5\r\n    #4 0xaaaab8a5096c in sqlite3_malloc64 /home/fedora/ci_scratch/depends/work/build/aarch64-unknown-linux-gnu/sqlite/3380500-b73e7dadeab/sqlite3.c:28900:10\r\n    #5 0xaaaab8b9aca4 in sqlite3ParseUri /home/fedora/ci_scratch/depends/work/build/aarch64-unknown-linux-gnu/sqlite/3380500-b73e7dadeab/sqlite3.c:171638:13\r\n    #6 0xaaaab8a71d34 in openDatabase /home/fedora/ci_scratch/depends/work/build/aarch64-unknown-linux-gnu/sqlite/3380500-b73e7dadeab/sqlite3.c:171901:10\r\n    #7 0xaaaab8a721e4 in sqlite3_open_v2 /home/fedora/ci_scratch/depends/work/build/aarch64-unknown-linux-gnu/sqlite/3380500-b73e7dadeab/sqlite3.c:172034:10\r\n    #8 0xaaaab7c216c8 in wallet::SQLiteDatabase::Open() src/wallet/sqlite.cpp:229:19\r\n    #9 0xaaaab7c1c39c in wallet::SQLiteDatabase::SQLiteDatabase(fs::path const&, fs::path const&, wallet::DatabaseOptions const&, bool) src/wallet/sqlite.cpp:113:9\r\n    #10 0xaaaab7bd1304 in std::__1::__unique_if<wallet::SQLiteDatabase>::__unique_single std::__1::make_unique[abi:v160001]<wallet::SQLiteDatabase, char const (&) [9], char const (&) [1], wallet::DatabaseOptions&, bool>(char const (&) [9], char const (&) [1], wallet::DatabaseOptions&, bool&&) /home/fedora/ci_scratch/ci/scratch/msan/build/include/c++/v1/__memory/unique_ptr.h:686:30\r\n    #11 0xaaaab7bcaab4 in wallet::CreateMockWalletDatabase(wallet::DatabaseOptions&) src/wallet/walletdb.cpp:1264:16\r\n    #12 0xaaaab7bcaab4 in wallet::CreateMockWalletDatabase() src/wallet/walletdb.cpp:1278:12\r\n    #13 0xaaaab6789c44 in wallet::WalletTestingSetup::WalletTestingSetup(std::__1::basic_string<char, std::__1::char_traits<char>, std::__1::allocator<char>> const&) src/wallet/test/wallet_test_fixture.cpp:13:40\r\n    #14 0xaaaab77ba048 in wallet::wallet_tests::ComputeTimeSmart::ComputeTimeSmart() src/wallet/test/wallet_tests.cpp:407:1\r\n    #15 0xaaaab77ba048 in wallet::wallet_tests::ComputeTimeSmart_invoker() src/wallet/test/wallet_tests.cpp:407:1\r\n    #16 0xaaaab6852558 in boost::detail::function::void_function_invoker0<void (*)(), void>::invoke(boost::detail::function::function_buffer&) /home/fedora/ci_scratch/depends/aarch64-unknown-linux-gnu/include/boost/function/function_template.hpp:117:11\r\n    #17 0xaaaab677be68 in boost::function0<void>::operator()() const /home/fedora/ci_scratch/depends/aarch64-unknown-linux-gnu/include/boost/function/function_template.hpp:763:14\r\n    #18 0xaaaab677be68 in boost::detail::forward::operator()() /home/fedora/ci_scratch/depends/aarch64-unknown-linux-gnu/include/boost/test/impl/execution_monitor.ipp:1388:32\r\n    #19 0xaaaab677be68 in boost::detail::function::function_obj_invoker0<boost::detail::forward, int>::invoke(boost::detail::function::function_buffer&) /home/fedora/ci_scratch/depends/aarch64-unknown-linux-gnu/include/boost/function/function_template.hpp:137:18\r\n    #20 0xaaaab6685144 in boost::function0<int>::operator()() const /home/fedora/ci_scratch/depends/aarch64-unknown-linux-gnu/include/boost/function/function_template.hpp:763:14\r\n    #21 0xaaaab6685144 in int boost::detail::do_invoke<boost::shared_ptr<boost::detail::translator_holder_base>, boost::function<int ()>>(boost::shared_ptr<boost::detail::translator_holder_base> const&, boost::function<int ()> const&) /home/fedora/ci_scratch/depends/aarch64-unknown-linux-gnu/include/boost/test/impl/execution_monitor.ipp:301:30\r\n    #22 0xaaaab6685144 in boost::execution_monitor::catch_signals(boost::function<int ()> const&) /home/fedora/ci_scratch/depends/aarch64-unknown-linux-gnu/include/boost/test/impl/execution_monitor.ipp:903:16\r\n    #23 0xaaaab66856c8 in boost::execution_monitor::execute(boost::function<int ()> const&) /home/fedora/ci_scratch/depends/aarch64-unknown-linux-gnu/include/boost/test/impl/execution_monitor.ipp:1301:16\r\n    #24 0xaaaab667dcc0 in boost::execution_monitor::vexecute(boost::function<void ()> const&) /home/fedora/ci_scratch/depends/aarch64-unknown-linux-gnu/include/boost/test/impl/execution_monitor.ipp:1397:5\r\n    #25 0xaaaab667dcc0 in boost::unit_test::unit_test_monitor_t::execute_and_translate(boost::function<void ()> const&, unsigned long) /home/fedora/ci_scratch/depends/aarch64-unknown-linux-gnu/include/boost/test/impl/unit_test_monitor.ipp:49:9\r\n    #26 0xaaaab66e2808 in boost::unit_test::framework::state::execute_test_tree(unsigned long, unsigned long, boost::unit_test::framework::state::random_generator_helper const*) /home/fedora/ci_scratch/depends/aarch64-unknown-linux-gnu/include/boost/test/impl/framework.ipp:815:44\r\n\r\nSUMMARY: MemorySanitizer: use-of-uninitialized-value /home/fedora/ci_scratch/depends/work/build/aarch64-unknown-linux-gnu/sqlite/3380500-b73e7dadeab/sqlite3.c:68556:37 in sqlite3BtreeOpen\r\nExiting\r\n```",
      "user": {
        "login": "fanquake",
        "id": 863730,
        "node_id": "MDQ6VXNlcjg2MzczMA==",
        "avatar_url": "https://avatars.githubusercontent.com/u/863730?v=4",
        "gravatar_id": "",
        "url": "https://api.github.com/users/fanquake",
        "html_url": "https://github.com/fanquake",
        "followers_url": "https://api.github.com/users/fanquake/followers",
        "following_url": "https://api.github.com/users/fanquake/following%7B/other_user%7D",
        "gists_url": "https://api.github.com/users/fanquake/gists%7B/gist_id%7D",
        "starred_url": "https://api.github.com/users/fanquake/starred%7B/owner%7D%7B/repo%7D",
        "subscriptions_url": "https://api.github.com/users/fanquake/subscriptions",
        "organizations_url": "https://api.github.com/users/fanquake/orgs",
        "repos_url": "https://api.github.com/users/fanquake/repos",
        "events_url": "https://api.github.com/users/fanquake/events%7B/privacy%7D",
        "received_events_url": "https://api.github.com/users/fanquake/received_events",
        "type": "User",
        "site_admin": false
      },
      "html_url": "https://github.com/bitcoin/bitcoin/issues/27222#issuecomment-1515129711",
      "issue_url": "https://api.github.com/repos/bitcoin/bitcoin/issues/27222"
    },
    {
      "event": "commented",
      "id": 1516009197,
      "node_id": "IC_kwDOABII585aXHbt",
      "url": "https://api.github.com/repos/bitcoin/bitcoin/issues/comments/1516009197",
      "actor": {
        "login": "MarcoFalke",
        "id": 6399679,
        "node_id": "MDQ6VXNlcjYzOTk2Nzk=",
        "avatar_url": "https://avatars.githubusercontent.com/u/6399679?v=4",
        "gravatar_id": "",
        "url": "https://api.github.com/users/MarcoFalke",
        "html_url": "https://github.com/MarcoFalke",
        "followers_url": "https://api.github.com/users/MarcoFalke/followers",
        "following_url": "https://api.github.com/users/MarcoFalke/following%7B/other_user%7D",
        "gists_url": "https://api.github.com/users/MarcoFalke/gists%7B/gist_id%7D",
        "starred_url": "https://api.github.com/users/MarcoFalke/starred%7B/owner%7D%7B/repo%7D",
        "subscriptions_url": "https://api.github.com/users/MarcoFalke/subscriptions",
        "organizations_url": "https://api.github.com/users/MarcoFalke/orgs",
        "repos_url": "https://api.github.com/users/MarcoFalke/repos",
        "events_url": "https://api.github.com/users/MarcoFalke/events%7B/privacy%7D",
        "received_events_url": "https://api.github.com/users/MarcoFalke/received_events",
        "type": "User",
        "site_admin": false
      },
      "commit_id": null,
      "commit_url": null,
      "created_at": "2023-04-20T09:26:01Z",
      "updated_at": "2023-04-20T09:26:01Z",
      "author_association": "MEMBER",
      "body": "Too bad this doesn't easily reproduce outside of the CI env with valgrind. I guess if someone wants to take a look, it might be easiest to fiddle inside the CI env interactively.",
      "user": {
        "login": "MarcoFalke",
        "id": 6399679,
        "node_id": "MDQ6VXNlcjYzOTk2Nzk=",
        "avatar_url": "https://avatars.githubusercontent.com/u/6399679?v=4",
        "gravatar_id": "",
        "url": "https://api.github.com/users/MarcoFalke",
        "html_url": "https://github.com/MarcoFalke",
        "followers_url": "https://api.github.com/users/MarcoFalke/followers",
        "following_url": "https://api.github.com/users/MarcoFalke/following%7B/other_user%7D",
        "gists_url": "https://api.github.com/users/MarcoFalke/gists%7B/gist_id%7D",
        "starred_url": "https://api.github.com/users/MarcoFalke/starred%7B/owner%7D%7B/repo%7D",
        "subscriptions_url": "https://api.github.com/users/MarcoFalke/subscriptions",
        "organizations_url": "https://api.github.com/users/MarcoFalke/orgs",
        "repos_url": "https://api.github.com/users/MarcoFalke/repos",
        "events_url": "https://api.github.com/users/MarcoFalke/events%7B/privacy%7D",
        "received_events_url": "https://api.github.com/users/MarcoFalke/received_events",
        "type": "User",
        "site_admin": false
      },
      "html_url": "https://github.com/bitcoin/bitcoin/issues/27222#issuecomment-1516009197",
      "issue_url": "https://api.github.com/repos/bitcoin/bitcoin/issues/27222"
    },
    {
      "event": "cross-referenced",
      "id": null,
      "node_id": null,
      "url": null,
      "actor": {
        "login": "fanquake",
        "id": 863730,
        "node_id": "MDQ6VXNlcjg2MzczMA==",
        "avatar_url": "https://avatars.githubusercontent.com/u/863730?v=4",
        "gravatar_id": "",
        "url": "https://api.github.com/users/fanquake",
        "html_url": "https://github.com/fanquake",
        "followers_url": "https://api.github.com/users/fanquake/followers",
        "following_url": "https://api.github.com/users/fanquake/following%7B/other_user%7D",
        "gists_url": "https://api.github.com/users/fanquake/gists%7B/gist_id%7D",
        "starred_url": "https://api.github.com/users/fanquake/starred%7B/owner%7D%7B/repo%7D",
        "subscriptions_url": "https://api.github.com/users/fanquake/subscriptions",
        "organizations_url": "https://api.github.com/users/fanquake/orgs",
        "repos_url": "https://api.github.com/users/fanquake/repos",
        "events_url": "https://api.github.com/users/fanquake/events%7B/privacy%7D",
        "received_events_url": "https://api.github.com/users/fanquake/received_events",
        "type": "User",
        "site_admin": false
      },
      "commit_id": null,
      "commit_url": null,
      "created_at": "2023-05-17T15:22:32Z",
      "updated_at": "2023-05-17T15:22:32Z",
      "source": {
        "issue": {
          "id": 1675343104,
          "node_id": "PR_kwDOABII585OshX_",
          "url": "https://api.github.com/repos/bitcoin/bitcoin/issues/27495",
          "repository_url": "https://api.github.com/repos/bitcoin/bitcoin",
          "labels_url": "https://api.github.com/repos/bitcoin/bitcoin/issues/27495/labels%7B/name%7D",
          "comments_url": "https://api.github.com/repos/bitcoin/bitcoin/issues/27495/comments",
          "events_url": "https://api.github.com/repos/bitcoin/bitcoin/issues/27495/events",
          "html_url": "https://github.com/bitcoin/bitcoin/pull/27495",
          "number": 27495,
          "state": "open",
          "state_reason": null,
          "title": "ci: Use DEBUG=1 in depends for MSAN jobs",
          "body": "Followup to #27448, which was deffered, as it produces #27222 and another similar issue in sqlite, see comment here: https://github.com/bitcoin/bitcoin/pull/27448#issuecomment-1514902450.",
          "user": {
            "login": "fanquake",
            "id": 863730,
            "node_id": "MDQ6VXNlcjg2MzczMA==",
            "avatar_url": "https://avatars.githubusercontent.com/u/863730?v=4",
            "gravatar_id": "",
            "url": "https://api.github.com/users/fanquake",
            "html_url": "https://github.com/fanquake",
            "followers_url": "https://api.github.com/users/fanquake/followers",
            "following_url": "https://api.github.com/users/fanquake/following%7B/other_user%7D",
            "gists_url": "https://api.github.com/users/fanquake/gists%7B/gist_id%7D",
            "starred_url": "https://api.github.com/users/fanquake/starred%7B/owner%7D%7B/repo%7D",
            "subscriptions_url": "https://api.github.com/users/fanquake/subscriptions",
            "organizations_url": "https://api.github.com/users/fanquake/orgs",
            "repos_url": "https://api.github.com/users/fanquake/repos",
            "events_url": "https://api.github.com/users/fanquake/events%7B/privacy%7D",
            "received_events_url": "https://api.github.com/users/fanquake/received_events",
            "type": "User",
            "site_admin": false
          },
          "labels": [
            {
              "id": 5334691551,
              "node_id": "LA_kwDOABII588AAAABPfju3w",
              "url": "https://api.github.com/repos/bitcoin/bitcoin/labels/CI%20failed",
              "name": "CI failed",
              "description": "",
              "color": "cccccc",
              "default": false
            }
          ],
          "assignees": [],
          "author_association": "MEMBER",
          "locked": false,
          "comments": 3,
          "pull_request": {
            "url": "https://api.github.com/repos/bitcoin/bitcoin/pulls/27495",
            "html_url": "https://github.com/bitcoin/bitcoin/pull/27495",
            "diff_url": "https://github.com/bitcoin/bitcoin/pull/27495.diff",
            "patch_url": "https://github.com/bitcoin/bitcoin/pull/27495.patch"
          },
          "created_at": "2023-04-19T17:41:38Z",
          "updated_at": "2023-06-21T08:46:21Z"
        },
        "type": "issue"
      }
    },
    {
      "event": "commented",
      "id": 1552238004,
      "node_id": "IC_kwDOABII585chUW0",
      "url": "https://api.github.com/repos/bitcoin/bitcoin/issues/comments/1552238004",
      "actor": {
        "login": "achow101",
        "id": 3782274,
        "node_id": "MDQ6VXNlcjM3ODIyNzQ=",
        "avatar_url": "https://avatars.githubusercontent.com/u/3782274?v=4",
        "gravatar_id": "",
        "url": "https://api.github.com/users/achow101",
        "html_url": "https://github.com/achow101",
        "followers_url": "https://api.github.com/users/achow101/followers",
        "following_url": "https://api.github.com/users/achow101/following%7B/other_user%7D",
        "gists_url": "https://api.github.com/users/achow101/gists%7B/gist_id%7D",
        "starred_url": "https://api.github.com/users/achow101/starred%7B/owner%7D%7B/repo%7D",
        "subscriptions_url": "https://api.github.com/users/achow101/subscriptions",
        "organizations_url": "https://api.github.com/users/achow101/orgs",
        "repos_url": "https://api.github.com/users/achow101/repos",
        "events_url": "https://api.github.com/users/achow101/events%7B/privacy%7D",
        "received_events_url": "https://api.github.com/users/achow101/received_events",
        "type": "User",
        "site_admin": false
      },
      "commit_id": null,
      "commit_url": null,
      "created_at": "2023-05-18T00:11:27Z",
      "updated_at": "2023-05-18T00:11:27Z",
      "author_association": "MEMBER",
      "body": "This looks to be an issue with either sqlite or clang, I don't think there's anything that we can do to resolve these other than suppressing them.\r\n\r\nMSan is tripping on sqlite calling `strlen` on a string that it copied into a temp buffer. That temp buffer was malloc'd by sqlite (without clearing out the data, so it has uninitialized memory), and then our string copied into it, maybe modified (this particular function normalizes a path), a null terminator added, and the result strlen'd. That last strlen is where msan is tripping. It seems like msan is tripping on the null terminator and thinking that it is uninitialized memory, so that sounds like an issue with clang rather than sqlite.\r\n\r\nIn https://github.com/achow101/bitcoin/commit/70bf5dae3100ce665274d45f353e79a677baecb4, I added a patch which uses memset to initialize that particular buffer, and that seems to resolve this particular sanitizer issue. However it then proceeds to trip later somewhere else (https://cirrus-ci.com/task/6411320392679424) for presumably a similar problem as it's also on a strlen call.\r\n\r\nIn general, I don't think this is a problem that we can fix.",
      "user": {
        "login": "achow101",
        "id": 3782274,
        "node_id": "MDQ6VXNlcjM3ODIyNzQ=",
        "avatar_url": "https://avatars.githubusercontent.com/u/3782274?v=4",
        "gravatar_id": "",
        "url": "https://api.github.com/users/achow101",
        "html_url": "https://github.com/achow101",
        "followers_url": "https://api.github.com/users/achow101/followers",
        "following_url": "https://api.github.com/users/achow101/following%7B/other_user%7D",
        "gists_url": "https://api.github.com/users/achow101/gists%7B/gist_id%7D",
        "starred_url": "https://api.github.com/users/achow101/starred%7B/owner%7D%7B/repo%7D",
        "subscriptions_url": "https://api.github.com/users/achow101/subscriptions",
        "organizations_url": "https://api.github.com/users/achow101/orgs",
        "repos_url": "https://api.github.com/users/achow101/repos",
        "events_url": "https://api.github.com/users/achow101/events%7B/privacy%7D",
        "received_events_url": "https://api.github.com/users/achow101/received_events",
        "type": "User",
        "site_admin": false
      },
      "html_url": "https://github.com/bitcoin/bitcoin/issues/27222#issuecomment-1552238004",
      "issue_url": "https://api.github.com/repos/bitcoin/bitcoin/issues/27222"
    },
    {
      "event": "commented",
      "id": 1552453177,
      "node_id": "IC_kwDOABII585ciI45",
      "url": "https://api.github.com/repos/bitcoin/bitcoin/issues/comments/1552453177",
      "actor": {
        "login": "MarcoFalke",
        "id": 6399679,
        "node_id": "MDQ6VXNlcjYzOTk2Nzk=",
        "avatar_url": "https://avatars.githubusercontent.com/u/6399679?v=4",
        "gravatar_id": "",
        "url": "https://api.github.com/users/MarcoFalke",
        "html_url": "https://github.com/MarcoFalke",
        "followers_url": "https://api.github.com/users/MarcoFalke/followers",
        "following_url": "https://api.github.com/users/MarcoFalke/following%7B/other_user%7D",
        "gists_url": "https://api.github.com/users/MarcoFalke/gists%7B/gist_id%7D",
        "starred_url": "https://api.github.com/users/MarcoFalke/starred%7B/owner%7D%7B/repo%7D",
        "subscriptions_url": "https://api.github.com/users/MarcoFalke/subscriptions",
        "organizations_url": "https://api.github.com/users/MarcoFalke/orgs",
        "repos_url": "https://api.github.com/users/MarcoFalke/repos",
        "events_url": "https://api.github.com/users/MarcoFalke/events%7B/privacy%7D",
        "received_events_url": "https://api.github.com/users/MarcoFalke/received_events",
        "type": "User",
        "site_admin": false
      },
      "commit_id": null,
      "commit_url": null,
      "created_at": "2023-05-18T05:50:31Z",
      "updated_at": "2023-05-18T05:50:31Z",
      "author_association": "MEMBER",
      "body": "Ok, thanks for taking a look. If there is a reduced test case, it could make sense to report something upstream.",
      "user": {
        "login": "MarcoFalke",
        "id": 6399679,
        "node_id": "MDQ6VXNlcjYzOTk2Nzk=",
        "avatar_url": "https://avatars.githubusercontent.com/u/6399679?v=4",
        "gravatar_id": "",
        "url": "https://api.github.com/users/MarcoFalke",
        "html_url": "https://github.com/MarcoFalke",
        "followers_url": "https://api.github.com/users/MarcoFalke/followers",
        "following_url": "https://api.github.com/users/MarcoFalke/following%7B/other_user%7D",
        "gists_url": "https://api.github.com/users/MarcoFalke/gists%7B/gist_id%7D",
        "starred_url": "https://api.github.com/users/MarcoFalke/starred%7B/owner%7D%7B/repo%7D",
        "subscriptions_url": "https://api.github.com/users/MarcoFalke/subscriptions",
        "organizations_url": "https://api.github.com/users/MarcoFalke/orgs",
        "repos_url": "https://api.github.com/users/MarcoFalke/repos",
        "events_url": "https://api.github.com/users/MarcoFalke/events%7B/privacy%7D",
        "received_events_url": "https://api.github.com/users/MarcoFalke/received_events",
        "type": "User",
        "site_admin": false
      },
      "html_url": "https://github.com/bitcoin/bitcoin/issues/27222#issuecomment-1552453177",
      "issue_url": "https://api.github.com/repos/bitcoin/bitcoin/issues/27222"
    },
    {
      "event": "commented",
      "id": 1600454014,
      "node_id": "IC_kwDOABII585fZP1-",
      "url": "https://api.github.com/repos/bitcoin/bitcoin/issues/comments/1600454014",
      "actor": {
        "login": "MarcoFalke",
        "id": 6399679,
        "node_id": "MDQ6VXNlcjYzOTk2Nzk=",
        "avatar_url": "https://avatars.githubusercontent.com/u/6399679?v=4",
        "gravatar_id": "",
        "url": "https://api.github.com/users/MarcoFalke",
        "html_url": "https://github.com/MarcoFalke",
        "followers_url": "https://api.github.com/users/MarcoFalke/followers",
        "following_url": "https://api.github.com/users/MarcoFalke/following%7B/other_user%7D",
        "gists_url": "https://api.github.com/users/MarcoFalke/gists%7B/gist_id%7D",
        "starred_url": "https://api.github.com/users/MarcoFalke/starred%7B/owner%7D%7B/repo%7D",
        "subscriptions_url": "https://api.github.com/users/MarcoFalke/subscriptions",
        "organizations_url": "https://api.github.com/users/MarcoFalke/orgs",
        "repos_url": "https://api.github.com/users/MarcoFalke/repos",
        "events_url": "https://api.github.com/users/MarcoFalke/events%7B/privacy%7D",
        "received_events_url": "https://api.github.com/users/MarcoFalke/received_events",
        "type": "User",
        "site_admin": false
      },
      "commit_id": null,
      "commit_url": null,
      "created_at": "2023-06-21T08:54:42Z",
      "updated_at": "2023-06-21T08:54:42Z",
      "author_association": "MEMBER",
      "body": "Maybe sqlite in depends doesn't pick up all the build flags? See also the unrelated workaround in https://github.com/google/oss-fuzz/commit/171c9131f7de5b4bc79800001b0a8fc5efa80cc5",
      "user": {
        "login": "MarcoFalke",
        "id": 6399679,
        "node_id": "MDQ6VXNlcjYzOTk2Nzk=",
        "avatar_url": "https://avatars.githubusercontent.com/u/6399679?v=4",
        "gravatar_id": "",
        "url": "https://api.github.com/users/MarcoFalke",
        "html_url": "https://github.com/MarcoFalke",
        "followers_url": "https://api.github.com/users/MarcoFalke/followers",
        "following_url": "https://api.github.com/users/MarcoFalke/following%7B/other_user%7D",
        "gists_url": "https://api.github.com/users/MarcoFalke/gists%7B/gist_id%7D",
        "starred_url": "https://api.github.com/users/MarcoFalke/starred%7B/owner%7D%7B/repo%7D",
        "subscriptions_url": "https://api.github.com/users/MarcoFalke/subscriptions",
        "organizations_url": "https://api.github.com/users/MarcoFalke/orgs",
        "repos_url": "https://api.github.com/users/MarcoFalke/repos",
        "events_url": "https://api.github.com/users/MarcoFalke/events%7B/privacy%7D",
        "received_events_url": "https://api.github.com/users/MarcoFalke/received_events",
        "type": "User",
        "site_admin": false
      },
      "html_url": "https://github.com/bitcoin/bitcoin/issues/27222#issuecomment-1600454014",
      "issue_url": "https://api.github.com/repos/bitcoin/bitcoin/issues/27222"
    },
    {
      "event": "commented",
      "id": 1600459216,
      "node_id": "IC_kwDOABII585fZRHQ",
      "url": "https://api.github.com/repos/bitcoin/bitcoin/issues/comments/1600459216",
      "actor": {
        "login": "fanquake",
        "id": 863730,
        "node_id": "MDQ6VXNlcjg2MzczMA==",
        "avatar_url": "https://avatars.githubusercontent.com/u/863730?v=4",
        "gravatar_id": "",
        "url": "https://api.github.com/users/fanquake",
        "html_url": "https://github.com/fanquake",
        "followers_url": "https://api.github.com/users/fanquake/followers",
        "following_url": "https://api.github.com/users/fanquake/following%7B/other_user%7D",
        "gists_url": "https://api.github.com/users/fanquake/gists%7B/gist_id%7D",
        "starred_url": "https://api.github.com/users/fanquake/starred%7B/owner%7D%7B/repo%7D",
        "subscriptions_url": "https://api.github.com/users/fanquake/subscriptions",
        "organizations_url": "https://api.github.com/users/fanquake/orgs",
        "repos_url": "https://api.github.com/users/fanquake/repos",
        "events_url": "https://api.github.com/users/fanquake/events%7B/privacy%7D",
        "received_events_url": "https://api.github.com/users/fanquake/received_events",
        "type": "User",
        "site_admin": false
      },
      "commit_id": null,
      "commit_url": null,
      "created_at": "2023-06-21T08:58:15Z",
      "updated_at": "2023-06-21T08:58:15Z",
      "author_association": "MEMBER",
      "body": "> Maybe sqlite in depends doesn't pick up all the build flags?\r\n\r\nIt looks like it doesn't, at least in some configurations, needs some more investigation. The oss-fuzz workaround is a hack to pass one \"make it build\" flag through using cppflags.",
      "user": {
        "login": "fanquake",
        "id": 863730,
        "node_id": "MDQ6VXNlcjg2MzczMA==",
        "avatar_url": "https://avatars.githubusercontent.com/u/863730?v=4",
        "gravatar_id": "",
        "url": "https://api.github.com/users/fanquake",
        "html_url": "https://github.com/fanquake",
        "followers_url": "https://api.github.com/users/fanquake/followers",
        "following_url": "https://api.github.com/users/fanquake/following%7B/other_user%7D",
        "gists_url": "https://api.github.com/users/fanquake/gists%7B/gist_id%7D",
        "starred_url": "https://api.github.com/users/fanquake/starred%7B/owner%7D%7B/repo%7D",
        "subscriptions_url": "https://api.github.com/users/fanquake/subscriptions",
        "organizations_url": "https://api.github.com/users/fanquake/orgs",
        "repos_url": "https://api.github.com/users/fanquake/repos",
        "events_url": "https://api.github.com/users/fanquake/events%7B/privacy%7D",
        "received_events_url": "https://api.github.com/users/fanquake/received_events",
        "type": "User",
        "site_admin": false
      },
      "html_url": "https://github.com/bitcoin/bitcoin/issues/27222#issuecomment-1600459216",
      "issue_url": "https://api.github.com/repos/bitcoin/bitcoin/issues/27222"
    }
  ]
}