{
  "type": "issue",
  "issue": {
    "id": 1631965664,
    "node_id": "I_kwDOABII585hRdHg",
    "url": "https://api.github.com/repos/bitcoin/bitcoin/issues/27283",
    "repository_url": "https://api.github.com/repos/bitcoin/bitcoin",
    "labels_url": "https://api.github.com/repos/bitcoin/bitcoin/issues/27283/labels%7B/name%7D",
    "comments_url": "https://api.github.com/repos/bitcoin/bitcoin/issues/27283/comments",
    "events_url": "https://api.github.com/repos/bitcoin/bitcoin/issues/27283/events",
    "html_url": "https://github.com/bitcoin/bitcoin/issues/27283",
    "number": 27283,
    "state": "open",
    "state_reason": null,
    "title": "Memory leak loading legacy wallet (BDB 4.8.30)",
    "body": "On Ubuntu 22.10 (GNU/Linux 6.0.6-060006-generic x86_64) with gcc (12.2.0) and then running under valgrind (3.18.1).\r\n\r\nLoading a legacy wallet and then shutting down the node is the easiest way to reproduce.\r\n\r\nCan be seen on master f4e42a78c75719ad6a99962360ec67d92a563a9d, but see https://github.com/bitcoin/bitcoin/issues/27283#issuecomment-1476501591 for when the leak was introduced. It does not happen with BDB 5.13.\r\n\r\n```\r\n./configure BDB_LIBS=… --enable-debug --disable-asm …\r\nmake\r\n… \r\nvalgrind —leak-check=full src/bitcoind -regtest -nowallet -wallet=test_legacy\r\n… \r\n023-03-20T19:32:09Z [test_legacy] Releasing wallet\r\n2023-03-20T19:32:09Z Shutdown: done\r\n==1744646== \r\n==1744646== HEAP SUMMARY:\r\n==1744646==     in use at exit: 2,377 bytes in 12 blocks\r\n==1744646==   total heap usage: 296,219 allocs, 296,207 frees, 103,153,206 bytes allocated\r\n==1744646== \r\n==1744646== 160 bytes in 1 blocks are definitely lost in loss record 6 of 12\r\n==1744646==    at 0x4844899: malloc (in /usr/libexec/valgrind/vgpreload_memcheck-amd64-linux.so)\r\n==1744646==    by 0xE702AD: __os_malloc (in /home/sjors/dev/bitcoin2/src/bitcoind)\r\n==1744646==    by 0xE455CC: __env_alloc (in /home/sjors/dev/bitcoin2/src/bitcoind)\r\n==1744646==    by 0xEE3CC1: __lock_open (in /home/sjors/dev/bitcoin2/src/bitcoind)\r\n==1744646==    by 0xE497EB: __env_attach_regions (in /home/sjors/dev/bitcoin2/src/bitcoind)\r\n==1744646==    by 0xE49A8E: __env_open (in /home/sjors/dev/bitcoin2/src/bitcoind)\r\n==1744646==    by 0xE49C01: __env_open_pp (in /home/sjors/dev/bitcoin2/src/bitcoind)\r\n==1744646==    by 0xE16E7D: DbEnv::open(char const*, unsigned int, int) (in /home/sjors/dev/bitcoin2/src/bitcoind)\r\n==1744646==    by 0x9EDDE8: wallet::BerkeleyEnvironment::Open(bilingual_str&) (bdb.cpp:164)\r\n==1744646==    by 0x9EEF34: wallet::BerkeleyDatabase::Verify(bilingual_str&) (bdb.cpp:271)\r\n==1744646==    by 0x9F41C8: wallet::MakeBerkeleyDatabase(fs::path const&, wallet::DatabaseOptions const&, wallet::DatabaseStatus&, bilingual_str&) (bdb.cpp:849)\r\n==1744646==    by 0x9A074A: wallet::MakeDatabase(fs::path const&, wallet::DatabaseOptions const&, wallet::DatabaseStatus&, bilingual_str&) (walletdb.cpp:1228)\r\n==1744646== \r\n==1744646== LEAK SUMMARY:\r\n==1744646==    definitely lost: 160 bytes in 1 blocks\r\n==1744646==    indirectly lost: 0 bytes in 0 blocks\r\n==1744646==      possibly lost: 0 bytes in 0 blocks\r\n==1744646==    still reachable: 2,217 bytes in 11 blocks\r\n==1744646==         suppressed: 0 bytes in 0 blocks\r\n==1744646== Reachable blocks (those to which a pointer was found) are not shown.\r\n==1744646== To see them, rerun with: --leak-check=full --show-leak-kinds=all\r\n==1744646== \r\n==1744646== For lists of detected and suppressed errors, rerun with: -s\r\n==1744646== ERROR SUMMARY: 1 errors from 1 contexts (suppressed: 0 from 0)\r\n```\r\n\r\n\r\nOriginally I found it inside a test by using the address sanitizer. I kept the original text below so the comments make sense:\r\n\r\n---\r\n\r\n```\r\nsrc/test/test_bitcoin --run_test=wallet_tests\r\n```\r\n\r\nPassed when configured without BDB, fails when configured with BDB:\r\n\r\n```sh\r\n./configure 'BDB_LIBS=-L/…' BDB_CFLAGS=-I/…/include CC=clang CXX=clang++ --enable-suppress-external-warnings --disable-asm --with-sanitizers=address --disable-fuzz-binary --without-gui\r\nmake -C src/test\r\nsrc/test/test_bitcoin --run_test=wallet_tests\r\n\r\n…\r\n\r\n*** No errors detected\r\n\r\n=================================================================\r\n==637422==ERROR: LeakSanitizer: detected memory leaks\r\n\r\nDirect leak of 320 byte(s) in 2 object(s) allocated from:\r\n    #0 0x555592a03dbe in malloc (/home/sjors/dev/bitcoin/src/test/test_bitcoin+0x470dbe) (BuildId: 8a0fe1527885800d0ca318fefe6c7e66c608d5eb)\r\n    #1 0x555595965e64 in __os_malloc (/home/sjors/dev/bitcoin/src/test/test_bitcoin+0x33d2e64) (BuildId: 8a0fe1527885800d0ca318fefe6c7e66c608d5eb)\r\n\r\nSUMMARY: AddressSanitizer: 320 byte(s) leaked in 2 allocation(s).\r\nmake[3]: *** [Makefile:21823: wallet/test/wallet_tests.cpp.test] Error 1\r\n```\r\n\r\nThere's other BDB related `-with-sanitizers=address` issues: #22592, #19034.\r\n\r\nThere's currently no suppression file for the address sanitizer and I don't know how to make one. It could make sense to suppress the ones we've found, keep a Github issue open for each of one to fix & remove the suppression.\r\n\r\nWithout BDB I can run the full unit and functional test suite just fine, so that's good news in the long run. But in the shorter run it's good to be able to thoroughly test all the legacy -> descriptor migration code that's being written.",
    "user": {
      "login": "Sjors",
      "id": 10217,
      "node_id": "MDQ6VXNlcjEwMjE3",
      "avatar_url": "https://avatars.githubusercontent.com/u/10217?v=4",
      "gravatar_id": "",
      "url": "https://api.github.com/users/Sjors",
      "html_url": "https://github.com/Sjors",
      "followers_url": "https://api.github.com/users/Sjors/followers",
      "following_url": "https://api.github.com/users/Sjors/following%7B/other_user%7D",
      "gists_url": "https://api.github.com/users/Sjors/gists%7B/gist_id%7D",
      "starred_url": "https://api.github.com/users/Sjors/starred%7B/owner%7D%7B/repo%7D",
      "subscriptions_url": "https://api.github.com/users/Sjors/subscriptions",
      "organizations_url": "https://api.github.com/users/Sjors/orgs",
      "repos_url": "https://api.github.com/users/Sjors/repos",
      "events_url": "https://api.github.com/users/Sjors/events%7B/privacy%7D",
      "received_events_url": "https://api.github.com/users/Sjors/received_events",
      "type": "User",
      "site_admin": false
    },
    "labels": [
      {
        "id": 149424,
        "node_id": "MDU6TGFiZWwxNDk0MjQ=",
        "url": "https://api.github.com/repos/bitcoin/bitcoin/labels/Wallet",
        "name": "Wallet",
        "color": "08a781",
        "default": false
      },
      {
        "id": 159815356,
        "node_id": "MDU6TGFiZWwxNTk4MTUzNTY=",
        "url": "https://api.github.com/repos/bitcoin/bitcoin/labels/Upstream",
        "name": "Upstream",
        "color": "bfd4f2",
        "default": false
      }
    ],
    "assignees": [],
    "author_association": "MEMBER",
    "locked": false,
    "comments": 19,
    "created_at": "2023-03-20T12:01:19Z",
    "updated_at": "2023-03-21T14:51:27Z"
  },
  "events": [
    {
      "event": "commented",
      "id": 1476101437,
      "node_id": "IC_kwDOABII585X-4U9",
      "url": "https://api.github.com/repos/bitcoin/bitcoin/issues/comments/1476101437",
      "actor": {
        "login": "Sjors",
        "id": 10217,
        "node_id": "MDQ6VXNlcjEwMjE3",
        "avatar_url": "https://avatars.githubusercontent.com/u/10217?v=4",
        "gravatar_id": "",
        "url": "https://api.github.com/users/Sjors",
        "html_url": "https://github.com/Sjors",
        "followers_url": "https://api.github.com/users/Sjors/followers",
        "following_url": "https://api.github.com/users/Sjors/following%7B/other_user%7D",
        "gists_url": "https://api.github.com/users/Sjors/gists%7B/gist_id%7D",
        "starred_url": "https://api.github.com/users/Sjors/starred%7B/owner%7D%7B/repo%7D",
        "subscriptions_url": "https://api.github.com/users/Sjors/subscriptions",
        "organizations_url": "https://api.github.com/users/Sjors/orgs",
        "repos_url": "https://api.github.com/users/Sjors/repos",
        "events_url": "https://api.github.com/users/Sjors/events%7B/privacy%7D",
        "received_events_url": "https://api.github.com/users/Sjors/received_events",
        "type": "User",
        "site_admin": false
      },
      "commit_id": null,
      "commit_url": null,
      "created_at": "2023-03-20T12:03:16Z",
      "updated_at": "2023-03-20T12:03:16Z",
      "author_association": "MEMBER",
      "body": "cc @achow101",
      "user": {
        "login": "Sjors",
        "id": 10217,
        "node_id": "MDQ6VXNlcjEwMjE3",
        "avatar_url": "https://avatars.githubusercontent.com/u/10217?v=4",
        "gravatar_id": "",
        "url": "https://api.github.com/users/Sjors",
        "html_url": "https://github.com/Sjors",
        "followers_url": "https://api.github.com/users/Sjors/followers",
        "following_url": "https://api.github.com/users/Sjors/following%7B/other_user%7D",
        "gists_url": "https://api.github.com/users/Sjors/gists%7B/gist_id%7D",
        "starred_url": "https://api.github.com/users/Sjors/starred%7B/owner%7D%7B/repo%7D",
        "subscriptions_url": "https://api.github.com/users/Sjors/subscriptions",
        "organizations_url": "https://api.github.com/users/Sjors/orgs",
        "repos_url": "https://api.github.com/users/Sjors/repos",
        "events_url": "https://api.github.com/users/Sjors/events%7B/privacy%7D",
        "received_events_url": "https://api.github.com/users/Sjors/received_events",
        "type": "User",
        "site_admin": false
      },
      "html_url": "https://github.com/bitcoin/bitcoin/issues/27283#issuecomment-1476101437",
      "issue_url": "https://api.github.com/repos/bitcoin/bitcoin/issues/27283"
    },
    {
      "event": "mentioned",
      "id": 8793675878,
      "node_id": "MEE_lADOABII585hRdHgzwAAAAIMJNhm",
      "url": "https://api.github.com/repos/bitcoin/bitcoin/issues/events/8793675878",
      "actor": {
        "login": "achow101",
        "id": 3782274,
        "node_id": "MDQ6VXNlcjM3ODIyNzQ=",
        "avatar_url": "https://avatars.githubusercontent.com/u/3782274?v=4",
        "gravatar_id": "",
        "url": "https://api.github.com/users/achow101",
        "html_url": "https://github.com/achow101",
        "followers_url": "https://api.github.com/users/achow101/followers",
        "following_url": "https://api.github.com/users/achow101/following%7B/other_user%7D",
        "gists_url": "https://api.github.com/users/achow101/gists%7B/gist_id%7D",
        "starred_url": "https://api.github.com/users/achow101/starred%7B/owner%7D%7B/repo%7D",
        "subscriptions_url": "https://api.github.com/users/achow101/subscriptions",
        "organizations_url": "https://api.github.com/users/achow101/orgs",
        "repos_url": "https://api.github.com/users/achow101/repos",
        "events_url": "https://api.github.com/users/achow101/events%7B/privacy%7D",
        "received_events_url": "https://api.github.com/users/achow101/received_events",
        "type": "User",
        "site_admin": false
      },
      "commit_id": null,
      "commit_url": null,
      "created_at": "2023-03-20T12:03:17Z"
    },
    {
      "event": "subscribed",
      "id": 8793675904,
      "node_id": "SE_lADOABII585hRdHgzwAAAAIMJNiA",
      "url": "https://api.github.com/repos/bitcoin/bitcoin/issues/events/8793675904",
      "actor": {
        "login": "achow101",
        "id": 3782274,
        "node_id": "MDQ6VXNlcjM3ODIyNzQ=",
        "avatar_url": "https://avatars.githubusercontent.com/u/3782274?v=4",
        "gravatar_id": "",
        "url": "https://api.github.com/users/achow101",
        "html_url": "https://github.com/achow101",
        "followers_url": "https://api.github.com/users/achow101/followers",
        "following_url": "https://api.github.com/users/achow101/following%7B/other_user%7D",
        "gists_url": "https://api.github.com/users/achow101/gists%7B/gist_id%7D",
        "starred_url": "https://api.github.com/users/achow101/starred%7B/owner%7D%7B/repo%7D",
        "subscriptions_url": "https://api.github.com/users/achow101/subscriptions",
        "organizations_url": "https://api.github.com/users/achow101/orgs",
        "repos_url": "https://api.github.com/users/achow101/repos",
        "events_url": "https://api.github.com/users/achow101/events%7B/privacy%7D",
        "received_events_url": "https://api.github.com/users/achow101/received_events",
        "type": "User",
        "site_admin": false
      },
      "commit_id": null,
      "commit_url": null,
      "created_at": "2023-03-20T12:03:17Z"
    },
    {
      "event": "commented",
      "id": 1476110273,
      "node_id": "IC_kwDOABII585X-6fB",
      "url": "https://api.github.com/repos/bitcoin/bitcoin/issues/comments/1476110273",
      "actor": {
        "login": "fanquake",
        "id": 863730,
        "node_id": "MDQ6VXNlcjg2MzczMA==",
        "avatar_url": "https://avatars.githubusercontent.com/u/863730?v=4",
        "gravatar_id": "",
        "url": "https://api.github.com/users/fanquake",
        "html_url": "https://github.com/fanquake",
        "followers_url": "https://api.github.com/users/fanquake/followers",
        "following_url": "https://api.github.com/users/fanquake/following%7B/other_user%7D",
        "gists_url": "https://api.github.com/users/fanquake/gists%7B/gist_id%7D",
        "starred_url": "https://api.github.com/users/fanquake/starred%7B/owner%7D%7B/repo%7D",
        "subscriptions_url": "https://api.github.com/users/fanquake/subscriptions",
        "organizations_url": "https://api.github.com/users/fanquake/orgs",
        "repos_url": "https://api.github.com/users/fanquake/repos",
        "events_url": "https://api.github.com/users/fanquake/events%7B/privacy%7D",
        "received_events_url": "https://api.github.com/users/fanquake/received_events",
        "type": "User",
        "site_admin": false
      },
      "commit_id": null,
      "commit_url": null,
      "created_at": "2023-03-20T12:08:05Z",
      "updated_at": "2023-03-20T12:08:05Z",
      "author_association": "MEMBER",
      "body": "Doesn't look like you've provided anything more actionable or useful than the last comment in #19034?",
      "user": {
        "login": "fanquake",
        "id": 863730,
        "node_id": "MDQ6VXNlcjg2MzczMA==",
        "avatar_url": "https://avatars.githubusercontent.com/u/863730?v=4",
        "gravatar_id": "",
        "url": "https://api.github.com/users/fanquake",
        "html_url": "https://github.com/fanquake",
        "followers_url": "https://api.github.com/users/fanquake/followers",
        "following_url": "https://api.github.com/users/fanquake/following%7B/other_user%7D",
        "gists_url": "https://api.github.com/users/fanquake/gists%7B/gist_id%7D",
        "starred_url": "https://api.github.com/users/fanquake/starred%7B/owner%7D%7B/repo%7D",
        "subscriptions_url": "https://api.github.com/users/fanquake/subscriptions",
        "organizations_url": "https://api.github.com/users/fanquake/orgs",
        "repos_url": "https://api.github.com/users/fanquake/repos",
        "events_url": "https://api.github.com/users/fanquake/events%7B/privacy%7D",
        "received_events_url": "https://api.github.com/users/fanquake/received_events",
        "type": "User",
        "site_admin": false
      },
      "html_url": "https://github.com/bitcoin/bitcoin/issues/27283#issuecomment-1476110273",
      "issue_url": "https://api.github.com/repos/bitcoin/bitcoin/issues/27283"
    },
    {
      "event": "commented",
      "id": 1476116230,
      "node_id": "IC_kwDOABII585X-78G",
      "url": "https://api.github.com/repos/bitcoin/bitcoin/issues/comments/1476116230",
      "actor": {
        "login": "fanquake",
        "id": 863730,
        "node_id": "MDQ6VXNlcjg2MzczMA==",
        "avatar_url": "https://avatars.githubusercontent.com/u/863730?v=4",
        "gravatar_id": "",
        "url": "https://api.github.com/users/fanquake",
        "html_url": "https://github.com/fanquake",
        "followers_url": "https://api.github.com/users/fanquake/followers",
        "following_url": "https://api.github.com/users/fanquake/following%7B/other_user%7D",
        "gists_url": "https://api.github.com/users/fanquake/gists%7B/gist_id%7D",
        "starred_url": "https://api.github.com/users/fanquake/starred%7B/owner%7D%7B/repo%7D",
        "subscriptions_url": "https://api.github.com/users/fanquake/subscriptions",
        "organizations_url": "https://api.github.com/users/fanquake/orgs",
        "repos_url": "https://api.github.com/users/fanquake/repos",
        "events_url": "https://api.github.com/users/fanquake/events%7B/privacy%7D",
        "received_events_url": "https://api.github.com/users/fanquake/received_events",
        "type": "User",
        "site_admin": false
      },
      "commit_id": null,
      "commit_url": null,
      "created_at": "2023-03-20T12:12:01Z",
      "updated_at": "2023-03-20T12:12:01Z",
      "author_association": "MEMBER",
      "body": "Also if you are going to open issues like this, can you provide more information. i.e you don't even tell us what version of the code this happens with. I guess we are meant to assume it's the latest commit in master? What compiler versions did you use? What system are you running on?",
      "user": {
        "login": "fanquake",
        "id": 863730,
        "node_id": "MDQ6VXNlcjg2MzczMA==",
        "avatar_url": "https://avatars.githubusercontent.com/u/863730?v=4",
        "gravatar_id": "",
        "url": "https://api.github.com/users/fanquake",
        "html_url": "https://github.com/fanquake",
        "followers_url": "https://api.github.com/users/fanquake/followers",
        "following_url": "https://api.github.com/users/fanquake/following%7B/other_user%7D",
        "gists_url": "https://api.github.com/users/fanquake/gists%7B/gist_id%7D",
        "starred_url": "https://api.github.com/users/fanquake/starred%7B/owner%7D%7B/repo%7D",
        "subscriptions_url": "https://api.github.com/users/fanquake/subscriptions",
        "organizations_url": "https://api.github.com/users/fanquake/orgs",
        "repos_url": "https://api.github.com/users/fanquake/repos",
        "events_url": "https://api.github.com/users/fanquake/events%7B/privacy%7D",
        "received_events_url": "https://api.github.com/users/fanquake/received_events",
        "type": "User",
        "site_admin": false
      },
      "html_url": "https://github.com/bitcoin/bitcoin/issues/27283#issuecomment-1476116230",
      "issue_url": "https://api.github.com/repos/bitcoin/bitcoin/issues/27283"
    },
    {
      "event": "commented",
      "id": 1476120851,
      "node_id": "IC_kwDOABII585X-9ET",
      "url": "https://api.github.com/repos/bitcoin/bitcoin/issues/comments/1476120851",
      "actor": {
        "login": "MarcoFalke",
        "id": 6399679,
        "node_id": "MDQ6VXNlcjYzOTk2Nzk=",
        "avatar_url": "https://avatars.githubusercontent.com/u/6399679?v=4",
        "gravatar_id": "",
        "url": "https://api.github.com/users/MarcoFalke",
        "html_url": "https://github.com/MarcoFalke",
        "followers_url": "https://api.github.com/users/MarcoFalke/followers",
        "following_url": "https://api.github.com/users/MarcoFalke/following%7B/other_user%7D",
        "gists_url": "https://api.github.com/users/MarcoFalke/gists%7B/gist_id%7D",
        "starred_url": "https://api.github.com/users/MarcoFalke/starred%7B/owner%7D%7B/repo%7D",
        "subscriptions_url": "https://api.github.com/users/MarcoFalke/subscriptions",
        "organizations_url": "https://api.github.com/users/MarcoFalke/orgs",
        "repos_url": "https://api.github.com/users/MarcoFalke/repos",
        "events_url": "https://api.github.com/users/MarcoFalke/events%7B/privacy%7D",
        "received_events_url": "https://api.github.com/users/MarcoFalke/received_events",
        "type": "User",
        "site_admin": false
      },
      "commit_id": null,
      "commit_url": null,
      "created_at": "2023-03-20T12:15:20Z",
      "updated_at": "2023-03-20T12:15:20Z",
      "author_association": "MEMBER",
      "body": ">There's currently no suppression file for the address sanitizer \r\n\r\nSee https://github.com/bitcoin/bitcoin/blob/master/test/sanitizer_suppressions/lsan",
      "user": {
        "login": "MarcoFalke",
        "id": 6399679,
        "node_id": "MDQ6VXNlcjYzOTk2Nzk=",
        "avatar_url": "https://avatars.githubusercontent.com/u/6399679?v=4",
        "gravatar_id": "",
        "url": "https://api.github.com/users/MarcoFalke",
        "html_url": "https://github.com/MarcoFalke",
        "followers_url": "https://api.github.com/users/MarcoFalke/followers",
        "following_url": "https://api.github.com/users/MarcoFalke/following%7B/other_user%7D",
        "gists_url": "https://api.github.com/users/MarcoFalke/gists%7B/gist_id%7D",
        "starred_url": "https://api.github.com/users/MarcoFalke/starred%7B/owner%7D%7B/repo%7D",
        "subscriptions_url": "https://api.github.com/users/MarcoFalke/subscriptions",
        "organizations_url": "https://api.github.com/users/MarcoFalke/orgs",
        "repos_url": "https://api.github.com/users/MarcoFalke/repos",
        "events_url": "https://api.github.com/users/MarcoFalke/events%7B/privacy%7D",
        "received_events_url": "https://api.github.com/users/MarcoFalke/received_events",
        "type": "User",
        "site_admin": false
      },
      "html_url": "https://github.com/bitcoin/bitcoin/issues/27283#issuecomment-1476120851",
      "issue_url": "https://api.github.com/repos/bitcoin/bitcoin/issues/27283"
    },
    {
      "event": "commented",
      "id": 1476147317,
      "node_id": "IC_kwDOABII585X_Dh1",
      "url": "https://api.github.com/repos/bitcoin/bitcoin/issues/comments/1476147317",
      "actor": {
        "login": "Sjors",
        "id": 10217,
        "node_id": "MDQ6VXNlcjEwMjE3",
        "avatar_url": "https://avatars.githubusercontent.com/u/10217?v=4",
        "gravatar_id": "",
        "url": "https://api.github.com/users/Sjors",
        "html_url": "https://github.com/Sjors",
        "followers_url": "https://api.github.com/users/Sjors/followers",
        "following_url": "https://api.github.com/users/Sjors/following%7B/other_user%7D",
        "gists_url": "https://api.github.com/users/Sjors/gists%7B/gist_id%7D",
        "starred_url": "https://api.github.com/users/Sjors/starred%7B/owner%7D%7B/repo%7D",
        "subscriptions_url": "https://api.github.com/users/Sjors/subscriptions",
        "organizations_url": "https://api.github.com/users/Sjors/orgs",
        "repos_url": "https://api.github.com/users/Sjors/repos",
        "events_url": "https://api.github.com/users/Sjors/events%7B/privacy%7D",
        "received_events_url": "https://api.github.com/users/Sjors/received_events",
        "type": "User",
        "site_admin": false
      },
      "commit_id": null,
      "commit_url": null,
      "created_at": "2023-03-20T12:34:50Z",
      "updated_at": "2023-03-20T12:34:50Z",
      "author_association": "MEMBER",
      "body": "@fanquake that was 65840 bytes, this one is 320 bytes, so I assume it's a different issue?\r\n\r\nI was going to add more details if anyone couldn't reproduce it, but here we go:\r\n\r\nFound it while testing a PR, but reproduced on master @ 40e1c4d4024b8ad35f2511b2e10bf80c5531dfde.\r\n\r\n```\r\nUbuntu clang version 15.0.6\r\nTarget: x86_64-pc-linux-gnu\r\n\r\nUbuntu 22.10 (GNU/Linux 6.0.6-060006-generic x86_64)\r\n```\r\n\r\n@MarcoFalke I'll see if I can get that too work.",
      "user": {
        "login": "Sjors",
        "id": 10217,
        "node_id": "MDQ6VXNlcjEwMjE3",
        "avatar_url": "https://avatars.githubusercontent.com/u/10217?v=4",
        "gravatar_id": "",
        "url": "https://api.github.com/users/Sjors",
        "html_url": "https://github.com/Sjors",
        "followers_url": "https://api.github.com/users/Sjors/followers",
        "following_url": "https://api.github.com/users/Sjors/following%7B/other_user%7D",
        "gists_url": "https://api.github.com/users/Sjors/gists%7B/gist_id%7D",
        "starred_url": "https://api.github.com/users/Sjors/starred%7B/owner%7D%7B/repo%7D",
        "subscriptions_url": "https://api.github.com/users/Sjors/subscriptions",
        "organizations_url": "https://api.github.com/users/Sjors/orgs",
        "repos_url": "https://api.github.com/users/Sjors/repos",
        "events_url": "https://api.github.com/users/Sjors/events%7B/privacy%7D",
        "received_events_url": "https://api.github.com/users/Sjors/received_events",
        "type": "User",
        "site_admin": false
      },
      "html_url": "https://github.com/bitcoin/bitcoin/issues/27283#issuecomment-1476147317",
      "issue_url": "https://api.github.com/repos/bitcoin/bitcoin/issues/27283"
    },
    {
      "event": "mentioned",
      "id": 8793976661,
      "node_id": "MEE_lADOABII585hRdHgzwAAAAIMKW9V",
      "url": "https://api.github.com/repos/bitcoin/bitcoin/issues/events/8793976661",
      "actor": {
        "login": "fanquake",
        "id": 863730,
        "node_id": "MDQ6VXNlcjg2MzczMA==",
        "avatar_url": "https://avatars.githubusercontent.com/u/863730?v=4",
        "gravatar_id": "",
        "url": "https://api.github.com/users/fanquake",
        "html_url": "https://github.com/fanquake",
        "followers_url": "https://api.github.com/users/fanquake/followers",
        "following_url": "https://api.github.com/users/fanquake/following%7B/other_user%7D",
        "gists_url": "https://api.github.com/users/fanquake/gists%7B/gist_id%7D",
        "starred_url": "https://api.github.com/users/fanquake/starred%7B/owner%7D%7B/repo%7D",
        "subscriptions_url": "https://api.github.com/users/fanquake/subscriptions",
        "organizations_url": "https://api.github.com/users/fanquake/orgs",
        "repos_url": "https://api.github.com/users/fanquake/repos",
        "events_url": "https://api.github.com/users/fanquake/events%7B/privacy%7D",
        "received_events_url": "https://api.github.com/users/fanquake/received_events",
        "type": "User",
        "site_admin": false
      },
      "commit_id": null,
      "commit_url": null,
      "created_at": "2023-03-20T12:34:51Z"
    },
    {
      "event": "subscribed",
      "id": 8793976686,
      "node_id": "SE_lADOABII585hRdHgzwAAAAIMKW9u",
      "url": "https://api.github.com/repos/bitcoin/bitcoin/issues/events/8793976686",
      "actor": {
        "login": "fanquake",
        "id": 863730,
        "node_id": "MDQ6VXNlcjg2MzczMA==",
        "avatar_url": "https://avatars.githubusercontent.com/u/863730?v=4",
        "gravatar_id": "",
        "url": "https://api.github.com/users/fanquake",
        "html_url": "https://github.com/fanquake",
        "followers_url": "https://api.github.com/users/fanquake/followers",
        "following_url": "https://api.github.com/users/fanquake/following%7B/other_user%7D",
        "gists_url": "https://api.github.com/users/fanquake/gists%7B/gist_id%7D",
        "starred_url": "https://api.github.com/users/fanquake/starred%7B/owner%7D%7B/repo%7D",
        "subscriptions_url": "https://api.github.com/users/fanquake/subscriptions",
        "organizations_url": "https://api.github.com/users/fanquake/orgs",
        "repos_url": "https://api.github.com/users/fanquake/repos",
        "events_url": "https://api.github.com/users/fanquake/events%7B/privacy%7D",
        "received_events_url": "https://api.github.com/users/fanquake/received_events",
        "type": "User",
        "site_admin": false
      },
      "commit_id": null,
      "commit_url": null,
      "created_at": "2023-03-20T12:34:51Z"
    },
    {
      "event": "mentioned",
      "id": 8793976705,
      "node_id": "MEE_lADOABII585hRdHgzwAAAAIMKW-B",
      "url": "https://api.github.com/repos/bitcoin/bitcoin/issues/events/8793976705",
      "actor": {
        "login": "MarcoFalke",
        "id": 6399679,
        "node_id": "MDQ6VXNlcjYzOTk2Nzk=",
        "avatar_url": "https://avatars.githubusercontent.com/u/6399679?v=4",
        "gravatar_id": "",
        "url": "https://api.github.com/users/MarcoFalke",
        "html_url": "https://github.com/MarcoFalke",
        "followers_url": "https://api.github.com/users/MarcoFalke/followers",
        "following_url": "https://api.github.com/users/MarcoFalke/following%7B/other_user%7D",
        "gists_url": "https://api.github.com/users/MarcoFalke/gists%7B/gist_id%7D",
        "starred_url": "https://api.github.com/users/MarcoFalke/starred%7B/owner%7D%7B/repo%7D",
        "subscriptions_url": "https://api.github.com/users/MarcoFalke/subscriptions",
        "organizations_url": "https://api.github.com/users/MarcoFalke/orgs",
        "repos_url": "https://api.github.com/users/MarcoFalke/repos",
        "events_url": "https://api.github.com/users/MarcoFalke/events%7B/privacy%7D",
        "received_events_url": "https://api.github.com/users/MarcoFalke/received_events",
        "type": "User",
        "site_admin": false
      },
      "commit_id": null,
      "commit_url": null,
      "created_at": "2023-03-20T12:34:51Z"
    },
    {
      "event": "subscribed",
      "id": 8793976728,
      "node_id": "SE_lADOABII585hRdHgzwAAAAIMKW-Y",
      "url": "https://api.github.com/repos/bitcoin/bitcoin/issues/events/8793976728",
      "actor": {
        "login": "MarcoFalke",
        "id": 6399679,
        "node_id": "MDQ6VXNlcjYzOTk2Nzk=",
        "avatar_url": "https://avatars.githubusercontent.com/u/6399679?v=4",
        "gravatar_id": "",
        "url": "https://api.github.com/users/MarcoFalke",
        "html_url": "https://github.com/MarcoFalke",
        "followers_url": "https://api.github.com/users/MarcoFalke/followers",
        "following_url": "https://api.github.com/users/MarcoFalke/following%7B/other_user%7D",
        "gists_url": "https://api.github.com/users/MarcoFalke/gists%7B/gist_id%7D",
        "starred_url": "https://api.github.com/users/MarcoFalke/starred%7B/owner%7D%7B/repo%7D",
        "subscriptions_url": "https://api.github.com/users/MarcoFalke/subscriptions",
        "organizations_url": "https://api.github.com/users/MarcoFalke/orgs",
        "repos_url": "https://api.github.com/users/MarcoFalke/repos",
        "events_url": "https://api.github.com/users/MarcoFalke/events%7B/privacy%7D",
        "received_events_url": "https://api.github.com/users/MarcoFalke/received_events",
        "type": "User",
        "site_admin": false
      },
      "commit_id": null,
      "commit_url": null,
      "created_at": "2023-03-20T12:34:51Z"
    },
    {
      "event": "commented",
      "id": 1476150784,
      "node_id": "IC_kwDOABII585X_EYA",
      "url": "https://api.github.com/repos/bitcoin/bitcoin/issues/comments/1476150784",
      "actor": {
        "login": "MarcoFalke",
        "id": 6399679,
        "node_id": "MDQ6VXNlcjYzOTk2Nzk=",
        "avatar_url": "https://avatars.githubusercontent.com/u/6399679?v=4",
        "gravatar_id": "",
        "url": "https://api.github.com/users/MarcoFalke",
        "html_url": "https://github.com/MarcoFalke",
        "followers_url": "https://api.github.com/users/MarcoFalke/followers",
        "following_url": "https://api.github.com/users/MarcoFalke/following%7B/other_user%7D",
        "gists_url": "https://api.github.com/users/MarcoFalke/gists%7B/gist_id%7D",
        "starred_url": "https://api.github.com/users/MarcoFalke/starred%7B/owner%7D%7B/repo%7D",
        "subscriptions_url": "https://api.github.com/users/MarcoFalke/subscriptions",
        "organizations_url": "https://api.github.com/users/MarcoFalke/orgs",
        "repos_url": "https://api.github.com/users/MarcoFalke/repos",
        "events_url": "https://api.github.com/users/MarcoFalke/events%7B/privacy%7D",
        "received_events_url": "https://api.github.com/users/MarcoFalke/received_events",
        "type": "User",
        "site_admin": false
      },
      "commit_id": null,
      "commit_url": null,
      "created_at": "2023-03-20T12:36:29Z",
      "updated_at": "2023-03-20T12:36:29Z",
      "author_association": "MEMBER",
      "body": "This leak may be fixed in bdb5.3, but I haven't re-checked this.",
      "user": {
        "login": "MarcoFalke",
        "id": 6399679,
        "node_id": "MDQ6VXNlcjYzOTk2Nzk=",
        "avatar_url": "https://avatars.githubusercontent.com/u/6399679?v=4",
        "gravatar_id": "",
        "url": "https://api.github.com/users/MarcoFalke",
        "html_url": "https://github.com/MarcoFalke",
        "followers_url": "https://api.github.com/users/MarcoFalke/followers",
        "following_url": "https://api.github.com/users/MarcoFalke/following%7B/other_user%7D",
        "gists_url": "https://api.github.com/users/MarcoFalke/gists%7B/gist_id%7D",
        "starred_url": "https://api.github.com/users/MarcoFalke/starred%7B/owner%7D%7B/repo%7D",
        "subscriptions_url": "https://api.github.com/users/MarcoFalke/subscriptions",
        "organizations_url": "https://api.github.com/users/MarcoFalke/orgs",
        "repos_url": "https://api.github.com/users/MarcoFalke/repos",
        "events_url": "https://api.github.com/users/MarcoFalke/events%7B/privacy%7D",
        "received_events_url": "https://api.github.com/users/MarcoFalke/received_events",
        "type": "User",
        "site_admin": false
      },
      "html_url": "https://github.com/bitcoin/bitcoin/issues/27283#issuecomment-1476150784",
      "issue_url": "https://api.github.com/repos/bitcoin/bitcoin/issues/27283"
    },
    {
      "event": "commented",
      "id": 1476189108,
      "node_id": "IC_kwDOABII585X_Nu0",
      "url": "https://api.github.com/repos/bitcoin/bitcoin/issues/comments/1476189108",
      "actor": {
        "login": "Sjors",
        "id": 10217,
        "node_id": "MDQ6VXNlcjEwMjE3",
        "avatar_url": "https://avatars.githubusercontent.com/u/10217?v=4",
        "gravatar_id": "",
        "url": "https://api.github.com/users/Sjors",
        "html_url": "https://github.com/Sjors",
        "followers_url": "https://api.github.com/users/Sjors/followers",
        "following_url": "https://api.github.com/users/Sjors/following%7B/other_user%7D",
        "gists_url": "https://api.github.com/users/Sjors/gists%7B/gist_id%7D",
        "starred_url": "https://api.github.com/users/Sjors/starred%7B/owner%7D%7B/repo%7D",
        "subscriptions_url": "https://api.github.com/users/Sjors/subscriptions",
        "organizations_url": "https://api.github.com/users/Sjors/orgs",
        "repos_url": "https://api.github.com/users/Sjors/repos",
        "events_url": "https://api.github.com/users/Sjors/events%7B/privacy%7D",
        "received_events_url": "https://api.github.com/users/Sjors/received_events",
        "type": "User",
        "site_admin": false
      },
      "commit_id": null,
      "commit_url": null,
      "created_at": "2023-03-20T12:58:58Z",
      "updated_at": "2023-03-20T12:58:58Z",
      "author_association": "MEMBER",
      "body": "Narrowed it down to `BOOST_FIXTURE_TEST_CASE(CreateWallet, TestChain100Setup)`.",
      "user": {
        "login": "Sjors",
        "id": 10217,
        "node_id": "MDQ6VXNlcjEwMjE3",
        "avatar_url": "https://avatars.githubusercontent.com/u/10217?v=4",
        "gravatar_id": "",
        "url": "https://api.github.com/users/Sjors",
        "html_url": "https://github.com/Sjors",
        "followers_url": "https://api.github.com/users/Sjors/followers",
        "following_url": "https://api.github.com/users/Sjors/following%7B/other_user%7D",
        "gists_url": "https://api.github.com/users/Sjors/gists%7B/gist_id%7D",
        "starred_url": "https://api.github.com/users/Sjors/starred%7B/owner%7D%7B/repo%7D",
        "subscriptions_url": "https://api.github.com/users/Sjors/subscriptions",
        "organizations_url": "https://api.github.com/users/Sjors/orgs",
        "repos_url": "https://api.github.com/users/Sjors/repos",
        "events_url": "https://api.github.com/users/Sjors/events%7B/privacy%7D",
        "received_events_url": "https://api.github.com/users/Sjors/received_events",
        "type": "User",
        "site_admin": false
      },
      "html_url": "https://github.com/bitcoin/bitcoin/issues/27283#issuecomment-1476189108",
      "issue_url": "https://api.github.com/repos/bitcoin/bitcoin/issues/27283"
    },
    {
      "event": "commented",
      "id": 1476197268,
      "node_id": "IC_kwDOABII585X_PuU",
      "url": "https://api.github.com/repos/bitcoin/bitcoin/issues/comments/1476197268",
      "actor": {
        "login": "fanquake",
        "id": 863730,
        "node_id": "MDQ6VXNlcjg2MzczMA==",
        "avatar_url": "https://avatars.githubusercontent.com/u/863730?v=4",
        "gravatar_id": "",
        "url": "https://api.github.com/users/fanquake",
        "html_url": "https://github.com/fanquake",
        "followers_url": "https://api.github.com/users/fanquake/followers",
        "following_url": "https://api.github.com/users/fanquake/following%7B/other_user%7D",
        "gists_url": "https://api.github.com/users/fanquake/gists%7B/gist_id%7D",
        "starred_url": "https://api.github.com/users/fanquake/starred%7B/owner%7D%7B/repo%7D",
        "subscriptions_url": "https://api.github.com/users/fanquake/subscriptions",
        "organizations_url": "https://api.github.com/users/fanquake/orgs",
        "repos_url": "https://api.github.com/users/fanquake/repos",
        "events_url": "https://api.github.com/users/fanquake/events%7B/privacy%7D",
        "received_events_url": "https://api.github.com/users/fanquake/received_events",
        "type": "User",
        "site_admin": false
      },
      "commit_id": null,
      "commit_url": null,
      "created_at": "2023-03-20T13:03:52Z",
      "updated_at": "2023-03-20T13:03:52Z",
      "author_association": "MEMBER",
      "body": "> I was going to add more details if anyone couldn't reproduce it, but here we go\n\nIn future, save us all wasting our time, and provide the (trivial to do so) details initially.",
      "user": {
        "login": "fanquake",
        "id": 863730,
        "node_id": "MDQ6VXNlcjg2MzczMA==",
        "avatar_url": "https://avatars.githubusercontent.com/u/863730?v=4",
        "gravatar_id": "",
        "url": "https://api.github.com/users/fanquake",
        "html_url": "https://github.com/fanquake",
        "followers_url": "https://api.github.com/users/fanquake/followers",
        "following_url": "https://api.github.com/users/fanquake/following%7B/other_user%7D",
        "gists_url": "https://api.github.com/users/fanquake/gists%7B/gist_id%7D",
        "starred_url": "https://api.github.com/users/fanquake/starred%7B/owner%7D%7B/repo%7D",
        "subscriptions_url": "https://api.github.com/users/fanquake/subscriptions",
        "organizations_url": "https://api.github.com/users/fanquake/orgs",
        "repos_url": "https://api.github.com/users/fanquake/repos",
        "events_url": "https://api.github.com/users/fanquake/events%7B/privacy%7D",
        "received_events_url": "https://api.github.com/users/fanquake/received_events",
        "type": "User",
        "site_admin": false
      },
      "html_url": "https://github.com/bitcoin/bitcoin/issues/27283#issuecomment-1476197268",
      "issue_url": "https://api.github.com/repos/bitcoin/bitcoin/issues/27283"
    },
    {
      "event": "commented",
      "id": 1476207042,
      "node_id": "IC_kwDOABII585X_SHC",
      "url": "https://api.github.com/repos/bitcoin/bitcoin/issues/comments/1476207042",
      "actor": {
        "login": "Sjors",
        "id": 10217,
        "node_id": "MDQ6VXNlcjEwMjE3",
        "avatar_url": "https://avatars.githubusercontent.com/u/10217?v=4",
        "gravatar_id": "",
        "url": "https://api.github.com/users/Sjors",
        "html_url": "https://github.com/Sjors",
        "followers_url": "https://api.github.com/users/Sjors/followers",
        "following_url": "https://api.github.com/users/Sjors/following%7B/other_user%7D",
        "gists_url": "https://api.github.com/users/Sjors/gists%7B/gist_id%7D",
        "starred_url": "https://api.github.com/users/Sjors/starred%7B/owner%7D%7B/repo%7D",
        "subscriptions_url": "https://api.github.com/users/Sjors/subscriptions",
        "organizations_url": "https://api.github.com/users/Sjors/orgs",
        "repos_url": "https://api.github.com/users/Sjors/repos",
        "events_url": "https://api.github.com/users/Sjors/events%7B/privacy%7D",
        "received_events_url": "https://api.github.com/users/Sjors/received_events",
        "type": "User",
        "site_admin": false
      },
      "commit_id": null,
      "commit_url": null,
      "created_at": "2023-03-20T13:09:39Z",
      "updated_at": "2023-03-20T13:20:09Z",
      "author_association": "MEMBER",
      "body": "That test can be further narrowed down:\r\n\r\n```cpp\r\nBOOST_FIXTURE_TEST_CASE(CreateWallet, TestChain100Setup)\r\n{\r\n    WalletContext context;\r\n    context.args = &m_args;\r\n    context.chain = m_node.chain.get();\r\n    auto wallet = TestLoadWallet(context);\r\n    // TestUnloadWallet(std::move(wallet));\r\n    // wallet = TestLoadWallet(context);\r\n    TestUnloadWallet(std::move(wallet));\r\n}\r\n```\r\n\r\nUncommenting the extra unload & load will trigger the sanitizer.\r\n\r\n\r\nThis also implies it's different from #19034 because that specifically refers to \"This happens when trying to load a wallet with corrupt logs.\". I might do a bisect...",
      "user": {
        "login": "Sjors",
        "id": 10217,
        "node_id": "MDQ6VXNlcjEwMjE3",
        "avatar_url": "https://avatars.githubusercontent.com/u/10217?v=4",
        "gravatar_id": "",
        "url": "https://api.github.com/users/Sjors",
        "html_url": "https://github.com/Sjors",
        "followers_url": "https://api.github.com/users/Sjors/followers",
        "following_url": "https://api.github.com/users/Sjors/following%7B/other_user%7D",
        "gists_url": "https://api.github.com/users/Sjors/gists%7B/gist_id%7D",
        "starred_url": "https://api.github.com/users/Sjors/starred%7B/owner%7D%7B/repo%7D",
        "subscriptions_url": "https://api.github.com/users/Sjors/subscriptions",
        "organizations_url": "https://api.github.com/users/Sjors/orgs",
        "repos_url": "https://api.github.com/users/Sjors/repos",
        "events_url": "https://api.github.com/users/Sjors/events%7B/privacy%7D",
        "received_events_url": "https://api.github.com/users/Sjors/received_events",
        "type": "User",
        "site_admin": false
      },
      "html_url": "https://github.com/bitcoin/bitcoin/issues/27283#issuecomment-1476207042",
      "issue_url": "https://api.github.com/repos/bitcoin/bitcoin/issues/27283"
    },
    {
      "event": "commented",
      "id": 1476364655,
      "node_id": "IC_kwDOABII585X_4lv",
      "url": "https://api.github.com/repos/bitcoin/bitcoin/issues/comments/1476364655",
      "actor": {
        "login": "Sjors",
        "id": 10217,
        "node_id": "MDQ6VXNlcjEwMjE3",
        "avatar_url": "https://avatars.githubusercontent.com/u/10217?v=4",
        "gravatar_id": "",
        "url": "https://api.github.com/users/Sjors",
        "html_url": "https://github.com/Sjors",
        "followers_url": "https://api.github.com/users/Sjors/followers",
        "following_url": "https://api.github.com/users/Sjors/following%7B/other_user%7D",
        "gists_url": "https://api.github.com/users/Sjors/gists%7B/gist_id%7D",
        "starred_url": "https://api.github.com/users/Sjors/starred%7B/owner%7D%7B/repo%7D",
        "subscriptions_url": "https://api.github.com/users/Sjors/subscriptions",
        "organizations_url": "https://api.github.com/users/Sjors/orgs",
        "repos_url": "https://api.github.com/users/Sjors/repos",
        "events_url": "https://api.github.com/users/Sjors/events%7B/privacy%7D",
        "received_events_url": "https://api.github.com/users/Sjors/received_events",
        "type": "User",
        "site_admin": false
      },
      "commit_id": null,
      "commit_url": null,
      "created_at": "2023-03-20T14:44:38Z",
      "updated_at": "2023-03-20T14:44:38Z",
      "author_association": "MEMBER",
      "body": "I went back to the #18727 merge commit 0f204dd3f21b997334a0e99954c939db154b64ca where this test was introduced. In order to test that old commit, I used `contrib/install_db4.sh` as it existed at the time, but otherwise didn't use depends (can't get that old version of boost to build). I then recreated a narrowed down test:\r\n\r\n```cpp\r\n    auto chain = interfaces::MakeChain(m_node);\r\n    auto wallet = TestLoadWallet(*chain);\r\n    TestUnloadWallet(std::move(wallet));\r\n    wallet = TestLoadWallet(*chain);\r\n    TestUnloadWallet(std::move(wallet));\r\n```\r\n\r\nThis did not produce a memory leak (the full test file does).\r\n\r\nSo I guess we have a `good` and `bad` for `bisect` now, but with all the build system changes it's a bit non-trivial. It may be more efficient to just figure out what causes the memory leak.",
      "user": {
        "login": "Sjors",
        "id": 10217,
        "node_id": "MDQ6VXNlcjEwMjE3",
        "avatar_url": "https://avatars.githubusercontent.com/u/10217?v=4",
        "gravatar_id": "",
        "url": "https://api.github.com/users/Sjors",
        "html_url": "https://github.com/Sjors",
        "followers_url": "https://api.github.com/users/Sjors/followers",
        "following_url": "https://api.github.com/users/Sjors/following%7B/other_user%7D",
        "gists_url": "https://api.github.com/users/Sjors/gists%7B/gist_id%7D",
        "starred_url": "https://api.github.com/users/Sjors/starred%7B/owner%7D%7B/repo%7D",
        "subscriptions_url": "https://api.github.com/users/Sjors/subscriptions",
        "organizations_url": "https://api.github.com/users/Sjors/orgs",
        "repos_url": "https://api.github.com/users/Sjors/repos",
        "events_url": "https://api.github.com/users/Sjors/events%7B/privacy%7D",
        "received_events_url": "https://api.github.com/users/Sjors/received_events",
        "type": "User",
        "site_admin": false
      },
      "html_url": "https://github.com/bitcoin/bitcoin/issues/27283#issuecomment-1476364655",
      "issue_url": "https://api.github.com/repos/bitcoin/bitcoin/issues/27283"
    },
    {
      "event": "labeled",
      "id": 8795993542,
      "node_id": "LE_lADOABII585hRdHgzwAAAAIMSDXG",
      "url": "https://api.github.com/repos/bitcoin/bitcoin/issues/events/8795993542",
      "actor": {
        "login": "MarcoFalke",
        "id": 6399679,
        "node_id": "MDQ6VXNlcjYzOTk2Nzk=",
        "avatar_url": "https://avatars.githubusercontent.com/u/6399679?v=4",
        "gravatar_id": "",
        "url": "https://api.github.com/users/MarcoFalke",
        "html_url": "https://github.com/MarcoFalke",
        "followers_url": "https://api.github.com/users/MarcoFalke/followers",
        "following_url": "https://api.github.com/users/MarcoFalke/following%7B/other_user%7D",
        "gists_url": "https://api.github.com/users/MarcoFalke/gists%7B/gist_id%7D",
        "starred_url": "https://api.github.com/users/MarcoFalke/starred%7B/owner%7D%7B/repo%7D",
        "subscriptions_url": "https://api.github.com/users/MarcoFalke/subscriptions",
        "organizations_url": "https://api.github.com/users/MarcoFalke/orgs",
        "repos_url": "https://api.github.com/users/MarcoFalke/repos",
        "events_url": "https://api.github.com/users/MarcoFalke/events%7B/privacy%7D",
        "received_events_url": "https://api.github.com/users/MarcoFalke/received_events",
        "type": "User",
        "site_admin": false
      },
      "commit_id": null,
      "commit_url": null,
      "created_at": "2023-03-20T15:21:30Z",
      "label": {
        "name": "Wallet",
        "color": "08a781"
      }
    },
    {
      "event": "commented",
      "id": 1476501591,
      "node_id": "IC_kwDOABII585YAaBX",
      "url": "https://api.github.com/repos/bitcoin/bitcoin/issues/comments/1476501591",
      "actor": {
        "login": "Sjors",
        "id": 10217,
        "node_id": "MDQ6VXNlcjEwMjE3",
        "avatar_url": "https://avatars.githubusercontent.com/u/10217?v=4",
        "gravatar_id": "",
        "url": "https://api.github.com/users/Sjors",
        "html_url": "https://github.com/Sjors",
        "followers_url": "https://api.github.com/users/Sjors/followers",
        "following_url": "https://api.github.com/users/Sjors/following%7B/other_user%7D",
        "gists_url": "https://api.github.com/users/Sjors/gists%7B/gist_id%7D",
        "starred_url": "https://api.github.com/users/Sjors/starred%7B/owner%7D%7B/repo%7D",
        "subscriptions_url": "https://api.github.com/users/Sjors/subscriptions",
        "organizations_url": "https://api.github.com/users/Sjors/orgs",
        "repos_url": "https://api.github.com/users/Sjors/repos",
        "events_url": "https://api.github.com/users/Sjors/events%7B/privacy%7D",
        "received_events_url": "https://api.github.com/users/Sjors/received_events",
        "type": "User",
        "site_admin": false
      },
      "commit_id": null,
      "commit_url": null,
      "created_at": "2023-03-20T15:58:18Z",
      "updated_at": "2023-03-20T15:58:18Z",
      "author_association": "MEMBER",
      "body": "Git bisect points to 8b5e7297c02f3100a9cb27bfe206e3fc617ec173 as the culprit (#19619). I verified that this commit triggers the error whereas its parent 3c815cfe54087fd139169161d2fd175e99840e6a doesn't.\r\n\r\nIt makes sense that this went unnoticed because `wallet_tests` was already suffering from a different memory leak at the time. cc @ryanofsky",
      "user": {
        "login": "Sjors",
        "id": 10217,
        "node_id": "MDQ6VXNlcjEwMjE3",
        "avatar_url": "https://avatars.githubusercontent.com/u/10217?v=4",
        "gravatar_id": "",
        "url": "https://api.github.com/users/Sjors",
        "html_url": "https://github.com/Sjors",
        "followers_url": "https://api.github.com/users/Sjors/followers",
        "following_url": "https://api.github.com/users/Sjors/following%7B/other_user%7D",
        "gists_url": "https://api.github.com/users/Sjors/gists%7B/gist_id%7D",
        "starred_url": "https://api.github.com/users/Sjors/starred%7B/owner%7D%7B/repo%7D",
        "subscriptions_url": "https://api.github.com/users/Sjors/subscriptions",
        "organizations_url": "https://api.github.com/users/Sjors/orgs",
        "repos_url": "https://api.github.com/users/Sjors/repos",
        "events_url": "https://api.github.com/users/Sjors/events%7B/privacy%7D",
        "received_events_url": "https://api.github.com/users/Sjors/received_events",
        "type": "User",
        "site_admin": false
      },
      "html_url": "https://github.com/bitcoin/bitcoin/issues/27283#issuecomment-1476501591",
      "issue_url": "https://api.github.com/repos/bitcoin/bitcoin/issues/27283"
    },
    {
      "event": "mentioned",
      "id": 8796433294,
      "node_id": "MEE_lADOABII585hRdHgzwAAAAIMTuuO",
      "url": "https://api.github.com/repos/bitcoin/bitcoin/issues/events/8796433294",
      "actor": {
        "login": "ryanofsky",
        "id": 7133040,
        "node_id": "MDQ6VXNlcjcxMzMwNDA=",
        "avatar_url": "https://avatars.githubusercontent.com/u/7133040?v=4",
        "gravatar_id": "",
        "url": "https://api.github.com/users/ryanofsky",
        "html_url": "https://github.com/ryanofsky",
        "followers_url": "https://api.github.com/users/ryanofsky/followers",
        "following_url": "https://api.github.com/users/ryanofsky/following%7B/other_user%7D",
        "gists_url": "https://api.github.com/users/ryanofsky/gists%7B/gist_id%7D",
        "starred_url": "https://api.github.com/users/ryanofsky/starred%7B/owner%7D%7B/repo%7D",
        "subscriptions_url": "https://api.github.com/users/ryanofsky/subscriptions",
        "organizations_url": "https://api.github.com/users/ryanofsky/orgs",
        "repos_url": "https://api.github.com/users/ryanofsky/repos",
        "events_url": "https://api.github.com/users/ryanofsky/events%7B/privacy%7D",
        "received_events_url": "https://api.github.com/users/ryanofsky/received_events",
        "type": "User",
        "site_admin": false
      },
      "commit_id": null,
      "commit_url": null,
      "created_at": "2023-03-20T15:58:18Z"
    },
    {
      "event": "subscribed",
      "id": 8796433322,
      "node_id": "SE_lADOABII585hRdHgzwAAAAIMTuuq",
      "url": "https://api.github.com/repos/bitcoin/bitcoin/issues/events/8796433322",
      "actor": {
        "login": "ryanofsky",
        "id": 7133040,
        "node_id": "MDQ6VXNlcjcxMzMwNDA=",
        "avatar_url": "https://avatars.githubusercontent.com/u/7133040?v=4",
        "gravatar_id": "",
        "url": "https://api.github.com/users/ryanofsky",
        "html_url": "https://github.com/ryanofsky",
        "followers_url": "https://api.github.com/users/ryanofsky/followers",
        "following_url": "https://api.github.com/users/ryanofsky/following%7B/other_user%7D",
        "gists_url": "https://api.github.com/users/ryanofsky/gists%7B/gist_id%7D",
        "starred_url": "https://api.github.com/users/ryanofsky/starred%7B/owner%7D%7B/repo%7D",
        "subscriptions_url": "https://api.github.com/users/ryanofsky/subscriptions",
        "organizations_url": "https://api.github.com/users/ryanofsky/orgs",
        "repos_url": "https://api.github.com/users/ryanofsky/repos",
        "events_url": "https://api.github.com/users/ryanofsky/events%7B/privacy%7D",
        "received_events_url": "https://api.github.com/users/ryanofsky/received_events",
        "type": "User",
        "site_admin": false
      },
      "commit_id": null,
      "commit_url": null,
      "created_at": "2023-03-20T15:58:18Z"
    },
    {
      "event": "commented",
      "id": 1476753978,
      "node_id": "IC_kwDOABII585YBXo6",
      "url": "https://api.github.com/repos/bitcoin/bitcoin/issues/comments/1476753978",
      "actor": {
        "login": "Sjors",
        "id": 10217,
        "node_id": "MDQ6VXNlcjEwMjE3",
        "avatar_url": "https://avatars.githubusercontent.com/u/10217?v=4",
        "gravatar_id": "",
        "url": "https://api.github.com/users/Sjors",
        "html_url": "https://github.com/Sjors",
        "followers_url": "https://api.github.com/users/Sjors/followers",
        "following_url": "https://api.github.com/users/Sjors/following%7B/other_user%7D",
        "gists_url": "https://api.github.com/users/Sjors/gists%7B/gist_id%7D",
        "starred_url": "https://api.github.com/users/Sjors/starred%7B/owner%7D%7B/repo%7D",
        "subscriptions_url": "https://api.github.com/users/Sjors/subscriptions",
        "organizations_url": "https://api.github.com/users/Sjors/orgs",
        "repos_url": "https://api.github.com/users/Sjors/repos",
        "events_url": "https://api.github.com/users/Sjors/events%7B/privacy%7D",
        "received_events_url": "https://api.github.com/users/Sjors/received_events",
        "type": "User",
        "site_admin": false
      },
      "commit_id": null,
      "commit_url": null,
      "created_at": "2023-03-20T18:43:23Z",
      "updated_at": "2023-03-20T18:54:02Z",
      "author_association": "MEMBER",
      "body": "It's not limited to the test. Running that commit in regtest, creating a wallet and then exiting triggers it too. That should make debugging easier… And after that it's just a matter of starting and stopping bitcoind.\r\n\r\nOr just do it on master @ f4e42a78c75719ad6a99962360ec67d92a563a9d. But there it only happens if you load a legacy wallet. Not when you create one.",
      "user": {
        "login": "Sjors",
        "id": 10217,
        "node_id": "MDQ6VXNlcjEwMjE3",
        "avatar_url": "https://avatars.githubusercontent.com/u/10217?v=4",
        "gravatar_id": "",
        "url": "https://api.github.com/users/Sjors",
        "html_url": "https://github.com/Sjors",
        "followers_url": "https://api.github.com/users/Sjors/followers",
        "following_url": "https://api.github.com/users/Sjors/following%7B/other_user%7D",
        "gists_url": "https://api.github.com/users/Sjors/gists%7B/gist_id%7D",
        "starred_url": "https://api.github.com/users/Sjors/starred%7B/owner%7D%7B/repo%7D",
        "subscriptions_url": "https://api.github.com/users/Sjors/subscriptions",
        "organizations_url": "https://api.github.com/users/Sjors/orgs",
        "repos_url": "https://api.github.com/users/Sjors/repos",
        "events_url": "https://api.github.com/users/Sjors/events%7B/privacy%7D",
        "received_events_url": "https://api.github.com/users/Sjors/received_events",
        "type": "User",
        "site_admin": false
      },
      "html_url": "https://github.com/bitcoin/bitcoin/issues/27283#issuecomment-1476753978",
      "issue_url": "https://api.github.com/repos/bitcoin/bitcoin/issues/27283"
    },
    {
      "event": "commented",
      "id": 1476822455,
      "node_id": "IC_kwDOABII585YBoW3",
      "url": "https://api.github.com/repos/bitcoin/bitcoin/issues/comments/1476822455",
      "actor": {
        "login": "Sjors",
        "id": 10217,
        "node_id": "MDQ6VXNlcjEwMjE3",
        "avatar_url": "https://avatars.githubusercontent.com/u/10217?v=4",
        "gravatar_id": "",
        "url": "https://api.github.com/users/Sjors",
        "html_url": "https://github.com/Sjors",
        "followers_url": "https://api.github.com/users/Sjors/followers",
        "following_url": "https://api.github.com/users/Sjors/following%7B/other_user%7D",
        "gists_url": "https://api.github.com/users/Sjors/gists%7B/gist_id%7D",
        "starred_url": "https://api.github.com/users/Sjors/starred%7B/owner%7D%7B/repo%7D",
        "subscriptions_url": "https://api.github.com/users/Sjors/subscriptions",
        "organizations_url": "https://api.github.com/users/Sjors/orgs",
        "repos_url": "https://api.github.com/users/Sjors/repos",
        "events_url": "https://api.github.com/users/Sjors/events%7B/privacy%7D",
        "received_events_url": "https://api.github.com/users/Sjors/received_events",
        "type": "User",
        "site_admin": false
      },
      "commit_id": null,
      "commit_url": null,
      "created_at": "2023-03-20T19:32:58Z",
      "updated_at": "2023-03-20T19:35:12Z",
      "author_association": "MEMBER",
      "body": "Building bdb with DEBUG=1 did not make the `LeakSanitizer` output more usable.\r\n\r\nI also tried compiling with gcc (12.2.0) and then running under valgrind (3.18.1). This yielded much more useful info:\r\n\r\n```sh\r\n./configure BDB_LIBS=… --enable-suppress-external-warnings --enable-debug --disable-asm  --disable-fuzz-binary --disable-bench --without-gui --disable-test\r\n… \r\nvalgrind —leak-check=full src/bitcoind -regtest -nowallet -wallet=test_legacy\r\n```\r\n\r\n```\r\n023-03-20T19:32:09Z [test_legacy] Releasing wallet\r\n2023-03-20T19:32:09Z Shutdown: done\r\n==1744646== \r\n==1744646== HEAP SUMMARY:\r\n==1744646==     in use at exit: 2,377 bytes in 12 blocks\r\n==1744646==   total heap usage: 296,219 allocs, 296,207 frees, 103,153,206 bytes allocated\r\n==1744646== \r\n==1744646== 160 bytes in 1 blocks are definitely lost in loss record 6 of 12\r\n==1744646==    at 0x4844899: malloc (in /usr/libexec/valgrind/vgpreload_memcheck-amd64-linux.so)\r\n==1744646==    by 0xE702AD: __os_malloc (in /home/sjors/dev/bitcoin2/src/bitcoind)\r\n==1744646==    by 0xE455CC: __env_alloc (in /home/sjors/dev/bitcoin2/src/bitcoind)\r\n==1744646==    by 0xEE3CC1: __lock_open (in /home/sjors/dev/bitcoin2/src/bitcoind)\r\n==1744646==    by 0xE497EB: __env_attach_regions (in /home/sjors/dev/bitcoin2/src/bitcoind)\r\n==1744646==    by 0xE49A8E: __env_open (in /home/sjors/dev/bitcoin2/src/bitcoind)\r\n==1744646==    by 0xE49C01: __env_open_pp (in /home/sjors/dev/bitcoin2/src/bitcoind)\r\n==1744646==    by 0xE16E7D: DbEnv::open(char const*, unsigned int, int) (in /home/sjors/dev/bitcoin2/src/bitcoind)\r\n==1744646==    by 0x9EDDE8: wallet::BerkeleyEnvironment::Open(bilingual_str&) (bdb.cpp:164)\r\n==1744646==    by 0x9EEF34: wallet::BerkeleyDatabase::Verify(bilingual_str&) (bdb.cpp:271)\r\n==1744646==    by 0x9F41C8: wallet::MakeBerkeleyDatabase(fs::path const&, wallet::DatabaseOptions const&, wallet::DatabaseStatus&, bilingual_str&) (bdb.cpp:849)\r\n==1744646==    by 0x9A074A: wallet::MakeDatabase(fs::path const&, wallet::DatabaseOptions const&, wallet::DatabaseStatus&, bilingual_str&) (walletdb.cpp:1228)\r\n==1744646== \r\n==1744646== LEAK SUMMARY:\r\n==1744646==    definitely lost: 160 bytes in 1 blocks\r\n==1744646==    indirectly lost: 0 bytes in 0 blocks\r\n==1744646==      possibly lost: 0 bytes in 0 blocks\r\n==1744646==    still reachable: 2,217 bytes in 11 blocks\r\n==1744646==         suppressed: 0 bytes in 0 blocks\r\n==1744646== Reachable blocks (those to which a pointer was found) are not shown.\r\n==1744646== To see them, rerun with: --leak-check=full --show-leak-kinds=all\r\n==1744646== \r\n==1744646== For lists of detected and suppressed errors, rerun with: -s\r\n==1744646== ERROR SUMMARY: 1 errors from 1 contexts (suppressed: 0 from 0)\r\n```",
      "user": {
        "login": "Sjors",
        "id": 10217,
        "node_id": "MDQ6VXNlcjEwMjE3",
        "avatar_url": "https://avatars.githubusercontent.com/u/10217?v=4",
        "gravatar_id": "",
        "url": "https://api.github.com/users/Sjors",
        "html_url": "https://github.com/Sjors",
        "followers_url": "https://api.github.com/users/Sjors/followers",
        "following_url": "https://api.github.com/users/Sjors/following%7B/other_user%7D",
        "gists_url": "https://api.github.com/users/Sjors/gists%7B/gist_id%7D",
        "starred_url": "https://api.github.com/users/Sjors/starred%7B/owner%7D%7B/repo%7D",
        "subscriptions_url": "https://api.github.com/users/Sjors/subscriptions",
        "organizations_url": "https://api.github.com/users/Sjors/orgs",
        "repos_url": "https://api.github.com/users/Sjors/repos",
        "events_url": "https://api.github.com/users/Sjors/events%7B/privacy%7D",
        "received_events_url": "https://api.github.com/users/Sjors/received_events",
        "type": "User",
        "site_admin": false
      },
      "html_url": "https://github.com/bitcoin/bitcoin/issues/27283#issuecomment-1476822455",
      "issue_url": "https://api.github.com/repos/bitcoin/bitcoin/issues/27283"
    },
    {
      "event": "commented",
      "id": 1476836735,
      "node_id": "IC_kwDOABII585YBr1_",
      "url": "https://api.github.com/repos/bitcoin/bitcoin/issues/comments/1476836735",
      "actor": {
        "login": "Sjors",
        "id": 10217,
        "node_id": "MDQ6VXNlcjEwMjE3",
        "avatar_url": "https://avatars.githubusercontent.com/u/10217?v=4",
        "gravatar_id": "",
        "url": "https://api.github.com/users/Sjors",
        "html_url": "https://github.com/Sjors",
        "followers_url": "https://api.github.com/users/Sjors/followers",
        "following_url": "https://api.github.com/users/Sjors/following%7B/other_user%7D",
        "gists_url": "https://api.github.com/users/Sjors/gists%7B/gist_id%7D",
        "starred_url": "https://api.github.com/users/Sjors/starred%7B/owner%7D%7B/repo%7D",
        "subscriptions_url": "https://api.github.com/users/Sjors/subscriptions",
        "organizations_url": "https://api.github.com/users/Sjors/orgs",
        "repos_url": "https://api.github.com/users/Sjors/repos",
        "events_url": "https://api.github.com/users/Sjors/events%7B/privacy%7D",
        "received_events_url": "https://api.github.com/users/Sjors/received_events",
        "type": "User",
        "site_admin": false
      },
      "commit_id": null,
      "commit_url": null,
      "created_at": "2023-03-20T19:46:36Z",
      "updated_at": "2023-03-20T20:03:19Z",
      "author_association": "MEMBER",
      "body": "> This leak may be fixed in bdb5.3, but I haven't re-checked this.\r\n\r\nI tried with `apt install libdb++-dev` version 5.3.28 and `./configure --with-incompatible-bdb …`\r\n\r\nThis shows \"Using BerkeleyDB version Berkeley DB 5.3.28: (September  9, 2013)\" in the log.\r\n\r\nThere's no leak. Not with valgrind (gcc) and not with the address sanitizer (clang).\r\n\r\nI clarified the top description (but also kept the original text).",
      "user": {
        "login": "Sjors",
        "id": 10217,
        "node_id": "MDQ6VXNlcjEwMjE3",
        "avatar_url": "https://avatars.githubusercontent.com/u/10217?v=4",
        "gravatar_id": "",
        "url": "https://api.github.com/users/Sjors",
        "html_url": "https://github.com/Sjors",
        "followers_url": "https://api.github.com/users/Sjors/followers",
        "following_url": "https://api.github.com/users/Sjors/following%7B/other_user%7D",
        "gists_url": "https://api.github.com/users/Sjors/gists%7B/gist_id%7D",
        "starred_url": "https://api.github.com/users/Sjors/starred%7B/owner%7D%7B/repo%7D",
        "subscriptions_url": "https://api.github.com/users/Sjors/subscriptions",
        "organizations_url": "https://api.github.com/users/Sjors/orgs",
        "repos_url": "https://api.github.com/users/Sjors/repos",
        "events_url": "https://api.github.com/users/Sjors/events%7B/privacy%7D",
        "received_events_url": "https://api.github.com/users/Sjors/received_events",
        "type": "User",
        "site_admin": false
      },
      "html_url": "https://github.com/bitcoin/bitcoin/issues/27283#issuecomment-1476836735",
      "issue_url": "https://api.github.com/repos/bitcoin/bitcoin/issues/27283"
    },
    {
      "event": "renamed",
      "id": 8798660726,
      "node_id": "RTE_lADOABII585hRdHgzwAAAAIMcOh2",
      "url": "https://api.github.com/repos/bitcoin/bitcoin/issues/events/8798660726",
      "actor": {
        "login": "Sjors",
        "id": 10217,
        "node_id": "MDQ6VXNlcjEwMjE3",
        "avatar_url": "https://avatars.githubusercontent.com/u/10217?v=4",
        "gravatar_id": "",
        "url": "https://api.github.com/users/Sjors",
        "html_url": "https://github.com/Sjors",
        "followers_url": "https://api.github.com/users/Sjors/followers",
        "following_url": "https://api.github.com/users/Sjors/following%7B/other_user%7D",
        "gists_url": "https://api.github.com/users/Sjors/gists%7B/gist_id%7D",
        "starred_url": "https://api.github.com/users/Sjors/starred%7B/owner%7D%7B/repo%7D",
        "subscriptions_url": "https://api.github.com/users/Sjors/subscriptions",
        "organizations_url": "https://api.github.com/users/Sjors/orgs",
        "repos_url": "https://api.github.com/users/Sjors/repos",
        "events_url": "https://api.github.com/users/Sjors/events%7B/privacy%7D",
        "received_events_url": "https://api.github.com/users/Sjors/received_events",
        "type": "User",
        "site_admin": false
      },
      "commit_id": null,
      "commit_url": null,
      "created_at": "2023-03-20T19:55:32Z",
      "rename": {
        "from": "Memory leak in wallet_tests with BDB using address sanitizer",
        "to": "Memory leak loading legacy wallet (BDB 4.8.30)"
      }
    },
    {
      "event": "commented",
      "id": 1477004863,
      "node_id": "IC_kwDOABII585YCU4_",
      "url": "https://api.github.com/repos/bitcoin/bitcoin/issues/comments/1477004863",
      "actor": {
        "login": "ryanofsky",
        "id": 7133040,
        "node_id": "MDQ6VXNlcjcxMzMwNDA=",
        "avatar_url": "https://avatars.githubusercontent.com/u/7133040?v=4",
        "gravatar_id": "",
        "url": "https://api.github.com/users/ryanofsky",
        "html_url": "https://github.com/ryanofsky",
        "followers_url": "https://api.github.com/users/ryanofsky/followers",
        "following_url": "https://api.github.com/users/ryanofsky/following%7B/other_user%7D",
        "gists_url": "https://api.github.com/users/ryanofsky/gists%7B/gist_id%7D",
        "starred_url": "https://api.github.com/users/ryanofsky/starred%7B/owner%7D%7B/repo%7D",
        "subscriptions_url": "https://api.github.com/users/ryanofsky/subscriptions",
        "organizations_url": "https://api.github.com/users/ryanofsky/orgs",
        "repos_url": "https://api.github.com/users/ryanofsky/repos",
        "events_url": "https://api.github.com/users/ryanofsky/events%7B/privacy%7D",
        "received_events_url": "https://api.github.com/users/ryanofsky/received_events",
        "type": "User",
        "site_admin": false
      },
      "commit_id": null,
      "commit_url": null,
      "created_at": "2023-03-20T22:10:20Z",
      "updated_at": "2023-03-20T22:10:20Z",
      "author_association": "CONTRIBUTOR",
      "body": "This is puzzling because https://github.com/bitcoin/bitcoin/issues/27283#issuecomment-1476822455 seems to suggest that memory is leaked while creating the BDB environment, but the commit which triggers the leak 8b5e7297c02f3100a9cb27bfe206e3fc617ec173 does not seem to be changing the way the environment is created or how it is used. The commit does switch from using a function called `CreateWalletDatabase` to another one called `MakeWalletDatabase`, but in both cases the functions are calling the same `GetWalletEnv` function to get a shared_ptr to the BerkeleyEnvironment, and passing that pointer to the BerkeleyDatabase constructor.\r\n\r\nI guess the fact that the leak happens in one version of BDB but another suggests it is a BDB bug, but it's not clear what could be changing in commit 8b5e7297c02f3100a9cb27bfe206e3fc617ec173 which triggers the bug.\r\n\r\nI haven't tried to reproduce this myself, though, so just going off of the information above.",
      "user": {
        "login": "ryanofsky",
        "id": 7133040,
        "node_id": "MDQ6VXNlcjcxMzMwNDA=",
        "avatar_url": "https://avatars.githubusercontent.com/u/7133040?v=4",
        "gravatar_id": "",
        "url": "https://api.github.com/users/ryanofsky",
        "html_url": "https://github.com/ryanofsky",
        "followers_url": "https://api.github.com/users/ryanofsky/followers",
        "following_url": "https://api.github.com/users/ryanofsky/following%7B/other_user%7D",
        "gists_url": "https://api.github.com/users/ryanofsky/gists%7B/gist_id%7D",
        "starred_url": "https://api.github.com/users/ryanofsky/starred%7B/owner%7D%7B/repo%7D",
        "subscriptions_url": "https://api.github.com/users/ryanofsky/subscriptions",
        "organizations_url": "https://api.github.com/users/ryanofsky/orgs",
        "repos_url": "https://api.github.com/users/ryanofsky/repos",
        "events_url": "https://api.github.com/users/ryanofsky/events%7B/privacy%7D",
        "received_events_url": "https://api.github.com/users/ryanofsky/received_events",
        "type": "User",
        "site_admin": false
      },
      "html_url": "https://github.com/bitcoin/bitcoin/issues/27283#issuecomment-1477004863",
      "issue_url": "https://api.github.com/repos/bitcoin/bitcoin/issues/27283"
    },
    {
      "event": "commented",
      "id": 1477072935,
      "node_id": "IC_kwDOABII585YClgn",
      "url": "https://api.github.com/repos/bitcoin/bitcoin/issues/comments/1477072935",
      "actor": {
        "login": "achow101",
        "id": 3782274,
        "node_id": "MDQ6VXNlcjM3ODIyNzQ=",
        "avatar_url": "https://avatars.githubusercontent.com/u/3782274?v=4",
        "gravatar_id": "",
        "url": "https://api.github.com/users/achow101",
        "html_url": "https://github.com/achow101",
        "followers_url": "https://api.github.com/users/achow101/followers",
        "following_url": "https://api.github.com/users/achow101/following%7B/other_user%7D",
        "gists_url": "https://api.github.com/users/achow101/gists%7B/gist_id%7D",
        "starred_url": "https://api.github.com/users/achow101/starred%7B/owner%7D%7B/repo%7D",
        "subscriptions_url": "https://api.github.com/users/achow101/subscriptions",
        "organizations_url": "https://api.github.com/users/achow101/orgs",
        "repos_url": "https://api.github.com/users/achow101/repos",
        "events_url": "https://api.github.com/users/achow101/events%7B/privacy%7D",
        "received_events_url": "https://api.github.com/users/achow101/received_events",
        "type": "User",
        "site_admin": false
      },
      "commit_id": null,
      "commit_url": null,
      "created_at": "2023-03-20T23:13:06Z",
      "updated_at": "2023-03-20T23:53:49Z",
      "author_association": "MEMBER",
      "body": "I've been able to reproduce the leak that valgrind finds on master. It appears to be related to the `-privdb` option; looking at the BDB source, the problem occurs inside a block of code guarded by a check for the `DB_PRIVATE` flag. Disabling that with `-privdb=0` \"resolves\" the leak. Changing this setting in the code also resolves the LeakSanitizer error.\r\n\r\nNone of the commits mentioned that are supposed to be \"good\" are not for me. They all fail in valgrind with the same error. I believe this is an issue with BDB itself that we cannot fix. I think the only solution is for us to either update BDB or ditch it entirely.\r\n\r\nI've looked through the BDB change logs between 4.8 and 5.3, and it seems like having memory leaks for private dbs is not uncommon. Multiple changelogs mention a couple fixes of memory leaks regarding private dbs.",
      "user": {
        "login": "achow101",
        "id": 3782274,
        "node_id": "MDQ6VXNlcjM3ODIyNzQ=",
        "avatar_url": "https://avatars.githubusercontent.com/u/3782274?v=4",
        "gravatar_id": "",
        "url": "https://api.github.com/users/achow101",
        "html_url": "https://github.com/achow101",
        "followers_url": "https://api.github.com/users/achow101/followers",
        "following_url": "https://api.github.com/users/achow101/following%7B/other_user%7D",
        "gists_url": "https://api.github.com/users/achow101/gists%7B/gist_id%7D",
        "starred_url": "https://api.github.com/users/achow101/starred%7B/owner%7D%7B/repo%7D",
        "subscriptions_url": "https://api.github.com/users/achow101/subscriptions",
        "organizations_url": "https://api.github.com/users/achow101/orgs",
        "repos_url": "https://api.github.com/users/achow101/repos",
        "events_url": "https://api.github.com/users/achow101/events%7B/privacy%7D",
        "received_events_url": "https://api.github.com/users/achow101/received_events",
        "type": "User",
        "site_admin": false
      },
      "html_url": "https://github.com/bitcoin/bitcoin/issues/27283#issuecomment-1477072935",
      "issue_url": "https://api.github.com/repos/bitcoin/bitcoin/issues/27283"
    },
    {
      "event": "labeled",
      "id": 8802061754,
      "node_id": "LE_lADOABII585hRdHgzwAAAAIMpM26",
      "url": "https://api.github.com/repos/bitcoin/bitcoin/issues/events/8802061754",
      "actor": {
        "login": "MarcoFalke",
        "id": 6399679,
        "node_id": "MDQ6VXNlcjYzOTk2Nzk=",
        "avatar_url": "https://avatars.githubusercontent.com/u/6399679?v=4",
        "gravatar_id": "",
        "url": "https://api.github.com/users/MarcoFalke",
        "html_url": "https://github.com/MarcoFalke",
        "followers_url": "https://api.github.com/users/MarcoFalke/followers",
        "following_url": "https://api.github.com/users/MarcoFalke/following%7B/other_user%7D",
        "gists_url": "https://api.github.com/users/MarcoFalke/gists%7B/gist_id%7D",
        "starred_url": "https://api.github.com/users/MarcoFalke/starred%7B/owner%7D%7B/repo%7D",
        "subscriptions_url": "https://api.github.com/users/MarcoFalke/subscriptions",
        "organizations_url": "https://api.github.com/users/MarcoFalke/orgs",
        "repos_url": "https://api.github.com/users/MarcoFalke/repos",
        "events_url": "https://api.github.com/users/MarcoFalke/events%7B/privacy%7D",
        "received_events_url": "https://api.github.com/users/MarcoFalke/received_events",
        "type": "User",
        "site_admin": false
      },
      "commit_id": null,
      "commit_url": null,
      "created_at": "2023-03-21T07:11:30Z",
      "label": {
        "name": "Upstream",
        "color": "bfd4f2"
      }
    },
    {
      "event": "commented",
      "id": 1477744971,
      "node_id": "IC_kwDOABII585YFJlL",
      "url": "https://api.github.com/repos/bitcoin/bitcoin/issues/comments/1477744971",
      "actor": {
        "login": "Sjors",
        "id": 10217,
        "node_id": "MDQ6VXNlcjEwMjE3",
        "avatar_url": "https://avatars.githubusercontent.com/u/10217?v=4",
        "gravatar_id": "",
        "url": "https://api.github.com/users/Sjors",
        "html_url": "https://github.com/Sjors",
        "followers_url": "https://api.github.com/users/Sjors/followers",
        "following_url": "https://api.github.com/users/Sjors/following%7B/other_user%7D",
        "gists_url": "https://api.github.com/users/Sjors/gists%7B/gist_id%7D",
        "starred_url": "https://api.github.com/users/Sjors/starred%7B/owner%7D%7B/repo%7D",
        "subscriptions_url": "https://api.github.com/users/Sjors/subscriptions",
        "organizations_url": "https://api.github.com/users/Sjors/orgs",
        "repos_url": "https://api.github.com/users/Sjors/repos",
        "events_url": "https://api.github.com/users/Sjors/events%7B/privacy%7D",
        "received_events_url": "https://api.github.com/users/Sjors/received_events",
        "type": "User",
        "site_admin": false
      },
      "commit_id": null,
      "commit_url": null,
      "created_at": "2023-03-21T12:21:42Z",
      "updated_at": "2023-03-21T12:22:51Z",
      "author_association": "MEMBER",
      "body": "It turns out 8b5e7297c02f3100a9cb27bfe206e3fc617ec173 triggers the test failure I [described above](https://github.com/bitcoin/bitcoin/issues/27283#issuecomment-1476364655), but it had no impact on the regular wallet loading / unloading. So maybe it's not exactly the same issue.\r\n\r\nStarting with `-privdb=0` indeed removes the memory leak for me for wallet loading / unloading. Dropping the `DB_PRIVATE` in `bdb.cpp` also fixes the test for me.\r\n\r\nThe release notes for 0.3.13 state \"Dropped DB_PRIVATE Berkeley DB flag.\", but it was added back in #1367.\r\n\r\n",
      "user": {
        "login": "Sjors",
        "id": 10217,
        "node_id": "MDQ6VXNlcjEwMjE3",
        "avatar_url": "https://avatars.githubusercontent.com/u/10217?v=4",
        "gravatar_id": "",
        "url": "https://api.github.com/users/Sjors",
        "html_url": "https://github.com/Sjors",
        "followers_url": "https://api.github.com/users/Sjors/followers",
        "following_url": "https://api.github.com/users/Sjors/following%7B/other_user%7D",
        "gists_url": "https://api.github.com/users/Sjors/gists%7B/gist_id%7D",
        "starred_url": "https://api.github.com/users/Sjors/starred%7B/owner%7D%7B/repo%7D",
        "subscriptions_url": "https://api.github.com/users/Sjors/subscriptions",
        "organizations_url": "https://api.github.com/users/Sjors/orgs",
        "repos_url": "https://api.github.com/users/Sjors/repos",
        "events_url": "https://api.github.com/users/Sjors/events%7B/privacy%7D",
        "received_events_url": "https://api.github.com/users/Sjors/received_events",
        "type": "User",
        "site_admin": false
      },
      "html_url": "https://github.com/bitcoin/bitcoin/issues/27283#issuecomment-1477744971",
      "issue_url": "https://api.github.com/repos/bitcoin/bitcoin/issues/27283"
    },
    {
      "event": "referenced",
      "id": 8806078559,
      "node_id": "REFE_lADOABII585hRdHgzwAAAAIM4hhf",
      "url": "https://api.github.com/repos/bitcoin/bitcoin/issues/events/8806078559",
      "actor": {
        "login": "Sjors",
        "id": 10217,
        "node_id": "MDQ6VXNlcjEwMjE3",
        "avatar_url": "https://avatars.githubusercontent.com/u/10217?v=4",
        "gravatar_id": "",
        "url": "https://api.github.com/users/Sjors",
        "html_url": "https://github.com/Sjors",
        "followers_url": "https://api.github.com/users/Sjors/followers",
        "following_url": "https://api.github.com/users/Sjors/following%7B/other_user%7D",
        "gists_url": "https://api.github.com/users/Sjors/gists%7B/gist_id%7D",
        "starred_url": "https://api.github.com/users/Sjors/starred%7B/owner%7D%7B/repo%7D",
        "subscriptions_url": "https://api.github.com/users/Sjors/subscriptions",
        "organizations_url": "https://api.github.com/users/Sjors/orgs",
        "repos_url": "https://api.github.com/users/Sjors/repos",
        "events_url": "https://api.github.com/users/Sjors/events%7B/privacy%7D",
        "received_events_url": "https://api.github.com/users/Sjors/received_events",
        "type": "User",
        "site_admin": false
      },
      "commit_id": "8a9303dc5fb79b489d5e5d6f2b6ab87355288763",
      "commit_url": "https://api.github.com/repos/Sjors/bitcoin/commits/8a9303dc5fb79b489d5e5d6f2b6ab87355288763",
      "created_at": "2023-03-21T14:07:12Z"
    },
    {
      "event": "commented",
      "id": 1477915405,
      "node_id": "IC_kwDOABII585YFzMN",
      "url": "https://api.github.com/repos/bitcoin/bitcoin/issues/comments/1477915405",
      "actor": {
        "login": "Sjors",
        "id": 10217,
        "node_id": "MDQ6VXNlcjEwMjE3",
        "avatar_url": "https://avatars.githubusercontent.com/u/10217?v=4",
        "gravatar_id": "",
        "url": "https://api.github.com/users/Sjors",
        "html_url": "https://github.com/Sjors",
        "followers_url": "https://api.github.com/users/Sjors/followers",
        "following_url": "https://api.github.com/users/Sjors/following%7B/other_user%7D",
        "gists_url": "https://api.github.com/users/Sjors/gists%7B/gist_id%7D",
        "starred_url": "https://api.github.com/users/Sjors/starred%7B/owner%7D%7B/repo%7D",
        "subscriptions_url": "https://api.github.com/users/Sjors/subscriptions",
        "organizations_url": "https://api.github.com/users/Sjors/orgs",
        "repos_url": "https://api.github.com/users/Sjors/repos",
        "events_url": "https://api.github.com/users/Sjors/events%7B/privacy%7D",
        "received_events_url": "https://api.github.com/users/Sjors/received_events",
        "type": "User",
        "site_admin": false
      },
      "commit_id": null,
      "commit_url": null,
      "created_at": "2023-03-21T14:14:27Z",
      "updated_at": "2023-03-21T14:33:05Z",
      "author_association": "MEMBER",
      "body": "One solution is to ignore the problem but fix the address sanitizer test suite.\r\n\r\nThis branch does that: https://github.com/bitcoin/bitcoin/compare/master...Sjors:bitcoin:2023/03/legacy-leak\r\n\r\nIt sets `options.use_shared_memory = true` for wallet unit tests, and it adds `-dbpriv=0` to the default config of functional tests.\r\n\r\nThe second commit also makes the wallet migration tool `use_shared_memory`. This seems safe, since the operation only runs briefly, so the concern about other processes snooping seems less pressing.\r\n\r\nStrangely there's one test that still fails with a memory leak: `wallet_migration.py`, at \"Test migration of a basic keys only wallet with a balance\".\r\n\r\nEven with this \"fix\", creating a legacy wallet under valgrind still generates heaps (haha) of warnings ([log](https://gist.github.com/Sjors/ea51c96aec671181e6351eb75e2819ca)).\r\n\r\nI can make a PR if people think it's the right approach.\r\n\r\nAdding a suppression (still not sure how) would be another way to satisfy the address sanitizer, though not valgrind(?).\r\n",
      "user": {
        "login": "Sjors",
        "id": 10217,
        "node_id": "MDQ6VXNlcjEwMjE3",
        "avatar_url": "https://avatars.githubusercontent.com/u/10217?v=4",
        "gravatar_id": "",
        "url": "https://api.github.com/users/Sjors",
        "html_url": "https://github.com/Sjors",
        "followers_url": "https://api.github.com/users/Sjors/followers",
        "following_url": "https://api.github.com/users/Sjors/following%7B/other_user%7D",
        "gists_url": "https://api.github.com/users/Sjors/gists%7B/gist_id%7D",
        "starred_url": "https://api.github.com/users/Sjors/starred%7B/owner%7D%7B/repo%7D",
        "subscriptions_url": "https://api.github.com/users/Sjors/subscriptions",
        "organizations_url": "https://api.github.com/users/Sjors/orgs",
        "repos_url": "https://api.github.com/users/Sjors/repos",
        "events_url": "https://api.github.com/users/Sjors/events%7B/privacy%7D",
        "received_events_url": "https://api.github.com/users/Sjors/received_events",
        "type": "User",
        "site_admin": false
      },
      "html_url": "https://github.com/bitcoin/bitcoin/issues/27283#issuecomment-1477915405",
      "issue_url": "https://api.github.com/repos/bitcoin/bitcoin/issues/27283"
    },
    {
      "event": "referenced",
      "id": 8806203956,
      "node_id": "REFE_lADOABII585hRdHgzwAAAAIM5AI0",
      "url": "https://api.github.com/repos/bitcoin/bitcoin/issues/events/8806203956",
      "actor": {
        "login": "Sjors",
        "id": 10217,
        "node_id": "MDQ6VXNlcjEwMjE3",
        "avatar_url": "https://avatars.githubusercontent.com/u/10217?v=4",
        "gravatar_id": "",
        "url": "https://api.github.com/users/Sjors",
        "html_url": "https://github.com/Sjors",
        "followers_url": "https://api.github.com/users/Sjors/followers",
        "following_url": "https://api.github.com/users/Sjors/following%7B/other_user%7D",
        "gists_url": "https://api.github.com/users/Sjors/gists%7B/gist_id%7D",
        "starred_url": "https://api.github.com/users/Sjors/starred%7B/owner%7D%7B/repo%7D",
        "subscriptions_url": "https://api.github.com/users/Sjors/subscriptions",
        "organizations_url": "https://api.github.com/users/Sjors/orgs",
        "repos_url": "https://api.github.com/users/Sjors/repos",
        "events_url": "https://api.github.com/users/Sjors/events%7B/privacy%7D",
        "received_events_url": "https://api.github.com/users/Sjors/received_events",
        "type": "User",
        "site_admin": false
      },
      "commit_id": "db848805f517f72ac461d21cd58aa10e3b1539bb",
      "commit_url": "https://api.github.com/repos/Sjors/bitcoin/commits/db848805f517f72ac461d21cd58aa10e3b1539bb",
      "created_at": "2023-03-21T14:17:09Z"
    },
    {
      "event": "commented",
      "id": 1477980568,
      "node_id": "IC_kwDOABII585YGDGY",
      "url": "https://api.github.com/repos/bitcoin/bitcoin/issues/comments/1477980568",
      "actor": {
        "login": "MarcoFalke",
        "id": 6399679,
        "node_id": "MDQ6VXNlcjYzOTk2Nzk=",
        "avatar_url": "https://avatars.githubusercontent.com/u/6399679?v=4",
        "gravatar_id": "",
        "url": "https://api.github.com/users/MarcoFalke",
        "html_url": "https://github.com/MarcoFalke",
        "followers_url": "https://api.github.com/users/MarcoFalke/followers",
        "following_url": "https://api.github.com/users/MarcoFalke/following%7B/other_user%7D",
        "gists_url": "https://api.github.com/users/MarcoFalke/gists%7B/gist_id%7D",
        "starred_url": "https://api.github.com/users/MarcoFalke/starred%7B/owner%7D%7B/repo%7D",
        "subscriptions_url": "https://api.github.com/users/MarcoFalke/subscriptions",
        "organizations_url": "https://api.github.com/users/MarcoFalke/orgs",
        "repos_url": "https://api.github.com/users/MarcoFalke/repos",
        "events_url": "https://api.github.com/users/MarcoFalke/events%7B/privacy%7D",
        "received_events_url": "https://api.github.com/users/MarcoFalke/received_events",
        "type": "User",
        "site_admin": false
      },
      "commit_id": null,
      "commit_url": null,
      "created_at": "2023-03-21T14:51:26Z",
      "updated_at": "2023-03-21T14:51:26Z",
      "author_association": "MEMBER",
      "body": "My preference would be to suppress libdb4.8, but I guess that is not possible because the sanitizer doesn't see the lib in static builds?",
      "user": {
        "login": "MarcoFalke",
        "id": 6399679,
        "node_id": "MDQ6VXNlcjYzOTk2Nzk=",
        "avatar_url": "https://avatars.githubusercontent.com/u/6399679?v=4",
        "gravatar_id": "",
        "url": "https://api.github.com/users/MarcoFalke",
        "html_url": "https://github.com/MarcoFalke",
        "followers_url": "https://api.github.com/users/MarcoFalke/followers",
        "following_url": "https://api.github.com/users/MarcoFalke/following%7B/other_user%7D",
        "gists_url": "https://api.github.com/users/MarcoFalke/gists%7B/gist_id%7D",
        "starred_url": "https://api.github.com/users/MarcoFalke/starred%7B/owner%7D%7B/repo%7D",
        "subscriptions_url": "https://api.github.com/users/MarcoFalke/subscriptions",
        "organizations_url": "https://api.github.com/users/MarcoFalke/orgs",
        "repos_url": "https://api.github.com/users/MarcoFalke/repos",
        "events_url": "https://api.github.com/users/MarcoFalke/events%7B/privacy%7D",
        "received_events_url": "https://api.github.com/users/MarcoFalke/received_events",
        "type": "User",
        "site_admin": false
      },
      "html_url": "https://github.com/bitcoin/bitcoin/issues/27283#issuecomment-1477980568",
      "issue_url": "https://api.github.com/repos/bitcoin/bitcoin/issues/27283"
    },
    {
      "event": "subscribed",
      "id": 8975585993,
      "node_id": "SE_lADOABII585hRdHgzwAAAAIW_JLJ",
      "url": "https://api.github.com/repos/bitcoin/bitcoin/issues/events/8975585993",
      "actor": {
        "login": "Torrubia",
        "id": 98063465,
        "node_id": "U_kgDOBdhUaQ",
        "avatar_url": "https://avatars.githubusercontent.com/u/98063465?v=4",
        "gravatar_id": "",
        "url": "https://api.github.com/users/Torrubia",
        "html_url": "https://github.com/Torrubia",
        "followers_url": "https://api.github.com/users/Torrubia/followers",
        "following_url": "https://api.github.com/users/Torrubia/following%7B/other_user%7D",
        "gists_url": "https://api.github.com/users/Torrubia/gists%7B/gist_id%7D",
        "starred_url": "https://api.github.com/users/Torrubia/starred%7B/owner%7D%7B/repo%7D",
        "subscriptions_url": "https://api.github.com/users/Torrubia/subscriptions",
        "organizations_url": "https://api.github.com/users/Torrubia/orgs",
        "repos_url": "https://api.github.com/users/Torrubia/repos",
        "events_url": "https://api.github.com/users/Torrubia/events%7B/privacy%7D",
        "received_events_url": "https://api.github.com/users/Torrubia/received_events",
        "type": "User",
        "site_admin": false
      },
      "commit_id": null,
      "commit_url": null,
      "created_at": "2023-04-11T15:45:39Z"
    }
  ]
}