{
  "type": "issue",
  "issue": {
    "id": 1675150017,
    "node_id": "I_kwDOABII585j2MLB",
    "url": "https://api.github.com/repos/bitcoin/bitcoin/issues/27494",
    "repository_url": "https://api.github.com/repos/bitcoin/bitcoin",
    "labels_url": "https://api.github.com/repos/bitcoin/bitcoin/issues/27494/labels%7B/name%7D",
    "comments_url": "https://api.github.com/repos/bitcoin/bitcoin/issues/27494/comments",
    "events_url": "https://api.github.com/repos/bitcoin/bitcoin/issues/27494/events",
    "html_url": "https://github.com/bitcoin/bitcoin/issues/27494",
    "number": 27494,
    "state": "open",
    "state_reason": null,
    "title": "Use different datadirs for different signets",
    "body": "### Please describe the feature you'd like to see added.\r\n\r\nFrom https://github.com/bitcoin/bitcoin/pull/27446#issuecomment-1513814497:\r\n\r\n> This brings up a related issue in that we can't have multiple signets in the same base datadir. All signets use the signet datadir, so any change of parameter may result in a bad chainstate for that signet node.\r\n> \r\n> I think we should instead look at implementing a more robust multiple signet solution that allows for multiple configurable consensus rules in a clean and simple way since clearly that's desired. Ideally we would have a single parameter that contains all of the rules being configured rather than having multiple for each rule. We should also make datadirs specific to each set of rules, ideally in a deterministic way.\r\n",
    "user": {
      "login": "ajtowns",
      "id": 127186,
      "node_id": "MDQ6VXNlcjEyNzE4Ng==",
      "avatar_url": "https://avatars.githubusercontent.com/u/127186?v=4",
      "gravatar_id": "",
      "url": "https://api.github.com/users/ajtowns",
      "html_url": "https://github.com/ajtowns",
      "followers_url": "https://api.github.com/users/ajtowns/followers",
      "following_url": "https://api.github.com/users/ajtowns/following%7B/other_user%7D",
      "gists_url": "https://api.github.com/users/ajtowns/gists%7B/gist_id%7D",
      "starred_url": "https://api.github.com/users/ajtowns/starred%7B/owner%7D%7B/repo%7D",
      "subscriptions_url": "https://api.github.com/users/ajtowns/subscriptions",
      "organizations_url": "https://api.github.com/users/ajtowns/orgs",
      "repos_url": "https://api.github.com/users/ajtowns/repos",
      "events_url": "https://api.github.com/users/ajtowns/events%7B/privacy%7D",
      "received_events_url": "https://api.github.com/users/ajtowns/received_events",
      "type": "User",
      "site_admin": false
    },
    "labels": [
      {
        "id": 64583,
        "node_id": "MDU6TGFiZWw2NDU4Mw==",
        "url": "https://api.github.com/repos/bitcoin/bitcoin/labels/Feature",
        "name": "Feature",
        "color": "7cf575",
        "default": false
      },
      {
        "id": 62963516,
        "node_id": "MDU6TGFiZWw2Mjk2MzUxNg==",
        "url": "https://api.github.com/repos/bitcoin/bitcoin/labels/Tests",
        "name": "Tests",
        "color": "d4c5f9",
        "default": false
      },
      {
        "id": 349312277,
        "node_id": "MDU6TGFiZWwzNDkzMTIyNzc=",
        "url": "https://api.github.com/repos/bitcoin/bitcoin/labels/good%20first%20issue",
        "name": "good first issue",
        "color": "c2e0c6",
        "default": true
      }
    ],
    "assignees": [],
    "author_association": "CONTRIBUTOR",
    "locked": false,
    "comments": 4,
    "created_at": "2023-04-19T15:26:58Z",
    "updated_at": "2023-10-25T21:23:21Z"
  },
  "events": [
    {
      "event": "labeled",
      "id": 9048029156,
      "node_id": "LE_lADOABII585j2MLBzwAAAAIbTffk",
      "url": "https://api.github.com/repos/bitcoin/bitcoin/issues/events/9048029156",
      "actor": {
        "login": "ajtowns",
        "id": 127186,
        "node_id": "MDQ6VXNlcjEyNzE4Ng==",
        "avatar_url": "https://avatars.githubusercontent.com/u/127186?v=4",
        "gravatar_id": "",
        "url": "https://api.github.com/users/ajtowns",
        "html_url": "https://github.com/ajtowns",
        "followers_url": "https://api.github.com/users/ajtowns/followers",
        "following_url": "https://api.github.com/users/ajtowns/following%7B/other_user%7D",
        "gists_url": "https://api.github.com/users/ajtowns/gists%7B/gist_id%7D",
        "starred_url": "https://api.github.com/users/ajtowns/starred%7B/owner%7D%7B/repo%7D",
        "subscriptions_url": "https://api.github.com/users/ajtowns/subscriptions",
        "organizations_url": "https://api.github.com/users/ajtowns/orgs",
        "repos_url": "https://api.github.com/users/ajtowns/repos",
        "events_url": "https://api.github.com/users/ajtowns/events%7B/privacy%7D",
        "received_events_url": "https://api.github.com/users/ajtowns/received_events",
        "type": "User",
        "site_admin": false
      },
      "commit_id": null,
      "commit_url": null,
      "created_at": "2023-04-19T15:26:58Z",
      "label": {
        "name": "Feature",
        "color": "7cf575"
      }
    },
    {
      "event": "labeled",
      "id": 9048056338,
      "node_id": "LE_lADOABII585j2MLBzwAAAAIbTmIS",
      "url": "https://api.github.com/repos/bitcoin/bitcoin/issues/events/9048056338",
      "actor": {
        "login": "maflcko",
        "id": 6399679,
        "node_id": "MDQ6VXNlcjYzOTk2Nzk=",
        "avatar_url": "https://avatars.githubusercontent.com/u/6399679?v=4",
        "gravatar_id": "",
        "url": "https://api.github.com/users/maflcko",
        "html_url": "https://github.com/maflcko",
        "followers_url": "https://api.github.com/users/maflcko/followers",
        "following_url": "https://api.github.com/users/maflcko/following%7B/other_user%7D",
        "gists_url": "https://api.github.com/users/maflcko/gists%7B/gist_id%7D",
        "starred_url": "https://api.github.com/users/maflcko/starred%7B/owner%7D%7B/repo%7D",
        "subscriptions_url": "https://api.github.com/users/maflcko/subscriptions",
        "organizations_url": "https://api.github.com/users/maflcko/orgs",
        "repos_url": "https://api.github.com/users/maflcko/repos",
        "events_url": "https://api.github.com/users/maflcko/events%7B/privacy%7D",
        "received_events_url": "https://api.github.com/users/maflcko/received_events",
        "type": "User",
        "site_admin": false
      },
      "commit_id": null,
      "commit_url": null,
      "created_at": "2023-04-19T15:29:34Z",
      "label": {
        "name": "Tests",
        "color": "d4c5f9"
      }
    },
    {
      "event": "commented",
      "id": 1514945137,
      "node_id": "IC_kwDOABII585aTDpx",
      "url": "https://api.github.com/repos/bitcoin/bitcoin/issues/comments/1514945137",
      "actor": {
        "login": "ajtowns",
        "id": 127186,
        "node_id": "MDQ6VXNlcjEyNzE4Ng==",
        "avatar_url": "https://avatars.githubusercontent.com/u/127186?v=4",
        "gravatar_id": "",
        "url": "https://api.github.com/users/ajtowns",
        "html_url": "https://github.com/ajtowns",
        "followers_url": "https://api.github.com/users/ajtowns/followers",
        "following_url": "https://api.github.com/users/ajtowns/following%7B/other_user%7D",
        "gists_url": "https://api.github.com/users/ajtowns/gists%7B/gist_id%7D",
        "starred_url": "https://api.github.com/users/ajtowns/starred%7B/owner%7D%7B/repo%7D",
        "subscriptions_url": "https://api.github.com/users/ajtowns/subscriptions",
        "organizations_url": "https://api.github.com/users/ajtowns/orgs",
        "repos_url": "https://api.github.com/users/ajtowns/repos",
        "events_url": "https://api.github.com/users/ajtowns/events%7B/privacy%7D",
        "received_events_url": "https://api.github.com/users/ajtowns/received_events",
        "type": "User",
        "site_admin": false
      },
      "commit_id": null,
      "commit_url": null,
      "created_at": "2023-04-19T15:32:39Z",
      "updated_at": "2023-04-19T15:32:39Z",
      "author_association": "CONTRIBUTOR",
      "body": "cc @achow101 @kallewoof \r\n\r\nAn option might be to name the chain dir `signet-XXXXXXXX` instead of `signet` where the `XX`s are the `pchMessageStart`, or perhaps to have ~40 `XX`s instead of 8 and have them be the hash160 of the signet challenge?",
      "user": {
        "login": "ajtowns",
        "id": 127186,
        "node_id": "MDQ6VXNlcjEyNzE4Ng==",
        "avatar_url": "https://avatars.githubusercontent.com/u/127186?v=4",
        "gravatar_id": "",
        "url": "https://api.github.com/users/ajtowns",
        "html_url": "https://github.com/ajtowns",
        "followers_url": "https://api.github.com/users/ajtowns/followers",
        "following_url": "https://api.github.com/users/ajtowns/following%7B/other_user%7D",
        "gists_url": "https://api.github.com/users/ajtowns/gists%7B/gist_id%7D",
        "starred_url": "https://api.github.com/users/ajtowns/starred%7B/owner%7D%7B/repo%7D",
        "subscriptions_url": "https://api.github.com/users/ajtowns/subscriptions",
        "organizations_url": "https://api.github.com/users/ajtowns/orgs",
        "repos_url": "https://api.github.com/users/ajtowns/repos",
        "events_url": "https://api.github.com/users/ajtowns/events%7B/privacy%7D",
        "received_events_url": "https://api.github.com/users/ajtowns/received_events",
        "type": "User",
        "site_admin": false
      },
      "html_url": "https://github.com/bitcoin/bitcoin/issues/27494#issuecomment-1514945137",
      "issue_url": "https://api.github.com/repos/bitcoin/bitcoin/issues/27494"
    },
    {
      "event": "mentioned",
      "id": 9048089528,
      "node_id": "MEE_lADOABII585j2MLBzwAAAAIbTuO4",
      "url": "https://api.github.com/repos/bitcoin/bitcoin/issues/events/9048089528",
      "actor": {
        "login": "kallewoof",
        "id": 250224,
        "node_id": "MDQ6VXNlcjI1MDIyNA==",
        "avatar_url": "https://avatars.githubusercontent.com/u/250224?v=4",
        "gravatar_id": "",
        "url": "https://api.github.com/users/kallewoof",
        "html_url": "https://github.com/kallewoof",
        "followers_url": "https://api.github.com/users/kallewoof/followers",
        "following_url": "https://api.github.com/users/kallewoof/following%7B/other_user%7D",
        "gists_url": "https://api.github.com/users/kallewoof/gists%7B/gist_id%7D",
        "starred_url": "https://api.github.com/users/kallewoof/starred%7B/owner%7D%7B/repo%7D",
        "subscriptions_url": "https://api.github.com/users/kallewoof/subscriptions",
        "organizations_url": "https://api.github.com/users/kallewoof/orgs",
        "repos_url": "https://api.github.com/users/kallewoof/repos",
        "events_url": "https://api.github.com/users/kallewoof/events%7B/privacy%7D",
        "received_events_url": "https://api.github.com/users/kallewoof/received_events",
        "type": "User",
        "site_admin": false
      },
      "commit_id": null,
      "commit_url": null,
      "created_at": "2023-04-19T15:32:39Z"
    },
    {
      "event": "subscribed",
      "id": 9048089550,
      "node_id": "SE_lADOABII585j2MLBzwAAAAIbTuPO",
      "url": "https://api.github.com/repos/bitcoin/bitcoin/issues/events/9048089550",
      "actor": {
        "login": "kallewoof",
        "id": 250224,
        "node_id": "MDQ6VXNlcjI1MDIyNA==",
        "avatar_url": "https://avatars.githubusercontent.com/u/250224?v=4",
        "gravatar_id": "",
        "url": "https://api.github.com/users/kallewoof",
        "html_url": "https://github.com/kallewoof",
        "followers_url": "https://api.github.com/users/kallewoof/followers",
        "following_url": "https://api.github.com/users/kallewoof/following%7B/other_user%7D",
        "gists_url": "https://api.github.com/users/kallewoof/gists%7B/gist_id%7D",
        "starred_url": "https://api.github.com/users/kallewoof/starred%7B/owner%7D%7B/repo%7D",
        "subscriptions_url": "https://api.github.com/users/kallewoof/subscriptions",
        "organizations_url": "https://api.github.com/users/kallewoof/orgs",
        "repos_url": "https://api.github.com/users/kallewoof/repos",
        "events_url": "https://api.github.com/users/kallewoof/events%7B/privacy%7D",
        "received_events_url": "https://api.github.com/users/kallewoof/received_events",
        "type": "User",
        "site_admin": false
      },
      "commit_id": null,
      "commit_url": null,
      "created_at": "2023-04-19T15:32:39Z"
    },
    {
      "event": "mentioned",
      "id": 9048089580,
      "node_id": "MEE_lADOABII585j2MLBzwAAAAIbTuPs",
      "url": "https://api.github.com/repos/bitcoin/bitcoin/issues/events/9048089580",
      "actor": {
        "login": "achow101",
        "id": 3782274,
        "node_id": "MDQ6VXNlcjM3ODIyNzQ=",
        "avatar_url": "https://avatars.githubusercontent.com/u/3782274?v=4",
        "gravatar_id": "",
        "url": "https://api.github.com/users/achow101",
        "html_url": "https://github.com/achow101",
        "followers_url": "https://api.github.com/users/achow101/followers",
        "following_url": "https://api.github.com/users/achow101/following%7B/other_user%7D",
        "gists_url": "https://api.github.com/users/achow101/gists%7B/gist_id%7D",
        "starred_url": "https://api.github.com/users/achow101/starred%7B/owner%7D%7B/repo%7D",
        "subscriptions_url": "https://api.github.com/users/achow101/subscriptions",
        "organizations_url": "https://api.github.com/users/achow101/orgs",
        "repos_url": "https://api.github.com/users/achow101/repos",
        "events_url": "https://api.github.com/users/achow101/events%7B/privacy%7D",
        "received_events_url": "https://api.github.com/users/achow101/received_events",
        "type": "User",
        "site_admin": false
      },
      "commit_id": null,
      "commit_url": null,
      "created_at": "2023-04-19T15:32:39Z"
    },
    {
      "event": "subscribed",
      "id": 9048089599,
      "node_id": "SE_lADOABII585j2MLBzwAAAAIbTuP_",
      "url": "https://api.github.com/repos/bitcoin/bitcoin/issues/events/9048089599",
      "actor": {
        "login": "achow101",
        "id": 3782274,
        "node_id": "MDQ6VXNlcjM3ODIyNzQ=",
        "avatar_url": "https://avatars.githubusercontent.com/u/3782274?v=4",
        "gravatar_id": "",
        "url": "https://api.github.com/users/achow101",
        "html_url": "https://github.com/achow101",
        "followers_url": "https://api.github.com/users/achow101/followers",
        "following_url": "https://api.github.com/users/achow101/following%7B/other_user%7D",
        "gists_url": "https://api.github.com/users/achow101/gists%7B/gist_id%7D",
        "starred_url": "https://api.github.com/users/achow101/starred%7B/owner%7D%7B/repo%7D",
        "subscriptions_url": "https://api.github.com/users/achow101/subscriptions",
        "organizations_url": "https://api.github.com/users/achow101/orgs",
        "repos_url": "https://api.github.com/users/achow101/repos",
        "events_url": "https://api.github.com/users/achow101/events%7B/privacy%7D",
        "received_events_url": "https://api.github.com/users/achow101/received_events",
        "type": "User",
        "site_admin": false
      },
      "commit_id": null,
      "commit_url": null,
      "created_at": "2023-04-19T15:32:40Z"
    },
    {
      "event": "commented",
      "id": 1514949665,
      "node_id": "IC_kwDOABII585aTEwh",
      "url": "https://api.github.com/repos/bitcoin/bitcoin/issues/comments/1514949665",
      "actor": {
        "login": "maflcko",
        "id": 6399679,
        "node_id": "MDQ6VXNlcjYzOTk2Nzk=",
        "avatar_url": "https://avatars.githubusercontent.com/u/6399679?v=4",
        "gravatar_id": "",
        "url": "https://api.github.com/users/maflcko",
        "html_url": "https://github.com/maflcko",
        "followers_url": "https://api.github.com/users/maflcko/followers",
        "following_url": "https://api.github.com/users/maflcko/following%7B/other_user%7D",
        "gists_url": "https://api.github.com/users/maflcko/gists%7B/gist_id%7D",
        "starred_url": "https://api.github.com/users/maflcko/starred%7B/owner%7D%7B/repo%7D",
        "subscriptions_url": "https://api.github.com/users/maflcko/subscriptions",
        "organizations_url": "https://api.github.com/users/maflcko/orgs",
        "repos_url": "https://api.github.com/users/maflcko/repos",
        "events_url": "https://api.github.com/users/maflcko/events%7B/privacy%7D",
        "received_events_url": "https://api.github.com/users/maflcko/received_events",
        "type": "User",
        "site_admin": false
      },
      "commit_id": null,
      "commit_url": null,
      "created_at": "2023-04-19T15:35:33Z",
      "updated_at": "2023-04-19T15:35:33Z",
      "author_association": "MEMBER",
      "body": "This looks like a breaking change, so one could carve out the current global default signet to keep the current folder name. Though, for other signets this breaking change seems fine.",
      "user": {
        "login": "maflcko",
        "id": 6399679,
        "node_id": "MDQ6VXNlcjYzOTk2Nzk=",
        "avatar_url": "https://avatars.githubusercontent.com/u/6399679?v=4",
        "gravatar_id": "",
        "url": "https://api.github.com/users/maflcko",
        "html_url": "https://github.com/maflcko",
        "followers_url": "https://api.github.com/users/maflcko/followers",
        "following_url": "https://api.github.com/users/maflcko/following%7B/other_user%7D",
        "gists_url": "https://api.github.com/users/maflcko/gists%7B/gist_id%7D",
        "starred_url": "https://api.github.com/users/maflcko/starred%7B/owner%7D%7B/repo%7D",
        "subscriptions_url": "https://api.github.com/users/maflcko/subscriptions",
        "organizations_url": "https://api.github.com/users/maflcko/orgs",
        "repos_url": "https://api.github.com/users/maflcko/repos",
        "events_url": "https://api.github.com/users/maflcko/events%7B/privacy%7D",
        "received_events_url": "https://api.github.com/users/maflcko/received_events",
        "type": "User",
        "site_admin": false
      },
      "html_url": "https://github.com/bitcoin/bitcoin/issues/27494#issuecomment-1514949665",
      "issue_url": "https://api.github.com/repos/bitcoin/bitcoin/issues/27494"
    },
    {
      "event": "labeled",
      "id": 9299575843,
      "node_id": "LE_lADOABII585j2MLBzwAAAAIqTEQj",
      "url": "https://api.github.com/repos/bitcoin/bitcoin/issues/events/9299575843",
      "actor": {
        "login": "maflcko",
        "id": 6399679,
        "node_id": "MDQ6VXNlcjYzOTk2Nzk=",
        "avatar_url": "https://avatars.githubusercontent.com/u/6399679?v=4",
        "gravatar_id": "",
        "url": "https://api.github.com/users/maflcko",
        "html_url": "https://github.com/maflcko",
        "followers_url": "https://api.github.com/users/maflcko/followers",
        "following_url": "https://api.github.com/users/maflcko/following%7B/other_user%7D",
        "gists_url": "https://api.github.com/users/maflcko/gists%7B/gist_id%7D",
        "starred_url": "https://api.github.com/users/maflcko/starred%7B/owner%7D%7B/repo%7D",
        "subscriptions_url": "https://api.github.com/users/maflcko/subscriptions",
        "organizations_url": "https://api.github.com/users/maflcko/orgs",
        "repos_url": "https://api.github.com/users/maflcko/repos",
        "events_url": "https://api.github.com/users/maflcko/events%7B/privacy%7D",
        "received_events_url": "https://api.github.com/users/maflcko/received_events",
        "type": "User",
        "site_admin": false
      },
      "commit_id": null,
      "commit_url": null,
      "created_at": "2023-05-22T08:21:45Z",
      "label": {
        "name": "good first issue",
        "color": "c2e0c6"
      }
    },
    {
      "event": "commented",
      "id": 1780073072,
      "node_id": "IC_kwDOABII585qGcJw",
      "url": "https://api.github.com/repos/bitcoin/bitcoin/issues/comments/1780073072",
      "actor": {
        "login": "theartpiece",
        "id": 42691631,
        "node_id": "MDQ6VXNlcjQyNjkxNjMx",
        "avatar_url": "https://avatars.githubusercontent.com/u/42691631?v=4",
        "gravatar_id": "",
        "url": "https://api.github.com/users/theartpiece",
        "html_url": "https://github.com/theartpiece",
        "followers_url": "https://api.github.com/users/theartpiece/followers",
        "following_url": "https://api.github.com/users/theartpiece/following%7B/other_user%7D",
        "gists_url": "https://api.github.com/users/theartpiece/gists%7B/gist_id%7D",
        "starred_url": "https://api.github.com/users/theartpiece/starred%7B/owner%7D%7B/repo%7D",
        "subscriptions_url": "https://api.github.com/users/theartpiece/subscriptions",
        "organizations_url": "https://api.github.com/users/theartpiece/orgs",
        "repos_url": "https://api.github.com/users/theartpiece/repos",
        "events_url": "https://api.github.com/users/theartpiece/events%7B/privacy%7D",
        "received_events_url": "https://api.github.com/users/theartpiece/received_events",
        "type": "User",
        "site_admin": false
      },
      "commit_id": null,
      "commit_url": null,
      "created_at": "2023-10-25T21:20:35Z",
      "updated_at": "2023-10-25T21:20:35Z",
      "author_association": "NONE",
      "body": "Hi \r\n\r\nWe're students at UT Austin looking for an issue to work on for our course project. We are interested in this issue and aim to raise PR and get it approved within a month. We will appreciate your help.\r\n\r\nRegards",
      "user": {
        "login": "theartpiece",
        "id": 42691631,
        "node_id": "MDQ6VXNlcjQyNjkxNjMx",
        "avatar_url": "https://avatars.githubusercontent.com/u/42691631?v=4",
        "gravatar_id": "",
        "url": "https://api.github.com/users/theartpiece",
        "html_url": "https://github.com/theartpiece",
        "followers_url": "https://api.github.com/users/theartpiece/followers",
        "following_url": "https://api.github.com/users/theartpiece/following%7B/other_user%7D",
        "gists_url": "https://api.github.com/users/theartpiece/gists%7B/gist_id%7D",
        "starred_url": "https://api.github.com/users/theartpiece/starred%7B/owner%7D%7B/repo%7D",
        "subscriptions_url": "https://api.github.com/users/theartpiece/subscriptions",
        "organizations_url": "https://api.github.com/users/theartpiece/orgs",
        "repos_url": "https://api.github.com/users/theartpiece/repos",
        "events_url": "https://api.github.com/users/theartpiece/events%7B/privacy%7D",
        "received_events_url": "https://api.github.com/users/theartpiece/received_events",
        "type": "User",
        "site_admin": false
      },
      "html_url": "https://github.com/bitcoin/bitcoin/issues/27494#issuecomment-1780073072",
      "issue_url": "https://api.github.com/repos/bitcoin/bitcoin/issues/27494"
    },
    {
      "event": "commented",
      "id": 1780076234,
      "node_id": "IC_kwDOABII585qGc7K",
      "url": "https://api.github.com/repos/bitcoin/bitcoin/issues/comments/1780076234",
      "actor": {
        "login": "maflcko",
        "id": 6399679,
        "node_id": "MDQ6VXNlcjYzOTk2Nzk=",
        "avatar_url": "https://avatars.githubusercontent.com/u/6399679?v=4",
        "gravatar_id": "",
        "url": "https://api.github.com/users/maflcko",
        "html_url": "https://github.com/maflcko",
        "followers_url": "https://api.github.com/users/maflcko/followers",
        "following_url": "https://api.github.com/users/maflcko/following%7B/other_user%7D",
        "gists_url": "https://api.github.com/users/maflcko/gists%7B/gist_id%7D",
        "starred_url": "https://api.github.com/users/maflcko/starred%7B/owner%7D%7B/repo%7D",
        "subscriptions_url": "https://api.github.com/users/maflcko/subscriptions",
        "organizations_url": "https://api.github.com/users/maflcko/orgs",
        "repos_url": "https://api.github.com/users/maflcko/repos",
        "events_url": "https://api.github.com/users/maflcko/events%7B/privacy%7D",
        "received_events_url": "https://api.github.com/users/maflcko/received_events",
        "type": "User",
        "site_admin": false
      },
      "commit_id": null,
      "commit_url": null,
      "created_at": "2023-10-25T21:23:21Z",
      "updated_at": "2023-10-25T21:23:21Z",
      "author_association": "MEMBER",
      "body": "### Useful Skills\r\n\r\n* Compiling Bitcoin Core from source\r\n* Running the C++ unit tests and the Python functional tests\r\n* Basic signet understanding, Running signet\r\n* Basic understanding of the datadir handling in Bitcoin Core\r\n\r\n### Guidance for new contributors\r\n\r\nWant to work on this issue?\r\n\r\nFor guidance on contributing, please read [CONTRIBUTING.md](https://github.com/bitcoin/bitcoin/blob/master/CONTRIBUTING.md) before opening your pull request.\r\n",
      "user": {
        "login": "maflcko",
        "id": 6399679,
        "node_id": "MDQ6VXNlcjYzOTk2Nzk=",
        "avatar_url": "https://avatars.githubusercontent.com/u/6399679?v=4",
        "gravatar_id": "",
        "url": "https://api.github.com/users/maflcko",
        "html_url": "https://github.com/maflcko",
        "followers_url": "https://api.github.com/users/maflcko/followers",
        "following_url": "https://api.github.com/users/maflcko/following%7B/other_user%7D",
        "gists_url": "https://api.github.com/users/maflcko/gists%7B/gist_id%7D",
        "starred_url": "https://api.github.com/users/maflcko/starred%7B/owner%7D%7B/repo%7D",
        "subscriptions_url": "https://api.github.com/users/maflcko/subscriptions",
        "organizations_url": "https://api.github.com/users/maflcko/orgs",
        "repos_url": "https://api.github.com/users/maflcko/repos",
        "events_url": "https://api.github.com/users/maflcko/events%7B/privacy%7D",
        "received_events_url": "https://api.github.com/users/maflcko/received_events",
        "type": "User",
        "site_admin": false
      },
      "html_url": "https://github.com/bitcoin/bitcoin/issues/27494#issuecomment-1780076234",
      "issue_url": "https://api.github.com/repos/bitcoin/bitcoin/issues/27494"
    }
  ]
}