{
  "type": "issue",
  "issue": {
    "id": 1712866209,
    "node_id": "I_kwDOABII585mGEOh",
    "url": "https://api.github.com/repos/bitcoin/bitcoin/issues/27681",
    "repository_url": "https://api.github.com/repos/bitcoin/bitcoin",
    "labels_url": "https://api.github.com/repos/bitcoin/bitcoin/issues/27681/labels%7B/name%7D",
    "comments_url": "https://api.github.com/repos/bitcoin/bitcoin/issues/27681/comments",
    "events_url": "https://api.github.com/repos/bitcoin/bitcoin/issues/27681/events",
    "html_url": "https://github.com/bitcoin/bitcoin/issues/27681",
    "number": 27681,
    "state": "closed",
    "state_reason": "completed",
    "title": "Mac osx 12.6.5 ",
    "body": "### Is there an existing issue for this?\n\n- [X] I have searched the existing issues\n\n### Current behaviour\n\nI installed the new program it ran for 3 hrs and then I checked and said fatal error said to check logs there is no logs showing for this problem I uninstalled it and reinstalled a well as redownload it with the same out come no different \r\nDid take a pic as it started and crashed \r\n![IMG_20230516_184337383](https://github.com/bitcoin/bitcoin/assets/52932653/7aa98bec-7da5-4bb8-a385-a0794e4ed735)\r\n\n\n### Expected behaviour\n\nTo boot and not crash \n\n### Steps to reproduce\n\nNone at this time \n\n### Relevant log output\n\nNone at this time\n\n### How did you obtain Bitcoin Core\n\nOther\n\n### What version of Bitcoin Core are you using?\n\nV22.0.0\n\n### Operating system and version\n\nMac osx 12.6.5\n\n### Machine specifications\n\n2.8 dual core i5 8 gb ram  high speed internet \r\n1tb drive ",
    "user": {
      "login": "ddykeman1",
      "id": 52932653,
      "node_id": "MDQ6VXNlcjUyOTMyNjUz",
      "avatar_url": "https://avatars.githubusercontent.com/u/52932653?v=4",
      "gravatar_id": "",
      "url": "https://api.github.com/users/ddykeman1",
      "html_url": "https://github.com/ddykeman1",
      "followers_url": "https://api.github.com/users/ddykeman1/followers",
      "following_url": "https://api.github.com/users/ddykeman1/following%7B/other_user%7D",
      "gists_url": "https://api.github.com/users/ddykeman1/gists%7B/gist_id%7D",
      "starred_url": "https://api.github.com/users/ddykeman1/starred%7B/owner%7D%7B/repo%7D",
      "subscriptions_url": "https://api.github.com/users/ddykeman1/subscriptions",
      "organizations_url": "https://api.github.com/users/ddykeman1/orgs",
      "repos_url": "https://api.github.com/users/ddykeman1/repos",
      "events_url": "https://api.github.com/users/ddykeman1/events%7B/privacy%7D",
      "received_events_url": "https://api.github.com/users/ddykeman1/received_events",
      "type": "User",
      "site_admin": false
    },
    "labels": [
      {
        "id": 234879,
        "node_id": "MDU6TGFiZWwyMzQ4Nzk=",
        "url": "https://api.github.com/repos/bitcoin/bitcoin/labels/macOS",
        "name": "macOS",
        "description": "",
        "color": "660000",
        "default": false
      }
    ],
    "assignees": [],
    "author_association": "NONE",
    "locked": false,
    "comments": 16,
    "closed_at": "2023-05-18T13:03:55Z",
    "created_at": "2023-05-16T23:28:17Z",
    "updated_at": "2023-05-18T13:20:55Z"
  },
  "events": [
    {
      "event": "commented",
      "id": 1550799971,
      "node_id": "IC_kwDOABII585cb1Rj",
      "url": "https://api.github.com/repos/bitcoin/bitcoin/issues/comments/1550799971",
      "actor": {
        "login": "MarcoFalke",
        "id": 6399679,
        "node_id": "MDQ6VXNlcjYzOTk2Nzk=",
        "avatar_url": "https://avatars.githubusercontent.com/u/6399679?v=4",
        "gravatar_id": "",
        "url": "https://api.github.com/users/MarcoFalke",
        "html_url": "https://github.com/MarcoFalke",
        "followers_url": "https://api.github.com/users/MarcoFalke/followers",
        "following_url": "https://api.github.com/users/MarcoFalke/following%7B/other_user%7D",
        "gists_url": "https://api.github.com/users/MarcoFalke/gists%7B/gist_id%7D",
        "starred_url": "https://api.github.com/users/MarcoFalke/starred%7B/owner%7D%7B/repo%7D",
        "subscriptions_url": "https://api.github.com/users/MarcoFalke/subscriptions",
        "organizations_url": "https://api.github.com/users/MarcoFalke/orgs",
        "repos_url": "https://api.github.com/users/MarcoFalke/repos",
        "events_url": "https://api.github.com/users/MarcoFalke/events%7B/privacy%7D",
        "received_events_url": "https://api.github.com/users/MarcoFalke/received_events",
        "type": "User",
        "site_admin": false
      },
      "commit_id": null,
      "commit_url": null,
      "created_at": "2023-05-17T06:16:25Z",
      "updated_at": "2023-05-17T06:16:25Z",
      "author_association": "MEMBER",
      "body": "Please check your debug.log for possible causes; Alternatively you can upload it here.\r\n\r\nYou can find the debug.log in your [data dir](https://github.com/bitcoin/bitcoin/blob/master/doc/files.md#data-directory-location).\r\n\r\nPlease be aware that the debug log might contain personally identifying information.",
      "user": {
        "login": "MarcoFalke",
        "id": 6399679,
        "node_id": "MDQ6VXNlcjYzOTk2Nzk=",
        "avatar_url": "https://avatars.githubusercontent.com/u/6399679?v=4",
        "gravatar_id": "",
        "url": "https://api.github.com/users/MarcoFalke",
        "html_url": "https://github.com/MarcoFalke",
        "followers_url": "https://api.github.com/users/MarcoFalke/followers",
        "following_url": "https://api.github.com/users/MarcoFalke/following%7B/other_user%7D",
        "gists_url": "https://api.github.com/users/MarcoFalke/gists%7B/gist_id%7D",
        "starred_url": "https://api.github.com/users/MarcoFalke/starred%7B/owner%7D%7B/repo%7D",
        "subscriptions_url": "https://api.github.com/users/MarcoFalke/subscriptions",
        "organizations_url": "https://api.github.com/users/MarcoFalke/orgs",
        "repos_url": "https://api.github.com/users/MarcoFalke/repos",
        "events_url": "https://api.github.com/users/MarcoFalke/events%7B/privacy%7D",
        "received_events_url": "https://api.github.com/users/MarcoFalke/received_events",
        "type": "User",
        "site_admin": false
      },
      "html_url": "https://github.com/bitcoin/bitcoin/issues/27681#issuecomment-1550799971",
      "issue_url": "https://api.github.com/repos/bitcoin/bitcoin/issues/27681"
    },
    {
      "event": "commented",
      "id": 1550921209,
      "node_id": "IC_kwDOABII585ccS35",
      "url": "https://api.github.com/repos/bitcoin/bitcoin/issues/comments/1550921209",
      "actor": {
        "login": "hebasto",
        "id": 32963518,
        "node_id": "MDQ6VXNlcjMyOTYzNTE4",
        "avatar_url": "https://avatars.githubusercontent.com/u/32963518?v=4",
        "gravatar_id": "",
        "url": "https://api.github.com/users/hebasto",
        "html_url": "https://github.com/hebasto",
        "followers_url": "https://api.github.com/users/hebasto/followers",
        "following_url": "https://api.github.com/users/hebasto/following%7B/other_user%7D",
        "gists_url": "https://api.github.com/users/hebasto/gists%7B/gist_id%7D",
        "starred_url": "https://api.github.com/users/hebasto/starred%7B/owner%7D%7B/repo%7D",
        "subscriptions_url": "https://api.github.com/users/hebasto/subscriptions",
        "organizations_url": "https://api.github.com/users/hebasto/orgs",
        "repos_url": "https://api.github.com/users/hebasto/repos",
        "events_url": "https://api.github.com/users/hebasto/events%7B/privacy%7D",
        "received_events_url": "https://api.github.com/users/hebasto/received_events",
        "type": "User",
        "site_admin": false
      },
      "commit_id": null,
      "commit_url": null,
      "created_at": "2023-05-17T07:49:48Z",
      "updated_at": "2023-05-17T07:49:58Z",
      "author_association": "MEMBER",
      "body": "FWIW, Bitcoin Core v22.0 has reached its EOL (see https://bitcoincore.org/en/lifecycle/).\r\n\r\nSuggesting to [download](https://bitcoincore.org/en/download/) a newer supported version.",
      "user": {
        "login": "hebasto",
        "id": 32963518,
        "node_id": "MDQ6VXNlcjMyOTYzNTE4",
        "avatar_url": "https://avatars.githubusercontent.com/u/32963518?v=4",
        "gravatar_id": "",
        "url": "https://api.github.com/users/hebasto",
        "html_url": "https://github.com/hebasto",
        "followers_url": "https://api.github.com/users/hebasto/followers",
        "following_url": "https://api.github.com/users/hebasto/following%7B/other_user%7D",
        "gists_url": "https://api.github.com/users/hebasto/gists%7B/gist_id%7D",
        "starred_url": "https://api.github.com/users/hebasto/starred%7B/owner%7D%7B/repo%7D",
        "subscriptions_url": "https://api.github.com/users/hebasto/subscriptions",
        "organizations_url": "https://api.github.com/users/hebasto/orgs",
        "repos_url": "https://api.github.com/users/hebasto/repos",
        "events_url": "https://api.github.com/users/hebasto/events%7B/privacy%7D",
        "received_events_url": "https://api.github.com/users/hebasto/received_events",
        "type": "User",
        "site_admin": false
      },
      "html_url": "https://github.com/bitcoin/bitcoin/issues/27681#issuecomment-1550921209",
      "issue_url": "https://api.github.com/repos/bitcoin/bitcoin/issues/27681"
    },
    {
      "event": "commented",
      "id": 1550972453,
      "node_id": "IC_kwDOABII585ccfYl",
      "url": "https://api.github.com/repos/bitcoin/bitcoin/issues/comments/1550972453",
      "actor": {
        "login": "Sjors",
        "id": 10217,
        "node_id": "MDQ6VXNlcjEwMjE3",
        "avatar_url": "https://avatars.githubusercontent.com/u/10217?v=4",
        "gravatar_id": "",
        "url": "https://api.github.com/users/Sjors",
        "html_url": "https://github.com/Sjors",
        "followers_url": "https://api.github.com/users/Sjors/followers",
        "following_url": "https://api.github.com/users/Sjors/following%7B/other_user%7D",
        "gists_url": "https://api.github.com/users/Sjors/gists%7B/gist_id%7D",
        "starred_url": "https://api.github.com/users/Sjors/starred%7B/owner%7D%7B/repo%7D",
        "subscriptions_url": "https://api.github.com/users/Sjors/subscriptions",
        "organizations_url": "https://api.github.com/users/Sjors/orgs",
        "repos_url": "https://api.github.com/users/Sjors/repos",
        "events_url": "https://api.github.com/users/Sjors/events%7B/privacy%7D",
        "received_events_url": "https://api.github.com/users/Sjors/received_events",
        "type": "User",
        "site_admin": false
      },
      "commit_id": null,
      "commit_url": null,
      "created_at": "2023-05-17T08:27:06Z",
      "updated_at": "2023-05-17T08:28:29Z",
      "author_association": "MEMBER",
      "body": "Also useful to know if this is an Intel mac or the newer M1 / M2.\r\n\r\nAnd which version were you running before updating?\r\n\r\n(also agree with @hebasto)",
      "user": {
        "login": "Sjors",
        "id": 10217,
        "node_id": "MDQ6VXNlcjEwMjE3",
        "avatar_url": "https://avatars.githubusercontent.com/u/10217?v=4",
        "gravatar_id": "",
        "url": "https://api.github.com/users/Sjors",
        "html_url": "https://github.com/Sjors",
        "followers_url": "https://api.github.com/users/Sjors/followers",
        "following_url": "https://api.github.com/users/Sjors/following%7B/other_user%7D",
        "gists_url": "https://api.github.com/users/Sjors/gists%7B/gist_id%7D",
        "starred_url": "https://api.github.com/users/Sjors/starred%7B/owner%7D%7B/repo%7D",
        "subscriptions_url": "https://api.github.com/users/Sjors/subscriptions",
        "organizations_url": "https://api.github.com/users/Sjors/orgs",
        "repos_url": "https://api.github.com/users/Sjors/repos",
        "events_url": "https://api.github.com/users/Sjors/events%7B/privacy%7D",
        "received_events_url": "https://api.github.com/users/Sjors/received_events",
        "type": "User",
        "site_admin": false
      },
      "html_url": "https://github.com/bitcoin/bitcoin/issues/27681#issuecomment-1550972453",
      "issue_url": "https://api.github.com/repos/bitcoin/bitcoin/issues/27681"
    },
    {
      "event": "mentioned",
      "id": 9266329225,
      "node_id": "MEE_lADOABII585mGEOhzwAAAAIoUPaJ",
      "url": "https://api.github.com/repos/bitcoin/bitcoin/issues/events/9266329225",
      "actor": {
        "login": "hebasto",
        "id": 32963518,
        "node_id": "MDQ6VXNlcjMyOTYzNTE4",
        "avatar_url": "https://avatars.githubusercontent.com/u/32963518?v=4",
        "gravatar_id": "",
        "url": "https://api.github.com/users/hebasto",
        "html_url": "https://github.com/hebasto",
        "followers_url": "https://api.github.com/users/hebasto/followers",
        "following_url": "https://api.github.com/users/hebasto/following%7B/other_user%7D",
        "gists_url": "https://api.github.com/users/hebasto/gists%7B/gist_id%7D",
        "starred_url": "https://api.github.com/users/hebasto/starred%7B/owner%7D%7B/repo%7D",
        "subscriptions_url": "https://api.github.com/users/hebasto/subscriptions",
        "organizations_url": "https://api.github.com/users/hebasto/orgs",
        "repos_url": "https://api.github.com/users/hebasto/repos",
        "events_url": "https://api.github.com/users/hebasto/events%7B/privacy%7D",
        "received_events_url": "https://api.github.com/users/hebasto/received_events",
        "type": "User",
        "site_admin": false
      },
      "commit_id": null,
      "commit_url": null,
      "created_at": "2023-05-17T08:28:29Z"
    },
    {
      "event": "subscribed",
      "id": 9266329241,
      "node_id": "SE_lADOABII585mGEOhzwAAAAIoUPaZ",
      "url": "https://api.github.com/repos/bitcoin/bitcoin/issues/events/9266329241",
      "actor": {
        "login": "hebasto",
        "id": 32963518,
        "node_id": "MDQ6VXNlcjMyOTYzNTE4",
        "avatar_url": "https://avatars.githubusercontent.com/u/32963518?v=4",
        "gravatar_id": "",
        "url": "https://api.github.com/users/hebasto",
        "html_url": "https://github.com/hebasto",
        "followers_url": "https://api.github.com/users/hebasto/followers",
        "following_url": "https://api.github.com/users/hebasto/following%7B/other_user%7D",
        "gists_url": "https://api.github.com/users/hebasto/gists%7B/gist_id%7D",
        "starred_url": "https://api.github.com/users/hebasto/starred%7B/owner%7D%7B/repo%7D",
        "subscriptions_url": "https://api.github.com/users/hebasto/subscriptions",
        "organizations_url": "https://api.github.com/users/hebasto/orgs",
        "repos_url": "https://api.github.com/users/hebasto/repos",
        "events_url": "https://api.github.com/users/hebasto/events%7B/privacy%7D",
        "received_events_url": "https://api.github.com/users/hebasto/received_events",
        "type": "User",
        "site_admin": false
      },
      "commit_id": null,
      "commit_url": null,
      "created_at": "2023-05-17T08:28:29Z"
    },
    {
      "event": "comment_deleted",
      "id": 9268988237,
      "node_id": "CDE_lADOABII585mGEOhzwAAAAIoeYlN",
      "url": "https://api.github.com/repos/bitcoin/bitcoin/issues/events/9268988237",
      "actor": {
        "login": "bitcoin",
        "id": 528860,
        "node_id": "MDEyOk9yZ2FuaXphdGlvbjUyODg2MA==",
        "avatar_url": "https://avatars.githubusercontent.com/u/528860?v=4",
        "gravatar_id": "",
        "url": "https://api.github.com/users/bitcoin",
        "html_url": "https://github.com/bitcoin",
        "followers_url": "https://api.github.com/users/bitcoin/followers",
        "following_url": "https://api.github.com/users/bitcoin/following%7B/other_user%7D",
        "gists_url": "https://api.github.com/users/bitcoin/gists%7B/gist_id%7D",
        "starred_url": "https://api.github.com/users/bitcoin/starred%7B/owner%7D%7B/repo%7D",
        "subscriptions_url": "https://api.github.com/users/bitcoin/subscriptions",
        "organizations_url": "https://api.github.com/users/bitcoin/orgs",
        "repos_url": "https://api.github.com/users/bitcoin/repos",
        "events_url": "https://api.github.com/users/bitcoin/events%7B/privacy%7D",
        "received_events_url": "https://api.github.com/users/bitcoin/received_events",
        "type": "Organization",
        "site_admin": false
      },
      "commit_id": null,
      "commit_url": null,
      "created_at": "2023-05-17T12:49:49Z"
    },
    {
      "event": "commented",
      "id": 1551335899,
      "node_id": "IC_kwDOABII585cd4Hb",
      "url": "https://api.github.com/repos/bitcoin/bitcoin/issues/comments/1551335899",
      "actor": {
        "login": "MarcoFalke",
        "id": 6399679,
        "node_id": "MDQ6VXNlcjYzOTk2Nzk=",
        "avatar_url": "https://avatars.githubusercontent.com/u/6399679?v=4",
        "gravatar_id": "",
        "url": "https://api.github.com/users/MarcoFalke",
        "html_url": "https://github.com/MarcoFalke",
        "followers_url": "https://api.github.com/users/MarcoFalke/followers",
        "following_url": "https://api.github.com/users/MarcoFalke/following%7B/other_user%7D",
        "gists_url": "https://api.github.com/users/MarcoFalke/gists%7B/gist_id%7D",
        "starred_url": "https://api.github.com/users/MarcoFalke/starred%7B/owner%7D%7B/repo%7D",
        "subscriptions_url": "https://api.github.com/users/MarcoFalke/subscriptions",
        "organizations_url": "https://api.github.com/users/MarcoFalke/orgs",
        "repos_url": "https://api.github.com/users/MarcoFalke/repos",
        "events_url": "https://api.github.com/users/MarcoFalke/events%7B/privacy%7D",
        "received_events_url": "https://api.github.com/users/MarcoFalke/received_events",
        "type": "User",
        "site_admin": false
      },
      "commit_id": null,
      "commit_url": null,
      "created_at": "2023-05-17T12:51:37Z",
      "updated_at": "2023-05-17T12:51:37Z",
      "author_association": "MEMBER",
      "body": "Ok, let us know if this is still an issue on a more recent version.\n\nOn Wed, May 17, 2023 at 2:45 PM ddykeman1 ***@***.***> wrote:\n\n> Thank u I only got the download from the main site\n>\n> Message ID: ***@***.***>\n>\n",
      "user": {
        "login": "MarcoFalke",
        "id": 6399679,
        "node_id": "MDQ6VXNlcjYzOTk2Nzk=",
        "avatar_url": "https://avatars.githubusercontent.com/u/6399679?v=4",
        "gravatar_id": "",
        "url": "https://api.github.com/users/MarcoFalke",
        "html_url": "https://github.com/MarcoFalke",
        "followers_url": "https://api.github.com/users/MarcoFalke/followers",
        "following_url": "https://api.github.com/users/MarcoFalke/following%7B/other_user%7D",
        "gists_url": "https://api.github.com/users/MarcoFalke/gists%7B/gist_id%7D",
        "starred_url": "https://api.github.com/users/MarcoFalke/starred%7B/owner%7D%7B/repo%7D",
        "subscriptions_url": "https://api.github.com/users/MarcoFalke/subscriptions",
        "organizations_url": "https://api.github.com/users/MarcoFalke/orgs",
        "repos_url": "https://api.github.com/users/MarcoFalke/repos",
        "events_url": "https://api.github.com/users/MarcoFalke/events%7B/privacy%7D",
        "received_events_url": "https://api.github.com/users/MarcoFalke/received_events",
        "type": "User",
        "site_admin": false
      },
      "html_url": "https://github.com/bitcoin/bitcoin/issues/27681#issuecomment-1551335899",
      "issue_url": "https://api.github.com/repos/bitcoin/bitcoin/issues/27681"
    },
    {
      "event": "commented",
      "id": 1551372789,
      "node_id": "IC_kwDOABII585ceBH1",
      "url": "https://api.github.com/repos/bitcoin/bitcoin/issues/comments/1551372789",
      "actor": {
        "login": "ddykeman1",
        "id": 52932653,
        "node_id": "MDQ6VXNlcjUyOTMyNjUz",
        "avatar_url": "https://avatars.githubusercontent.com/u/52932653?v=4",
        "gravatar_id": "",
        "url": "https://api.github.com/users/ddykeman1",
        "html_url": "https://github.com/ddykeman1",
        "followers_url": "https://api.github.com/users/ddykeman1/followers",
        "following_url": "https://api.github.com/users/ddykeman1/following%7B/other_user%7D",
        "gists_url": "https://api.github.com/users/ddykeman1/gists%7B/gist_id%7D",
        "starred_url": "https://api.github.com/users/ddykeman1/starred%7B/owner%7D%7B/repo%7D",
        "subscriptions_url": "https://api.github.com/users/ddykeman1/subscriptions",
        "organizations_url": "https://api.github.com/users/ddykeman1/orgs",
        "repos_url": "https://api.github.com/users/ddykeman1/repos",
        "events_url": "https://api.github.com/users/ddykeman1/events%7B/privacy%7D",
        "received_events_url": "https://api.github.com/users/ddykeman1/received_events",
        "type": "User",
        "site_admin": false
      },
      "commit_id": null,
      "commit_url": null,
      "created_at": "2023-05-17T13:14:39Z",
      "updated_at": "2023-05-17T13:14:39Z",
      "author_association": "NONE",
      "body": "Hey all so I am running a 2014 Mac mini with Intel core i5 and have also downloaded the new vs v24.0.1 on Mac osx 12.6.5 Monterey with the same out come it loads and then says fatal error dose not go to anything and shuts down and when I look for the logs on my end it's saying can't find logs have also done a reboot with same outcome ",
      "user": {
        "login": "ddykeman1",
        "id": 52932653,
        "node_id": "MDQ6VXNlcjUyOTMyNjUz",
        "avatar_url": "https://avatars.githubusercontent.com/u/52932653?v=4",
        "gravatar_id": "",
        "url": "https://api.github.com/users/ddykeman1",
        "html_url": "https://github.com/ddykeman1",
        "followers_url": "https://api.github.com/users/ddykeman1/followers",
        "following_url": "https://api.github.com/users/ddykeman1/following%7B/other_user%7D",
        "gists_url": "https://api.github.com/users/ddykeman1/gists%7B/gist_id%7D",
        "starred_url": "https://api.github.com/users/ddykeman1/starred%7B/owner%7D%7B/repo%7D",
        "subscriptions_url": "https://api.github.com/users/ddykeman1/subscriptions",
        "organizations_url": "https://api.github.com/users/ddykeman1/orgs",
        "repos_url": "https://api.github.com/users/ddykeman1/repos",
        "events_url": "https://api.github.com/users/ddykeman1/events%7B/privacy%7D",
        "received_events_url": "https://api.github.com/users/ddykeman1/received_events",
        "type": "User",
        "site_admin": false
      },
      "html_url": "https://github.com/bitcoin/bitcoin/issues/27681#issuecomment-1551372789",
      "issue_url": "https://api.github.com/repos/bitcoin/bitcoin/issues/27681"
    },
    {
      "event": "labeled",
      "id": 9269453968,
      "node_id": "LE_lADOABII585mGEOhzwAAAAIogKSQ",
      "url": "https://api.github.com/repos/bitcoin/bitcoin/issues/events/9269453968",
      "actor": {
        "login": "MarcoFalke",
        "id": 6399679,
        "node_id": "MDQ6VXNlcjYzOTk2Nzk=",
        "avatar_url": "https://avatars.githubusercontent.com/u/6399679?v=4",
        "gravatar_id": "",
        "url": "https://api.github.com/users/MarcoFalke",
        "html_url": "https://github.com/MarcoFalke",
        "followers_url": "https://api.github.com/users/MarcoFalke/followers",
        "following_url": "https://api.github.com/users/MarcoFalke/following%7B/other_user%7D",
        "gists_url": "https://api.github.com/users/MarcoFalke/gists%7B/gist_id%7D",
        "starred_url": "https://api.github.com/users/MarcoFalke/starred%7B/owner%7D%7B/repo%7D",
        "subscriptions_url": "https://api.github.com/users/MarcoFalke/subscriptions",
        "organizations_url": "https://api.github.com/users/MarcoFalke/orgs",
        "repos_url": "https://api.github.com/users/MarcoFalke/repos",
        "events_url": "https://api.github.com/users/MarcoFalke/events%7B/privacy%7D",
        "received_events_url": "https://api.github.com/users/MarcoFalke/received_events",
        "type": "User",
        "site_admin": false
      },
      "commit_id": null,
      "commit_url": null,
      "created_at": "2023-05-17T13:28:41Z",
      "label": {
        "name": "macOS",
        "color": "660000"
      }
    },
    {
      "event": "commented",
      "id": 1551402978,
      "node_id": "IC_kwDOABII585ceIfi",
      "url": "https://api.github.com/repos/bitcoin/bitcoin/issues/comments/1551402978",
      "actor": {
        "login": "MarcoFalke",
        "id": 6399679,
        "node_id": "MDQ6VXNlcjYzOTk2Nzk=",
        "avatar_url": "https://avatars.githubusercontent.com/u/6399679?v=4",
        "gravatar_id": "",
        "url": "https://api.github.com/users/MarcoFalke",
        "html_url": "https://github.com/MarcoFalke",
        "followers_url": "https://api.github.com/users/MarcoFalke/followers",
        "following_url": "https://api.github.com/users/MarcoFalke/following%7B/other_user%7D",
        "gists_url": "https://api.github.com/users/MarcoFalke/gists%7B/gist_id%7D",
        "starred_url": "https://api.github.com/users/MarcoFalke/starred%7B/owner%7D%7B/repo%7D",
        "subscriptions_url": "https://api.github.com/users/MarcoFalke/subscriptions",
        "organizations_url": "https://api.github.com/users/MarcoFalke/orgs",
        "repos_url": "https://api.github.com/users/MarcoFalke/repos",
        "events_url": "https://api.github.com/users/MarcoFalke/events%7B/privacy%7D",
        "received_events_url": "https://api.github.com/users/MarcoFalke/received_events",
        "type": "User",
        "site_admin": false
      },
      "commit_id": null,
      "commit_url": null,
      "created_at": "2023-05-17T13:29:28Z",
      "updated_at": "2023-05-17T13:29:28Z",
      "author_association": "MEMBER",
      "body": "> can't find logs\r\n\r\nWhat happens if you start the program in a terminal app and pass `-printtoconsole=1` to it?",
      "user": {
        "login": "MarcoFalke",
        "id": 6399679,
        "node_id": "MDQ6VXNlcjYzOTk2Nzk=",
        "avatar_url": "https://avatars.githubusercontent.com/u/6399679?v=4",
        "gravatar_id": "",
        "url": "https://api.github.com/users/MarcoFalke",
        "html_url": "https://github.com/MarcoFalke",
        "followers_url": "https://api.github.com/users/MarcoFalke/followers",
        "following_url": "https://api.github.com/users/MarcoFalke/following%7B/other_user%7D",
        "gists_url": "https://api.github.com/users/MarcoFalke/gists%7B/gist_id%7D",
        "starred_url": "https://api.github.com/users/MarcoFalke/starred%7B/owner%7D%7B/repo%7D",
        "subscriptions_url": "https://api.github.com/users/MarcoFalke/subscriptions",
        "organizations_url": "https://api.github.com/users/MarcoFalke/orgs",
        "repos_url": "https://api.github.com/users/MarcoFalke/repos",
        "events_url": "https://api.github.com/users/MarcoFalke/events%7B/privacy%7D",
        "received_events_url": "https://api.github.com/users/MarcoFalke/received_events",
        "type": "User",
        "site_admin": false
      },
      "html_url": "https://github.com/bitcoin/bitcoin/issues/27681#issuecomment-1551402978",
      "issue_url": "https://api.github.com/repos/bitcoin/bitcoin/issues/27681"
    },
    {
      "event": "commented",
      "id": 1551416962,
      "node_id": "IC_kwDOABII585ceL6C",
      "url": "https://api.github.com/repos/bitcoin/bitcoin/issues/comments/1551416962",
      "actor": {
        "login": "ddykeman1",
        "id": 52932653,
        "node_id": "MDQ6VXNlcjUyOTMyNjUz",
        "avatar_url": "https://avatars.githubusercontent.com/u/52932653?v=4",
        "gravatar_id": "",
        "url": "https://api.github.com/users/ddykeman1",
        "html_url": "https://github.com/ddykeman1",
        "followers_url": "https://api.github.com/users/ddykeman1/followers",
        "following_url": "https://api.github.com/users/ddykeman1/following%7B/other_user%7D",
        "gists_url": "https://api.github.com/users/ddykeman1/gists%7B/gist_id%7D",
        "starred_url": "https://api.github.com/users/ddykeman1/starred%7B/owner%7D%7B/repo%7D",
        "subscriptions_url": "https://api.github.com/users/ddykeman1/subscriptions",
        "organizations_url": "https://api.github.com/users/ddykeman1/orgs",
        "repos_url": "https://api.github.com/users/ddykeman1/repos",
        "events_url": "https://api.github.com/users/ddykeman1/events%7B/privacy%7D",
        "received_events_url": "https://api.github.com/users/ddykeman1/received_events",
        "type": "User",
        "site_admin": false
      },
      "commit_id": null,
      "commit_url": null,
      "created_at": "2023-05-17T13:38:24Z",
      "updated_at": "2023-05-17T13:38:24Z",
      "author_association": "NONE",
      "body": "![IMG_20230517_093710326](https://github.com/bitcoin/bitcoin/assets/52932653/404327ca-e658-48f4-ac63-1a1169412be4)\r\n",
      "user": {
        "login": "ddykeman1",
        "id": 52932653,
        "node_id": "MDQ6VXNlcjUyOTMyNjUz",
        "avatar_url": "https://avatars.githubusercontent.com/u/52932653?v=4",
        "gravatar_id": "",
        "url": "https://api.github.com/users/ddykeman1",
        "html_url": "https://github.com/ddykeman1",
        "followers_url": "https://api.github.com/users/ddykeman1/followers",
        "following_url": "https://api.github.com/users/ddykeman1/following%7B/other_user%7D",
        "gists_url": "https://api.github.com/users/ddykeman1/gists%7B/gist_id%7D",
        "starred_url": "https://api.github.com/users/ddykeman1/starred%7B/owner%7D%7B/repo%7D",
        "subscriptions_url": "https://api.github.com/users/ddykeman1/subscriptions",
        "organizations_url": "https://api.github.com/users/ddykeman1/orgs",
        "repos_url": "https://api.github.com/users/ddykeman1/repos",
        "events_url": "https://api.github.com/users/ddykeman1/events%7B/privacy%7D",
        "received_events_url": "https://api.github.com/users/ddykeman1/received_events",
        "type": "User",
        "site_admin": false
      },
      "html_url": "https://github.com/bitcoin/bitcoin/issues/27681#issuecomment-1551416962",
      "issue_url": "https://api.github.com/repos/bitcoin/bitcoin/issues/27681"
    },
    {
      "event": "commented",
      "id": 1551423215,
      "node_id": "IC_kwDOABII585ceNbv",
      "url": "https://api.github.com/repos/bitcoin/bitcoin/issues/comments/1551423215",
      "actor": {
        "login": "ddykeman1",
        "id": 52932653,
        "node_id": "MDQ6VXNlcjUyOTMyNjUz",
        "avatar_url": "https://avatars.githubusercontent.com/u/52932653?v=4",
        "gravatar_id": "",
        "url": "https://api.github.com/users/ddykeman1",
        "html_url": "https://github.com/ddykeman1",
        "followers_url": "https://api.github.com/users/ddykeman1/followers",
        "following_url": "https://api.github.com/users/ddykeman1/following%7B/other_user%7D",
        "gists_url": "https://api.github.com/users/ddykeman1/gists%7B/gist_id%7D",
        "starred_url": "https://api.github.com/users/ddykeman1/starred%7B/owner%7D%7B/repo%7D",
        "subscriptions_url": "https://api.github.com/users/ddykeman1/subscriptions",
        "organizations_url": "https://api.github.com/users/ddykeman1/orgs",
        "repos_url": "https://api.github.com/users/ddykeman1/repos",
        "events_url": "https://api.github.com/users/ddykeman1/events%7B/privacy%7D",
        "received_events_url": "https://api.github.com/users/ddykeman1/received_events",
        "type": "User",
        "site_admin": false
      },
      "commit_id": null,
      "commit_url": null,
      "created_at": "2023-05-17T13:42:05Z",
      "updated_at": "2023-05-17T13:42:05Z",
      "author_association": "NONE",
      "body": "This is all that I'm getting as of now the program then shuts down ",
      "user": {
        "login": "ddykeman1",
        "id": 52932653,
        "node_id": "MDQ6VXNlcjUyOTMyNjUz",
        "avatar_url": "https://avatars.githubusercontent.com/u/52932653?v=4",
        "gravatar_id": "",
        "url": "https://api.github.com/users/ddykeman1",
        "html_url": "https://github.com/ddykeman1",
        "followers_url": "https://api.github.com/users/ddykeman1/followers",
        "following_url": "https://api.github.com/users/ddykeman1/following%7B/other_user%7D",
        "gists_url": "https://api.github.com/users/ddykeman1/gists%7B/gist_id%7D",
        "starred_url": "https://api.github.com/users/ddykeman1/starred%7B/owner%7D%7B/repo%7D",
        "subscriptions_url": "https://api.github.com/users/ddykeman1/subscriptions",
        "organizations_url": "https://api.github.com/users/ddykeman1/orgs",
        "repos_url": "https://api.github.com/users/ddykeman1/repos",
        "events_url": "https://api.github.com/users/ddykeman1/events%7B/privacy%7D",
        "received_events_url": "https://api.github.com/users/ddykeman1/received_events",
        "type": "User",
        "site_admin": false
      },
      "html_url": "https://github.com/bitcoin/bitcoin/issues/27681#issuecomment-1551423215",
      "issue_url": "https://api.github.com/repos/bitcoin/bitcoin/issues/27681"
    },
    {
      "event": "commented",
      "id": 1551598180,
      "node_id": "IC_kwDOABII585ce4Jk",
      "url": "https://api.github.com/repos/bitcoin/bitcoin/issues/comments/1551598180",
      "actor": {
        "login": "willcl-ark",
        "id": 6606587,
        "node_id": "MDQ6VXNlcjY2MDY1ODc=",
        "avatar_url": "https://avatars.githubusercontent.com/u/6606587?v=4",
        "gravatar_id": "",
        "url": "https://api.github.com/users/willcl-ark",
        "html_url": "https://github.com/willcl-ark",
        "followers_url": "https://api.github.com/users/willcl-ark/followers",
        "following_url": "https://api.github.com/users/willcl-ark/following%7B/other_user%7D",
        "gists_url": "https://api.github.com/users/willcl-ark/gists%7B/gist_id%7D",
        "starred_url": "https://api.github.com/users/willcl-ark/starred%7B/owner%7D%7B/repo%7D",
        "subscriptions_url": "https://api.github.com/users/willcl-ark/subscriptions",
        "organizations_url": "https://api.github.com/users/willcl-ark/orgs",
        "repos_url": "https://api.github.com/users/willcl-ark/repos",
        "events_url": "https://api.github.com/users/willcl-ark/events%7B/privacy%7D",
        "received_events_url": "https://api.github.com/users/willcl-ark/received_events",
        "type": "User",
        "site_admin": false
      },
      "commit_id": null,
      "commit_url": null,
      "created_at": "2023-05-17T15:20:52Z",
      "updated_at": "2023-05-17T15:20:52Z",
      "author_association": "CONTRIBUTOR",
      "body": "\r\n> Please check your debug.log for possible causes; Alternatively you can upload it here.\r\n> \r\n> You can find the debug.log in your [data dir](https://github.com/bitcoin/bitcoin/blob/master/doc/files.md?rgh-link-date=2023-05-17T06%3A16%3A25Z#data-directory-location).\r\n> \r\n> Please be aware that the debug log might contain personally identifying information.\r\n\r\nDid you check for the log file in the datadir, as requested by this comment? There should be a file `debug.log` in directory `$HOME/Library/Application Support/Bitcoin/`.\r\n\r\nIf there is not `debug.log` in your data directory, perhaps it will print to the console if you open a terminal and run `open /Applications/Bitcoin-Qt.app --args -printtoconsole=1`?\r\n\r\nAfter the crash you can copy and paste the content of the terminal back here (or take a screenshot of the screen without using another camera with `Cmd+Shift+4`).\r\n",
      "user": {
        "login": "willcl-ark",
        "id": 6606587,
        "node_id": "MDQ6VXNlcjY2MDY1ODc=",
        "avatar_url": "https://avatars.githubusercontent.com/u/6606587?v=4",
        "gravatar_id": "",
        "url": "https://api.github.com/users/willcl-ark",
        "html_url": "https://github.com/willcl-ark",
        "followers_url": "https://api.github.com/users/willcl-ark/followers",
        "following_url": "https://api.github.com/users/willcl-ark/following%7B/other_user%7D",
        "gists_url": "https://api.github.com/users/willcl-ark/gists%7B/gist_id%7D",
        "starred_url": "https://api.github.com/users/willcl-ark/starred%7B/owner%7D%7B/repo%7D",
        "subscriptions_url": "https://api.github.com/users/willcl-ark/subscriptions",
        "organizations_url": "https://api.github.com/users/willcl-ark/orgs",
        "repos_url": "https://api.github.com/users/willcl-ark/repos",
        "events_url": "https://api.github.com/users/willcl-ark/events%7B/privacy%7D",
        "received_events_url": "https://api.github.com/users/willcl-ark/received_events",
        "type": "User",
        "site_admin": false
      },
      "html_url": "https://github.com/bitcoin/bitcoin/issues/27681#issuecomment-1551598180",
      "issue_url": "https://api.github.com/repos/bitcoin/bitcoin/issues/27681"
    },
    {
      "event": "commented",
      "id": 1551672136,
      "node_id": "IC_kwDOABII585cfKNI",
      "url": "https://api.github.com/repos/bitcoin/bitcoin/issues/comments/1551672136",
      "actor": {
        "login": "ddykeman1",
        "id": 52932653,
        "node_id": "MDQ6VXNlcjUyOTMyNjUz",
        "avatar_url": "https://avatars.githubusercontent.com/u/52932653?v=4",
        "gravatar_id": "",
        "url": "https://api.github.com/users/ddykeman1",
        "html_url": "https://github.com/ddykeman1",
        "followers_url": "https://api.github.com/users/ddykeman1/followers",
        "following_url": "https://api.github.com/users/ddykeman1/following%7B/other_user%7D",
        "gists_url": "https://api.github.com/users/ddykeman1/gists%7B/gist_id%7D",
        "starred_url": "https://api.github.com/users/ddykeman1/starred%7B/owner%7D%7B/repo%7D",
        "subscriptions_url": "https://api.github.com/users/ddykeman1/subscriptions",
        "organizations_url": "https://api.github.com/users/ddykeman1/orgs",
        "repos_url": "https://api.github.com/users/ddykeman1/repos",
        "events_url": "https://api.github.com/users/ddykeman1/events%7B/privacy%7D",
        "received_events_url": "https://api.github.com/users/ddykeman1/received_events",
        "type": "User",
        "site_admin": false
      },
      "commit_id": null,
      "commit_url": null,
      "created_at": "2023-05-17T16:04:14Z",
      "updated_at": "2023-05-17T16:04:14Z",
      "author_association": "NONE",
      "body": "Translated Report (Full Report Below)\r\n-------------------------------------\r\n\r\nProcess:               Bitcoin-Qt [844]\r\nPath:                  /Applications/Bitcoin-Qt.app/Contents/MacOS/Bitcoin-Qt\r\nIdentifier:            org.bitcoinfoundation.Bitcoin-Qt\r\nVersion:               24.0.1 (24.0.1)\r\nCode Type:             X86-64 (Native)\r\nParent Process:        launchd [1]\r\nUser ID:               501\r\n\r\nDate/Time:             2023-05-17 11:26:06.6243 -0400\r\nOS Version:            macOS 12.6.5 (21G531)\r\nReport Version:        12\r\nAnonymous UUID:        313168C1-E000-AAE8-529A-18F42A02E846\r\n\r\n\r\nTime Awake Since Boot: 7000 seconds\r\n\r\nSystem Integrity Protection: enabled\r\n\r\nCrashed Thread:        0  Dispatch queue: com.apple.main-thread\r\n\r\nException Type:        EXC_BAD_ACCESS (SIGSEGV)\r\nException Codes:       KERN_INVALID_ADDRESS at 0x0000000100000008\r\nException Codes:       0x0000000000000001, 0x0000000100000008\r\nException Note:        EXC_CORPSE_NOTIFY\r\n\r\nTermination Reason:    Namespace SIGNAL, Code 11 Segmentation fault: 11\r\nTerminating Process:   exc handler [844]\r\n\r\nVM Region Info: 0x100000008 is not in any region.  Bytes before following region: 143642616\r\n      REGION TYPE                    START - END         [ VSIZE] PRT/MAX SHRMOD  REGION DETAIL\r\n      UNUSED SPACE AT START\r\n--->  \r\n      __TEXT                      1088fd000-10a4d2000    [ 27.8M] r-x/r-x SM=COW  ...OS/Bitcoin-Qt\r\n\r\nThread 0 Crashed::  Dispatch queue: com.apple.main-thread\r\n0   Bitcoin-Qt                    \t       0x109730e61 0x1088fd000 + 14892641\r\n1   Bitcoin-Qt                    \t       0x108935d23 0x1088fd000 + 232739\r\n2   Bitcoin-Qt                    \t       0x1096281a3 0x1088fd000 + 13808035\r\n3   Bitcoin-Qt                    \t       0x10986bca8 0x1088fd000 + 16182440\r\n4   Bitcoin-Qt                    \t       0x1096282e7 0x1088fd000 + 13808359\r\n5   Bitcoin-Qt                    \t       0x1091e02f0 0x1088fd000 + 9319152\r\n6   Bitcoin-Qt                    \t       0x1091de8fb 0x1088fd000 + 9312507\r\n7   AppKit                        \t    0x7ff8205329a4 -[NSApplication _createDockMenu:] + 165\r\n8   AppKit                        \t    0x7ff8205328cc __44-[NSApplication _copyPublicPersistentUIInfo]_block_invoke + 42\r\n9   AppKit                        \t    0x7ff8207a981b ___NSMainRunLoopPerformBlockInModes_block_invoke + 25\r\n10  CoreFoundation                \t    0x7ff81d943cf1 __CFRUNLOOP_IS_CALLING_OUT_TO_A_BLOCK__ + 12\r\n11  CoreFoundation                \t    0x7ff81d943b9c __CFRunLoopDoBlocks + 445\r\n12  CoreFoundation                \t    0x7ff81d942f0d __CFRunLoopRun + 2609\r\n13  CoreFoundation                \t    0x7ff81d941e1c CFRunLoopRunSpecific + 562\r\n14  HIToolbox                     \t    0x7ff8265f15e6 RunCurrentEventLoopInMode + 292\r\n15  HIToolbox                     \t    0x7ff8265f134a ReceiveNextEventCommon + 594\r\n16  HIToolbox                     \t    0x7ff8265f10e5 _BlockUntilNextEventMatchingListInModeWithFilter + 70\r\n17  AppKit                        \t    0x7ff82037bf6d _DPSNextEvent + 927\r\n18  AppKit                        \t    0x7ff82037a62a -[NSApplication(NSEvent) _nextEventMatchingEventMask:untilDate:inMode:dequeue:] + 1394\r\n19  AppKit                        \t    0x7ff82036ccd9 -[NSApplication run] + 586\r\n20  Bitcoin-Qt                    \t       0x1091dc8b4 0x1088fd000 + 9304244\r\n21  Bitcoin-Qt                    \t       0x109604487 0x1088fd000 + 13661319\r\n22  Bitcoin-Qt                    \t       0x109607f82 0x1088fd000 + 13676418\r\n23  Bitcoin-Qt                    \t       0x10891b897 0x1088fd000 + 125079\r\n24  dyld                          \t       0x114ff352e start + 462\r\n\r\nThread 1:\r\n0   libsystem_pthread.dylib       \t    0x7ff81d878f48 start_wqthread + 0\r\n\r\nThread 2:\r\n0   libsystem_pthread.dylib       \t    0x7ff81d878f48 start_wqthread + 0\r\n\r\nThread 3::  Dispatch queue: */O\r\n0   libsystem_kernel.dylib        \t    0x7ff81d84122e __open + 10\r\n1   libsystem_kernel.dylib        \t    0x7ff81d849621 open + 204\r\n2   AppKit                        \t    0x7ff820530320 _NSPersistentUIOpenFileURL + 98\r\n3   AppKit                        \t    0x7ff8205339b8 -[NSPersistentUIFileManager openPersistentStateFile] + 140\r\n4   AppKit                        \t    0x7ff82053349f -[NSPersistentUIFileManager _writeRecords:withWindowInfos:flushingStaleData:] + 113\r\n5   AppKit                        \t    0x7ff820533240 __76-[NSPersistentUIFileManager writeRecords:withWindowInfos:flushingStaleData:]_block_invoke + 59\r\n6   AppKit                        \t    0x7ff8203800e1 ___NSPersistentUIDispatchQueueAsync_block_invoke + 28\r\n7   libdispatch.dylib             \t    0x7ff81d6c50cc _dispatch_call_block_and_release + 12\r\n8   libdispatch.dylib             \t    0x7ff81d6c6317 _dispatch_client_callout + 8\r\n9   libdispatch.dylib             \t    0x7ff81d6cc317 _dispatch_lane_serial_drain + 672\r\n10  libdispatch.dylib             \t    0x7ff81d6ccdfd _dispatch_lane_invoke + 366\r\n11  libdispatch.dylib             \t    0x7ff81d6d6eee _dispatch_workloop_worker_thread + 753\r\n12  libsystem_pthread.dylib       \t    0x7ff81d879fd0 _pthread_wqthread + 326\r\n13  libsystem_pthread.dylib       \t    0x7ff81d878f57 start_wqthread + 15\r\n\r\nThread 4:\r\n0   libsystem_pthread.dylib       \t    0x7ff81d878f48 start_wqthread + 0\r\n\r\nThread 5:: Thread (pooled)\r\n0   libsystem_kernel.dylib        \t    0x7ff81d8433da __psynch_cvwait + 10\r\n1   libsystem_pthread.dylib       \t    0x7ff81d87da6f _pthread_cond_wait + 1249\r\n2   Bitcoin-Qt                    \t       0x1094d1a50 0x1088fd000 + 12405328\r\n3   Bitcoin-Qt                    \t       0x1094d18ae 0x1088fd000 + 12404910\r\n4   Bitcoin-Qt                    \t       0x1094d17cb 0x1088fd000 + 12404683\r\n5   Bitcoin-Qt                    \t       0x1094cec6d 0x1088fd000 + 12393581\r\n6   Bitcoin-Qt                    \t       0x1094cb109 0x1088fd000 + 12378377\r\n7   libsystem_pthread.dylib       \t    0x7ff81d87d4e1 _pthread_start + 125\r\n8   libsystem_pthread.dylib       \t    0x7ff81d878f6b thread_start + 15\r\n\r\nThread 6:: Thread (pooled)\r\n0   libsystem_kernel.dylib        \t    0x7ff81d8433da __psynch_cvwait + 10\r\n1   libsystem_pthread.dylib       \t    0x7ff81d87da6f _pthread_cond_wait + 1249\r\n2   Bitcoin-Qt                    \t       0x1094d1a50 0x1088fd000 + 12405328\r\n3   Bitcoin-Qt                    \t       0x1094d18ae 0x1088fd000 + 12404910\r\n4   Bitcoin-Qt                    \t       0x1094d17cb 0x1088fd000 + 12404683\r\n5   Bitcoin-Qt                    \t       0x1094cec6d 0x1088fd000 + 12393581\r\n6   Bitcoin-Qt                    \t       0x1094cb109 0x1088fd000 + 12378377\r\n7   libsystem_pthread.dylib       \t    0x7ff81d87d4e1 _pthread_start + 125\r\n8   libsystem_pthread.dylib       \t    0x7ff81d878f6b thread_start + 15\r\n\r\nThread 7:: Thread (pooled)\r\n0   libsystem_kernel.dylib        \t    0x7ff81d8433da __psynch_cvwait + 10\r\n1   libsystem_pthread.dylib       \t    0x7ff81d87da6f _pthread_cond_wait + 1249\r\n2   Bitcoin-Qt                    \t       0x1094d1a50 0x1088fd000 + 12405328\r\n3   Bitcoin-Qt                    \t       0x1094d18ae 0x1088fd000 + 12404910\r\n4   Bitcoin-Qt                    \t       0x1094d17cb 0x1088fd000 + 12404683\r\n5   Bitcoin-Qt                    \t       0x1094cec6d 0x1088fd000 + 12393581\r\n6   Bitcoin-Qt                    \t       0x1094cb109 0x1088fd000 + 12378377\r\n7   libsystem_pthread.dylib       \t    0x7ff81d87d4e1 _pthread_start + 125\r\n8   libsystem_pthread.dylib       \t    0x7ff81d878f6b thread_start + 15\r\n\r\nThread 8:: Thread (pooled)\r\n0   libsystem_kernel.dylib        \t    0x7ff81d8433da __psynch_cvwait + 10\r\n1   libsystem_pthread.dylib       \t    0x7ff81d87da6f _pthread_cond_wait + 1249\r\n2   Bitcoin-Qt                    \t       0x1094d1a50 0x1088fd000 + 12405328\r\n3   Bitcoin-Qt                    \t       0x1094d18ae 0x1088fd000 + 12404910\r\n4   Bitcoin-Qt                    \t       0x1094d17cb 0x1088fd000 + 12404683\r\n5   Bitcoin-Qt                    \t       0x1094cec6d 0x1088fd000 + 12393581\r\n6   Bitcoin-Qt                    \t       0x1094cb109 0x1088fd000 + 12378377\r\n7   libsystem_pthread.dylib       \t    0x7ff81d87d4e1 _pthread_start + 125\r\n8   libsystem_pthread.dylib       \t    0x7ff81d878f6b thread_start + 15\r\n\r\nThread 9:: com.apple.CFSocket.private\r\n0   libsystem_kernel.dylib        \t    0x7ff81d848d4a __select + 10\r\n1   CoreFoundation                \t    0x7ff81d96b659 __CFSocketManager + 641\r\n2   libsystem_pthread.dylib       \t    0x7ff81d87d4e1 _pthread_start + 125\r\n3   libsystem_pthread.dylib       \t    0x7ff81d878f6b thread_start + 15\r\n\r\nThread 10:: b-shutoff\r\n0   libsystem_kernel.dylib        \t    0x7ff81d8420da __ulock_wait + 10\r\n1   libsystem_pthread.dylib       \t    0x7ff81d87ec95 _pthread_join + 358\r\n2   libc++.1.dylib                \t    0x7ff81d7e5a06 std::__1::thread::join() + 24\r\n3   Bitcoin-Qt                    \t       0x108ae6a9d 0x1088fd000 + 2005661\r\n4   Bitcoin-Qt                    \t       0x108a949d6 0x1088fd000 + 1669590\r\n5   Bitcoin-Qt                    \t       0x108946bd3 0x1088fd000 + 302035\r\n6   Bitcoin-Qt                    \t       0x109621a74 0x1088fd000 + 13781620\r\n7   Bitcoin-Qt                    \t       0x10973a856 0x1088fd000 + 14932054\r\n8   Bitcoin-Qt                    \t       0x10973bbb2 0x1088fd000 + 14937010\r\n9   Bitcoin-Qt                    \t       0x109607a36 0x1088fd000 + 13675062\r\n10  Bitcoin-Qt                    \t       0x109608b93 0x1088fd000 + 13679507\r\n11  Bitcoin-Qt                    \t       0x10964ba89 0x1088fd000 + 13953673\r\n12  Bitcoin-Qt                    \t       0x109604487 0x1088fd000 + 13661319\r\n13  Bitcoin-Qt                    \t       0x1094ca7c3 0x1088fd000 + 12376003\r\n14  Bitcoin-Qt                    \t       0x1094cb109 0x1088fd000 + 12378377\r\n15  libsystem_pthread.dylib       \t    0x7ff81d87d4e1 _pthread_start + 125\r\n16  libsystem_pthread.dylib       \t    0x7ff81d878f6b thread_start + 15\r\n\r\nThread 11:: b-scriptch.0\r\n0   libsystem_kernel.dylib        \t    0x7ff81d8433da __psynch_cvwait + 10\r\n1   libsystem_pthread.dylib       \t    0x7ff81d87da6f _pthread_cond_wait + 1249\r\n2   libc++.1.dylib                \t    0x7ff81d7dbd22 std::__1::condition_variable::wait(std::__1::unique_lock<std::__1::mutex>&) + 18\r\n3   Bitcoin-Qt                    \t       0x108d6d213 0x1088fd000 + 4653587\r\n4   Bitcoin-Qt                    \t       0x108d6d04d 0x1088fd000 + 4653133\r\n5   libsystem_pthread.dylib       \t    0x7ff81d87d4e1 _pthread_start + 125\r\n6   libsystem_pthread.dylib       \t    0x7ff81d878f6b thread_start + 15\r\n\r\nThread 12:: b-scriptch.1\r\n0   libsystem_kernel.dylib        \t    0x7ff81d8433da __psynch_cvwait + 10\r\n1   libsystem_pthread.dylib       \t    0x7ff81d87da6f _pthread_cond_wait + 1249\r\n2   libc++.1.dylib                \t    0x7ff81d7dbd22 std::__1::condition_variable::wait(std::__1::unique_lock<std::__1::mutex>&) + 18\r\n3   Bitcoin-Qt                    \t       0x108d6d213 0x1088fd000 + 4653587\r\n4   Bitcoin-Qt                    \t       0x108d6d04d 0x1088fd000 + 4653133\r\n5   libsystem_pthread.dylib       \t    0x7ff81d87d4e1 _pthread_start + 125\r\n6   libsystem_pthread.dylib       \t    0x7ff81d878f6b thread_start + 15\r\n\r\nThread 13:: b-scriptch.2\r\n0   libsystem_kernel.dylib        \t    0x7ff81d8433da __psynch_cvwait + 10\r\n1   libsystem_pthread.dylib       \t    0x7ff81d87da6f _pthread_cond_wait + 1249\r\n2   libc++.1.dylib                \t    0x7ff81d7dbd22 std::__1::condition_variable::wait(std::__1::unique_lock<std::__1::mutex>&) + 18\r\n3   Bitcoin-Qt                    \t       0x108d6d213 0x1088fd000 + 4653587\r\n4   Bitcoin-Qt                    \t       0x108d6d04d 0x1088fd000 + 4653133\r\n5   libsystem_pthread.dylib       \t    0x7ff81d87d4e1 _pthread_start + 125\r\n6   libsystem_pthread.dylib       \t    0x7ff81d878f6b thread_start + 15\r\n\r\nThread 14:: b-scheduler\r\n0   libsystem_kernel.dylib        \t    0x7ff81d8433da __psynch_cvwait + 10\r\n1   libsystem_pthread.dylib       \t    0x7ff81d87da6f _pthread_cond_wait + 1249\r\n2   libc++.1.dylib                \t    0x7ff81d7dbdb3 std::__1::condition_variable::__do_timed_wait(std::__1::unique_lock<std::__1::mutex>&, std::__1::chrono::time_point<std::__1::chrono::system_clock, std::__1::chrono::duration<long long, std::__1::ratio<1l, 1000000000l> > >) + 93\r\n3   Bitcoin-Qt                    \t       0x1090beaad 0x1088fd000 + 8133293\r\n4   Bitcoin-Qt                    \t       0x1090be77b 0x1088fd000 + 8132475\r\n5   Bitcoin-Qt                    \t       0x108dccdc2 0x1088fd000 + 5045698\r\n6   Bitcoin-Qt                    \t       0x108abbaa7 0x1088fd000 + 1829543\r\n7   libsystem_pthread.dylib       \t    0x7ff81d87d4e1 _pthread_start + 125\r\n8   libsystem_pthread.dylib       \t    0x7ff81d878f6b thread_start + 15\r\n\r\nThread 15:: com.apple.NSEventThread\r\n0   libsystem_kernel.dylib        \t    0x7ff81d84096a mach_msg_trap + 10\r\n1   libsystem_kernel.dylib        \t    0x7ff81d840cd8 mach_msg + 56\r\n2   CoreFoundation                \t    0x7ff81d94434d __CFRunLoopServiceMachPort + 319\r\n3   CoreFoundation                \t    0x7ff81d9429d8 __CFRunLoopRun + 1276\r\n4   CoreFoundation                \t    0x7ff81d941e1c CFRunLoopRunSpecific + 562\r\n5   AppKit                        \t    0x7ff8204e998e _NSEventThread + 132\r\n6   libsystem_pthread.dylib       \t    0x7ff81d87d4e1 _pthread_start + 125\r\n7   libsystem_pthread.dylib       \t    0x7ff81d878f6b thread_start + 15\r\n\r\nThread 16:\r\n0   libsystem_kernel.dylib        \t    0x7ff81d8433da __psynch_cvwait + 10\r\n1   libsystem_pthread.dylib       \t    0x7ff81d87da6f _pthread_cond_wait + 1249\r\n2   libc++.1.dylib                \t    0x7ff81d7dbd22 std::__1::condition_variable::wait(std::__1::unique_lock<std::__1::mutex>&) + 18\r\n3   Bitcoin-Qt                    \t       0x109192863 0x1088fd000 + 9001059\r\n4   Bitcoin-Qt                    \t       0x1091927ed 0x1088fd000 + 9000941\r\n5   Bitcoin-Qt                    \t       0x10919291e 0x1088fd000 + 9001246\r\n6   libsystem_pthread.dylib       \t    0x7ff81d87d4e1 _pthread_start + 125\r\n7   libsystem_pthread.dylib       \t    0x7ff81d878f6b thread_start + 15\r\n\r\nThread 17:: b-opencon\r\n0   libsystem_kernel.dylib        \t    0x7ff81d848d4a __select + 10\r\n1   Bitcoin-Qt                    \t       0x108da6bb4 0x1088fd000 + 4889524\r\n2   Bitcoin-Qt                    \t       0x108da67bc 0x1088fd000 + 4888508\r\n3   Bitcoin-Qt                    \t       0x109088b2b 0x1088fd000 + 7912235\r\n4   Bitcoin-Qt                    \t       0x108ace1c2 0x1088fd000 + 1905090\r\n5   Bitcoin-Qt                    \t       0x108ad63e3 0x1088fd000 + 1938403\r\n6   Bitcoin-Qt                    \t       0x108adde87 0x1088fd000 + 1969799\r\n7   Bitcoin-Qt                    \t       0x108af456e 0x1088fd000 + 2061678\r\n8   Bitcoin-Qt                    \t       0x108dccdc2 0x1088fd000 + 5045698\r\n9   Bitcoin-Qt                    \t       0x108af3ff2 0x1088fd000 + 2060274\r\n10  libsystem_pthread.dylib       \t    0x7ff81d87d4e1 _pthread_start + 125\r\n11  libsystem_pthread.dylib       \t    0x7ff81d878f6b thread_start + 15\r\n\r\nThread 18:\r\n0   libsystem_pthread.dylib       \t    0x7ff81d878f48 start_wqthread + 0\r\n\r\nThread 19::  Dispatch queue: NSPersistentUI Window Snapshotting IO\r\n0   libsystem_platform.dylib      \t    0x7ff81d890629 _platform_bzero$VARIANT$Haswell + 41\r\n1   libz.1.dylib                  \t    0x7ff8285a139d 0x7ff828597000 + 41885\r\n2   libz.1.dylib                  \t    0x7ff82859a195 deflateInit2_ + 537\r\n3   libz.1.dylib                  \t    0x7ff828599f76 deflateInit_ + 36\r\n4   AppKit                        \t    0x7ff82052f9f4 -[NSPersistentUIWindowSnapshotter writeWindowSnapshot:length:width:height:bytesPerRow:toFile:inDirectory:encryptingWithKey:uuid:checksum:fd:] + 668\r\n5   AppKit                        \t    0x7ff820e8f716 __100-[NSPersistentUIWindowSnapshotter captureAndWriteSnapshotForWindowNumber:forWindowID:waitUntilDone:]_block_invoke.95 + 225\r\n6   AppKit                        \t    0x7ff820e902f0 ___NSPersistentUIDispatchQueueAsync_block_invoke + 28\r\n7   libdispatch.dylib             \t    0x7ff81d6c50cc _dispatch_call_block_and_release + 12\r\n",
      "user": {
        "login": "ddykeman1",
        "id": 52932653,
        "node_id": "MDQ6VXNlcjUyOTMyNjUz",
        "avatar_url": "https://avatars.githubusercontent.com/u/52932653?v=4",
        "gravatar_id": "",
        "url": "https://api.github.com/users/ddykeman1",
        "html_url": "https://github.com/ddykeman1",
        "followers_url": "https://api.github.com/users/ddykeman1/followers",
        "following_url": "https://api.github.com/users/ddykeman1/following%7B/other_user%7D",
        "gists_url": "https://api.github.com/users/ddykeman1/gists%7B/gist_id%7D",
        "starred_url": "https://api.github.com/users/ddykeman1/starred%7B/owner%7D%7B/repo%7D",
        "subscriptions_url": "https://api.github.com/users/ddykeman1/subscriptions",
        "organizations_url": "https://api.github.com/users/ddykeman1/orgs",
        "repos_url": "https://api.github.com/users/ddykeman1/repos",
        "events_url": "https://api.github.com/users/ddykeman1/events%7B/privacy%7D",
        "received_events_url": "https://api.github.com/users/ddykeman1/received_events",
        "type": "User",
        "site_admin": false
      },
      "html_url": "https://github.com/bitcoin/bitcoin/issues/27681#issuecomment-1551672136",
      "issue_url": "https://api.github.com/repos/bitcoin/bitcoin/issues/27681"
    },
    {
      "event": "commented",
      "id": 1552912525,
      "node_id": "IC_kwDOABII585cj5CN",
      "url": "https://api.github.com/repos/bitcoin/bitcoin/issues/comments/1552912525",
      "actor": {
        "login": "fanquake",
        "id": 863730,
        "node_id": "MDQ6VXNlcjg2MzczMA==",
        "avatar_url": "https://avatars.githubusercontent.com/u/863730?v=4",
        "gravatar_id": "",
        "url": "https://api.github.com/users/fanquake",
        "html_url": "https://github.com/fanquake",
        "followers_url": "https://api.github.com/users/fanquake/followers",
        "following_url": "https://api.github.com/users/fanquake/following%7B/other_user%7D",
        "gists_url": "https://api.github.com/users/fanquake/gists%7B/gist_id%7D",
        "starred_url": "https://api.github.com/users/fanquake/starred%7B/owner%7D%7B/repo%7D",
        "subscriptions_url": "https://api.github.com/users/fanquake/subscriptions",
        "organizations_url": "https://api.github.com/users/fanquake/orgs",
        "repos_url": "https://api.github.com/users/fanquake/repos",
        "events_url": "https://api.github.com/users/fanquake/events%7B/privacy%7D",
        "received_events_url": "https://api.github.com/users/fanquake/received_events",
        "type": "User",
        "site_admin": false
      },
      "commit_id": null,
      "commit_url": null,
      "created_at": "2023-05-18T11:21:34Z",
      "updated_at": "2023-05-18T11:21:34Z",
      "author_association": "MEMBER",
      "body": "Thanks for the additional info. This is clearly a macOS, GUI-specific, issue, so I think this bug report can be moved to the GUI repo: https://github.com/bitcoin-core/gui, and someone there might be able to follow up?",
      "user": {
        "login": "fanquake",
        "id": 863730,
        "node_id": "MDQ6VXNlcjg2MzczMA==",
        "avatar_url": "https://avatars.githubusercontent.com/u/863730?v=4",
        "gravatar_id": "",
        "url": "https://api.github.com/users/fanquake",
        "html_url": "https://github.com/fanquake",
        "followers_url": "https://api.github.com/users/fanquake/followers",
        "following_url": "https://api.github.com/users/fanquake/following%7B/other_user%7D",
        "gists_url": "https://api.github.com/users/fanquake/gists%7B/gist_id%7D",
        "starred_url": "https://api.github.com/users/fanquake/starred%7B/owner%7D%7B/repo%7D",
        "subscriptions_url": "https://api.github.com/users/fanquake/subscriptions",
        "organizations_url": "https://api.github.com/users/fanquake/orgs",
        "repos_url": "https://api.github.com/users/fanquake/repos",
        "events_url": "https://api.github.com/users/fanquake/events%7B/privacy%7D",
        "received_events_url": "https://api.github.com/users/fanquake/received_events",
        "type": "User",
        "site_admin": false
      },
      "html_url": "https://github.com/bitcoin/bitcoin/issues/27681#issuecomment-1552912525",
      "issue_url": "https://api.github.com/repos/bitcoin/bitcoin/issues/27681"
    },
    {
      "event": "commented",
      "id": 1552916702,
      "node_id": "IC_kwDOABII585cj6De",
      "url": "https://api.github.com/repos/bitcoin/bitcoin/issues/comments/1552916702",
      "actor": {
        "login": "MarcoFalke",
        "id": 6399679,
        "node_id": "MDQ6VXNlcjYzOTk2Nzk=",
        "avatar_url": "https://avatars.githubusercontent.com/u/6399679?v=4",
        "gravatar_id": "",
        "url": "https://api.github.com/users/MarcoFalke",
        "html_url": "https://github.com/MarcoFalke",
        "followers_url": "https://api.github.com/users/MarcoFalke/followers",
        "following_url": "https://api.github.com/users/MarcoFalke/following%7B/other_user%7D",
        "gists_url": "https://api.github.com/users/MarcoFalke/gists%7B/gist_id%7D",
        "starred_url": "https://api.github.com/users/MarcoFalke/starred%7B/owner%7D%7B/repo%7D",
        "subscriptions_url": "https://api.github.com/users/MarcoFalke/subscriptions",
        "organizations_url": "https://api.github.com/users/MarcoFalke/orgs",
        "repos_url": "https://api.github.com/users/MarcoFalke/repos",
        "events_url": "https://api.github.com/users/MarcoFalke/events%7B/privacy%7D",
        "received_events_url": "https://api.github.com/users/MarcoFalke/received_events",
        "type": "User",
        "site_admin": false
      },
      "commit_id": null,
      "commit_url": null,
      "created_at": "2023-05-18T11:26:05Z",
      "updated_at": "2023-05-18T11:26:05Z",
      "author_association": "MEMBER",
      "body": "Is it confirmed that the daemon `bitcoind` is running successfully?",
      "user": {
        "login": "MarcoFalke",
        "id": 6399679,
        "node_id": "MDQ6VXNlcjYzOTk2Nzk=",
        "avatar_url": "https://avatars.githubusercontent.com/u/6399679?v=4",
        "gravatar_id": "",
        "url": "https://api.github.com/users/MarcoFalke",
        "html_url": "https://github.com/MarcoFalke",
        "followers_url": "https://api.github.com/users/MarcoFalke/followers",
        "following_url": "https://api.github.com/users/MarcoFalke/following%7B/other_user%7D",
        "gists_url": "https://api.github.com/users/MarcoFalke/gists%7B/gist_id%7D",
        "starred_url": "https://api.github.com/users/MarcoFalke/starred%7B/owner%7D%7B/repo%7D",
        "subscriptions_url": "https://api.github.com/users/MarcoFalke/subscriptions",
        "organizations_url": "https://api.github.com/users/MarcoFalke/orgs",
        "repos_url": "https://api.github.com/users/MarcoFalke/repos",
        "events_url": "https://api.github.com/users/MarcoFalke/events%7B/privacy%7D",
        "received_events_url": "https://api.github.com/users/MarcoFalke/received_events",
        "type": "User",
        "site_admin": false
      },
      "html_url": "https://github.com/bitcoin/bitcoin/issues/27681#issuecomment-1552916702",
      "issue_url": "https://api.github.com/repos/bitcoin/bitcoin/issues/27681"
    },
    {
      "event": "commented",
      "id": 1552920830,
      "node_id": "IC_kwDOABII585cj7D-",
      "url": "https://api.github.com/repos/bitcoin/bitcoin/issues/comments/1552920830",
      "actor": {
        "login": "fanquake",
        "id": 863730,
        "node_id": "MDQ6VXNlcjg2MzczMA==",
        "avatar_url": "https://avatars.githubusercontent.com/u/863730?v=4",
        "gravatar_id": "",
        "url": "https://api.github.com/users/fanquake",
        "html_url": "https://github.com/fanquake",
        "followers_url": "https://api.github.com/users/fanquake/followers",
        "following_url": "https://api.github.com/users/fanquake/following%7B/other_user%7D",
        "gists_url": "https://api.github.com/users/fanquake/gists%7B/gist_id%7D",
        "starred_url": "https://api.github.com/users/fanquake/starred%7B/owner%7D%7B/repo%7D",
        "subscriptions_url": "https://api.github.com/users/fanquake/subscriptions",
        "organizations_url": "https://api.github.com/users/fanquake/orgs",
        "repos_url": "https://api.github.com/users/fanquake/repos",
        "events_url": "https://api.github.com/users/fanquake/events%7B/privacy%7D",
        "received_events_url": "https://api.github.com/users/fanquake/received_events",
        "type": "User",
        "site_admin": false
      },
      "commit_id": null,
      "commit_url": null,
      "created_at": "2023-05-18T11:30:22Z",
      "updated_at": "2023-05-18T11:30:22Z",
      "author_association": "MEMBER",
      "body": "I can't see a reason that it wouldn't be (absent a new report), and the crash here is coming from objective C code that isn't part of bitcoind.",
      "user": {
        "login": "fanquake",
        "id": 863730,
        "node_id": "MDQ6VXNlcjg2MzczMA==",
        "avatar_url": "https://avatars.githubusercontent.com/u/863730?v=4",
        "gravatar_id": "",
        "url": "https://api.github.com/users/fanquake",
        "html_url": "https://github.com/fanquake",
        "followers_url": "https://api.github.com/users/fanquake/followers",
        "following_url": "https://api.github.com/users/fanquake/following%7B/other_user%7D",
        "gists_url": "https://api.github.com/users/fanquake/gists%7B/gist_id%7D",
        "starred_url": "https://api.github.com/users/fanquake/starred%7B/owner%7D%7B/repo%7D",
        "subscriptions_url": "https://api.github.com/users/fanquake/subscriptions",
        "organizations_url": "https://api.github.com/users/fanquake/orgs",
        "repos_url": "https://api.github.com/users/fanquake/repos",
        "events_url": "https://api.github.com/users/fanquake/events%7B/privacy%7D",
        "received_events_url": "https://api.github.com/users/fanquake/received_events",
        "type": "User",
        "site_admin": false
      },
      "html_url": "https://github.com/bitcoin/bitcoin/issues/27681#issuecomment-1552920830",
      "issue_url": "https://api.github.com/repos/bitcoin/bitcoin/issues/27681"
    },
    {
      "event": "cross-referenced",
      "id": null,
      "node_id": null,
      "url": null,
      "actor": {
        "login": "fanquake",
        "id": 863730,
        "node_id": "MDQ6VXNlcjg2MzczMA==",
        "avatar_url": "https://avatars.githubusercontent.com/u/863730?v=4",
        "gravatar_id": "",
        "url": "https://api.github.com/users/fanquake",
        "html_url": "https://github.com/fanquake",
        "followers_url": "https://api.github.com/users/fanquake/followers",
        "following_url": "https://api.github.com/users/fanquake/following%7B/other_user%7D",
        "gists_url": "https://api.github.com/users/fanquake/gists%7B/gist_id%7D",
        "starred_url": "https://api.github.com/users/fanquake/starred%7B/owner%7D%7B/repo%7D",
        "subscriptions_url": "https://api.github.com/users/fanquake/subscriptions",
        "organizations_url": "https://api.github.com/users/fanquake/orgs",
        "repos_url": "https://api.github.com/users/fanquake/repos",
        "events_url": "https://api.github.com/users/fanquake/events%7B/privacy%7D",
        "received_events_url": "https://api.github.com/users/fanquake/received_events",
        "type": "User",
        "site_admin": false
      },
      "commit_id": null,
      "commit_url": null,
      "created_at": "2023-05-18T13:03:48Z",
      "updated_at": "2023-05-18T13:03:48Z",
      "source": {
        "issue": {
          "id": 1715606233,
          "node_id": "I_kwDOEEET9c5mQhLZ",
          "url": "https://api.github.com/repos/bitcoin-core/gui/issues/731",
          "repository_url": "https://api.github.com/repos/bitcoin-core/gui",
          "labels_url": "https://api.github.com/repos/bitcoin-core/gui/issues/731/labels%7B/name%7D",
          "comments_url": "https://api.github.com/repos/bitcoin-core/gui/issues/731/comments",
          "events_url": "https://api.github.com/repos/bitcoin-core/gui/issues/731/events",
          "html_url": "https://github.com/bitcoin-core/gui/issues/731",
          "number": 731,
          "state": "open",
          "state_reason": null,
          "title": "crash on macOS 12.6.5",
          "body": "Moved from https://github.com/bitcoin/bitcoin/issues/27681.\r\n\r\n\r\n### What version of Bitcoin Core are you using?\r\n\r\nV22.0.0 and 24.0.1.\r\n\r\n### Operating system and version\r\n\r\nMac osx 12.6.5\r\n\r\n### Machine specifications\r\n\r\n2.8 dual core i5 8 gb ram  high speed internet \r\n1tb drive \r\n\r\n```bash\r\nTranslated Report (Full Report Below)\r\n-------------------------------------\r\n\r\nProcess:               Bitcoin-Qt [844]\r\nPath:                  /Applications/Bitcoin-Qt.app/Contents/MacOS/Bitcoin-Qt\r\nIdentifier:            org.bitcoinfoundation.Bitcoin-Qt\r\nVersion:               24.0.1 (24.0.1)\r\nCode Type:             X86-64 (Native)\r\nParent Process:        launchd [1]\r\nUser ID:               501\r\n\r\nDate/Time:             2023-05-17 11:26:06.6243 -0400\r\nOS Version:            macOS 12.6.5 (21G531)\r\nReport Version:        12\r\nAnonymous UUID:        313168C1-E000-AAE8-529A-18F42A02E846\r\n\r\n\r\nTime Awake Since Boot: 7000 seconds\r\n\r\nSystem Integrity Protection: enabled\r\n\r\nCrashed Thread:        0  Dispatch queue: com.apple.main-thread\r\n\r\nException Type:        EXC_BAD_ACCESS (SIGSEGV)\r\nException Codes:       KERN_INVALID_ADDRESS at 0x0000000100000008\r\nException Codes:       0x0000000000000001, 0x0000000100000008\r\nException Note:        EXC_CORPSE_NOTIFY\r\n\r\nTermination Reason:    Namespace SIGNAL, Code 11 Segmentation fault: 11\r\nTerminating Process:   exc handler [844]\r\n\r\nVM Region Info: 0x100000008 is not in any region.  Bytes before following region: 143642616\r\n      REGION TYPE                    START - END         [ VSIZE] PRT/MAX SHRMOD  REGION DETAIL\r\n      UNUSED SPACE AT START\r\n--->  \r\n      __TEXT                      1088fd000-10a4d2000    [ 27.8M] r-x/r-x SM=COW  ...OS/Bitcoin-Qt\r\n\r\nThread 0 Crashed::  Dispatch queue: com.apple.main-thread\r\n0   Bitcoin-Qt                    \t       0x109730e61 0x1088fd000 + 14892641\r\n1   Bitcoin-Qt                    \t       0x108935d23 0x1088fd000 + 232739\r\n2   Bitcoin-Qt                    \t       0x1096281a3 0x1088fd000 + 13808035\r\n3   Bitcoin-Qt                    \t       0x10986bca8 0x1088fd000 + 16182440\r\n4   Bitcoin-Qt                    \t       0x1096282e7 0x1088fd000 + 13808359\r\n5   Bitcoin-Qt                    \t       0x1091e02f0 0x1088fd000 + 9319152\r\n6   Bitcoin-Qt                    \t       0x1091de8fb 0x1088fd000 + 9312507\r\n7   AppKit                        \t    0x7ff8205329a4 -[NSApplication _createDockMenu:] + 165\r\n8   AppKit                        \t    0x7ff8205328cc __44-[NSApplication _copyPublicPersistentUIInfo]_block_invoke + 42\r\n9   AppKit                        \t    0x7ff8207a981b ___NSMainRunLoopPerformBlockInModes_block_invoke + 25\r\n10  CoreFoundation                \t    0x7ff81d943cf1 __CFRUNLOOP_IS_CALLING_OUT_TO_A_BLOCK__ + 12\r\n11  CoreFoundation                \t    0x7ff81d943b9c __CFRunLoopDoBlocks + 445\r\n12  CoreFoundation                \t    0x7ff81d942f0d __CFRunLoopRun + 2609\r\n13  CoreFoundation                \t    0x7ff81d941e1c CFRunLoopRunSpecific + 562\r\n14  HIToolbox                     \t    0x7ff8265f15e6 RunCurrentEventLoopInMode + 292\r\n15  HIToolbox                     \t    0x7ff8265f134a ReceiveNextEventCommon + 594\r\n16  HIToolbox                     \t    0x7ff8265f10e5 _BlockUntilNextEventMatchingListInModeWithFilter + 70\r\n17  AppKit                        \t    0x7ff82037bf6d _DPSNextEvent + 927\r\n18  AppKit                        \t    0x7ff82037a62a -[NSApplication(NSEvent) _nextEventMatchingEventMask:untilDate:inMode:dequeue:] + 1394\r\n19  AppKit                        \t    0x7ff82036ccd9 -[NSApplication run] + 586\r\n20  Bitcoin-Qt                    \t       0x1091dc8b4 0x1088fd000 + 9304244\r\n21  Bitcoin-Qt                    \t       0x109604487 0x1088fd000 + 13661319\r\n22  Bitcoin-Qt                    \t       0x109607f82 0x1088fd000 + 13676418\r\n23  Bitcoin-Qt                    \t       0x10891b897 0x1088fd000 + 125079\r\n24  dyld                          \t       0x114ff352e start + 462\r\n\r\nThread 1:\r\n0   libsystem_pthread.dylib       \t    0x7ff81d878f48 start_wqthread + 0\r\n\r\nThread 2:\r\n0   libsystem_pthread.dylib       \t    0x7ff81d878f48 start_wqthread + 0\r\n\r\nThread 3::  Dispatch queue: */O\r\n0   libsystem_kernel.dylib        \t    0x7ff81d84122e __open + 10\r\n1   libsystem_kernel.dylib        \t    0x7ff81d849621 open + 204\r\n2   AppKit                        \t    0x7ff820530320 _NSPersistentUIOpenFileURL + 98\r\n3   AppKit                        \t    0x7ff8205339b8 -[NSPersistentUIFileManager openPersistentStateFile] + 140\r\n4   AppKit                        \t    0x7ff82053349f -[NSPersistentUIFileManager _writeRecords:withWindowInfos:flushingStaleData:] + 113\r\n5   AppKit                        \t    0x7ff820533240 __76-[NSPersistentUIFileManager writeRecords:withWindowInfos:flushingStaleData:]_block_invoke + 59\r\n6   AppKit                        \t    0x7ff8203800e1 ___NSPersistentUIDispatchQueueAsync_block_invoke + 28\r\n7   libdispatch.dylib             \t    0x7ff81d6c50cc _dispatch_call_block_and_release + 12\r\n8   libdispatch.dylib             \t    0x7ff81d6c6317 _dispatch_client_callout + 8\r\n9   libdispatch.dylib             \t    0x7ff81d6cc317 _dispatch_lane_serial_drain + 672\r\n10  libdispatch.dylib             \t    0x7ff81d6ccdfd _dispatch_lane_invoke + 366\r\n11  libdispatch.dylib             \t    0x7ff81d6d6eee _dispatch_workloop_worker_thread + 753\r\n12  libsystem_pthread.dylib       \t    0x7ff81d879fd0 _pthread_wqthread + 326\r\n13  libsystem_pthread.dylib       \t    0x7ff81d878f57 start_wqthread + 15\r\n\r\nThread 4:\r\n0   libsystem_pthread.dylib       \t    0x7ff81d878f48 start_wqthread + 0\r\n\r\nThread 5:: Thread (pooled)\r\n0   libsystem_kernel.dylib        \t    0x7ff81d8433da __psynch_cvwait + 10\r\n1   libsystem_pthread.dylib       \t    0x7ff81d87da6f _pthread_cond_wait + 1249\r\n2   Bitcoin-Qt                    \t       0x1094d1a50 0x1088fd000 + 12405328\r\n3   Bitcoin-Qt                    \t       0x1094d18ae 0x1088fd000 + 12404910\r\n4   Bitcoin-Qt                    \t       0x1094d17cb 0x1088fd000 + 12404683\r\n5   Bitcoin-Qt                    \t       0x1094cec6d 0x1088fd000 + 12393581\r\n6   Bitcoin-Qt                    \t       0x1094cb109 0x1088fd000 + 12378377\r\n7   libsystem_pthread.dylib       \t    0x7ff81d87d4e1 _pthread_start + 125\r\n8   libsystem_pthread.dylib       \t    0x7ff81d878f6b thread_start + 15\r\n\r\nThread 6:: Thread (pooled)\r\n0   libsystem_kernel.dylib        \t    0x7ff81d8433da __psynch_cvwait + 10\r\n1   libsystem_pthread.dylib       \t    0x7ff81d87da6f _pthread_cond_wait + 1249\r\n2   Bitcoin-Qt                    \t       0x1094d1a50 0x1088fd000 + 12405328\r\n3   Bitcoin-Qt                    \t       0x1094d18ae 0x1088fd000 + 12404910\r\n4   Bitcoin-Qt                    \t       0x1094d17cb 0x1088fd000 + 12404683\r\n5   Bitcoin-Qt                    \t       0x1094cec6d 0x1088fd000 + 12393581\r\n6   Bitcoin-Qt                    \t       0x1094cb109 0x1088fd000 + 12378377\r\n7   libsystem_pthread.dylib       \t    0x7ff81d87d4e1 _pthread_start + 125\r\n8   libsystem_pthread.dylib       \t    0x7ff81d878f6b thread_start + 15\r\n\r\nThread 7:: Thread (pooled)\r\n0   libsystem_kernel.dylib        \t    0x7ff81d8433da __psynch_cvwait + 10\r\n1   libsystem_pthread.dylib       \t    0x7ff81d87da6f _pthread_cond_wait + 1249\r\n2   Bitcoin-Qt                    \t       0x1094d1a50 0x1088fd000 + 12405328\r\n3   Bitcoin-Qt                    \t       0x1094d18ae 0x1088fd000 + 12404910\r\n4   Bitcoin-Qt                    \t       0x1094d17cb 0x1088fd000 + 12404683\r\n5   Bitcoin-Qt                    \t       0x1094cec6d 0x1088fd000 + 12393581\r\n6   Bitcoin-Qt                    \t       0x1094cb109 0x1088fd000 + 12378377\r\n7   libsystem_pthread.dylib       \t    0x7ff81d87d4e1 _pthread_start + 125\r\n8   libsystem_pthread.dylib       \t    0x7ff81d878f6b thread_start + 15\r\n\r\nThread 8:: Thread (pooled)\r\n0   libsystem_kernel.dylib        \t    0x7ff81d8433da __psynch_cvwait + 10\r\n1   libsystem_pthread.dylib       \t    0x7ff81d87da6f _pthread_cond_wait + 1249\r\n2   Bitcoin-Qt                    \t       0x1094d1a50 0x1088fd000 + 12405328\r\n3   Bitcoin-Qt                    \t       0x1094d18ae 0x1088fd000 + 12404910\r\n4   Bitcoin-Qt                    \t       0x1094d17cb 0x1088fd000 + 12404683\r\n5   Bitcoin-Qt                    \t       0x1094cec6d 0x1088fd000 + 12393581\r\n6   Bitcoin-Qt                    \t       0x1094cb109 0x1088fd000 + 12378377\r\n7   libsystem_pthread.dylib       \t    0x7ff81d87d4e1 _pthread_start + 125\r\n8   libsystem_pthread.dylib       \t    0x7ff81d878f6b thread_start + 15\r\n\r\nThread 9:: com.apple.CFSocket.private\r\n0   libsystem_kernel.dylib        \t    0x7ff81d848d4a __select + 10\r\n1   CoreFoundation                \t    0x7ff81d96b659 __CFSocketManager + 641\r\n2   libsystem_pthread.dylib       \t    0x7ff81d87d4e1 _pthread_start + 125\r\n3   libsystem_pthread.dylib       \t    0x7ff81d878f6b thread_start + 15\r\n\r\nThread 10:: b-shutoff\r\n0   libsystem_kernel.dylib        \t    0x7ff81d8420da __ulock_wait + 10\r\n1   libsystem_pthread.dylib       \t    0x7ff81d87ec95 _pthread_join + 358\r\n2   libc++.1.dylib                \t    0x7ff81d7e5a06 std::__1::thread::join() + 24\r\n3   Bitcoin-Qt                    \t       0x108ae6a9d 0x1088fd000 + 2005661\r\n4   Bitcoin-Qt                    \t       0x108a949d6 0x1088fd000 + 1669590\r\n5   Bitcoin-Qt                    \t       0x108946bd3 0x1088fd000 + 302035\r\n6   Bitcoin-Qt                    \t       0x109621a74 0x1088fd000 + 13781620\r\n7   Bitcoin-Qt                    \t       0x10973a856 0x1088fd000 + 14932054\r\n8   Bitcoin-Qt                    \t       0x10973bbb2 0x1088fd000 + 14937010\r\n9   Bitcoin-Qt                    \t       0x109607a36 0x1088fd000 + 13675062\r\n10  Bitcoin-Qt                    \t       0x109608b93 0x1088fd000 + 13679507\r\n11  Bitcoin-Qt                    \t       0x10964ba89 0x1088fd000 + 13953673\r\n12  Bitcoin-Qt                    \t       0x109604487 0x1088fd000 + 13661319\r\n13  Bitcoin-Qt                    \t       0x1094ca7c3 0x1088fd000 + 12376003\r\n14  Bitcoin-Qt                    \t       0x1094cb109 0x1088fd000 + 12378377\r\n15  libsystem_pthread.dylib       \t    0x7ff81d87d4e1 _pthread_start + 125\r\n16  libsystem_pthread.dylib       \t    0x7ff81d878f6b thread_start + 15\r\n\r\nThread 11:: b-scriptch.0\r\n0   libsystem_kernel.dylib        \t    0x7ff81d8433da __psynch_cvwait + 10\r\n1   libsystem_pthread.dylib       \t    0x7ff81d87da6f _pthread_cond_wait + 1249\r\n2   libc++.1.dylib                \t    0x7ff81d7dbd22 std::__1::condition_variable::wait(std::__1::unique_lock<std::__1::mutex>&) + 18\r\n3   Bitcoin-Qt                    \t       0x108d6d213 0x1088fd000 + 4653587\r\n4   Bitcoin-Qt                    \t       0x108d6d04d 0x1088fd000 + 4653133\r\n5   libsystem_pthread.dylib       \t    0x7ff81d87d4e1 _pthread_start + 125\r\n6   libsystem_pthread.dylib       \t    0x7ff81d878f6b thread_start + 15\r\n\r\nThread 12:: b-scriptch.1\r\n0   libsystem_kernel.dylib        \t    0x7ff81d8433da __psynch_cvwait + 10\r\n1   libsystem_pthread.dylib       \t    0x7ff81d87da6f _pthread_cond_wait + 1249\r\n2   libc++.1.dylib                \t    0x7ff81d7dbd22 std::__1::condition_variable::wait(std::__1::unique_lock<std::__1::mutex>&) + 18\r\n3   Bitcoin-Qt                    \t       0x108d6d213 0x1088fd000 + 4653587\r\n4   Bitcoin-Qt                    \t       0x108d6d04d 0x1088fd000 + 4653133\r\n5   libsystem_pthread.dylib       \t    0x7ff81d87d4e1 _pthread_start + 125\r\n6   libsystem_pthread.dylib       \t    0x7ff81d878f6b thread_start + 15\r\n\r\nThread 13:: b-scriptch.2\r\n0   libsystem_kernel.dylib        \t    0x7ff81d8433da __psynch_cvwait + 10\r\n1   libsystem_pthread.dylib       \t    0x7ff81d87da6f _pthread_cond_wait + 1249\r\n2   libc++.1.dylib                \t    0x7ff81d7dbd22 std::__1::condition_variable::wait(std::__1::unique_lock<std::__1::mutex>&) + 18\r\n3   Bitcoin-Qt                    \t       0x108d6d213 0x1088fd000 + 4653587\r\n4   Bitcoin-Qt                    \t       0x108d6d04d 0x1088fd000 + 4653133\r\n5   libsystem_pthread.dylib       \t    0x7ff81d87d4e1 _pthread_start + 125\r\n6   libsystem_pthread.dylib       \t    0x7ff81d878f6b thread_start + 15\r\n\r\nThread 14:: b-scheduler\r\n0   libsystem_kernel.dylib        \t    0x7ff81d8433da __psynch_cvwait + 10\r\n1   libsystem_pthread.dylib       \t    0x7ff81d87da6f _pthread_cond_wait + 1249\r\n2   libc++.1.dylib                \t    0x7ff81d7dbdb3 std::__1::condition_variable::__do_timed_wait(std::__1::unique_lock<std::__1::mutex>&, std::__1::chrono::time_point<std::__1::chrono::system_clock, std::__1::chrono::duration<long long, std::__1::ratio<1l, 1000000000l> > >) + 93\r\n3   Bitcoin-Qt                    \t       0x1090beaad 0x1088fd000 + 8133293\r\n4   Bitcoin-Qt                    \t       0x1090be77b 0x1088fd000 + 8132475\r\n5   Bitcoin-Qt                    \t       0x108dccdc2 0x1088fd000 + 5045698\r\n6   Bitcoin-Qt                    \t       0x108abbaa7 0x1088fd000 + 1829543\r\n7   libsystem_pthread.dylib       \t    0x7ff81d87d4e1 _pthread_start + 125\r\n8   libsystem_pthread.dylib       \t    0x7ff81d878f6b thread_start + 15\r\n\r\nThread 15:: com.apple.NSEventThread\r\n0   libsystem_kernel.dylib        \t    0x7ff81d84096a mach_msg_trap + 10\r\n1   libsystem_kernel.dylib        \t    0x7ff81d840cd8 mach_msg + 56\r\n2   CoreFoundation                \t    0x7ff81d94434d __CFRunLoopServiceMachPort + 319\r\n3   CoreFoundation                \t    0x7ff81d9429d8 __CFRunLoopRun + 1276\r\n4   CoreFoundation                \t    0x7ff81d941e1c CFRunLoopRunSpecific + 562\r\n5   AppKit                        \t    0x7ff8204e998e _NSEventThread + 132\r\n6   libsystem_pthread.dylib       \t    0x7ff81d87d4e1 _pthread_start + 125\r\n7   libsystem_pthread.dylib       \t    0x7ff81d878f6b thread_start + 15\r\n\r\nThread 16:\r\n0   libsystem_kernel.dylib        \t    0x7ff81d8433da __psynch_cvwait + 10\r\n1   libsystem_pthread.dylib       \t    0x7ff81d87da6f _pthread_cond_wait + 1249\r\n2   libc++.1.dylib                \t    0x7ff81d7dbd22 std::__1::condition_variable::wait(std::__1::unique_lock<std::__1::mutex>&) + 18\r\n3   Bitcoin-Qt                    \t       0x109192863 0x1088fd000 + 9001059\r\n4   Bitcoin-Qt                    \t       0x1091927ed 0x1088fd000 + 9000941\r\n5   Bitcoin-Qt                    \t       0x10919291e 0x1088fd000 + 9001246\r\n6   libsystem_pthread.dylib       \t    0x7ff81d87d4e1 _pthread_start + 125\r\n7   libsystem_pthread.dylib       \t    0x7ff81d878f6b thread_start + 15\r\n\r\nThread 17:: b-opencon\r\n0   libsystem_kernel.dylib        \t    0x7ff81d848d4a __select + 10\r\n1   Bitcoin-Qt                    \t       0x108da6bb4 0x1088fd000 + 4889524\r\n2   Bitcoin-Qt                    \t       0x108da67bc 0x1088fd000 + 4888508\r\n3   Bitcoin-Qt                    \t       0x109088b2b 0x1088fd000 + 7912235\r\n4   Bitcoin-Qt                    \t       0x108ace1c2 0x1088fd000 + 1905090\r\n5   Bitcoin-Qt                    \t       0x108ad63e3 0x1088fd000 + 1938403\r\n6   Bitcoin-Qt                    \t       0x108adde87 0x1088fd000 + 1969799\r\n7   Bitcoin-Qt                    \t       0x108af456e 0x1088fd000 + 2061678\r\n8   Bitcoin-Qt                    \t       0x108dccdc2 0x1088fd000 + 5045698\r\n9   Bitcoin-Qt                    \t       0x108af3ff2 0x1088fd000 + 2060274\r\n10  libsystem_pthread.dylib       \t    0x7ff81d87d4e1 _pthread_start + 125\r\n11  libsystem_pthread.dylib       \t    0x7ff81d878f6b thread_start + 15\r\n\r\nThread 18:\r\n0   libsystem_pthread.dylib       \t    0x7ff81d878f48 start_wqthread + 0\r\n\r\nThread 19::  Dispatch queue: NSPersistentUI Window Snapshotting IO\r\n0   libsystem_platform.dylib      \t    0x7ff81d890629 _platform_bzero$VARIANT$Haswell + 41\r\n1   libz.1.dylib                  \t    0x7ff8285a139d 0x7ff828597000 + 41885\r\n2   libz.1.dylib                  \t    0x7ff82859a195 deflateInit2_ + 537\r\n3   libz.1.dylib                  \t    0x7ff828599f76 deflateInit_ + 36\r\n4   AppKit                        \t    0x7ff82052f9f4 -[NSPersistentUIWindowSnapshotter writeWindowSnapshot:length:width:height:bytesPerRow:toFile:inDirectory:encryptingWithKey:uuid:checksum:fd:] + 668\r\n5   AppKit                        \t    0x7ff820e8f716 __100-[NSPersistentUIWindowSnapshotter captureAndWriteSnapshotForWindowNumber:forWindowID:waitUntilDone:]_block_invoke.95 + 225\r\n6   AppKit                        \t    0x7ff820e902f0 ___NSPersistentUIDispatchQueueAsync_block_invoke + 28\r\n7   libdispatch.dylib             \t    0x7ff81d6c50cc _dispatch_call_block_and_release + 12\r\n\r\n```",
          "user": {
            "login": "fanquake",
            "id": 863730,
            "node_id": "MDQ6VXNlcjg2MzczMA==",
            "avatar_url": "https://avatars.githubusercontent.com/u/863730?v=4",
            "gravatar_id": "",
            "url": "https://api.github.com/users/fanquake",
            "html_url": "https://github.com/fanquake",
            "followers_url": "https://api.github.com/users/fanquake/followers",
            "following_url": "https://api.github.com/users/fanquake/following%7B/other_user%7D",
            "gists_url": "https://api.github.com/users/fanquake/gists%7B/gist_id%7D",
            "starred_url": "https://api.github.com/users/fanquake/starred%7B/owner%7D%7B/repo%7D",
            "subscriptions_url": "https://api.github.com/users/fanquake/subscriptions",
            "organizations_url": "https://api.github.com/users/fanquake/orgs",
            "repos_url": "https://api.github.com/users/fanquake/repos",
            "events_url": "https://api.github.com/users/fanquake/events%7B/privacy%7D",
            "received_events_url": "https://api.github.com/users/fanquake/received_events",
            "type": "User",
            "site_admin": false
          },
          "labels": [],
          "assignees": [],
          "author_association": "MEMBER",
          "locked": false,
          "comments": 2,
          "created_at": "2023-05-18T13:03:48Z",
          "updated_at": "2023-05-21T15:24:33Z"
        },
        "type": "issue"
      }
    },
    {
      "event": "commented",
      "id": 1553024681,
      "node_id": "IC_kwDOABII585ckUap",
      "url": "https://api.github.com/repos/bitcoin/bitcoin/issues/comments/1553024681",
      "actor": {
        "login": "fanquake",
        "id": 863730,
        "node_id": "MDQ6VXNlcjg2MzczMA==",
        "avatar_url": "https://avatars.githubusercontent.com/u/863730?v=4",
        "gravatar_id": "",
        "url": "https://api.github.com/users/fanquake",
        "html_url": "https://github.com/fanquake",
        "followers_url": "https://api.github.com/users/fanquake/followers",
        "following_url": "https://api.github.com/users/fanquake/following%7B/other_user%7D",
        "gists_url": "https://api.github.com/users/fanquake/gists%7B/gist_id%7D",
        "starred_url": "https://api.github.com/users/fanquake/starred%7B/owner%7D%7B/repo%7D",
        "subscriptions_url": "https://api.github.com/users/fanquake/subscriptions",
        "organizations_url": "https://api.github.com/users/fanquake/orgs",
        "repos_url": "https://api.github.com/users/fanquake/repos",
        "events_url": "https://api.github.com/users/fanquake/events%7B/privacy%7D",
        "received_events_url": "https://api.github.com/users/fanquake/received_events",
        "type": "User",
        "site_admin": false
      },
      "commit_id": null,
      "commit_url": null,
      "created_at": "2023-05-18T13:03:55Z",
      "updated_at": "2023-05-18T13:03:55Z",
      "author_association": "MEMBER",
      "body": "Moved over to https://github.com/bitcoin-core/gui/issues/731.",
      "user": {
        "login": "fanquake",
        "id": 863730,
        "node_id": "MDQ6VXNlcjg2MzczMA==",
        "avatar_url": "https://avatars.githubusercontent.com/u/863730?v=4",
        "gravatar_id": "",
        "url": "https://api.github.com/users/fanquake",
        "html_url": "https://github.com/fanquake",
        "followers_url": "https://api.github.com/users/fanquake/followers",
        "following_url": "https://api.github.com/users/fanquake/following%7B/other_user%7D",
        "gists_url": "https://api.github.com/users/fanquake/gists%7B/gist_id%7D",
        "starred_url": "https://api.github.com/users/fanquake/starred%7B/owner%7D%7B/repo%7D",
        "subscriptions_url": "https://api.github.com/users/fanquake/subscriptions",
        "organizations_url": "https://api.github.com/users/fanquake/orgs",
        "repos_url": "https://api.github.com/users/fanquake/repos",
        "events_url": "https://api.github.com/users/fanquake/events%7B/privacy%7D",
        "received_events_url": "https://api.github.com/users/fanquake/received_events",
        "type": "User",
        "site_admin": false
      },
      "html_url": "https://github.com/bitcoin/bitcoin/issues/27681#issuecomment-1553024681",
      "issue_url": "https://api.github.com/repos/bitcoin/bitcoin/issues/27681"
    },
    {
      "event": "closed",
      "id": 9279590607,
      "node_id": "CE_lADOABII585mGEOhzwAAAAIpG1DP",
      "url": "https://api.github.com/repos/bitcoin/bitcoin/issues/events/9279590607",
      "actor": {
        "login": "fanquake",
        "id": 863730,
        "node_id": "MDQ6VXNlcjg2MzczMA==",
        "avatar_url": "https://avatars.githubusercontent.com/u/863730?v=4",
        "gravatar_id": "",
        "url": "https://api.github.com/users/fanquake",
        "html_url": "https://github.com/fanquake",
        "followers_url": "https://api.github.com/users/fanquake/followers",
        "following_url": "https://api.github.com/users/fanquake/following%7B/other_user%7D",
        "gists_url": "https://api.github.com/users/fanquake/gists%7B/gist_id%7D",
        "starred_url": "https://api.github.com/users/fanquake/starred%7B/owner%7D%7B/repo%7D",
        "subscriptions_url": "https://api.github.com/users/fanquake/subscriptions",
        "organizations_url": "https://api.github.com/users/fanquake/orgs",
        "repos_url": "https://api.github.com/users/fanquake/repos",
        "events_url": "https://api.github.com/users/fanquake/events%7B/privacy%7D",
        "received_events_url": "https://api.github.com/users/fanquake/received_events",
        "type": "User",
        "site_admin": false
      },
      "commit_id": null,
      "commit_url": null,
      "created_at": "2023-05-18T13:03:55Z"
    },
    {
      "event": "commented",
      "id": 1553045708,
      "node_id": "IC_kwDOABII585ckZjM",
      "url": "https://api.github.com/repos/bitcoin/bitcoin/issues/comments/1553045708",
      "actor": {
        "login": "ddykeman1",
        "id": 52932653,
        "node_id": "MDQ6VXNlcjUyOTMyNjUz",
        "avatar_url": "https://avatars.githubusercontent.com/u/52932653?v=4",
        "gravatar_id": "",
        "url": "https://api.github.com/users/ddykeman1",
        "html_url": "https://github.com/ddykeman1",
        "followers_url": "https://api.github.com/users/ddykeman1/followers",
        "following_url": "https://api.github.com/users/ddykeman1/following%7B/other_user%7D",
        "gists_url": "https://api.github.com/users/ddykeman1/gists%7B/gist_id%7D",
        "starred_url": "https://api.github.com/users/ddykeman1/starred%7B/owner%7D%7B/repo%7D",
        "subscriptions_url": "https://api.github.com/users/ddykeman1/subscriptions",
        "organizations_url": "https://api.github.com/users/ddykeman1/orgs",
        "repos_url": "https://api.github.com/users/ddykeman1/repos",
        "events_url": "https://api.github.com/users/ddykeman1/events%7B/privacy%7D",
        "received_events_url": "https://api.github.com/users/ddykeman1/received_events",
        "type": "User",
        "site_admin": false
      },
      "commit_id": null,
      "commit_url": null,
      "created_at": "2023-05-18T13:19:55Z",
      "updated_at": "2023-05-18T13:19:55Z",
      "author_association": "NONE",
      "body": "thank u all do I have to forward this or  haves it been done ",
      "user": {
        "login": "ddykeman1",
        "id": 52932653,
        "node_id": "MDQ6VXNlcjUyOTMyNjUz",
        "avatar_url": "https://avatars.githubusercontent.com/u/52932653?v=4",
        "gravatar_id": "",
        "url": "https://api.github.com/users/ddykeman1",
        "html_url": "https://github.com/ddykeman1",
        "followers_url": "https://api.github.com/users/ddykeman1/followers",
        "following_url": "https://api.github.com/users/ddykeman1/following%7B/other_user%7D",
        "gists_url": "https://api.github.com/users/ddykeman1/gists%7B/gist_id%7D",
        "starred_url": "https://api.github.com/users/ddykeman1/starred%7B/owner%7D%7B/repo%7D",
        "subscriptions_url": "https://api.github.com/users/ddykeman1/subscriptions",
        "organizations_url": "https://api.github.com/users/ddykeman1/orgs",
        "repos_url": "https://api.github.com/users/ddykeman1/repos",
        "events_url": "https://api.github.com/users/ddykeman1/events%7B/privacy%7D",
        "received_events_url": "https://api.github.com/users/ddykeman1/received_events",
        "type": "User",
        "site_admin": false
      },
      "html_url": "https://github.com/bitcoin/bitcoin/issues/27681#issuecomment-1553045708",
      "issue_url": "https://api.github.com/repos/bitcoin/bitcoin/issues/27681"
    },
    {
      "event": "commented",
      "id": 1553046960,
      "node_id": "IC_kwDOABII585ckZ2w",
      "url": "https://api.github.com/repos/bitcoin/bitcoin/issues/comments/1553046960",
      "actor": {
        "login": "fanquake",
        "id": 863730,
        "node_id": "MDQ6VXNlcjg2MzczMA==",
        "avatar_url": "https://avatars.githubusercontent.com/u/863730?v=4",
        "gravatar_id": "",
        "url": "https://api.github.com/users/fanquake",
        "html_url": "https://github.com/fanquake",
        "followers_url": "https://api.github.com/users/fanquake/followers",
        "following_url": "https://api.github.com/users/fanquake/following%7B/other_user%7D",
        "gists_url": "https://api.github.com/users/fanquake/gists%7B/gist_id%7D",
        "starred_url": "https://api.github.com/users/fanquake/starred%7B/owner%7D%7B/repo%7D",
        "subscriptions_url": "https://api.github.com/users/fanquake/subscriptions",
        "organizations_url": "https://api.github.com/users/fanquake/orgs",
        "repos_url": "https://api.github.com/users/fanquake/repos",
        "events_url": "https://api.github.com/users/fanquake/events%7B/privacy%7D",
        "received_events_url": "https://api.github.com/users/fanquake/received_events",
        "type": "User",
        "site_admin": false
      },
      "commit_id": null,
      "commit_url": null,
      "created_at": "2023-05-18T13:20:55Z",
      "updated_at": "2023-05-18T13:20:55Z",
      "author_association": "MEMBER",
      "body": "> thank u all do I have to forward this or haves it been done\r\n\r\nA new issue has been opened, https://github.com/bitcoin-core/gui/issues/731, thanks.",
      "user": {
        "login": "fanquake",
        "id": 863730,
        "node_id": "MDQ6VXNlcjg2MzczMA==",
        "avatar_url": "https://avatars.githubusercontent.com/u/863730?v=4",
        "gravatar_id": "",
        "url": "https://api.github.com/users/fanquake",
        "html_url": "https://github.com/fanquake",
        "followers_url": "https://api.github.com/users/fanquake/followers",
        "following_url": "https://api.github.com/users/fanquake/following%7B/other_user%7D",
        "gists_url": "https://api.github.com/users/fanquake/gists%7B/gist_id%7D",
        "starred_url": "https://api.github.com/users/fanquake/starred%7B/owner%7D%7B/repo%7D",
        "subscriptions_url": "https://api.github.com/users/fanquake/subscriptions",
        "organizations_url": "https://api.github.com/users/fanquake/orgs",
        "repos_url": "https://api.github.com/users/fanquake/repos",
        "events_url": "https://api.github.com/users/fanquake/events%7B/privacy%7D",
        "received_events_url": "https://api.github.com/users/fanquake/received_events",
        "type": "User",
        "site_admin": false
      },
      "html_url": "https://github.com/bitcoin/bitcoin/issues/27681#issuecomment-1553046960",
      "issue_url": "https://api.github.com/repos/bitcoin/bitcoin/issues/27681"
    }
  ]
}