{
  "type": "issue",
  "issue": {
    "id": 1745704465,
    "node_id": "I_kwDOABII585oDVYR",
    "url": "https://api.github.com/repos/bitcoin/bitcoin/issues/27833",
    "repository_url": "https://api.github.com/repos/bitcoin/bitcoin",
    "labels_url": "https://api.github.com/repos/bitcoin/bitcoin/issues/27833/labels%7B/name%7D",
    "comments_url": "https://api.github.com/repos/bitcoin/bitcoin/issues/27833/comments",
    "events_url": "https://api.github.com/repos/bitcoin/bitcoin/issues/27833/events",
    "html_url": "https://github.com/bitcoin/bitcoin/issues/27833",
    "number": 27833,
    "state": "closed",
    "state_reason": "completed",
    "title": "Alternative read only paths for -blocksdir",
    "body": "### Please describe the feature you'd like to see added.\n\nThe Blockchain is growing in size over the years. It would be nice to be able to store it accross multiple hard drives and specify additional blocksdirs that are meant for validation in full nodes. When the client writes a file, it is still written to the -blocksdir, always. When reading a file, it is first looked up in the -blocksdir. When it's not present there, it is looked up in the additional blocksdirs, in order as they are specified by the command line arguments. \n\n### Is your feature related to a problem, if so please describe it.\n\n_No response_\n\n### Describe the solution you'd like\n\n_No response_\n\n### Describe any alternatives you've considered\n\nCombining multiple hard drives is possible using a RAID, but these are prone to failure and would force the user to format their drives, which is possibly something that the user doesn't want to do.\n\n### Please leave any additional context\n\nI think I would be able to implement this myself. However, I want to know if this feature is wanted or if I might have overlooked some existing possibility to achieve this and generally want to collect some feedback on this.",
    "user": {
      "login": "Brotcrunsher",
      "id": 19430475,
      "node_id": "MDQ6VXNlcjE5NDMwNDc1",
      "avatar_url": "https://avatars.githubusercontent.com/u/19430475?v=4",
      "gravatar_id": "",
      "url": "https://api.github.com/users/Brotcrunsher",
      "html_url": "https://github.com/Brotcrunsher",
      "followers_url": "https://api.github.com/users/Brotcrunsher/followers",
      "following_url": "https://api.github.com/users/Brotcrunsher/following%7B/other_user%7D",
      "gists_url": "https://api.github.com/users/Brotcrunsher/gists%7B/gist_id%7D",
      "starred_url": "https://api.github.com/users/Brotcrunsher/starred%7B/owner%7D%7B/repo%7D",
      "subscriptions_url": "https://api.github.com/users/Brotcrunsher/subscriptions",
      "organizations_url": "https://api.github.com/users/Brotcrunsher/orgs",
      "repos_url": "https://api.github.com/users/Brotcrunsher/repos",
      "events_url": "https://api.github.com/users/Brotcrunsher/events%7B/privacy%7D",
      "received_events_url": "https://api.github.com/users/Brotcrunsher/received_events",
      "type": "User",
      "site_admin": false
    },
    "labels": [
      {
        "id": 477890092,
        "node_id": "MDU6TGFiZWw0Nzc4OTAwOTI=",
        "url": "https://api.github.com/repos/bitcoin/bitcoin/labels/Questions%20and%20Help",
        "name": "Questions and Help",
        "color": "006688",
        "default": false
      }
    ],
    "assignees": [],
    "author_association": "CONTRIBUTOR",
    "locked": false,
    "comments": 2,
    "closed_at": "2023-06-07T12:45:23Z",
    "created_at": "2023-06-07T11:43:15Z",
    "updated_at": "2023-06-07T12:45:23Z"
  },
  "events": [
    {
      "event": "labeled",
      "id": 9457999287,
      "node_id": "LE_lADOABII585oDVYRzwAAAAIzvZ23",
      "url": "https://api.github.com/repos/bitcoin/bitcoin/issues/events/9457999287",
      "actor": {
        "login": "Brotcrunsher",
        "id": 19430475,
        "node_id": "MDQ6VXNlcjE5NDMwNDc1",
        "avatar_url": "https://avatars.githubusercontent.com/u/19430475?v=4",
        "gravatar_id": "",
        "url": "https://api.github.com/users/Brotcrunsher",
        "html_url": "https://github.com/Brotcrunsher",
        "followers_url": "https://api.github.com/users/Brotcrunsher/followers",
        "following_url": "https://api.github.com/users/Brotcrunsher/following%7B/other_user%7D",
        "gists_url": "https://api.github.com/users/Brotcrunsher/gists%7B/gist_id%7D",
        "starred_url": "https://api.github.com/users/Brotcrunsher/starred%7B/owner%7D%7B/repo%7D",
        "subscriptions_url": "https://api.github.com/users/Brotcrunsher/subscriptions",
        "organizations_url": "https://api.github.com/users/Brotcrunsher/orgs",
        "repos_url": "https://api.github.com/users/Brotcrunsher/repos",
        "events_url": "https://api.github.com/users/Brotcrunsher/events%7B/privacy%7D",
        "received_events_url": "https://api.github.com/users/Brotcrunsher/received_events",
        "type": "User",
        "site_admin": false
      },
      "commit_id": null,
      "commit_url": null,
      "created_at": "2023-06-07T11:43:16Z",
      "label": {
        "name": "Feature",
        "color": "7cf575"
      }
    },
    {
      "event": "unlabeled",
      "id": 9458356097,
      "node_id": "UNLE_lADOABII585oDVYRzwAAAAIzww-B",
      "url": "https://api.github.com/repos/bitcoin/bitcoin/issues/events/9458356097",
      "actor": {
        "login": "MarcoFalke",
        "id": 6399679,
        "node_id": "MDQ6VXNlcjYzOTk2Nzk=",
        "avatar_url": "https://avatars.githubusercontent.com/u/6399679?v=4",
        "gravatar_id": "",
        "url": "https://api.github.com/users/MarcoFalke",
        "html_url": "https://github.com/MarcoFalke",
        "followers_url": "https://api.github.com/users/MarcoFalke/followers",
        "following_url": "https://api.github.com/users/MarcoFalke/following%7B/other_user%7D",
        "gists_url": "https://api.github.com/users/MarcoFalke/gists%7B/gist_id%7D",
        "starred_url": "https://api.github.com/users/MarcoFalke/starred%7B/owner%7D%7B/repo%7D",
        "subscriptions_url": "https://api.github.com/users/MarcoFalke/subscriptions",
        "organizations_url": "https://api.github.com/users/MarcoFalke/orgs",
        "repos_url": "https://api.github.com/users/MarcoFalke/repos",
        "events_url": "https://api.github.com/users/MarcoFalke/events%7B/privacy%7D",
        "received_events_url": "https://api.github.com/users/MarcoFalke/received_events",
        "type": "User",
        "site_admin": false
      },
      "commit_id": null,
      "commit_url": null,
      "created_at": "2023-06-07T12:15:18Z",
      "label": {
        "name": "Feature",
        "color": "7cf575"
      }
    },
    {
      "event": "labeled",
      "id": 9458356109,
      "node_id": "LE_lADOABII585oDVYRzwAAAAIzww-N",
      "url": "https://api.github.com/repos/bitcoin/bitcoin/issues/events/9458356109",
      "actor": {
        "login": "MarcoFalke",
        "id": 6399679,
        "node_id": "MDQ6VXNlcjYzOTk2Nzk=",
        "avatar_url": "https://avatars.githubusercontent.com/u/6399679?v=4",
        "gravatar_id": "",
        "url": "https://api.github.com/users/MarcoFalke",
        "html_url": "https://github.com/MarcoFalke",
        "followers_url": "https://api.github.com/users/MarcoFalke/followers",
        "following_url": "https://api.github.com/users/MarcoFalke/following%7B/other_user%7D",
        "gists_url": "https://api.github.com/users/MarcoFalke/gists%7B/gist_id%7D",
        "starred_url": "https://api.github.com/users/MarcoFalke/starred%7B/owner%7D%7B/repo%7D",
        "subscriptions_url": "https://api.github.com/users/MarcoFalke/subscriptions",
        "organizations_url": "https://api.github.com/users/MarcoFalke/orgs",
        "repos_url": "https://api.github.com/users/MarcoFalke/repos",
        "events_url": "https://api.github.com/users/MarcoFalke/events%7B/privacy%7D",
        "received_events_url": "https://api.github.com/users/MarcoFalke/received_events",
        "type": "User",
        "site_admin": false
      },
      "commit_id": null,
      "commit_url": null,
      "created_at": "2023-06-07T12:15:18Z",
      "label": {
        "name": "Questions and Help",
        "color": "006688"
      }
    },
    {
      "event": "commented",
      "id": 1580690654,
      "node_id": "IC_kwDOABII585eN2ze",
      "url": "https://api.github.com/repos/bitcoin/bitcoin/issues/comments/1580690654",
      "actor": {
        "login": "MarcoFalke",
        "id": 6399679,
        "node_id": "MDQ6VXNlcjYzOTk2Nzk=",
        "avatar_url": "https://avatars.githubusercontent.com/u/6399679?v=4",
        "gravatar_id": "",
        "url": "https://api.github.com/users/MarcoFalke",
        "html_url": "https://github.com/MarcoFalke",
        "followers_url": "https://api.github.com/users/MarcoFalke/followers",
        "following_url": "https://api.github.com/users/MarcoFalke/following%7B/other_user%7D",
        "gists_url": "https://api.github.com/users/MarcoFalke/gists%7B/gist_id%7D",
        "starred_url": "https://api.github.com/users/MarcoFalke/starred%7B/owner%7D%7B/repo%7D",
        "subscriptions_url": "https://api.github.com/users/MarcoFalke/subscriptions",
        "organizations_url": "https://api.github.com/users/MarcoFalke/orgs",
        "repos_url": "https://api.github.com/users/MarcoFalke/repos",
        "events_url": "https://api.github.com/users/MarcoFalke/events%7B/privacy%7D",
        "received_events_url": "https://api.github.com/users/MarcoFalke/received_events",
        "type": "User",
        "site_admin": false
      },
      "commit_id": null,
      "commit_url": null,
      "created_at": "2023-06-07T12:17:15Z",
      "updated_at": "2023-06-07T12:17:15Z",
      "author_association": "MEMBER",
      "body": "Not sure if it is worth it to add code for a rarely (or singly) used edge case. As you mention there is RAID. Also, it is possible to purchase a new storage media large enough. Finally, you can use `-prune`.",
      "user": {
        "login": "MarcoFalke",
        "id": 6399679,
        "node_id": "MDQ6VXNlcjYzOTk2Nzk=",
        "avatar_url": "https://avatars.githubusercontent.com/u/6399679?v=4",
        "gravatar_id": "",
        "url": "https://api.github.com/users/MarcoFalke",
        "html_url": "https://github.com/MarcoFalke",
        "followers_url": "https://api.github.com/users/MarcoFalke/followers",
        "following_url": "https://api.github.com/users/MarcoFalke/following%7B/other_user%7D",
        "gists_url": "https://api.github.com/users/MarcoFalke/gists%7B/gist_id%7D",
        "starred_url": "https://api.github.com/users/MarcoFalke/starred%7B/owner%7D%7B/repo%7D",
        "subscriptions_url": "https://api.github.com/users/MarcoFalke/subscriptions",
        "organizations_url": "https://api.github.com/users/MarcoFalke/orgs",
        "repos_url": "https://api.github.com/users/MarcoFalke/repos",
        "events_url": "https://api.github.com/users/MarcoFalke/events%7B/privacy%7D",
        "received_events_url": "https://api.github.com/users/MarcoFalke/received_events",
        "type": "User",
        "site_admin": false
      },
      "html_url": "https://github.com/bitcoin/bitcoin/issues/27833#issuecomment-1580690654",
      "issue_url": "https://api.github.com/repos/bitcoin/bitcoin/issues/27833"
    },
    {
      "event": "commented",
      "id": 1580742109,
      "node_id": "IC_kwDOABII585eODXd",
      "url": "https://api.github.com/repos/bitcoin/bitcoin/issues/comments/1580742109",
      "actor": {
        "login": "fanquake",
        "id": 863730,
        "node_id": "MDQ6VXNlcjg2MzczMA==",
        "avatar_url": "https://avatars.githubusercontent.com/u/863730?v=4",
        "gravatar_id": "",
        "url": "https://api.github.com/users/fanquake",
        "html_url": "https://github.com/fanquake",
        "followers_url": "https://api.github.com/users/fanquake/followers",
        "following_url": "https://api.github.com/users/fanquake/following%7B/other_user%7D",
        "gists_url": "https://api.github.com/users/fanquake/gists%7B/gist_id%7D",
        "starred_url": "https://api.github.com/users/fanquake/starred%7B/owner%7D%7B/repo%7D",
        "subscriptions_url": "https://api.github.com/users/fanquake/subscriptions",
        "organizations_url": "https://api.github.com/users/fanquake/orgs",
        "repos_url": "https://api.github.com/users/fanquake/repos",
        "events_url": "https://api.github.com/users/fanquake/events%7B/privacy%7D",
        "received_events_url": "https://api.github.com/users/fanquake/received_events",
        "type": "User",
        "site_admin": false
      },
      "commit_id": null,
      "commit_url": null,
      "created_at": "2023-06-07T12:45:23Z",
      "updated_at": "2023-06-07T12:45:23Z",
      "author_association": "MEMBER",
      "body": "Agree with Marco. You can use something like LVM to combine your drives, and then point to a single blocksdir. There's no need for us to introduce complexity to mange this into Bitcoin Core.",
      "user": {
        "login": "fanquake",
        "id": 863730,
        "node_id": "MDQ6VXNlcjg2MzczMA==",
        "avatar_url": "https://avatars.githubusercontent.com/u/863730?v=4",
        "gravatar_id": "",
        "url": "https://api.github.com/users/fanquake",
        "html_url": "https://github.com/fanquake",
        "followers_url": "https://api.github.com/users/fanquake/followers",
        "following_url": "https://api.github.com/users/fanquake/following%7B/other_user%7D",
        "gists_url": "https://api.github.com/users/fanquake/gists%7B/gist_id%7D",
        "starred_url": "https://api.github.com/users/fanquake/starred%7B/owner%7D%7B/repo%7D",
        "subscriptions_url": "https://api.github.com/users/fanquake/subscriptions",
        "organizations_url": "https://api.github.com/users/fanquake/orgs",
        "repos_url": "https://api.github.com/users/fanquake/repos",
        "events_url": "https://api.github.com/users/fanquake/events%7B/privacy%7D",
        "received_events_url": "https://api.github.com/users/fanquake/received_events",
        "type": "User",
        "site_admin": false
      },
      "html_url": "https://github.com/bitcoin/bitcoin/issues/27833#issuecomment-1580742109",
      "issue_url": "https://api.github.com/repos/bitcoin/bitcoin/issues/27833"
    },
    {
      "event": "closed",
      "id": 9458692054,
      "node_id": "CE_lADOABII585oDVYRzwAAAAIzyC_W",
      "url": "https://api.github.com/repos/bitcoin/bitcoin/issues/events/9458692054",
      "actor": {
        "login": "fanquake",
        "id": 863730,
        "node_id": "MDQ6VXNlcjg2MzczMA==",
        "avatar_url": "https://avatars.githubusercontent.com/u/863730?v=4",
        "gravatar_id": "",
        "url": "https://api.github.com/users/fanquake",
        "html_url": "https://github.com/fanquake",
        "followers_url": "https://api.github.com/users/fanquake/followers",
        "following_url": "https://api.github.com/users/fanquake/following%7B/other_user%7D",
        "gists_url": "https://api.github.com/users/fanquake/gists%7B/gist_id%7D",
        "starred_url": "https://api.github.com/users/fanquake/starred%7B/owner%7D%7B/repo%7D",
        "subscriptions_url": "https://api.github.com/users/fanquake/subscriptions",
        "organizations_url": "https://api.github.com/users/fanquake/orgs",
        "repos_url": "https://api.github.com/users/fanquake/repos",
        "events_url": "https://api.github.com/users/fanquake/events%7B/privacy%7D",
        "received_events_url": "https://api.github.com/users/fanquake/received_events",
        "type": "User",
        "site_admin": false
      },
      "commit_id": null,
      "commit_url": null,
      "created_at": "2023-06-07T12:45:23Z"
    }
  ]
}