{
  "type": "issue",
  "issue": {
    "id": 1750804326,
    "node_id": "I_kwDOABII585oWydm",
    "url": "https://api.github.com/repos/bitcoin/bitcoin/issues/27848",
    "repository_url": "https://api.github.com/repos/bitcoin/bitcoin",
    "labels_url": "https://api.github.com/repos/bitcoin/bitcoin/issues/27848/labels%7B/name%7D",
    "comments_url": "https://api.github.com/repos/bitcoin/bitcoin/issues/27848/comments",
    "events_url": "https://api.github.com/repos/bitcoin/bitcoin/issues/27848/events",
    "html_url": "https://github.com/bitcoin/bitcoin/issues/27848",
    "number": 27848,
    "state": "closed",
    "state_reason": "completed",
    "title": "Indefinite \"Bitcoin Core is shutting down...\"",
    "body": "### Is there an existing issue for this?\n\n- [X] I have searched the existing issues\n\n### Current behaviour\n\nAfter shutting down Bitcoin Core Qt, the window \"Bitcoin Core is shutting down... Do not shut down the computer until this window disappears.\" remains open indefinitely (or at least 24h).\n\n### Expected behaviour\n\nQuick shutdown.\n\n### Steps to reproduce\n\nTry to stop Bitcoin-Qt\n\n### Relevant log output\n\n2023-06-09T01:32:58Z UPnP Port Mapping successful.\r\n2023-06-09T01:37:38Z tor: Thread interrupt\r\n2023-06-09T01:37:38Z Shutdown: In progress...\r\n2023-06-09T01:37:38Z addcon thread exit\r\n2023-06-09T01:37:38Z torcontrol thread exit\r\n2023-06-09T01:37:38Z opencon thread exit\r\n2023-06-09T01:37:38Z net thread exit\r\n2023-06-09T01:37:38Z UPNP_DeletePortMapping() returned: 0\r\n2023-06-09T01:37:38Z mapport thread exit\r\n2023-06-09T01:37:38Z msghand thread exit\r\n2023-06-09T01:48:37Z Potential stale tip detected, will try using extra outbound peer (last tip update: 1804 seconds ago)\r\n2023-06-09T01:59:07Z Potential stale tip detected, will try using extra outbound peer (last tip update: 2434 seconds ago)\r\n2023-06-09T02:09:37Z Potential stale tip detected, will try using extra outbound peer (last tip update: 3064 seconds ago)\r\n\r\n...\r\n\r\n2023-06-10T05:06:39Z Potential stale tip detected, will try using extra outbound peer (last tip update: 100086 seconds ago)\r\n\n\n### How did you obtain Bitcoin Core\n\nPre-built binaries\n\n### What version of Bitcoin Core are you using?\n\nv25.0\n\n### Operating system and version\n\ndebian 5.10.0-22-amd64\n\n### Machine specifications\n\n24 core\r\n32 GB RAM\r\nat times flaky but fast internet\r\nsecondary 2TB SSD with symlinks under ~/.bitcoin/{blocks,chainstate,indexes}",
    "user": {
      "login": "Giszmo",
      "id": 96378,
      "node_id": "MDQ6VXNlcjk2Mzc4",
      "avatar_url": "https://avatars.githubusercontent.com/u/96378?v=4",
      "gravatar_id": "",
      "url": "https://api.github.com/users/Giszmo",
      "html_url": "https://github.com/Giszmo",
      "followers_url": "https://api.github.com/users/Giszmo/followers",
      "following_url": "https://api.github.com/users/Giszmo/following%7B/other_user%7D",
      "gists_url": "https://api.github.com/users/Giszmo/gists%7B/gist_id%7D",
      "starred_url": "https://api.github.com/users/Giszmo/starred%7B/owner%7D%7B/repo%7D",
      "subscriptions_url": "https://api.github.com/users/Giszmo/subscriptions",
      "organizations_url": "https://api.github.com/users/Giszmo/orgs",
      "repos_url": "https://api.github.com/users/Giszmo/repos",
      "events_url": "https://api.github.com/users/Giszmo/events%7B/privacy%7D",
      "received_events_url": "https://api.github.com/users/Giszmo/received_events",
      "type": "User",
      "site_admin": false
    },
    "labels": [
      {
        "id": 64585,
        "node_id": "MDU6TGFiZWw2NDU4NQ==",
        "url": "https://api.github.com/repos/bitcoin/bitcoin/labels/Bug",
        "name": "Bug",
        "color": "FBBAAB",
        "default": false
      }
    ],
    "assignees": [],
    "author_association": "NONE",
    "locked": false,
    "comments": 12,
    "closed_at": "2023-06-26T10:58:36Z",
    "created_at": "2023-06-10T05:18:46Z",
    "updated_at": "2023-06-26T10:58:36Z"
  },
  "events": [
    {
      "event": "commented",
      "id": 1585492534,
      "node_id": "IC_kwDOABII585egLI2",
      "url": "https://api.github.com/repos/bitcoin/bitcoin/issues/comments/1585492534",
      "actor": {
        "login": "Giszmo",
        "id": 96378,
        "node_id": "MDQ6VXNlcjk2Mzc4",
        "avatar_url": "https://avatars.githubusercontent.com/u/96378?v=4",
        "gravatar_id": "",
        "url": "https://api.github.com/users/Giszmo",
        "html_url": "https://github.com/Giszmo",
        "followers_url": "https://api.github.com/users/Giszmo/followers",
        "following_url": "https://api.github.com/users/Giszmo/following%7B/other_user%7D",
        "gists_url": "https://api.github.com/users/Giszmo/gists%7B/gist_id%7D",
        "starred_url": "https://api.github.com/users/Giszmo/starred%7B/owner%7D%7B/repo%7D",
        "subscriptions_url": "https://api.github.com/users/Giszmo/subscriptions",
        "organizations_url": "https://api.github.com/users/Giszmo/orgs",
        "repos_url": "https://api.github.com/users/Giszmo/repos",
        "events_url": "https://api.github.com/users/Giszmo/events%7B/privacy%7D",
        "received_events_url": "https://api.github.com/users/Giszmo/received_events",
        "type": "User",
        "site_admin": false
      },
      "commit_id": null,
      "commit_url": null,
      "created_at": "2023-06-10T05:22:26Z",
      "updated_at": "2023-06-10T05:22:26Z",
      "author_association": "NONE",
      "body": "I see #16778 but here I only see one process when I `ps -eLl | grep bitcoin`.\r\n\r\nI see #25897 but here I see no process using any CPU.",
      "user": {
        "login": "Giszmo",
        "id": 96378,
        "node_id": "MDQ6VXNlcjk2Mzc4",
        "avatar_url": "https://avatars.githubusercontent.com/u/96378?v=4",
        "gravatar_id": "",
        "url": "https://api.github.com/users/Giszmo",
        "html_url": "https://github.com/Giszmo",
        "followers_url": "https://api.github.com/users/Giszmo/followers",
        "following_url": "https://api.github.com/users/Giszmo/following%7B/other_user%7D",
        "gists_url": "https://api.github.com/users/Giszmo/gists%7B/gist_id%7D",
        "starred_url": "https://api.github.com/users/Giszmo/starred%7B/owner%7D%7B/repo%7D",
        "subscriptions_url": "https://api.github.com/users/Giszmo/subscriptions",
        "organizations_url": "https://api.github.com/users/Giszmo/orgs",
        "repos_url": "https://api.github.com/users/Giszmo/repos",
        "events_url": "https://api.github.com/users/Giszmo/events%7B/privacy%7D",
        "received_events_url": "https://api.github.com/users/Giszmo/received_events",
        "type": "User",
        "site_admin": false
      },
      "html_url": "https://github.com/bitcoin/bitcoin/issues/27848#issuecomment-1585492534",
      "issue_url": "https://api.github.com/repos/bitcoin/bitcoin/issues/27848"
    },
    {
      "event": "commented",
      "id": 1585599116,
      "node_id": "IC_kwDOABII585eglKM",
      "url": "https://api.github.com/repos/bitcoin/bitcoin/issues/comments/1585599116",
      "actor": {
        "login": "MarcoFalke",
        "id": 6399679,
        "node_id": "MDQ6VXNlcjYzOTk2Nzk=",
        "avatar_url": "https://avatars.githubusercontent.com/u/6399679?v=4",
        "gravatar_id": "",
        "url": "https://api.github.com/users/MarcoFalke",
        "html_url": "https://github.com/MarcoFalke",
        "followers_url": "https://api.github.com/users/MarcoFalke/followers",
        "following_url": "https://api.github.com/users/MarcoFalke/following%7B/other_user%7D",
        "gists_url": "https://api.github.com/users/MarcoFalke/gists%7B/gist_id%7D",
        "starred_url": "https://api.github.com/users/MarcoFalke/starred%7B/owner%7D%7B/repo%7D",
        "subscriptions_url": "https://api.github.com/users/MarcoFalke/subscriptions",
        "organizations_url": "https://api.github.com/users/MarcoFalke/orgs",
        "repos_url": "https://api.github.com/users/MarcoFalke/repos",
        "events_url": "https://api.github.com/users/MarcoFalke/events%7B/privacy%7D",
        "received_events_url": "https://api.github.com/users/MarcoFalke/received_events",
        "type": "User",
        "site_admin": false
      },
      "commit_id": null,
      "commit_url": null,
      "created_at": "2023-06-10T10:25:42Z",
      "updated_at": "2023-06-10T10:25:42Z",
      "author_association": "MEMBER",
      "body": "Looks like it didn't print \"scheduler thread exit\", indicating that this thread is still running.",
      "user": {
        "login": "MarcoFalke",
        "id": 6399679,
        "node_id": "MDQ6VXNlcjYzOTk2Nzk=",
        "avatar_url": "https://avatars.githubusercontent.com/u/6399679?v=4",
        "gravatar_id": "",
        "url": "https://api.github.com/users/MarcoFalke",
        "html_url": "https://github.com/MarcoFalke",
        "followers_url": "https://api.github.com/users/MarcoFalke/followers",
        "following_url": "https://api.github.com/users/MarcoFalke/following%7B/other_user%7D",
        "gists_url": "https://api.github.com/users/MarcoFalke/gists%7B/gist_id%7D",
        "starred_url": "https://api.github.com/users/MarcoFalke/starred%7B/owner%7D%7B/repo%7D",
        "subscriptions_url": "https://api.github.com/users/MarcoFalke/subscriptions",
        "organizations_url": "https://api.github.com/users/MarcoFalke/orgs",
        "repos_url": "https://api.github.com/users/MarcoFalke/repos",
        "events_url": "https://api.github.com/users/MarcoFalke/events%7B/privacy%7D",
        "received_events_url": "https://api.github.com/users/MarcoFalke/received_events",
        "type": "User",
        "site_admin": false
      },
      "html_url": "https://github.com/bitcoin/bitcoin/issues/27848#issuecomment-1585599116",
      "issue_url": "https://api.github.com/repos/bitcoin/bitcoin/issues/27848"
    },
    {
      "event": "labeled",
      "id": 9490569105,
      "node_id": "LE_lADOABII585oWydmzwAAAAI1rpeR",
      "url": "https://api.github.com/repos/bitcoin/bitcoin/issues/events/9490569105",
      "actor": {
        "login": "MarcoFalke",
        "id": 6399679,
        "node_id": "MDQ6VXNlcjYzOTk2Nzk=",
        "avatar_url": "https://avatars.githubusercontent.com/u/6399679?v=4",
        "gravatar_id": "",
        "url": "https://api.github.com/users/MarcoFalke",
        "html_url": "https://github.com/MarcoFalke",
        "followers_url": "https://api.github.com/users/MarcoFalke/followers",
        "following_url": "https://api.github.com/users/MarcoFalke/following%7B/other_user%7D",
        "gists_url": "https://api.github.com/users/MarcoFalke/gists%7B/gist_id%7D",
        "starred_url": "https://api.github.com/users/MarcoFalke/starred%7B/owner%7D%7B/repo%7D",
        "subscriptions_url": "https://api.github.com/users/MarcoFalke/subscriptions",
        "organizations_url": "https://api.github.com/users/MarcoFalke/orgs",
        "repos_url": "https://api.github.com/users/MarcoFalke/repos",
        "events_url": "https://api.github.com/users/MarcoFalke/events%7B/privacy%7D",
        "received_events_url": "https://api.github.com/users/MarcoFalke/received_events",
        "type": "User",
        "site_admin": false
      },
      "commit_id": null,
      "commit_url": null,
      "created_at": "2023-06-10T10:50:06Z",
      "label": {
        "name": "Bug",
        "color": "FBBAAB"
      }
    },
    {
      "event": "commented",
      "id": 1585750520,
      "node_id": "IC_kwDOABII585ehKH4",
      "url": "https://api.github.com/repos/bitcoin/bitcoin/issues/comments/1585750520",
      "actor": {
        "login": "Giszmo",
        "id": 96378,
        "node_id": "MDQ6VXNlcjk2Mzc4",
        "avatar_url": "https://avatars.githubusercontent.com/u/96378?v=4",
        "gravatar_id": "",
        "url": "https://api.github.com/users/Giszmo",
        "html_url": "https://github.com/Giszmo",
        "followers_url": "https://api.github.com/users/Giszmo/followers",
        "following_url": "https://api.github.com/users/Giszmo/following%7B/other_user%7D",
        "gists_url": "https://api.github.com/users/Giszmo/gists%7B/gist_id%7D",
        "starred_url": "https://api.github.com/users/Giszmo/starred%7B/owner%7D%7B/repo%7D",
        "subscriptions_url": "https://api.github.com/users/Giszmo/subscriptions",
        "organizations_url": "https://api.github.com/users/Giszmo/orgs",
        "repos_url": "https://api.github.com/users/Giszmo/repos",
        "events_url": "https://api.github.com/users/Giszmo/events%7B/privacy%7D",
        "received_events_url": "https://api.github.com/users/Giszmo/received_events",
        "type": "User",
        "site_admin": false
      },
      "commit_id": null,
      "commit_url": null,
      "created_at": "2023-06-10T17:43:00Z",
      "updated_at": "2023-06-10T17:43:00Z",
      "author_association": "NONE",
      "body": "So ... may I kill it or would you want any additional information while it's still refusing to stop on its own?",
      "user": {
        "login": "Giszmo",
        "id": 96378,
        "node_id": "MDQ6VXNlcjk2Mzc4",
        "avatar_url": "https://avatars.githubusercontent.com/u/96378?v=4",
        "gravatar_id": "",
        "url": "https://api.github.com/users/Giszmo",
        "html_url": "https://github.com/Giszmo",
        "followers_url": "https://api.github.com/users/Giszmo/followers",
        "following_url": "https://api.github.com/users/Giszmo/following%7B/other_user%7D",
        "gists_url": "https://api.github.com/users/Giszmo/gists%7B/gist_id%7D",
        "starred_url": "https://api.github.com/users/Giszmo/starred%7B/owner%7D%7B/repo%7D",
        "subscriptions_url": "https://api.github.com/users/Giszmo/subscriptions",
        "organizations_url": "https://api.github.com/users/Giszmo/orgs",
        "repos_url": "https://api.github.com/users/Giszmo/repos",
        "events_url": "https://api.github.com/users/Giszmo/events%7B/privacy%7D",
        "received_events_url": "https://api.github.com/users/Giszmo/received_events",
        "type": "User",
        "site_admin": false
      },
      "html_url": "https://github.com/bitcoin/bitcoin/issues/27848#issuecomment-1585750520",
      "issue_url": "https://api.github.com/repos/bitcoin/bitcoin/issues/27848"
    },
    {
      "event": "commented",
      "id": 1586050011,
      "node_id": "IC_kwDOABII585eiTPb",
      "url": "https://api.github.com/repos/bitcoin/bitcoin/issues/comments/1586050011",
      "actor": {
        "login": "MarcoFalke",
        "id": 6399679,
        "node_id": "MDQ6VXNlcjYzOTk2Nzk=",
        "avatar_url": "https://avatars.githubusercontent.com/u/6399679?v=4",
        "gravatar_id": "",
        "url": "https://api.github.com/users/MarcoFalke",
        "html_url": "https://github.com/MarcoFalke",
        "followers_url": "https://api.github.com/users/MarcoFalke/followers",
        "following_url": "https://api.github.com/users/MarcoFalke/following%7B/other_user%7D",
        "gists_url": "https://api.github.com/users/MarcoFalke/gists%7B/gist_id%7D",
        "starred_url": "https://api.github.com/users/MarcoFalke/starred%7B/owner%7D%7B/repo%7D",
        "subscriptions_url": "https://api.github.com/users/MarcoFalke/subscriptions",
        "organizations_url": "https://api.github.com/users/MarcoFalke/orgs",
        "repos_url": "https://api.github.com/users/MarcoFalke/repos",
        "events_url": "https://api.github.com/users/MarcoFalke/events%7B/privacy%7D",
        "received_events_url": "https://api.github.com/users/MarcoFalke/received_events",
        "type": "User",
        "site_admin": false
      },
      "commit_id": null,
      "commit_url": null,
      "created_at": "2023-06-11T07:14:04Z",
      "updated_at": "2023-06-11T07:14:04Z",
      "author_association": "MEMBER",
      "body": "Yeah, it may be good to check where the `shutoff` thread is waiting exactly. I presume it is in `m_service_thread.join()`?",
      "user": {
        "login": "MarcoFalke",
        "id": 6399679,
        "node_id": "MDQ6VXNlcjYzOTk2Nzk=",
        "avatar_url": "https://avatars.githubusercontent.com/u/6399679?v=4",
        "gravatar_id": "",
        "url": "https://api.github.com/users/MarcoFalke",
        "html_url": "https://github.com/MarcoFalke",
        "followers_url": "https://api.github.com/users/MarcoFalke/followers",
        "following_url": "https://api.github.com/users/MarcoFalke/following%7B/other_user%7D",
        "gists_url": "https://api.github.com/users/MarcoFalke/gists%7B/gist_id%7D",
        "starred_url": "https://api.github.com/users/MarcoFalke/starred%7B/owner%7D%7B/repo%7D",
        "subscriptions_url": "https://api.github.com/users/MarcoFalke/subscriptions",
        "organizations_url": "https://api.github.com/users/MarcoFalke/orgs",
        "repos_url": "https://api.github.com/users/MarcoFalke/repos",
        "events_url": "https://api.github.com/users/MarcoFalke/events%7B/privacy%7D",
        "received_events_url": "https://api.github.com/users/MarcoFalke/received_events",
        "type": "User",
        "site_admin": false
      },
      "html_url": "https://github.com/bitcoin/bitcoin/issues/27848#issuecomment-1586050011",
      "issue_url": "https://api.github.com/repos/bitcoin/bitcoin/issues/27848"
    },
    {
      "event": "commented",
      "id": 1586235914,
      "node_id": "IC_kwDOABII585ejAoK",
      "url": "https://api.github.com/repos/bitcoin/bitcoin/issues/comments/1586235914",
      "actor": {
        "login": "Giszmo",
        "id": 96378,
        "node_id": "MDQ6VXNlcjk2Mzc4",
        "avatar_url": "https://avatars.githubusercontent.com/u/96378?v=4",
        "gravatar_id": "",
        "url": "https://api.github.com/users/Giszmo",
        "html_url": "https://github.com/Giszmo",
        "followers_url": "https://api.github.com/users/Giszmo/followers",
        "following_url": "https://api.github.com/users/Giszmo/following%7B/other_user%7D",
        "gists_url": "https://api.github.com/users/Giszmo/gists%7B/gist_id%7D",
        "starred_url": "https://api.github.com/users/Giszmo/starred%7B/owner%7D%7B/repo%7D",
        "subscriptions_url": "https://api.github.com/users/Giszmo/subscriptions",
        "organizations_url": "https://api.github.com/users/Giszmo/orgs",
        "repos_url": "https://api.github.com/users/Giszmo/repos",
        "events_url": "https://api.github.com/users/Giszmo/events%7B/privacy%7D",
        "received_events_url": "https://api.github.com/users/Giszmo/received_events",
        "type": "User",
        "site_admin": false
      },
      "commit_id": null,
      "commit_url": null,
      "created_at": "2023-06-11T16:19:31Z",
      "updated_at": "2023-06-11T16:19:31Z",
      "author_association": "NONE",
      "body": "If you tell me what to do, I'll do it here but your last comment only calls vague memories of using gdb 10 years ago.",
      "user": {
        "login": "Giszmo",
        "id": 96378,
        "node_id": "MDQ6VXNlcjk2Mzc4",
        "avatar_url": "https://avatars.githubusercontent.com/u/96378?v=4",
        "gravatar_id": "",
        "url": "https://api.github.com/users/Giszmo",
        "html_url": "https://github.com/Giszmo",
        "followers_url": "https://api.github.com/users/Giszmo/followers",
        "following_url": "https://api.github.com/users/Giszmo/following%7B/other_user%7D",
        "gists_url": "https://api.github.com/users/Giszmo/gists%7B/gist_id%7D",
        "starred_url": "https://api.github.com/users/Giszmo/starred%7B/owner%7D%7B/repo%7D",
        "subscriptions_url": "https://api.github.com/users/Giszmo/subscriptions",
        "organizations_url": "https://api.github.com/users/Giszmo/orgs",
        "repos_url": "https://api.github.com/users/Giszmo/repos",
        "events_url": "https://api.github.com/users/Giszmo/events%7B/privacy%7D",
        "received_events_url": "https://api.github.com/users/Giszmo/received_events",
        "type": "User",
        "site_admin": false
      },
      "html_url": "https://github.com/bitcoin/bitcoin/issues/27848#issuecomment-1586235914",
      "issue_url": "https://api.github.com/repos/bitcoin/bitcoin/issues/27848"
    },
    {
      "event": "commented",
      "id": 1586244842,
      "node_id": "IC_kwDOABII585ejCzq",
      "url": "https://api.github.com/repos/bitcoin/bitcoin/issues/comments/1586244842",
      "actor": {
        "login": "mbed101",
        "id": 37986085,
        "node_id": "MDQ6VXNlcjM3OTg2MDg1",
        "avatar_url": "https://avatars.githubusercontent.com/u/37986085?v=4",
        "gravatar_id": "",
        "url": "https://api.github.com/users/mbed101",
        "html_url": "https://github.com/mbed101",
        "followers_url": "https://api.github.com/users/mbed101/followers",
        "following_url": "https://api.github.com/users/mbed101/following%7B/other_user%7D",
        "gists_url": "https://api.github.com/users/mbed101/gists%7B/gist_id%7D",
        "starred_url": "https://api.github.com/users/mbed101/starred%7B/owner%7D%7B/repo%7D",
        "subscriptions_url": "https://api.github.com/users/mbed101/subscriptions",
        "organizations_url": "https://api.github.com/users/mbed101/orgs",
        "repos_url": "https://api.github.com/users/mbed101/repos",
        "events_url": "https://api.github.com/users/mbed101/events%7B/privacy%7D",
        "received_events_url": "https://api.github.com/users/mbed101/received_events",
        "type": "User",
        "site_admin": false
      },
      "commit_id": null,
      "commit_url": null,
      "created_at": "2023-06-11T16:49:06Z",
      "updated_at": "2023-06-11T16:49:06Z",
      "author_association": "NONE",
      "body": "@Giszmo is it happening like this all the time? or is it random like sometimes only happening?",
      "user": {
        "login": "mbed101",
        "id": 37986085,
        "node_id": "MDQ6VXNlcjM3OTg2MDg1",
        "avatar_url": "https://avatars.githubusercontent.com/u/37986085?v=4",
        "gravatar_id": "",
        "url": "https://api.github.com/users/mbed101",
        "html_url": "https://github.com/mbed101",
        "followers_url": "https://api.github.com/users/mbed101/followers",
        "following_url": "https://api.github.com/users/mbed101/following%7B/other_user%7D",
        "gists_url": "https://api.github.com/users/mbed101/gists%7B/gist_id%7D",
        "starred_url": "https://api.github.com/users/mbed101/starred%7B/owner%7D%7B/repo%7D",
        "subscriptions_url": "https://api.github.com/users/mbed101/subscriptions",
        "organizations_url": "https://api.github.com/users/mbed101/orgs",
        "repos_url": "https://api.github.com/users/mbed101/repos",
        "events_url": "https://api.github.com/users/mbed101/events%7B/privacy%7D",
        "received_events_url": "https://api.github.com/users/mbed101/received_events",
        "type": "User",
        "site_admin": false
      },
      "html_url": "https://github.com/bitcoin/bitcoin/issues/27848#issuecomment-1586244842",
      "issue_url": "https://api.github.com/repos/bitcoin/bitcoin/issues/27848"
    },
    {
      "event": "mentioned",
      "id": 9494796567,
      "node_id": "MEE_lADOABII585oWydmzwAAAAI17xkX",
      "url": "https://api.github.com/repos/bitcoin/bitcoin/issues/events/9494796567",
      "actor": {
        "login": "Giszmo",
        "id": 96378,
        "node_id": "MDQ6VXNlcjk2Mzc4",
        "avatar_url": "https://avatars.githubusercontent.com/u/96378?v=4",
        "gravatar_id": "",
        "url": "https://api.github.com/users/Giszmo",
        "html_url": "https://github.com/Giszmo",
        "followers_url": "https://api.github.com/users/Giszmo/followers",
        "following_url": "https://api.github.com/users/Giszmo/following%7B/other_user%7D",
        "gists_url": "https://api.github.com/users/Giszmo/gists%7B/gist_id%7D",
        "starred_url": "https://api.github.com/users/Giszmo/starred%7B/owner%7D%7B/repo%7D",
        "subscriptions_url": "https://api.github.com/users/Giszmo/subscriptions",
        "organizations_url": "https://api.github.com/users/Giszmo/orgs",
        "repos_url": "https://api.github.com/users/Giszmo/repos",
        "events_url": "https://api.github.com/users/Giszmo/events%7B/privacy%7D",
        "received_events_url": "https://api.github.com/users/Giszmo/received_events",
        "type": "User",
        "site_admin": false
      },
      "commit_id": null,
      "commit_url": null,
      "created_at": "2023-06-11T16:49:06Z"
    },
    {
      "event": "subscribed",
      "id": 9494796571,
      "node_id": "SE_lADOABII585oWydmzwAAAAI17xkb",
      "url": "https://api.github.com/repos/bitcoin/bitcoin/issues/events/9494796571",
      "actor": {
        "login": "Giszmo",
        "id": 96378,
        "node_id": "MDQ6VXNlcjk2Mzc4",
        "avatar_url": "https://avatars.githubusercontent.com/u/96378?v=4",
        "gravatar_id": "",
        "url": "https://api.github.com/users/Giszmo",
        "html_url": "https://github.com/Giszmo",
        "followers_url": "https://api.github.com/users/Giszmo/followers",
        "following_url": "https://api.github.com/users/Giszmo/following%7B/other_user%7D",
        "gists_url": "https://api.github.com/users/Giszmo/gists%7B/gist_id%7D",
        "starred_url": "https://api.github.com/users/Giszmo/starred%7B/owner%7D%7B/repo%7D",
        "subscriptions_url": "https://api.github.com/users/Giszmo/subscriptions",
        "organizations_url": "https://api.github.com/users/Giszmo/orgs",
        "repos_url": "https://api.github.com/users/Giszmo/repos",
        "events_url": "https://api.github.com/users/Giszmo/events%7B/privacy%7D",
        "received_events_url": "https://api.github.com/users/Giszmo/received_events",
        "type": "User",
        "site_admin": false
      },
      "commit_id": null,
      "commit_url": null,
      "created_at": "2023-06-11T16:49:06Z"
    },
    {
      "event": "commented",
      "id": 1586245678,
      "node_id": "IC_kwDOABII585ejDAu",
      "url": "https://api.github.com/repos/bitcoin/bitcoin/issues/comments/1586245678",
      "actor": {
        "login": "mbed101",
        "id": 37986085,
        "node_id": "MDQ6VXNlcjM3OTg2MDg1",
        "avatar_url": "https://avatars.githubusercontent.com/u/37986085?v=4",
        "gravatar_id": "",
        "url": "https://api.github.com/users/mbed101",
        "html_url": "https://github.com/mbed101",
        "followers_url": "https://api.github.com/users/mbed101/followers",
        "following_url": "https://api.github.com/users/mbed101/following%7B/other_user%7D",
        "gists_url": "https://api.github.com/users/mbed101/gists%7B/gist_id%7D",
        "starred_url": "https://api.github.com/users/mbed101/starred%7B/owner%7D%7B/repo%7D",
        "subscriptions_url": "https://api.github.com/users/mbed101/subscriptions",
        "organizations_url": "https://api.github.com/users/mbed101/orgs",
        "repos_url": "https://api.github.com/users/mbed101/repos",
        "events_url": "https://api.github.com/users/mbed101/events%7B/privacy%7D",
        "received_events_url": "https://api.github.com/users/mbed101/received_events",
        "type": "User",
        "site_admin": false
      },
      "commit_id": null,
      "commit_url": null,
      "created_at": "2023-06-11T16:52:02Z",
      "updated_at": "2023-06-11T16:52:02Z",
      "author_association": "NONE",
      "body": "i think once you requested shutdown, the \"CheckForStaleTipAndEvictPeers()\" function should not be scheduled to happen because core is shutting down.. so stale tip checking should be stopped immediately after requesting shutdown",
      "user": {
        "login": "mbed101",
        "id": 37986085,
        "node_id": "MDQ6VXNlcjM3OTg2MDg1",
        "avatar_url": "https://avatars.githubusercontent.com/u/37986085?v=4",
        "gravatar_id": "",
        "url": "https://api.github.com/users/mbed101",
        "html_url": "https://github.com/mbed101",
        "followers_url": "https://api.github.com/users/mbed101/followers",
        "following_url": "https://api.github.com/users/mbed101/following%7B/other_user%7D",
        "gists_url": "https://api.github.com/users/mbed101/gists%7B/gist_id%7D",
        "starred_url": "https://api.github.com/users/mbed101/starred%7B/owner%7D%7B/repo%7D",
        "subscriptions_url": "https://api.github.com/users/mbed101/subscriptions",
        "organizations_url": "https://api.github.com/users/mbed101/orgs",
        "repos_url": "https://api.github.com/users/mbed101/repos",
        "events_url": "https://api.github.com/users/mbed101/events%7B/privacy%7D",
        "received_events_url": "https://api.github.com/users/mbed101/received_events",
        "type": "User",
        "site_admin": false
      },
      "html_url": "https://github.com/bitcoin/bitcoin/issues/27848#issuecomment-1586245678",
      "issue_url": "https://api.github.com/repos/bitcoin/bitcoin/issues/27848"
    },
    {
      "event": "commented",
      "id": 1586325943,
      "node_id": "IC_kwDOABII585ejWm3",
      "url": "https://api.github.com/repos/bitcoin/bitcoin/issues/comments/1586325943",
      "actor": {
        "login": "Giszmo",
        "id": 96378,
        "node_id": "MDQ6VXNlcjk2Mzc4",
        "avatar_url": "https://avatars.githubusercontent.com/u/96378?v=4",
        "gravatar_id": "",
        "url": "https://api.github.com/users/Giszmo",
        "html_url": "https://github.com/Giszmo",
        "followers_url": "https://api.github.com/users/Giszmo/followers",
        "following_url": "https://api.github.com/users/Giszmo/following%7B/other_user%7D",
        "gists_url": "https://api.github.com/users/Giszmo/gists%7B/gist_id%7D",
        "starred_url": "https://api.github.com/users/Giszmo/starred%7B/owner%7D%7B/repo%7D",
        "subscriptions_url": "https://api.github.com/users/Giszmo/subscriptions",
        "organizations_url": "https://api.github.com/users/Giszmo/orgs",
        "repos_url": "https://api.github.com/users/Giszmo/repos",
        "events_url": "https://api.github.com/users/Giszmo/events%7B/privacy%7D",
        "received_events_url": "https://api.github.com/users/Giszmo/received_events",
        "type": "User",
        "site_admin": false
      },
      "commit_id": null,
      "commit_url": null,
      "created_at": "2023-06-11T20:19:36Z",
      "updated_at": "2023-06-11T20:19:36Z",
      "author_association": "NONE",
      "body": "So I killed it, started it, waited to catch up and now Exit took some 5 or so seconds.\r\n\r\nI suspect that the issue might have to do with flaky internet.",
      "user": {
        "login": "Giszmo",
        "id": 96378,
        "node_id": "MDQ6VXNlcjk2Mzc4",
        "avatar_url": "https://avatars.githubusercontent.com/u/96378?v=4",
        "gravatar_id": "",
        "url": "https://api.github.com/users/Giszmo",
        "html_url": "https://github.com/Giszmo",
        "followers_url": "https://api.github.com/users/Giszmo/followers",
        "following_url": "https://api.github.com/users/Giszmo/following%7B/other_user%7D",
        "gists_url": "https://api.github.com/users/Giszmo/gists%7B/gist_id%7D",
        "starred_url": "https://api.github.com/users/Giszmo/starred%7B/owner%7D%7B/repo%7D",
        "subscriptions_url": "https://api.github.com/users/Giszmo/subscriptions",
        "organizations_url": "https://api.github.com/users/Giszmo/orgs",
        "repos_url": "https://api.github.com/users/Giszmo/repos",
        "events_url": "https://api.github.com/users/Giszmo/events%7B/privacy%7D",
        "received_events_url": "https://api.github.com/users/Giszmo/received_events",
        "type": "User",
        "site_admin": false
      },
      "html_url": "https://github.com/bitcoin/bitcoin/issues/27848#issuecomment-1586325943",
      "issue_url": "https://api.github.com/repos/bitcoin/bitcoin/issues/27848"
    },
    {
      "event": "commented",
      "id": 1596615965,
      "node_id": "IC_kwDOABII585fKm0d",
      "url": "https://api.github.com/repos/bitcoin/bitcoin/issues/comments/1596615965",
      "actor": {
        "login": "MarcoFalke",
        "id": 6399679,
        "node_id": "MDQ6VXNlcjYzOTk2Nzk=",
        "avatar_url": "https://avatars.githubusercontent.com/u/6399679?v=4",
        "gravatar_id": "",
        "url": "https://api.github.com/users/MarcoFalke",
        "html_url": "https://github.com/MarcoFalke",
        "followers_url": "https://api.github.com/users/MarcoFalke/followers",
        "following_url": "https://api.github.com/users/MarcoFalke/following%7B/other_user%7D",
        "gists_url": "https://api.github.com/users/MarcoFalke/gists%7B/gist_id%7D",
        "starred_url": "https://api.github.com/users/MarcoFalke/starred%7B/owner%7D%7B/repo%7D",
        "subscriptions_url": "https://api.github.com/users/MarcoFalke/subscriptions",
        "organizations_url": "https://api.github.com/users/MarcoFalke/orgs",
        "repos_url": "https://api.github.com/users/MarcoFalke/repos",
        "events_url": "https://api.github.com/users/MarcoFalke/events%7B/privacy%7D",
        "received_events_url": "https://api.github.com/users/MarcoFalke/received_events",
        "type": "User",
        "site_admin": false
      },
      "commit_id": null,
      "commit_url": null,
      "created_at": "2023-06-19T06:58:38Z",
      "updated_at": "2023-06-19T06:58:38Z",
      "author_association": "MEMBER",
      "body": "Duplicate of #23234?",
      "user": {
        "login": "MarcoFalke",
        "id": 6399679,
        "node_id": "MDQ6VXNlcjYzOTk2Nzk=",
        "avatar_url": "https://avatars.githubusercontent.com/u/6399679?v=4",
        "gravatar_id": "",
        "url": "https://api.github.com/users/MarcoFalke",
        "html_url": "https://github.com/MarcoFalke",
        "followers_url": "https://api.github.com/users/MarcoFalke/followers",
        "following_url": "https://api.github.com/users/MarcoFalke/following%7B/other_user%7D",
        "gists_url": "https://api.github.com/users/MarcoFalke/gists%7B/gist_id%7D",
        "starred_url": "https://api.github.com/users/MarcoFalke/starred%7B/owner%7D%7B/repo%7D",
        "subscriptions_url": "https://api.github.com/users/MarcoFalke/subscriptions",
        "organizations_url": "https://api.github.com/users/MarcoFalke/orgs",
        "repos_url": "https://api.github.com/users/MarcoFalke/repos",
        "events_url": "https://api.github.com/users/MarcoFalke/events%7B/privacy%7D",
        "received_events_url": "https://api.github.com/users/MarcoFalke/received_events",
        "type": "User",
        "site_admin": false
      },
      "html_url": "https://github.com/bitcoin/bitcoin/issues/27848#issuecomment-1596615965",
      "issue_url": "https://api.github.com/repos/bitcoin/bitcoin/issues/27848"
    },
    {
      "event": "commented",
      "id": 1597355272,
      "node_id": "IC_kwDOABII585fNbUI",
      "url": "https://api.github.com/repos/bitcoin/bitcoin/issues/comments/1597355272",
      "actor": {
        "login": "Crypt-iQ",
        "id": 15145615,
        "node_id": "MDQ6VXNlcjE1MTQ1NjE1",
        "avatar_url": "https://avatars.githubusercontent.com/u/15145615?v=4",
        "gravatar_id": "",
        "url": "https://api.github.com/users/Crypt-iQ",
        "html_url": "https://github.com/Crypt-iQ",
        "followers_url": "https://api.github.com/users/Crypt-iQ/followers",
        "following_url": "https://api.github.com/users/Crypt-iQ/following%7B/other_user%7D",
        "gists_url": "https://api.github.com/users/Crypt-iQ/gists%7B/gist_id%7D",
        "starred_url": "https://api.github.com/users/Crypt-iQ/starred%7B/owner%7D%7B/repo%7D",
        "subscriptions_url": "https://api.github.com/users/Crypt-iQ/subscriptions",
        "organizations_url": "https://api.github.com/users/Crypt-iQ/orgs",
        "repos_url": "https://api.github.com/users/Crypt-iQ/repos",
        "events_url": "https://api.github.com/users/Crypt-iQ/events%7B/privacy%7D",
        "received_events_url": "https://api.github.com/users/Crypt-iQ/received_events",
        "type": "User",
        "site_admin": false
      },
      "commit_id": null,
      "commit_url": null,
      "created_at": "2023-06-19T15:08:25Z",
      "updated_at": "2023-06-19T15:08:25Z",
      "author_association": "CONTRIBUTOR",
      "body": "> Duplicate of #23234?\r\n\r\nNot a duplicate because in that case the scheduler thread has exited but another thread has called `SyncWithValidationInterfaceQueue` and is waiting on a promise. Like you pointed out here, the scheduler thread hasn't exited. Could be related though, just maybe not an exact duplicate",
      "user": {
        "login": "Crypt-iQ",
        "id": 15145615,
        "node_id": "MDQ6VXNlcjE1MTQ1NjE1",
        "avatar_url": "https://avatars.githubusercontent.com/u/15145615?v=4",
        "gravatar_id": "",
        "url": "https://api.github.com/users/Crypt-iQ",
        "html_url": "https://github.com/Crypt-iQ",
        "followers_url": "https://api.github.com/users/Crypt-iQ/followers",
        "following_url": "https://api.github.com/users/Crypt-iQ/following%7B/other_user%7D",
        "gists_url": "https://api.github.com/users/Crypt-iQ/gists%7B/gist_id%7D",
        "starred_url": "https://api.github.com/users/Crypt-iQ/starred%7B/owner%7D%7B/repo%7D",
        "subscriptions_url": "https://api.github.com/users/Crypt-iQ/subscriptions",
        "organizations_url": "https://api.github.com/users/Crypt-iQ/orgs",
        "repos_url": "https://api.github.com/users/Crypt-iQ/repos",
        "events_url": "https://api.github.com/users/Crypt-iQ/events%7B/privacy%7D",
        "received_events_url": "https://api.github.com/users/Crypt-iQ/received_events",
        "type": "User",
        "site_admin": false
      },
      "html_url": "https://github.com/bitcoin/bitcoin/issues/27848#issuecomment-1597355272",
      "issue_url": "https://api.github.com/repos/bitcoin/bitcoin/issues/27848"
    },
    {
      "event": "commented",
      "id": 1607185201,
      "node_id": "IC_kwDOABII585fy7Mx",
      "url": "https://api.github.com/repos/bitcoin/bitcoin/issues/comments/1607185201",
      "actor": {
        "login": "MarcoFalke",
        "id": 6399679,
        "node_id": "MDQ6VXNlcjYzOTk2Nzk=",
        "avatar_url": "https://avatars.githubusercontent.com/u/6399679?v=4",
        "gravatar_id": "",
        "url": "https://api.github.com/users/MarcoFalke",
        "html_url": "https://github.com/MarcoFalke",
        "followers_url": "https://api.github.com/users/MarcoFalke/followers",
        "following_url": "https://api.github.com/users/MarcoFalke/following%7B/other_user%7D",
        "gists_url": "https://api.github.com/users/MarcoFalke/gists%7B/gist_id%7D",
        "starred_url": "https://api.github.com/users/MarcoFalke/starred%7B/owner%7D%7B/repo%7D",
        "subscriptions_url": "https://api.github.com/users/MarcoFalke/subscriptions",
        "organizations_url": "https://api.github.com/users/MarcoFalke/orgs",
        "repos_url": "https://api.github.com/users/MarcoFalke/repos",
        "events_url": "https://api.github.com/users/MarcoFalke/events%7B/privacy%7D",
        "received_events_url": "https://api.github.com/users/MarcoFalke/received_events",
        "type": "User",
        "site_admin": false
      },
      "commit_id": null,
      "commit_url": null,
      "created_at": "2023-06-26T10:37:06Z",
      "updated_at": "2023-06-26T10:37:06Z",
      "author_association": "MEMBER",
      "body": "Makes sense, but then it seems a duplicate of #27965, which also still has the scheduler thread running (and more debug info)?",
      "user": {
        "login": "MarcoFalke",
        "id": 6399679,
        "node_id": "MDQ6VXNlcjYzOTk2Nzk=",
        "avatar_url": "https://avatars.githubusercontent.com/u/6399679?v=4",
        "gravatar_id": "",
        "url": "https://api.github.com/users/MarcoFalke",
        "html_url": "https://github.com/MarcoFalke",
        "followers_url": "https://api.github.com/users/MarcoFalke/followers",
        "following_url": "https://api.github.com/users/MarcoFalke/following%7B/other_user%7D",
        "gists_url": "https://api.github.com/users/MarcoFalke/gists%7B/gist_id%7D",
        "starred_url": "https://api.github.com/users/MarcoFalke/starred%7B/owner%7D%7B/repo%7D",
        "subscriptions_url": "https://api.github.com/users/MarcoFalke/subscriptions",
        "organizations_url": "https://api.github.com/users/MarcoFalke/orgs",
        "repos_url": "https://api.github.com/users/MarcoFalke/repos",
        "events_url": "https://api.github.com/users/MarcoFalke/events%7B/privacy%7D",
        "received_events_url": "https://api.github.com/users/MarcoFalke/received_events",
        "type": "User",
        "site_admin": false
      },
      "html_url": "https://github.com/bitcoin/bitcoin/issues/27848#issuecomment-1607185201",
      "issue_url": "https://api.github.com/repos/bitcoin/bitcoin/issues/27848"
    },
    {
      "event": "commented",
      "id": 1607214840,
      "node_id": "IC_kwDOABII585fzCb4",
      "url": "https://api.github.com/repos/bitcoin/bitcoin/issues/comments/1607214840",
      "actor": {
        "login": "MarcoFalke",
        "id": 6399679,
        "node_id": "MDQ6VXNlcjYzOTk2Nzk=",
        "avatar_url": "https://avatars.githubusercontent.com/u/6399679?v=4",
        "gravatar_id": "",
        "url": "https://api.github.com/users/MarcoFalke",
        "html_url": "https://github.com/MarcoFalke",
        "followers_url": "https://api.github.com/users/MarcoFalke/followers",
        "following_url": "https://api.github.com/users/MarcoFalke/following%7B/other_user%7D",
        "gists_url": "https://api.github.com/users/MarcoFalke/gists%7B/gist_id%7D",
        "starred_url": "https://api.github.com/users/MarcoFalke/starred%7B/owner%7D%7B/repo%7D",
        "subscriptions_url": "https://api.github.com/users/MarcoFalke/subscriptions",
        "organizations_url": "https://api.github.com/users/MarcoFalke/orgs",
        "repos_url": "https://api.github.com/users/MarcoFalke/repos",
        "events_url": "https://api.github.com/users/MarcoFalke/events%7B/privacy%7D",
        "received_events_url": "https://api.github.com/users/MarcoFalke/received_events",
        "type": "User",
        "site_admin": false
      },
      "commit_id": null,
      "commit_url": null,
      "created_at": "2023-06-26T10:58:36Z",
      "updated_at": "2023-06-26T10:58:36Z",
      "author_association": "MEMBER",
      "body": "Closing as dupe of https://github.com/bitcoin/bitcoin/issues/27965 for now.  ",
      "user": {
        "login": "MarcoFalke",
        "id": 6399679,
        "node_id": "MDQ6VXNlcjYzOTk2Nzk=",
        "avatar_url": "https://avatars.githubusercontent.com/u/6399679?v=4",
        "gravatar_id": "",
        "url": "https://api.github.com/users/MarcoFalke",
        "html_url": "https://github.com/MarcoFalke",
        "followers_url": "https://api.github.com/users/MarcoFalke/followers",
        "following_url": "https://api.github.com/users/MarcoFalke/following%7B/other_user%7D",
        "gists_url": "https://api.github.com/users/MarcoFalke/gists%7B/gist_id%7D",
        "starred_url": "https://api.github.com/users/MarcoFalke/starred%7B/owner%7D%7B/repo%7D",
        "subscriptions_url": "https://api.github.com/users/MarcoFalke/subscriptions",
        "organizations_url": "https://api.github.com/users/MarcoFalke/orgs",
        "repos_url": "https://api.github.com/users/MarcoFalke/repos",
        "events_url": "https://api.github.com/users/MarcoFalke/events%7B/privacy%7D",
        "received_events_url": "https://api.github.com/users/MarcoFalke/received_events",
        "type": "User",
        "site_admin": false
      },
      "html_url": "https://github.com/bitcoin/bitcoin/issues/27848#issuecomment-1607214840",
      "issue_url": "https://api.github.com/repos/bitcoin/bitcoin/issues/27848"
    },
    {
      "event": "closed",
      "id": 9637285015,
      "node_id": "CE_lADOABII585oWydmzwAAAAI-bUyX",
      "url": "https://api.github.com/repos/bitcoin/bitcoin/issues/events/9637285015",
      "actor": {
        "login": "MarcoFalke",
        "id": 6399679,
        "node_id": "MDQ6VXNlcjYzOTk2Nzk=",
        "avatar_url": "https://avatars.githubusercontent.com/u/6399679?v=4",
        "gravatar_id": "",
        "url": "https://api.github.com/users/MarcoFalke",
        "html_url": "https://github.com/MarcoFalke",
        "followers_url": "https://api.github.com/users/MarcoFalke/followers",
        "following_url": "https://api.github.com/users/MarcoFalke/following%7B/other_user%7D",
        "gists_url": "https://api.github.com/users/MarcoFalke/gists%7B/gist_id%7D",
        "starred_url": "https://api.github.com/users/MarcoFalke/starred%7B/owner%7D%7B/repo%7D",
        "subscriptions_url": "https://api.github.com/users/MarcoFalke/subscriptions",
        "organizations_url": "https://api.github.com/users/MarcoFalke/orgs",
        "repos_url": "https://api.github.com/users/MarcoFalke/repos",
        "events_url": "https://api.github.com/users/MarcoFalke/events%7B/privacy%7D",
        "received_events_url": "https://api.github.com/users/MarcoFalke/received_events",
        "type": "User",
        "site_admin": false
      },
      "commit_id": null,
      "commit_url": null,
      "created_at": "2023-06-26T10:58:36Z"
    }
  ]
}