{
  "type": "issue",
  "issue": {
    "id": 1760562423,
    "node_id": "I_kwDOABII585o8Az3",
    "url": "https://api.github.com/repos/bitcoin/bitcoin/issues/27901",
    "repository_url": "https://api.github.com/repos/bitcoin/bitcoin",
    "labels_url": "https://api.github.com/repos/bitcoin/bitcoin/issues/27901/labels%7B/name%7D",
    "comments_url": "https://api.github.com/repos/bitcoin/bitcoin/issues/27901/comments",
    "events_url": "https://api.github.com/repos/bitcoin/bitcoin/issues/27901/events",
    "html_url": "https://github.com/bitcoin/bitcoin/issues/27901",
    "number": 27901,
    "state": "closed",
    "state_reason": "completed",
    "title": "Nodes are not published after Bitcoin Code process done ",
    "body": "### Is there an existing issue for this?\n\n- [X] I have searched the existing issues\n\n### Current behaviour\n\nDear support, \r\n \r\nRecently I created 2 clients and opened the port 8333 for them: \r\n64.250.182.133 - BTC Core Ubuntu\r\n64.250.182.138 - BTC Core Windows\r\n\r\nThe BTC core syncronization process is already completed but I don't see these nodes are published on the https://bitnodes.io/ when I try to Check the node. \r\n\r\nHere are screenshots: https://drive.google.com/drive/folders/1atsXL-94GOqrrq-6yly5b9PK6Xfovx1Q?usp=sharing\r\n\r\nCan you please assist me with that? \r\n\r\nThank you in advance! \n\n### Expected behaviour\n\nI want these nodes with the port 8333 to be published on the https://bitnodes.io/ \r\n64.250.182.133 - BTC Core Ubuntu\r\n64.250.182.138 - BTC Core Windows\n\n### Steps to reproduce\n\n1. Go to https://bitnodes.io/\r\n2. Insert 64.250.182.133 and port 8333\r\n3. Check node \r\n4. See the node published \r\n\r\n1. Go to https://bitnodes.io/\r\n2. Insert 64.250.182.138 and port 8333\r\n3. Check node \r\n4. See the node published \n\n### Relevant log output\n\n_No response_\n\n### How did you obtain Bitcoin Core\n\nCompiled from source\n\n### What version of Bitcoin Core are you using?\n\nVersion 25 for Windows, v22.0 for Ubuntu\n\n### Operating system and version\n\nWindows 10 Pro 22H2, Ubuntu 22.04.2 LTS\n\n### Machine specifications\n\nIntel Xeon CPU (2 vCPU) / 16 Gb RAM Standard HDD for Windows \r\nIntel Xeon CPU (4vCPU) / 4 Gb RAM / Standard HDD for Ubuntu \r\n\r\n\r\n\r\n\r\n\r\n\r\n",
    "user": {
      "login": "vkhalaburskiy",
      "id": 100208360,
      "node_id": "U_kgDOBfkO6A",
      "avatar_url": "https://avatars.githubusercontent.com/u/100208360?v=4",
      "gravatar_id": "",
      "url": "https://api.github.com/users/vkhalaburskiy",
      "html_url": "https://github.com/vkhalaburskiy",
      "followers_url": "https://api.github.com/users/vkhalaburskiy/followers",
      "following_url": "https://api.github.com/users/vkhalaburskiy/following%7B/other_user%7D",
      "gists_url": "https://api.github.com/users/vkhalaburskiy/gists%7B/gist_id%7D",
      "starred_url": "https://api.github.com/users/vkhalaburskiy/starred%7B/owner%7D%7B/repo%7D",
      "subscriptions_url": "https://api.github.com/users/vkhalaburskiy/subscriptions",
      "organizations_url": "https://api.github.com/users/vkhalaburskiy/orgs",
      "repos_url": "https://api.github.com/users/vkhalaburskiy/repos",
      "events_url": "https://api.github.com/users/vkhalaburskiy/events%7B/privacy%7D",
      "received_events_url": "https://api.github.com/users/vkhalaburskiy/received_events",
      "type": "User",
      "site_admin": false
    },
    "labels": [],
    "assignees": [],
    "author_association": "NONE",
    "locked": false,
    "comments": 4,
    "closed_at": "2023-06-16T12:49:04Z",
    "created_at": "2023-06-16T12:38:12Z",
    "updated_at": "2023-06-16T14:22:12Z"
  },
  "events": [
    {
      "event": "commented",
      "id": 1594625111,
      "node_id": "IC_kwDOABII585fDAxX",
      "url": "https://api.github.com/repos/bitcoin/bitcoin/issues/comments/1594625111",
      "actor": {
        "login": "willcl-ark",
        "id": 6606587,
        "node_id": "MDQ6VXNlcjY2MDY1ODc=",
        "avatar_url": "https://avatars.githubusercontent.com/u/6606587?v=4",
        "gravatar_id": "",
        "url": "https://api.github.com/users/willcl-ark",
        "html_url": "https://github.com/willcl-ark",
        "followers_url": "https://api.github.com/users/willcl-ark/followers",
        "following_url": "https://api.github.com/users/willcl-ark/following%7B/other_user%7D",
        "gists_url": "https://api.github.com/users/willcl-ark/gists%7B/gist_id%7D",
        "starred_url": "https://api.github.com/users/willcl-ark/starred%7B/owner%7D%7B/repo%7D",
        "subscriptions_url": "https://api.github.com/users/willcl-ark/subscriptions",
        "organizations_url": "https://api.github.com/users/willcl-ark/orgs",
        "repos_url": "https://api.github.com/users/willcl-ark/repos",
        "events_url": "https://api.github.com/users/willcl-ark/events%7B/privacy%7D",
        "received_events_url": "https://api.github.com/users/willcl-ark/received_events",
        "type": "User",
        "site_admin": false
      },
      "commit_id": null,
      "commit_url": null,
      "created_at": "2023-06-16T12:49:04Z",
      "updated_at": "2023-06-16T12:49:04Z",
      "author_association": "CONTRIBUTOR",
      "body": "That website presumably runs a full node or other crawler which will collect addresses from the p2p network. Without knowing how that website works, I'd assume that your nodes will appear there at some point if they are configured correctly and connected to other nodes in the network.\r\n\r\nPerhaps you need open the p2p port (default: 8333) on your router (i.e. \"listening\")? If that doesn't help I'd recommend contacting the owner of the website with your query.\r\n\r\nEither way, this issue tracker is not a support forum for unaffiliated websites, so I'm going to close this issue out.",
      "user": {
        "login": "willcl-ark",
        "id": 6606587,
        "node_id": "MDQ6VXNlcjY2MDY1ODc=",
        "avatar_url": "https://avatars.githubusercontent.com/u/6606587?v=4",
        "gravatar_id": "",
        "url": "https://api.github.com/users/willcl-ark",
        "html_url": "https://github.com/willcl-ark",
        "followers_url": "https://api.github.com/users/willcl-ark/followers",
        "following_url": "https://api.github.com/users/willcl-ark/following%7B/other_user%7D",
        "gists_url": "https://api.github.com/users/willcl-ark/gists%7B/gist_id%7D",
        "starred_url": "https://api.github.com/users/willcl-ark/starred%7B/owner%7D%7B/repo%7D",
        "subscriptions_url": "https://api.github.com/users/willcl-ark/subscriptions",
        "organizations_url": "https://api.github.com/users/willcl-ark/orgs",
        "repos_url": "https://api.github.com/users/willcl-ark/repos",
        "events_url": "https://api.github.com/users/willcl-ark/events%7B/privacy%7D",
        "received_events_url": "https://api.github.com/users/willcl-ark/received_events",
        "type": "User",
        "site_admin": false
      },
      "html_url": "https://github.com/bitcoin/bitcoin/issues/27901#issuecomment-1594625111",
      "issue_url": "https://api.github.com/repos/bitcoin/bitcoin/issues/27901"
    },
    {
      "event": "closed",
      "id": 9551188146,
      "node_id": "CE_lADOABII585o8Az3zwAAAAI5S5Cy",
      "url": "https://api.github.com/repos/bitcoin/bitcoin/issues/events/9551188146",
      "actor": {
        "login": "willcl-ark",
        "id": 6606587,
        "node_id": "MDQ6VXNlcjY2MDY1ODc=",
        "avatar_url": "https://avatars.githubusercontent.com/u/6606587?v=4",
        "gravatar_id": "",
        "url": "https://api.github.com/users/willcl-ark",
        "html_url": "https://github.com/willcl-ark",
        "followers_url": "https://api.github.com/users/willcl-ark/followers",
        "following_url": "https://api.github.com/users/willcl-ark/following%7B/other_user%7D",
        "gists_url": "https://api.github.com/users/willcl-ark/gists%7B/gist_id%7D",
        "starred_url": "https://api.github.com/users/willcl-ark/starred%7B/owner%7D%7B/repo%7D",
        "subscriptions_url": "https://api.github.com/users/willcl-ark/subscriptions",
        "organizations_url": "https://api.github.com/users/willcl-ark/orgs",
        "repos_url": "https://api.github.com/users/willcl-ark/repos",
        "events_url": "https://api.github.com/users/willcl-ark/events%7B/privacy%7D",
        "received_events_url": "https://api.github.com/users/willcl-ark/received_events",
        "type": "User",
        "site_admin": false
      },
      "commit_id": null,
      "commit_url": null,
      "created_at": "2023-06-16T12:49:04Z"
    },
    {
      "event": "unsubscribed",
      "id": 9551549525,
      "node_id": "UE_lADOABII585o8Az3zwAAAAI5URRV",
      "url": "https://api.github.com/repos/bitcoin/bitcoin/issues/events/9551549525",
      "actor": {
        "login": "joostjager",
        "id": 4638168,
        "node_id": "MDQ6VXNlcjQ2MzgxNjg=",
        "avatar_url": "https://avatars.githubusercontent.com/u/4638168?v=4",
        "gravatar_id": "",
        "url": "https://api.github.com/users/joostjager",
        "html_url": "https://github.com/joostjager",
        "followers_url": "https://api.github.com/users/joostjager/followers",
        "following_url": "https://api.github.com/users/joostjager/following%7B/other_user%7D",
        "gists_url": "https://api.github.com/users/joostjager/gists%7B/gist_id%7D",
        "starred_url": "https://api.github.com/users/joostjager/starred%7B/owner%7D%7B/repo%7D",
        "subscriptions_url": "https://api.github.com/users/joostjager/subscriptions",
        "organizations_url": "https://api.github.com/users/joostjager/orgs",
        "repos_url": "https://api.github.com/users/joostjager/repos",
        "events_url": "https://api.github.com/users/joostjager/events%7B/privacy%7D",
        "received_events_url": "https://api.github.com/users/joostjager/received_events",
        "type": "User",
        "site_admin": false
      },
      "commit_id": null,
      "commit_url": null,
      "created_at": "2023-06-16T13:21:35Z"
    },
    {
      "event": "commented",
      "id": 1594761119,
      "node_id": "IC_kwDOABII585fDh-f",
      "url": "https://api.github.com/repos/bitcoin/bitcoin/issues/comments/1594761119",
      "actor": {
        "login": "vkhalaburskiy",
        "id": 100208360,
        "node_id": "U_kgDOBfkO6A",
        "avatar_url": "https://avatars.githubusercontent.com/u/100208360?v=4",
        "gravatar_id": "",
        "url": "https://api.github.com/users/vkhalaburskiy",
        "html_url": "https://github.com/vkhalaburskiy",
        "followers_url": "https://api.github.com/users/vkhalaburskiy/followers",
        "following_url": "https://api.github.com/users/vkhalaburskiy/following%7B/other_user%7D",
        "gists_url": "https://api.github.com/users/vkhalaburskiy/gists%7B/gist_id%7D",
        "starred_url": "https://api.github.com/users/vkhalaburskiy/starred%7B/owner%7D%7B/repo%7D",
        "subscriptions_url": "https://api.github.com/users/vkhalaburskiy/subscriptions",
        "organizations_url": "https://api.github.com/users/vkhalaburskiy/orgs",
        "repos_url": "https://api.github.com/users/vkhalaburskiy/repos",
        "events_url": "https://api.github.com/users/vkhalaburskiy/events%7B/privacy%7D",
        "received_events_url": "https://api.github.com/users/vkhalaburskiy/received_events",
        "type": "User",
        "site_admin": false
      },
      "commit_id": null,
      "commit_url": null,
      "created_at": "2023-06-16T14:17:55Z",
      "updated_at": "2023-06-16T14:17:55Z",
      "author_association": "NONE",
      "body": "@willcl-ark, thanks for your explanations! \r\nProbably it's also important that we're running pruned nodes, not full, do you think the reason can be in that as well? \r\n\r\nThe last question, do you know the contact info of  https://bitnodes.io/ maybe? They don't have a support there ( ",
      "user": {
        "login": "vkhalaburskiy",
        "id": 100208360,
        "node_id": "U_kgDOBfkO6A",
        "avatar_url": "https://avatars.githubusercontent.com/u/100208360?v=4",
        "gravatar_id": "",
        "url": "https://api.github.com/users/vkhalaburskiy",
        "html_url": "https://github.com/vkhalaburskiy",
        "followers_url": "https://api.github.com/users/vkhalaburskiy/followers",
        "following_url": "https://api.github.com/users/vkhalaburskiy/following%7B/other_user%7D",
        "gists_url": "https://api.github.com/users/vkhalaburskiy/gists%7B/gist_id%7D",
        "starred_url": "https://api.github.com/users/vkhalaburskiy/starred%7B/owner%7D%7B/repo%7D",
        "subscriptions_url": "https://api.github.com/users/vkhalaburskiy/subscriptions",
        "organizations_url": "https://api.github.com/users/vkhalaburskiy/orgs",
        "repos_url": "https://api.github.com/users/vkhalaburskiy/repos",
        "events_url": "https://api.github.com/users/vkhalaburskiy/events%7B/privacy%7D",
        "received_events_url": "https://api.github.com/users/vkhalaburskiy/received_events",
        "type": "User",
        "site_admin": false
      },
      "html_url": "https://github.com/bitcoin/bitcoin/issues/27901#issuecomment-1594761119",
      "issue_url": "https://api.github.com/repos/bitcoin/bitcoin/issues/27901"
    },
    {
      "event": "mentioned",
      "id": 9552190132,
      "node_id": "MEE_lADOABII585o8Az3zwAAAAI5Wtq0",
      "url": "https://api.github.com/repos/bitcoin/bitcoin/issues/events/9552190132",
      "actor": {
        "login": "willcl-ark",
        "id": 6606587,
        "node_id": "MDQ6VXNlcjY2MDY1ODc=",
        "avatar_url": "https://avatars.githubusercontent.com/u/6606587?v=4",
        "gravatar_id": "",
        "url": "https://api.github.com/users/willcl-ark",
        "html_url": "https://github.com/willcl-ark",
        "followers_url": "https://api.github.com/users/willcl-ark/followers",
        "following_url": "https://api.github.com/users/willcl-ark/following%7B/other_user%7D",
        "gists_url": "https://api.github.com/users/willcl-ark/gists%7B/gist_id%7D",
        "starred_url": "https://api.github.com/users/willcl-ark/starred%7B/owner%7D%7B/repo%7D",
        "subscriptions_url": "https://api.github.com/users/willcl-ark/subscriptions",
        "organizations_url": "https://api.github.com/users/willcl-ark/orgs",
        "repos_url": "https://api.github.com/users/willcl-ark/repos",
        "events_url": "https://api.github.com/users/willcl-ark/events%7B/privacy%7D",
        "received_events_url": "https://api.github.com/users/willcl-ark/received_events",
        "type": "User",
        "site_admin": false
      },
      "commit_id": null,
      "commit_url": null,
      "created_at": "2023-06-16T14:17:56Z"
    },
    {
      "event": "subscribed",
      "id": 9552190148,
      "node_id": "SE_lADOABII585o8Az3zwAAAAI5WtrE",
      "url": "https://api.github.com/repos/bitcoin/bitcoin/issues/events/9552190148",
      "actor": {
        "login": "willcl-ark",
        "id": 6606587,
        "node_id": "MDQ6VXNlcjY2MDY1ODc=",
        "avatar_url": "https://avatars.githubusercontent.com/u/6606587?v=4",
        "gravatar_id": "",
        "url": "https://api.github.com/users/willcl-ark",
        "html_url": "https://github.com/willcl-ark",
        "followers_url": "https://api.github.com/users/willcl-ark/followers",
        "following_url": "https://api.github.com/users/willcl-ark/following%7B/other_user%7D",
        "gists_url": "https://api.github.com/users/willcl-ark/gists%7B/gist_id%7D",
        "starred_url": "https://api.github.com/users/willcl-ark/starred%7B/owner%7D%7B/repo%7D",
        "subscriptions_url": "https://api.github.com/users/willcl-ark/subscriptions",
        "organizations_url": "https://api.github.com/users/willcl-ark/orgs",
        "repos_url": "https://api.github.com/users/willcl-ark/repos",
        "events_url": "https://api.github.com/users/willcl-ark/events%7B/privacy%7D",
        "received_events_url": "https://api.github.com/users/willcl-ark/received_events",
        "type": "User",
        "site_admin": false
      },
      "commit_id": null,
      "commit_url": null,
      "created_at": "2023-06-16T14:17:56Z"
    },
    {
      "event": "commented",
      "id": 1594766959,
      "node_id": "IC_kwDOABII585fDjZv",
      "url": "https://api.github.com/repos/bitcoin/bitcoin/issues/comments/1594766959",
      "actor": {
        "login": "willcl-ark",
        "id": 6606587,
        "node_id": "MDQ6VXNlcjY2MDY1ODc=",
        "avatar_url": "https://avatars.githubusercontent.com/u/6606587?v=4",
        "gravatar_id": "",
        "url": "https://api.github.com/users/willcl-ark",
        "html_url": "https://github.com/willcl-ark",
        "followers_url": "https://api.github.com/users/willcl-ark/followers",
        "following_url": "https://api.github.com/users/willcl-ark/following%7B/other_user%7D",
        "gists_url": "https://api.github.com/users/willcl-ark/gists%7B/gist_id%7D",
        "starred_url": "https://api.github.com/users/willcl-ark/starred%7B/owner%7D%7B/repo%7D",
        "subscriptions_url": "https://api.github.com/users/willcl-ark/subscriptions",
        "organizations_url": "https://api.github.com/users/willcl-ark/orgs",
        "repos_url": "https://api.github.com/users/willcl-ark/repos",
        "events_url": "https://api.github.com/users/willcl-ark/events%7B/privacy%7D",
        "received_events_url": "https://api.github.com/users/willcl-ark/received_events",
        "type": "User",
        "site_admin": false
      },
      "commit_id": null,
      "commit_url": null,
      "created_at": "2023-06-16T14:20:07Z",
      "updated_at": "2023-06-16T14:20:07Z",
      "author_association": "CONTRIBUTOR",
      "body": "Sorry I don't know anyone there. \n\nLooks like it only has listening nodes so ensure you have listen=1 in your bitcoin config, and 8333 forwarded on your router to the node.\n\nThen wait I guess? ",
      "user": {
        "login": "willcl-ark",
        "id": 6606587,
        "node_id": "MDQ6VXNlcjY2MDY1ODc=",
        "avatar_url": "https://avatars.githubusercontent.com/u/6606587?v=4",
        "gravatar_id": "",
        "url": "https://api.github.com/users/willcl-ark",
        "html_url": "https://github.com/willcl-ark",
        "followers_url": "https://api.github.com/users/willcl-ark/followers",
        "following_url": "https://api.github.com/users/willcl-ark/following%7B/other_user%7D",
        "gists_url": "https://api.github.com/users/willcl-ark/gists%7B/gist_id%7D",
        "starred_url": "https://api.github.com/users/willcl-ark/starred%7B/owner%7D%7B/repo%7D",
        "subscriptions_url": "https://api.github.com/users/willcl-ark/subscriptions",
        "organizations_url": "https://api.github.com/users/willcl-ark/orgs",
        "repos_url": "https://api.github.com/users/willcl-ark/repos",
        "events_url": "https://api.github.com/users/willcl-ark/events%7B/privacy%7D",
        "received_events_url": "https://api.github.com/users/willcl-ark/received_events",
        "type": "User",
        "site_admin": false
      },
      "html_url": "https://github.com/bitcoin/bitcoin/issues/27901#issuecomment-1594766959",
      "issue_url": "https://api.github.com/repos/bitcoin/bitcoin/issues/27901"
    },
    {
      "event": "commented",
      "id": 1594771684,
      "node_id": "IC_kwDOABII585fDkjk",
      "url": "https://api.github.com/repos/bitcoin/bitcoin/issues/comments/1594771684",
      "actor": {
        "login": "vkhalaburskiy",
        "id": 100208360,
        "node_id": "U_kgDOBfkO6A",
        "avatar_url": "https://avatars.githubusercontent.com/u/100208360?v=4",
        "gravatar_id": "",
        "url": "https://api.github.com/users/vkhalaburskiy",
        "html_url": "https://github.com/vkhalaburskiy",
        "followers_url": "https://api.github.com/users/vkhalaburskiy/followers",
        "following_url": "https://api.github.com/users/vkhalaburskiy/following%7B/other_user%7D",
        "gists_url": "https://api.github.com/users/vkhalaburskiy/gists%7B/gist_id%7D",
        "starred_url": "https://api.github.com/users/vkhalaburskiy/starred%7B/owner%7D%7B/repo%7D",
        "subscriptions_url": "https://api.github.com/users/vkhalaburskiy/subscriptions",
        "organizations_url": "https://api.github.com/users/vkhalaburskiy/orgs",
        "repos_url": "https://api.github.com/users/vkhalaburskiy/repos",
        "events_url": "https://api.github.com/users/vkhalaburskiy/events%7B/privacy%7D",
        "received_events_url": "https://api.github.com/users/vkhalaburskiy/received_events",
        "type": "User",
        "site_admin": false
      },
      "commit_id": null,
      "commit_url": null,
      "created_at": "2023-06-16T14:22:12Z",
      "updated_at": "2023-06-16T14:22:12Z",
      "author_association": "NONE",
      "body": "@willcl-ark got you! \r\nAppreciate it. ",
      "user": {
        "login": "vkhalaburskiy",
        "id": 100208360,
        "node_id": "U_kgDOBfkO6A",
        "avatar_url": "https://avatars.githubusercontent.com/u/100208360?v=4",
        "gravatar_id": "",
        "url": "https://api.github.com/users/vkhalaburskiy",
        "html_url": "https://github.com/vkhalaburskiy",
        "followers_url": "https://api.github.com/users/vkhalaburskiy/followers",
        "following_url": "https://api.github.com/users/vkhalaburskiy/following%7B/other_user%7D",
        "gists_url": "https://api.github.com/users/vkhalaburskiy/gists%7B/gist_id%7D",
        "starred_url": "https://api.github.com/users/vkhalaburskiy/starred%7B/owner%7D%7B/repo%7D",
        "subscriptions_url": "https://api.github.com/users/vkhalaburskiy/subscriptions",
        "organizations_url": "https://api.github.com/users/vkhalaburskiy/orgs",
        "repos_url": "https://api.github.com/users/vkhalaburskiy/repos",
        "events_url": "https://api.github.com/users/vkhalaburskiy/events%7B/privacy%7D",
        "received_events_url": "https://api.github.com/users/vkhalaburskiy/received_events",
        "type": "User",
        "site_admin": false
      },
      "html_url": "https://github.com/bitcoin/bitcoin/issues/27901#issuecomment-1594771684",
      "issue_url": "https://api.github.com/repos/bitcoin/bitcoin/issues/27901"
    },
    {
      "event": "mentioned",
      "id": 9552237589,
      "node_id": "MEE_lADOABII585o8Az3zwAAAAI5W5QV",
      "url": "https://api.github.com/repos/bitcoin/bitcoin/issues/events/9552237589",
      "actor": {
        "login": "willcl-ark",
        "id": 6606587,
        "node_id": "MDQ6VXNlcjY2MDY1ODc=",
        "avatar_url": "https://avatars.githubusercontent.com/u/6606587?v=4",
        "gravatar_id": "",
        "url": "https://api.github.com/users/willcl-ark",
        "html_url": "https://github.com/willcl-ark",
        "followers_url": "https://api.github.com/users/willcl-ark/followers",
        "following_url": "https://api.github.com/users/willcl-ark/following%7B/other_user%7D",
        "gists_url": "https://api.github.com/users/willcl-ark/gists%7B/gist_id%7D",
        "starred_url": "https://api.github.com/users/willcl-ark/starred%7B/owner%7D%7B/repo%7D",
        "subscriptions_url": "https://api.github.com/users/willcl-ark/subscriptions",
        "organizations_url": "https://api.github.com/users/willcl-ark/orgs",
        "repos_url": "https://api.github.com/users/willcl-ark/repos",
        "events_url": "https://api.github.com/users/willcl-ark/events%7B/privacy%7D",
        "received_events_url": "https://api.github.com/users/willcl-ark/received_events",
        "type": "User",
        "site_admin": false
      },
      "commit_id": null,
      "commit_url": null,
      "created_at": "2023-06-16T14:22:12Z"
    },
    {
      "event": "subscribed",
      "id": 9552237613,
      "node_id": "SE_lADOABII585o8Az3zwAAAAI5W5Qt",
      "url": "https://api.github.com/repos/bitcoin/bitcoin/issues/events/9552237613",
      "actor": {
        "login": "willcl-ark",
        "id": 6606587,
        "node_id": "MDQ6VXNlcjY2MDY1ODc=",
        "avatar_url": "https://avatars.githubusercontent.com/u/6606587?v=4",
        "gravatar_id": "",
        "url": "https://api.github.com/users/willcl-ark",
        "html_url": "https://github.com/willcl-ark",
        "followers_url": "https://api.github.com/users/willcl-ark/followers",
        "following_url": "https://api.github.com/users/willcl-ark/following%7B/other_user%7D",
        "gists_url": "https://api.github.com/users/willcl-ark/gists%7B/gist_id%7D",
        "starred_url": "https://api.github.com/users/willcl-ark/starred%7B/owner%7D%7B/repo%7D",
        "subscriptions_url": "https://api.github.com/users/willcl-ark/subscriptions",
        "organizations_url": "https://api.github.com/users/willcl-ark/orgs",
        "repos_url": "https://api.github.com/users/willcl-ark/repos",
        "events_url": "https://api.github.com/users/willcl-ark/events%7B/privacy%7D",
        "received_events_url": "https://api.github.com/users/willcl-ark/received_events",
        "type": "User",
        "site_admin": false
      },
      "commit_id": null,
      "commit_url": null,
      "created_at": "2023-06-16T14:22:12Z"
    }
  ]
}