{
  "type": "issue",
  "issue": {
    "id": 1826219268,
    "node_id": "I_kwDOABII585s2eUE",
    "url": "https://api.github.com/repos/bitcoin/bitcoin/issues/28179",
    "repository_url": "https://api.github.com/repos/bitcoin/bitcoin",
    "labels_url": "https://api.github.com/repos/bitcoin/bitcoin/issues/28179/labels%7B/name%7D",
    "comments_url": "https://api.github.com/repos/bitcoin/bitcoin/issues/28179/comments",
    "events_url": "https://api.github.com/repos/bitcoin/bitcoin/issues/28179/events",
    "html_url": "https://github.com/bitcoin/bitcoin/issues/28179",
    "number": 28179,
    "state": "open",
    "state_reason": null,
    "title": "test: 999 of 999 multisig",
    "body": "### Motivation\r\n\r\nThe stack size limit of 1000 [confuses even those who designed it](https://bitcoin.stackexchange.com/questions/117317/how-can-i-create-a-multi-sign-for-a-large-number-of-users/117320?noredirect=1#comment134168_117320).\r\n\r\nIt would be useful to have a test to demonstrate that a 999 of 999 Taproot multisig is possible: `multi_a(999, P1, …, P999)`. Especially to make sure our wallet can spend from it and doesn't allow a bigger one (no 999 of 1000 and no 1 of 1000).\r\n\r\n### Possible solution\r\n\r\nEither expand the descriptors unit test and/or one of the wallet functional tests.\r\n\r\n### Useful Skills\r\n\r\nPython and a basic understanding of [output descriptors](https://github.com/bitcoin/bitcoin/blob/master/doc/descriptors.md). Understanding (Mini)script (interpreter) is not necessary unless you actually want to understand why the limit is there.\r\n\r\n### Guidance for new contributors\r\n\r\nWant to work on this issue?\r\n\r\nFor guidance on contributing, please read [CONTRIBUTING.md](https://github.com/bitcoin/bitcoin/blob/master/CONTRIBUTING.md) before opening your pull request.",
    "user": {
      "login": "Sjors",
      "id": 10217,
      "node_id": "MDQ6VXNlcjEwMjE3",
      "avatar_url": "https://avatars.githubusercontent.com/u/10217?v=4",
      "gravatar_id": "",
      "url": "https://api.github.com/users/Sjors",
      "html_url": "https://github.com/Sjors",
      "followers_url": "https://api.github.com/users/Sjors/followers",
      "following_url": "https://api.github.com/users/Sjors/following%7B/other_user%7D",
      "gists_url": "https://api.github.com/users/Sjors/gists%7B/gist_id%7D",
      "starred_url": "https://api.github.com/users/Sjors/starred%7B/owner%7D%7B/repo%7D",
      "subscriptions_url": "https://api.github.com/users/Sjors/subscriptions",
      "organizations_url": "https://api.github.com/users/Sjors/orgs",
      "repos_url": "https://api.github.com/users/Sjors/repos",
      "events_url": "https://api.github.com/users/Sjors/events%7B/privacy%7D",
      "received_events_url": "https://api.github.com/users/Sjors/received_events",
      "type": "User",
      "site_admin": false
    },
    "labels": [
      {
        "id": 62963516,
        "node_id": "MDU6TGFiZWw2Mjk2MzUxNg==",
        "url": "https://api.github.com/repos/bitcoin/bitcoin/labels/Tests",
        "name": "Tests",
        "color": "d4c5f9",
        "default": false
      },
      {
        "id": 349312277,
        "node_id": "MDU6TGFiZWwzNDkzMTIyNzc=",
        "url": "https://api.github.com/repos/bitcoin/bitcoin/labels/good%20first%20issue",
        "name": "good first issue",
        "color": "c2e0c6",
        "default": true
      }
    ],
    "assignees": [],
    "author_association": "MEMBER",
    "locked": false,
    "comments": 6,
    "created_at": "2023-07-28T10:56:14Z",
    "updated_at": "2023-08-09T14:50:47Z"
  },
  "events": [
    {
      "event": "labeled",
      "id": 9946802113,
      "node_id": "LE_lADOABII585s2eUEzwAAAAJQ4CfB",
      "url": "https://api.github.com/repos/bitcoin/bitcoin/issues/events/9946802113",
      "actor": {
        "login": "Sjors",
        "id": 10217,
        "node_id": "MDQ6VXNlcjEwMjE3",
        "avatar_url": "https://avatars.githubusercontent.com/u/10217?v=4",
        "gravatar_id": "",
        "url": "https://api.github.com/users/Sjors",
        "html_url": "https://github.com/Sjors",
        "followers_url": "https://api.github.com/users/Sjors/followers",
        "following_url": "https://api.github.com/users/Sjors/following%7B/other_user%7D",
        "gists_url": "https://api.github.com/users/Sjors/gists%7B/gist_id%7D",
        "starred_url": "https://api.github.com/users/Sjors/starred%7B/owner%7D%7B/repo%7D",
        "subscriptions_url": "https://api.github.com/users/Sjors/subscriptions",
        "organizations_url": "https://api.github.com/users/Sjors/orgs",
        "repos_url": "https://api.github.com/users/Sjors/repos",
        "events_url": "https://api.github.com/users/Sjors/events%7B/privacy%7D",
        "received_events_url": "https://api.github.com/users/Sjors/received_events",
        "type": "User",
        "site_admin": false
      },
      "commit_id": null,
      "commit_url": null,
      "created_at": "2023-07-28T10:56:14Z",
      "label": {
        "name": "good first issue",
        "color": "c2e0c6"
      }
    },
    {
      "event": "labeled",
      "id": 9946820254,
      "node_id": "LE_lADOABII585s2eUEzwAAAAJQ4G6e",
      "url": "https://api.github.com/repos/bitcoin/bitcoin/issues/events/9946820254",
      "actor": {
        "login": "MarcoFalke",
        "id": 6399679,
        "node_id": "MDQ6VXNlcjYzOTk2Nzk=",
        "avatar_url": "https://avatars.githubusercontent.com/u/6399679?v=4",
        "gravatar_id": "",
        "url": "https://api.github.com/users/MarcoFalke",
        "html_url": "https://github.com/MarcoFalke",
        "followers_url": "https://api.github.com/users/MarcoFalke/followers",
        "following_url": "https://api.github.com/users/MarcoFalke/following%7B/other_user%7D",
        "gists_url": "https://api.github.com/users/MarcoFalke/gists%7B/gist_id%7D",
        "starred_url": "https://api.github.com/users/MarcoFalke/starred%7B/owner%7D%7B/repo%7D",
        "subscriptions_url": "https://api.github.com/users/MarcoFalke/subscriptions",
        "organizations_url": "https://api.github.com/users/MarcoFalke/orgs",
        "repos_url": "https://api.github.com/users/MarcoFalke/repos",
        "events_url": "https://api.github.com/users/MarcoFalke/events%7B/privacy%7D",
        "received_events_url": "https://api.github.com/users/MarcoFalke/received_events",
        "type": "User",
        "site_admin": false
      },
      "commit_id": null,
      "commit_url": null,
      "created_at": "2023-07-28T10:58:42Z",
      "label": {
        "name": "Tests",
        "color": "d4c5f9"
      }
    },
    {
      "event": "commented",
      "id": 1655625669,
      "node_id": "IC_kwDOABII585irtfF",
      "url": "https://api.github.com/repos/bitcoin/bitcoin/issues/comments/1655625669",
      "actor": {
        "login": "pinheadmz",
        "id": 2084648,
        "node_id": "MDQ6VXNlcjIwODQ2NDg=",
        "avatar_url": "https://avatars.githubusercontent.com/u/2084648?v=4",
        "gravatar_id": "",
        "url": "https://api.github.com/users/pinheadmz",
        "html_url": "https://github.com/pinheadmz",
        "followers_url": "https://api.github.com/users/pinheadmz/followers",
        "following_url": "https://api.github.com/users/pinheadmz/following%7B/other_user%7D",
        "gists_url": "https://api.github.com/users/pinheadmz/gists%7B/gist_id%7D",
        "starred_url": "https://api.github.com/users/pinheadmz/starred%7B/owner%7D%7B/repo%7D",
        "subscriptions_url": "https://api.github.com/users/pinheadmz/subscriptions",
        "organizations_url": "https://api.github.com/users/pinheadmz/orgs",
        "repos_url": "https://api.github.com/users/pinheadmz/repos",
        "events_url": "https://api.github.com/users/pinheadmz/events%7B/privacy%7D",
        "received_events_url": "https://api.github.com/users/pinheadmz/received_events",
        "type": "User",
        "site_admin": false
      },
      "commit_id": null,
      "commit_url": null,
      "created_at": "2023-07-28T12:42:03Z",
      "updated_at": "2023-07-28T12:42:53Z",
      "author_association": "MEMBER",
      "body": "hint: https://github.com/bitcoin/bitcoin/blob/42a9110899a9020417f0397456168aea6ac6ade9/test/functional/feature_taproot.py#L988-L991",
      "user": {
        "login": "pinheadmz",
        "id": 2084648,
        "node_id": "MDQ6VXNlcjIwODQ2NDg=",
        "avatar_url": "https://avatars.githubusercontent.com/u/2084648?v=4",
        "gravatar_id": "",
        "url": "https://api.github.com/users/pinheadmz",
        "html_url": "https://github.com/pinheadmz",
        "followers_url": "https://api.github.com/users/pinheadmz/followers",
        "following_url": "https://api.github.com/users/pinheadmz/following%7B/other_user%7D",
        "gists_url": "https://api.github.com/users/pinheadmz/gists%7B/gist_id%7D",
        "starred_url": "https://api.github.com/users/pinheadmz/starred%7B/owner%7D%7B/repo%7D",
        "subscriptions_url": "https://api.github.com/users/pinheadmz/subscriptions",
        "organizations_url": "https://api.github.com/users/pinheadmz/orgs",
        "repos_url": "https://api.github.com/users/pinheadmz/repos",
        "events_url": "https://api.github.com/users/pinheadmz/events%7B/privacy%7D",
        "received_events_url": "https://api.github.com/users/pinheadmz/received_events",
        "type": "User",
        "site_admin": false
      },
      "html_url": "https://github.com/bitcoin/bitcoin/issues/28179#issuecomment-1655625669",
      "issue_url": "https://api.github.com/repos/bitcoin/bitcoin/issues/28179"
    },
    {
      "event": "commented",
      "id": 1657278761,
      "node_id": "IC_kwDOABII585iyBEp",
      "url": "https://api.github.com/repos/bitcoin/bitcoin/issues/comments/1657278761",
      "actor": {
        "login": "darosior",
        "id": 22457751,
        "node_id": "MDQ6VXNlcjIyNDU3NzUx",
        "avatar_url": "https://avatars.githubusercontent.com/u/22457751?v=4",
        "gravatar_id": "",
        "url": "https://api.github.com/users/darosior",
        "html_url": "https://github.com/darosior",
        "followers_url": "https://api.github.com/users/darosior/followers",
        "following_url": "https://api.github.com/users/darosior/following%7B/other_user%7D",
        "gists_url": "https://api.github.com/users/darosior/gists%7B/gist_id%7D",
        "starred_url": "https://api.github.com/users/darosior/starred%7B/owner%7D%7B/repo%7D",
        "subscriptions_url": "https://api.github.com/users/darosior/subscriptions",
        "organizations_url": "https://api.github.com/users/darosior/orgs",
        "repos_url": "https://api.github.com/users/darosior/repos",
        "events_url": "https://api.github.com/users/darosior/events%7B/privacy%7D",
        "received_events_url": "https://api.github.com/users/darosior/received_events",
        "type": "User",
        "site_admin": false
      },
      "commit_id": null,
      "commit_url": null,
      "created_at": "2023-07-30T22:16:18Z",
      "updated_at": "2023-07-30T22:16:18Z",
      "author_association": "MEMBER",
      "body": "For what it's worth we already test a 1-of-N `multi_a` where N is randomly picked from [1; 999]:\r\nhttps://github.com/bitcoin/bitcoin/blob/64440bb733896a7a2caf902825e0406cb993e666/test/functional/wallet_taproot.py#L495-L501\r\n\r\nAlso:\r\n> The stack size limit of 1000 [confuses even those who designed it](https://bitcoin.stackexchange.com/questions/117317/how-can-i-create-a-multi-sign-for-a-large-number-of-users/117320?noredirect=1#comment134168_117320).\r\n\r\nThe stack limit was introduced by Satoshi in 757f0769d8360ea043f469f3a35f6ec204740446 (https://github.com/bitcoin/bitcoin/commit/757f0769d8360ea043f469f3a35f6ec204740446#diff-27496895958ca30c47bbb873299a2ad7a7ea1003a9faa96b317250e3b7aa1fefR817-R818).",
      "user": {
        "login": "darosior",
        "id": 22457751,
        "node_id": "MDQ6VXNlcjIyNDU3NzUx",
        "avatar_url": "https://avatars.githubusercontent.com/u/22457751?v=4",
        "gravatar_id": "",
        "url": "https://api.github.com/users/darosior",
        "html_url": "https://github.com/darosior",
        "followers_url": "https://api.github.com/users/darosior/followers",
        "following_url": "https://api.github.com/users/darosior/following%7B/other_user%7D",
        "gists_url": "https://api.github.com/users/darosior/gists%7B/gist_id%7D",
        "starred_url": "https://api.github.com/users/darosior/starred%7B/owner%7D%7B/repo%7D",
        "subscriptions_url": "https://api.github.com/users/darosior/subscriptions",
        "organizations_url": "https://api.github.com/users/darosior/orgs",
        "repos_url": "https://api.github.com/users/darosior/repos",
        "events_url": "https://api.github.com/users/darosior/events%7B/privacy%7D",
        "received_events_url": "https://api.github.com/users/darosior/received_events",
        "type": "User",
        "site_admin": false
      },
      "html_url": "https://github.com/bitcoin/bitcoin/issues/28179#issuecomment-1657278761",
      "issue_url": "https://api.github.com/repos/bitcoin/bitcoin/issues/28179"
    },
    {
      "event": "commented",
      "id": 1658134400,
      "node_id": "IC_kwDOABII585i1R-A",
      "url": "https://api.github.com/repos/bitcoin/bitcoin/issues/comments/1658134400",
      "actor": {
        "login": "Sjors",
        "id": 10217,
        "node_id": "MDQ6VXNlcjEwMjE3",
        "avatar_url": "https://avatars.githubusercontent.com/u/10217?v=4",
        "gravatar_id": "",
        "url": "https://api.github.com/users/Sjors",
        "html_url": "https://github.com/Sjors",
        "followers_url": "https://api.github.com/users/Sjors/followers",
        "following_url": "https://api.github.com/users/Sjors/following%7B/other_user%7D",
        "gists_url": "https://api.github.com/users/Sjors/gists%7B/gist_id%7D",
        "starred_url": "https://api.github.com/users/Sjors/starred%7B/owner%7D%7B/repo%7D",
        "subscriptions_url": "https://api.github.com/users/Sjors/subscriptions",
        "organizations_url": "https://api.github.com/users/Sjors/orgs",
        "repos_url": "https://api.github.com/users/Sjors/repos",
        "events_url": "https://api.github.com/users/Sjors/events%7B/privacy%7D",
        "received_events_url": "https://api.github.com/users/Sjors/received_events",
        "type": "User",
        "site_admin": false
      },
      "commit_id": null,
      "commit_url": null,
      "created_at": "2023-07-31T10:54:25Z",
      "updated_at": "2023-07-31T10:55:11Z",
      "author_association": "MEMBER",
      "body": "That test is a good starting point. The current version picks one random number so it's not really testing the limit (in a single CI run). It also doesn't test N-of-N (hopefully that's not too slow).",
      "user": {
        "login": "Sjors",
        "id": 10217,
        "node_id": "MDQ6VXNlcjEwMjE3",
        "avatar_url": "https://avatars.githubusercontent.com/u/10217?v=4",
        "gravatar_id": "",
        "url": "https://api.github.com/users/Sjors",
        "html_url": "https://github.com/Sjors",
        "followers_url": "https://api.github.com/users/Sjors/followers",
        "following_url": "https://api.github.com/users/Sjors/following%7B/other_user%7D",
        "gists_url": "https://api.github.com/users/Sjors/gists%7B/gist_id%7D",
        "starred_url": "https://api.github.com/users/Sjors/starred%7B/owner%7D%7B/repo%7D",
        "subscriptions_url": "https://api.github.com/users/Sjors/subscriptions",
        "organizations_url": "https://api.github.com/users/Sjors/orgs",
        "repos_url": "https://api.github.com/users/Sjors/repos",
        "events_url": "https://api.github.com/users/Sjors/events%7B/privacy%7D",
        "received_events_url": "https://api.github.com/users/Sjors/received_events",
        "type": "User",
        "site_admin": false
      },
      "html_url": "https://github.com/bitcoin/bitcoin/issues/28179#issuecomment-1658134400",
      "issue_url": "https://api.github.com/repos/bitcoin/bitcoin/issues/28179"
    },
    {
      "event": "commented",
      "id": 1663965600,
      "node_id": "IC_kwDOABII585jLhmg",
      "url": "https://api.github.com/repos/bitcoin/bitcoin/issues/comments/1663965600",
      "actor": {
        "login": "eriknylund",
        "id": 20860124,
        "node_id": "MDQ6VXNlcjIwODYwMTI0",
        "avatar_url": "https://avatars.githubusercontent.com/u/20860124?v=4",
        "gravatar_id": "",
        "url": "https://api.github.com/users/eriknylund",
        "html_url": "https://github.com/eriknylund",
        "followers_url": "https://api.github.com/users/eriknylund/followers",
        "following_url": "https://api.github.com/users/eriknylund/following%7B/other_user%7D",
        "gists_url": "https://api.github.com/users/eriknylund/gists%7B/gist_id%7D",
        "starred_url": "https://api.github.com/users/eriknylund/starred%7B/owner%7D%7B/repo%7D",
        "subscriptions_url": "https://api.github.com/users/eriknylund/subscriptions",
        "organizations_url": "https://api.github.com/users/eriknylund/orgs",
        "repos_url": "https://api.github.com/users/eriknylund/repos",
        "events_url": "https://api.github.com/users/eriknylund/events%7B/privacy%7D",
        "received_events_url": "https://api.github.com/users/eriknylund/received_events",
        "type": "User",
        "site_admin": false
      },
      "commit_id": null,
      "commit_url": null,
      "created_at": "2023-08-03T13:15:18Z",
      "updated_at": "2023-08-03T13:15:18Z",
      "author_association": "CONTRIBUTOR",
      "body": "@Sjors  I've had a look at adding the tests mentioned in the issue by extending the tests in `wallet_taproot.py`. I'll open a PR - happy to get feedback on it.",
      "user": {
        "login": "eriknylund",
        "id": 20860124,
        "node_id": "MDQ6VXNlcjIwODYwMTI0",
        "avatar_url": "https://avatars.githubusercontent.com/u/20860124?v=4",
        "gravatar_id": "",
        "url": "https://api.github.com/users/eriknylund",
        "html_url": "https://github.com/eriknylund",
        "followers_url": "https://api.github.com/users/eriknylund/followers",
        "following_url": "https://api.github.com/users/eriknylund/following%7B/other_user%7D",
        "gists_url": "https://api.github.com/users/eriknylund/gists%7B/gist_id%7D",
        "starred_url": "https://api.github.com/users/eriknylund/starred%7B/owner%7D%7B/repo%7D",
        "subscriptions_url": "https://api.github.com/users/eriknylund/subscriptions",
        "organizations_url": "https://api.github.com/users/eriknylund/orgs",
        "repos_url": "https://api.github.com/users/eriknylund/repos",
        "events_url": "https://api.github.com/users/eriknylund/events%7B/privacy%7D",
        "received_events_url": "https://api.github.com/users/eriknylund/received_events",
        "type": "User",
        "site_admin": false
      },
      "html_url": "https://github.com/bitcoin/bitcoin/issues/28179#issuecomment-1663965600",
      "issue_url": "https://api.github.com/repos/bitcoin/bitcoin/issues/28179"
    },
    {
      "event": "mentioned",
      "id": 9998941961,
      "node_id": "MEE_lADOABII585s2eUEzwAAAAJT-78J",
      "url": "https://api.github.com/repos/bitcoin/bitcoin/issues/events/9998941961",
      "actor": {
        "login": "Sjors",
        "id": 10217,
        "node_id": "MDQ6VXNlcjEwMjE3",
        "avatar_url": "https://avatars.githubusercontent.com/u/10217?v=4",
        "gravatar_id": "",
        "url": "https://api.github.com/users/Sjors",
        "html_url": "https://github.com/Sjors",
        "followers_url": "https://api.github.com/users/Sjors/followers",
        "following_url": "https://api.github.com/users/Sjors/following%7B/other_user%7D",
        "gists_url": "https://api.github.com/users/Sjors/gists%7B/gist_id%7D",
        "starred_url": "https://api.github.com/users/Sjors/starred%7B/owner%7D%7B/repo%7D",
        "subscriptions_url": "https://api.github.com/users/Sjors/subscriptions",
        "organizations_url": "https://api.github.com/users/Sjors/orgs",
        "repos_url": "https://api.github.com/users/Sjors/repos",
        "events_url": "https://api.github.com/users/Sjors/events%7B/privacy%7D",
        "received_events_url": "https://api.github.com/users/Sjors/received_events",
        "type": "User",
        "site_admin": false
      },
      "commit_id": null,
      "commit_url": null,
      "created_at": "2023-08-03T13:15:18Z"
    },
    {
      "event": "subscribed",
      "id": 9998941981,
      "node_id": "SE_lADOABII585s2eUEzwAAAAJT-78d",
      "url": "https://api.github.com/repos/bitcoin/bitcoin/issues/events/9998941981",
      "actor": {
        "login": "Sjors",
        "id": 10217,
        "node_id": "MDQ6VXNlcjEwMjE3",
        "avatar_url": "https://avatars.githubusercontent.com/u/10217?v=4",
        "gravatar_id": "",
        "url": "https://api.github.com/users/Sjors",
        "html_url": "https://github.com/Sjors",
        "followers_url": "https://api.github.com/users/Sjors/followers",
        "following_url": "https://api.github.com/users/Sjors/following%7B/other_user%7D",
        "gists_url": "https://api.github.com/users/Sjors/gists%7B/gist_id%7D",
        "starred_url": "https://api.github.com/users/Sjors/starred%7B/owner%7D%7B/repo%7D",
        "subscriptions_url": "https://api.github.com/users/Sjors/subscriptions",
        "organizations_url": "https://api.github.com/users/Sjors/orgs",
        "repos_url": "https://api.github.com/users/Sjors/repos",
        "events_url": "https://api.github.com/users/Sjors/events%7B/privacy%7D",
        "received_events_url": "https://api.github.com/users/Sjors/received_events",
        "type": "User",
        "site_admin": false
      },
      "commit_id": null,
      "commit_url": null,
      "created_at": "2023-08-03T13:15:18Z"
    },
    {
      "event": "cross-referenced",
      "id": null,
      "node_id": null,
      "url": null,
      "actor": {
        "login": "eriknylund",
        "id": 20860124,
        "node_id": "MDQ6VXNlcjIwODYwMTI0",
        "avatar_url": "https://avatars.githubusercontent.com/u/20860124?v=4",
        "gravatar_id": "",
        "url": "https://api.github.com/users/eriknylund",
        "html_url": "https://github.com/eriknylund",
        "followers_url": "https://api.github.com/users/eriknylund/followers",
        "following_url": "https://api.github.com/users/eriknylund/following%7B/other_user%7D",
        "gists_url": "https://api.github.com/users/eriknylund/gists%7B/gist_id%7D",
        "starred_url": "https://api.github.com/users/eriknylund/starred%7B/owner%7D%7B/repo%7D",
        "subscriptions_url": "https://api.github.com/users/eriknylund/subscriptions",
        "organizations_url": "https://api.github.com/users/eriknylund/orgs",
        "repos_url": "https://api.github.com/users/eriknylund/repos",
        "events_url": "https://api.github.com/users/eriknylund/events%7B/privacy%7D",
        "received_events_url": "https://api.github.com/users/eriknylund/received_events",
        "type": "User",
        "site_admin": false
      },
      "commit_id": null,
      "commit_url": null,
      "created_at": "2023-08-03T16:26:07Z",
      "updated_at": "2023-08-03T16:26:07Z",
      "source": {
        "issue": {
          "id": 1835372853,
          "node_id": "PR_kwDOABII585XIGrR",
          "url": "https://api.github.com/repos/bitcoin/bitcoin/issues/28212",
          "repository_url": "https://api.github.com/repos/bitcoin/bitcoin",
          "labels_url": "https://api.github.com/repos/bitcoin/bitcoin/issues/28212/labels%7B/name%7D",
          "comments_url": "https://api.github.com/repos/bitcoin/bitcoin/issues/28212/comments",
          "events_url": "https://api.github.com/repos/bitcoin/bitcoin/issues/28212/events",
          "html_url": "https://github.com/bitcoin/bitcoin/pull/28212",
          "number": 28212,
          "state": "open",
          "state_reason": null,
          "title": "test: verify spend from 999-of-999 taproot multisig wallet",
          "body": "Verify that a 999-of-999 taproot multisig wallet is possible and can spend from it, and that neither a  1-of-1000 nor 999-of-1000 is allowed.\r\n\r\nThe tests will require some time to run. On my Mac M1 the new tests run in about 40 seconds.\r\n\r\nHad to bump fee rate to resolve assertions in sendtoaddress and psbt methods:\r\n- code -5: assert rpc_online.gettransaction(txid)[\"confirmations\"] > 0\r\n- code -26: min relay fee not met\r\n\r\nFixes #28179 ",
          "user": {
            "login": "eriknylund",
            "id": 20860124,
            "node_id": "MDQ6VXNlcjIwODYwMTI0",
            "avatar_url": "https://avatars.githubusercontent.com/u/20860124?v=4",
            "gravatar_id": "",
            "url": "https://api.github.com/users/eriknylund",
            "html_url": "https://github.com/eriknylund",
            "followers_url": "https://api.github.com/users/eriknylund/followers",
            "following_url": "https://api.github.com/users/eriknylund/following%7B/other_user%7D",
            "gists_url": "https://api.github.com/users/eriknylund/gists%7B/gist_id%7D",
            "starred_url": "https://api.github.com/users/eriknylund/starred%7B/owner%7D%7B/repo%7D",
            "subscriptions_url": "https://api.github.com/users/eriknylund/subscriptions",
            "organizations_url": "https://api.github.com/users/eriknylund/orgs",
            "repos_url": "https://api.github.com/users/eriknylund/repos",
            "events_url": "https://api.github.com/users/eriknylund/events%7B/privacy%7D",
            "received_events_url": "https://api.github.com/users/eriknylund/received_events",
            "type": "User",
            "site_admin": false
          },
          "labels": [
            {
              "id": 62963516,
              "node_id": "MDU6TGFiZWw2Mjk2MzUxNg==",
              "url": "https://api.github.com/repos/bitcoin/bitcoin/labels/Tests",
              "name": "Tests",
              "color": "d4c5f9",
              "default": false
            }
          ],
          "assignees": [],
          "author_association": "CONTRIBUTOR",
          "locked": false,
          "comments": 2,
          "pull_request": {
            "url": "https://api.github.com/repos/bitcoin/bitcoin/pulls/28212",
            "html_url": "https://github.com/bitcoin/bitcoin/pull/28212",
            "diff_url": "https://github.com/bitcoin/bitcoin/pull/28212.diff",
            "patch_url": "https://github.com/bitcoin/bitcoin/pull/28212.patch"
          },
          "created_at": "2023-08-03T16:26:06Z",
          "updated_at": "2023-08-07T05:40:49Z"
        },
        "type": "issue"
      }
    },
    {
      "event": "commented",
      "id": 1671550220,
      "node_id": "IC_kwDOABII585jodUM",
      "url": "https://api.github.com/repos/bitcoin/bitcoin/issues/comments/1671550220",
      "actor": {
        "login": "SambhavsCreation",
        "id": 37120605,
        "node_id": "MDQ6VXNlcjM3MTIwNjA1",
        "avatar_url": "https://avatars.githubusercontent.com/u/37120605?v=4",
        "gravatar_id": "",
        "url": "https://api.github.com/users/SambhavsCreation",
        "html_url": "https://github.com/SambhavsCreation",
        "followers_url": "https://api.github.com/users/SambhavsCreation/followers",
        "following_url": "https://api.github.com/users/SambhavsCreation/following%7B/other_user%7D",
        "gists_url": "https://api.github.com/users/SambhavsCreation/gists%7B/gist_id%7D",
        "starred_url": "https://api.github.com/users/SambhavsCreation/starred%7B/owner%7D%7B/repo%7D",
        "subscriptions_url": "https://api.github.com/users/SambhavsCreation/subscriptions",
        "organizations_url": "https://api.github.com/users/SambhavsCreation/orgs",
        "repos_url": "https://api.github.com/users/SambhavsCreation/repos",
        "events_url": "https://api.github.com/users/SambhavsCreation/events%7B/privacy%7D",
        "received_events_url": "https://api.github.com/users/SambhavsCreation/received_events",
        "type": "User",
        "site_admin": false
      },
      "commit_id": null,
      "commit_url": null,
      "created_at": "2023-08-09T14:48:24Z",
      "updated_at": "2023-08-09T14:48:24Z",
      "author_association": "NONE",
      "body": "Is someone still working on this? Please let me know as if not I might start working on it myself",
      "user": {
        "login": "SambhavsCreation",
        "id": 37120605,
        "node_id": "MDQ6VXNlcjM3MTIwNjA1",
        "avatar_url": "https://avatars.githubusercontent.com/u/37120605?v=4",
        "gravatar_id": "",
        "url": "https://api.github.com/users/SambhavsCreation",
        "html_url": "https://github.com/SambhavsCreation",
        "followers_url": "https://api.github.com/users/SambhavsCreation/followers",
        "following_url": "https://api.github.com/users/SambhavsCreation/following%7B/other_user%7D",
        "gists_url": "https://api.github.com/users/SambhavsCreation/gists%7B/gist_id%7D",
        "starred_url": "https://api.github.com/users/SambhavsCreation/starred%7B/owner%7D%7B/repo%7D",
        "subscriptions_url": "https://api.github.com/users/SambhavsCreation/subscriptions",
        "organizations_url": "https://api.github.com/users/SambhavsCreation/orgs",
        "repos_url": "https://api.github.com/users/SambhavsCreation/repos",
        "events_url": "https://api.github.com/users/SambhavsCreation/events%7B/privacy%7D",
        "received_events_url": "https://api.github.com/users/SambhavsCreation/received_events",
        "type": "User",
        "site_admin": false
      },
      "html_url": "https://github.com/bitcoin/bitcoin/issues/28179#issuecomment-1671550220",
      "issue_url": "https://api.github.com/repos/bitcoin/bitcoin/issues/28179"
    },
    {
      "event": "commented",
      "id": 1671555701,
      "node_id": "IC_kwDOABII585joep1",
      "url": "https://api.github.com/repos/bitcoin/bitcoin/issues/comments/1671555701",
      "actor": {
        "login": "eriknylund",
        "id": 20860124,
        "node_id": "MDQ6VXNlcjIwODYwMTI0",
        "avatar_url": "https://avatars.githubusercontent.com/u/20860124?v=4",
        "gravatar_id": "",
        "url": "https://api.github.com/users/eriknylund",
        "html_url": "https://github.com/eriknylund",
        "followers_url": "https://api.github.com/users/eriknylund/followers",
        "following_url": "https://api.github.com/users/eriknylund/following%7B/other_user%7D",
        "gists_url": "https://api.github.com/users/eriknylund/gists%7B/gist_id%7D",
        "starred_url": "https://api.github.com/users/eriknylund/starred%7B/owner%7D%7B/repo%7D",
        "subscriptions_url": "https://api.github.com/users/eriknylund/subscriptions",
        "organizations_url": "https://api.github.com/users/eriknylund/orgs",
        "repos_url": "https://api.github.com/users/eriknylund/repos",
        "events_url": "https://api.github.com/users/eriknylund/events%7B/privacy%7D",
        "received_events_url": "https://api.github.com/users/eriknylund/received_events",
        "type": "User",
        "site_admin": false
      },
      "commit_id": null,
      "commit_url": null,
      "created_at": "2023-08-09T14:50:47Z",
      "updated_at": "2023-08-09T14:50:47Z",
      "author_association": "CONTRIBUTOR",
      "body": "> Is someone still working on this? Please let me know as if not I might start working on it myself\r\n\r\nI have a PR https://github.com/bitcoin/bitcoin/pull/28212 open for it, so please review if you have a chance. 🙏 ",
      "user": {
        "login": "eriknylund",
        "id": 20860124,
        "node_id": "MDQ6VXNlcjIwODYwMTI0",
        "avatar_url": "https://avatars.githubusercontent.com/u/20860124?v=4",
        "gravatar_id": "",
        "url": "https://api.github.com/users/eriknylund",
        "html_url": "https://github.com/eriknylund",
        "followers_url": "https://api.github.com/users/eriknylund/followers",
        "following_url": "https://api.github.com/users/eriknylund/following%7B/other_user%7D",
        "gists_url": "https://api.github.com/users/eriknylund/gists%7B/gist_id%7D",
        "starred_url": "https://api.github.com/users/eriknylund/starred%7B/owner%7D%7B/repo%7D",
        "subscriptions_url": "https://api.github.com/users/eriknylund/subscriptions",
        "organizations_url": "https://api.github.com/users/eriknylund/orgs",
        "repos_url": "https://api.github.com/users/eriknylund/repos",
        "events_url": "https://api.github.com/users/eriknylund/events%7B/privacy%7D",
        "received_events_url": "https://api.github.com/users/eriknylund/received_events",
        "type": "User",
        "site_admin": false
      },
      "html_url": "https://github.com/bitcoin/bitcoin/issues/28179#issuecomment-1671555701",
      "issue_url": "https://api.github.com/repos/bitcoin/bitcoin/issues/28179"
    }
  ]
}