{
  "type": "issue",
  "issue": {
    "id": 1959010226,
    "node_id": "I_kwDOABII5850xB-y",
    "url": "https://api.github.com/repos/bitcoin/bitcoin/issues/28718",
    "repository_url": "https://api.github.com/repos/bitcoin/bitcoin",
    "labels_url": "https://api.github.com/repos/bitcoin/bitcoin/issues/28718/labels%7B/name%7D",
    "comments_url": "https://api.github.com/repos/bitcoin/bitcoin/issues/28718/comments",
    "events_url": "https://api.github.com/repos/bitcoin/bitcoin/issues/28718/events",
    "html_url": "https://github.com/bitcoin/bitcoin/issues/28718",
    "number": 28718,
    "state": "open",
    "state_reason": null,
    "title": "v26.0 Testing",
    "body": "Umbrella issue for 26.0 testing. Please help testing on a wide variety of supported platforms, as well as interaction with different software.\r\n\r\nLet us know which version you tested on which operating system.\r\n\r\nIf you find an issue, please search Github for known issues first and then open a new Github issue.\r\n\r\n*This meta issue should not be used to report bugs, as a single thread makes it impossible to track more than one topic.*\r\n\r\nSee [26.0 Draft Release Notes](https://github.com/bitcoin-core/bitcoin-devwiki/wiki/26.0-Release-Notes-Draft) for a list of changes.",
    "user": {
      "login": "fanquake",
      "id": 863730,
      "node_id": "MDQ6VXNlcjg2MzczMA==",
      "avatar_url": "https://avatars.githubusercontent.com/u/863730?v=4",
      "gravatar_id": "",
      "url": "https://api.github.com/users/fanquake",
      "html_url": "https://github.com/fanquake",
      "followers_url": "https://api.github.com/users/fanquake/followers",
      "following_url": "https://api.github.com/users/fanquake/following%7B/other_user%7D",
      "gists_url": "https://api.github.com/users/fanquake/gists%7B/gist_id%7D",
      "starred_url": "https://api.github.com/users/fanquake/starred%7B/owner%7D%7B/repo%7D",
      "subscriptions_url": "https://api.github.com/users/fanquake/subscriptions",
      "organizations_url": "https://api.github.com/users/fanquake/orgs",
      "repos_url": "https://api.github.com/users/fanquake/repos",
      "events_url": "https://api.github.com/users/fanquake/events%7B/privacy%7D",
      "received_events_url": "https://api.github.com/users/fanquake/received_events",
      "type": "User",
      "site_admin": false
    },
    "labels": [],
    "assignees": [],
    "author_association": "MEMBER",
    "milestone": {
      "url": "https://api.github.com/repos/bitcoin/bitcoin/milestones/60",
      "html_url": "https://github.com/bitcoin/bitcoin/milestone/60",
      "labels_url": "https://api.github.com/repos/bitcoin/bitcoin/milestones/60/labels",
      "id": 9286970,
      "node_id": "MI_kwDOABII584AjbU6",
      "number": 60,
      "state": "open",
      "title": "26.0",
      "description": "",
      "creator": {
        "login": "fanquake",
        "id": 863730,
        "node_id": "MDQ6VXNlcjg2MzczMA==",
        "avatar_url": "https://avatars.githubusercontent.com/u/863730?v=4",
        "gravatar_id": "",
        "url": "https://api.github.com/users/fanquake",
        "html_url": "https://github.com/fanquake",
        "followers_url": "https://api.github.com/users/fanquake/followers",
        "following_url": "https://api.github.com/users/fanquake/following%7B/other_user%7D",
        "gists_url": "https://api.github.com/users/fanquake/gists%7B/gist_id%7D",
        "starred_url": "https://api.github.com/users/fanquake/starred%7B/owner%7D%7B/repo%7D",
        "subscriptions_url": "https://api.github.com/users/fanquake/subscriptions",
        "organizations_url": "https://api.github.com/users/fanquake/orgs",
        "repos_url": "https://api.github.com/users/fanquake/repos",
        "events_url": "https://api.github.com/users/fanquake/events%7B/privacy%7D",
        "received_events_url": "https://api.github.com/users/fanquake/received_events",
        "type": "User",
        "site_admin": false
      },
      "open_issues": 3,
      "closed_issues": 107,
      "created_at": "2023-04-15T11:36:05Z",
      "updated_at": "2023-11-01T11:41:06Z"
    },
    "locked": false,
    "comments": 2,
    "created_at": "2023-10-24T11:05:21Z",
    "updated_at": "2023-11-07T16:11:53Z"
  },
  "events": [
    {
      "event": "pinned",
      "id": 10752399486,
      "node_id": "PE_lADOABII5850xB-yzwAAAAKA5Jh-",
      "url": "https://api.github.com/repos/bitcoin/bitcoin/issues/events/10752399486",
      "actor": {
        "login": "fanquake",
        "id": 863730,
        "node_id": "MDQ6VXNlcjg2MzczMA==",
        "avatar_url": "https://avatars.githubusercontent.com/u/863730?v=4",
        "gravatar_id": "",
        "url": "https://api.github.com/users/fanquake",
        "html_url": "https://github.com/fanquake",
        "followers_url": "https://api.github.com/users/fanquake/followers",
        "following_url": "https://api.github.com/users/fanquake/following%7B/other_user%7D",
        "gists_url": "https://api.github.com/users/fanquake/gists%7B/gist_id%7D",
        "starred_url": "https://api.github.com/users/fanquake/starred%7B/owner%7D%7B/repo%7D",
        "subscriptions_url": "https://api.github.com/users/fanquake/subscriptions",
        "organizations_url": "https://api.github.com/users/fanquake/orgs",
        "repos_url": "https://api.github.com/users/fanquake/repos",
        "events_url": "https://api.github.com/users/fanquake/events%7B/privacy%7D",
        "received_events_url": "https://api.github.com/users/fanquake/received_events",
        "type": "User",
        "site_admin": false
      },
      "commit_id": null,
      "commit_url": null,
      "created_at": "2023-10-24T11:05:28Z"
    },
    {
      "event": "milestoned",
      "id": 10831408350,
      "node_id": "MIE_lADOABII5850xB-yzwAAAAKFmize",
      "url": "https://api.github.com/repos/bitcoin/bitcoin/issues/events/10831408350",
      "actor": {
        "login": "fanquake",
        "id": 863730,
        "node_id": "MDQ6VXNlcjg2MzczMA==",
        "avatar_url": "https://avatars.githubusercontent.com/u/863730?v=4",
        "gravatar_id": "",
        "url": "https://api.github.com/users/fanquake",
        "html_url": "https://github.com/fanquake",
        "followers_url": "https://api.github.com/users/fanquake/followers",
        "following_url": "https://api.github.com/users/fanquake/following%7B/other_user%7D",
        "gists_url": "https://api.github.com/users/fanquake/gists%7B/gist_id%7D",
        "starred_url": "https://api.github.com/users/fanquake/starred%7B/owner%7D%7B/repo%7D",
        "subscriptions_url": "https://api.github.com/users/fanquake/subscriptions",
        "organizations_url": "https://api.github.com/users/fanquake/orgs",
        "repos_url": "https://api.github.com/users/fanquake/repos",
        "events_url": "https://api.github.com/users/fanquake/events%7B/privacy%7D",
        "received_events_url": "https://api.github.com/users/fanquake/received_events",
        "type": "User",
        "site_admin": false
      },
      "commit_id": null,
      "commit_url": null,
      "created_at": "2023-11-01T11:41:06Z",
      "milestone": {
        "title": "26.0"
      }
    },
    {
      "event": "commented",
      "id": 1799048645,
      "node_id": "IC_kwDOABII585rO03F",
      "url": "https://api.github.com/repos/bitcoin/bitcoin/issues/comments/1799048645",
      "actor": {
        "login": "mzumsande",
        "id": 48763452,
        "node_id": "MDQ6VXNlcjQ4NzYzNDUy",
        "avatar_url": "https://avatars.githubusercontent.com/u/48763452?v=4",
        "gravatar_id": "",
        "url": "https://api.github.com/users/mzumsande",
        "html_url": "https://github.com/mzumsande",
        "followers_url": "https://api.github.com/users/mzumsande/followers",
        "following_url": "https://api.github.com/users/mzumsande/following%7B/other_user%7D",
        "gists_url": "https://api.github.com/users/mzumsande/gists%7B/gist_id%7D",
        "starred_url": "https://api.github.com/users/mzumsande/starred%7B/owner%7D%7B/repo%7D",
        "subscriptions_url": "https://api.github.com/users/mzumsande/subscriptions",
        "organizations_url": "https://api.github.com/users/mzumsande/orgs",
        "repos_url": "https://api.github.com/users/mzumsande/repos",
        "events_url": "https://api.github.com/users/mzumsande/events%7B/privacy%7D",
        "received_events_url": "https://api.github.com/users/mzumsande/received_events",
        "type": "User",
        "site_admin": false
      },
      "commit_id": null,
      "commit_url": null,
      "created_at": "2023-11-07T16:09:34Z",
      "updated_at": "2023-11-07T16:09:34Z",
      "author_association": "CONTRIBUTOR",
      "body": "The link to the release notes draft doesn't work for me.",
      "user": {
        "login": "mzumsande",
        "id": 48763452,
        "node_id": "MDQ6VXNlcjQ4NzYzNDUy",
        "avatar_url": "https://avatars.githubusercontent.com/u/48763452?v=4",
        "gravatar_id": "",
        "url": "https://api.github.com/users/mzumsande",
        "html_url": "https://github.com/mzumsande",
        "followers_url": "https://api.github.com/users/mzumsande/followers",
        "following_url": "https://api.github.com/users/mzumsande/following%7B/other_user%7D",
        "gists_url": "https://api.github.com/users/mzumsande/gists%7B/gist_id%7D",
        "starred_url": "https://api.github.com/users/mzumsande/starred%7B/owner%7D%7B/repo%7D",
        "subscriptions_url": "https://api.github.com/users/mzumsande/subscriptions",
        "organizations_url": "https://api.github.com/users/mzumsande/orgs",
        "repos_url": "https://api.github.com/users/mzumsande/repos",
        "events_url": "https://api.github.com/users/mzumsande/events%7B/privacy%7D",
        "received_events_url": "https://api.github.com/users/mzumsande/received_events",
        "type": "User",
        "site_admin": false
      },
      "html_url": "https://github.com/bitcoin/bitcoin/issues/28718#issuecomment-1799048645",
      "issue_url": "https://api.github.com/repos/bitcoin/bitcoin/issues/28718"
    },
    {
      "event": "commented",
      "id": 1799053374,
      "node_id": "IC_kwDOABII585rO2A-",
      "url": "https://api.github.com/repos/bitcoin/bitcoin/issues/comments/1799053374",
      "actor": {
        "login": "fanquake",
        "id": 863730,
        "node_id": "MDQ6VXNlcjg2MzczMA==",
        "avatar_url": "https://avatars.githubusercontent.com/u/863730?v=4",
        "gravatar_id": "",
        "url": "https://api.github.com/users/fanquake",
        "html_url": "https://github.com/fanquake",
        "followers_url": "https://api.github.com/users/fanquake/followers",
        "following_url": "https://api.github.com/users/fanquake/following%7B/other_user%7D",
        "gists_url": "https://api.github.com/users/fanquake/gists%7B/gist_id%7D",
        "starred_url": "https://api.github.com/users/fanquake/starred%7B/owner%7D%7B/repo%7D",
        "subscriptions_url": "https://api.github.com/users/fanquake/subscriptions",
        "organizations_url": "https://api.github.com/users/fanquake/orgs",
        "repos_url": "https://api.github.com/users/fanquake/repos",
        "events_url": "https://api.github.com/users/fanquake/events%7B/privacy%7D",
        "received_events_url": "https://api.github.com/users/fanquake/received_events",
        "type": "User",
        "site_admin": false
      },
      "commit_id": null,
      "commit_url": null,
      "created_at": "2023-11-07T16:11:52Z",
      "updated_at": "2023-11-07T16:11:52Z",
      "author_association": "MEMBER",
      "body": "Should be fixed now.",
      "user": {
        "login": "fanquake",
        "id": 863730,
        "node_id": "MDQ6VXNlcjg2MzczMA==",
        "avatar_url": "https://avatars.githubusercontent.com/u/863730?v=4",
        "gravatar_id": "",
        "url": "https://api.github.com/users/fanquake",
        "html_url": "https://github.com/fanquake",
        "followers_url": "https://api.github.com/users/fanquake/followers",
        "following_url": "https://api.github.com/users/fanquake/following%7B/other_user%7D",
        "gists_url": "https://api.github.com/users/fanquake/gists%7B/gist_id%7D",
        "starred_url": "https://api.github.com/users/fanquake/starred%7B/owner%7D%7B/repo%7D",
        "subscriptions_url": "https://api.github.com/users/fanquake/subscriptions",
        "organizations_url": "https://api.github.com/users/fanquake/orgs",
        "repos_url": "https://api.github.com/users/fanquake/repos",
        "events_url": "https://api.github.com/users/fanquake/events%7B/privacy%7D",
        "received_events_url": "https://api.github.com/users/fanquake/received_events",
        "type": "User",
        "site_admin": false
      },
      "html_url": "https://github.com/bitcoin/bitcoin/issues/28718#issuecomment-1799053374",
      "issue_url": "https://api.github.com/repos/bitcoin/bitcoin/issues/28718"
    }
  ]
}