{
  "type": "issue",
  "issue": {
    "id": 1959828375,
    "node_id": "I_kwDOABII58500JuX",
    "url": "https://api.github.com/repos/bitcoin/bitcoin/issues/28722",
    "repository_url": "https://api.github.com/repos/bitcoin/bitcoin",
    "labels_url": "https://api.github.com/repos/bitcoin/bitcoin/issues/28722/labels%7B/name%7D",
    "comments_url": "https://api.github.com/repos/bitcoin/bitcoin/issues/28722/comments",
    "events_url": "https://api.github.com/repos/bitcoin/bitcoin/issues/28722/events",
    "html_url": "https://github.com/bitcoin/bitcoin/issues/28722",
    "number": 28722,
    "state": "open",
    "state_reason": null,
    "title": "Multiprocess tracking issue",
    "body": "This issue will be updated to reflect the current state of bitcoin core [multiprocess support](https://github.com/ryanofsky/bitcoin/tree/pr/ipc/doc/design/multiprocess.md).\r\n\r\nPRs ready for review:\r\n\r\n* https://github.com/bitcoin/bitcoin/pull/28721\r\n* https://github.com/bitcoin/bitcoin/pull/10102\r\n* https://github.com/bitcoin/bitcoin/pull/19460\r\n* https://github.com/bitcoin/bitcoin/pull/19461\r\n\r\nLinks:\r\n\r\n* [Documentation](https://github.com/ryanofsky/bitcoin/tree/pr/ipc/doc/design/multiprocess.md)\r\n* [Project board](https://github.com/bitcoin/bitcoin/projects/10)\r\n* [Wiki](https://github.com/bitcoin-core/bitcoin-devwiki/wiki/Process-Separation)\r\n* [Presentation](https://docs.google.com/presentation/d/1AeJ-7gD-dItUgs5yH-HoEzLvXaEWe_2ZiGUUxYIXcws/edit) ([code shown](https://github.com/ryanofsky/bitcoin/compare/master...pr/ipc.21))\r\n",
    "user": {
      "login": "ryanofsky",
      "id": 7133040,
      "node_id": "MDQ6VXNlcjcxMzMwNDA=",
      "avatar_url": "https://avatars.githubusercontent.com/u/7133040?v=4",
      "gravatar_id": "",
      "url": "https://api.github.com/users/ryanofsky",
      "html_url": "https://github.com/ryanofsky",
      "followers_url": "https://api.github.com/users/ryanofsky/followers",
      "following_url": "https://api.github.com/users/ryanofsky/following%7B/other_user%7D",
      "gists_url": "https://api.github.com/users/ryanofsky/gists%7B/gist_id%7D",
      "starred_url": "https://api.github.com/users/ryanofsky/starred%7B/owner%7D%7B/repo%7D",
      "subscriptions_url": "https://api.github.com/users/ryanofsky/subscriptions",
      "organizations_url": "https://api.github.com/users/ryanofsky/orgs",
      "repos_url": "https://api.github.com/users/ryanofsky/repos",
      "events_url": "https://api.github.com/users/ryanofsky/events%7B/privacy%7D",
      "received_events_url": "https://api.github.com/users/ryanofsky/received_events",
      "type": "User",
      "site_admin": false
    },
    "labels": [],
    "assignees": [],
    "author_association": "CONTRIBUTOR",
    "locked": false,
    "comments": 0,
    "created_at": "2023-10-24T18:22:37Z",
    "updated_at": "2023-10-24T18:34:17Z"
  },
  "events": [
    {
      "event": "cross-referenced",
      "id": null,
      "node_id": null,
      "url": null,
      "actor": {
        "login": "ryanofsky",
        "id": 7133040,
        "node_id": "MDQ6VXNlcjcxMzMwNDA=",
        "avatar_url": "https://avatars.githubusercontent.com/u/7133040?v=4",
        "gravatar_id": "",
        "url": "https://api.github.com/users/ryanofsky",
        "html_url": "https://github.com/ryanofsky",
        "followers_url": "https://api.github.com/users/ryanofsky/followers",
        "following_url": "https://api.github.com/users/ryanofsky/following%7B/other_user%7D",
        "gists_url": "https://api.github.com/users/ryanofsky/gists%7B/gist_id%7D",
        "starred_url": "https://api.github.com/users/ryanofsky/starred%7B/owner%7D%7B/repo%7D",
        "subscriptions_url": "https://api.github.com/users/ryanofsky/subscriptions",
        "organizations_url": "https://api.github.com/users/ryanofsky/orgs",
        "repos_url": "https://api.github.com/users/ryanofsky/repos",
        "events_url": "https://api.github.com/users/ryanofsky/events%7B/privacy%7D",
        "received_events_url": "https://api.github.com/users/ryanofsky/received_events",
        "type": "User",
        "site_admin": false
      },
      "commit_id": null,
      "commit_url": null,
      "created_at": "2023-10-24T18:41:00Z",
      "updated_at": "2023-10-24T18:41:00Z",
      "source": {
        "issue": {
          "id": 652543635,
          "node_id": "MDExOlB1bGxSZXF1ZXN0NDQ1NTkyMDUz",
          "url": "https://api.github.com/repos/bitcoin/bitcoin/issues/19460",
          "repository_url": "https://api.github.com/repos/bitcoin/bitcoin",
          "labels_url": "https://api.github.com/repos/bitcoin/bitcoin/issues/19460/labels%7B/name%7D",
          "comments_url": "https://api.github.com/repos/bitcoin/bitcoin/issues/19460/comments",
          "events_url": "https://api.github.com/repos/bitcoin/bitcoin/issues/19460/events",
          "html_url": "https://github.com/bitcoin/bitcoin/pull/19460",
          "number": 19460,
          "state": "open",
          "state_reason": null,
          "title": "multiprocess: Add bitcoin-wallet -ipcconnect option",
          "body": "**This is a draft PR because it is based on #10102.** The non-base commits are:\r\n\r\n- [`bbefbd3c199b` multiprocess: Add -ipcconnect and -ipcbind options](https://github.com/bitcoin/bitcoin/pull/19460/commits/bbefbd3c199b189188d6427b4564b17477c6d50e)\r\n\r\n---\r\n\r\nBuilding on #10102, this adds an `-ipcconnect` option to `bitcoin-wallet` and an `-ipcbind` option to `bitcoin-node` (both enabled by default in multiprocess builds) so bitcoin node will listen on a `<datadir>/sockets/node.sock` unix socket, and `bitcoin-wallet` will connect to it.\r\n\r\nThe idea is that `bitcoin-wallet` can be extended in the future to have some online functionality. For example, there could be a `bitcoin-wallet sync` command that will update balances and sync latest transactions to an unloaded wallet, or a `bitcoin-wallet serve` subcommand that loads a wallet and serves RPC requests, or a `bitcoin-wallet shell` subcommand that allows running RPC methods interactively like the GUI console, or just general support for `bitcoin-wallet <rpc method> <rpc params>` invocations suggested https://github.com/bitcoin/bitcoin/pull/13926#issuecomment-455187379.\r\n\r\nThis PR is small and doesn't do much. The only visible change is that `bitcoin-wallet` now checks whether a node socket exists on startup and prints \"Connected to IPC address\" if it can connect it it.\r\n\r\nThe default `bitcoin-wallet` connect option is `-ipcconnect=auto`, which connects if possible as described above, and proceeds offline if not possible. Other supported options are `-noipcconnect` to disable ipc, `-ipcconnect` to require a connection and fail if it can't be established, and `-ipcconnect=unix:<socket>` to require a connection and use a custom socket path.\r\n\r\nThese changes require multiprocess support and this PR has no effect unless bitcoin is configured with `--enable-multiprocess` as described in [doc/multiprocess.md](https://github.com/bitcoin/bitcoin/blob/master/doc/multiprocess.md)\r\n\r\n---\r\n\r\nThis PR is part of the [process separation project](https://github.com/bitcoin/bitcoin/issues/28722).\r\n",
          "user": {
            "login": "ryanofsky",
            "id": 7133040,
            "node_id": "MDQ6VXNlcjcxMzMwNDA=",
            "avatar_url": "https://avatars.githubusercontent.com/u/7133040?v=4",
            "gravatar_id": "",
            "url": "https://api.github.com/users/ryanofsky",
            "html_url": "https://github.com/ryanofsky",
            "followers_url": "https://api.github.com/users/ryanofsky/followers",
            "following_url": "https://api.github.com/users/ryanofsky/following%7B/other_user%7D",
            "gists_url": "https://api.github.com/users/ryanofsky/gists%7B/gist_id%7D",
            "starred_url": "https://api.github.com/users/ryanofsky/starred%7B/owner%7D%7B/repo%7D",
            "subscriptions_url": "https://api.github.com/users/ryanofsky/subscriptions",
            "organizations_url": "https://api.github.com/users/ryanofsky/orgs",
            "repos_url": "https://api.github.com/users/ryanofsky/repos",
            "events_url": "https://api.github.com/users/ryanofsky/events%7B/privacy%7D",
            "received_events_url": "https://api.github.com/users/ryanofsky/received_events",
            "type": "User",
            "site_admin": false
          },
          "labels": [
            {
              "id": 149424,
              "node_id": "MDU6TGFiZWwxNDk0MjQ=",
              "url": "https://api.github.com/repos/bitcoin/bitcoin/labels/Wallet",
              "name": "Wallet",
              "color": "08a781",
              "default": false
            },
            {
              "id": 61889416,
              "node_id": "MDU6TGFiZWw2MTg4OTQxNg==",
              "url": "https://api.github.com/repos/bitcoin/bitcoin/labels/Build%20system",
              "name": "Build system",
              "color": "5319e7",
              "default": false
            },
            {
              "id": 241832923,
              "node_id": "MDU6TGFiZWwyNDE4MzI5MjM=",
              "url": "https://api.github.com/repos/bitcoin/bitcoin/labels/Utils/log/libs",
              "name": "Utils/log/libs",
              "description": "",
              "color": "5319e7",
              "default": false
            },
            {
              "id": 955867938,
              "node_id": "MDU6TGFiZWw5NTU4Njc5Mzg=",
              "url": "https://api.github.com/repos/bitcoin/bitcoin/labels/Needs%20rebase",
              "name": "Needs rebase",
              "description": "",
              "color": "cccccc",
              "default": false
            }
          ],
          "assignees": [],
          "author_association": "CONTRIBUTOR",
          "locked": false,
          "comments": 6,
          "pull_request": {
            "url": "https://api.github.com/repos/bitcoin/bitcoin/pulls/19460",
            "html_url": "https://github.com/bitcoin/bitcoin/pull/19460",
            "diff_url": "https://github.com/bitcoin/bitcoin/pull/19460.diff",
            "patch_url": "https://github.com/bitcoin/bitcoin/pull/19460.patch"
          },
          "created_at": "2020-07-07T18:53:19Z",
          "updated_at": "2023-10-24T18:43:17Z"
        },
        "type": "issue"
      }
    },
    {
      "event": "cross-referenced",
      "id": null,
      "node_id": null,
      "url": null,
      "actor": {
        "login": "ryanofsky",
        "id": 7133040,
        "node_id": "MDQ6VXNlcjcxMzMwNDA=",
        "avatar_url": "https://avatars.githubusercontent.com/u/7133040?v=4",
        "gravatar_id": "",
        "url": "https://api.github.com/users/ryanofsky",
        "html_url": "https://github.com/ryanofsky",
        "followers_url": "https://api.github.com/users/ryanofsky/followers",
        "following_url": "https://api.github.com/users/ryanofsky/following%7B/other_user%7D",
        "gists_url": "https://api.github.com/users/ryanofsky/gists%7B/gist_id%7D",
        "starred_url": "https://api.github.com/users/ryanofsky/starred%7B/owner%7D%7B/repo%7D",
        "subscriptions_url": "https://api.github.com/users/ryanofsky/subscriptions",
        "organizations_url": "https://api.github.com/users/ryanofsky/orgs",
        "repos_url": "https://api.github.com/users/ryanofsky/repos",
        "events_url": "https://api.github.com/users/ryanofsky/events%7B/privacy%7D",
        "received_events_url": "https://api.github.com/users/ryanofsky/received_events",
        "type": "User",
        "site_admin": false
      },
      "commit_id": null,
      "commit_url": null,
      "created_at": "2023-10-24T18:41:28Z",
      "updated_at": "2023-10-24T18:41:28Z",
      "source": {
        "issue": {
          "id": 1959819679,
          "node_id": "PR_kwDOABII585dq6qf",
          "url": "https://api.github.com/repos/bitcoin/bitcoin/issues/28721",
          "repository_url": "https://api.github.com/repos/bitcoin/bitcoin",
          "labels_url": "https://api.github.com/repos/bitcoin/bitcoin/issues/28721/labels%7B/name%7D",
          "comments_url": "https://api.github.com/repos/bitcoin/bitcoin/issues/28721/comments",
          "events_url": "https://api.github.com/repos/bitcoin/bitcoin/issues/28721/events",
          "html_url": "https://github.com/bitcoin/bitcoin/pull/28721",
          "number": 28721,
          "state": "open",
          "state_reason": null,
          "title": "multiprocess compatibility updates",
          "body": "This is a collection of small changes to interfaces and code which were needed as part of multiprocess PR #10102, but have been moved here to make that PR smaller.\r\n\r\nAll of these changes are refactoring changes which do not affect behavior of current code\r\n\r\n---\r\n\r\nThis PR is part of the [process separation project](https://github.com/bitcoin/bitcoin/issues/28722).",
          "user": {
            "login": "ryanofsky",
            "id": 7133040,
            "node_id": "MDQ6VXNlcjcxMzMwNDA=",
            "avatar_url": "https://avatars.githubusercontent.com/u/7133040?v=4",
            "gravatar_id": "",
            "url": "https://api.github.com/users/ryanofsky",
            "html_url": "https://github.com/ryanofsky",
            "followers_url": "https://api.github.com/users/ryanofsky/followers",
            "following_url": "https://api.github.com/users/ryanofsky/following%7B/other_user%7D",
            "gists_url": "https://api.github.com/users/ryanofsky/gists%7B/gist_id%7D",
            "starred_url": "https://api.github.com/users/ryanofsky/starred%7B/owner%7D%7B/repo%7D",
            "subscriptions_url": "https://api.github.com/users/ryanofsky/subscriptions",
            "organizations_url": "https://api.github.com/users/ryanofsky/orgs",
            "repos_url": "https://api.github.com/users/ryanofsky/repos",
            "events_url": "https://api.github.com/users/ryanofsky/events%7B/privacy%7D",
            "received_events_url": "https://api.github.com/users/ryanofsky/received_events",
            "type": "User",
            "site_admin": false
          },
          "labels": [],
          "assignees": [],
          "author_association": "CONTRIBUTOR",
          "locked": false,
          "comments": 1,
          "pull_request": {
            "url": "https://api.github.com/repos/bitcoin/bitcoin/pulls/28721",
            "html_url": "https://github.com/bitcoin/bitcoin/pull/28721",
            "diff_url": "https://github.com/bitcoin/bitcoin/pull/28721.diff",
            "patch_url": "https://github.com/bitcoin/bitcoin/pull/28721.patch"
          },
          "created_at": "2023-10-24T18:16:54Z",
          "updated_at": "2023-10-24T18:41:28Z"
        },
        "type": "issue"
      }
    },
    {
      "event": "cross-referenced",
      "id": null,
      "node_id": null,
      "url": null,
      "actor": {
        "login": "ryanofsky",
        "id": 7133040,
        "node_id": "MDQ6VXNlcjcxMzMwNDA=",
        "avatar_url": "https://avatars.githubusercontent.com/u/7133040?v=4",
        "gravatar_id": "",
        "url": "https://api.github.com/users/ryanofsky",
        "html_url": "https://github.com/ryanofsky",
        "followers_url": "https://api.github.com/users/ryanofsky/followers",
        "following_url": "https://api.github.com/users/ryanofsky/following%7B/other_user%7D",
        "gists_url": "https://api.github.com/users/ryanofsky/gists%7B/gist_id%7D",
        "starred_url": "https://api.github.com/users/ryanofsky/starred%7B/owner%7D%7B/repo%7D",
        "subscriptions_url": "https://api.github.com/users/ryanofsky/subscriptions",
        "organizations_url": "https://api.github.com/users/ryanofsky/orgs",
        "repos_url": "https://api.github.com/users/ryanofsky/repos",
        "events_url": "https://api.github.com/users/ryanofsky/events%7B/privacy%7D",
        "received_events_url": "https://api.github.com/users/ryanofsky/received_events",
        "type": "User",
        "site_admin": false
      },
      "commit_id": null,
      "commit_url": null,
      "created_at": "2023-10-24T18:42:18Z",
      "updated_at": "2023-10-24T18:42:18Z",
      "source": {
        "issue": {
          "id": 217385623,
          "node_id": "MDExOlB1bGxSZXF1ZXN0MTEyODQ2NDMx",
          "url": "https://api.github.com/repos/bitcoin/bitcoin/issues/10102",
          "repository_url": "https://api.github.com/repos/bitcoin/bitcoin",
          "labels_url": "https://api.github.com/repos/bitcoin/bitcoin/issues/10102/labels%7B/name%7D",
          "comments_url": "https://api.github.com/repos/bitcoin/bitcoin/issues/10102/comments",
          "events_url": "https://api.github.com/repos/bitcoin/bitcoin/issues/10102/events",
          "html_url": "https://github.com/bitcoin/bitcoin/pull/10102",
          "number": 10102,
          "state": "open",
          "state_reason": null,
          "title": "Multiprocess bitcoin",
          "body": "**This is a draft PR because it is based on #28721.** The non-base commits are:\r\n\r\n- [`dc0a2a6726bb` depends: Update libmultiprocess library](https://github.com/bitcoin/bitcoin/pull/10102/commits/dc0a2a6726bbd3e197c64db93eaead76897e5fe3)\r\n- [`4a95a333717e` Increase feature_block.py and feature_taproot.py timeouts](https://github.com/bitcoin/bitcoin/pull/10102/commits/4a95a333717ed59b18de2759a4b5e6119c9efd9d)\r\n- [`debf07da817d` Add util::Result workaround to be compatible with libmultiprocess](https://github.com/bitcoin/bitcoin/pull/10102/commits/debf07da817dbfa60248a9527ba65a206799ab75)\r\n- [`21abaa9bba14` Add capnp serialization code for bitcoin types](https://github.com/bitcoin/bitcoin/pull/10102/commits/21abaa9bba1499a8134064a1ab31fbf789a43ef9)\r\n- [`12bbaf7c53f8` Add capnp wrapper for Handler interface](https://github.com/bitcoin/bitcoin/pull/10102/commits/12bbaf7c53f84e49a7f7a1c79371dd6e347cdc4e)\r\n- [`82fdd6b35a7d` Add capnp wrapper for Chain interface](https://github.com/bitcoin/bitcoin/pull/10102/commits/82fdd6b35a7d844a88194b1c1477144a5498bdf9)\r\n- [`4138a284cd68` Add capnp wrapper for Wallet interface](https://github.com/bitcoin/bitcoin/pull/10102/commits/4138a284cd68bfe9a6c3b39c584fb2443a54c44c)\r\n- [`69df67fee50d` Add capnp wrapper for Node interface](https://github.com/bitcoin/bitcoin/pull/10102/commits/69df67fee50dd396e9ae5354f499b4c879ae08e0)\r\n- [`0debb3a35abc` Make bitcoin-gui spawn a bitcoin-node process](https://github.com/bitcoin/bitcoin/pull/10102/commits/0debb3a35abce272de9c232bc1f8ede785ebe5c6)\r\n- [`c36072badafa` Make bitcoin-node spawn a bitcoin-wallet process](https://github.com/bitcoin/bitcoin/pull/10102/commits/c36072badafaaebf1b29db6ee76536adc11e9bb2)\r\n- [`0d151661f3bf` multiprocess: Add debug.log .wallet/.gui suffixes](https://github.com/bitcoin/bitcoin/pull/10102/commits/0d151661f3bf04fc6a6ae1d9560770a74681653d)\r\n- [`75fa53129e8d` doc: Multiprocess misc doc and comment updates](https://github.com/bitcoin/bitcoin/pull/10102/commits/75fa53129e8dfae3b043329895014ee3ef82fcb1)\r\n- [`18d382f4f8a7` combine_logs: Handle multiprocess wallet log files](https://github.com/bitcoin/bitcoin/pull/10102/commits/18d382f4f8a74612ae0e91efd8a2b83bb665e081)\r\n\r\n---\r\n\r\nThis PR adds an `--enable-multiprocess` configure option which builds new `bitcoin-node`, `bitcoin-wallet`, and `bitcoin-gui` executables with relevant functionality isolated into different processes. See [doc/design/multiprocess.md](https://github.com/ryanofsky/bitcoin/tree/pr/ipc/doc/design/multiprocess.md) for usage details and future plans.\r\n\r\nThe change is implemented by adding a new [`Init`](https://github.com/ryanofsky/bitcoin/blob/pr/ipc/src/interfaces/init.h) interface that spawns new wallet and node subprocesses that can be controlled over a [socketpair](http://man7.org/linux/man-pages/man2/socketpair.2.html) by calling [`Node`](https://github.com/ryanofsky/bitcoin/blob/pr/ipc/src/interfaces/node.h), [`Wallet`](https://github.com/ryanofsky/bitcoin/blob/pr/ipc/src/interfaces/wallet.h), and [`ChainClient`](https://github.com/ryanofsky/bitcoin/blob/pr/ipc/src/interfaces/chain.h) methods. When running with split processes, you can see the IPC messages going back and forth in `-debug=1` output. Followup PR's #19460 and #19461 add `-ipcbind` and `-ipcconnect` options that allow more flexibility in how processes are connected.\r\n\r\nThe IPC protocol used is Cap'n Proto, but this could be swapped out for another protocol. Cap'n Proto types and libraries are only accessed in the [src/ipc/capnp/](https://github.com/ryanofsky/bitcoin/tree/pr/ipc/src/ipc/capnp) directory, and not in any public headers or other parts of bitcoin code.\r\n\r\nSlides from a presentation describing this change are available on [google drive](https://docs.google.com/presentation/d/1AeJ-7gD-dItUgs5yH-HoEzLvXaEWe_2ZiGUUxYIXcws/edit). Demo code used in the presentation was from an older version this PR (tag [ipc.21](https://github.com/ryanofsky/bitcoin/releases/tag/pr%2Fipc.21), [commits](https://github.com/ryanofsky/bitcoin/compare/master...pr/ipc.21)).\r\n\r\n---\r\n\r\nThis PR is part of the [process separation project](https://github.com/bitcoin/bitcoin/issues/28722).\r\n",
          "user": {
            "login": "ryanofsky",
            "id": 7133040,
            "node_id": "MDQ6VXNlcjcxMzMwNDA=",
            "avatar_url": "https://avatars.githubusercontent.com/u/7133040?v=4",
            "gravatar_id": "",
            "url": "https://api.github.com/users/ryanofsky",
            "html_url": "https://github.com/ryanofsky",
            "followers_url": "https://api.github.com/users/ryanofsky/followers",
            "following_url": "https://api.github.com/users/ryanofsky/following%7B/other_user%7D",
            "gists_url": "https://api.github.com/users/ryanofsky/gists%7B/gist_id%7D",
            "starred_url": "https://api.github.com/users/ryanofsky/starred%7B/owner%7D%7B/repo%7D",
            "subscriptions_url": "https://api.github.com/users/ryanofsky/subscriptions",
            "organizations_url": "https://api.github.com/users/ryanofsky/orgs",
            "repos_url": "https://api.github.com/users/ryanofsky/repos",
            "events_url": "https://api.github.com/users/ryanofsky/events%7B/privacy%7D",
            "received_events_url": "https://api.github.com/users/ryanofsky/received_events",
            "type": "User",
            "site_admin": false
          },
          "labels": [
            {
              "id": 135946,
              "node_id": "MDU6TGFiZWwxMzU5NDY=",
              "url": "https://api.github.com/repos/bitcoin/bitcoin/labels/GUI",
              "name": "GUI",
              "color": "02d7e1",
              "default": false
            },
            {
              "id": 98279177,
              "node_id": "MDU6TGFiZWw5ODI3OTE3Nw==",
              "url": "https://api.github.com/repos/bitcoin/bitcoin/labels/RPC/REST/ZMQ",
              "name": "RPC/REST/ZMQ",
              "color": "0052cc",
              "default": false
            },
            {
              "id": 5334691551,
              "node_id": "LA_kwDOABII588AAAABPfju3w",
              "url": "https://api.github.com/repos/bitcoin/bitcoin/labels/CI%20failed",
              "name": "CI failed",
              "description": "",
              "color": "cccccc",
              "default": false
            }
          ],
          "assignees": [],
          "author_association": "CONTRIBUTOR",
          "locked": false,
          "comments": 82,
          "pull_request": {
            "url": "https://api.github.com/repos/bitcoin/bitcoin/pulls/10102",
            "html_url": "https://github.com/bitcoin/bitcoin/pull/10102",
            "diff_url": "https://github.com/bitcoin/bitcoin/pull/10102.diff",
            "patch_url": "https://github.com/bitcoin/bitcoin/pull/10102.patch"
          },
          "created_at": "2017-03-27T21:48:26Z",
          "updated_at": "2023-10-24T18:42:18Z"
        },
        "type": "issue"
      }
    },
    {
      "event": "cross-referenced",
      "id": null,
      "node_id": null,
      "url": null,
      "actor": {
        "login": "ryanofsky",
        "id": 7133040,
        "node_id": "MDQ6VXNlcjcxMzMwNDA=",
        "avatar_url": "https://avatars.githubusercontent.com/u/7133040?v=4",
        "gravatar_id": "",
        "url": "https://api.github.com/users/ryanofsky",
        "html_url": "https://github.com/ryanofsky",
        "followers_url": "https://api.github.com/users/ryanofsky/followers",
        "following_url": "https://api.github.com/users/ryanofsky/following%7B/other_user%7D",
        "gists_url": "https://api.github.com/users/ryanofsky/gists%7B/gist_id%7D",
        "starred_url": "https://api.github.com/users/ryanofsky/starred%7B/owner%7D%7B/repo%7D",
        "subscriptions_url": "https://api.github.com/users/ryanofsky/subscriptions",
        "organizations_url": "https://api.github.com/users/ryanofsky/orgs",
        "repos_url": "https://api.github.com/users/ryanofsky/repos",
        "events_url": "https://api.github.com/users/ryanofsky/events%7B/privacy%7D",
        "received_events_url": "https://api.github.com/users/ryanofsky/received_events",
        "type": "User",
        "site_admin": false
      },
      "commit_id": null,
      "commit_url": null,
      "created_at": "2023-10-24T18:44:21Z",
      "updated_at": "2023-10-24T18:44:21Z",
      "source": {
        "issue": {
          "id": 652547610,
          "node_id": "MDExOlB1bGxSZXF1ZXN0NDQ1NTk1Mjk3",
          "url": "https://api.github.com/repos/bitcoin/bitcoin/issues/19461",
          "repository_url": "https://api.github.com/repos/bitcoin/bitcoin",
          "labels_url": "https://api.github.com/repos/bitcoin/bitcoin/issues/19461/labels%7B/name%7D",
          "comments_url": "https://api.github.com/repos/bitcoin/bitcoin/issues/19461/comments",
          "events_url": "https://api.github.com/repos/bitcoin/bitcoin/issues/19461/events",
          "html_url": "https://github.com/bitcoin/bitcoin/pull/19461",
          "number": 19461,
          "state": "open",
          "state_reason": null,
          "title": "multiprocess: Add bitcoin-gui -ipcconnect option",
          "body": "**This is a draft PR because it is based on #10102 + #19460.** The non-base commits are:\r\n\r\n- [`5f91aa3d8b47` multiprocess: Add bitcoin-gui -ipcconnect option](https://github.com/bitcoin/bitcoin/pull/19461/commits/5f91aa3d8b47cee97e625c3b5689a37dbd941eff)\r\n\r\n---\r\n\r\nBuilding on #10102, this adds an `-ipcconnect` option to `bitcoin-gui` that connects the GUI to an existing `bitcoin-node` process already running in the background instead of spawning a new `bitcoin-node` process. This allows the GUI to be started and stopped independently of the node. By default with this change, `bitcoin-gui` will check if a `<datadir>/sockets/node.sock` socket exists and try to connect to that. If that doesn't work, it will spawn a new node process and start up the same way it did before this PR.\r\n\r\nThe default `bitcoin-gui` connect option is `-ipcconnect=auto`, which tries to connect if possible as described above, and spawns a new `bitcoin-node` process if not possible. Other supported options are `-noipcconnect` to never connect to an existing node and always spawn a new one, `-ipcconnect` to require a connection and fail if it can't be established, and `-ipcconnect=unix:<socket>` to require a connection and use a custom socket path.\r\n\r\nWith this PR, basic functionality works and gui instances can connect and disconnect from a running node. But there are rough edges: If a gui process doesn't shut down cleanly, the node can see unhandled IpcExceptions, and if node command line options are passed to `bitcoin-gui` and `bitcoin-gui` connects to an exiting bitcoin-node process instead of spawning a new one, the node options will be silently ignored. \r\n\r\nThese changes require multiprocess support and this PR has no effect unless bitcoin is configured with `--enable-multiprocess` as described in [doc/multiprocess.md](https://github.com/bitcoin/bitcoin/blob/master/doc/multiprocess.md)\r\n\r\n---\r\n\r\nThis PR is part of the [process separation project](https://github.com/bitcoin/bitcoin/issues/28722).\r\n",
          "user": {
            "login": "ryanofsky",
            "id": 7133040,
            "node_id": "MDQ6VXNlcjcxMzMwNDA=",
            "avatar_url": "https://avatars.githubusercontent.com/u/7133040?v=4",
            "gravatar_id": "",
            "url": "https://api.github.com/users/ryanofsky",
            "html_url": "https://github.com/ryanofsky",
            "followers_url": "https://api.github.com/users/ryanofsky/followers",
            "following_url": "https://api.github.com/users/ryanofsky/following%7B/other_user%7D",
            "gists_url": "https://api.github.com/users/ryanofsky/gists%7B/gist_id%7D",
            "starred_url": "https://api.github.com/users/ryanofsky/starred%7B/owner%7D%7B/repo%7D",
            "subscriptions_url": "https://api.github.com/users/ryanofsky/subscriptions",
            "organizations_url": "https://api.github.com/users/ryanofsky/orgs",
            "repos_url": "https://api.github.com/users/ryanofsky/repos",
            "events_url": "https://api.github.com/users/ryanofsky/events%7B/privacy%7D",
            "received_events_url": "https://api.github.com/users/ryanofsky/received_events",
            "type": "User",
            "site_admin": false
          },
          "labels": [
            {
              "id": 135946,
              "node_id": "MDU6TGFiZWwxMzU5NDY=",
              "url": "https://api.github.com/repos/bitcoin/bitcoin/labels/GUI",
              "name": "GUI",
              "color": "02d7e1",
              "default": false
            },
            {
              "id": 241832923,
              "node_id": "MDU6TGFiZWwyNDE4MzI5MjM=",
              "url": "https://api.github.com/repos/bitcoin/bitcoin/labels/Utils/log/libs",
              "name": "Utils/log/libs",
              "description": "",
              "color": "5319e7",
              "default": false
            },
            {
              "id": 955867938,
              "node_id": "MDU6TGFiZWw5NTU4Njc5Mzg=",
              "url": "https://api.github.com/repos/bitcoin/bitcoin/labels/Needs%20rebase",
              "name": "Needs rebase",
              "description": "",
              "color": "cccccc",
              "default": false
            }
          ],
          "assignees": [],
          "author_association": "CONTRIBUTOR",
          "locked": false,
          "comments": 10,
          "pull_request": {
            "url": "https://api.github.com/repos/bitcoin/bitcoin/pulls/19461",
            "html_url": "https://github.com/bitcoin/bitcoin/pull/19461",
            "diff_url": "https://github.com/bitcoin/bitcoin/pull/19461.diff",
            "patch_url": "https://github.com/bitcoin/bitcoin/pull/19461.patch"
          },
          "created_at": "2020-07-07T19:00:11Z",
          "updated_at": "2023-10-24T18:44:21Z"
        },
        "type": "issue"
      }
    }
  ]
}