{
  "type": "issue",
  "issue": {
    "id": 57156837,
    "node_id": "MDU6SXNzdWU1NzE1NjgzNw==",
    "url": "https://api.github.com/repos/bitcoin/bitcoin/issues/5782",
    "repository_url": "https://api.github.com/repos/bitcoin/bitcoin",
    "labels_url": "https://api.github.com/repos/bitcoin/bitcoin/issues/5782/labels%7B/name%7D",
    "comments_url": "https://api.github.com/repos/bitcoin/bitcoin/issues/5782/comments",
    "events_url": "https://api.github.com/repos/bitcoin/bitcoin/issues/5782/events",
    "html_url": "https://github.com/bitcoin/bitcoin/issues/5782",
    "number": 5782,
    "state": "closed",
    "state_reason": "completed",
    "title": "Coin selection, CreateTransaction, MAX_STANDARD_TX_SIZE",
    "body": "While regtesting with [bitcoin-spock](https://github.com/msgilligan/bitcoin-spock) I noticed at some point the transaction creation via `sendtoaddress -> CreateTransaction()` fails, because the created transaction is larger than `MAX_STANDARD_TX_SIZE`.\n\nDuring the process a lot of raw transactions are created, which have smallish outputs and when then using `sendtoaddress`, it appears to attempt to create a transaction that spends too many of those dust-ish outputs.\n\nThe transaction to create does not have many outputs, but it looks like it's caused by the coin selection, which selects too many inputs. Testing was done with a 0.9 branch, but on the first glimpse I believe this issue is as well be present in 0.10. If this is a known issue, and if there is already a guard against this behavior, I'd be happy about a hint.\n\nSorry in advance, I do not have a test script to reproduce this issue in an isolated manner. A potential fix would probably require to adjust the coin selection, so that it selects a combination of coins, which, in addition to the size of the rest of the transaction, is still smaller than the limit.\n",
    "user": {
      "login": "dexX7",
      "id": 5836089,
      "node_id": "MDQ6VXNlcjU4MzYwODk=",
      "avatar_url": "https://avatars.githubusercontent.com/u/5836089?v=4",
      "gravatar_id": "",
      "url": "https://api.github.com/users/dexX7",
      "html_url": "https://github.com/dexX7",
      "followers_url": "https://api.github.com/users/dexX7/followers",
      "following_url": "https://api.github.com/users/dexX7/following%7B/other_user%7D",
      "gists_url": "https://api.github.com/users/dexX7/gists%7B/gist_id%7D",
      "starred_url": "https://api.github.com/users/dexX7/starred%7B/owner%7D%7B/repo%7D",
      "subscriptions_url": "https://api.github.com/users/dexX7/subscriptions",
      "organizations_url": "https://api.github.com/users/dexX7/orgs",
      "repos_url": "https://api.github.com/users/dexX7/repos",
      "events_url": "https://api.github.com/users/dexX7/events%7B/privacy%7D",
      "received_events_url": "https://api.github.com/users/dexX7/received_events",
      "type": "User",
      "site_admin": false
    },
    "labels": [
      {
        "id": 149424,
        "node_id": "MDU6TGFiZWwxNDk0MjQ=",
        "url": "https://api.github.com/repos/bitcoin/bitcoin/labels/Wallet",
        "name": "Wallet",
        "color": "08a781",
        "default": false
      }
    ],
    "assignees": [],
    "author_association": "CONTRIBUTOR",
    "locked": false,
    "comments": 5,
    "closed_at": "2022-12-06T17:09:39Z",
    "created_at": "2015-02-10T10:35:10Z",
    "updated_at": "2022-12-06T17:09:39Z"
  },
  "events": [
    {
      "event": "labeled",
      "id": 233121197,
      "node_id": "MDEyOkxhYmVsZWRFdmVudDIzMzEyMTE5Nw==",
      "url": "https://api.github.com/repos/bitcoin/bitcoin/issues/events/233121197",
      "actor": {
        "login": "laanwj",
        "id": 126646,
        "node_id": "MDQ6VXNlcjEyNjY0Ng==",
        "avatar_url": "https://avatars.githubusercontent.com/u/126646?v=4",
        "gravatar_id": "",
        "url": "https://api.github.com/users/laanwj",
        "html_url": "https://github.com/laanwj",
        "followers_url": "https://api.github.com/users/laanwj/followers",
        "following_url": "https://api.github.com/users/laanwj/following%7B/other_user%7D",
        "gists_url": "https://api.github.com/users/laanwj/gists%7B/gist_id%7D",
        "starred_url": "https://api.github.com/users/laanwj/starred%7B/owner%7D%7B/repo%7D",
        "subscriptions_url": "https://api.github.com/users/laanwj/subscriptions",
        "organizations_url": "https://api.github.com/users/laanwj/orgs",
        "repos_url": "https://api.github.com/users/laanwj/repos",
        "events_url": "https://api.github.com/users/laanwj/events%7B/privacy%7D",
        "received_events_url": "https://api.github.com/users/laanwj/received_events",
        "type": "User",
        "site_admin": false
      },
      "commit_id": null,
      "commit_url": null,
      "created_at": "2015-02-10T10:59:33Z",
      "label": {
        "name": "Wallet",
        "color": "02d7e1"
      }
    },
    {
      "event": "commented",
      "id": 73681536,
      "node_id": "MDEyOklzc3VlQ29tbWVudDczNjgxNTM2",
      "url": "https://api.github.com/repos/bitcoin/bitcoin/issues/comments/73681536",
      "actor": {
        "login": "laanwj",
        "id": 126646,
        "node_id": "MDQ6VXNlcjEyNjY0Ng==",
        "avatar_url": "https://avatars.githubusercontent.com/u/126646?v=4",
        "gravatar_id": "",
        "url": "https://api.github.com/users/laanwj",
        "html_url": "https://github.com/laanwj",
        "followers_url": "https://api.github.com/users/laanwj/followers",
        "following_url": "https://api.github.com/users/laanwj/following%7B/other_user%7D",
        "gists_url": "https://api.github.com/users/laanwj/gists%7B/gist_id%7D",
        "starred_url": "https://api.github.com/users/laanwj/starred%7B/owner%7D%7B/repo%7D",
        "subscriptions_url": "https://api.github.com/users/laanwj/subscriptions",
        "organizations_url": "https://api.github.com/users/laanwj/orgs",
        "repos_url": "https://api.github.com/users/laanwj/repos",
        "events_url": "https://api.github.com/users/laanwj/events%7B/privacy%7D",
        "received_events_url": "https://api.github.com/users/laanwj/received_events",
        "type": "User",
        "site_admin": false
      },
      "commit_id": null,
      "commit_url": null,
      "created_at": "2015-02-10T11:01:28Z",
      "updated_at": "2015-02-10T11:01:28Z",
      "author_association": "MEMBER",
      "body": "There have been some modifications to coin selection algorithm, maybe they improve things, see e.g. #4906\n",
      "user": {
        "login": "laanwj",
        "id": 126646,
        "node_id": "MDQ6VXNlcjEyNjY0Ng==",
        "avatar_url": "https://avatars.githubusercontent.com/u/126646?v=4",
        "gravatar_id": "",
        "url": "https://api.github.com/users/laanwj",
        "html_url": "https://github.com/laanwj",
        "followers_url": "https://api.github.com/users/laanwj/followers",
        "following_url": "https://api.github.com/users/laanwj/following%7B/other_user%7D",
        "gists_url": "https://api.github.com/users/laanwj/gists%7B/gist_id%7D",
        "starred_url": "https://api.github.com/users/laanwj/starred%7B/owner%7D%7B/repo%7D",
        "subscriptions_url": "https://api.github.com/users/laanwj/subscriptions",
        "organizations_url": "https://api.github.com/users/laanwj/orgs",
        "repos_url": "https://api.github.com/users/laanwj/repos",
        "events_url": "https://api.github.com/users/laanwj/events%7B/privacy%7D",
        "received_events_url": "https://api.github.com/users/laanwj/received_events",
        "type": "User",
        "site_admin": false
      },
      "html_url": "https://github.com/bitcoin/bitcoin/issues/5782#issuecomment-73681536",
      "issue_url": "https://api.github.com/repos/bitcoin/bitcoin/issues/5782"
    },
    {
      "event": "commented",
      "id": 73819058,
      "node_id": "MDEyOklzc3VlQ29tbWVudDczODE5MDU4",
      "url": "https://api.github.com/repos/bitcoin/bitcoin/issues/comments/73819058",
      "actor": {
        "login": "dexX7",
        "id": 5836089,
        "node_id": "MDQ6VXNlcjU4MzYwODk=",
        "avatar_url": "https://avatars.githubusercontent.com/u/5836089?v=4",
        "gravatar_id": "",
        "url": "https://api.github.com/users/dexX7",
        "html_url": "https://github.com/dexX7",
        "followers_url": "https://api.github.com/users/dexX7/followers",
        "following_url": "https://api.github.com/users/dexX7/following%7B/other_user%7D",
        "gists_url": "https://api.github.com/users/dexX7/gists%7B/gist_id%7D",
        "starred_url": "https://api.github.com/users/dexX7/starred%7B/owner%7D%7B/repo%7D",
        "subscriptions_url": "https://api.github.com/users/dexX7/subscriptions",
        "organizations_url": "https://api.github.com/users/dexX7/orgs",
        "repos_url": "https://api.github.com/users/dexX7/repos",
        "events_url": "https://api.github.com/users/dexX7/events%7B/privacy%7D",
        "received_events_url": "https://api.github.com/users/dexX7/received_events",
        "type": "User",
        "site_admin": false
      },
      "commit_id": null,
      "commit_url": null,
      "created_at": "2015-02-11T01:18:15Z",
      "updated_at": "2015-02-11T01:18:15Z",
      "author_association": "CONTRIBUTOR",
      "body": "Thanks for the link! Unfortunally it doesn't seem to be related, but this issue is certainly something that probably won't appear outside of a testing environment. I created a test for it nevertheless:\n\nhttps://github.com/dexX7/bitcoin/blob/qa-coin-selection-limit/qa/rpc-tests/coinselection_size_limit.py\n\nThe problem is that the coin selection doesn't relate to the transaction size at all. I came up with three scenarios, all failing at the moment:\n\nScenario 1:\n- The actor starts with 1x 50.0 BTC and 1000x 0.05 BTC (100.0 BTC total) unspent outputs\n- Then tries to spend 49.5 BTC\n- The 50.0 BTC output should be selected, because the transaction would otherwise be too large\n\nScenario 2:\n- The actor starts with 500x 0.1 BTC and 1000x 0.05 BTC (100.0 BTC total) unspent outputs\n- Then tries to spend 49.5 BTC\n- A combination of coins should be selected, such that the created transaction is not too large\n\nScenario 3 (available as RPC test):\n- The actor starts with 1x 50.0 BTC, 500x 0.1 BTC and 1000x 0.05 BTC (150.0 BTC total) unspent outputs\n- Then tries to spend 49.5 BTC\n- A combination of coins should be selected, such that the created transaction is not too large\n\nFor each scenario at least one solution exists, where a combination of coins results in a transaction that has a size of less than `MAX_STANDARD_TX_SIZE`.\n",
      "user": {
        "login": "dexX7",
        "id": 5836089,
        "node_id": "MDQ6VXNlcjU4MzYwODk=",
        "avatar_url": "https://avatars.githubusercontent.com/u/5836089?v=4",
        "gravatar_id": "",
        "url": "https://api.github.com/users/dexX7",
        "html_url": "https://github.com/dexX7",
        "followers_url": "https://api.github.com/users/dexX7/followers",
        "following_url": "https://api.github.com/users/dexX7/following%7B/other_user%7D",
        "gists_url": "https://api.github.com/users/dexX7/gists%7B/gist_id%7D",
        "starred_url": "https://api.github.com/users/dexX7/starred%7B/owner%7D%7B/repo%7D",
        "subscriptions_url": "https://api.github.com/users/dexX7/subscriptions",
        "organizations_url": "https://api.github.com/users/dexX7/orgs",
        "repos_url": "https://api.github.com/users/dexX7/repos",
        "events_url": "https://api.github.com/users/dexX7/events%7B/privacy%7D",
        "received_events_url": "https://api.github.com/users/dexX7/received_events",
        "type": "User",
        "site_admin": false
      },
      "html_url": "https://github.com/bitcoin/bitcoin/issues/5782#issuecomment-73819058",
      "issue_url": "https://api.github.com/repos/bitcoin/bitcoin/issues/5782"
    },
    {
      "event": "cross-referenced",
      "id": null,
      "node_id": null,
      "url": null,
      "actor": {
        "login": "dexX7",
        "id": 5836089,
        "node_id": "MDQ6VXNlcjU4MzYwODk=",
        "avatar_url": "https://avatars.githubusercontent.com/u/5836089?v=4",
        "gravatar_id": "",
        "url": "https://api.github.com/users/dexX7",
        "html_url": "https://github.com/dexX7",
        "followers_url": "https://api.github.com/users/dexX7/followers",
        "following_url": "https://api.github.com/users/dexX7/following%7B/other_user%7D",
        "gists_url": "https://api.github.com/users/dexX7/gists%7B/gist_id%7D",
        "starred_url": "https://api.github.com/users/dexX7/starred%7B/owner%7D%7B/repo%7D",
        "subscriptions_url": "https://api.github.com/users/dexX7/subscriptions",
        "organizations_url": "https://api.github.com/users/dexX7/orgs",
        "repos_url": "https://api.github.com/users/dexX7/repos",
        "events_url": "https://api.github.com/users/dexX7/events%7B/privacy%7D",
        "received_events_url": "https://api.github.com/users/dexX7/received_events",
        "type": "User",
        "site_admin": false
      },
      "commit_id": null,
      "commit_url": null,
      "created_at": "2015-02-11T20:04:47Z",
      "updated_at": "2015-02-11T20:04:47Z",
      "source": {
        "issue": {
          "id": 57104177,
          "node_id": "MDU6SXNzdWU1NzEwNDE3Nw==",
          "url": "https://api.github.com/repos/OmniLayer/OmniJ/issues/50",
          "repository_url": "https://api.github.com/repos/OmniLayer/OmniJ",
          "labels_url": "https://api.github.com/repos/OmniLayer/OmniJ/issues/50/labels%7B/name%7D",
          "comments_url": "https://api.github.com/repos/OmniLayer/OmniJ/issues/50/comments",
          "events_url": "https://api.github.com/repos/OmniLayer/OmniJ/issues/50/events",
          "html_url": "https://github.com/OmniLayer/OmniJ/issues/50",
          "number": 50,
          "state": "closed",
          "state_reason": "completed",
          "title": "\"Transaction too large\" error",
          "body": "I need to dig deeper in the actual issue. Sure, we could ban all uses of where we don't construct BTC transactions ourself (special note: there is no check either, but given the funding with coinbase coins, it's less likely to hit a maximum), but this doesn't feel right.\n\nIt needs to be investigated what causes the error and how to fix it (upstream?) or how to avoid causing it.\n",
          "user": {
            "login": "dexX7",
            "id": 5836089,
            "node_id": "MDQ6VXNlcjU4MzYwODk=",
            "avatar_url": "https://avatars.githubusercontent.com/u/5836089?v=4",
            "gravatar_id": "",
            "url": "https://api.github.com/users/dexX7",
            "html_url": "https://github.com/dexX7",
            "followers_url": "https://api.github.com/users/dexX7/followers",
            "following_url": "https://api.github.com/users/dexX7/following%7B/other_user%7D",
            "gists_url": "https://api.github.com/users/dexX7/gists%7B/gist_id%7D",
            "starred_url": "https://api.github.com/users/dexX7/starred%7B/owner%7D%7B/repo%7D",
            "subscriptions_url": "https://api.github.com/users/dexX7/subscriptions",
            "organizations_url": "https://api.github.com/users/dexX7/orgs",
            "repos_url": "https://api.github.com/users/dexX7/repos",
            "events_url": "https://api.github.com/users/dexX7/events%7B/privacy%7D",
            "received_events_url": "https://api.github.com/users/dexX7/received_events",
            "type": "User",
            "site_admin": false
          },
          "labels": [],
          "assignees": [],
          "author_association": "MEMBER",
          "locked": false,
          "comments": 4,
          "closed_at": "2015-02-11T22:50:10Z",
          "created_at": "2015-02-09T23:02:56Z",
          "updated_at": "2015-02-11T23:21:08Z"
        },
        "type": "issue"
      }
    },
    {
      "event": "cross-referenced",
      "id": null,
      "node_id": null,
      "url": null,
      "actor": {
        "login": "MarcoFalke",
        "id": 6399679,
        "node_id": "MDQ6VXNlcjYzOTk2Nzk=",
        "avatar_url": "https://avatars.githubusercontent.com/u/6399679?v=4",
        "gravatar_id": "",
        "url": "https://api.github.com/users/MarcoFalke",
        "html_url": "https://github.com/MarcoFalke",
        "followers_url": "https://api.github.com/users/MarcoFalke/followers",
        "following_url": "https://api.github.com/users/MarcoFalke/following%7B/other_user%7D",
        "gists_url": "https://api.github.com/users/MarcoFalke/gists%7B/gist_id%7D",
        "starred_url": "https://api.github.com/users/MarcoFalke/starred%7B/owner%7D%7B/repo%7D",
        "subscriptions_url": "https://api.github.com/users/MarcoFalke/subscriptions",
        "organizations_url": "https://api.github.com/users/MarcoFalke/orgs",
        "repos_url": "https://api.github.com/users/MarcoFalke/repos",
        "events_url": "https://api.github.com/users/MarcoFalke/events%7B/privacy%7D",
        "received_events_url": "https://api.github.com/users/MarcoFalke/received_events",
        "type": "User",
        "site_admin": false
      },
      "commit_id": null,
      "commit_url": null,
      "created_at": "2015-09-01T22:44:18Z",
      "updated_at": "2015-09-01T22:44:18Z",
      "source": {
        "issue": {
          "id": 99272996,
          "node_id": "MDU6SXNzdWU5OTI3Mjk5Ng==",
          "url": "https://api.github.com/repos/bitcoin/bitcoin/issues/6522",
          "repository_url": "https://api.github.com/repos/bitcoin/bitcoin",
          "labels_url": "https://api.github.com/repos/bitcoin/bitcoin/issues/6522/labels%7B/name%7D",
          "comments_url": "https://api.github.com/repos/bitcoin/bitcoin/issues/6522/comments",
          "events_url": "https://api.github.com/repos/bitcoin/bitcoin/issues/6522/events",
          "html_url": "https://github.com/bitcoin/bitcoin/issues/6522",
          "number": 6522,
          "state": "closed",
          "state_reason": "completed",
          "title": "Transaction creation failed",
          "body": "Testing on Windows 7, both 32 and 64 bit versions. Bitcoin v.0.11.0\n\nTo re-create this issue \n\n1)  create a new empty wallet\n2)  send 700 (yes 700) transactions to a single address in your new wallet from step 1.  In my test\nI sent 1500 satoshi's for each of the 700.\n3) From your new wallet send out a 2000 satoshi transaction and clck send (you will get the proper send confirmation dialog)\n4) Close the dialog and send another 50 transactions into your wallet. Now you should have 750 outputs in your wallet all under one single address.\n5) Now try to send the same 2000 satoshi transaction:  you will receive a \"Transaction too large\"  dialog.  Click OK on this and you will now receive the \"Transaction creation failed!\"  dialog.\n\nNote: if you use the coin control feature you can select a couple of the outputs and then send correctly it`s only when coin control is not used that this issue happens.\n",
          "user": {
            "login": "ptschip",
            "id": 12862928,
            "node_id": "MDQ6VXNlcjEyODYyOTI4",
            "avatar_url": "https://avatars.githubusercontent.com/u/12862928?v=4",
            "gravatar_id": "",
            "url": "https://api.github.com/users/ptschip",
            "html_url": "https://github.com/ptschip",
            "followers_url": "https://api.github.com/users/ptschip/followers",
            "following_url": "https://api.github.com/users/ptschip/following%7B/other_user%7D",
            "gists_url": "https://api.github.com/users/ptschip/gists%7B/gist_id%7D",
            "starred_url": "https://api.github.com/users/ptschip/starred%7B/owner%7D%7B/repo%7D",
            "subscriptions_url": "https://api.github.com/users/ptschip/subscriptions",
            "organizations_url": "https://api.github.com/users/ptschip/orgs",
            "repos_url": "https://api.github.com/users/ptschip/repos",
            "events_url": "https://api.github.com/users/ptschip/events%7B/privacy%7D",
            "received_events_url": "https://api.github.com/users/ptschip/received_events",
            "type": "User",
            "site_admin": false
          },
          "labels": [
            {
              "id": 149424,
              "node_id": "MDU6TGFiZWwxNDk0MjQ=",
              "url": "https://api.github.com/repos/bitcoin/bitcoin/labels/Wallet",
              "name": "Wallet",
              "color": "08a781",
              "default": false
            }
          ],
          "assignees": [],
          "author_association": "CONTRIBUTOR",
          "locked": true,
          "active_lock_reason": "resolved",
          "comments": 3,
          "closed_at": "2016-02-16T16:58:43Z",
          "created_at": "2015-08-05T18:53:38Z",
          "updated_at": "2021-09-08T12:34:41Z"
        },
        "type": "issue"
      }
    },
    {
      "event": "cross-referenced",
      "id": null,
      "node_id": null,
      "url": null,
      "actor": {
        "login": "MarcoFalke",
        "id": 6399679,
        "node_id": "MDQ6VXNlcjYzOTk2Nzk=",
        "avatar_url": "https://avatars.githubusercontent.com/u/6399679?v=4",
        "gravatar_id": "",
        "url": "https://api.github.com/users/MarcoFalke",
        "html_url": "https://github.com/MarcoFalke",
        "followers_url": "https://api.github.com/users/MarcoFalke/followers",
        "following_url": "https://api.github.com/users/MarcoFalke/following%7B/other_user%7D",
        "gists_url": "https://api.github.com/users/MarcoFalke/gists%7B/gist_id%7D",
        "starred_url": "https://api.github.com/users/MarcoFalke/starred%7B/owner%7D%7B/repo%7D",
        "subscriptions_url": "https://api.github.com/users/MarcoFalke/subscriptions",
        "organizations_url": "https://api.github.com/users/MarcoFalke/orgs",
        "repos_url": "https://api.github.com/users/MarcoFalke/repos",
        "events_url": "https://api.github.com/users/MarcoFalke/events%7B/privacy%7D",
        "received_events_url": "https://api.github.com/users/MarcoFalke/received_events",
        "type": "User",
        "site_admin": false
      },
      "commit_id": null,
      "commit_url": null,
      "created_at": "2015-11-04T11:43:10Z",
      "updated_at": "2015-11-04T11:43:10Z",
      "source": {
        "issue": {
          "id": 115035041,
          "node_id": "MDExOlB1bGxSZXF1ZXN0NDk2Nzg0NDk=",
          "url": "https://api.github.com/repos/bitcoin/bitcoin/issues/6939",
          "repository_url": "https://api.github.com/repos/bitcoin/bitcoin",
          "labels_url": "https://api.github.com/repos/bitcoin/bitcoin/issues/6939/labels%7B/name%7D",
          "comments_url": "https://api.github.com/repos/bitcoin/bitcoin/issues/6939/comments",
          "events_url": "https://api.github.com/repos/bitcoin/bitcoin/issues/6939/events",
          "html_url": "https://github.com/bitcoin/bitcoin/pull/6939",
          "number": 6939,
          "state": "closed",
          "state_reason": null,
          "title": "[wallet] [qa] check MAX_STANDARD_TX_SIZE",
          "body": "@dexX7 wrote rpc test for this in https://github.com/bitcoin/bitcoin/issues/5782#issuecomment-73819058, but some `BOOST_CHECK` should be enough if we want this.\n",
          "user": {
            "login": "MarcoFalke",
            "id": 6399679,
            "node_id": "MDQ6VXNlcjYzOTk2Nzk=",
            "avatar_url": "https://avatars.githubusercontent.com/u/6399679?v=4",
            "gravatar_id": "",
            "url": "https://api.github.com/users/MarcoFalke",
            "html_url": "https://github.com/MarcoFalke",
            "followers_url": "https://api.github.com/users/MarcoFalke/followers",
            "following_url": "https://api.github.com/users/MarcoFalke/following%7B/other_user%7D",
            "gists_url": "https://api.github.com/users/MarcoFalke/gists%7B/gist_id%7D",
            "starred_url": "https://api.github.com/users/MarcoFalke/starred%7B/owner%7D%7B/repo%7D",
            "subscriptions_url": "https://api.github.com/users/MarcoFalke/subscriptions",
            "organizations_url": "https://api.github.com/users/MarcoFalke/orgs",
            "repos_url": "https://api.github.com/users/MarcoFalke/repos",
            "events_url": "https://api.github.com/users/MarcoFalke/events%7B/privacy%7D",
            "received_events_url": "https://api.github.com/users/MarcoFalke/received_events",
            "type": "User",
            "site_admin": false
          },
          "labels": [],
          "assignees": [],
          "author_association": "MEMBER",
          "locked": true,
          "active_lock_reason": "resolved",
          "comments": 2,
          "pull_request": {
            "url": "https://api.github.com/repos/bitcoin/bitcoin/pulls/6939",
            "html_url": "https://github.com/bitcoin/bitcoin/pull/6939",
            "diff_url": "https://github.com/bitcoin/bitcoin/pull/6939.diff",
            "patch_url": "https://github.com/bitcoin/bitcoin/pull/6939.patch"
          },
          "closed_at": "2015-11-04T15:14:51Z",
          "created_at": "2015-11-04T11:43:10Z",
          "updated_at": "2021-09-08T10:56:50Z"
        },
        "type": "issue"
      }
    },
    {
      "event": "cross-referenced",
      "id": null,
      "node_id": null,
      "url": null,
      "actor": {
        "login": "MarcoFalke",
        "id": 6399679,
        "node_id": "MDQ6VXNlcjYzOTk2Nzk=",
        "avatar_url": "https://avatars.githubusercontent.com/u/6399679?v=4",
        "gravatar_id": "",
        "url": "https://api.github.com/users/MarcoFalke",
        "html_url": "https://github.com/MarcoFalke",
        "followers_url": "https://api.github.com/users/MarcoFalke/followers",
        "following_url": "https://api.github.com/users/MarcoFalke/following%7B/other_user%7D",
        "gists_url": "https://api.github.com/users/MarcoFalke/gists%7B/gist_id%7D",
        "starred_url": "https://api.github.com/users/MarcoFalke/starred%7B/owner%7D%7B/repo%7D",
        "subscriptions_url": "https://api.github.com/users/MarcoFalke/subscriptions",
        "organizations_url": "https://api.github.com/users/MarcoFalke/orgs",
        "repos_url": "https://api.github.com/users/MarcoFalke/repos",
        "events_url": "https://api.github.com/users/MarcoFalke/events%7B/privacy%7D",
        "received_events_url": "https://api.github.com/users/MarcoFalke/received_events",
        "type": "User",
        "site_admin": false
      },
      "commit_id": null,
      "commit_url": null,
      "created_at": "2016-03-09T16:45:06Z",
      "updated_at": "2016-03-09T16:45:06Z",
      "source": {
        "issue": {
          "id": 139476719,
          "node_id": "MDU6SXNzdWUxMzk0NzY3MTk=",
          "url": "https://api.github.com/repos/bitcoin/bitcoin/issues/7657",
          "repository_url": "https://api.github.com/repos/bitcoin/bitcoin",
          "labels_url": "https://api.github.com/repos/bitcoin/bitcoin/issues/7657/labels%7B/name%7D",
          "comments_url": "https://api.github.com/repos/bitcoin/bitcoin/issues/7657/comments",
          "events_url": "https://api.github.com/repos/bitcoin/bitcoin/issues/7657/events",
          "html_url": "https://github.com/bitcoin/bitcoin/issues/7657",
          "number": 7657,
          "state": "closed",
          "state_reason": "completed",
          "title": "bitcoin 0.12's  coinselection",
          "body": "After switching to bitcoin 0.12, I'm seeing a rather concerning amount of unspent transactions:\n\n```\n$ bitcoin-cli listunspent | grep amount | wc -l\n734\n```\n\nWhich make it very painful (and expensive!) to sweep the wallet. Previously it used to hover around 10-20 unspent or so.\n\nFull dump of  [bitcoin-cli listunspent | grep amount](https://gist.github.com/RHavar/77cab9accc5c644fb64a) on bitcoin 0.12\n\nIf it helps, during the time period I have received about 2.6x as many transactions as I have sent. The average receive amount was 0.11 BTC, and average send 0.26 BTC.\n\nFrom the looks of it, it's as if it's trying to perpetually create change of 0.01 BTC, and never really inclined to spend from it. \n",
          "user": {
            "login": "RHavar",
            "id": 9326759,
            "node_id": "MDQ6VXNlcjkzMjY3NTk=",
            "avatar_url": "https://avatars.githubusercontent.com/u/9326759?v=4",
            "gravatar_id": "",
            "url": "https://api.github.com/users/RHavar",
            "html_url": "https://github.com/RHavar",
            "followers_url": "https://api.github.com/users/RHavar/followers",
            "following_url": "https://api.github.com/users/RHavar/following%7B/other_user%7D",
            "gists_url": "https://api.github.com/users/RHavar/gists%7B/gist_id%7D",
            "starred_url": "https://api.github.com/users/RHavar/starred%7B/owner%7D%7B/repo%7D",
            "subscriptions_url": "https://api.github.com/users/RHavar/subscriptions",
            "organizations_url": "https://api.github.com/users/RHavar/orgs",
            "repos_url": "https://api.github.com/users/RHavar/repos",
            "events_url": "https://api.github.com/users/RHavar/events%7B/privacy%7D",
            "received_events_url": "https://api.github.com/users/RHavar/received_events",
            "type": "User",
            "site_admin": false
          },
          "labels": [
            {
              "id": 149424,
              "node_id": "MDU6TGFiZWwxNDk0MjQ=",
              "url": "https://api.github.com/repos/bitcoin/bitcoin/labels/Wallet",
              "name": "Wallet",
              "color": "08a781",
              "default": false
            }
          ],
          "assignees": [],
          "author_association": "CONTRIBUTOR",
          "locked": true,
          "active_lock_reason": "resolved",
          "comments": 18,
          "closed_at": "2016-03-14T09:47:01Z",
          "created_at": "2016-03-09T05:05:12Z",
          "updated_at": "2021-09-08T12:23:56Z"
        },
        "type": "issue"
      }
    },
    {
      "event": "commented",
      "id": 385250511,
      "node_id": "MDEyOklzc3VlQ29tbWVudDM4NTI1MDUxMQ==",
      "url": "https://api.github.com/repos/bitcoin/bitcoin/issues/comments/385250511",
      "actor": {
        "login": "MarcoFalke",
        "id": 6399679,
        "node_id": "MDQ6VXNlcjYzOTk2Nzk=",
        "avatar_url": "https://avatars.githubusercontent.com/u/6399679?v=4",
        "gravatar_id": "",
        "url": "https://api.github.com/users/MarcoFalke",
        "html_url": "https://github.com/MarcoFalke",
        "followers_url": "https://api.github.com/users/MarcoFalke/followers",
        "following_url": "https://api.github.com/users/MarcoFalke/following%7B/other_user%7D",
        "gists_url": "https://api.github.com/users/MarcoFalke/gists%7B/gist_id%7D",
        "starred_url": "https://api.github.com/users/MarcoFalke/starred%7B/owner%7D%7B/repo%7D",
        "subscriptions_url": "https://api.github.com/users/MarcoFalke/subscriptions",
        "organizations_url": "https://api.github.com/users/MarcoFalke/orgs",
        "repos_url": "https://api.github.com/users/MarcoFalke/repos",
        "events_url": "https://api.github.com/users/MarcoFalke/events%7B/privacy%7D",
        "received_events_url": "https://api.github.com/users/MarcoFalke/received_events",
        "type": "User",
        "site_admin": false
      },
      "commit_id": null,
      "commit_url": null,
      "created_at": "2018-04-29T13:11:16Z",
      "updated_at": "2018-04-29T13:11:16Z",
      "author_association": "MEMBER",
      "body": "Is this a duplicate of  #1643?",
      "user": {
        "login": "MarcoFalke",
        "id": 6399679,
        "node_id": "MDQ6VXNlcjYzOTk2Nzk=",
        "avatar_url": "https://avatars.githubusercontent.com/u/6399679?v=4",
        "gravatar_id": "",
        "url": "https://api.github.com/users/MarcoFalke",
        "html_url": "https://github.com/MarcoFalke",
        "followers_url": "https://api.github.com/users/MarcoFalke/followers",
        "following_url": "https://api.github.com/users/MarcoFalke/following%7B/other_user%7D",
        "gists_url": "https://api.github.com/users/MarcoFalke/gists%7B/gist_id%7D",
        "starred_url": "https://api.github.com/users/MarcoFalke/starred%7B/owner%7D%7B/repo%7D",
        "subscriptions_url": "https://api.github.com/users/MarcoFalke/subscriptions",
        "organizations_url": "https://api.github.com/users/MarcoFalke/orgs",
        "repos_url": "https://api.github.com/users/MarcoFalke/repos",
        "events_url": "https://api.github.com/users/MarcoFalke/events%7B/privacy%7D",
        "received_events_url": "https://api.github.com/users/MarcoFalke/received_events",
        "type": "User",
        "site_admin": false
      },
      "html_url": "https://github.com/bitcoin/bitcoin/issues/5782#issuecomment-385250511",
      "issue_url": "https://api.github.com/repos/bitcoin/bitcoin/issues/5782"
    },
    {
      "event": "commented",
      "id": 385290023,
      "node_id": "MDEyOklzc3VlQ29tbWVudDM4NTI5MDAyMw==",
      "url": "https://api.github.com/repos/bitcoin/bitcoin/issues/comments/385290023",
      "actor": {
        "login": "dexX7",
        "id": 5836089,
        "node_id": "MDQ6VXNlcjU4MzYwODk=",
        "avatar_url": "https://avatars.githubusercontent.com/u/5836089?v=4",
        "gravatar_id": "",
        "url": "https://api.github.com/users/dexX7",
        "html_url": "https://github.com/dexX7",
        "followers_url": "https://api.github.com/users/dexX7/followers",
        "following_url": "https://api.github.com/users/dexX7/following%7B/other_user%7D",
        "gists_url": "https://api.github.com/users/dexX7/gists%7B/gist_id%7D",
        "starred_url": "https://api.github.com/users/dexX7/starred%7B/owner%7D%7B/repo%7D",
        "subscriptions_url": "https://api.github.com/users/dexX7/subscriptions",
        "organizations_url": "https://api.github.com/users/dexX7/orgs",
        "repos_url": "https://api.github.com/users/dexX7/repos",
        "events_url": "https://api.github.com/users/dexX7/events%7B/privacy%7D",
        "received_events_url": "https://api.github.com/users/dexX7/received_events",
        "type": "User",
        "site_admin": false
      },
      "commit_id": null,
      "commit_url": null,
      "created_at": "2018-04-29T23:25:54Z",
      "updated_at": "2018-04-29T23:25:54Z",
      "author_association": "CONTRIBUTOR",
      "body": "@MarcoFalke: looks like both issues tackle coin selection, while @dooglus' is about minimizing fees, mine is about making sure the transaction creation doesn't fail to begin with. Though optimizing fees also results in small transactions.\r\n\r\nWhat's on top: there isn't a check during coin selection, whether the transaction is still within MAX_STANDARD_TX_SIZE.",
      "user": {
        "login": "dexX7",
        "id": 5836089,
        "node_id": "MDQ6VXNlcjU4MzYwODk=",
        "avatar_url": "https://avatars.githubusercontent.com/u/5836089?v=4",
        "gravatar_id": "",
        "url": "https://api.github.com/users/dexX7",
        "html_url": "https://github.com/dexX7",
        "followers_url": "https://api.github.com/users/dexX7/followers",
        "following_url": "https://api.github.com/users/dexX7/following%7B/other_user%7D",
        "gists_url": "https://api.github.com/users/dexX7/gists%7B/gist_id%7D",
        "starred_url": "https://api.github.com/users/dexX7/starred%7B/owner%7D%7B/repo%7D",
        "subscriptions_url": "https://api.github.com/users/dexX7/subscriptions",
        "organizations_url": "https://api.github.com/users/dexX7/orgs",
        "repos_url": "https://api.github.com/users/dexX7/repos",
        "events_url": "https://api.github.com/users/dexX7/events%7B/privacy%7D",
        "received_events_url": "https://api.github.com/users/dexX7/received_events",
        "type": "User",
        "site_admin": false
      },
      "html_url": "https://github.com/bitcoin/bitcoin/issues/5782#issuecomment-385290023",
      "issue_url": "https://api.github.com/repos/bitcoin/bitcoin/issues/5782"
    },
    {
      "event": "mentioned",
      "id": 1600734159,
      "node_id": "MDE0Ok1lbnRpb25lZEV2ZW50MTYwMDczNDE1OQ==",
      "url": "https://api.github.com/repos/bitcoin/bitcoin/issues/events/1600734159",
      "actor": {
        "login": "MarcoFalke",
        "id": 6399679,
        "node_id": "MDQ6VXNlcjYzOTk2Nzk=",
        "avatar_url": "https://avatars.githubusercontent.com/u/6399679?v=4",
        "gravatar_id": "",
        "url": "https://api.github.com/users/MarcoFalke",
        "html_url": "https://github.com/MarcoFalke",
        "followers_url": "https://api.github.com/users/MarcoFalke/followers",
        "following_url": "https://api.github.com/users/MarcoFalke/following%7B/other_user%7D",
        "gists_url": "https://api.github.com/users/MarcoFalke/gists%7B/gist_id%7D",
        "starred_url": "https://api.github.com/users/MarcoFalke/starred%7B/owner%7D%7B/repo%7D",
        "subscriptions_url": "https://api.github.com/users/MarcoFalke/subscriptions",
        "organizations_url": "https://api.github.com/users/MarcoFalke/orgs",
        "repos_url": "https://api.github.com/users/MarcoFalke/repos",
        "events_url": "https://api.github.com/users/MarcoFalke/events%7B/privacy%7D",
        "received_events_url": "https://api.github.com/users/MarcoFalke/received_events",
        "type": "User",
        "site_admin": false
      },
      "commit_id": null,
      "commit_url": null,
      "created_at": "2018-04-29T23:25:54Z"
    },
    {
      "event": "subscribed",
      "id": 1600734160,
      "node_id": "MDE1OlN1YnNjcmliZWRFdmVudDE2MDA3MzQxNjA=",
      "url": "https://api.github.com/repos/bitcoin/bitcoin/issues/events/1600734160",
      "actor": {
        "login": "MarcoFalke",
        "id": 6399679,
        "node_id": "MDQ6VXNlcjYzOTk2Nzk=",
        "avatar_url": "https://avatars.githubusercontent.com/u/6399679?v=4",
        "gravatar_id": "",
        "url": "https://api.github.com/users/MarcoFalke",
        "html_url": "https://github.com/MarcoFalke",
        "followers_url": "https://api.github.com/users/MarcoFalke/followers",
        "following_url": "https://api.github.com/users/MarcoFalke/following%7B/other_user%7D",
        "gists_url": "https://api.github.com/users/MarcoFalke/gists%7B/gist_id%7D",
        "starred_url": "https://api.github.com/users/MarcoFalke/starred%7B/owner%7D%7B/repo%7D",
        "subscriptions_url": "https://api.github.com/users/MarcoFalke/subscriptions",
        "organizations_url": "https://api.github.com/users/MarcoFalke/orgs",
        "repos_url": "https://api.github.com/users/MarcoFalke/repos",
        "events_url": "https://api.github.com/users/MarcoFalke/events%7B/privacy%7D",
        "received_events_url": "https://api.github.com/users/MarcoFalke/received_events",
        "type": "User",
        "site_admin": false
      },
      "commit_id": null,
      "commit_url": null,
      "created_at": "2018-04-29T23:25:54Z"
    },
    {
      "event": "mentioned",
      "id": 1600734161,
      "node_id": "MDE0Ok1lbnRpb25lZEV2ZW50MTYwMDczNDE2MQ==",
      "url": "https://api.github.com/repos/bitcoin/bitcoin/issues/events/1600734161",
      "actor": {
        "login": "dooglus",
        "id": 573356,
        "node_id": "MDQ6VXNlcjU3MzM1Ng==",
        "avatar_url": "https://avatars.githubusercontent.com/u/573356?v=4",
        "gravatar_id": "",
        "url": "https://api.github.com/users/dooglus",
        "html_url": "https://github.com/dooglus",
        "followers_url": "https://api.github.com/users/dooglus/followers",
        "following_url": "https://api.github.com/users/dooglus/following%7B/other_user%7D",
        "gists_url": "https://api.github.com/users/dooglus/gists%7B/gist_id%7D",
        "starred_url": "https://api.github.com/users/dooglus/starred%7B/owner%7D%7B/repo%7D",
        "subscriptions_url": "https://api.github.com/users/dooglus/subscriptions",
        "organizations_url": "https://api.github.com/users/dooglus/orgs",
        "repos_url": "https://api.github.com/users/dooglus/repos",
        "events_url": "https://api.github.com/users/dooglus/events%7B/privacy%7D",
        "received_events_url": "https://api.github.com/users/dooglus/received_events",
        "type": "User",
        "site_admin": false
      },
      "commit_id": null,
      "commit_url": null,
      "created_at": "2018-04-29T23:25:54Z"
    },
    {
      "event": "subscribed",
      "id": 1600734162,
      "node_id": "MDE1OlN1YnNjcmliZWRFdmVudDE2MDA3MzQxNjI=",
      "url": "https://api.github.com/repos/bitcoin/bitcoin/issues/events/1600734162",
      "actor": {
        "login": "dooglus",
        "id": 573356,
        "node_id": "MDQ6VXNlcjU3MzM1Ng==",
        "avatar_url": "https://avatars.githubusercontent.com/u/573356?v=4",
        "gravatar_id": "",
        "url": "https://api.github.com/users/dooglus",
        "html_url": "https://github.com/dooglus",
        "followers_url": "https://api.github.com/users/dooglus/followers",
        "following_url": "https://api.github.com/users/dooglus/following%7B/other_user%7D",
        "gists_url": "https://api.github.com/users/dooglus/gists%7B/gist_id%7D",
        "starred_url": "https://api.github.com/users/dooglus/starred%7B/owner%7D%7B/repo%7D",
        "subscriptions_url": "https://api.github.com/users/dooglus/subscriptions",
        "organizations_url": "https://api.github.com/users/dooglus/orgs",
        "repos_url": "https://api.github.com/users/dooglus/repos",
        "events_url": "https://api.github.com/users/dooglus/events%7B/privacy%7D",
        "received_events_url": "https://api.github.com/users/dooglus/received_events",
        "type": "User",
        "site_admin": false
      },
      "commit_id": null,
      "commit_url": null,
      "created_at": "2018-04-29T23:25:54Z"
    },
    {
      "event": "cross-referenced",
      "id": null,
      "node_id": null,
      "url": null,
      "actor": {
        "login": "cryptozeny",
        "id": 37016180,
        "node_id": "MDQ6VXNlcjM3MDE2MTgw",
        "avatar_url": "https://avatars.githubusercontent.com/u/37016180?v=4",
        "gravatar_id": "",
        "url": "https://api.github.com/users/cryptozeny",
        "html_url": "https://github.com/cryptozeny",
        "followers_url": "https://api.github.com/users/cryptozeny/followers",
        "following_url": "https://api.github.com/users/cryptozeny/following%7B/other_user%7D",
        "gists_url": "https://api.github.com/users/cryptozeny/gists%7B/gist_id%7D",
        "starred_url": "https://api.github.com/users/cryptozeny/starred%7B/owner%7D%7B/repo%7D",
        "subscriptions_url": "https://api.github.com/users/cryptozeny/subscriptions",
        "organizations_url": "https://api.github.com/users/cryptozeny/orgs",
        "repos_url": "https://api.github.com/users/cryptozeny/repos",
        "events_url": "https://api.github.com/users/cryptozeny/events%7B/privacy%7D",
        "received_events_url": "https://api.github.com/users/cryptozeny/received_events",
        "type": "User",
        "site_admin": false
      },
      "commit_id": null,
      "commit_url": null,
      "created_at": "2019-12-26T12:10:53Z",
      "updated_at": "2019-12-26T12:10:53Z",
      "source": {
        "issue": {
          "id": 538149566,
          "node_id": "MDU6SXNzdWU1MzgxNDk1NjY=",
          "url": "https://api.github.com/repos/sugarchain-project/sugarchain/issues/28",
          "repository_url": "https://api.github.com/repos/sugarchain-project/sugarchain",
          "labels_url": "https://api.github.com/repos/sugarchain-project/sugarchain/issues/28/labels%7B/name%7D",
          "comments_url": "https://api.github.com/repos/sugarchain-project/sugarchain/issues/28/comments",
          "events_url": "https://api.github.com/repos/sugarchain-project/sugarchain/issues/28/events",
          "html_url": "https://github.com/sugarchain-project/sugarchain/issues/28",
          "number": 28,
          "state": "open",
          "state_reason": null,
          "title": "Transaction too large",
          "body": "```\r\n    // Extremely large transactions with lots of inputs can cost the network\r\n    // almost as much to process as they cost the sender in fees, because\r\n    // computing signature hashes is O(ninputs*txsize). Limiting transactions\r\n    // to MAX_STANDARD_TX_WEIGHT mitigates CPU exhaustion attacks.\r\n```\r\nhttps://github.com/bitcoin/bitcoin/issues/6522\r\n\r\nhttps://github.com/sugarchain-project/sugarchain/blob/master-v0.16.3/src/policy/policy.cpp#L89-L97\r\n\r\nhttps://github.com/sugarchain-project/sugarchain/blob/master-v0.16.3/src/wallet/wallet.cpp#L2991-L2996\r\n\r\n```cpp\r\nsrc/policy/policy.h:static const unsigned int MAX_STANDARD_TX_WEIGHT = 400000;\r\n```\r\n\r\nits common issue on BTC based blockchain. it will fixed in `Schnorr Signature` update.\r\n",
          "user": {
            "login": "cryptozeny",
            "id": 37016180,
            "node_id": "MDQ6VXNlcjM3MDE2MTgw",
            "avatar_url": "https://avatars.githubusercontent.com/u/37016180?v=4",
            "gravatar_id": "",
            "url": "https://api.github.com/users/cryptozeny",
            "html_url": "https://github.com/cryptozeny",
            "followers_url": "https://api.github.com/users/cryptozeny/followers",
            "following_url": "https://api.github.com/users/cryptozeny/following%7B/other_user%7D",
            "gists_url": "https://api.github.com/users/cryptozeny/gists%7B/gist_id%7D",
            "starred_url": "https://api.github.com/users/cryptozeny/starred%7B/owner%7D%7B/repo%7D",
            "subscriptions_url": "https://api.github.com/users/cryptozeny/subscriptions",
            "organizations_url": "https://api.github.com/users/cryptozeny/orgs",
            "repos_url": "https://api.github.com/users/cryptozeny/repos",
            "events_url": "https://api.github.com/users/cryptozeny/events%7B/privacy%7D",
            "received_events_url": "https://api.github.com/users/cryptozeny/received_events",
            "type": "User",
            "site_admin": false
          },
          "labels": [
            {
              "id": 1511539582,
              "node_id": "MDU6TGFiZWwxNTExNTM5NTgy",
              "url": "https://api.github.com/repos/sugarchain-project/sugarchain/labels/enhancement",
              "name": "enhancement",
              "description": "New feature or request",
              "color": "a2eeef",
              "default": true
            },
            {
              "id": 1511539583,
              "node_id": "MDU6TGFiZWwxNTExNTM5NTgz",
              "url": "https://api.github.com/repos/sugarchain-project/sugarchain/labels/help%20wanted",
              "name": "help wanted",
              "description": "Extra attention is needed",
              "color": "008672",
              "default": true
            }
          ],
          "assignee": {
            "login": "volbil",
            "id": 8951070,
            "node_id": "MDQ6VXNlcjg5NTEwNzA=",
            "avatar_url": "https://avatars.githubusercontent.com/u/8951070?v=4",
            "gravatar_id": "",
            "url": "https://api.github.com/users/volbil",
            "html_url": "https://github.com/volbil",
            "followers_url": "https://api.github.com/users/volbil/followers",
            "following_url": "https://api.github.com/users/volbil/following%7B/other_user%7D",
            "gists_url": "https://api.github.com/users/volbil/gists%7B/gist_id%7D",
            "starred_url": "https://api.github.com/users/volbil/starred%7B/owner%7D%7B/repo%7D",
            "subscriptions_url": "https://api.github.com/users/volbil/subscriptions",
            "organizations_url": "https://api.github.com/users/volbil/orgs",
            "repos_url": "https://api.github.com/users/volbil/repos",
            "events_url": "https://api.github.com/users/volbil/events%7B/privacy%7D",
            "received_events_url": "https://api.github.com/users/volbil/received_events",
            "type": "User",
            "site_admin": false
          },
          "assignees": [
            {
              "login": "volbil",
              "id": 8951070,
              "node_id": "MDQ6VXNlcjg5NTEwNzA=",
              "avatar_url": "https://avatars.githubusercontent.com/u/8951070?v=4",
              "gravatar_id": "",
              "url": "https://api.github.com/users/volbil",
              "html_url": "https://github.com/volbil",
              "followers_url": "https://api.github.com/users/volbil/followers",
              "following_url": "https://api.github.com/users/volbil/following%7B/other_user%7D",
              "gists_url": "https://api.github.com/users/volbil/gists%7B/gist_id%7D",
              "starred_url": "https://api.github.com/users/volbil/starred%7B/owner%7D%7B/repo%7D",
              "subscriptions_url": "https://api.github.com/users/volbil/subscriptions",
              "organizations_url": "https://api.github.com/users/volbil/orgs",
              "repos_url": "https://api.github.com/users/volbil/repos",
              "events_url": "https://api.github.com/users/volbil/events%7B/privacy%7D",
              "received_events_url": "https://api.github.com/users/volbil/received_events",
              "type": "User",
              "site_admin": false
            }
          ],
          "author_association": "MEMBER",
          "locked": false,
          "comments": 4,
          "created_at": "2019-12-16T02:20:26Z",
          "updated_at": "2020-06-10T20:56:29Z"
        },
        "type": "issue"
      }
    },
    {
      "event": "commented",
      "id": 1194201017,
      "node_id": "IC_kwDOABII585HLg-5",
      "url": "https://api.github.com/repos/bitcoin/bitcoin/issues/comments/1194201017",
      "actor": {
        "login": "murchandamus",
        "id": 4060799,
        "node_id": "MDQ6VXNlcjQwNjA3OTk=",
        "avatar_url": "https://avatars.githubusercontent.com/u/4060799?v=4",
        "gravatar_id": "",
        "url": "https://api.github.com/users/murchandamus",
        "html_url": "https://github.com/murchandamus",
        "followers_url": "https://api.github.com/users/murchandamus/followers",
        "following_url": "https://api.github.com/users/murchandamus/following%7B/other_user%7D",
        "gists_url": "https://api.github.com/users/murchandamus/gists%7B/gist_id%7D",
        "starred_url": "https://api.github.com/users/murchandamus/starred%7B/owner%7D%7B/repo%7D",
        "subscriptions_url": "https://api.github.com/users/murchandamus/subscriptions",
        "organizations_url": "https://api.github.com/users/murchandamus/orgs",
        "repos_url": "https://api.github.com/users/murchandamus/repos",
        "events_url": "https://api.github.com/users/murchandamus/events%7B/privacy%7D",
        "received_events_url": "https://api.github.com/users/murchandamus/received_events",
        "type": "User",
        "site_admin": false
      },
      "commit_id": null,
      "commit_url": null,
      "created_at": "2022-07-25T15:27:26Z",
      "updated_at": "2022-07-25T15:27:26Z",
      "author_association": "CONTRIBUTOR",
      "body": "From a quick glance, it looks to me that we still not check for the maximum weight during coin selection. So, while the much lighter modern input types make it even less likely that the max weight would be hit and at high feerates we deliberately aim for a small input weight, I don't think that we currently explicitly prevent that outcome during coin selection when it's in the consolidatory feerate range.\r\n\r\nIt would probably be a good first issue to check whether a selection result will be smaller than the maximum weight and to discard a selection result if not. Hopefully the other selection result candidates or a later back-off iteration would find a solution that fits then, but a slightly more involved task could be to add logic that guides coin selection to avoid exceeding the maximum weight if possible.",
      "user": {
        "login": "murchandamus",
        "id": 4060799,
        "node_id": "MDQ6VXNlcjQwNjA3OTk=",
        "avatar_url": "https://avatars.githubusercontent.com/u/4060799?v=4",
        "gravatar_id": "",
        "url": "https://api.github.com/users/murchandamus",
        "html_url": "https://github.com/murchandamus",
        "followers_url": "https://api.github.com/users/murchandamus/followers",
        "following_url": "https://api.github.com/users/murchandamus/following%7B/other_user%7D",
        "gists_url": "https://api.github.com/users/murchandamus/gists%7B/gist_id%7D",
        "starred_url": "https://api.github.com/users/murchandamus/starred%7B/owner%7D%7B/repo%7D",
        "subscriptions_url": "https://api.github.com/users/murchandamus/subscriptions",
        "organizations_url": "https://api.github.com/users/murchandamus/orgs",
        "repos_url": "https://api.github.com/users/murchandamus/repos",
        "events_url": "https://api.github.com/users/murchandamus/events%7B/privacy%7D",
        "received_events_url": "https://api.github.com/users/murchandamus/received_events",
        "type": "User",
        "site_admin": false
      },
      "html_url": "https://github.com/bitcoin/bitcoin/issues/5782#issuecomment-1194201017",
      "issue_url": "https://api.github.com/repos/bitcoin/bitcoin/issues/5782"
    },
    {
      "event": "cross-referenced",
      "id": null,
      "node_id": null,
      "url": null,
      "actor": {
        "login": "aureleoules",
        "id": 22493292,
        "node_id": "MDQ6VXNlcjIyNDkzMjky",
        "avatar_url": "https://avatars.githubusercontent.com/u/22493292?v=4",
        "gravatar_id": "",
        "url": "https://api.github.com/users/aureleoules",
        "html_url": "https://github.com/aureleoules",
        "followers_url": "https://api.github.com/users/aureleoules/followers",
        "following_url": "https://api.github.com/users/aureleoules/following%7B/other_user%7D",
        "gists_url": "https://api.github.com/users/aureleoules/gists%7B/gist_id%7D",
        "starred_url": "https://api.github.com/users/aureleoules/starred%7B/owner%7D%7B/repo%7D",
        "subscriptions_url": "https://api.github.com/users/aureleoules/subscriptions",
        "organizations_url": "https://api.github.com/users/aureleoules/orgs",
        "repos_url": "https://api.github.com/users/aureleoules/repos",
        "events_url": "https://api.github.com/users/aureleoules/events%7B/privacy%7D",
        "received_events_url": "https://api.github.com/users/aureleoules/received_events",
        "type": "User",
        "site_admin": false
      },
      "commit_id": null,
      "commit_url": null,
      "created_at": "2022-07-28T12:33:06Z",
      "updated_at": "2022-07-28T12:33:06Z",
      "source": {
        "issue": {
          "id": 1320863837,
          "node_id": "PR_kwDOABII5848PxGI",
          "url": "https://api.github.com/repos/bitcoin/bitcoin/issues/25729",
          "repository_url": "https://api.github.com/repos/bitcoin/bitcoin",
          "labels_url": "https://api.github.com/repos/bitcoin/bitcoin/issues/25729/labels%7B/name%7D",
          "comments_url": "https://api.github.com/repos/bitcoin/bitcoin/issues/25729/comments",
          "events_url": "https://api.github.com/repos/bitcoin/bitcoin/issues/25729/events",
          "html_url": "https://github.com/bitcoin/bitcoin/pull/25729",
          "number": 25729,
          "state": "closed",
          "state_reason": null,
          "title": "wallet: Check max transaction weight in CoinSelection",
          "body": "This PR is an attempt to fix #5782.\r\n\r\nI have added 4 test scenarios, 3 of them provided here https://github.com/bitcoin/bitcoin/issues/5782#issuecomment-73819058 (slightly modified to use a segwit wallet).\r\n\r\nHere are my benchmarks : \r\n## PR\r\n|               ns/op |                op/s |    err% |          ins/op |          cyc/op |    IPC |         bra/op |   miss% |     total | benchmark\r\n|--------------------:|--------------------:|--------:|----------------:|----------------:|-------:|---------------:|--------:|----------:|:----------\r\n|        1,466,341.00 |              681.97 |    0.6% |   11,176,762.00 |    3,358,752.00 |  3.328 |   1,897,839.00 |    0.3% |      0.02 | `CoinSelection`\r\n\r\n## Master\r\n\r\n|               ns/op |                op/s |    err% |          ins/op |          cyc/op |    IPC |         bra/op |   miss% |     total | benchmark\r\n|--------------------:|--------------------:|--------:|----------------:|----------------:|-------:|---------------:|--------:|----------:|:----------\r\n|        1,526,029.00 |              655.30 |    0.5% |   11,142,188.00 |    3,499,200.00 |  3.184 |   1,994,156.00 |    0.2% |      0.02 | `CoinSelection`",
          "user": {
            "login": "aureleoules",
            "id": 22493292,
            "node_id": "MDQ6VXNlcjIyNDkzMjky",
            "avatar_url": "https://avatars.githubusercontent.com/u/22493292?v=4",
            "gravatar_id": "",
            "url": "https://api.github.com/users/aureleoules",
            "html_url": "https://github.com/aureleoules",
            "followers_url": "https://api.github.com/users/aureleoules/followers",
            "following_url": "https://api.github.com/users/aureleoules/following%7B/other_user%7D",
            "gists_url": "https://api.github.com/users/aureleoules/gists%7B/gist_id%7D",
            "starred_url": "https://api.github.com/users/aureleoules/starred%7B/owner%7D%7B/repo%7D",
            "subscriptions_url": "https://api.github.com/users/aureleoules/subscriptions",
            "organizations_url": "https://api.github.com/users/aureleoules/orgs",
            "repos_url": "https://api.github.com/users/aureleoules/repos",
            "events_url": "https://api.github.com/users/aureleoules/events%7B/privacy%7D",
            "received_events_url": "https://api.github.com/users/aureleoules/received_events",
            "type": "User",
            "site_admin": false
          },
          "labels": [
            {
              "id": 149424,
              "node_id": "MDU6TGFiZWwxNDk0MjQ=",
              "url": "https://api.github.com/repos/bitcoin/bitcoin/labels/Wallet",
              "name": "Wallet",
              "color": "08a781",
              "default": false
            }
          ],
          "assignees": [],
          "author_association": "MEMBER",
          "locked": false,
          "comments": 28,
          "pull_request": {
            "url": "https://api.github.com/repos/bitcoin/bitcoin/pulls/25729",
            "html_url": "https://github.com/bitcoin/bitcoin/pull/25729",
            "diff_url": "https://github.com/bitcoin/bitcoin/pull/25729.diff",
            "patch_url": "https://github.com/bitcoin/bitcoin/pull/25729.patch"
          },
          "closed_at": "2022-12-06T17:09:51Z",
          "created_at": "2022-07-28T12:33:06Z",
          "updated_at": "2023-01-12T11:51:43Z"
        },
        "type": "issue"
      }
    },
    {
      "event": "referenced",
      "id": 7968839118,
      "node_id": "REFE_lADOABII584DaCTlzwAAAAHa-tXO",
      "url": "https://api.github.com/repos/bitcoin/bitcoin/issues/events/7968839118",
      "actor": {
        "login": "achow101",
        "id": 3782274,
        "node_id": "MDQ6VXNlcjM3ODIyNzQ=",
        "avatar_url": "https://avatars.githubusercontent.com/u/3782274?v=4",
        "gravatar_id": "",
        "url": "https://api.github.com/users/achow101",
        "html_url": "https://github.com/achow101",
        "followers_url": "https://api.github.com/users/achow101/followers",
        "following_url": "https://api.github.com/users/achow101/following%7B/other_user%7D",
        "gists_url": "https://api.github.com/users/achow101/gists%7B/gist_id%7D",
        "starred_url": "https://api.github.com/users/achow101/starred%7B/owner%7D%7B/repo%7D",
        "subscriptions_url": "https://api.github.com/users/achow101/subscriptions",
        "organizations_url": "https://api.github.com/users/achow101/orgs",
        "repos_url": "https://api.github.com/users/achow101/repos",
        "events_url": "https://api.github.com/users/achow101/events%7B/privacy%7D",
        "received_events_url": "https://api.github.com/users/achow101/received_events",
        "type": "User",
        "site_admin": false
      },
      "commit_id": "ef744c03e56deb5d6e83ec94d105b9fca562c21d",
      "commit_url": "https://api.github.com/repos/bitcoin-core/gui/commits/ef744c03e56deb5d6e83ec94d105b9fca562c21d",
      "created_at": "2022-12-06T17:09:06Z"
    },
    {
      "event": "closed",
      "id": 7968844101,
      "node_id": "CE_lADOABII584DaCTlzwAAAAHa-ulF",
      "url": "https://api.github.com/repos/bitcoin/bitcoin/issues/events/7968844101",
      "actor": {
        "login": "achow101",
        "id": 3782274,
        "node_id": "MDQ6VXNlcjM3ODIyNzQ=",
        "avatar_url": "https://avatars.githubusercontent.com/u/3782274?v=4",
        "gravatar_id": "",
        "url": "https://api.github.com/users/achow101",
        "html_url": "https://github.com/achow101",
        "followers_url": "https://api.github.com/users/achow101/followers",
        "following_url": "https://api.github.com/users/achow101/following%7B/other_user%7D",
        "gists_url": "https://api.github.com/users/achow101/gists%7B/gist_id%7D",
        "starred_url": "https://api.github.com/users/achow101/starred%7B/owner%7D%7B/repo%7D",
        "subscriptions_url": "https://api.github.com/users/achow101/subscriptions",
        "organizations_url": "https://api.github.com/users/achow101/orgs",
        "repos_url": "https://api.github.com/users/achow101/repos",
        "events_url": "https://api.github.com/users/achow101/events%7B/privacy%7D",
        "received_events_url": "https://api.github.com/users/achow101/received_events",
        "type": "User",
        "site_admin": false
      },
      "commit_id": "ef744c03e56deb5d6e83ec94d105b9fca562c21d",
      "commit_url": "https://api.github.com/repos/bitcoin/bitcoin/commits/ef744c03e56deb5d6e83ec94d105b9fca562c21d",
      "created_at": "2022-12-06T17:09:39Z"
    }
  ]
}